\relax 
\citation{ip_measurement}
\citation{ip_analysis}
\citation{ip_modeling}
\citation{Iliofotou:2009:EDG:1658939.1658967}
\citation{Eberle:2007:ADD:1368018.1368024}
\citation{multiscale_ip_traffic}
\citation{borgnat_signal}
\citation{Guralnik:1999:EDT:312129.312190}
\citation{graph_wavelets}
\citation{Broido01internettopology}
\citation{graph_snapshots}
\citation{modeling_analysis_graphs}
\citation{lamia_infocom}
\citation{temp_scale_dynnet}
\citation{thomas_LIP64707}
\citation{temp_scale_dynnet}
\citation{thomas_LIP64707}
\citation{Hulten:2001:MTD:502512.502529}
\citation{attack_behaviour}
\@writefile{toc}{\contentsline {section}{\numberline {I}Introduction}{1}}
\newlabel{intro}{{I}{1}}
\@writefile{toc}{\contentsline {section}{\numberline {II}Framework}{1}}
\@writefile{toc}{\contentsline {subsection}{\numberline {\unhbox \voidb@x \hbox {II-A}}Degree}{1}}
\citation{tcs}
\citation{ditl}
\citation{mawilab}
\bibstyle{plain}
\bibdata{bare_conf}
\@writefile{toc}{\contentsline {subsection}{\numberline {\unhbox \voidb@x \hbox {II-B}}Density}{2}}
\@writefile{toc}{\contentsline {subsection}{\numberline {\unhbox \voidb@x \hbox {II-C}}Clustering coefficient}{2}}
\@writefile{toc}{\contentsline {subsection}{\numberline {\unhbox \voidb@x \hbox {II-D}}Cliques}{2}}
\@writefile{toc}{\contentsline {subsection}{\numberline {\unhbox \voidb@x \hbox {II-E}}Projection}{2}}
\@writefile{toc}{\contentsline {section}{\numberline {III}Analysis of IP traffic}{2}}
\@writefile{toc}{\contentsline {subsection}{\numberline {\unhbox \voidb@x \hbox {III-A}}Dataset}{2}}
\@writefile{toc}{\contentsline {subsubsection}{\numberline {\unhbox \voidb@x \hbox {III-A}1}IP traffic as a link stream}{2}}
\@writefile{toc}{\contentsline {subsection}{\numberline {\unhbox \voidb@x \hbox {III-B}}Methodology}{2}}
\@writefile{toc}{\contentsline {subsection}{\numberline {\unhbox \voidb@x \hbox {III-C}}Results}{2}}
\@writefile{toc}{\contentsline {subsection}{\numberline {\unhbox \voidb@x \hbox {III-D}}Cross-validation with MAWILab}{2}}
\@writefile{toc}{\contentsline {section}{\numberline {IV}Related Work}{2}}
\@writefile{toc}{\contentsline {section}{\numberline {V}Conclusion}{2}}
\@writefile{toc}{\contentsline {section}{\numberline {VI}Acknowledgments}{2}}
