%!PS-Adobe-2.0
%%Title: packets-uv-log-packets-uv-s-dist-loglog.eps
%%Creator: gnuplot 5.0 patchlevel 3
%%CreationDate: Mon May 29 11:10:24 2017
%%DocumentFonts: (atend)
%%BoundingBox: 50 50 554 770
%%Orientation: Landscape
%%Pages: (atend)
%%EndComments
%%BeginProlog
/gnudict 256 dict def
gnudict begin
%
% The following true/false flags may be edited by hand if desired.
% The unit line width and grayscale image gamma correction may also be changed.
%
/Color true def
/Blacktext false def
/Solid false def
/Dashlength 1 def
/Landscape true def
/Level1 false def
/Level3 false def
/Rounded false def
/ClipToBoundingBox false def
/SuppressPDFMark false def
/TransparentPatterns false def
/gnulinewidth 5.000 def
/userlinewidth gnulinewidth def
/Gamma 1.0 def
/BackgroundColor {-1.000 -1.000 -1.000} def
%
/vshift -46 def
/dl1 {
  10.0 Dashlength userlinewidth gnulinewidth div mul mul mul
  Rounded { currentlinewidth 0.75 mul sub dup 0 le { pop 0.01 } if } if
} def
/dl2 {
  10.0 Dashlength userlinewidth gnulinewidth div mul mul mul
  Rounded { currentlinewidth 0.75 mul add } if
} def
/hpt_ 31.5 def
/vpt_ 31.5 def
/hpt hpt_ def
/vpt vpt_ def
/doclip {
  ClipToBoundingBox {
    newpath 50 50 moveto 554 50 lineto 554 770 lineto 50 770 lineto closepath
    clip
  } if
} def
%
% Gnuplot Prolog Version 5.1 (Oct 2015)
%
%/SuppressPDFMark true def
%
/M {moveto} bind def
/L {lineto} bind def
/R {rmoveto} bind def
/V {rlineto} bind def
/N {newpath moveto} bind def
/Z {closepath} bind def
/C {setrgbcolor} bind def
/f {rlineto fill} bind def
/g {setgray} bind def
/Gshow {show} def   % May be redefined later in the file to support UTF-8
/vpt2 vpt 2 mul def
/hpt2 hpt 2 mul def
/Lshow {currentpoint stroke M 0 vshift R 
	Blacktext {gsave 0 setgray textshow grestore} {textshow} ifelse} def
/Rshow {currentpoint stroke M dup stringwidth pop neg vshift R
	Blacktext {gsave 0 setgray textshow grestore} {textshow} ifelse} def
/Cshow {currentpoint stroke M dup stringwidth pop -2 div vshift R 
	Blacktext {gsave 0 setgray textshow grestore} {textshow} ifelse} def
/UP {dup vpt_ mul /vpt exch def hpt_ mul /hpt exch def
  /hpt2 hpt 2 mul def /vpt2 vpt 2 mul def} def
/DL {Color {setrgbcolor Solid {pop []} if 0 setdash}
 {pop pop pop 0 setgray Solid {pop []} if 0 setdash} ifelse} def
/BL {stroke userlinewidth 2 mul setlinewidth
	Rounded {1 setlinejoin 1 setlinecap} if} def
/AL {stroke userlinewidth 2 div setlinewidth
	Rounded {1 setlinejoin 1 setlinecap} if} def
/UL {dup gnulinewidth mul /userlinewidth exch def
	dup 1 lt {pop 1} if 10 mul /udl exch def} def
/PL {stroke userlinewidth setlinewidth
	Rounded {1 setlinejoin 1 setlinecap} if} def
3.8 setmiterlimit
% Classic Line colors (version 5.0)
/LCw {1 1 1} def
/LCb {0 0 0} def
/LCa {0 0 0} def
/LC0 {1 0 0} def
/LC1 {0 1 0} def
/LC2 {0 0 1} def
/LC3 {1 0 1} def
/LC4 {0 1 1} def
/LC5 {1 1 0} def
/LC6 {0 0 0} def
/LC7 {1 0.3 0} def
/LC8 {0.5 0.5 0.5} def
% Default dash patterns (version 5.0)
/LTB {BL [] LCb DL} def
/LTw {PL [] 1 setgray} def
/LTb {PL [] LCb DL} def
/LTa {AL [1 udl mul 2 udl mul] 0 setdash LCa setrgbcolor} def
/LT0 {PL [] LC0 DL} def
/LT1 {PL [2 dl1 3 dl2] LC1 DL} def
/LT2 {PL [1 dl1 1.5 dl2] LC2 DL} def
/LT3 {PL [6 dl1 2 dl2 1 dl1 2 dl2] LC3 DL} def
/LT4 {PL [1 dl1 2 dl2 6 dl1 2 dl2 1 dl1 2 dl2] LC4 DL} def
/LT5 {PL [4 dl1 2 dl2] LC5 DL} def
/LT6 {PL [1.5 dl1 1.5 dl2 1.5 dl1 1.5 dl2 1.5 dl1 6 dl2] LC6 DL} def
/LT7 {PL [3 dl1 3 dl2 1 dl1 3 dl2] LC7 DL} def
/LT8 {PL [2 dl1 2 dl2 2 dl1 6 dl2] LC8 DL} def
/SL {[] 0 setdash} def
/Pnt {stroke [] 0 setdash gsave 1 setlinecap M 0 0 V stroke grestore} def
/Dia {stroke [] 0 setdash 2 copy vpt add M
  hpt neg vpt neg V hpt vpt neg V
  hpt vpt V hpt neg vpt V closepath stroke
  Pnt} def
/Pls {stroke [] 0 setdash vpt sub M 0 vpt2 V
  currentpoint stroke M
  hpt neg vpt neg R hpt2 0 V stroke
 } def
/Box {stroke [] 0 setdash 2 copy exch hpt sub exch vpt add M
  0 vpt2 neg V hpt2 0 V 0 vpt2 V
  hpt2 neg 0 V closepath stroke
  Pnt} def
/Crs {stroke [] 0 setdash exch hpt sub exch vpt add M
  hpt2 vpt2 neg V currentpoint stroke M
  hpt2 neg 0 R hpt2 vpt2 V stroke} def
/TriU {stroke [] 0 setdash 2 copy vpt 1.12 mul add M
  hpt neg vpt -1.62 mul V
  hpt 2 mul 0 V
  hpt neg vpt 1.62 mul V closepath stroke
  Pnt} def
/Star {2 copy Pls Crs} def
/BoxF {stroke [] 0 setdash exch hpt sub exch vpt add M
  0 vpt2 neg V hpt2 0 V 0 vpt2 V
  hpt2 neg 0 V closepath fill} def
/TriUF {stroke [] 0 setdash vpt 1.12 mul add M
  hpt neg vpt -1.62 mul V
  hpt 2 mul 0 V
  hpt neg vpt 1.62 mul V closepath fill} def
/TriD {stroke [] 0 setdash 2 copy vpt 1.12 mul sub M
  hpt neg vpt 1.62 mul V
  hpt 2 mul 0 V
  hpt neg vpt -1.62 mul V closepath stroke
  Pnt} def
/TriDF {stroke [] 0 setdash vpt 1.12 mul sub M
  hpt neg vpt 1.62 mul V
  hpt 2 mul 0 V
  hpt neg vpt -1.62 mul V closepath fill} def
/DiaF {stroke [] 0 setdash vpt add M
  hpt neg vpt neg V hpt vpt neg V
  hpt vpt V hpt neg vpt V closepath fill} def
/Pent {stroke [] 0 setdash 2 copy gsave
  translate 0 hpt M 4 {72 rotate 0 hpt L} repeat
  closepath stroke grestore Pnt} def
/PentF {stroke [] 0 setdash gsave
  translate 0 hpt M 4 {72 rotate 0 hpt L} repeat
  closepath fill grestore} def
/Circle {stroke [] 0 setdash 2 copy
  hpt 0 360 arc stroke Pnt} def
/CircleF {stroke [] 0 setdash hpt 0 360 arc fill} def
/C0 {BL [] 0 setdash 2 copy moveto vpt 90 450 arc} bind def
/C1 {BL [] 0 setdash 2 copy moveto
	2 copy vpt 0 90 arc closepath fill
	vpt 0 360 arc closepath} bind def
/C2 {BL [] 0 setdash 2 copy moveto
	2 copy vpt 90 180 arc closepath fill
	vpt 0 360 arc closepath} bind def
/C3 {BL [] 0 setdash 2 copy moveto
	2 copy vpt 0 180 arc closepath fill
	vpt 0 360 arc closepath} bind def
/C4 {BL [] 0 setdash 2 copy moveto
	2 copy vpt 180 270 arc closepath fill
	vpt 0 360 arc closepath} bind def
/C5 {BL [] 0 setdash 2 copy moveto
	2 copy vpt 0 90 arc
	2 copy moveto
	2 copy vpt 180 270 arc closepath fill
	vpt 0 360 arc} bind def
/C6 {BL [] 0 setdash 2 copy moveto
	2 copy vpt 90 270 arc closepath fill
	vpt 0 360 arc closepath} bind def
/C7 {BL [] 0 setdash 2 copy moveto
	2 copy vpt 0 270 arc closepath fill
	vpt 0 360 arc closepath} bind def
/C8 {BL [] 0 setdash 2 copy moveto
	2 copy vpt 270 360 arc closepath fill
	vpt 0 360 arc closepath} bind def
/C9 {BL [] 0 setdash 2 copy moveto
	2 copy vpt 270 450 arc closepath fill
	vpt 0 360 arc closepath} bind def
/C10 {BL [] 0 setdash 2 copy 2 copy moveto vpt 270 360 arc closepath fill
	2 copy moveto
	2 copy vpt 90 180 arc closepath fill
	vpt 0 360 arc closepath} bind def
/C11 {BL [] 0 setdash 2 copy moveto
	2 copy vpt 0 180 arc closepath fill
	2 copy moveto
	2 copy vpt 270 360 arc closepath fill
	vpt 0 360 arc closepath} bind def
/C12 {BL [] 0 setdash 2 copy moveto
	2 copy vpt 180 360 arc closepath fill
	vpt 0 360 arc closepath} bind def
/C13 {BL [] 0 setdash 2 copy moveto
	2 copy vpt 0 90 arc closepath fill
	2 copy moveto
	2 copy vpt 180 360 arc closepath fill
	vpt 0 360 arc closepath} bind def
/C14 {BL [] 0 setdash 2 copy moveto
	2 copy vpt 90 360 arc closepath fill
	vpt 0 360 arc} bind def
/C15 {BL [] 0 setdash 2 copy vpt 0 360 arc closepath fill
	vpt 0 360 arc closepath} bind def
/Rec {newpath 4 2 roll moveto 1 index 0 rlineto 0 exch rlineto
	neg 0 rlineto closepath} bind def
/Square {dup Rec} bind def
/Bsquare {vpt sub exch vpt sub exch vpt2 Square} bind def
/S0 {BL [] 0 setdash 2 copy moveto 0 vpt rlineto BL Bsquare} bind def
/S1 {BL [] 0 setdash 2 copy vpt Square fill Bsquare} bind def
/S2 {BL [] 0 setdash 2 copy exch vpt sub exch vpt Square fill Bsquare} bind def
/S3 {BL [] 0 setdash 2 copy exch vpt sub exch vpt2 vpt Rec fill Bsquare} bind def
/S4 {BL [] 0 setdash 2 copy exch vpt sub exch vpt sub vpt Square fill Bsquare} bind def
/S5 {BL [] 0 setdash 2 copy 2 copy vpt Square fill
	exch vpt sub exch vpt sub vpt Square fill Bsquare} bind def
/S6 {BL [] 0 setdash 2 copy exch vpt sub exch vpt sub vpt vpt2 Rec fill Bsquare} bind def
/S7 {BL [] 0 setdash 2 copy exch vpt sub exch vpt sub vpt vpt2 Rec fill
	2 copy vpt Square fill Bsquare} bind def
/S8 {BL [] 0 setdash 2 copy vpt sub vpt Square fill Bsquare} bind def
/S9 {BL [] 0 setdash 2 copy vpt sub vpt vpt2 Rec fill Bsquare} bind def
/S10 {BL [] 0 setdash 2 copy vpt sub vpt Square fill 2 copy exch vpt sub exch vpt Square fill
	Bsquare} bind def
/S11 {BL [] 0 setdash 2 copy vpt sub vpt Square fill 2 copy exch vpt sub exch vpt2 vpt Rec fill
	Bsquare} bind def
/S12 {BL [] 0 setdash 2 copy exch vpt sub exch vpt sub vpt2 vpt Rec fill Bsquare} bind def
/S13 {BL [] 0 setdash 2 copy exch vpt sub exch vpt sub vpt2 vpt Rec fill
	2 copy vpt Square fill Bsquare} bind def
/S14 {BL [] 0 setdash 2 copy exch vpt sub exch vpt sub vpt2 vpt Rec fill
	2 copy exch vpt sub exch vpt Square fill Bsquare} bind def
/S15 {BL [] 0 setdash 2 copy Bsquare fill Bsquare} bind def
/D0 {gsave translate 45 rotate 0 0 S0 stroke grestore} bind def
/D1 {gsave translate 45 rotate 0 0 S1 stroke grestore} bind def
/D2 {gsave translate 45 rotate 0 0 S2 stroke grestore} bind def
/D3 {gsave translate 45 rotate 0 0 S3 stroke grestore} bind def
/D4 {gsave translate 45 rotate 0 0 S4 stroke grestore} bind def
/D5 {gsave translate 45 rotate 0 0 S5 stroke grestore} bind def
/D6 {gsave translate 45 rotate 0 0 S6 stroke grestore} bind def
/D7 {gsave translate 45 rotate 0 0 S7 stroke grestore} bind def
/D8 {gsave translate 45 rotate 0 0 S8 stroke grestore} bind def
/D9 {gsave translate 45 rotate 0 0 S9 stroke grestore} bind def
/D10 {gsave translate 45 rotate 0 0 S10 stroke grestore} bind def
/D11 {gsave translate 45 rotate 0 0 S11 stroke grestore} bind def
/D12 {gsave translate 45 rotate 0 0 S12 stroke grestore} bind def
/D13 {gsave translate 45 rotate 0 0 S13 stroke grestore} bind def
/D14 {gsave translate 45 rotate 0 0 S14 stroke grestore} bind def
/D15 {gsave translate 45 rotate 0 0 S15 stroke grestore} bind def
/DiaE {stroke [] 0 setdash vpt add M
  hpt neg vpt neg V hpt vpt neg V
  hpt vpt V hpt neg vpt V closepath stroke} def
/BoxE {stroke [] 0 setdash exch hpt sub exch vpt add M
  0 vpt2 neg V hpt2 0 V 0 vpt2 V
  hpt2 neg 0 V closepath stroke} def
/TriUE {stroke [] 0 setdash vpt 1.12 mul add M
  hpt neg vpt -1.62 mul V
  hpt 2 mul 0 V
  hpt neg vpt 1.62 mul V closepath stroke} def
/TriDE {stroke [] 0 setdash vpt 1.12 mul sub M
  hpt neg vpt 1.62 mul V
  hpt 2 mul 0 V
  hpt neg vpt -1.62 mul V closepath stroke} def
/PentE {stroke [] 0 setdash gsave
  translate 0 hpt M 4 {72 rotate 0 hpt L} repeat
  closepath stroke grestore} def
/CircE {stroke [] 0 setdash 
  hpt 0 360 arc stroke} def
/Opaque {gsave closepath 1 setgray fill grestore 0 setgray closepath} def
/DiaW {stroke [] 0 setdash vpt add M
  hpt neg vpt neg V hpt vpt neg V
  hpt vpt V hpt neg vpt V Opaque stroke} def
/BoxW {stroke [] 0 setdash exch hpt sub exch vpt add M
  0 vpt2 neg V hpt2 0 V 0 vpt2 V
  hpt2 neg 0 V Opaque stroke} def
/TriUW {stroke [] 0 setdash vpt 1.12 mul add M
  hpt neg vpt -1.62 mul V
  hpt 2 mul 0 V
  hpt neg vpt 1.62 mul V Opaque stroke} def
/TriDW {stroke [] 0 setdash vpt 1.12 mul sub M
  hpt neg vpt 1.62 mul V
  hpt 2 mul 0 V
  hpt neg vpt -1.62 mul V Opaque stroke} def
/PentW {stroke [] 0 setdash gsave
  translate 0 hpt M 4 {72 rotate 0 hpt L} repeat
  Opaque stroke grestore} def
/CircW {stroke [] 0 setdash 
  hpt 0 360 arc Opaque stroke} def
/BoxFill {gsave Rec 1 setgray fill grestore} def
/Density {
  /Fillden exch def
  currentrgbcolor
  /ColB exch def /ColG exch def /ColR exch def
  /ColR ColR Fillden mul Fillden sub 1 add def
  /ColG ColG Fillden mul Fillden sub 1 add def
  /ColB ColB Fillden mul Fillden sub 1 add def
  ColR ColG ColB setrgbcolor} def
/BoxColFill {gsave Rec PolyFill} def
/PolyFill {gsave Density fill grestore grestore} def
/h {rlineto rlineto rlineto gsave closepath fill grestore} bind def
%
% PostScript Level 1 Pattern Fill routine for rectangles
% Usage: x y w h s a XX PatternFill
%	x,y = lower left corner of box to be filled
%	w,h = width and height of box
%	  a = angle in degrees between lines and x-axis
%	 XX = 0/1 for no/yes cross-hatch
%
/PatternFill {gsave /PFa [ 9 2 roll ] def
  PFa 0 get PFa 2 get 2 div add PFa 1 get PFa 3 get 2 div add translate
  PFa 2 get -2 div PFa 3 get -2 div PFa 2 get PFa 3 get Rec
  TransparentPatterns {} {gsave 1 setgray fill grestore} ifelse
  clip
  currentlinewidth 0.5 mul setlinewidth
  /PFs PFa 2 get dup mul PFa 3 get dup mul add sqrt def
  0 0 M PFa 5 get rotate PFs -2 div dup translate
  0 1 PFs PFa 4 get div 1 add floor cvi
	{PFa 4 get mul 0 M 0 PFs V} for
  0 PFa 6 get ne {
	0 1 PFs PFa 4 get div 1 add floor cvi
	{PFa 4 get mul 0 2 1 roll M PFs 0 V} for
 } if
  stroke grestore} def
%
/languagelevel where
 {pop languagelevel} {1} ifelse
dup 2 lt
	{/InterpretLevel1 true def
	 /InterpretLevel3 false def}
	{/InterpretLevel1 Level1 def
	 2 gt
	    {/InterpretLevel3 Level3 def}
	    {/InterpretLevel3 false def}
	 ifelse }
 ifelse
%
% PostScript level 2 pattern fill definitions
%
/Level2PatternFill {
/Tile8x8 {/PaintType 2 /PatternType 1 /TilingType 1 /BBox [0 0 8 8] /XStep 8 /YStep 8}
	bind def
/KeepColor {currentrgbcolor [/Pattern /DeviceRGB] setcolorspace} bind def
<< Tile8x8
 /PaintProc {0.5 setlinewidth pop 0 0 M 8 8 L 0 8 M 8 0 L stroke} 
>> matrix makepattern
/Pat1 exch def
<< Tile8x8
 /PaintProc {0.5 setlinewidth pop 0 0 M 8 8 L 0 8 M 8 0 L stroke
	0 4 M 4 8 L 8 4 L 4 0 L 0 4 L stroke}
>> matrix makepattern
/Pat2 exch def
<< Tile8x8
 /PaintProc {0.5 setlinewidth pop 0 0 M 0 8 L
	8 8 L 8 0 L 0 0 L fill}
>> matrix makepattern
/Pat3 exch def
<< Tile8x8
 /PaintProc {0.5 setlinewidth pop -4 8 M 8 -4 L
	0 12 M 12 0 L stroke}
>> matrix makepattern
/Pat4 exch def
<< Tile8x8
 /PaintProc {0.5 setlinewidth pop -4 0 M 8 12 L
	0 -4 M 12 8 L stroke}
>> matrix makepattern
/Pat5 exch def
<< Tile8x8
 /PaintProc {0.5 setlinewidth pop -2 8 M 4 -4 L
	0 12 M 8 -4 L 4 12 M 10 0 L stroke}
>> matrix makepattern
/Pat6 exch def
<< Tile8x8
 /PaintProc {0.5 setlinewidth pop -2 0 M 4 12 L
	0 -4 M 8 12 L 4 -4 M 10 8 L stroke}
>> matrix makepattern
/Pat7 exch def
<< Tile8x8
 /PaintProc {0.5 setlinewidth pop 8 -2 M -4 4 L
	12 0 M -4 8 L 12 4 M 0 10 L stroke}
>> matrix makepattern
/Pat8 exch def
<< Tile8x8
 /PaintProc {0.5 setlinewidth pop 0 -2 M 12 4 L
	-4 0 M 12 8 L -4 4 M 8 10 L stroke}
>> matrix makepattern
/Pat9 exch def
/Pattern1 {PatternBgnd KeepColor Pat1 setpattern} bind def
/Pattern2 {PatternBgnd KeepColor Pat2 setpattern} bind def
/Pattern3 {PatternBgnd KeepColor Pat3 setpattern} bind def
/Pattern4 {PatternBgnd KeepColor Landscape {Pat5} {Pat4} ifelse setpattern} bind def
/Pattern5 {PatternBgnd KeepColor Landscape {Pat4} {Pat5} ifelse setpattern} bind def
/Pattern6 {PatternBgnd KeepColor Landscape {Pat9} {Pat6} ifelse setpattern} bind def
/Pattern7 {PatternBgnd KeepColor Landscape {Pat8} {Pat7} ifelse setpattern} bind def
} def
%
%
%End of PostScript Level 2 code
%
/PatternBgnd {
  TransparentPatterns {} {gsave 1 setgray fill grestore} ifelse
} def
%
% Substitute for Level 2 pattern fill codes with
% grayscale if Level 2 support is not selected.
%
/Level1PatternFill {
/Pattern1 {0.250 Density} bind def
/Pattern2 {0.500 Density} bind def
/Pattern3 {0.750 Density} bind def
/Pattern4 {0.125 Density} bind def
/Pattern5 {0.375 Density} bind def
/Pattern6 {0.625 Density} bind def
/Pattern7 {0.875 Density} bind def
} def
%
% Now test for support of Level 2 code
%
Level1 {Level1PatternFill} {Level2PatternFill} ifelse
%
/Symbol-Oblique /Symbol findfont [1 0 .167 1 0 0] makefont
dup length dict begin {1 index /FID eq {pop pop} {def} ifelse} forall
currentdict end definefont pop
%
/MFshow {
   { dup 5 get 3 ge
     { 5 get 3 eq {gsave} {grestore} ifelse }
     {dup dup 0 get findfont exch 1 get scalefont setfont
     [ currentpoint ] exch dup 2 get 0 exch R dup 5 get 2 ne {dup dup 6
     get exch 4 get {textshow} {stringwidth pop 0 R} ifelse }if dup 5 get 0 eq
     {dup 3 get {2 get neg 0 exch R pop} {pop aload pop M} ifelse} {dup 5
     get 1 eq {dup 2 get exch dup 3 get exch 6 get stringwidth pop -2 div
     dup 0 R} {dup 6 get stringwidth pop -2 div 0 R 6 get
     textshow 2 index {aload pop M neg 3 -1 roll neg R pop pop} {pop pop pop
     pop aload pop M} ifelse }ifelse }ifelse }
     ifelse }
   forall} def
/Gswidth {dup type /stringtype eq {stringwidth} {pop (n) stringwidth} ifelse} def
/MFwidth {0 exch { dup 5 get 3 ge { 5 get 3 eq { 0 } { pop } ifelse }
 {dup 3 get{dup dup 0 get findfont exch 1 get scalefont setfont
     6 get Gswidth pop add} {pop} ifelse} ifelse} forall} def
/MLshow { currentpoint stroke M
  0 exch R
  Blacktext {gsave 0 setgray MFshow grestore} {MFshow} ifelse } bind def
/MRshow { currentpoint stroke M
  exch dup MFwidth neg 3 -1 roll R
  Blacktext {gsave 0 setgray MFshow grestore} {MFshow} ifelse } bind def
/MCshow { currentpoint stroke M
  exch dup MFwidth -2 div 3 -1 roll R
  Blacktext {gsave 0 setgray MFshow grestore} {MFshow} ifelse } bind def
/XYsave    { [( ) 1 2 true false 3 ()] } bind def
/XYrestore { [( ) 1 2 true false 4 ()] } bind def
Level1 SuppressPDFMark or 
{} {
/SDict 10 dict def
systemdict /pdfmark known not {
  userdict /pdfmark systemdict /cleartomark get put
} if
SDict begin [
  /Title (packets-uv-log-packets-uv-s-dist-loglog.eps)
  /Subject (gnuplot plot)
  /Creator (gnuplot 5.0 patchlevel 3)
  /Author (tiphaine)
%  /Producer (gnuplot)
%  /Keywords ()
  /CreationDate (Mon May 29 11:10:24 2017)
  /DOCINFO pdfmark
end
} ifelse
%
% Support for boxed text - Ethan A Merritt May 2005
%
/InitTextBox { userdict /TBy2 3 -1 roll put userdict /TBx2 3 -1 roll put
           userdict /TBy1 3 -1 roll put userdict /TBx1 3 -1 roll put
	   /Boxing true def } def
/ExtendTextBox { Boxing
    { gsave dup false charpath pathbbox
      dup TBy2 gt {userdict /TBy2 3 -1 roll put} {pop} ifelse
      dup TBx2 gt {userdict /TBx2 3 -1 roll put} {pop} ifelse
      dup TBy1 lt {userdict /TBy1 3 -1 roll put} {pop} ifelse
      dup TBx1 lt {userdict /TBx1 3 -1 roll put} {pop} ifelse
      grestore } if } def
/PopTextBox { newpath TBx1 TBxmargin sub TBy1 TBymargin sub M
               TBx1 TBxmargin sub TBy2 TBymargin add L
	       TBx2 TBxmargin add TBy2 TBymargin add L
	       TBx2 TBxmargin add TBy1 TBymargin sub L closepath } def
/DrawTextBox { PopTextBox stroke /Boxing false def} def
/FillTextBox { gsave PopTextBox 1 1 1 setrgbcolor fill grestore /Boxing false def} def
0 0 0 0 InitTextBox
/TBxmargin 20 def
/TBymargin 20 def
/Boxing false def
/textshow { ExtendTextBox Gshow } def
%
% redundant definitions for compatibility with prologue.ps older than 5.0.2
/LTB {BL [] LCb DL} def
/LTb {PL [] LCb DL} def
end
%%EndProlog
%%Page: 1 1
gnudict begin
gsave
doclip
50 50 translate
0.100 0.100 scale
90 rotate
0 -5040 translate
0 setgray
newpath
(Helvetica) findfont 140 scalefont setfont
BackgroundColor 0 lt 3 1 roll 0 lt exch 0 lt or or not {gsave BackgroundColor C clippath fill grestore} if
1.000 UL
LTb
LCb setrgbcolor
798 280 M
63 0 V
6086 0 R
-63 0 V
stroke
714 280 M
[ [(Helvetica) 140.0 0.0 true true 0 ( 1)]
] -46.7 MRshow
1.000 UL
LTb
LCb setrgbcolor
798 510 M
31 0 V
6118 0 R
-31 0 V
798 815 M
31 0 V
6118 0 R
-31 0 V
798 971 M
31 0 V
6118 0 R
-31 0 V
798 1045 M
63 0 V
6086 0 R
-63 0 V
stroke
714 1045 M
[ [(Helvetica) 140.0 0.0 true true 0 ( 10)]
] -46.7 MRshow
1.000 UL
LTb
LCb setrgbcolor
798 1276 M
31 0 V
6118 0 R
-31 0 V
798 1580 M
31 0 V
6118 0 R
-31 0 V
798 1736 M
31 0 V
6118 0 R
-31 0 V
798 1810 M
63 0 V
6086 0 R
-63 0 V
stroke
714 1810 M
[ [(Helvetica) 140.0 0.0 true true 0 ( 100)]
] -46.7 MRshow
1.000 UL
LTb
LCb setrgbcolor
798 2041 M
31 0 V
6118 0 R
-31 0 V
798 2345 M
31 0 V
6118 0 R
-31 0 V
798 2501 M
31 0 V
6118 0 R
-31 0 V
798 2576 M
63 0 V
6086 0 R
-63 0 V
stroke
714 2576 M
[ [(Helvetica) 140.0 0.0 true true 0 ( 1000)]
] -46.7 MRshow
1.000 UL
LTb
LCb setrgbcolor
798 2806 M
31 0 V
6118 0 R
-31 0 V
798 3110 M
31 0 V
6118 0 R
-31 0 V
798 3267 M
31 0 V
6118 0 R
-31 0 V
798 3341 M
63 0 V
6086 0 R
-63 0 V
stroke
714 3341 M
[ [(Helvetica) 140.0 0.0 true true 0 ( 10000)]
] -46.7 MRshow
1.000 UL
LTb
LCb setrgbcolor
798 3571 M
31 0 V
6118 0 R
-31 0 V
798 3875 M
31 0 V
6118 0 R
-31 0 V
798 4032 M
31 0 V
6118 0 R
-31 0 V
798 4106 M
63 0 V
6086 0 R
-63 0 V
stroke
714 4106 M
[ [(Helvetica) 140.0 0.0 true true 0 ( 100000)]
] -46.7 MRshow
1.000 UL
LTb
LCb setrgbcolor
798 4336 M
31 0 V
6118 0 R
-31 0 V
798 4641 M
31 0 V
6118 0 R
-31 0 V
798 4797 M
31 0 V
6118 0 R
-31 0 V
798 4871 M
63 0 V
6086 0 R
-63 0 V
stroke
714 4871 M
[ [(Helvetica) 140.0 0.0 true true 0 ( 1x10)]
[(Helvetica) 112.0 70.0 true true 0 (6)]
] -60.7 MRshow
1.000 UL
LTb
LCb setrgbcolor
798 280 M
0 63 V
0 4528 R
0 -63 V
stroke
798 140 M
[ [(Helvetica) 140.0 0.0 true true 0 ( 1)]
] -46.7 MCshow
1.000 UL
LTb
LCb setrgbcolor
1029 280 M
0 31 V
0 4560 R
0 -31 V
1335 280 M
0 31 V
0 4560 R
0 -31 V
1492 280 M
0 31 V
0 4560 R
0 -31 V
1567 280 M
0 63 V
0 4528 R
0 -63 V
stroke
1567 140 M
[ [(Helvetica) 140.0 0.0 true true 0 ( 10)]
] -46.7 MCshow
1.000 UL
LTb
LCb setrgbcolor
1798 280 M
0 31 V
0 4560 R
0 -31 V
2104 280 M
0 31 V
0 4560 R
0 -31 V
2261 280 M
0 31 V
0 4560 R
0 -31 V
2335 280 M
0 63 V
0 4528 R
0 -63 V
stroke
2335 140 M
[ [(Helvetica) 140.0 0.0 true true 0 ( 100)]
] -46.7 MCshow
1.000 UL
LTb
LCb setrgbcolor
2567 280 M
0 31 V
0 4560 R
0 -31 V
2872 280 M
0 31 V
0 4560 R
0 -31 V
3029 280 M
0 31 V
0 4560 R
0 -31 V
3104 280 M
0 63 V
0 4528 R
0 -63 V
stroke
3104 140 M
[ [(Helvetica) 140.0 0.0 true true 0 ( 1000)]
] -46.7 MCshow
1.000 UL
LTb
LCb setrgbcolor
3335 280 M
0 31 V
0 4560 R
0 -31 V
3641 280 M
0 31 V
0 4560 R
0 -31 V
3798 280 M
0 31 V
0 4560 R
0 -31 V
3873 280 M
0 63 V
0 4528 R
0 -63 V
stroke
3873 140 M
[ [(Helvetica) 140.0 0.0 true true 0 ( 10000)]
] -46.7 MCshow
1.000 UL
LTb
LCb setrgbcolor
4104 280 M
0 31 V
0 4560 R
0 -31 V
4410 280 M
0 31 V
0 4560 R
0 -31 V
4567 280 M
0 31 V
0 4560 R
0 -31 V
4641 280 M
0 63 V
0 4528 R
0 -63 V
stroke
4641 140 M
[ [(Helvetica) 140.0 0.0 true true 0 ( 100000)]
] -46.7 MCshow
1.000 UL
LTb
LCb setrgbcolor
4873 280 M
0 31 V
0 4560 R
0 -31 V
5178 280 M
0 31 V
0 4560 R
0 -31 V
5335 280 M
0 31 V
0 4560 R
0 -31 V
5410 280 M
0 63 V
0 4528 R
0 -63 V
stroke
5410 140 M
[ [(Helvetica) 140.0 0.0 true true 0 ( 1x10)]
[(Helvetica) 112.0 70.0 true true 0 (6)]
] -60.7 MCshow
1.000 UL
LTb
LCb setrgbcolor
5641 280 M
0 31 V
0 4560 R
0 -31 V
5947 280 M
0 31 V
0 4560 R
0 -31 V
6104 280 M
0 31 V
0 4560 R
0 -31 V
6178 280 M
0 63 V
0 4528 R
0 -63 V
stroke
6178 140 M
[ [(Helvetica) 140.0 0.0 true true 0 ( 1x10)]
[(Helvetica) 112.0 70.0 true true 0 (7)]
] -60.7 MCshow
1.000 UL
LTb
LCb setrgbcolor
6410 280 M
0 31 V
0 4560 R
0 -31 V
6716 280 M
0 31 V
0 4560 R
0 -31 V
6873 280 M
0 31 V
0 4560 R
0 -31 V
6947 280 M
0 63 V
0 4528 R
0 -63 V
stroke
6947 140 M
[ [(Helvetica) 140.0 0.0 true true 0 ( 1x10)]
[(Helvetica) 112.0 70.0 true true 0 (8)]
] -60.7 MCshow
1.000 UL
LTb
LCb setrgbcolor
1.000 UL
LTB
LCb setrgbcolor
798 4871 N
798 280 L
6149 0 V
0 4591 V
-6149 0 V
Z stroke
1.000 UP
1.000 UL
LTb
LCb setrgbcolor
% Begin plot #1
1.000 UP
1.000 UL
LTb
0.58 0.00 0.83 C 907 4658 Pls
1196 4023 Pls
1370 3919 Pls
1494 3742 Pls
1591 3706 Pls
1670 3503 Pls
1737 3569 Pls
1794 3393 Pls
1845 3574 Pls
1890 3320 Pls
1931 3412 Pls
1969 3238 Pls
2003 3276 Pls
2035 3230 Pls
2064 3257 Pls
2091 3123 Pls
2117 3181 Pls
2141 3080 Pls
2164 3176 Pls
2186 2999 Pls
2207 3024 Pls
2226 2881 Pls
2245 2994 Pls
2263 2838 Pls
2280 2862 Pls
2296 2786 Pls
2312 2846 Pls
2327 2695 Pls
2342 2864 Pls
2356 2645 Pls
2370 2731 Pls
2383 2641 Pls
2396 2715 Pls
2408 2610 Pls
2420 2710 Pls
2432 2552 Pls
2443 2599 Pls
2454 2521 Pls
2465 2613 Pls
2476 2488 Pls
2486 2537 Pls
2496 2471 Pls
2505 2514 Pls
2515 2494 Pls
2524 2475 Pls
2533 2610 Pls
2542 2581 Pls
2551 2558 Pls
2559 2513 Pls
2568 2456 Pls
2576 2429 Pls
2584 2392 Pls
2591 2392 Pls
2599 2370 Pls
2607 2401 Pls
2614 2353 Pls
2621 2317 Pls
2628 2343 Pls
2635 2543 Pls
2642 2282 Pls
2649 2280 Pls
2656 2273 Pls
2662 2278 Pls
2668 2275 Pls
2675 2232 Pls
2681 2211 Pls
2687 2229 Pls
2693 2233 Pls
2699 2255 Pls
2705 2192 Pls
2711 2247 Pls
2716 2171 Pls
2722 2154 Pls
2727 2161 Pls
2733 2152 Pls
2738 2139 Pls
2744 2257 Pls
2749 2165 Pls
2754 2185 Pls
2759 2121 Pls
2764 2096 Pls
2769 2096 Pls
2774 2120 Pls
2779 2116 Pls
2784 2050 Pls
2788 2047 Pls
2793 2068 Pls
2798 2032 Pls
2802 2161 Pls
2807 1991 Pls
2811 2087 Pls
2816 2091 Pls
2820 2036 Pls
2824 2062 Pls
2828 2172 Pls
2833 1964 Pls
2837 2027 Pls
2841 2044 Pls
2845 2484 Pls
2849 2008 Pls
2853 1958 Pls
2857 1925 Pls
2861 1996 Pls
2865 2046 Pls
2869 1915 Pls
2872 1987 Pls
2876 2011 Pls
2880 1908 Pls
2884 2008 Pls
2887 2024 Pls
2891 1971 Pls
2895 1956 Pls
2898 1979 Pls
2902 1927 Pls
2905 1943 Pls
2909 1991 Pls
2912 1857 Pls
2915 1971 Pls
2919 2108 Pls
2922 1905 Pls
2926 1938 Pls
2929 1887 Pls
2932 1882 Pls
2935 1890 Pls
2939 1863 Pls
2942 1817 Pls
2945 1983 Pls
2948 1925 Pls
2951 2145 Pls
2954 1865 Pls
2957 2008 Pls
2960 1810 Pls
2963 1827 Pls
2966 1882 Pls
2969 1882 Pls
2972 1898 Pls
2975 1910 Pls
2978 1913 Pls
2981 1890 Pls
2984 1860 Pls
2987 1814 Pls
2989 1783 Pls
2992 1800 Pls
2995 1775 Pls
2998 1760 Pls
3000 1760 Pls
3003 1740 Pls
3006 1814 Pls
3009 1817 Pls
3011 1764 Pls
3014 1764 Pls
3016 1715 Pls
3019 1744 Pls
3022 1629 Pls
3024 1804 Pls
3027 1775 Pls
3029 1715 Pls
3032 1736 Pls
3034 1823 Pls
3037 1764 Pls
3039 1719 Pls
3042 1682 Pls
3044 1682 Pls
3047 1629 Pls
3049 1736 Pls
3051 1677 Pls
3054 1728 Pls
3056 1706 Pls
3059 1804 Pls
3061 1715 Pls
3063 1599 Pls
3066 1682 Pls
3068 1740 Pls
3070 1732 Pls
3072 1736 Pls
3075 1779 Pls
3077 1732 Pls
3079 1768 Pls
3081 1848 Pls
3084 1790 Pls
3086 1756 Pls
3088 1715 Pls
3090 1723 Pls
3092 1629 Pls
3094 1692 Pls
3097 1624 Pls
3099 1573 Pls
3101 1657 Pls
3103 1641 Pls
3105 1618 Pls
3107 1612 Pls
3109 1593 Pls
3111 1587 Pls
3113 1629 Pls
3115 1612 Pls
3117 1662 Pls
3119 1618 Pls
3121 1545 Pls
3123 1672 Pls
3125 1566 Pls
3127 1692 Pls
3129 1635 Pls
3131 1657 Pls
3133 1545 Pls
3135 1587 Pls
3137 1606 Pls
3139 1618 Pls
3141 1612 Pls
3143 1860 Pls
3144 1606 Pls
3146 1624 Pls
3148 1573 Pls
3150 1599 Pls
3152 1593 Pls
3154 1593 Pls
3156 1566 Pls
3157 1552 Pls
3159 1587 Pls
3161 1552 Pls
3163 1552 Pls
3165 1489 Pls
3166 1489 Pls
3168 1629 Pls
3170 1580 Pls
3172 1514 Pls
3173 1480 Pls
3175 1471 Pls
3177 1489 Pls
3179 1624 Pls
3180 1530 Pls
3182 1471 Pls
3184 1506 Pls
3185 1566 Pls
3187 1522 Pls
3189 1514 Pls
3190 1461 Pls
3192 1587 Pls
3194 1530 Pls
3195 1833 Pls
3197 1461 Pls
3199 1552 Pls
3200 1506 Pls
3202 1538 Pls
3204 1421 Pls
3205 1522 Pls
3207 1480 Pls
3208 1480 Pls
3210 1480 Pls
3211 1552 Pls
3213 1399 Pls
3215 1471 Pls
3216 1514 Pls
3218 1421 Pls
3219 1514 Pls
3221 1514 Pls
3222 1442 Pls
3224 1421 Pls
3225 1461 Pls
3227 1375 Pls
3228 1480 Pls
3230 1387 Pls
3231 1522 Pls
3233 1442 Pls
3234 1363 Pls
3236 1452 Pls
3237 1399 Pls
3239 1442 Pls
3240 1471 Pls
3242 1489 Pls
3243 1421 Pls
3245 1461 Pls
3246 1421 Pls
3248 1432 Pls
3249 1489 Pls
3250 1336 Pls
3252 1480 Pls
3253 1421 Pls
3255 1480 Pls
3256 1399 Pls
3257 1387 Pls
3259 1497 Pls
3260 1387 Pls
3262 1489 Pls
3263 1336 Pls
3264 1410 Pls
3266 1410 Pls
3267 1432 Pls
3269 1410 Pls
3270 1375 Pls
3271 1410 Pls
3273 1387 Pls
3274 1421 Pls
3275 1410 Pls
3277 1432 Pls
3278 1410 Pls
3279 1336 Pls
3281 1375 Pls
3282 1452 Pls
3283 1421 Pls
3284 1387 Pls
3286 1442 Pls
3287 1363 Pls
3288 1432 Pls
3290 1350 Pls
3291 1322 Pls
3292 1480 Pls
3294 1350 Pls
3295 1461 Pls
3296 1471 Pls
3297 1240 Pls
3299 1471 Pls
3300 1387 Pls
3301 1506 Pls
3302 1363 Pls
3304 1387 Pls
3305 1375 Pls
3306 1106 Pls
3307 1399 Pls
3308 1399 Pls
3310 1442 Pls
3311 1322 Pls
3312 1276 Pls
3313 1322 Pls
3315 1292 Pls
3316 1276 Pls
3317 1363 Pls
3318 1375 Pls
3319 1240 Pls
3321 1442 Pls
3322 1336 Pls
3323 1292 Pls
3324 1336 Pls
3325 1221 Pls
3326 1240 Pls
3328 1350 Pls
3329 1240 Pls
3330 1307 Pls
3331 1258 Pls
3332 1307 Pls
3333 1077 Pls
3335 1410 Pls
3336 1336 Pls
3337 1221 Pls
3338 1421 Pls
3339 1157 Pls
3340 1221 Pls
3341 1471 Pls
3342 1258 Pls
3344 1307 Pls
3345 1292 Pls
3346 1276 Pls
3347 1336 Pls
3348 1292 Pls
3349 1322 Pls
3350 1336 Pls
3351 1350 Pls
3352 1363 Pls
3353 1276 Pls
3355 1452 Pls
3356 1201 Pls
3357 1363 Pls
3358 1292 Pls
3359 1258 Pls
3360 1010 Pls
3361 1276 Pls
3362 1322 Pls
3363 1106 Pls
3364 1180 Pls
3365 1221 Pls
3366 1276 Pls
3367 1363 Pls
3368 1307 Pls
3369 1221 Pls
3370 1221 Pls
3372 1045 Pls
3373 1201 Pls
3374 1276 Pls
3375 1221 Pls
3376 1221 Pls
3377 1201 Pls
3378 1180 Pls
3379 1350 Pls
3380 1258 Pls
3381 1258 Pls
3382 1201 Pls
3383 1240 Pls
3384 1157 Pls
3385 1276 Pls
3386 1240 Pls
3387 1157 Pls
3388 1276 Pls
3389 1276 Pls
3390 1157 Pls
3391 1180 Pls
3392 1077 Pls
3393 1221 Pls
3394 1276 Pls
3395 1201 Pls
3396 1132 Pls
3397 1276 Pls
3398 1307 Pls
3399 1276 Pls
3400 1221 Pls
3400 1276 Pls
3401 1180 Pls
3402 1258 Pls
3403 1221 Pls
3404 1240 Pls
3405 1221 Pls
3406 1077 Pls
3407 1240 Pls
3408 1240 Pls
3409 1132 Pls
3410 1292 Pls
3411 1201 Pls
3412 1221 Pls
3413 1307 Pls
3414 1201 Pls
3415 1240 Pls
3416 1363 Pls
3416 1276 Pls
3417 1157 Pls
3418 1240 Pls
3419 1180 Pls
3420 1157 Pls
3421 1221 Pls
3422 1240 Pls
3423 1276 Pls
3424 1201 Pls
3425 875 Pls
3426 1221 Pls
3426 1276 Pls
3427 1221 Pls
3428 1077 Pls
3429 1132 Pls
3430 1221 Pls
3431 1276 Pls
3432 1201 Pls
3433 1132 Pls
3434 1292 Pls
3434 1132 Pls
3435 1240 Pls
3436 1132 Pls
3437 1180 Pls
3438 1132 Pls
3439 1276 Pls
3440 1180 Pls
3441 1157 Pls
3441 1077 Pls
3442 1322 Pls
3443 1201 Pls
3444 971 Pls
3445 1132 Pls
3446 1077 Pls
3447 1157 Pls
3447 1106 Pls
3448 1307 Pls
3449 1180 Pls
3450 1180 Pls
3451 1258 Pls
3452 1240 Pls
3453 1045 Pls
3453 1010 Pls
3454 1106 Pls
3455 1157 Pls
3456 1077 Pls
3457 1157 Pls
3458 1221 Pls
3458 1106 Pls
3459 1045 Pls
3460 1258 Pls
3461 1336 Pls
3462 1322 Pls
3462 1045 Pls
3463 1258 Pls
3464 1201 Pls
3465 1292 Pls
3466 1180 Pls
3467 1258 Pls
3467 1201 Pls
3468 1132 Pls
3469 1180 Pls
3470 1077 Pls
3471 1106 Pls
3471 1045 Pls
3472 1045 Pls
3473 1045 Pls
3474 1157 Pls
3475 1045 Pls
3475 1045 Pls
3476 1045 Pls
3477 1240 Pls
3478 927 Pls
3478 1221 Pls
3479 1010 Pls
3480 645 Pls
3481 1045 Pls
3482 1157 Pls
3482 1132 Pls
3483 1157 Pls
3484 971 Pls
3485 1201 Pls
3485 1201 Pls
3486 1045 Pls
3487 1010 Pls
3488 1132 Pls
3488 1106 Pls
3489 1045 Pls
3490 1201 Pls
3491 1157 Pls
3492 971 Pls
3492 1077 Pls
3493 1258 Pls
3494 1045 Pls
3495 1010 Pls
3495 1201 Pls
3496 1106 Pls
3497 1132 Pls
3498 1276 Pls
3498 1157 Pls
3499 1106 Pls
3500 1240 Pls
3500 971 Pls
3501 1106 Pls
3502 1077 Pls
3503 1180 Pls
3503 1077 Pls
3504 1010 Pls
3505 1106 Pls
3506 1157 Pls
3506 1045 Pls
3507 1045 Pls
3508 927 Pls
3509 1010 Pls
3509 1010 Pls
3510 1132 Pls
3511 1106 Pls
3511 1201 Pls
3512 1157 Pls
3513 875 Pls
3514 1221 Pls
3514 1106 Pls
3515 1010 Pls
3516 1157 Pls
3516 971 Pls
3517 927 Pls
3518 1157 Pls
3519 1132 Pls
3519 1157 Pls
3520 1180 Pls
3521 1010 Pls
3521 927 Pls
3522 1010 Pls
3523 1077 Pls
3523 1010 Pls
3524 875 Pls
3525 1132 Pls
3526 1077 Pls
3526 1077 Pls
3527 1180 Pls
3528 1132 Pls
3528 1132 Pls
3529 1010 Pls
3530 1077 Pls
3530 1010 Pls
3531 1010 Pls
3532 1045 Pls
3532 815 Pls
3533 1132 Pls
3534 815 Pls
3534 1106 Pls
3535 1132 Pls
3536 1010 Pls
3536 875 Pls
3537 971 Pls
3538 1010 Pls
3538 875 Pls
3539 1077 Pls
3540 1157 Pls
3540 1077 Pls
3541 1010 Pls
3542 1010 Pls
3542 1045 Pls
3543 971 Pls
3544 1010 Pls
3544 927 Pls
3545 1010 Pls
3546 927 Pls
3546 927 Pls
3547 971 Pls
3548 1045 Pls
3548 1077 Pls
3549 1045 Pls
3550 1132 Pls
3550 1045 Pls
3551 927 Pls
3552 971 Pls
3552 1077 Pls
3553 1010 Pls
3553 875 Pls
3554 1132 Pls
3555 815 Pls
3555 1045 Pls
3556 971 Pls
3557 1157 Pls
3557 1077 Pls
3558 875 Pls
3559 1010 Pls
3559 1045 Pls
3560 875 Pls
3560 875 Pls
3561 875 Pls
3562 927 Pls
3562 971 Pls
3563 971 Pls
3564 1010 Pls
3564 1045 Pls
3565 971 Pls
3565 1106 Pls
3566 927 Pls
3567 1157 Pls
3567 1010 Pls
3568 1010 Pls
3569 1045 Pls
3569 1010 Pls
3570 1180 Pls
3570 1258 Pls
3571 1201 Pls
3572 1132 Pls
3572 875 Pls
3573 1180 Pls
3574 1180 Pls
3574 1132 Pls
3575 1157 Pls
3575 1010 Pls
3576 1106 Pls
3577 1221 Pls
3577 1336 Pls
3578 1221 Pls
3578 1180 Pls
3579 1157 Pls
3580 1106 Pls
3580 1180 Pls
3581 1350 Pls
3581 1077 Pls
3582 1180 Pls
3583 1157 Pls
3583 1201 Pls
3584 1132 Pls
3584 1132 Pls
3585 1201 Pls
3585 1132 Pls
3586 1180 Pls
3587 1322 Pls
3587 1180 Pls
3588 1201 Pls
3588 1221 Pls
3589 1201 Pls
3590 1157 Pls
3590 1258 Pls
3591 1201 Pls
3591 1221 Pls
3592 1106 Pls
3593 1201 Pls
3593 1045 Pls
3594 1240 Pls
3594 1240 Pls
3595 1077 Pls
3595 1077 Pls
3596 1180 Pls
3597 1077 Pls
3597 1045 Pls
3598 1157 Pls
3598 1132 Pls
3599 1157 Pls
3599 1201 Pls
3600 1180 Pls
3601 1106 Pls
3601 1157 Pls
3602 1132 Pls
3602 741 Pls
3603 1157 Pls
3603 1077 Pls
3604 1221 Pls
3604 741 Pls
3605 1157 Pls
3606 1106 Pls
3606 1077 Pls
3607 971 Pls
3607 1010 Pls
3608 1077 Pls
3608 1201 Pls
3609 1045 Pls
3609 1221 Pls
3610 1201 Pls
3611 1010 Pls
3611 1132 Pls
3612 927 Pls
3612 1240 Pls
3613 1077 Pls
3613 1106 Pls
3614 1045 Pls
3614 1157 Pls
3615 1106 Pls
3616 971 Pls
3616 927 Pls
3617 1077 Pls
3617 1045 Pls
3618 1010 Pls
3618 927 Pls
3619 741 Pls
3619 1106 Pls
3620 1132 Pls
3620 1240 Pls
3621 1045 Pls
3621 927 Pls
3622 1077 Pls
3623 1132 Pls
3623 1106 Pls
3624 1132 Pls
3624 1010 Pls
3625 1045 Pls
3625 1077 Pls
3626 971 Pls
3626 927 Pls
3627 1106 Pls
3627 1106 Pls
3628 1045 Pls
3628 741 Pls
3629 741 Pls
3629 971 Pls
3630 1010 Pls
3630 1077 Pls
3631 1132 Pls
3632 1106 Pls
3632 1045 Pls
3633 971 Pls
3633 927 Pls
3634 927 Pls
3634 815 Pls
3635 1010 Pls
3635 1077 Pls
3636 510 Pls
3636 927 Pls
3637 927 Pls
3637 875 Pls
3638 927 Pls
3638 1106 Pls
3639 815 Pls
3639 815 Pls
3640 927 Pls
3640 971 Pls
3641 1010 Pls
3641 875 Pls
3642 875 Pls
3642 1010 Pls
3643 971 Pls
3643 1045 Pls
3644 927 Pls
3644 927 Pls
3645 927 Pls
3645 971 Pls
3646 1010 Pls
3646 971 Pls
3647 815 Pls
3647 1010 Pls
3648 741 Pls
3648 875 Pls
3649 875 Pls
3649 1045 Pls
3650 815 Pls
3650 1045 Pls
3651 645 Pls
3651 1077 Pls
3652 1045 Pls
3652 741 Pls
3653 927 Pls
3653 815 Pls
3654 971 Pls
3654 1077 Pls
3655 927 Pls
3655 1045 Pls
3656 815 Pls
3656 875 Pls
3657 971 Pls
3657 1010 Pls
3658 875 Pls
3658 645 Pls
3659 1132 Pls
3659 1106 Pls
3660 1010 Pls
3660 1157 Pls
3661 645 Pls
3661 1010 Pls
3662 1132 Pls
3662 1010 Pls
3663 927 Pls
3663 971 Pls
3664 875 Pls
3664 875 Pls
3665 875 Pls
3665 875 Pls
3665 927 Pls
3666 815 Pls
3666 510 Pls
3667 875 Pls
3667 927 Pls
3668 815 Pls
3668 927 Pls
3669 1010 Pls
3669 927 Pls
3670 1077 Pls
3670 927 Pls
3671 1010 Pls
3671 815 Pls
3672 1010 Pls
3672 510 Pls
3673 1045 Pls
3673 815 Pls
3674 875 Pls
3674 645 Pls
3674 815 Pls
3675 510 Pls
3675 741 Pls
3676 1010 Pls
3676 927 Pls
3677 645 Pls
3677 927 Pls
3678 510 Pls
3678 645 Pls
3679 645 Pls
3679 815 Pls
3680 875 Pls
3680 815 Pls
3680 927 Pls
3681 815 Pls
3681 741 Pls
3682 645 Pls
3682 815 Pls
3683 510 Pls
3683 741 Pls
3684 510 Pls
3684 1045 Pls
3685 875 Pls
3685 927 Pls
3685 927 Pls
3686 741 Pls
3686 645 Pls
3687 645 Pls
3687 741 Pls
3688 510 Pls
3688 875 Pls
3689 815 Pls
3689 645 Pls
3690 971 Pls
3690 875 Pls
3690 875 Pls
3691 280 Pls
3691 927 Pls
3692 927 Pls
3692 510 Pls
3693 645 Pls
3693 510 Pls
3694 971 Pls
3694 645 Pls
3695 815 Pls
3695 645 Pls
3696 510 Pls
3696 280 Pls
3697 927 Pls
3697 645 Pls
3697 645 Pls
3698 510 Pls
3699 645 Pls
3699 927 Pls
3700 875 Pls
3700 971 Pls
3701 510 Pls
3701 645 Pls
3701 645 Pls
3702 510 Pls
3702 875 Pls
3703 741 Pls
3703 741 Pls
3704 815 Pls
3704 927 Pls
3704 815 Pls
3705 815 Pls
3705 875 Pls
3706 927 Pls
3706 741 Pls
3707 815 Pls
3707 815 Pls
3707 645 Pls
3708 741 Pls
3708 741 Pls
3709 510 Pls
3709 280 Pls
3710 1045 Pls
3710 875 Pls
3710 510 Pls
3711 875 Pls
3711 741 Pls
3712 927 Pls
3712 875 Pls
3713 510 Pls
3713 280 Pls
3713 741 Pls
3714 645 Pls
3714 815 Pls
3715 645 Pls
3715 280 Pls
3715 645 Pls
3716 815 Pls
3716 645 Pls
3717 815 Pls
3717 510 Pls
3718 875 Pls
3718 741 Pls
3718 741 Pls
3719 645 Pls
3719 280 Pls
3720 741 Pls
3720 510 Pls
3720 510 Pls
3721 645 Pls
3721 815 Pls
3722 741 Pls
3722 280 Pls
3722 645 Pls
3723 510 Pls
3723 971 Pls
3724 510 Pls
3724 815 Pls
3725 815 Pls
3725 971 Pls
3725 815 Pls
3726 280 Pls
3726 741 Pls
3727 875 Pls
3727 645 Pls
3727 875 Pls
3728 645 Pls
3728 645 Pls
3729 741 Pls
3729 645 Pls
3729 875 Pls
3730 510 Pls
3730 875 Pls
3731 510 Pls
3731 815 Pls
3731 510 Pls
3732 815 Pls
3732 645 Pls
3733 815 Pls
3733 741 Pls
3733 280 Pls
3734 1010 Pls
3734 815 Pls
3735 927 Pls
3735 875 Pls
3735 927 Pls
3736 927 Pls
3736 510 Pls
3737 645 Pls
3737 875 Pls
3737 280 Pls
3738 645 Pls
3738 741 Pls
3739 510 Pls
3739 645 Pls
3739 510 Pls
3740 645 Pls
3740 510 Pls
3741 645 Pls
3741 741 Pls
3741 875 Pls
3742 645 Pls
3742 741 Pls
3742 741 Pls
3743 875 Pls
3743 875 Pls
3744 510 Pls
3744 971 Pls
3744 741 Pls
3745 815 Pls
3745 741 Pls
3746 645 Pls
3746 875 Pls
3746 815 Pls
3747 815 Pls
3747 280 Pls
3747 815 Pls
3748 741 Pls
3748 875 Pls
3749 280 Pls
3749 741 Pls
3749 815 Pls
3750 510 Pls
3750 927 Pls
3751 510 Pls
3751 741 Pls
3751 1010 Pls
3752 815 Pls
3752 510 Pls
3752 510 Pls
3753 741 Pls
3753 741 Pls
3754 741 Pls
3754 741 Pls
3754 815 Pls
3755 280 Pls
3755 741 Pls
3755 510 Pls
3756 741 Pls
3756 510 Pls
3757 645 Pls
3757 510 Pls
3757 280 Pls
3758 875 Pls
3758 645 Pls
3758 875 Pls
3759 1045 Pls
3759 1045 Pls
3760 510 Pls
3760 280 Pls
3760 927 Pls
3761 645 Pls
3761 645 Pls
3761 645 Pls
3762 875 Pls
3762 645 Pls
3763 510 Pls
3763 280 Pls
3763 645 Pls
3764 510 Pls
3764 645 Pls
3764 645 Pls
3765 741 Pls
3765 280 Pls
3765 510 Pls
3766 645 Pls
3766 645 Pls
3767 741 Pls
3767 741 Pls
3767 510 Pls
3768 741 Pls
3768 510 Pls
3768 741 Pls
3769 815 Pls
3769 741 Pls
3769 815 Pls
3770 280 Pls
3770 741 Pls
3771 815 Pls
3771 645 Pls
3771 280 Pls
3772 510 Pls
3772 645 Pls
3773 280 Pls
3773 815 Pls
3773 280 Pls
3774 815 Pls
3774 280 Pls
3775 741 Pls
3776 741 Pls
3776 280 Pls
3776 510 Pls
3777 645 Pls
3777 280 Pls
3777 645 Pls
3778 510 Pls
3778 280 Pls
3778 645 Pls
3779 741 Pls
3779 815 Pls
3779 510 Pls
3780 645 Pls
3780 510 Pls
3781 645 Pls
3781 741 Pls
3781 741 Pls
3782 645 Pls
3782 510 Pls
3782 741 Pls
3783 510 Pls
3783 815 Pls
3783 280 Pls
3784 1045 Pls
3784 741 Pls
3784 815 Pls
3785 741 Pls
3785 280 Pls
3785 280 Pls
3786 510 Pls
3786 280 Pls
3786 510 Pls
3787 510 Pls
3787 645 Pls
3787 510 Pls
3788 280 Pls
3788 971 Pls
3789 971 Pls
3789 645 Pls
3790 645 Pls
3790 510 Pls
3790 741 Pls
3791 815 Pls
3791 510 Pls
3792 510 Pls
3792 510 Pls
3792 510 Pls
3793 645 Pls
3793 280 Pls
3794 645 Pls
3794 280 Pls
3795 645 Pls
3795 645 Pls
3796 741 Pls
3796 645 Pls
3797 510 Pls
3797 280 Pls
3797 741 Pls
3798 741 Pls
3798 645 Pls
3798 741 Pls
3799 645 Pls
3800 645 Pls
3800 875 Pls
3800 875 Pls
3801 510 Pls
3801 510 Pls
3801 645 Pls
3802 741 Pls
3802 280 Pls
3802 927 Pls
3803 1045 Pls
3803 971 Pls
3803 741 Pls
3804 280 Pls
3804 510 Pls
3804 741 Pls
3805 741 Pls
3805 280 Pls
3806 510 Pls
3806 280 Pls
3806 280 Pls
3807 280 Pls
3807 280 Pls
3807 645 Pls
3808 645 Pls
3808 510 Pls
3808 815 Pls
3809 645 Pls
3809 510 Pls
3809 510 Pls
3810 741 Pls
3810 741 Pls
3811 510 Pls
3811 741 Pls
3811 510 Pls
3812 280 Pls
3812 645 Pls
3812 280 Pls
3812 510 Pls
3813 510 Pls
3813 510 Pls
3813 510 Pls
3814 510 Pls
3814 741 Pls
3814 510 Pls
3815 510 Pls
3815 815 Pls
3815 510 Pls
3816 645 Pls
3816 741 Pls
3816 280 Pls
3817 645 Pls
3817 645 Pls
3818 280 Pls
3818 645 Pls
3818 510 Pls
3819 971 Pls
3819 645 Pls
3819 280 Pls
3820 510 Pls
3820 645 Pls
3820 645 Pls
3820 815 Pls
3821 510 Pls
3821 280 Pls
3821 280 Pls
3822 280 Pls
3822 645 Pls
3823 875 Pls
3823 741 Pls
3824 645 Pls
3824 280 Pls
3824 815 Pls
3825 510 Pls
3825 510 Pls
3825 280 Pls
3825 510 Pls
3826 510 Pls
3826 645 Pls
3826 510 Pls
3827 645 Pls
3827 280 Pls
3828 741 Pls
3828 510 Pls
3829 510 Pls
3829 645 Pls
3830 280 Pls
3830 510 Pls
3830 280 Pls
3831 510 Pls
3831 280 Pls
3832 510 Pls
3832 510 Pls
3833 510 Pls
3833 815 Pls
3833 510 Pls
3834 645 Pls
3834 280 Pls
3834 280 Pls
3834 510 Pls
3835 815 Pls
3835 280 Pls
3835 280 Pls
3836 280 Pls
3836 645 Pls
3837 510 Pls
3837 741 Pls
3837 280 Pls
3838 645 Pls
3838 510 Pls
3838 510 Pls
3839 510 Pls
3839 645 Pls
3839 741 Pls
3840 875 Pls
3840 510 Pls
3840 510 Pls
3840 815 Pls
3841 510 Pls
3841 510 Pls
3841 875 Pls
3842 510 Pls
3842 280 Pls
3842 280 Pls
3843 280 Pls
3843 510 Pls
3844 815 Pls
3844 280 Pls
3844 645 Pls
3845 280 Pls
3845 510 Pls
3846 510 Pls
3846 510 Pls
3846 510 Pls
3847 280 Pls
3847 510 Pls
3847 645 Pls
3848 741 Pls
3848 510 Pls
3848 510 Pls
3848 280 Pls
3849 510 Pls
3849 875 Pls
3850 510 Pls
3850 280 Pls
3850 645 Pls
3850 510 Pls
3851 280 Pls
3851 741 Pls
3852 280 Pls
3852 280 Pls
3852 645 Pls
3853 875 Pls
3853 280 Pls
3853 510 Pls
3853 645 Pls
3854 875 Pls
3854 280 Pls
3854 280 Pls
3855 875 Pls
3855 510 Pls
3855 280 Pls
3856 645 Pls
3856 645 Pls
3857 510 Pls
3857 645 Pls
3857 280 Pls
3857 280 Pls
3858 510 Pls
3859 645 Pls
3859 280 Pls
3859 741 Pls
3859 280 Pls
3860 510 Pls
3860 741 Pls
3861 741 Pls
3861 280 Pls
3861 280 Pls
3861 510 Pls
3862 645 Pls
3862 645 Pls
3862 645 Pls
3863 280 Pls
3863 510 Pls
3863 510 Pls
3864 280 Pls
3864 510 Pls
3864 280 Pls
3865 815 Pls
3865 280 Pls
3865 280 Pls
3865 741 Pls
3866 815 Pls
3866 645 Pls
3866 510 Pls
3866 510 Pls
3867 815 Pls
3867 645 Pls
3867 280 Pls
3868 815 Pls
3868 280 Pls
3868 645 Pls
3869 645 Pls
3869 280 Pls
3869 815 Pls
3870 645 Pls
3870 510 Pls
3870 280 Pls
3870 280 Pls
3871 280 Pls
3871 741 Pls
3871 645 Pls
3872 875 Pls
3872 510 Pls
3872 280 Pls
3873 741 Pls
3873 741 Pls
3873 510 Pls
3873 645 Pls
3874 645 Pls
3874 645 Pls
3874 815 Pls
3875 510 Pls
3875 280 Pls
3875 645 Pls
3876 510 Pls
3876 280 Pls
3876 510 Pls
3876 510 Pls
3877 280 Pls
3877 645 Pls
3877 280 Pls
3878 510 Pls
3878 280 Pls
3878 645 Pls
3879 510 Pls
3879 280 Pls
3879 280 Pls
3880 645 Pls
3880 510 Pls
3881 645 Pls
3882 280 Pls
3882 510 Pls
3882 510 Pls
3883 510 Pls
3883 645 Pls
3883 510 Pls
3883 280 Pls
3884 510 Pls
3884 645 Pls
3884 510 Pls
3885 741 Pls
3885 510 Pls
3885 645 Pls
3886 280 Pls
3886 280 Pls
3886 510 Pls
3887 645 Pls
3887 1010 Pls
3887 280 Pls
3887 875 Pls
3888 645 Pls
3888 645 Pls
3888 741 Pls
3888 280 Pls
3889 815 Pls
3889 645 Pls
3889 645 Pls
3890 280 Pls
3890 280 Pls
3891 510 Pls
3891 645 Pls
3892 510 Pls
3892 280 Pls
3892 280 Pls
3892 741 Pls
3893 510 Pls
3893 510 Pls
3893 645 Pls
3893 645 Pls
3894 280 Pls
3894 280 Pls
3894 645 Pls
3895 510 Pls
3895 510 Pls
3895 510 Pls
3895 510 Pls
3896 280 Pls
3896 280 Pls
3896 741 Pls
3897 510 Pls
3897 645 Pls
3898 645 Pls
3898 510 Pls
3898 280 Pls
3899 510 Pls
3899 510 Pls
3900 741 Pls
3900 510 Pls
3900 510 Pls
3901 510 Pls
3901 741 Pls
3901 510 Pls
3901 741 Pls
3902 645 Pls
3902 510 Pls
3902 510 Pls
3903 645 Pls
3903 510 Pls
3904 815 Pls
3904 815 Pls
3904 645 Pls
3905 510 Pls
3905 280 Pls
3905 280 Pls
3905 510 Pls
3906 510 Pls
3906 280 Pls
3906 510 Pls
3907 510 Pls
3907 280 Pls
3907 645 Pls
3908 510 Pls
3908 280 Pls
3908 280 Pls
3909 510 Pls
3909 510 Pls
3910 280 Pls
3910 510 Pls
3910 645 Pls
3911 645 Pls
3911 741 Pls
3911 741 Pls
3912 645 Pls
3912 280 Pls
3913 645 Pls
3913 510 Pls
3913 280 Pls
3913 510 Pls
3914 510 Pls
3914 280 Pls
3915 510 Pls
3915 280 Pls
3915 510 Pls
3915 645 Pls
3916 280 Pls
3916 510 Pls
3916 280 Pls
3917 280 Pls
3917 645 Pls
3917 280 Pls
3918 645 Pls
3918 645 Pls
3918 280 Pls
3919 927 Pls
3919 645 Pls
3919 280 Pls
3919 280 Pls
3919 280 Pls
3920 280 Pls
3920 510 Pls
3921 280 Pls
3921 510 Pls
3921 510 Pls
3922 741 Pls
3922 280 Pls
3922 510 Pls
3923 510 Pls
3923 510 Pls
3923 510 Pls
3923 280 Pls
3924 280 Pls
3924 280 Pls
3924 510 Pls
3925 510 Pls
3925 280 Pls
3925 645 Pls
3925 280 Pls
3926 510 Pls
3926 815 Pls
3927 280 Pls
3927 280 Pls
3927 280 Pls
3928 510 Pls
3928 510 Pls
3929 280 Pls
3929 741 Pls
3929 741 Pls
3930 280 Pls
3930 510 Pls
3930 645 Pls
3931 645 Pls
3931 510 Pls
3931 645 Pls
3931 510 Pls
3932 510 Pls
3932 741 Pls
3932 280 Pls
3933 510 Pls
3933 645 Pls
3933 280 Pls
3934 280 Pls
3934 645 Pls
3934 280 Pls
3935 280 Pls
3935 280 Pls
3935 510 Pls
3935 645 Pls
3936 280 Pls
3936 280 Pls
3936 280 Pls
3937 280 Pls
3937 280 Pls
3937 510 Pls
3937 280 Pls
3938 280 Pls
3938 280 Pls
3938 645 Pls
3939 510 Pls
3939 280 Pls
3940 510 Pls
3940 280 Pls
3940 280 Pls
3940 280 Pls
3940 510 Pls
3941 510 Pls
3941 280 Pls
3941 280 Pls
3942 510 Pls
3942 280 Pls
3942 280 Pls
3942 741 Pls
3943 510 Pls
3943 645 Pls
3944 645 Pls
3944 645 Pls
3945 280 Pls
3945 280 Pls
3945 510 Pls
3945 645 Pls
3946 280 Pls
3946 510 Pls
3947 280 Pls
3947 510 Pls
3947 645 Pls
3947 510 Pls
3948 280 Pls
3948 510 Pls
3948 645 Pls
3948 280 Pls
3949 280 Pls
3949 510 Pls
3950 280 Pls
3950 280 Pls
3950 510 Pls
3950 280 Pls
3951 510 Pls
3951 741 Pls
3951 280 Pls
3951 645 Pls
3952 280 Pls
3952 645 Pls
3952 280 Pls
3952 280 Pls
3953 280 Pls
3953 645 Pls
3953 510 Pls
3953 280 Pls
3954 280 Pls
3954 280 Pls
3954 280 Pls
3954 280 Pls
3955 280 Pls
3955 280 Pls
3955 510 Pls
3956 280 Pls
3956 280 Pls
3956 280 Pls
3956 510 Pls
3957 510 Pls
3957 510 Pls
3957 280 Pls
3957 280 Pls
3958 510 Pls
3958 510 Pls
3959 645 Pls
3959 280 Pls
3959 510 Pls
3959 280 Pls
3959 280 Pls
3960 280 Pls
3960 280 Pls
3960 280 Pls
3961 510 Pls
3961 510 Pls
3961 280 Pls
3962 645 Pls
3962 510 Pls
3962 741 Pls
3963 280 Pls
3963 510 Pls
3963 280 Pls
3963 280 Pls
3964 645 Pls
3964 280 Pls
3965 280 Pls
3965 741 Pls
3965 280 Pls
3965 280 Pls
3965 741 Pls
3966 510 Pls
3966 280 Pls
3967 645 Pls
3967 280 Pls
3968 510 Pls
3968 280 Pls
3968 280 Pls
3969 280 Pls
3969 510 Pls
3969 280 Pls
3970 510 Pls
3970 510 Pls
3970 510 Pls
3970 280 Pls
3971 510 Pls
3971 280 Pls
3971 645 Pls
3972 510 Pls
3972 645 Pls
3972 280 Pls
3972 280 Pls
3973 280 Pls
3973 280 Pls
3973 645 Pls
3974 510 Pls
3974 280 Pls
3974 280 Pls
3974 280 Pls
3974 741 Pls
3975 510 Pls
3975 280 Pls
3975 280 Pls
3976 280 Pls
3976 645 Pls
3976 645 Pls
3976 510 Pls
3976 741 Pls
3977 645 Pls
3977 741 Pls
3977 510 Pls
3978 741 Pls
3978 280 Pls
3979 510 Pls
3979 280 Pls
3979 280 Pls
3979 645 Pls
3980 280 Pls
3980 280 Pls
3981 280 Pls
3982 510 Pls
3982 645 Pls
3982 510 Pls
3983 280 Pls
3983 510 Pls
3983 815 Pls
3984 280 Pls
3984 280 Pls
3984 280 Pls
3984 280 Pls
3985 510 Pls
3985 280 Pls
3985 280 Pls
3986 510 Pls
3986 510 Pls
3986 280 Pls
3987 280 Pls
3987 280 Pls
3987 510 Pls
3987 280 Pls
3988 645 Pls
3988 280 Pls
3988 280 Pls
3988 280 Pls
3989 280 Pls
3989 645 Pls
3989 280 Pls
3990 280 Pls
3990 280 Pls
3990 280 Pls
3991 280 Pls
3991 280 Pls
3992 280 Pls
3992 510 Pls
3992 280 Pls
3992 280 Pls
3993 510 Pls
3993 510 Pls
3993 510 Pls
3994 510 Pls
3994 280 Pls
3995 280 Pls
3995 280 Pls
3995 280 Pls
3996 510 Pls
3997 815 Pls
3997 510 Pls
3998 280 Pls
3998 280 Pls
3998 280 Pls
3999 280 Pls
3999 280 Pls
3999 510 Pls
3999 280 Pls
3999 510 Pls
4000 280 Pls
4001 645 Pls
4002 510 Pls
4002 280 Pls
4003 280 Pls
4003 280 Pls
4004 280 Pls
4004 510 Pls
4004 280 Pls
4005 280 Pls
4005 510 Pls
4005 645 Pls
4005 645 Pls
4005 280 Pls
4006 280 Pls
4006 280 Pls
4006 280 Pls
4006 645 Pls
4007 280 Pls
4007 741 Pls
4007 280 Pls
4007 280 Pls
4008 280 Pls
4008 510 Pls
4008 280 Pls
4009 280 Pls
4010 510 Pls
4010 510 Pls
4010 280 Pls
4011 510 Pls
4012 280 Pls
4012 510 Pls
4012 280 Pls
4012 280 Pls
4012 645 Pls
4012 510 Pls
4013 280 Pls
4013 280 Pls
4014 280 Pls
4014 280 Pls
4015 280 Pls
4015 741 Pls
4015 280 Pls
4016 510 Pls
4016 510 Pls
4016 280 Pls
4016 510 Pls
4017 280 Pls
4017 280 Pls
4017 741 Pls
4018 280 Pls
4018 645 Pls
4018 280 Pls
4018 645 Pls
4018 280 Pls
4018 510 Pls
4019 280 Pls
4019 280 Pls
4019 510 Pls
4020 280 Pls
4020 280 Pls
4020 280 Pls
4021 280 Pls
4021 510 Pls
4022 510 Pls
4022 510 Pls
4022 280 Pls
4022 280 Pls
4023 510 Pls
4023 510 Pls
4023 510 Pls
4024 280 Pls
4024 280 Pls
4025 280 Pls
4025 510 Pls
4026 280 Pls
4026 280 Pls
4026 280 Pls
4026 280 Pls
4027 280 Pls
4028 280 Pls
4028 645 Pls
4029 280 Pls
4030 741 Pls
4030 510 Pls
4030 645 Pls
4030 280 Pls
4030 280 Pls
4031 280 Pls
4031 280 Pls
4031 280 Pls
4032 280 Pls
4032 510 Pls
4032 280 Pls
4033 510 Pls
4033 280 Pls
4033 280 Pls
4034 510 Pls
4034 741 Pls
4034 280 Pls
4034 645 Pls
4035 280 Pls
4035 280 Pls
4035 510 Pls
4036 280 Pls
4036 280 Pls
4036 510 Pls
4036 510 Pls
4037 280 Pls
4037 510 Pls
4037 510 Pls
4037 510 Pls
4038 645 Pls
4038 280 Pls
4038 280 Pls
4039 510 Pls
4039 645 Pls
4039 280 Pls
4040 280 Pls
4040 280 Pls
4040 280 Pls
4040 280 Pls
4041 280 Pls
4041 280 Pls
4041 280 Pls
4042 645 Pls
4042 280 Pls
4042 645 Pls
4042 280 Pls
4043 280 Pls
4043 645 Pls
4043 280 Pls
4043 645 Pls
4044 280 Pls
4044 280 Pls
4044 510 Pls
4044 280 Pls
4045 280 Pls
4045 280 Pls
4046 280 Pls
4046 510 Pls
4046 280 Pls
4046 645 Pls
4047 280 Pls
4047 510 Pls
4047 280 Pls
4048 280 Pls
4048 510 Pls
4048 280 Pls
4049 280 Pls
4049 280 Pls
4049 280 Pls
4049 510 Pls
4050 280 Pls
4050 280 Pls
4050 645 Pls
4051 510 Pls
4051 815 Pls
4051 280 Pls
4051 510 Pls
4052 510 Pls
4052 510 Pls
4052 510 Pls
4052 280 Pls
4053 510 Pls
4053 280 Pls
4053 510 Pls
4053 510 Pls
4054 510 Pls
4054 280 Pls
4054 280 Pls
4055 280 Pls
4055 280 Pls
4055 280 Pls
4055 280 Pls
4055 280 Pls
4056 510 Pls
4057 280 Pls
4057 280 Pls
4057 280 Pls
4057 280 Pls
4057 280 Pls
4058 280 Pls
4058 280 Pls
4058 280 Pls
4058 280 Pls
4058 280 Pls
4058 280 Pls
4059 510 Pls
4059 280 Pls
4059 645 Pls
4059 280 Pls
4060 741 Pls
4060 510 Pls
4061 510 Pls
4061 280 Pls
4061 510 Pls
4061 645 Pls
4061 280 Pls
4062 280 Pls
4062 280 Pls
4062 645 Pls
4063 510 Pls
4063 510 Pls
4063 510 Pls
4064 510 Pls
4064 280 Pls
4064 510 Pls
4064 510 Pls
4065 280 Pls
4065 280 Pls
4066 280 Pls
4066 280 Pls
4066 510 Pls
4067 280 Pls
4067 280 Pls
4068 645 Pls
4068 280 Pls
4068 510 Pls
4069 645 Pls
4069 280 Pls
4069 510 Pls
4070 510 Pls
4070 510 Pls
4070 280 Pls
4071 510 Pls
4072 280 Pls
4072 280 Pls
4072 280 Pls
4073 280 Pls
4073 280 Pls
4073 280 Pls
4073 280 Pls
4074 510 Pls
4074 280 Pls
4074 280 Pls
4075 645 Pls
4075 510 Pls
4076 645 Pls
4076 280 Pls
4076 280 Pls
4077 280 Pls
4077 280 Pls
4077 280 Pls
4078 280 Pls
4078 645 Pls
4078 280 Pls
4078 280 Pls
4078 280 Pls
4079 280 Pls
4079 280 Pls
4080 280 Pls
4080 510 Pls
4080 280 Pls
4080 280 Pls
4081 280 Pls
4081 510 Pls
4081 280 Pls
4081 280 Pls
4081 280 Pls
4082 280 Pls
4082 280 Pls
4082 280 Pls
4082 280 Pls
4083 280 Pls
4084 280 Pls
4084 280 Pls
4085 510 Pls
4086 280 Pls
4086 280 Pls
4086 280 Pls
4087 280 Pls
4087 280 Pls
4087 280 Pls
4087 280 Pls
4088 280 Pls
4088 510 Pls
4088 280 Pls
4088 510 Pls
4088 280 Pls
4088 280 Pls
4089 280 Pls
4089 280 Pls
4089 510 Pls
4089 280 Pls
4089 280 Pls
4090 280 Pls
4090 280 Pls
4090 510 Pls
4090 280 Pls
4090 280 Pls
4091 280 Pls
4091 280 Pls
4092 280 Pls
4092 280 Pls
4092 280 Pls
4093 280 Pls
4093 280 Pls
4095 280 Pls
4095 280 Pls
4096 280 Pls
4097 280 Pls
4097 280 Pls
4097 280 Pls
4098 280 Pls
4098 280 Pls
4098 280 Pls
4099 280 Pls
4099 280 Pls
4100 510 Pls
4100 280 Pls
4100 510 Pls
4101 510 Pls
4101 510 Pls
4101 280 Pls
4102 280 Pls
4102 510 Pls
4102 280 Pls
4102 280 Pls
4102 280 Pls
4102 510 Pls
4103 280 Pls
4103 280 Pls
4103 280 Pls
4104 280 Pls
4104 280 Pls
4105 280 Pls
4105 280 Pls
4105 280 Pls
4105 280 Pls
4106 280 Pls
4106 280 Pls
4106 280 Pls
4107 280 Pls
4107 280 Pls
4107 280 Pls
4108 280 Pls
4108 510 Pls
4108 280 Pls
4108 280 Pls
4109 280 Pls
4109 280 Pls
4109 510 Pls
4110 280 Pls
4110 280 Pls
4110 280 Pls
4111 280 Pls
4111 280 Pls
4111 510 Pls
4112 280 Pls
4112 280 Pls
4112 510 Pls
4113 645 Pls
4113 510 Pls
4113 280 Pls
4113 280 Pls
4114 280 Pls
4114 510 Pls
4115 645 Pls
4115 280 Pls
4115 280 Pls
4115 280 Pls
4116 280 Pls
4116 280 Pls
4117 280 Pls
4118 280 Pls
4118 280 Pls
4118 280 Pls
4119 280 Pls
4120 510 Pls
4120 280 Pls
4120 280 Pls
4120 280 Pls
4121 280 Pls
4121 280 Pls
4122 280 Pls
4122 280 Pls
4122 280 Pls
4122 280 Pls
4123 280 Pls
4123 280 Pls
4123 510 Pls
4123 280 Pls
4124 280 Pls
4124 280 Pls
4124 510 Pls
4124 280 Pls
4125 280 Pls
4125 280 Pls
4125 280 Pls
4126 510 Pls
4126 280 Pls
4126 280 Pls
4126 510 Pls
4126 510 Pls
4127 510 Pls
4127 510 Pls
4127 280 Pls
4127 280 Pls
4127 645 Pls
4128 280 Pls
4128 280 Pls
4128 280 Pls
4128 510 Pls
4129 280 Pls
4129 280 Pls
4130 280 Pls
4130 280 Pls
4131 280 Pls
4131 280 Pls
4131 280 Pls
4131 280 Pls
4132 280 Pls
4132 280 Pls
4132 280 Pls
4133 280 Pls
4134 280 Pls
4135 280 Pls
4135 510 Pls
4135 510 Pls
4135 280 Pls
4136 280 Pls
4136 280 Pls
4136 280 Pls
4136 280 Pls
4136 280 Pls
4136 280 Pls
4137 280 Pls
4137 510 Pls
4137 510 Pls
4137 741 Pls
4138 280 Pls
4138 280 Pls
4138 510 Pls
4139 280 Pls
4139 645 Pls
4140 280 Pls
4140 280 Pls
4141 510 Pls
4142 280 Pls
4142 280 Pls
4142 280 Pls
4142 280 Pls
4143 280 Pls
4143 280 Pls
4144 280 Pls
4144 280 Pls
4145 280 Pls
4145 280 Pls
4145 280 Pls
4145 280 Pls
4146 510 Pls
4147 280 Pls
4147 280 Pls
4147 280 Pls
4147 280 Pls
4149 280 Pls
4149 280 Pls
4149 280 Pls
4149 645 Pls
4150 510 Pls
4150 510 Pls
4150 280 Pls
4151 280 Pls
4151 510 Pls
4151 280 Pls
4152 280 Pls
4152 280 Pls
4153 280 Pls
4153 280 Pls
4153 280 Pls
4154 280 Pls
4154 280 Pls
4154 280 Pls
4154 510 Pls
4154 280 Pls
4154 280 Pls
4155 510 Pls
4156 280 Pls
4156 280 Pls
4156 510 Pls
4156 510 Pls
4157 280 Pls
4157 280 Pls
4157 280 Pls
4157 280 Pls
4158 280 Pls
4158 280 Pls
4158 280 Pls
4158 510 Pls
4159 280 Pls
4159 280 Pls
4159 280 Pls
4159 280 Pls
4159 280 Pls
4159 280 Pls
4160 280 Pls
4160 280 Pls
4161 510 Pls
4162 280 Pls
4162 280 Pls
4162 280 Pls
4163 280 Pls
4163 280 Pls
4163 280 Pls
4163 280 Pls
4164 510 Pls
4164 280 Pls
4165 280 Pls
4165 280 Pls
4166 510 Pls
4166 510 Pls
4166 741 Pls
4166 280 Pls
4166 280 Pls
4167 645 Pls
4167 280 Pls
4167 280 Pls
4167 741 Pls
4167 510 Pls
4167 280 Pls
4168 741 Pls
4168 927 Pls
4168 1606 Pls
4168 280 Pls
4168 280 Pls
4169 280 Pls
4170 510 Pls
4170 280 Pls
4171 280 Pls
4171 510 Pls
4171 280 Pls
4171 280 Pls
4172 280 Pls
4173 280 Pls
4173 280 Pls
4173 280 Pls
4174 510 Pls
4174 280 Pls
4174 510 Pls
4175 280 Pls
4175 280 Pls
4175 280 Pls
4175 280 Pls
4175 280 Pls
4177 280 Pls
4177 510 Pls
4177 280 Pls
4177 280 Pls
4178 280 Pls
4178 280 Pls
4179 280 Pls
4179 510 Pls
4179 280 Pls
4180 280 Pls
4180 280 Pls
4181 280 Pls
4181 280 Pls
4181 280 Pls
4181 280 Pls
4181 510 Pls
4182 280 Pls
4182 280 Pls
4182 280 Pls
4183 645 Pls
4183 280 Pls
4183 280 Pls
4183 280 Pls
4184 280 Pls
4184 280 Pls
4184 510 Pls
4184 280 Pls
4185 280 Pls
4185 280 Pls
4186 280 Pls
4186 510 Pls
4186 280 Pls
4187 280 Pls
4187 280 Pls
4187 280 Pls
4187 280 Pls
4188 280 Pls
4188 280 Pls
4188 280 Pls
4188 280 Pls
4189 280 Pls
4189 280 Pls
4190 280 Pls
4190 280 Pls
4190 510 Pls
4191 280 Pls
4192 280 Pls
4193 280 Pls
4193 280 Pls
4194 280 Pls
4194 280 Pls
4194 280 Pls
4195 510 Pls
4195 280 Pls
4196 280 Pls
4196 280 Pls
4196 510 Pls
4197 280 Pls
4197 280 Pls
4197 510 Pls
4198 280 Pls
4198 280 Pls
4198 280 Pls
4199 280 Pls
4199 280 Pls
4199 815 Pls
4199 280 Pls
4200 280 Pls
4200 280 Pls
4200 280 Pls
4200 280 Pls
4201 280 Pls
4202 280 Pls
4202 280 Pls
4203 280 Pls
4204 280 Pls
4204 280 Pls
4204 280 Pls
4204 280 Pls
4205 280 Pls
4205 280 Pls
4205 510 Pls
4206 280 Pls
4206 280 Pls
4206 280 Pls
4206 280 Pls
4206 280 Pls
4207 280 Pls
4207 510 Pls
4207 645 Pls
4208 280 Pls
4208 510 Pls
4208 280 Pls
4209 280 Pls
4210 280 Pls
4211 280 Pls
4212 510 Pls
4213 280 Pls
4213 280 Pls
4214 280 Pls
4214 280 Pls
4215 510 Pls
4215 280 Pls
4215 280 Pls
4217 280 Pls
4217 280 Pls
4217 280 Pls
4217 280 Pls
4218 645 Pls
4218 280 Pls
4218 510 Pls
4219 280 Pls
4219 280 Pls
4219 280 Pls
4219 280 Pls
4220 280 Pls
4221 280 Pls
4221 280 Pls
4222 280 Pls
4223 280 Pls
4223 280 Pls
4223 280 Pls
4223 280 Pls
4223 510 Pls
4224 280 Pls
4224 280 Pls
4224 280 Pls
4224 280 Pls
4226 280 Pls
4226 280 Pls
4228 645 Pls
4228 280 Pls
4228 280 Pls
4228 280 Pls
4229 280 Pls
4229 280 Pls
4229 510 Pls
4230 280 Pls
4230 280 Pls
4231 280 Pls
4231 280 Pls
4232 280 Pls
4232 280 Pls
4232 510 Pls
4232 280 Pls
4233 280 Pls
4233 280 Pls
4233 280 Pls
4233 645 Pls
4233 645 Pls
4233 645 Pls
4233 280 Pls
4235 510 Pls
4235 280 Pls
4235 280 Pls
4236 280 Pls
4236 280 Pls
4236 280 Pls
4237 280 Pls
4237 280 Pls
4237 280 Pls
4238 280 Pls
4238 280 Pls
4239 280 Pls
4239 280 Pls
4239 280 Pls
4240 280 Pls
4240 280 Pls
4240 280 Pls
4242 280 Pls
4242 280 Pls
4242 280 Pls
4243 510 Pls
4243 280 Pls
4243 280 Pls
4244 280 Pls
4244 280 Pls
4245 510 Pls
4245 280 Pls
4246 280 Pls
4246 280 Pls
4247 510 Pls
4247 280 Pls
4247 280 Pls
4247 280 Pls
4248 510 Pls
4248 280 Pls
4248 280 Pls
4249 280 Pls
4249 280 Pls
4249 280 Pls
4250 280 Pls
4251 280 Pls
4251 280 Pls
4251 280 Pls
4251 280 Pls
4251 280 Pls
4252 280 Pls
4252 280 Pls
4252 280 Pls
4253 645 Pls
4253 280 Pls
4253 280 Pls
4253 280 Pls
4253 280 Pls
4253 280 Pls
4253 280 Pls
4254 280 Pls
4254 280 Pls
4254 510 Pls
4254 510 Pls
4254 280 Pls
4254 645 Pls
4255 280 Pls
4255 280 Pls
4257 280 Pls
4257 510 Pls
4257 280 Pls
4257 280 Pls
4257 280 Pls
4258 280 Pls
4258 280 Pls
4258 280 Pls
4258 280 Pls
4259 280 Pls
4259 280 Pls
4259 510 Pls
4259 280 Pls
4260 280 Pls
4260 280 Pls
4261 280 Pls
4261 510 Pls
4261 280 Pls
4261 280 Pls
4262 280 Pls
4262 280 Pls
4262 280 Pls
4262 280 Pls
4263 280 Pls
4263 280 Pls
4263 280 Pls
4263 280 Pls
4263 280 Pls
4263 280 Pls
4264 510 Pls
4264 280 Pls
4264 280 Pls
4264 280 Pls
4264 280 Pls
4265 280 Pls
4266 280 Pls
4266 280 Pls
4266 280 Pls
4267 280 Pls
4267 280 Pls
4267 280 Pls
4267 280 Pls
4268 280 Pls
4268 280 Pls
4269 280 Pls
4270 280 Pls
4271 280 Pls
4271 280 Pls
4271 280 Pls
4272 280 Pls
4273 510 Pls
4273 280 Pls
4273 280 Pls
4274 280 Pls
4275 280 Pls
4275 280 Pls
4276 280 Pls
4276 510 Pls
4276 280 Pls
4277 280 Pls
4277 280 Pls
4277 280 Pls
4277 280 Pls
4278 280 Pls
4278 280 Pls
4278 280 Pls
4279 280 Pls
4279 280 Pls
4279 280 Pls
4280 280 Pls
4281 280 Pls
4281 280 Pls
4282 280 Pls
4283 280 Pls
4283 280 Pls
4284 280 Pls
4284 280 Pls
4284 280 Pls
4285 280 Pls
4285 280 Pls
4285 280 Pls
4286 280 Pls
4286 280 Pls
4286 280 Pls
4286 510 Pls
4286 280 Pls
4286 280 Pls
4287 280 Pls
4287 280 Pls
4287 280 Pls
4288 280 Pls
4288 510 Pls
4288 280 Pls
4288 280 Pls
4289 280 Pls
4290 280 Pls
4291 280 Pls
4291 280 Pls
4292 280 Pls
4292 280 Pls
4292 280 Pls
4293 510 Pls
4293 280 Pls
4295 280 Pls
4295 280 Pls
4295 280 Pls
4295 280 Pls
4296 280 Pls
4297 280 Pls
4297 280 Pls
4297 280 Pls
4298 280 Pls
4298 280 Pls
4298 280 Pls
4298 280 Pls
4298 280 Pls
4298 280 Pls
4299 510 Pls
4299 280 Pls
4299 280 Pls
4300 280 Pls
4300 280 Pls
4300 280 Pls
4301 510 Pls
4301 510 Pls
4302 280 Pls
4302 280 Pls
4303 280 Pls
4303 280 Pls
4303 280 Pls
4304 280 Pls
4305 280 Pls
4305 280 Pls
4307 280 Pls
4307 280 Pls
4307 645 Pls
4308 280 Pls
4309 280 Pls
4309 280 Pls
4309 280 Pls
4309 645 Pls
4310 280 Pls
4310 510 Pls
4310 280 Pls
4311 510 Pls
4311 280 Pls
4312 510 Pls
4312 280 Pls
4312 280 Pls
4313 280 Pls
4314 280 Pls
4315 280 Pls
4315 280 Pls
4315 280 Pls
4316 280 Pls
4316 280 Pls
4317 280 Pls
4317 280 Pls
4317 280 Pls
4317 280 Pls
4317 280 Pls
4317 280 Pls
4318 280 Pls
4318 510 Pls
4318 280 Pls
4319 280 Pls
4319 280 Pls
4319 280 Pls
4320 280 Pls
4320 280 Pls
4320 280 Pls
4320 510 Pls
4320 280 Pls
4321 280 Pls
4321 280 Pls
4322 280 Pls
4322 280 Pls
4323 280 Pls
4324 280 Pls
4324 510 Pls
4324 510 Pls
4325 280 Pls
4325 280 Pls
4326 280 Pls
4326 280 Pls
4326 510 Pls
4326 280 Pls
4327 280 Pls
4327 510 Pls
4327 280 Pls
4328 280 Pls
4329 280 Pls
4329 280 Pls
4329 280 Pls
4330 280 Pls
4330 280 Pls
4330 280 Pls
4330 280 Pls
4331 280 Pls
4332 280 Pls
4332 280 Pls
4333 280 Pls
4334 280 Pls
4334 280 Pls
4335 510 Pls
4337 645 Pls
4337 280 Pls
4338 280 Pls
4339 280 Pls
4339 510 Pls
4340 280 Pls
4340 280 Pls
4340 280 Pls
4340 280 Pls
4340 280 Pls
4341 510 Pls
4341 510 Pls
4342 280 Pls
4342 280 Pls
4342 280 Pls
4342 280 Pls
4342 280 Pls
4343 280 Pls
4343 280 Pls
4343 280 Pls
4344 280 Pls
4344 280 Pls
4345 280 Pls
4345 280 Pls
4345 280 Pls
4346 280 Pls
4346 280 Pls
4346 280 Pls
4346 280 Pls
4347 280 Pls
4348 510 Pls
4349 510 Pls
4349 280 Pls
4349 280 Pls
4349 510 Pls
4351 510 Pls
4351 280 Pls
4352 280 Pls
4352 280 Pls
4352 280 Pls
4352 280 Pls
4353 280 Pls
4353 280 Pls
4353 280 Pls
4353 280 Pls
4353 645 Pls
4353 280 Pls
4354 280 Pls
4354 280 Pls
4355 510 Pls
4355 280 Pls
4356 280 Pls
4356 280 Pls
4357 510 Pls
4358 280 Pls
4358 280 Pls
4359 280 Pls
4360 280 Pls
4360 280 Pls
4360 280 Pls
4360 280 Pls
4361 280 Pls
4362 510 Pls
4362 280 Pls
4362 280 Pls
4362 280 Pls
4363 280 Pls
4363 280 Pls
4363 280 Pls
4363 280 Pls
4363 280 Pls
4364 280 Pls
4365 510 Pls
4365 280 Pls
4365 280 Pls
4366 280 Pls
4366 510 Pls
4366 510 Pls
4367 741 Pls
4367 510 Pls
4367 280 Pls
4367 280 Pls
4368 280 Pls
4368 280 Pls
4368 280 Pls
4369 280 Pls
4369 280 Pls
4369 280 Pls
4369 280 Pls
4369 510 Pls
4369 280 Pls
4369 280 Pls
4370 280 Pls
4370 280 Pls
4370 280 Pls
4370 280 Pls
4370 510 Pls
4372 280 Pls
4372 280 Pls
4372 280 Pls
4373 280 Pls
4373 280 Pls
4374 280 Pls
4374 280 Pls
4374 510 Pls
4375 280 Pls
4376 280 Pls
4376 280 Pls
4376 280 Pls
4376 280 Pls
4377 510 Pls
4378 280 Pls
4378 280 Pls
4378 280 Pls
4379 280 Pls
4380 280 Pls
4381 280 Pls
4381 280 Pls
4382 280 Pls
4382 280 Pls
4382 280 Pls
4382 280 Pls
4383 280 Pls
4383 280 Pls
4383 280 Pls
4383 280 Pls
4384 280 Pls
4384 280 Pls
4385 280 Pls
4386 280 Pls
4387 280 Pls
4388 280 Pls
4389 280 Pls
4389 280 Pls
4389 280 Pls
4390 280 Pls
4390 510 Pls
4390 280 Pls
4391 280 Pls
4391 280 Pls
4391 280 Pls
4391 280 Pls
4393 280 Pls
4394 280 Pls
4394 280 Pls
4395 280 Pls
4395 280 Pls
4395 280 Pls
4396 280 Pls
4396 280 Pls
4396 280 Pls
4397 280 Pls
4397 280 Pls
4398 510 Pls
4398 280 Pls
4398 280 Pls
4399 510 Pls
4400 510 Pls
4400 280 Pls
4401 280 Pls
4401 280 Pls
4402 280 Pls
4402 510 Pls
4403 280 Pls
4404 280 Pls
4404 280 Pls
4405 510 Pls
4406 280 Pls
4407 280 Pls
4407 280 Pls
4407 280 Pls
4408 280 Pls
4408 280 Pls
4409 280 Pls
4409 280 Pls
4409 280 Pls
4409 510 Pls
4410 280 Pls
4410 280 Pls
4411 280 Pls
4412 280 Pls
4412 280 Pls
4413 280 Pls
4413 280 Pls
4414 280 Pls
4415 280 Pls
4416 280 Pls
4416 280 Pls
4416 280 Pls
4416 280 Pls
4418 280 Pls
4419 280 Pls
4419 280 Pls
4420 280 Pls
4420 645 Pls
4420 280 Pls
4421 280 Pls
4421 280 Pls
4422 280 Pls
4423 280 Pls
4423 280 Pls
4424 280 Pls
4424 280 Pls
4424 280 Pls
4425 280 Pls
4425 510 Pls
4425 280 Pls
4426 280 Pls
4426 280 Pls
4426 280 Pls
4427 280 Pls
4427 280 Pls
4427 280 Pls
4428 280 Pls
4428 280 Pls
4430 280 Pls
4430 280 Pls
4430 280 Pls
4431 280 Pls
4431 280 Pls
4431 280 Pls
4431 280 Pls
4432 280 Pls
4432 280 Pls
4432 280 Pls
4432 280 Pls
4432 280 Pls
4432 280 Pls
4433 280 Pls
4433 280 Pls
4433 280 Pls
4433 280 Pls
4434 280 Pls
4434 280 Pls
4435 280 Pls
4435 280 Pls
4435 280 Pls
4435 280 Pls
4437 280 Pls
4437 280 Pls
4438 280 Pls
4439 280 Pls
4439 280 Pls
4440 280 Pls
4441 280 Pls
4442 280 Pls
4443 280 Pls
4443 280 Pls
4443 280 Pls
4444 280 Pls
4445 280 Pls
4445 280 Pls
4445 280 Pls
4445 280 Pls
4445 280 Pls
4446 280 Pls
4447 280 Pls
4447 280 Pls
4447 280 Pls
4447 280 Pls
4448 280 Pls
4449 280 Pls
4450 645 Pls
4450 280 Pls
4450 280 Pls
4450 510 Pls
4451 280 Pls
4451 280 Pls
4452 280 Pls
4452 280 Pls
4453 280 Pls
4453 280 Pls
4453 280 Pls
4453 280 Pls
4454 280 Pls
4454 280 Pls
4454 280 Pls
4455 510 Pls
4457 280 Pls
4457 280 Pls
4457 280 Pls
4458 280 Pls
4458 280 Pls
4459 280 Pls
4460 280 Pls
4460 280 Pls
4460 280 Pls
4461 280 Pls
4461 280 Pls
4462 280 Pls
4462 280 Pls
4463 280 Pls
4464 280 Pls
4464 280 Pls
4465 280 Pls
4465 280 Pls
4465 280 Pls
4466 280 Pls
4466 510 Pls
4467 280 Pls
4467 280 Pls
4468 280 Pls
4468 280 Pls
4469 280 Pls
4469 280 Pls
4469 280 Pls
4469 280 Pls
4469 280 Pls
4470 280 Pls
4470 280 Pls
4470 280 Pls
4470 280 Pls
4471 280 Pls
4471 280 Pls
4471 280 Pls
4472 280 Pls
4472 280 Pls
4473 280 Pls
4474 280 Pls
4474 280 Pls
4475 280 Pls
4475 280 Pls
4477 280 Pls
4477 280 Pls
4477 280 Pls
4478 510 Pls
4478 280 Pls
4478 280 Pls
4478 280 Pls
4479 280 Pls
4480 280 Pls
4482 280 Pls
4484 280 Pls
4485 280 Pls
4485 280 Pls
4488 280 Pls
4489 280 Pls
4489 280 Pls
4490 280 Pls
4491 280 Pls
4491 280 Pls
4492 280 Pls
4492 280 Pls
4492 280 Pls
4493 280 Pls
4493 280 Pls
4494 280 Pls
4494 280 Pls
4494 280 Pls
4494 280 Pls
4495 280 Pls
4495 280 Pls
4495 280 Pls
4495 280 Pls
4495 280 Pls
4496 280 Pls
4496 280 Pls
4497 280 Pls
4497 280 Pls
4497 280 Pls
4497 280 Pls
4498 280 Pls
4498 280 Pls
4498 280 Pls
4498 510 Pls
4498 280 Pls
4499 280 Pls
4499 280 Pls
4500 645 Pls
4500 280 Pls
4500 280 Pls
4500 280 Pls
4501 280 Pls
4502 280 Pls
4502 280 Pls
4502 280 Pls
4502 280 Pls
4502 280 Pls
4502 280 Pls
4503 280 Pls
4503 280 Pls
4503 280 Pls
4504 510 Pls
4504 280 Pls
4505 280 Pls
4505 280 Pls
4505 280 Pls
4506 510 Pls
4506 280 Pls
4506 280 Pls
4507 280 Pls
4507 280 Pls
4507 280 Pls
4507 280 Pls
4508 280 Pls
4508 280 Pls
4508 280 Pls
4509 280 Pls
4510 280 Pls
4510 280 Pls
4510 280 Pls
4511 280 Pls
4511 280 Pls
4512 510 Pls
4512 280 Pls
4512 280 Pls
4512 280 Pls
4513 280 Pls
4513 280 Pls
4513 280 Pls
4513 280 Pls
4513 280 Pls
4514 280 Pls
4514 280 Pls
4515 280 Pls
4515 280 Pls
4515 280 Pls
4515 280 Pls
4516 280 Pls
4518 280 Pls
4518 280 Pls
4518 280 Pls
4519 280 Pls
4520 280 Pls
4520 280 Pls
4521 280 Pls
4521 280 Pls
4521 280 Pls
4522 280 Pls
4523 280 Pls
4524 280 Pls
4524 280 Pls
4525 280 Pls
4525 280 Pls
4527 280 Pls
4527 280 Pls
4529 280 Pls
4529 280 Pls
4530 280 Pls
4530 280 Pls
4530 280 Pls
4531 280 Pls
4532 280 Pls
4532 280 Pls
4532 280 Pls
4533 280 Pls
4534 280 Pls
4534 280 Pls
4539 280 Pls
4541 645 Pls
4541 280 Pls
4541 510 Pls
4541 280 Pls
4542 280 Pls
4542 280 Pls
4542 280 Pls
4542 280 Pls
4542 280 Pls
4543 280 Pls
4543 280 Pls
4543 280 Pls
4544 645 Pls
4544 280 Pls
4544 280 Pls
4544 280 Pls
4545 280 Pls
4546 280 Pls
4546 280 Pls
4546 280 Pls
4546 280 Pls
4548 280 Pls
4548 280 Pls
4548 280 Pls
4549 280 Pls
4549 280 Pls
4549 510 Pls
4549 280 Pls
4549 280 Pls
4550 280 Pls
4550 280 Pls
4550 280 Pls
4550 280 Pls
4551 280 Pls
4551 280 Pls
4552 510 Pls
4552 280 Pls
4554 280 Pls
4554 280 Pls
4555 280 Pls
4555 280 Pls
4556 280 Pls
4556 280 Pls
4556 280 Pls
4556 280 Pls
4556 280 Pls
4556 280 Pls
4557 280 Pls
4557 280 Pls
4557 280 Pls
4558 280 Pls
4558 280 Pls
4559 280 Pls
4560 280 Pls
4561 280 Pls
4562 280 Pls
4562 280 Pls
4564 280 Pls
4564 280 Pls
4565 280 Pls
4565 280 Pls
4566 280 Pls
4566 280 Pls
4566 280 Pls
4567 280 Pls
4567 280 Pls
4568 280 Pls
4568 280 Pls
4568 280 Pls
4569 280 Pls
4569 280 Pls
4570 280 Pls
4571 280 Pls
4571 280 Pls
4571 280 Pls
4572 510 Pls
4573 280 Pls
4573 280 Pls
4573 280 Pls
4573 280 Pls
4573 280 Pls
4573 280 Pls
4574 280 Pls
4574 280 Pls
4576 280 Pls
4577 280 Pls
4577 280 Pls
4578 280 Pls
4578 280 Pls
4579 280 Pls
4580 280 Pls
4583 280 Pls
4583 280 Pls
4583 280 Pls
4583 280 Pls
4584 510 Pls
4584 280 Pls
4584 280 Pls
4585 280 Pls
4586 280 Pls
4586 280 Pls
4586 280 Pls
4587 280 Pls
4587 280 Pls
4588 280 Pls
4588 280 Pls
4590 280 Pls
4591 280 Pls
4591 280 Pls
4593 280 Pls
4593 280 Pls
4594 280 Pls
4594 280 Pls
4594 280 Pls
4596 280 Pls
4597 280 Pls
4598 280 Pls
4598 510 Pls
4598 280 Pls
4598 510 Pls
4598 510 Pls
4598 510 Pls
4599 280 Pls
4599 280 Pls
4599 280 Pls
4599 280 Pls
4600 280 Pls
4600 280 Pls
4601 280 Pls
4601 280 Pls
4601 280 Pls
4602 280 Pls
4603 280 Pls
4604 280 Pls
4605 280 Pls
4606 280 Pls
4607 280 Pls
4607 280 Pls
4608 280 Pls
4608 280 Pls
4608 280 Pls
4609 280 Pls
4609 280 Pls
4609 280 Pls
4609 280 Pls
4610 280 Pls
4611 280 Pls
4612 280 Pls
4613 280 Pls
4614 280 Pls
4614 280 Pls
4615 280 Pls
4615 280 Pls
4616 510 Pls
4616 280 Pls
4616 280 Pls
4618 280 Pls
4618 280 Pls
4618 280 Pls
4619 280 Pls
4619 280 Pls
4620 280 Pls
4620 280 Pls
4620 280 Pls
4621 280 Pls
4621 280 Pls
4622 280 Pls
4622 280 Pls
4623 510 Pls
4623 280 Pls
4624 280 Pls
4624 280 Pls
4625 280 Pls
4625 280 Pls
4626 280 Pls
4627 280 Pls
4629 280 Pls
4629 280 Pls
4631 280 Pls
4631 280 Pls
4632 280 Pls
4633 280 Pls
4633 280 Pls
4633 280 Pls
4634 280 Pls
4635 280 Pls
4635 280 Pls
4636 280 Pls
4636 280 Pls
4637 280 Pls
4638 280 Pls
4639 280 Pls
4640 280 Pls
4640 280 Pls
4641 280 Pls
4641 280 Pls
4641 280 Pls
4642 280 Pls
4642 280 Pls
4642 280 Pls
4642 510 Pls
4642 280 Pls
4643 280 Pls
4643 280 Pls
4643 280 Pls
4643 280 Pls
4645 280 Pls
4645 280 Pls
4645 280 Pls
4646 280 Pls
4646 280 Pls
4647 280 Pls
4648 280 Pls
4648 280 Pls
4649 280 Pls
4649 280 Pls
4649 280 Pls
4650 280 Pls
4650 280 Pls
4650 280 Pls
4650 280 Pls
4651 280 Pls
4651 280 Pls
4651 280 Pls
4651 280 Pls
4652 280 Pls
4653 510 Pls
4654 510 Pls
4654 280 Pls
4654 280 Pls
4654 280 Pls
4656 280 Pls
4656 280 Pls
4658 280 Pls
4658 280 Pls
4659 280 Pls
4659 280 Pls
4659 280 Pls
4660 280 Pls
4660 280 Pls
4661 280 Pls
4662 280 Pls
4662 280 Pls
4663 280 Pls
4664 280 Pls
4664 280 Pls
4665 280 Pls
4666 280 Pls
4666 280 Pls
4666 280 Pls
4667 280 Pls
4667 280 Pls
4668 280 Pls
4668 280 Pls
4668 280 Pls
4670 280 Pls
4670 280 Pls
4672 280 Pls
4672 280 Pls
4673 280 Pls
4673 280 Pls
4673 280 Pls
4674 280 Pls
4675 280 Pls
4675 280 Pls
4676 280 Pls
4677 280 Pls
4677 280 Pls
4679 280 Pls
4680 280 Pls
4680 280 Pls
4680 510 Pls
4680 280 Pls
4681 510 Pls
4681 510 Pls
4681 280 Pls
4682 280 Pls
4683 280 Pls
4683 280 Pls
4683 280 Pls
4683 280 Pls
4684 280 Pls
4685 280 Pls
4685 280 Pls
4685 280 Pls
4686 280 Pls
4687 280 Pls
4687 280 Pls
4687 280 Pls
4687 280 Pls
4689 280 Pls
4690 280 Pls
4690 280 Pls
4690 280 Pls
4690 280 Pls
4691 280 Pls
4691 280 Pls
4691 280 Pls
4692 280 Pls
4692 280 Pls
4692 280 Pls
4692 280 Pls
4694 280 Pls
4694 280 Pls
4695 280 Pls
4696 280 Pls
4697 280 Pls
4697 280 Pls
4697 280 Pls
4697 280 Pls
4698 280 Pls
4698 280 Pls
4698 280 Pls
4699 280 Pls
4700 280 Pls
4701 280 Pls
4701 280 Pls
4701 280 Pls
4702 280 Pls
4703 280 Pls
4703 280 Pls
4703 280 Pls
4703 280 Pls
4704 280 Pls
4705 280 Pls
4705 280 Pls
4705 280 Pls
4705 280 Pls
4706 280 Pls
4706 280 Pls
4706 280 Pls
4707 280 Pls
4708 280 Pls
4708 280 Pls
4708 280 Pls
4708 280 Pls
4708 280 Pls
4708 280 Pls
4708 280 Pls
4709 280 Pls
4709 280 Pls
4710 280 Pls
4711 280 Pls
4711 280 Pls
4712 280 Pls
4712 280 Pls
4712 280 Pls
4713 280 Pls
4713 280 Pls
4714 280 Pls
4714 280 Pls
4714 280 Pls
4715 510 Pls
4715 280 Pls
4715 280 Pls
4715 280 Pls
4716 510 Pls
4717 280 Pls
4717 280 Pls
4717 280 Pls
4718 280 Pls
4718 280 Pls
4718 280 Pls
4719 280 Pls
4719 280 Pls
4719 280 Pls
4719 280 Pls
4720 280 Pls
4720 280 Pls
4721 280 Pls
4721 280 Pls
4722 280 Pls
4722 280 Pls
4722 280 Pls
4722 280 Pls
4723 510 Pls
4723 280 Pls
4723 280 Pls
4723 280 Pls
4724 280 Pls
4725 280 Pls
4726 280 Pls
4726 280 Pls
4726 280 Pls
4727 280 Pls
4727 280 Pls
4728 280 Pls
4728 280 Pls
4728 280 Pls
4728 280 Pls
4729 280 Pls
4729 280 Pls
4730 280 Pls
4730 280 Pls
4730 280 Pls
4731 280 Pls
4731 280 Pls
4731 280 Pls
4731 280 Pls
4732 280 Pls
4733 280 Pls
4733 280 Pls
4733 280 Pls
4733 280 Pls
4733 280 Pls
4734 280 Pls
4734 280 Pls
4735 280 Pls
4735 280 Pls
4736 280 Pls
4736 280 Pls
4738 280 Pls
4739 280 Pls
4739 280 Pls
4739 280 Pls
4740 510 Pls
4740 280 Pls
4741 280 Pls
4741 280 Pls
4742 280 Pls
4742 280 Pls
4743 280 Pls
4743 280 Pls
4743 280 Pls
4745 280 Pls
4745 280 Pls
4746 280 Pls
4747 280 Pls
4747 280 Pls
4747 280 Pls
4747 280 Pls
4751 280 Pls
4752 280 Pls
4753 280 Pls
4753 280 Pls
4753 280 Pls
4754 280 Pls
4754 280 Pls
4756 280 Pls
4756 280 Pls
4757 280 Pls
4757 280 Pls
4757 280 Pls
4758 280 Pls
4758 280 Pls
4759 280 Pls
4759 280 Pls
4759 280 Pls
4759 280 Pls
4760 280 Pls
4760 280 Pls
4760 280 Pls
4761 280 Pls
4761 280 Pls
4761 280 Pls
4762 280 Pls
4762 280 Pls
4763 280 Pls
4763 280 Pls
4763 280 Pls
4764 280 Pls
4765 280 Pls
4765 280 Pls
4765 280 Pls
4766 280 Pls
4766 280 Pls
4768 280 Pls
4768 280 Pls
4768 280 Pls
4769 280 Pls
4770 280 Pls
4770 280 Pls
4770 280 Pls
4770 280 Pls
4771 280 Pls
4771 280 Pls
4773 280 Pls
4774 280 Pls
4775 280 Pls
4778 280 Pls
4780 280 Pls
4780 280 Pls
4781 280 Pls
4781 280 Pls
4782 280 Pls
4783 280 Pls
4783 280 Pls
4785 280 Pls
4786 280 Pls
4789 280 Pls
4790 280 Pls
4790 280 Pls
4791 280 Pls
4791 280 Pls
4792 280 Pls
4793 280 Pls
4793 280 Pls
4794 280 Pls
4795 280 Pls
4796 280 Pls
4797 280 Pls
4797 280 Pls
4798 280 Pls
4798 280 Pls
4798 280 Pls
4798 280 Pls
4799 280 Pls
4799 280 Pls
4799 280 Pls
4802 280 Pls
4802 280 Pls
4802 280 Pls
4803 280 Pls
4806 280 Pls
4807 280 Pls
4807 280 Pls
4808 280 Pls
4809 280 Pls
4809 280 Pls
4809 280 Pls
4810 280 Pls
4811 280 Pls
4811 280 Pls
4812 280 Pls
4812 280 Pls
4812 280 Pls
4812 280 Pls
4812 280 Pls
4812 280 Pls
4812 280 Pls
4813 280 Pls
4813 280 Pls
4813 280 Pls
4814 280 Pls
4815 280 Pls
4815 280 Pls
4816 280 Pls
4817 280 Pls
4817 280 Pls
4817 280 Pls
4818 280 Pls
4819 280 Pls
4820 280 Pls
4821 280 Pls
4821 280 Pls
4821 280 Pls
4823 280 Pls
4824 280 Pls
4824 280 Pls
4824 280 Pls
4824 280 Pls
4825 280 Pls
4825 280 Pls
4825 280 Pls
4826 280 Pls
4827 280 Pls
4828 280 Pls
4828 280 Pls
4828 280 Pls
4830 280 Pls
4830 280 Pls
4832 280 Pls
4832 280 Pls
4833 280 Pls
4833 280 Pls
4836 280 Pls
4836 280 Pls
4838 280 Pls
4838 280 Pls
4840 280 Pls
4840 280 Pls
4842 280 Pls
4843 280 Pls
4843 280 Pls
4844 280 Pls
4844 280 Pls
4844 280 Pls
4844 280 Pls
4845 280 Pls
4845 280 Pls
4846 280 Pls
4846 280 Pls
4846 280 Pls
4846 280 Pls
4847 280 Pls
4847 280 Pls
4849 280 Pls
4849 280 Pls
4849 280 Pls
4850 280 Pls
4851 280 Pls
4851 280 Pls
4851 280 Pls
4851 280 Pls
4851 280 Pls
4851 280 Pls
4852 280 Pls
4853 280 Pls
4853 280 Pls
4854 280 Pls
4854 280 Pls
4854 280 Pls
4854 280 Pls
4854 280 Pls
4855 280 Pls
4855 280 Pls
4855 280 Pls
4856 280 Pls
4858 280 Pls
4858 280 Pls
4858 280 Pls
4859 280 Pls
4860 280 Pls
4860 280 Pls
4860 280 Pls
4862 280 Pls
4863 280 Pls
4863 280 Pls
4864 280 Pls
4864 280 Pls
4865 280 Pls
4865 280 Pls
4865 280 Pls
4865 280 Pls
4865 280 Pls
4866 280 Pls
4866 280 Pls
4866 280 Pls
4867 280 Pls
4867 280 Pls
4869 280 Pls
4869 280 Pls
4869 280 Pls
4869 280 Pls
4871 280 Pls
4872 280 Pls
4874 280 Pls
4874 280 Pls
4875 280 Pls
4876 280 Pls
4878 280 Pls
4880 280 Pls
4881 280 Pls
4881 280 Pls
4881 280 Pls
4883 280 Pls
4883 280 Pls
4883 280 Pls
4884 280 Pls
4885 280 Pls
4885 280 Pls
4887 280 Pls
4888 280 Pls
4890 280 Pls
4891 280 Pls
4891 280 Pls
4892 280 Pls
4893 280 Pls
4893 280 Pls
4894 280 Pls
4894 280 Pls
4894 280 Pls
4894 280 Pls
4895 280 Pls
4896 280 Pls
4897 280 Pls
4898 280 Pls
4900 280 Pls
4900 280 Pls
4901 280 Pls
4902 280 Pls
4902 280 Pls
4902 280 Pls
4903 280 Pls
4903 280 Pls
4904 280 Pls
4904 510 Pls
4906 280 Pls
4909 280 Pls
4911 280 Pls
4911 280 Pls
4911 280 Pls
4911 280 Pls
4912 280 Pls
4913 280 Pls
4913 280 Pls
4914 280 Pls
4914 280 Pls
4914 280 Pls
4915 280 Pls
4915 280 Pls
4915 280 Pls
4916 280 Pls
4916 510 Pls
4917 280 Pls
4918 280 Pls
4920 280 Pls
4922 280 Pls
4923 280 Pls
4924 280 Pls
4924 280 Pls
4927 280 Pls
4927 280 Pls
4927 280 Pls
4928 280 Pls
4928 280 Pls
4928 280 Pls
4928 280 Pls
4928 280 Pls
4929 280 Pls
4929 280 Pls
4929 280 Pls
4929 280 Pls
4929 280 Pls
4929 280 Pls
4929 280 Pls
4930 280 Pls
4930 280 Pls
4930 280 Pls
4930 280 Pls
4930 280 Pls
4930 280 Pls
4931 280 Pls
4931 280 Pls
4932 280 Pls
4932 280 Pls
4932 280 Pls
4932 280 Pls
4932 510 Pls
4932 280 Pls
4932 280 Pls
4932 280 Pls
4933 280 Pls
4933 280 Pls
4933 280 Pls
4933 280 Pls
4933 280 Pls
4933 280 Pls
4933 280 Pls
4934 280 Pls
4934 280 Pls
4934 280 Pls
4934 280 Pls
4935 280 Pls
4935 280 Pls
4935 280 Pls
4935 280 Pls
4936 280 Pls
4936 280 Pls
4936 280 Pls
4936 280 Pls
4936 280 Pls
4936 280 Pls
4936 280 Pls
4937 280 Pls
4937 280 Pls
4937 280 Pls
4937 280 Pls
4937 280 Pls
4937 280 Pls
4937 280 Pls
4937 280 Pls
4937 280 Pls
4938 280 Pls
4938 280 Pls
4938 280 Pls
4938 280 Pls
4938 280 Pls
4938 280 Pls
4939 280 Pls
4939 280 Pls
4939 280 Pls
4939 280 Pls
4939 280 Pls
4939 280 Pls
4939 280 Pls
4939 280 Pls
4939 510 Pls
4940 280 Pls
4940 280 Pls
4940 280 Pls
4940 280 Pls
4940 280 Pls
4940 280 Pls
4940 280 Pls
4940 280 Pls
4940 280 Pls
4940 280 Pls
4940 280 Pls
4940 280 Pls
4941 280 Pls
4941 280 Pls
4941 280 Pls
4941 510 Pls
4941 280 Pls
4941 280 Pls
4941 280 Pls
4941 280 Pls
4941 280 Pls
4942 280 Pls
4942 280 Pls
4942 280 Pls
4942 280 Pls
4942 280 Pls
4943 280 Pls
4943 280 Pls
4943 280 Pls
4943 280 Pls
4943 280 Pls
4943 280 Pls
4944 280 Pls
4944 280 Pls
4944 280 Pls
4944 280 Pls
4944 280 Pls
4945 280 Pls
4945 280 Pls
4945 280 Pls
4945 280 Pls
4945 280 Pls
4945 280 Pls
4945 280 Pls
4945 280 Pls
4946 280 Pls
4946 280 Pls
4946 280 Pls
4947 280 Pls
4947 510 Pls
4947 280 Pls
4948 280 Pls
4948 280 Pls
4948 280 Pls
4948 280 Pls
4948 280 Pls
4948 280 Pls
4948 280 Pls
4949 280 Pls
4949 280 Pls
4949 280 Pls
4949 280 Pls
4950 280 Pls
4950 280 Pls
4950 280 Pls
4950 280 Pls
4950 280 Pls
4951 280 Pls
4951 280 Pls
4951 280 Pls
4951 280 Pls
4952 280 Pls
4952 280 Pls
4952 280 Pls
4952 280 Pls
4952 280 Pls
4952 280 Pls
4952 280 Pls
4952 280 Pls
4953 280 Pls
4953 280 Pls
4953 280 Pls
4953 280 Pls
4954 280 Pls
4954 280 Pls
4955 280 Pls
4955 280 Pls
4955 280 Pls
4955 645 Pls
4955 510 Pls
4955 280 Pls
4955 280 Pls
4956 280 Pls
4956 280 Pls
4956 280 Pls
4956 280 Pls
4956 280 Pls
4956 280 Pls
4956 280 Pls
4956 280 Pls
4957 280 Pls
4957 280 Pls
4957 280 Pls
4958 280 Pls
4959 280 Pls
4959 280 Pls
4960 280 Pls
4960 280 Pls
4961 280 Pls
4962 280 Pls
4963 280 Pls
4964 280 Pls
4964 280 Pls
4964 280 Pls
4965 280 Pls
4966 280 Pls
4967 280 Pls
4968 280 Pls
4968 280 Pls
4968 280 Pls
4969 280 Pls
4970 280 Pls
4970 280 Pls
4970 280 Pls
4970 280 Pls
4971 280 Pls
4972 280 Pls
4975 280 Pls
4975 280 Pls
4975 280 Pls
4976 280 Pls
4976 280 Pls
4977 280 Pls
4977 280 Pls
4978 280 Pls
4978 280 Pls
4978 280 Pls
4979 280 Pls
4979 280 Pls
4982 280 Pls
4982 280 Pls
4984 280 Pls
4984 280 Pls
4985 280 Pls
4985 280 Pls
4986 280 Pls
4986 280 Pls
4986 280 Pls
4986 280 Pls
4986 280 Pls
4987 280 Pls
4989 280 Pls
4990 280 Pls
4991 280 Pls
4991 280 Pls
4992 280 Pls
4992 280 Pls
4992 280 Pls
4993 280 Pls
4994 280 Pls
4996 280 Pls
4997 280 Pls
4999 280 Pls
5001 280 Pls
5002 280 Pls
5004 280 Pls
5005 280 Pls
5007 280 Pls
5007 280 Pls
5007 280 Pls
5008 280 Pls
5009 280 Pls
5010 280 Pls
5010 280 Pls
5011 280 Pls
5011 280 Pls
5015 280 Pls
5016 280 Pls
5016 280 Pls
5017 280 Pls
5020 280 Pls
5022 280 Pls
5023 280 Pls
5023 280 Pls
5023 280 Pls
5025 280 Pls
5025 280 Pls
5026 280 Pls
5026 280 Pls
5026 280 Pls
5030 280 Pls
5030 280 Pls
5031 280 Pls
5033 280 Pls
5035 280 Pls
5037 280 Pls
5037 280 Pls
5037 280 Pls
5037 280 Pls
5038 280 Pls
5038 280 Pls
5038 280 Pls
5039 280 Pls
5040 280 Pls
5044 280 Pls
5049 280 Pls
5050 280 Pls
5053 280 Pls
5055 280 Pls
5058 280 Pls
5059 280 Pls
5059 280 Pls
5061 280 Pls
5063 280 Pls
5063 280 Pls
5063 280 Pls
5063 280 Pls
5065 280 Pls
5065 280 Pls
5065 280 Pls
5068 280 Pls
5068 280 Pls
5070 280 Pls
5071 510 Pls
5074 280 Pls
5075 280 Pls
5075 280 Pls
5075 280 Pls
5076 280 Pls
5078 280 Pls
5080 280 Pls
5081 280 Pls
5083 280 Pls
5085 280 Pls
5086 280 Pls
5086 280 Pls
5086 280 Pls
5092 280 Pls
5092 280 Pls
5093 280 Pls
5093 280 Pls
5094 280 Pls
5094 280 Pls
5095 280 Pls
5095 280 Pls
5097 280 Pls
5099 280 Pls
5105 280 Pls
5105 280 Pls
5106 280 Pls
5106 280 Pls
5109 280 Pls
5110 280 Pls
5111 280 Pls
5113 280 Pls
5115 280 Pls
5120 280 Pls
5122 280 Pls
5122 280 Pls
5125 280 Pls
5125 280 Pls
5126 280 Pls
5131 280 Pls
5132 280 Pls
5132 280 Pls
5134 280 Pls
5134 280 Pls
5136 280 Pls
5137 280 Pls
5137 280 Pls
5138 280 Pls
5141 280 Pls
5142 280 Pls
5144 280 Pls
5145 280 Pls
5148 280 Pls
5149 280 Pls
5151 280 Pls
5153 280 Pls
5154 280 Pls
5154 280 Pls
5154 280 Pls
5155 280 Pls
5156 280 Pls
5158 280 Pls
5159 280 Pls
5160 280 Pls
5161 280 Pls
5162 280 Pls
5162 280 Pls
5164 280 Pls
5165 280 Pls
5166 280 Pls
5166 280 Pls
5166 280 Pls
5167 280 Pls
5168 280 Pls
5170 280 Pls
5173 280 Pls
5173 280 Pls
5174 280 Pls
5175 280 Pls
5178 280 Pls
5182 280 Pls
5184 280 Pls
5187 280 Pls
5187 280 Pls
5187 280 Pls
5187 280 Pls
5188 280 Pls
5193 280 Pls
5195 280 Pls
5196 280 Pls
5197 280 Pls
5197 280 Pls
5199 280 Pls
5200 280 Pls
5201 280 Pls
5202 280 Pls
5202 280 Pls
5204 280 Pls
5206 280 Pls
5211 280 Pls
5214 280 Pls
5216 280 Pls
5216 280 Pls
5220 280 Pls
5220 280 Pls
5220 280 Pls
5221 280 Pls
5223 280 Pls
5225 280 Pls
5228 280 Pls
5229 280 Pls
5233 280 Pls
5234 280 Pls
5234 280 Pls
5235 280 Pls
5235 280 Pls
5235 280 Pls
5236 280 Pls
5238 280 Pls
5238 280 Pls
5240 280 Pls
5240 280 Pls
5241 280 Pls
5242 280 Pls
5243 280 Pls
5249 280 Pls
5249 280 Pls
5254 280 Pls
5254 280 Pls
5258 280 Pls
5260 280 Pls
5260 280 Pls
5262 280 Pls
5264 280 Pls
5267 280 Pls
5267 280 Pls
5268 280 Pls
5271 280 Pls
5272 280 Pls
5272 280 Pls
5273 280 Pls
5274 280 Pls
5275 280 Pls
5276 280 Pls
5282 280 Pls
5282 280 Pls
5288 280 Pls
5290 280 Pls
5291 280 Pls
5292 280 Pls
5293 280 Pls
5293 280 Pls
5300 280 Pls
5306 280 Pls
5309 280 Pls
5312 280 Pls
5318 280 Pls
5325 280 Pls
5326 280 Pls
5328 280 Pls
5329 280 Pls
5335 280 Pls
5338 280 Pls
5338 280 Pls
5339 280 Pls
5348 280 Pls
5348 280 Pls
5349 280 Pls
5349 280 Pls
5351 280 Pls
5355 280 Pls
5355 280 Pls
5360 280 Pls
5364 280 Pls
5366 280 Pls
5371 280 Pls
5376 280 Pls
5379 280 Pls
5381 280 Pls
5384 280 Pls
5385 280 Pls
5388 280 Pls
5389 280 Pls
5391 280 Pls
5391 280 Pls
5394 280 Pls
5396 280 Pls
5396 280 Pls
5402 280 Pls
5410 280 Pls
5410 280 Pls
5411 280 Pls
5411 280 Pls
5413 280 Pls
5416 280 Pls
5416 280 Pls
5417 280 Pls
5417 280 Pls
5424 280 Pls
5424 280 Pls
5426 280 Pls
5432 280 Pls
5435 280 Pls
5440 280 Pls
5442 280 Pls
5452 280 Pls
5452 280 Pls
5453 280 Pls
5454 280 Pls
5465 280 Pls
5468 280 Pls
5472 280 Pls
5482 280 Pls
5487 280 Pls
5490 280 Pls
5492 280 Pls
5494 280 Pls
5496 280 Pls
5499 280 Pls
5502 280 Pls
5504 280 Pls
5504 280 Pls
5510 280 Pls
5510 280 Pls
5516 280 Pls
5516 280 Pls
5523 280 Pls
5531 280 Pls
5531 280 Pls
5538 280 Pls
5540 280 Pls
5540 280 Pls
5542 280 Pls
5543 280 Pls
5546 280 Pls
5547 280 Pls
5548 280 Pls
5550 280 Pls
5553 280 Pls
5555 280 Pls
5557 280 Pls
5558 280 Pls
5560 280 Pls
5566 280 Pls
5579 280 Pls
5581 280 Pls
5592 280 Pls
5594 280 Pls
5595 280 Pls
5598 280 Pls
5620 280 Pls
5631 280 Pls
5653 280 Pls
5654 280 Pls
5657 280 Pls
5658 280 Pls
5660 280 Pls
5672 280 Pls
5679 280 Pls
5682 280 Pls
5684 280 Pls
5688 280 Pls
5688 280 Pls
5696 280 Pls
5707 280 Pls
5708 280 Pls
5717 280 Pls
5725 280 Pls
5729 280 Pls
5737 280 Pls
5742 280 Pls
5743 280 Pls
5744 280 Pls
5753 280 Pls
5759 280 Pls
5763 280 Pls
5776 280 Pls
5777 280 Pls
5779 280 Pls
5796 280 Pls
5801 280 Pls
5802 280 Pls
5803 280 Pls
5809 280 Pls
5810 280 Pls
5827 280 Pls
5918 280 Pls
5933 280 Pls
5935 280 Pls
5958 280 Pls
5986 280 Pls
6016 280 Pls
6019 280 Pls
6058 280 Pls
6143 280 Pls
6154 280 Pls
6176 280 Pls
6197 280 Pls
6211 280 Pls
6219 280 Pls
6271 280 Pls
6271 280 Pls
6281 280 Pls
6351 280 Pls
6380 280 Pls
6437 280 Pls
6459 280 Pls
6589 280 Pls
6701 280 Pls
% End plot #1
2.000 UL
LTb
LCb setrgbcolor
1.000 UL
LTB
LCb setrgbcolor
798 4871 N
798 280 L
6149 0 V
0 4591 V
-6149 0 V
Z stroke
1.000 UP
1.000 UL
LTb
LCb setrgbcolor
stroke
grestore
end
showpage
%%Trailer
%%DocumentFonts: Helvetica
%%Pages: 1
