%!PS-Adobe-2.0
%%Title: packets-uv-log-packets-uv-s-ccdf-loglog.eps
%%Creator: gnuplot 5.0 patchlevel 3
%%CreationDate: Mon May 29 11:10:24 2017
%%DocumentFonts: (atend)
%%BoundingBox: 50 50 554 770
%%Orientation: Landscape
%%Pages: (atend)
%%EndComments
%%BeginProlog
/gnudict 256 dict def
gnudict begin
%
% The following true/false flags may be edited by hand if desired.
% The unit line width and grayscale image gamma correction may also be changed.
%
/Color true def
/Blacktext false def
/Solid false def
/Dashlength 1 def
/Landscape true def
/Level1 false def
/Level3 false def
/Rounded false def
/ClipToBoundingBox false def
/SuppressPDFMark false def
/TransparentPatterns false def
/gnulinewidth 5.000 def
/userlinewidth gnulinewidth def
/Gamma 1.0 def
/BackgroundColor {-1.000 -1.000 -1.000} def
%
/vshift -46 def
/dl1 {
  10.0 Dashlength userlinewidth gnulinewidth div mul mul mul
  Rounded { currentlinewidth 0.75 mul sub dup 0 le { pop 0.01 } if } if
} def
/dl2 {
  10.0 Dashlength userlinewidth gnulinewidth div mul mul mul
  Rounded { currentlinewidth 0.75 mul add } if
} def
/hpt_ 31.5 def
/vpt_ 31.5 def
/hpt hpt_ def
/vpt vpt_ def
/doclip {
  ClipToBoundingBox {
    newpath 50 50 moveto 554 50 lineto 554 770 lineto 50 770 lineto closepath
    clip
  } if
} def
%
% Gnuplot Prolog Version 5.1 (Oct 2015)
%
%/SuppressPDFMark true def
%
/M {moveto} bind def
/L {lineto} bind def
/R {rmoveto} bind def
/V {rlineto} bind def
/N {newpath moveto} bind def
/Z {closepath} bind def
/C {setrgbcolor} bind def
/f {rlineto fill} bind def
/g {setgray} bind def
/Gshow {show} def   % May be redefined later in the file to support UTF-8
/vpt2 vpt 2 mul def
/hpt2 hpt 2 mul def
/Lshow {currentpoint stroke M 0 vshift R 
	Blacktext {gsave 0 setgray textshow grestore} {textshow} ifelse} def
/Rshow {currentpoint stroke M dup stringwidth pop neg vshift R
	Blacktext {gsave 0 setgray textshow grestore} {textshow} ifelse} def
/Cshow {currentpoint stroke M dup stringwidth pop -2 div vshift R 
	Blacktext {gsave 0 setgray textshow grestore} {textshow} ifelse} def
/UP {dup vpt_ mul /vpt exch def hpt_ mul /hpt exch def
  /hpt2 hpt 2 mul def /vpt2 vpt 2 mul def} def
/DL {Color {setrgbcolor Solid {pop []} if 0 setdash}
 {pop pop pop 0 setgray Solid {pop []} if 0 setdash} ifelse} def
/BL {stroke userlinewidth 2 mul setlinewidth
	Rounded {1 setlinejoin 1 setlinecap} if} def
/AL {stroke userlinewidth 2 div setlinewidth
	Rounded {1 setlinejoin 1 setlinecap} if} def
/UL {dup gnulinewidth mul /userlinewidth exch def
	dup 1 lt {pop 1} if 10 mul /udl exch def} def
/PL {stroke userlinewidth setlinewidth
	Rounded {1 setlinejoin 1 setlinecap} if} def
3.8 setmiterlimit
% Classic Line colors (version 5.0)
/LCw {1 1 1} def
/LCb {0 0 0} def
/LCa {0 0 0} def
/LC0 {1 0 0} def
/LC1 {0 1 0} def
/LC2 {0 0 1} def
/LC3 {1 0 1} def
/LC4 {0 1 1} def
/LC5 {1 1 0} def
/LC6 {0 0 0} def
/LC7 {1 0.3 0} def
/LC8 {0.5 0.5 0.5} def
% Default dash patterns (version 5.0)
/LTB {BL [] LCb DL} def
/LTw {PL [] 1 setgray} def
/LTb {PL [] LCb DL} def
/LTa {AL [1 udl mul 2 udl mul] 0 setdash LCa setrgbcolor} def
/LT0 {PL [] LC0 DL} def
/LT1 {PL [2 dl1 3 dl2] LC1 DL} def
/LT2 {PL [1 dl1 1.5 dl2] LC2 DL} def
/LT3 {PL [6 dl1 2 dl2 1 dl1 2 dl2] LC3 DL} def
/LT4 {PL [1 dl1 2 dl2 6 dl1 2 dl2 1 dl1 2 dl2] LC4 DL} def
/LT5 {PL [4 dl1 2 dl2] LC5 DL} def
/LT6 {PL [1.5 dl1 1.5 dl2 1.5 dl1 1.5 dl2 1.5 dl1 6 dl2] LC6 DL} def
/LT7 {PL [3 dl1 3 dl2 1 dl1 3 dl2] LC7 DL} def
/LT8 {PL [2 dl1 2 dl2 2 dl1 6 dl2] LC8 DL} def
/SL {[] 0 setdash} def
/Pnt {stroke [] 0 setdash gsave 1 setlinecap M 0 0 V stroke grestore} def
/Dia {stroke [] 0 setdash 2 copy vpt add M
  hpt neg vpt neg V hpt vpt neg V
  hpt vpt V hpt neg vpt V closepath stroke
  Pnt} def
/Pls {stroke [] 0 setdash vpt sub M 0 vpt2 V
  currentpoint stroke M
  hpt neg vpt neg R hpt2 0 V stroke
 } def
/Box {stroke [] 0 setdash 2 copy exch hpt sub exch vpt add M
  0 vpt2 neg V hpt2 0 V 0 vpt2 V
  hpt2 neg 0 V closepath stroke
  Pnt} def
/Crs {stroke [] 0 setdash exch hpt sub exch vpt add M
  hpt2 vpt2 neg V currentpoint stroke M
  hpt2 neg 0 R hpt2 vpt2 V stroke} def
/TriU {stroke [] 0 setdash 2 copy vpt 1.12 mul add M
  hpt neg vpt -1.62 mul V
  hpt 2 mul 0 V
  hpt neg vpt 1.62 mul V closepath stroke
  Pnt} def
/Star {2 copy Pls Crs} def
/BoxF {stroke [] 0 setdash exch hpt sub exch vpt add M
  0 vpt2 neg V hpt2 0 V 0 vpt2 V
  hpt2 neg 0 V closepath fill} def
/TriUF {stroke [] 0 setdash vpt 1.12 mul add M
  hpt neg vpt -1.62 mul V
  hpt 2 mul 0 V
  hpt neg vpt 1.62 mul V closepath fill} def
/TriD {stroke [] 0 setdash 2 copy vpt 1.12 mul sub M
  hpt neg vpt 1.62 mul V
  hpt 2 mul 0 V
  hpt neg vpt -1.62 mul V closepath stroke
  Pnt} def
/TriDF {stroke [] 0 setdash vpt 1.12 mul sub M
  hpt neg vpt 1.62 mul V
  hpt 2 mul 0 V
  hpt neg vpt -1.62 mul V closepath fill} def
/DiaF {stroke [] 0 setdash vpt add M
  hpt neg vpt neg V hpt vpt neg V
  hpt vpt V hpt neg vpt V closepath fill} def
/Pent {stroke [] 0 setdash 2 copy gsave
  translate 0 hpt M 4 {72 rotate 0 hpt L} repeat
  closepath stroke grestore Pnt} def
/PentF {stroke [] 0 setdash gsave
  translate 0 hpt M 4 {72 rotate 0 hpt L} repeat
  closepath fill grestore} def
/Circle {stroke [] 0 setdash 2 copy
  hpt 0 360 arc stroke Pnt} def
/CircleF {stroke [] 0 setdash hpt 0 360 arc fill} def
/C0 {BL [] 0 setdash 2 copy moveto vpt 90 450 arc} bind def
/C1 {BL [] 0 setdash 2 copy moveto
	2 copy vpt 0 90 arc closepath fill
	vpt 0 360 arc closepath} bind def
/C2 {BL [] 0 setdash 2 copy moveto
	2 copy vpt 90 180 arc closepath fill
	vpt 0 360 arc closepath} bind def
/C3 {BL [] 0 setdash 2 copy moveto
	2 copy vpt 0 180 arc closepath fill
	vpt 0 360 arc closepath} bind def
/C4 {BL [] 0 setdash 2 copy moveto
	2 copy vpt 180 270 arc closepath fill
	vpt 0 360 arc closepath} bind def
/C5 {BL [] 0 setdash 2 copy moveto
	2 copy vpt 0 90 arc
	2 copy moveto
	2 copy vpt 180 270 arc closepath fill
	vpt 0 360 arc} bind def
/C6 {BL [] 0 setdash 2 copy moveto
	2 copy vpt 90 270 arc closepath fill
	vpt 0 360 arc closepath} bind def
/C7 {BL [] 0 setdash 2 copy moveto
	2 copy vpt 0 270 arc closepath fill
	vpt 0 360 arc closepath} bind def
/C8 {BL [] 0 setdash 2 copy moveto
	2 copy vpt 270 360 arc closepath fill
	vpt 0 360 arc closepath} bind def
/C9 {BL [] 0 setdash 2 copy moveto
	2 copy vpt 270 450 arc closepath fill
	vpt 0 360 arc closepath} bind def
/C10 {BL [] 0 setdash 2 copy 2 copy moveto vpt 270 360 arc closepath fill
	2 copy moveto
	2 copy vpt 90 180 arc closepath fill
	vpt 0 360 arc closepath} bind def
/C11 {BL [] 0 setdash 2 copy moveto
	2 copy vpt 0 180 arc closepath fill
	2 copy moveto
	2 copy vpt 270 360 arc closepath fill
	vpt 0 360 arc closepath} bind def
/C12 {BL [] 0 setdash 2 copy moveto
	2 copy vpt 180 360 arc closepath fill
	vpt 0 360 arc closepath} bind def
/C13 {BL [] 0 setdash 2 copy moveto
	2 copy vpt 0 90 arc closepath fill
	2 copy moveto
	2 copy vpt 180 360 arc closepath fill
	vpt 0 360 arc closepath} bind def
/C14 {BL [] 0 setdash 2 copy moveto
	2 copy vpt 90 360 arc closepath fill
	vpt 0 360 arc} bind def
/C15 {BL [] 0 setdash 2 copy vpt 0 360 arc closepath fill
	vpt 0 360 arc closepath} bind def
/Rec {newpath 4 2 roll moveto 1 index 0 rlineto 0 exch rlineto
	neg 0 rlineto closepath} bind def
/Square {dup Rec} bind def
/Bsquare {vpt sub exch vpt sub exch vpt2 Square} bind def
/S0 {BL [] 0 setdash 2 copy moveto 0 vpt rlineto BL Bsquare} bind def
/S1 {BL [] 0 setdash 2 copy vpt Square fill Bsquare} bind def
/S2 {BL [] 0 setdash 2 copy exch vpt sub exch vpt Square fill Bsquare} bind def
/S3 {BL [] 0 setdash 2 copy exch vpt sub exch vpt2 vpt Rec fill Bsquare} bind def
/S4 {BL [] 0 setdash 2 copy exch vpt sub exch vpt sub vpt Square fill Bsquare} bind def
/S5 {BL [] 0 setdash 2 copy 2 copy vpt Square fill
	exch vpt sub exch vpt sub vpt Square fill Bsquare} bind def
/S6 {BL [] 0 setdash 2 copy exch vpt sub exch vpt sub vpt vpt2 Rec fill Bsquare} bind def
/S7 {BL [] 0 setdash 2 copy exch vpt sub exch vpt sub vpt vpt2 Rec fill
	2 copy vpt Square fill Bsquare} bind def
/S8 {BL [] 0 setdash 2 copy vpt sub vpt Square fill Bsquare} bind def
/S9 {BL [] 0 setdash 2 copy vpt sub vpt vpt2 Rec fill Bsquare} bind def
/S10 {BL [] 0 setdash 2 copy vpt sub vpt Square fill 2 copy exch vpt sub exch vpt Square fill
	Bsquare} bind def
/S11 {BL [] 0 setdash 2 copy vpt sub vpt Square fill 2 copy exch vpt sub exch vpt2 vpt Rec fill
	Bsquare} bind def
/S12 {BL [] 0 setdash 2 copy exch vpt sub exch vpt sub vpt2 vpt Rec fill Bsquare} bind def
/S13 {BL [] 0 setdash 2 copy exch vpt sub exch vpt sub vpt2 vpt Rec fill
	2 copy vpt Square fill Bsquare} bind def
/S14 {BL [] 0 setdash 2 copy exch vpt sub exch vpt sub vpt2 vpt Rec fill
	2 copy exch vpt sub exch vpt Square fill Bsquare} bind def
/S15 {BL [] 0 setdash 2 copy Bsquare fill Bsquare} bind def
/D0 {gsave translate 45 rotate 0 0 S0 stroke grestore} bind def
/D1 {gsave translate 45 rotate 0 0 S1 stroke grestore} bind def
/D2 {gsave translate 45 rotate 0 0 S2 stroke grestore} bind def
/D3 {gsave translate 45 rotate 0 0 S3 stroke grestore} bind def
/D4 {gsave translate 45 rotate 0 0 S4 stroke grestore} bind def
/D5 {gsave translate 45 rotate 0 0 S5 stroke grestore} bind def
/D6 {gsave translate 45 rotate 0 0 S6 stroke grestore} bind def
/D7 {gsave translate 45 rotate 0 0 S7 stroke grestore} bind def
/D8 {gsave translate 45 rotate 0 0 S8 stroke grestore} bind def
/D9 {gsave translate 45 rotate 0 0 S9 stroke grestore} bind def
/D10 {gsave translate 45 rotate 0 0 S10 stroke grestore} bind def
/D11 {gsave translate 45 rotate 0 0 S11 stroke grestore} bind def
/D12 {gsave translate 45 rotate 0 0 S12 stroke grestore} bind def
/D13 {gsave translate 45 rotate 0 0 S13 stroke grestore} bind def
/D14 {gsave translate 45 rotate 0 0 S14 stroke grestore} bind def
/D15 {gsave translate 45 rotate 0 0 S15 stroke grestore} bind def
/DiaE {stroke [] 0 setdash vpt add M
  hpt neg vpt neg V hpt vpt neg V
  hpt vpt V hpt neg vpt V closepath stroke} def
/BoxE {stroke [] 0 setdash exch hpt sub exch vpt add M
  0 vpt2 neg V hpt2 0 V 0 vpt2 V
  hpt2 neg 0 V closepath stroke} def
/TriUE {stroke [] 0 setdash vpt 1.12 mul add M
  hpt neg vpt -1.62 mul V
  hpt 2 mul 0 V
  hpt neg vpt 1.62 mul V closepath stroke} def
/TriDE {stroke [] 0 setdash vpt 1.12 mul sub M
  hpt neg vpt 1.62 mul V
  hpt 2 mul 0 V
  hpt neg vpt -1.62 mul V closepath stroke} def
/PentE {stroke [] 0 setdash gsave
  translate 0 hpt M 4 {72 rotate 0 hpt L} repeat
  closepath stroke grestore} def
/CircE {stroke [] 0 setdash 
  hpt 0 360 arc stroke} def
/Opaque {gsave closepath 1 setgray fill grestore 0 setgray closepath} def
/DiaW {stroke [] 0 setdash vpt add M
  hpt neg vpt neg V hpt vpt neg V
  hpt vpt V hpt neg vpt V Opaque stroke} def
/BoxW {stroke [] 0 setdash exch hpt sub exch vpt add M
  0 vpt2 neg V hpt2 0 V 0 vpt2 V
  hpt2 neg 0 V Opaque stroke} def
/TriUW {stroke [] 0 setdash vpt 1.12 mul add M
  hpt neg vpt -1.62 mul V
  hpt 2 mul 0 V
  hpt neg vpt 1.62 mul V Opaque stroke} def
/TriDW {stroke [] 0 setdash vpt 1.12 mul sub M
  hpt neg vpt 1.62 mul V
  hpt 2 mul 0 V
  hpt neg vpt -1.62 mul V Opaque stroke} def
/PentW {stroke [] 0 setdash gsave
  translate 0 hpt M 4 {72 rotate 0 hpt L} repeat
  Opaque stroke grestore} def
/CircW {stroke [] 0 setdash 
  hpt 0 360 arc Opaque stroke} def
/BoxFill {gsave Rec 1 setgray fill grestore} def
/Density {
  /Fillden exch def
  currentrgbcolor
  /ColB exch def /ColG exch def /ColR exch def
  /ColR ColR Fillden mul Fillden sub 1 add def
  /ColG ColG Fillden mul Fillden sub 1 add def
  /ColB ColB Fillden mul Fillden sub 1 add def
  ColR ColG ColB setrgbcolor} def
/BoxColFill {gsave Rec PolyFill} def
/PolyFill {gsave Density fill grestore grestore} def
/h {rlineto rlineto rlineto gsave closepath fill grestore} bind def
%
% PostScript Level 1 Pattern Fill routine for rectangles
% Usage: x y w h s a XX PatternFill
%	x,y = lower left corner of box to be filled
%	w,h = width and height of box
%	  a = angle in degrees between lines and x-axis
%	 XX = 0/1 for no/yes cross-hatch
%
/PatternFill {gsave /PFa [ 9 2 roll ] def
  PFa 0 get PFa 2 get 2 div add PFa 1 get PFa 3 get 2 div add translate
  PFa 2 get -2 div PFa 3 get -2 div PFa 2 get PFa 3 get Rec
  TransparentPatterns {} {gsave 1 setgray fill grestore} ifelse
  clip
  currentlinewidth 0.5 mul setlinewidth
  /PFs PFa 2 get dup mul PFa 3 get dup mul add sqrt def
  0 0 M PFa 5 get rotate PFs -2 div dup translate
  0 1 PFs PFa 4 get div 1 add floor cvi
	{PFa 4 get mul 0 M 0 PFs V} for
  0 PFa 6 get ne {
	0 1 PFs PFa 4 get div 1 add floor cvi
	{PFa 4 get mul 0 2 1 roll M PFs 0 V} for
 } if
  stroke grestore} def
%
/languagelevel where
 {pop languagelevel} {1} ifelse
dup 2 lt
	{/InterpretLevel1 true def
	 /InterpretLevel3 false def}
	{/InterpretLevel1 Level1 def
	 2 gt
	    {/InterpretLevel3 Level3 def}
	    {/InterpretLevel3 false def}
	 ifelse }
 ifelse
%
% PostScript level 2 pattern fill definitions
%
/Level2PatternFill {
/Tile8x8 {/PaintType 2 /PatternType 1 /TilingType 1 /BBox [0 0 8 8] /XStep 8 /YStep 8}
	bind def
/KeepColor {currentrgbcolor [/Pattern /DeviceRGB] setcolorspace} bind def
<< Tile8x8
 /PaintProc {0.5 setlinewidth pop 0 0 M 8 8 L 0 8 M 8 0 L stroke} 
>> matrix makepattern
/Pat1 exch def
<< Tile8x8
 /PaintProc {0.5 setlinewidth pop 0 0 M 8 8 L 0 8 M 8 0 L stroke
	0 4 M 4 8 L 8 4 L 4 0 L 0 4 L stroke}
>> matrix makepattern
/Pat2 exch def
<< Tile8x8
 /PaintProc {0.5 setlinewidth pop 0 0 M 0 8 L
	8 8 L 8 0 L 0 0 L fill}
>> matrix makepattern
/Pat3 exch def
<< Tile8x8
 /PaintProc {0.5 setlinewidth pop -4 8 M 8 -4 L
	0 12 M 12 0 L stroke}
>> matrix makepattern
/Pat4 exch def
<< Tile8x8
 /PaintProc {0.5 setlinewidth pop -4 0 M 8 12 L
	0 -4 M 12 8 L stroke}
>> matrix makepattern
/Pat5 exch def
<< Tile8x8
 /PaintProc {0.5 setlinewidth pop -2 8 M 4 -4 L
	0 12 M 8 -4 L 4 12 M 10 0 L stroke}
>> matrix makepattern
/Pat6 exch def
<< Tile8x8
 /PaintProc {0.5 setlinewidth pop -2 0 M 4 12 L
	0 -4 M 8 12 L 4 -4 M 10 8 L stroke}
>> matrix makepattern
/Pat7 exch def
<< Tile8x8
 /PaintProc {0.5 setlinewidth pop 8 -2 M -4 4 L
	12 0 M -4 8 L 12 4 M 0 10 L stroke}
>> matrix makepattern
/Pat8 exch def
<< Tile8x8
 /PaintProc {0.5 setlinewidth pop 0 -2 M 12 4 L
	-4 0 M 12 8 L -4 4 M 8 10 L stroke}
>> matrix makepattern
/Pat9 exch def
/Pattern1 {PatternBgnd KeepColor Pat1 setpattern} bind def
/Pattern2 {PatternBgnd KeepColor Pat2 setpattern} bind def
/Pattern3 {PatternBgnd KeepColor Pat3 setpattern} bind def
/Pattern4 {PatternBgnd KeepColor Landscape {Pat5} {Pat4} ifelse setpattern} bind def
/Pattern5 {PatternBgnd KeepColor Landscape {Pat4} {Pat5} ifelse setpattern} bind def
/Pattern6 {PatternBgnd KeepColor Landscape {Pat9} {Pat6} ifelse setpattern} bind def
/Pattern7 {PatternBgnd KeepColor Landscape {Pat8} {Pat7} ifelse setpattern} bind def
} def
%
%
%End of PostScript Level 2 code
%
/PatternBgnd {
  TransparentPatterns {} {gsave 1 setgray fill grestore} ifelse
} def
%
% Substitute for Level 2 pattern fill codes with
% grayscale if Level 2 support is not selected.
%
/Level1PatternFill {
/Pattern1 {0.250 Density} bind def
/Pattern2 {0.500 Density} bind def
/Pattern3 {0.750 Density} bind def
/Pattern4 {0.125 Density} bind def
/Pattern5 {0.375 Density} bind def
/Pattern6 {0.625 Density} bind def
/Pattern7 {0.875 Density} bind def
} def
%
% Now test for support of Level 2 code
%
Level1 {Level1PatternFill} {Level2PatternFill} ifelse
%
/Symbol-Oblique /Symbol findfont [1 0 .167 1 0 0] makefont
dup length dict begin {1 index /FID eq {pop pop} {def} ifelse} forall
currentdict end definefont pop
%
/MFshow {
   { dup 5 get 3 ge
     { 5 get 3 eq {gsave} {grestore} ifelse }
     {dup dup 0 get findfont exch 1 get scalefont setfont
     [ currentpoint ] exch dup 2 get 0 exch R dup 5 get 2 ne {dup dup 6
     get exch 4 get {textshow} {stringwidth pop 0 R} ifelse }if dup 5 get 0 eq
     {dup 3 get {2 get neg 0 exch R pop} {pop aload pop M} ifelse} {dup 5
     get 1 eq {dup 2 get exch dup 3 get exch 6 get stringwidth pop -2 div
     dup 0 R} {dup 6 get stringwidth pop -2 div 0 R 6 get
     textshow 2 index {aload pop M neg 3 -1 roll neg R pop pop} {pop pop pop
     pop aload pop M} ifelse }ifelse }ifelse }
     ifelse }
   forall} def
/Gswidth {dup type /stringtype eq {stringwidth} {pop (n) stringwidth} ifelse} def
/MFwidth {0 exch { dup 5 get 3 ge { 5 get 3 eq { 0 } { pop } ifelse }
 {dup 3 get{dup dup 0 get findfont exch 1 get scalefont setfont
     6 get Gswidth pop add} {pop} ifelse} ifelse} forall} def
/MLshow { currentpoint stroke M
  0 exch R
  Blacktext {gsave 0 setgray MFshow grestore} {MFshow} ifelse } bind def
/MRshow { currentpoint stroke M
  exch dup MFwidth neg 3 -1 roll R
  Blacktext {gsave 0 setgray MFshow grestore} {MFshow} ifelse } bind def
/MCshow { currentpoint stroke M
  exch dup MFwidth -2 div 3 -1 roll R
  Blacktext {gsave 0 setgray MFshow grestore} {MFshow} ifelse } bind def
/XYsave    { [( ) 1 2 true false 3 ()] } bind def
/XYrestore { [( ) 1 2 true false 4 ()] } bind def
Level1 SuppressPDFMark or 
{} {
/SDict 10 dict def
systemdict /pdfmark known not {
  userdict /pdfmark systemdict /cleartomark get put
} if
SDict begin [
  /Title (packets-uv-log-packets-uv-s-ccdf-loglog.eps)
  /Subject (gnuplot plot)
  /Creator (gnuplot 5.0 patchlevel 3)
  /Author (tiphaine)
%  /Producer (gnuplot)
%  /Keywords ()
  /CreationDate (Mon May 29 11:10:24 2017)
  /DOCINFO pdfmark
end
} ifelse
%
% Support for boxed text - Ethan A Merritt May 2005
%
/InitTextBox { userdict /TBy2 3 -1 roll put userdict /TBx2 3 -1 roll put
           userdict /TBy1 3 -1 roll put userdict /TBx1 3 -1 roll put
	   /Boxing true def } def
/ExtendTextBox { Boxing
    { gsave dup false charpath pathbbox
      dup TBy2 gt {userdict /TBy2 3 -1 roll put} {pop} ifelse
      dup TBx2 gt {userdict /TBx2 3 -1 roll put} {pop} ifelse
      dup TBy1 lt {userdict /TBy1 3 -1 roll put} {pop} ifelse
      dup TBx1 lt {userdict /TBx1 3 -1 roll put} {pop} ifelse
      grestore } if } def
/PopTextBox { newpath TBx1 TBxmargin sub TBy1 TBymargin sub M
               TBx1 TBxmargin sub TBy2 TBymargin add L
	       TBx2 TBxmargin add TBy2 TBymargin add L
	       TBx2 TBxmargin add TBy1 TBymargin sub L closepath } def
/DrawTextBox { PopTextBox stroke /Boxing false def} def
/FillTextBox { gsave PopTextBox 1 1 1 setrgbcolor fill grestore /Boxing false def} def
0 0 0 0 InitTextBox
/TBxmargin 20 def
/TBymargin 20 def
/Boxing false def
/textshow { ExtendTextBox Gshow } def
%
% redundant definitions for compatibility with prologue.ps older than 5.0.2
/LTB {BL [] LCb DL} def
/LTb {PL [] LCb DL} def
end
%%EndProlog
%%Page: 1 1
gnudict begin
gsave
doclip
50 50 translate
0.100 0.100 scale
90 rotate
0 -5040 translate
0 setgray
newpath
(Helvetica) findfont 140 scalefont setfont
BackgroundColor 0 lt 3 1 roll 0 lt exch 0 lt or or not {gsave BackgroundColor C clippath fill grestore} if
1.000 UL
LTb
LCb setrgbcolor
966 280 M
63 0 V
5918 0 R
-63 0 V
stroke
882 280 M
[ [(Helvetica) 140.0 0.0 true true 0 (0.0000001)]
] -46.7 MRshow
1.000 UL
LTb
LCb setrgbcolor
966 477 M
31 0 V
5950 0 R
-31 0 V
966 738 M
31 0 V
5950 0 R
-31 0 V
966 872 M
31 0 V
5950 0 R
-31 0 V
966 936 M
63 0 V
5918 0 R
-63 0 V
stroke
882 936 M
[ [(Helvetica) 140.0 0.0 true true 0 (0.0000010)]
] -46.7 MRshow
1.000 UL
LTb
LCb setrgbcolor
966 1133 M
31 0 V
5950 0 R
-31 0 V
966 1394 M
31 0 V
5950 0 R
-31 0 V
966 1528 M
31 0 V
5950 0 R
-31 0 V
966 1592 M
63 0 V
5918 0 R
-63 0 V
stroke
882 1592 M
[ [(Helvetica) 140.0 0.0 true true 0 (0.0000100)]
] -46.7 MRshow
1.000 UL
LTb
LCb setrgbcolor
966 1789 M
31 0 V
5950 0 R
-31 0 V
966 2050 M
31 0 V
5950 0 R
-31 0 V
966 2184 M
31 0 V
5950 0 R
-31 0 V
966 2248 M
63 0 V
5918 0 R
-63 0 V
stroke
882 2248 M
[ [(Helvetica) 140.0 0.0 true true 0 (0.0001000)]
] -46.7 MRshow
1.000 UL
LTb
LCb setrgbcolor
966 2445 M
31 0 V
5950 0 R
-31 0 V
966 2706 M
31 0 V
5950 0 R
-31 0 V
966 2840 M
31 0 V
5950 0 R
-31 0 V
966 2903 M
63 0 V
5918 0 R
-63 0 V
stroke
882 2903 M
[ [(Helvetica) 140.0 0.0 true true 0 (0.0010000)]
] -46.7 MRshow
1.000 UL
LTb
LCb setrgbcolor
966 3101 M
31 0 V
5950 0 R
-31 0 V
966 3362 M
31 0 V
5950 0 R
-31 0 V
966 3496 M
31 0 V
5950 0 R
-31 0 V
966 3559 M
63 0 V
5918 0 R
-63 0 V
stroke
882 3559 M
[ [(Helvetica) 140.0 0.0 true true 0 (0.0100000)]
] -46.7 MRshow
1.000 UL
LTb
LCb setrgbcolor
966 3757 M
31 0 V
5950 0 R
-31 0 V
966 4018 M
31 0 V
5950 0 R
-31 0 V
966 4152 M
31 0 V
5950 0 R
-31 0 V
966 4215 M
63 0 V
5918 0 R
-63 0 V
stroke
882 4215 M
[ [(Helvetica) 140.0 0.0 true true 0 (0.1000000)]
] -46.7 MRshow
1.000 UL
LTb
LCb setrgbcolor
966 4413 M
31 0 V
5950 0 R
-31 0 V
966 4674 M
31 0 V
5950 0 R
-31 0 V
966 4807 M
31 0 V
5950 0 R
-31 0 V
966 4871 M
63 0 V
5918 0 R
-63 0 V
stroke
882 4871 M
[ [(Helvetica) 140.0 0.0 true true 0 (1.0000000)]
] -46.7 MRshow
1.000 UL
LTb
LCb setrgbcolor
966 280 M
0 63 V
0 4528 R
0 -63 V
stroke
966 140 M
[ [(Helvetica) 140.0 0.0 true true 0 ( 1)]
] -46.7 MCshow
1.000 UL
LTb
LCb setrgbcolor
1191 280 M
0 31 V
0 4560 R
0 -31 V
1489 280 M
0 31 V
0 4560 R
0 -31 V
1641 280 M
0 31 V
0 4560 R
0 -31 V
1714 280 M
0 63 V
0 4528 R
0 -63 V
stroke
1714 140 M
[ [(Helvetica) 140.0 0.0 true true 0 ( 10)]
] -46.7 MCshow
1.000 UL
LTb
LCb setrgbcolor
1939 280 M
0 31 V
0 4560 R
0 -31 V
2236 280 M
0 31 V
0 4560 R
0 -31 V
2389 280 M
0 31 V
0 4560 R
0 -31 V
2461 280 M
0 63 V
0 4528 R
0 -63 V
stroke
2461 140 M
[ [(Helvetica) 140.0 0.0 true true 0 ( 100)]
] -46.7 MCshow
1.000 UL
LTb
LCb setrgbcolor
2686 280 M
0 31 V
0 4560 R
0 -31 V
2984 280 M
0 31 V
0 4560 R
0 -31 V
3136 280 M
0 31 V
0 4560 R
0 -31 V
3209 280 M
0 63 V
0 4528 R
0 -63 V
stroke
3209 140 M
[ [(Helvetica) 140.0 0.0 true true 0 ( 1000)]
] -46.7 MCshow
1.000 UL
LTb
LCb setrgbcolor
3434 280 M
0 31 V
0 4560 R
0 -31 V
3731 280 M
0 31 V
0 4560 R
0 -31 V
3884 280 M
0 31 V
0 4560 R
0 -31 V
3957 280 M
0 63 V
0 4528 R
0 -63 V
stroke
3957 140 M
[ [(Helvetica) 140.0 0.0 true true 0 ( 10000)]
] -46.7 MCshow
1.000 UL
LTb
LCb setrgbcolor
4182 280 M
0 31 V
0 4560 R
0 -31 V
4479 280 M
0 31 V
0 4560 R
0 -31 V
4632 280 M
0 31 V
0 4560 R
0 -31 V
4704 280 M
0 63 V
0 4528 R
0 -63 V
stroke
4704 140 M
[ [(Helvetica) 140.0 0.0 true true 0 ( 100000)]
] -46.7 MCshow
1.000 UL
LTb
LCb setrgbcolor
4929 280 M
0 31 V
0 4560 R
0 -31 V
5227 280 M
0 31 V
0 4560 R
0 -31 V
5379 280 M
0 31 V
0 4560 R
0 -31 V
5452 280 M
0 63 V
0 4528 R
0 -63 V
stroke
5452 140 M
[ [(Helvetica) 140.0 0.0 true true 0 ( 1x10)]
[(Helvetica) 112.0 70.0 true true 0 (6)]
] -60.7 MCshow
1.000 UL
LTb
LCb setrgbcolor
5677 280 M
0 31 V
0 4560 R
0 -31 V
5974 280 M
0 31 V
0 4560 R
0 -31 V
6127 280 M
0 31 V
0 4560 R
0 -31 V
6199 280 M
0 63 V
0 4528 R
0 -63 V
stroke
6199 140 M
[ [(Helvetica) 140.0 0.0 true true 0 ( 1x10)]
[(Helvetica) 112.0 70.0 true true 0 (7)]
] -60.7 MCshow
1.000 UL
LTb
LCb setrgbcolor
6424 280 M
0 31 V
0 4560 R
0 -31 V
6722 280 M
0 31 V
0 4560 R
0 -31 V
6875 280 M
0 31 V
0 4560 R
0 -31 V
6947 280 M
0 63 V
0 4528 R
0 -63 V
stroke
6947 140 M
[ [(Helvetica) 140.0 0.0 true true 0 ( 1x10)]
[(Helvetica) 112.0 70.0 true true 0 (8)]
] -60.7 MCshow
1.000 UL
LTb
LCb setrgbcolor
1.000 UL
LTB
LCb setrgbcolor
966 4871 N
966 280 L
5981 0 V
0 4591 V
-5981 0 V
Z stroke
1.000 UP
1.000 UL
LTb
LCb setrgbcolor
% Begin plot #1
1.000 UP
1.000 UL
LTb
0.58 0.00 0.83 C 1072 4645 Pls
1353 4418 Pls
1522 4361 Pls
1643 4311 Pls
1737 4277 Pls
1814 4243 Pls
1879 4223 Pls
1935 4195 Pls
1984 4178 Pls
2029 4145 Pls
2068 4129 Pls
2105 4106 Pls
2138 4091 Pls
2169 4073 Pls
2197 4057 Pls
2224 4038 Pls
2249 4025 Pls
2273 4008 Pls
2295 3995 Pls
2316 3977 Pls
2336 3966 Pls
2355 3953 Pls
2373 3944 Pls
2391 3932 Pls
2407 3924 Pls
2423 3915 Pls
2439 3907 Pls
2454 3898 Pls
2468 3893 Pls
2482 3882 Pls
2495 3877 Pls
2508 3870 Pls
2520 3864 Pls
2532 3857 Pls
2544 3852 Pls
2555 3845 Pls
2566 3840 Pls
2577 3835 Pls
2588 3830 Pls
2598 3825 Pls
2608 3820 Pls
2617 3816 Pls
2627 3812 Pls
2636 3807 Pls
2645 3803 Pls
2654 3798 Pls
2662 3792 Pls
2671 3786 Pls
2679 3780 Pls
2687 3775 Pls
2695 3770 Pls
2703 3766 Pls
2710 3763 Pls
2718 3759 Pls
2725 3755 Pls
2732 3751 Pls
2739 3748 Pls
2746 3744 Pls
2753 3741 Pls
2760 3734 Pls
2766 3731 Pls
2773 3728 Pls
2779 3725 Pls
2785 3722 Pls
2791 3719 Pls
2798 3716 Pls
2803 3714 Pls
2809 3711 Pls
2815 3708 Pls
2821 3705 Pls
2826 3703 Pls
2832 3700 Pls
2837 3697 Pls
2843 3695 Pls
2848 3693 Pls
2853 3690 Pls
2858 3688 Pls
2864 3685 Pls
2869 3682 Pls
2873 3679 Pls
2878 3677 Pls
2883 3675 Pls
2888 3673 Pls
2893 3671 Pls
2897 3668 Pls
2902 3666 Pls
2906 3665 Pls
2911 3663 Pls
2915 3661 Pls
2920 3658 Pls
2924 3656 Pls
2928 3654 Pls
2933 3652 Pls
2937 3650 Pls
2941 3648 Pls
2945 3645 Pls
2949 3643 Pls
2953 3642 Pls
2957 3639 Pls
2961 3632 Pls
2965 3630 Pls
2969 3628 Pls
2973 3627 Pls
2976 3625 Pls
2980 3623 Pls
2984 3621 Pls
2987 3619 Pls
2991 3617 Pls
2995 3616 Pls
2998 3614 Pls
3002 3612 Pls
3005 3610 Pls
3009 3608 Pls
3012 3606 Pls
3016 3605 Pls
3019 3603 Pls
3022 3601 Pls
3026 3600 Pls
3029 3598 Pls
3032 3595 Pls
3035 3593 Pls
3039 3592 Pls
3042 3590 Pls
3045 3589 Pls
3048 3587 Pls
3051 3586 Pls
3054 3584 Pls
3057 3582 Pls
3060 3581 Pls
3063 3577 Pls
3066 3576 Pls
3069 3573 Pls
3072 3572 Pls
3075 3571 Pls
3078 3569 Pls
3081 3567 Pls
3084 3566 Pls
3086 3564 Pls
3089 3562 Pls
3092 3561 Pls
3095 3559 Pls
3098 3558 Pls
3100 3556 Pls
3103 3555 Pls
3106 3554 Pls
3108 3553 Pls
3111 3551 Pls
3114 3550 Pls
3116 3549 Pls
3119 3548 Pls
3121 3546 Pls
3124 3545 Pls
3126 3544 Pls
3129 3543 Pls
3131 3542 Pls
3134 3541 Pls
3136 3539 Pls
3139 3538 Pls
3141 3537 Pls
3144 3536 Pls
3146 3534 Pls
3148 3533 Pls
3151 3532 Pls
3153 3531 Pls
3156 3530 Pls
3158 3529 Pls
3160 3528 Pls
3163 3527 Pls
3165 3526 Pls
3167 3524 Pls
3169 3523 Pls
3172 3522 Pls
3174 3521 Pls
3176 3520 Pls
3178 3519 Pls
3180 3518 Pls
3183 3516 Pls
3185 3515 Pls
3187 3514 Pls
3189 3512 Pls
3191 3510 Pls
3193 3509 Pls
3195 3508 Pls
3198 3507 Pls
3200 3506 Pls
3202 3505 Pls
3204 3504 Pls
3206 3503 Pls
3208 3502 Pls
3210 3501 Pls
3212 3500 Pls
3214 3499 Pls
3216 3498 Pls
3218 3497 Pls
3220 3496 Pls
3222 3495 Pls
3224 3494 Pls
3226 3493 Pls
3228 3493 Pls
3230 3492 Pls
3232 3491 Pls
3233 3490 Pls
3235 3488 Pls
3237 3487 Pls
3239 3487 Pls
3241 3486 Pls
3243 3485 Pls
3245 3484 Pls
3247 3483 Pls
3248 3481 Pls
3250 3480 Pls
3252 3479 Pls
3254 3478 Pls
3256 3477 Pls
3257 3476 Pls
3259 3475 Pls
3261 3474 Pls
3263 3473 Pls
3264 3473 Pls
3266 3472 Pls
3268 3471 Pls
3270 3470 Pls
3271 3469 Pls
3273 3468 Pls
3275 3467 Pls
3276 3467 Pls
3278 3466 Pls
3280 3465 Pls
3282 3465 Pls
3283 3464 Pls
3285 3463 Pls
3287 3462 Pls
3288 3461 Pls
3290 3460 Pls
3291 3460 Pls
3293 3459 Pls
3295 3458 Pls
3296 3457 Pls
3298 3456 Pls
3299 3454 Pls
3301 3454 Pls
3303 3453 Pls
3304 3452 Pls
3306 3451 Pls
3307 3451 Pls
3309 3450 Pls
3310 3449 Pls
3312 3448 Pls
3314 3448 Pls
3315 3447 Pls
3317 3446 Pls
3318 3445 Pls
3320 3444 Pls
3321 3444 Pls
3323 3443 Pls
3324 3442 Pls
3326 3442 Pls
3327 3441 Pls
3329 3440 Pls
3330 3440 Pls
3332 3439 Pls
3333 3438 Pls
3334 3437 Pls
3336 3437 Pls
3337 3436 Pls
3339 3436 Pls
3340 3435 Pls
3342 3434 Pls
3343 3433 Pls
3344 3433 Pls
3346 3432 Pls
3347 3431 Pls
3349 3431 Pls
3350 3430 Pls
3351 3429 Pls
3353 3429 Pls
3354 3428 Pls
3356 3427 Pls
3357 3426 Pls
3358 3426 Pls
3360 3425 Pls
3361 3424 Pls
3362 3424 Pls
3364 3423 Pls
3365 3422 Pls
3366 3422 Pls
3368 3421 Pls
3369 3420 Pls
3370 3420 Pls
3372 3419 Pls
3373 3419 Pls
3374 3418 Pls
3376 3417 Pls
3377 3417 Pls
3378 3416 Pls
3379 3415 Pls
3381 3415 Pls
3382 3414 Pls
3383 3413 Pls
3385 3413 Pls
3386 3412 Pls
3387 3411 Pls
3388 3411 Pls
3390 3410 Pls
3391 3409 Pls
3392 3409 Pls
3393 3408 Pls
3395 3407 Pls
3396 3407 Pls
3397 3406 Pls
3398 3405 Pls
3399 3405 Pls
3401 3404 Pls
3402 3403 Pls
3403 3402 Pls
3404 3402 Pls
3406 3401 Pls
3407 3401 Pls
3408 3400 Pls
3409 3399 Pls
3410 3399 Pls
3411 3398 Pls
3413 3398 Pls
3414 3397 Pls
3415 3397 Pls
3416 3396 Pls
3417 3396 Pls
3418 3395 Pls
3420 3394 Pls
3421 3394 Pls
3422 3393 Pls
3423 3393 Pls
3424 3392 Pls
3425 3392 Pls
3426 3391 Pls
3428 3391 Pls
3429 3390 Pls
3430 3390 Pls
3431 3389 Pls
3432 3389 Pls
3433 3388 Pls
3434 3388 Pls
3435 3387 Pls
3437 3387 Pls
3438 3386 Pls
3439 3385 Pls
3440 3385 Pls
3441 3384 Pls
3442 3384 Pls
3443 3383 Pls
3444 3383 Pls
3445 3382 Pls
3446 3382 Pls
3447 3381 Pls
3448 3380 Pls
3450 3380 Pls
3451 3379 Pls
3452 3379 Pls
3453 3378 Pls
3454 3377 Pls
3455 3377 Pls
3456 3376 Pls
3457 3376 Pls
3458 3375 Pls
3459 3375 Pls
3460 3374 Pls
3461 3374 Pls
3462 3373 Pls
3463 3373 Pls
3464 3373 Pls
3465 3372 Pls
3466 3371 Pls
3467 3371 Pls
3468 3370 Pls
3469 3370 Pls
3470 3370 Pls
3471 3369 Pls
3472 3369 Pls
3473 3368 Pls
3474 3368 Pls
3475 3367 Pls
3476 3367 Pls
3477 3366 Pls
3478 3366 Pls
3479 3365 Pls
3480 3365 Pls
3481 3364 Pls
3482 3364 Pls
3483 3364 Pls
3484 3363 Pls
3485 3363 Pls
3486 3362 Pls
3487 3362 Pls
3488 3361 Pls
3489 3361 Pls
3490 3361 Pls
3491 3360 Pls
3492 3360 Pls
3493 3359 Pls
3494 3359 Pls
3495 3358 Pls
3495 3358 Pls
3496 3357 Pls
3497 3357 Pls
3498 3356 Pls
3499 3356 Pls
3500 3355 Pls
3501 3355 Pls
3502 3354 Pls
3503 3354 Pls
3504 3353 Pls
3505 3353 Pls
3506 3352 Pls
3507 3352 Pls
3508 3352 Pls
3508 3351 Pls
3509 3351 Pls
3510 3350 Pls
3511 3350 Pls
3512 3349 Pls
3513 3348 Pls
3514 3348 Pls
3515 3347 Pls
3516 3347 Pls
3517 3346 Pls
3517 3346 Pls
3518 3346 Pls
3519 3345 Pls
3520 3344 Pls
3521 3344 Pls
3522 3344 Pls
3523 3343 Pls
3524 3343 Pls
3524 3342 Pls
3525 3342 Pls
3526 3342 Pls
3527 3341 Pls
3528 3341 Pls
3529 3340 Pls
3530 3340 Pls
3530 3339 Pls
3531 3339 Pls
3532 3338 Pls
3533 3338 Pls
3534 3337 Pls
3535 3337 Pls
3536 3336 Pls
3536 3336 Pls
3537 3336 Pls
3538 3335 Pls
3539 3335 Pls
3540 3334 Pls
3541 3334 Pls
3541 3333 Pls
3542 3333 Pls
3543 3333 Pls
3544 3332 Pls
3545 3332 Pls
3546 3331 Pls
3546 3331 Pls
3547 3330 Pls
3548 3330 Pls
3549 3329 Pls
3550 3329 Pls
3550 3329 Pls
3551 3328 Pls
3552 3328 Pls
3553 3328 Pls
3554 3327 Pls
3554 3327 Pls
3555 3326 Pls
3556 3326 Pls
3557 3325 Pls
3558 3324 Pls
3558 3324 Pls
3559 3324 Pls
3560 3323 Pls
3561 3322 Pls
3562 3322 Pls
3562 3321 Pls
3563 3321 Pls
3564 3320 Pls
3565 3320 Pls
3566 3320 Pls
3566 3319 Pls
3567 3319 Pls
3568 3319 Pls
3569 3318 Pls
3569 3318 Pls
3570 3318 Pls
3571 3317 Pls
3572 3317 Pls
3572 3316 Pls
3573 3316 Pls
3574 3316 Pls
3575 3315 Pls
3575 3315 Pls
3576 3315 Pls
3577 3314 Pls
3578 3314 Pls
3578 3314 Pls
3579 3313 Pls
3580 3313 Pls
3581 3312 Pls
3581 3312 Pls
3582 3312 Pls
3583 3311 Pls
3584 3311 Pls
3584 3311 Pls
3585 3310 Pls
3586 3310 Pls
3587 3309 Pls
3587 3309 Pls
3588 3308 Pls
3589 3308 Pls
3590 3308 Pls
3590 3307 Pls
3591 3307 Pls
3592 3306 Pls
3592 3306 Pls
3593 3305 Pls
3594 3305 Pls
3595 3304 Pls
3595 3304 Pls
3596 3304 Pls
3597 3303 Pls
3598 3303 Pls
3598 3303 Pls
3599 3302 Pls
3600 3302 Pls
3600 3301 Pls
3601 3301 Pls
3602 3301 Pls
3602 3300 Pls
3603 3300 Pls
3604 3300 Pls
3605 3299 Pls
3605 3299 Pls
3606 3298 Pls
3607 3298 Pls
3607 3298 Pls
3608 3297 Pls
3609 3297 Pls
3609 3297 Pls
3610 3296 Pls
3611 3296 Pls
3612 3296 Pls
3612 3295 Pls
3613 3295 Pls
3614 3294 Pls
3614 3294 Pls
3615 3293 Pls
3616 3293 Pls
3616 3293 Pls
3617 3292 Pls
3618 3292 Pls
3618 3292 Pls
3619 3291 Pls
3620 3291 Pls
3620 3291 Pls
3621 3290 Pls
3622 3290 Pls
3622 3289 Pls
3623 3289 Pls
3624 3289 Pls
3624 3288 Pls
3625 3288 Pls
3626 3288 Pls
3626 3287 Pls
3627 3287 Pls
3628 3287 Pls
3628 3286 Pls
3629 3286 Pls
3630 3286 Pls
3630 3285 Pls
3631 3285 Pls
3632 3285 Pls
3632 3285 Pls
3633 3284 Pls
3633 3284 Pls
3634 3283 Pls
3635 3283 Pls
3635 3283 Pls
3636 3282 Pls
3637 3282 Pls
3637 3282 Pls
3638 3282 Pls
3639 3281 Pls
3639 3281 Pls
3640 3281 Pls
3641 3280 Pls
3641 3280 Pls
3642 3280 Pls
3642 3279 Pls
3643 3279 Pls
3644 3278 Pls
3644 3278 Pls
3645 3278 Pls
3646 3278 Pls
3646 3277 Pls
3647 3277 Pls
3647 3277 Pls
3648 3276 Pls
3649 3276 Pls
3649 3276 Pls
3650 3275 Pls
3651 3275 Pls
3651 3275 Pls
3652 3274 Pls
3652 3274 Pls
3653 3274 Pls
3654 3273 Pls
3654 3273 Pls
3655 3273 Pls
3655 3273 Pls
3656 3272 Pls
3657 3272 Pls
3657 3272 Pls
3658 3271 Pls
3658 3271 Pls
3659 3271 Pls
3660 3270 Pls
3660 3270 Pls
3661 3270 Pls
3661 3269 Pls
3662 3269 Pls
3663 3268 Pls
3663 3268 Pls
3664 3267 Pls
3664 3266 Pls
3665 3266 Pls
3666 3266 Pls
3666 3265 Pls
3667 3265 Pls
3667 3264 Pls
3668 3264 Pls
3669 3263 Pls
3669 3263 Pls
3670 3262 Pls
3670 3261 Pls
3671 3261 Pls
3672 3260 Pls
3672 3260 Pls
3673 3259 Pls
3673 3258 Pls
3674 3258 Pls
3674 3257 Pls
3675 3256 Pls
3676 3256 Pls
3676 3255 Pls
3677 3255 Pls
3677 3254 Pls
3678 3254 Pls
3678 3253 Pls
3679 3252 Pls
3680 3252 Pls
3680 3251 Pls
3681 3250 Pls
3681 3250 Pls
3682 3249 Pls
3682 3248 Pls
3683 3248 Pls
3684 3247 Pls
3684 3247 Pls
3685 3246 Pls
3685 3245 Pls
3686 3245 Pls
3686 3244 Pls
3687 3244 Pls
3688 3243 Pls
3688 3243 Pls
3689 3242 Pls
3689 3242 Pls
3690 3241 Pls
3690 3241 Pls
3691 3240 Pls
3691 3239 Pls
3692 3239 Pls
3693 3238 Pls
3693 3238 Pls
3694 3237 Pls
3694 3237 Pls
3695 3236 Pls
3695 3236 Pls
3696 3235 Pls
3696 3235 Pls
3697 3234 Pls
3697 3234 Pls
3698 3233 Pls
3699 3233 Pls
3699 3233 Pls
3700 3232 Pls
3700 3232 Pls
3701 3231 Pls
3701 3230 Pls
3702 3230 Pls
3702 3229 Pls
3703 3229 Pls
3703 3229 Pls
3704 3228 Pls
3704 3227 Pls
3705 3227 Pls
3705 3226 Pls
3706 3226 Pls
3707 3225 Pls
3707 3225 Pls
3708 3225 Pls
3708 3224 Pls
3709 3224 Pls
3709 3223 Pls
3710 3223 Pls
3710 3223 Pls
3711 3222 Pls
3711 3222 Pls
3712 3221 Pls
3712 3220 Pls
3713 3220 Pls
3713 3220 Pls
3714 3219 Pls
3714 3219 Pls
3715 3218 Pls
3715 3218 Pls
3716 3217 Pls
3716 3217 Pls
3717 3216 Pls
3718 3216 Pls
3718 3215 Pls
3719 3215 Pls
3719 3214 Pls
3720 3214 Pls
3720 3214 Pls
3721 3214 Pls
3721 3213 Pls
3722 3213 Pls
3722 3212 Pls
3723 3212 Pls
3723 3211 Pls
3724 3211 Pls
3724 3211 Pls
3725 3210 Pls
3725 3210 Pls
3726 3210 Pls
3726 3209 Pls
3727 3209 Pls
3727 3209 Pls
3728 3208 Pls
3728 3208 Pls
3729 3208 Pls
3729 3207 Pls
3730 3207 Pls
3730 3207 Pls
3731 3206 Pls
3731 3206 Pls
3732 3206 Pls
3732 3205 Pls
3733 3205 Pls
3733 3205 Pls
3734 3204 Pls
3734 3204 Pls
3735 3203 Pls
3735 3203 Pls
3736 3203 Pls
3736 3202 Pls
3737 3202 Pls
3737 3202 Pls
3738 3201 Pls
3738 3201 Pls
3739 3201 Pls
3739 3201 Pls
3739 3200 Pls
3740 3200 Pls
3740 3200 Pls
3741 3199 Pls
3741 3199 Pls
3742 3198 Pls
3742 3198 Pls
3743 3198 Pls
3743 3197 Pls
3744 3197 Pls
3744 3197 Pls
3745 3196 Pls
3745 3196 Pls
3746 3195 Pls
3746 3195 Pls
3747 3195 Pls
3747 3195 Pls
3748 3194 Pls
3748 3194 Pls
3749 3194 Pls
3749 3193 Pls
3750 3192 Pls
3750 3192 Pls
3750 3191 Pls
3751 3191 Pls
3751 3191 Pls
3752 3190 Pls
3752 3190 Pls
3753 3189 Pls
3753 3189 Pls
3754 3189 Pls
3754 3188 Pls
3755 3188 Pls
3755 3188 Pls
3756 3187 Pls
3756 3187 Pls
3757 3187 Pls
3757 3187 Pls
3757 3186 Pls
3758 3186 Pls
3758 3186 Pls
3759 3185 Pls
3759 3185 Pls
3760 3184 Pls
3760 3184 Pls
3761 3184 Pls
3761 3183 Pls
3762 3183 Pls
3762 3183 Pls
3762 3182 Pls
3763 3182 Pls
3763 3182 Pls
3764 3182 Pls
3764 3181 Pls
3765 3181 Pls
3765 3181 Pls
3766 3181 Pls
3766 3180 Pls
3767 3180 Pls
3767 3180 Pls
3767 3180 Pls
3768 3180 Pls
3768 3179 Pls
3769 3179 Pls
3769 3179 Pls
3770 3179 Pls
3770 3178 Pls
3771 3178 Pls
3771 3178 Pls
3771 3178 Pls
3772 3177 Pls
3772 3177 Pls
3773 3177 Pls
3773 3177 Pls
3774 3176 Pls
3774 3176 Pls
3775 3176 Pls
3775 3175 Pls
3775 3175 Pls
3776 3175 Pls
3776 3175 Pls
3777 3175 Pls
3777 3175 Pls
3778 3174 Pls
3778 3174 Pls
3779 3174 Pls
3779 3173 Pls
3779 3173 Pls
3780 3173 Pls
3780 3173 Pls
3781 3172 Pls
3781 3172 Pls
3782 3172 Pls
3782 3172 Pls
3782 3172 Pls
3783 3171 Pls
3784 3171 Pls
3784 3171 Pls
3785 3171 Pls
3785 3171 Pls
3785 3170 Pls
3786 3170 Pls
3786 3170 Pls
3787 3170 Pls
3788 3170 Pls
3788 3170 Pls
3788 3169 Pls
3789 3169 Pls
3789 3168 Pls
3790 3168 Pls
3790 3168 Pls
3791 3168 Pls
3791 3168 Pls
3791 3168 Pls
3792 3167 Pls
3792 3167 Pls
3793 3167 Pls
3793 3167 Pls
3793 3166 Pls
3794 3166 Pls
3794 3166 Pls
3795 3165 Pls
3795 3165 Pls
3796 3165 Pls
3796 3165 Pls
3796 3164 Pls
3797 3164 Pls
3797 3164 Pls
3798 3164 Pls
3798 3164 Pls
3798 3163 Pls
3799 3163 Pls
3799 3163 Pls
3800 3162 Pls
3800 3162 Pls
3800 3162 Pls
3801 3162 Pls
3801 3161 Pls
3802 3161 Pls
3802 3161 Pls
3803 3161 Pls
3803 3161 Pls
3803 3161 Pls
3804 3161 Pls
3804 3160 Pls
3805 3160 Pls
3805 3160 Pls
3805 3160 Pls
3806 3160 Pls
3806 3159 Pls
3807 3159 Pls
3807 3159 Pls
3807 3159 Pls
3808 3159 Pls
3808 3158 Pls
3809 3158 Pls
3809 3158 Pls
3809 3158 Pls
3810 3158 Pls
3810 3157 Pls
3811 3157 Pls
3811 3157 Pls
3811 3157 Pls
3812 3157 Pls
3812 3157 Pls
3813 3156 Pls
3813 3156 Pls
3813 3156 Pls
3814 3155 Pls
3814 3155 Pls
3815 3155 Pls
3815 3155 Pls
3815 3155 Pls
3816 3154 Pls
3816 3154 Pls
3817 3154 Pls
3817 3154 Pls
3817 3153 Pls
3818 3153 Pls
3818 3153 Pls
3818 3153 Pls
3819 3153 Pls
3819 3152 Pls
3820 3152 Pls
3820 3152 Pls
3820 3152 Pls
3821 3151 Pls
3821 3151 Pls
3822 3151 Pls
3822 3151 Pls
3822 3150 Pls
3823 3150 Pls
3823 3150 Pls
3824 3149 Pls
3824 3149 Pls
3824 3149 Pls
3825 3149 Pls
3825 3148 Pls
3825 3148 Pls
3826 3148 Pls
3826 3148 Pls
3827 3148 Pls
3827 3148 Pls
3827 3147 Pls
3828 3147 Pls
3828 3147 Pls
3828 3147 Pls
3829 3147 Pls
3829 3146 Pls
3830 3146 Pls
3830 3146 Pls
3830 3146 Pls
3831 3145 Pls
3831 3145 Pls
3832 3145 Pls
3832 3145 Pls
3832 3144 Pls
3833 3144 Pls
3833 3144 Pls
3833 3144 Pls
3834 3143 Pls
3834 3143 Pls
3835 3143 Pls
3835 3143 Pls
3835 3142 Pls
3836 3142 Pls
3836 3142 Pls
3836 3142 Pls
3837 3141 Pls
3837 3141 Pls
3837 3141 Pls
3838 3141 Pls
3838 3141 Pls
3839 3140 Pls
3839 3140 Pls
3839 3139 Pls
3840 3139 Pls
3840 3139 Pls
3840 3139 Pls
3841 3139 Pls
3841 3139 Pls
3842 3138 Pls
3842 3138 Pls
3842 3138 Pls
3843 3138 Pls
3843 3138 Pls
3843 3137 Pls
3844 3137 Pls
3844 3137 Pls
3844 3137 Pls
3845 3137 Pls
3845 3137 Pls
3846 3136 Pls
3846 3136 Pls
3846 3135 Pls
3847 3135 Pls
3847 3135 Pls
3847 3135 Pls
3848 3134 Pls
3848 3134 Pls
3848 3134 Pls
3849 3134 Pls
3849 3133 Pls
3850 3133 Pls
3850 3133 Pls
3850 3133 Pls
3851 3133 Pls
3851 3133 Pls
3851 3132 Pls
3852 3132 Pls
3852 3132 Pls
3852 3132 Pls
3853 3132 Pls
3853 3132 Pls
3853 3132 Pls
3854 3131 Pls
3854 3131 Pls
3855 3131 Pls
3855 3131 Pls
3855 3131 Pls
3856 3130 Pls
3856 3130 Pls
3856 3130 Pls
3857 3129 Pls
3857 3129 Pls
3857 3129 Pls
3858 3129 Pls
3858 3129 Pls
3859 3129 Pls
3859 3128 Pls
3859 3128 Pls
3860 3128 Pls
3860 3128 Pls
3860 3128 Pls
3861 3128 Pls
3862 3128 Pls
3862 3127 Pls
3863 3127 Pls
3863 3127 Pls
3863 3127 Pls
3864 3127 Pls
3864 3127 Pls
3864 3126 Pls
3865 3126 Pls
3865 3126 Pls
3865 3126 Pls
3866 3126 Pls
3866 3125 Pls
3866 3125 Pls
3867 3125 Pls
3867 3125 Pls
3867 3125 Pls
3868 3125 Pls
3868 3124 Pls
3868 3124 Pls
3869 3124 Pls
3869 3124 Pls
3869 3124 Pls
3870 3123 Pls
3870 3123 Pls
3870 3123 Pls
3871 3122 Pls
3871 3122 Pls
3871 3122 Pls
3872 3122 Pls
3872 3122 Pls
3872 3122 Pls
3873 3122 Pls
3873 3121 Pls
3873 3121 Pls
3874 3121 Pls
3874 3121 Pls
3874 3121 Pls
3875 3120 Pls
3875 3120 Pls
3876 3120 Pls
3876 3120 Pls
3876 3119 Pls
3877 3119 Pls
3877 3119 Pls
3878 3119 Pls
3878 3119 Pls
3878 3119 Pls
3879 3118 Pls
3879 3118 Pls
3880 3118 Pls
3880 3118 Pls
3881 3118 Pls
3881 3118 Pls
3882 3118 Pls
3882 3117 Pls
3883 3117 Pls
3883 3117 Pls
3883 3117 Pls
3884 3117 Pls
3884 3116 Pls
3884 3116 Pls
3885 3116 Pls
3886 3116 Pls
3886 3116 Pls
3886 3115 Pls
3887 3115 Pls
3887 3115 Pls
3887 3115 Pls
3888 3114 Pls
3888 3114 Pls
3888 3114 Pls
3889 3114 Pls
3889 3113 Pls
3889 3112 Pls
3890 3112 Pls
3890 3112 Pls
3890 3112 Pls
3891 3112 Pls
3891 3111 Pls
3891 3111 Pls
3892 3111 Pls
3892 3111 Pls
3892 3111 Pls
3893 3111 Pls
3893 3111 Pls
3893 3111 Pls
3894 3111 Pls
3894 3110 Pls
3894 3110 Pls
3895 3110 Pls
3895 3110 Pls
3896 3110 Pls
3896 3109 Pls
3896 3109 Pls
3897 3109 Pls
3897 3109 Pls
3897 3109 Pls
3897 3109 Pls
3898 3108 Pls
3898 3108 Pls
3898 3108 Pls
3899 3108 Pls
3899 3108 Pls
3899 3108 Pls
3900 3108 Pls
3900 3107 Pls
3900 3107 Pls
3901 3107 Pls
3901 3107 Pls
3901 3107 Pls
3902 3106 Pls
3902 3106 Pls
3902 3106 Pls
3902 3106 Pls
3903 3106 Pls
3903 3106 Pls
3904 3106 Pls
3904 3105 Pls
3904 3105 Pls
3905 3105 Pls
3905 3105 Pls
3905 3104 Pls
3906 3104 Pls
3906 3104 Pls
3906 3104 Pls
3907 3104 Pls
3907 3104 Pls
3907 3103 Pls
3908 3103 Pls
3908 3103 Pls
3908 3103 Pls
3909 3103 Pls
3909 3102 Pls
3910 3102 Pls
3910 3102 Pls
3910 3102 Pls
3910 3102 Pls
3911 3102 Pls
3911 3101 Pls
3911 3101 Pls
3912 3101 Pls
3912 3101 Pls
3912 3101 Pls
3913 3101 Pls
3913 3100 Pls
3914 3100 Pls
3914 3100 Pls
3915 3100 Pls
3915 3100 Pls
3916 3100 Pls
3916 3100 Pls
3916 3100 Pls
3917 3100 Pls
3917 3099 Pls
3918 3099 Pls
3918 3099 Pls
3918 3099 Pls
3919 3099 Pls
3919 3098 Pls
3919 3098 Pls
3919 3098 Pls
3920 3098 Pls
3920 3098 Pls
3920 3098 Pls
3921 3098 Pls
3921 3098 Pls
3922 3097 Pls
3922 3097 Pls
3922 3097 Pls
3923 3097 Pls
3923 3097 Pls
3923 3097 Pls
3924 3096 Pls
3924 3096 Pls
3924 3096 Pls
3924 3096 Pls
3925 3095 Pls
3925 3095 Pls
3925 3095 Pls
3926 3095 Pls
3926 3095 Pls
3926 3095 Pls
3926 3094 Pls
3927 3094 Pls
3927 3094 Pls
3927 3094 Pls
3928 3094 Pls
3929 3094 Pls
3929 3093 Pls
3929 3093 Pls
3929 3093 Pls
3930 3093 Pls
3930 3093 Pls
3931 3093 Pls
3931 3093 Pls
3931 3092 Pls
3932 3092 Pls
3932 3092 Pls
3932 3092 Pls
3933 3092 Pls
3933 3092 Pls
3933 3091 Pls
3933 3091 Pls
3934 3091 Pls
3934 3091 Pls
3935 3091 Pls
3935 3091 Pls
3935 3090 Pls
3935 3090 Pls
3936 3090 Pls
3936 3090 Pls
3937 3090 Pls
3937 3090 Pls
3937 3090 Pls
3937 3089 Pls
3938 3089 Pls
3938 3089 Pls
3938 3089 Pls
3938 3088 Pls
3939 3088 Pls
3939 3088 Pls
3940 3088 Pls
3940 3088 Pls
3940 3088 Pls
3941 3087 Pls
3941 3087 Pls
3941 3087 Pls
3942 3087 Pls
3942 3087 Pls
3942 3087 Pls
3943 3086 Pls
3943 3086 Pls
3944 3086 Pls
3944 3086 Pls
3944 3086 Pls
3945 3086 Pls
3945 3085 Pls
3945 3085 Pls
3945 3085 Pls
3946 3085 Pls
3946 3085 Pls
3946 3085 Pls
3947 3084 Pls
3947 3084 Pls
3947 3084 Pls
3948 3084 Pls
3948 3084 Pls
3948 3084 Pls
3948 3084 Pls
3949 3084 Pls
3949 3083 Pls
3949 3083 Pls
3950 3083 Pls
3950 3083 Pls
3950 3082 Pls
3950 3082 Pls
3951 3082 Pls
3951 3082 Pls
3951 3082 Pls
3951 3081 Pls
3952 3081 Pls
3952 3081 Pls
3953 3081 Pls
3953 3081 Pls
3953 3080 Pls
3953 3080 Pls
3954 3080 Pls
3954 3080 Pls
3954 3080 Pls
3954 3080 Pls
3955 3080 Pls
3955 3079 Pls
3955 3079 Pls
3956 3079 Pls
3956 3078 Pls
3956 3078 Pls
3957 3078 Pls
3957 3078 Pls
3957 3078 Pls
3957 3078 Pls
3958 3077 Pls
3958 3077 Pls
3958 3077 Pls
3959 3077 Pls
3959 3076 Pls
3959 3076 Pls
3959 3076 Pls
3960 3076 Pls
3960 3076 Pls
3960 3076 Pls
3961 3076 Pls
3961 3076 Pls
3961 3075 Pls
3962 3075 Pls
3962 3075 Pls
3962 3075 Pls
3962 3075 Pls
3963 3075 Pls
3963 3075 Pls
3963 3074 Pls
3964 3074 Pls
3964 3074 Pls
3966 3074 Pls
3966 3074 Pls
3966 3074 Pls
3966 3074 Pls
3967 3073 Pls
3967 3073 Pls
3967 3073 Pls
3967 3073 Pls
3968 3073 Pls
3968 3073 Pls
3968 3072 Pls
3969 3072 Pls
3969 3072 Pls
3969 3072 Pls
3970 3072 Pls
3970 3072 Pls
3970 3071 Pls
3970 3071 Pls
3971 3071 Pls
3971 3070 Pls
3971 3070 Pls
3971 3070 Pls
3972 3070 Pls
3972 3069 Pls
3972 3069 Pls
3973 3069 Pls
3973 3069 Pls
3973 3068 Pls
3974 3068 Pls
3974 3068 Pls
3975 3068 Pls
3975 3068 Pls
3975 3068 Pls
3976 3068 Pls
3976 3068 Pls
3976 3067 Pls
3976 3067 Pls
3977 3067 Pls
3977 3067 Pls
3977 3066 Pls
3977 3066 Pls
3978 3066 Pls
3978 3066 Pls
3978 3066 Pls
3979 3066 Pls
3979 3066 Pls
3979 3066 Pls
3979 3065 Pls
3980 3065 Pls
3980 3065 Pls
3980 3065 Pls
3981 3065 Pls
3981 3064 Pls
3982 3064 Pls
3982 3064 Pls
3983 3064 Pls
3983 3064 Pls
3983 3064 Pls
3984 3063 Pls
3984 3063 Pls
3984 3063 Pls
3984 3063 Pls
3985 3063 Pls
3985 3062 Pls
3985 3062 Pls
3985 3062 Pls
3986 3062 Pls
3987 3062 Pls
3987 3061 Pls
3987 3061 Pls
3987 3061 Pls
3988 3060 Pls
3988 3060 Pls
3988 3060 Pls
3989 3060 Pls
3989 3060 Pls
3989 3060 Pls
3989 3060 Pls
3990 3060 Pls
3990 3059 Pls
3990 3059 Pls
3991 3059 Pls
3991 3059 Pls
3991 3059 Pls
3992 3059 Pls
3992 3059 Pls
3993 3059 Pls
3993 3058 Pls
3993 3058 Pls
3994 3058 Pls
3994 3058 Pls
3994 3058 Pls
3995 3057 Pls
3995 3057 Pls
3996 3057 Pls
3996 3057 Pls
3996 3056 Pls
3996 3056 Pls
3997 3056 Pls
3997 3056 Pls
3997 3056 Pls
3998 3056 Pls
3998 3056 Pls
3998 3056 Pls
3998 3055 Pls
3999 3055 Pls
3999 3055 Pls
3999 3055 Pls
4000 3055 Pls
4000 3055 Pls
4000 3055 Pls
4001 3054 Pls
4001 3054 Pls
4001 3054 Pls
4001 3054 Pls
4002 3053 Pls
4002 3053 Pls
4002 3053 Pls
4003 3053 Pls
4003 3053 Pls
4003 3053 Pls
4004 3053 Pls
4004 3053 Pls
4004 3052 Pls
4005 3052 Pls
4005 3052 Pls
4005 3052 Pls
4005 3052 Pls
4006 3052 Pls
4006 3051 Pls
4006 3051 Pls
4007 3051 Pls
4007 3051 Pls
4007 3051 Pls
4008 3051 Pls
4008 3051 Pls
4008 3051 Pls
4009 3050 Pls
4009 3050 Pls
4009 3050 Pls
4009 3050 Pls
4010 3050 Pls
4010 3050 Pls
4011 3050 Pls
4011 3049 Pls
4011 3049 Pls
4012 3049 Pls
4012 3049 Pls
4012 3049 Pls
4013 3048 Pls
4013 3048 Pls
4013 3048 Pls
4014 3048 Pls
4014 3048 Pls
4014 3047 Pls
4014 3047 Pls
4015 3047 Pls
4015 3047 Pls
4015 3047 Pls
4016 3046 Pls
4016 3046 Pls
4016 3046 Pls
4017 3046 Pls
4017 3046 Pls
4017 3046 Pls
4017 3046 Pls
4018 3046 Pls
4018 3045 Pls
4018 3045 Pls
4019 3045 Pls
4019 3045 Pls
4019 3045 Pls
4019 3045 Pls
4020 3045 Pls
4020 3045 Pls
4020 3045 Pls
4020 3045 Pls
4021 3044 Pls
4021 3044 Pls
4022 3044 Pls
4022 3044 Pls
4022 3044 Pls
4022 3044 Pls
4023 3044 Pls
4023 3043 Pls
4023 3043 Pls
4023 3043 Pls
4024 3043 Pls
4024 3043 Pls
4024 3043 Pls
4024 3043 Pls
4025 3042 Pls
4025 3042 Pls
4026 3042 Pls
4026 3042 Pls
4027 3042 Pls
4027 3041 Pls
4027 3041 Pls
4027 3041 Pls
4028 3041 Pls
4028 3041 Pls
4029 3041 Pls
4029 3041 Pls
4029 3040 Pls
4029 3040 Pls
4030 3040 Pls
4030 3040 Pls
4030 3040 Pls
4030 3040 Pls
4031 3039 Pls
4031 3039 Pls
4031 3039 Pls
4032 3039 Pls
4032 3039 Pls
4032 3039 Pls
4032 3039 Pls
4033 3039 Pls
4033 3038 Pls
4033 3038 Pls
4034 3038 Pls
4034 3038 Pls
4034 3038 Pls
4034 3038 Pls
4034 3037 Pls
4035 3037 Pls
4035 3037 Pls
4035 3037 Pls
4035 3037 Pls
4036 3037 Pls
4036 3037 Pls
4036 3037 Pls
4037 3037 Pls
4037 3036 Pls
4037 3036 Pls
4037 3036 Pls
4038 3036 Pls
4038 3036 Pls
4038 3036 Pls
4039 3036 Pls
4039 3036 Pls
4039 3035 Pls
4039 3035 Pls
4039 3035 Pls
4040 3035 Pls
4040 3035 Pls
4040 3035 Pls
4041 3035 Pls
4041 3034 Pls
4041 3034 Pls
4041 3034 Pls
4042 3034 Pls
4042 3034 Pls
4042 3034 Pls
4042 3034 Pls
4043 3034 Pls
4043 3034 Pls
4043 3033 Pls
4044 3033 Pls
4044 3033 Pls
4044 3033 Pls
4045 3033 Pls
4045 3032 Pls
4045 3032 Pls
4045 3032 Pls
4046 3032 Pls
4046 3032 Pls
4047 3032 Pls
4047 3032 Pls
4047 3031 Pls
4047 3031 Pls
4047 3031 Pls
4048 3031 Pls
4049 3031 Pls
4049 3031 Pls
4049 3030 Pls
4050 3030 Pls
4050 3030 Pls
4050 3030 Pls
4051 3030 Pls
4051 3030 Pls
4051 3030 Pls
4051 3030 Pls
4052 3029 Pls
4052 3029 Pls
4052 3029 Pls
4053 3029 Pls
4053 3029 Pls
4053 3029 Pls
4054 3028 Pls
4054 3028 Pls
4054 3028 Pls
4054 3028 Pls
4054 3028 Pls
4055 3028 Pls
4055 3028 Pls
4055 3027 Pls
4055 3027 Pls
4056 3027 Pls
4056 3027 Pls
4056 3027 Pls
4057 3027 Pls
4057 3027 Pls
4057 3026 Pls
4057 3026 Pls
4057 3026 Pls
4058 3026 Pls
4058 3025 Pls
4058 3025 Pls
4059 3025 Pls
4059 3025 Pls
4059 3024 Pls
4060 3024 Pls
4060 3024 Pls
4060 3024 Pls
4060 3024 Pls
4061 3024 Pls
4061 3023 Pls
4062 3023 Pls
4063 3023 Pls
4063 3023 Pls
4063 3023 Pls
4064 3023 Pls
4064 3023 Pls
4064 3022 Pls
4065 3022 Pls
4065 3022 Pls
4065 3022 Pls
4065 3022 Pls
4066 3022 Pls
4066 3021 Pls
4066 3021 Pls
4067 3021 Pls
4067 3021 Pls
4067 3021 Pls
4068 3021 Pls
4068 3021 Pls
4068 3021 Pls
4068 3020 Pls
4068 3020 Pls
4069 3020 Pls
4069 3020 Pls
4069 3020 Pls
4069 3020 Pls
4070 3020 Pls
4070 3020 Pls
4070 3019 Pls
4071 3019 Pls
4071 3019 Pls
4072 3019 Pls
4072 3019 Pls
4072 3019 Pls
4073 3019 Pls
4073 3019 Pls
4073 3019 Pls
4073 3019 Pls
4073 3018 Pls
4074 3018 Pls
4074 3018 Pls
4075 3018 Pls
4075 3018 Pls
4076 3018 Pls
4076 3018 Pls
4077 3017 Pls
4077 3017 Pls
4078 3017 Pls
4078 3017 Pls
4079 3017 Pls
4079 3016 Pls
4079 3016 Pls
4079 3016 Pls
4080 3016 Pls
4080 3016 Pls
4080 3016 Pls
4080 3016 Pls
4082 3016 Pls
4082 3015 Pls
4083 3015 Pls
4083 3015 Pls
4084 3015 Pls
4084 3015 Pls
4085 3015 Pls
4085 3015 Pls
4085 3015 Pls
4085 3014 Pls
4085 3014 Pls
4086 3014 Pls
4086 3014 Pls
4086 3014 Pls
4086 3014 Pls
4087 3013 Pls
4087 3013 Pls
4087 3013 Pls
4087 3013 Pls
4087 3013 Pls
4088 3013 Pls
4088 3012 Pls
4088 3012 Pls
4089 3012 Pls
4089 3012 Pls
4090 3012 Pls
4090 3012 Pls
4091 3012 Pls
4091 3012 Pls
4092 3011 Pls
4092 3011 Pls
4092 3011 Pls
4092 3011 Pls
4092 3011 Pls
4093 3011 Pls
4093 3010 Pls
4093 3010 Pls
4094 3010 Pls
4094 3010 Pls
4095 3010 Pls
4095 3010 Pls
4095 3010 Pls
4096 3010 Pls
4096 3009 Pls
4096 3009 Pls
4097 3009 Pls
4097 3009 Pls
4097 3009 Pls
4097 3009 Pls
4098 3008 Pls
4098 3008 Pls
4098 3008 Pls
4098 3008 Pls
4098 3008 Pls
4099 3007 Pls
4099 3007 Pls
4099 3007 Pls
4099 3007 Pls
4100 3007 Pls
4100 3007 Pls
4100 3007 Pls
4100 3007 Pls
4101 3007 Pls
4102 3006 Pls
4102 3006 Pls
4102 3006 Pls
4102 3006 Pls
4103 3006 Pls
4103 3006 Pls
4103 3005 Pls
4104 3005 Pls
4104 3005 Pls
4104 3005 Pls
4105 3005 Pls
4105 3005 Pls
4106 3005 Pls
4106 3005 Pls
4106 3005 Pls
4107 3004 Pls
4107 3004 Pls
4108 3004 Pls
4109 3004 Pls
4109 3004 Pls
4110 3003 Pls
4110 3003 Pls
4110 3003 Pls
4110 3003 Pls
4111 3003 Pls
4111 3003 Pls
4111 3003 Pls
4111 3003 Pls
4111 3002 Pls
4112 3002 Pls
4112 3002 Pls
4113 3002 Pls
4113 3002 Pls
4113 3002 Pls
4114 3002 Pls
4114 3001 Pls
4114 3001 Pls
4115 3001 Pls
4115 3001 Pls
4115 3001 Pls
4115 3000 Pls
4115 3000 Pls
4116 3000 Pls
4116 3000 Pls
4116 3000 Pls
4116 3000 Pls
4117 3000 Pls
4117 2999 Pls
4117 2999 Pls
4117 2999 Pls
4118 2999 Pls
4118 2999 Pls
4119 2999 Pls
4119 2998 Pls
4119 2998 Pls
4119 2998 Pls
4120 2998 Pls
4120 2998 Pls
4120 2998 Pls
4120 2998 Pls
4120 2998 Pls
4121 2997 Pls
4121 2997 Pls
4121 2997 Pls
4122 2997 Pls
4122 2997 Pls
4122 2997 Pls
4122 2996 Pls
4123 2996 Pls
4123 2996 Pls
4123 2996 Pls
4123 2996 Pls
4123 2996 Pls
4124 2995 Pls
4125 2995 Pls
4125 2995 Pls
4125 2995 Pls
4125 2995 Pls
4125 2995 Pls
4126 2995 Pls
4126 2994 Pls
4126 2994 Pls
4127 2994 Pls
4127 2994 Pls
4128 2994 Pls
4128 2994 Pls
4128 2994 Pls
4128 2994 Pls
4129 2993 Pls
4129 2993 Pls
4129 2993 Pls
4129 2993 Pls
4130 2993 Pls
4130 2993 Pls
4130 2992 Pls
4130 2992 Pls
4131 2992 Pls
4131 2992 Pls
4131 2991 Pls
4131 2991 Pls
4132 2991 Pls
4132 2991 Pls
4132 2991 Pls
4132 2991 Pls
4133 2990 Pls
4133 2990 Pls
4133 2990 Pls
4134 2990 Pls
4134 2990 Pls
4134 2990 Pls
4134 2990 Pls
4134 2990 Pls
4135 2990 Pls
4136 2989 Pls
4136 2989 Pls
4136 2989 Pls
4136 2989 Pls
4136 2989 Pls
4137 2989 Pls
4137 2989 Pls
4137 2989 Pls
4137 2989 Pls
4137 2988 Pls
4137 2988 Pls
4138 2988 Pls
4138 2988 Pls
4138 2988 Pls
4138 2988 Pls
4138 2988 Pls
4139 2987 Pls
4139 2987 Pls
4140 2987 Pls
4140 2987 Pls
4140 2986 Pls
4140 2986 Pls
4141 2986 Pls
4141 2986 Pls
4141 2986 Pls
4142 2986 Pls
4142 2985 Pls
4142 2985 Pls
4143 2985 Pls
4143 2985 Pls
4143 2985 Pls
4143 2984 Pls
4143 2984 Pls
4144 2984 Pls
4144 2984 Pls
4145 2984 Pls
4145 2984 Pls
4145 2984 Pls
4146 2984 Pls
4146 2983 Pls
4146 2983 Pls
4147 2983 Pls
4147 2983 Pls
4148 2983 Pls
4148 2982 Pls
4148 2982 Pls
4149 2982 Pls
4149 2982 Pls
4149 2982 Pls
4150 2982 Pls
4150 2981 Pls
4151 2981 Pls
4151 2981 Pls
4151 2981 Pls
4152 2981 Pls
4152 2981 Pls
4152 2981 Pls
4153 2981 Pls
4153 2980 Pls
4153 2980 Pls
4154 2980 Pls
4154 2980 Pls
4155 2980 Pls
4155 2979 Pls
4155 2979 Pls
4155 2979 Pls
4155 2979 Pls
4156 2979 Pls
4156 2979 Pls
4156 2979 Pls
4157 2979 Pls
4157 2978 Pls
4157 2978 Pls
4158 2978 Pls
4158 2978 Pls
4158 2978 Pls
4159 2978 Pls
4159 2978 Pls
4159 2978 Pls
4159 2978 Pls
4159 2977 Pls
4160 2977 Pls
4160 2977 Pls
4160 2977 Pls
4160 2977 Pls
4160 2977 Pls
4161 2977 Pls
4161 2977 Pls
4162 2976 Pls
4162 2976 Pls
4163 2976 Pls
4164 2976 Pls
4164 2976 Pls
4165 2976 Pls
4165 2976 Pls
4165 2976 Pls
4165 2976 Pls
4166 2975 Pls
4166 2975 Pls
4166 2975 Pls
4166 2975 Pls
4166 2975 Pls
4166 2975 Pls
4166 2975 Pls
4167 2975 Pls
4167 2974 Pls
4167 2974 Pls
4167 2974 Pls
4168 2974 Pls
4168 2974 Pls
4168 2974 Pls
4168 2974 Pls
4168 2973 Pls
4168 2973 Pls
4169 2973 Pls
4169 2973 Pls
4170 2973 Pls
4170 2973 Pls
4170 2973 Pls
4171 2973 Pls
4171 2973 Pls
4173 2973 Pls
4173 2972 Pls
4174 2972 Pls
4174 2972 Pls
4175 2972 Pls
4175 2972 Pls
4176 2972 Pls
4176 2972 Pls
4176 2972 Pls
4177 2972 Pls
4177 2971 Pls
4177 2971 Pls
4178 2971 Pls
4178 2971 Pls
4179 2971 Pls
4179 2971 Pls
4179 2970 Pls
4179 2970 Pls
4179 2970 Pls
4180 2970 Pls
4180 2970 Pls
4180 2970 Pls
4180 2970 Pls
4180 2969 Pls
4181 2969 Pls
4181 2969 Pls
4181 2969 Pls
4182 2969 Pls
4182 2969 Pls
4182 2969 Pls
4183 2969 Pls
4183 2969 Pls
4183 2968 Pls
4183 2968 Pls
4184 2968 Pls
4184 2968 Pls
4184 2968 Pls
4184 2968 Pls
4185 2968 Pls
4185 2968 Pls
4186 2968 Pls
4186 2967 Pls
4186 2967 Pls
4187 2967 Pls
4187 2967 Pls
4187 2967 Pls
4188 2967 Pls
4188 2967 Pls
4188 2967 Pls
4189 2966 Pls
4189 2966 Pls
4189 2966 Pls
4189 2966 Pls
4190 2966 Pls
4190 2966 Pls
4190 2965 Pls
4191 2965 Pls
4191 2965 Pls
4191 2965 Pls
4191 2965 Pls
4192 2965 Pls
4192 2964 Pls
4192 2964 Pls
4193 2964 Pls
4193 2964 Pls
4193 2964 Pls
4195 2964 Pls
4195 2964 Pls
4195 2964 Pls
4196 2963 Pls
4196 2963 Pls
4197 2963 Pls
4197 2963 Pls
4197 2963 Pls
4197 2963 Pls
4198 2963 Pls
4198 2963 Pls
4199 2962 Pls
4199 2962 Pls
4199 2962 Pls
4200 2962 Pls
4200 2962 Pls
4200 2962 Pls
4200 2962 Pls
4200 2962 Pls
4201 2961 Pls
4201 2961 Pls
4201 2961 Pls
4201 2961 Pls
4202 2961 Pls
4202 2961 Pls
4202 2961 Pls
4203 2961 Pls
4203 2960 Pls
4203 2960 Pls
4203 2960 Pls
4203 2960 Pls
4204 2960 Pls
4204 2959 Pls
4204 2959 Pls
4204 2959 Pls
4204 2959 Pls
4205 2959 Pls
4205 2959 Pls
4205 2959 Pls
4205 2958 Pls
4206 2958 Pls
4206 2958 Pls
4207 2958 Pls
4207 2958 Pls
4207 2958 Pls
4208 2958 Pls
4208 2958 Pls
4208 2957 Pls
4209 2957 Pls
4209 2957 Pls
4209 2957 Pls
4210 2957 Pls
4211 2957 Pls
4212 2957 Pls
4212 2957 Pls
4212 2956 Pls
4212 2956 Pls
4212 2956 Pls
4213 2956 Pls
4213 2956 Pls
4213 2956 Pls
4213 2956 Pls
4213 2956 Pls
4213 2955 Pls
4213 2955 Pls
4214 2955 Pls
4214 2955 Pls
4215 2954 Pls
4215 2954 Pls
4215 2954 Pls
4215 2954 Pls
4216 2954 Pls
4217 2953 Pls
4217 2953 Pls
4218 2953 Pls
4218 2953 Pls
4219 2953 Pls
4219 2953 Pls
4219 2953 Pls
4219 2953 Pls
4220 2952 Pls
4220 2952 Pls
4221 2952 Pls
4221 2952 Pls
4222 2952 Pls
4222 2952 Pls
4222 2952 Pls
4222 2952 Pls
4223 2951 Pls
4223 2951 Pls
4224 2951 Pls
4224 2951 Pls
4225 2951 Pls
4225 2951 Pls
4226 2951 Pls
4226 2951 Pls
4226 2950 Pls
4226 2950 Pls
4227 2950 Pls
4227 2950 Pls
4227 2950 Pls
4228 2949 Pls
4228 2949 Pls
4229 2949 Pls
4229 2949 Pls
4229 2949 Pls
4229 2949 Pls
4230 2949 Pls
4230 2949 Pls
4230 2949 Pls
4230 2948 Pls
4231 2948 Pls
4231 2948 Pls
4232 2948 Pls
4232 2948 Pls
4232 2948 Pls
4232 2947 Pls
4233 2947 Pls
4233 2947 Pls
4233 2947 Pls
4234 2947 Pls
4234 2947 Pls
4234 2947 Pls
4234 2946 Pls
4234 2946 Pls
4235 2946 Pls
4235 2946 Pls
4235 2946 Pls
4235 2946 Pls
4235 2946 Pls
4235 2946 Pls
4235 2945 Pls
4236 2945 Pls
4236 2945 Pls
4237 2945 Pls
4238 2945 Pls
4238 2945 Pls
4238 2945 Pls
4239 2944 Pls
4239 2944 Pls
4239 2944 Pls
4239 2944 Pls
4240 2944 Pls
4240 2944 Pls
4241 2944 Pls
4241 2944 Pls
4242 2943 Pls
4242 2943 Pls
4242 2943 Pls
4242 2942 Pls
4242 2942 Pls
4242 2942 Pls
4243 2942 Pls
4243 2942 Pls
4243 2942 Pls
4243 2941 Pls
4243 2941 Pls
4243 2941 Pls
4244 2940 Pls
4244 2940 Pls
4244 2933 Pls
4244 2933 Pls
4245 2933 Pls
4246 2933 Pls
4246 2933 Pls
4246 2932 Pls
4247 2932 Pls
4247 2932 Pls
4247 2932 Pls
4247 2932 Pls
4248 2932 Pls
4249 2932 Pls
4249 2931 Pls
4249 2931 Pls
4250 2931 Pls
4250 2931 Pls
4250 2931 Pls
4251 2931 Pls
4251 2930 Pls
4251 2930 Pls
4251 2930 Pls
4252 2930 Pls
4253 2930 Pls
4253 2930 Pls
4253 2930 Pls
4254 2929 Pls
4254 2929 Pls
4254 2929 Pls
4254 2929 Pls
4255 2929 Pls
4255 2929 Pls
4256 2929 Pls
4256 2928 Pls
4256 2928 Pls
4256 2928 Pls
4257 2928 Pls
4257 2928 Pls
4257 2928 Pls
4257 2928 Pls
4258 2928 Pls
4258 2927 Pls
4259 2927 Pls
4259 2927 Pls
4259 2927 Pls
4259 2927 Pls
4260 2927 Pls
4260 2926 Pls
4260 2926 Pls
4260 2926 Pls
4260 2926 Pls
4261 2926 Pls
4261 2926 Pls
4261 2925 Pls
4262 2925 Pls
4262 2925 Pls
4263 2925 Pls
4263 2925 Pls
4263 2925 Pls
4263 2925 Pls
4264 2925 Pls
4264 2924 Pls
4264 2924 Pls
4264 2924 Pls
4265 2924 Pls
4265 2924 Pls
4266 2924 Pls
4267 2924 Pls
4268 2923 Pls
4268 2923 Pls
4268 2923 Pls
4269 2923 Pls
4269 2923 Pls
4270 2923 Pls
4270 2923 Pls
4270 2922 Pls
4271 2922 Pls
4271 2922 Pls
4271 2922 Pls
4272 2922 Pls
4272 2922 Pls
4272 2922 Pls
4273 2921 Pls
4273 2921 Pls
4274 2921 Pls
4274 2921 Pls
4274 2921 Pls
4274 2921 Pls
4274 2920 Pls
4275 2920 Pls
4275 2920 Pls
4275 2920 Pls
4275 2920 Pls
4276 2919 Pls
4277 2919 Pls
4277 2919 Pls
4278 2919 Pls
4279 2919 Pls
4279 2919 Pls
4279 2919 Pls
4279 2918 Pls
4280 2918 Pls
4280 2918 Pls
4280 2918 Pls
4281 2918 Pls
4281 2918 Pls
4281 2918 Pls
4281 2917 Pls
4281 2917 Pls
4282 2917 Pls
4282 2917 Pls
4282 2917 Pls
4282 2916 Pls
4283 2916 Pls
4283 2916 Pls
4284 2916 Pls
4285 2916 Pls
4286 2916 Pls
4287 2916 Pls
4288 2915 Pls
4288 2915 Pls
4289 2915 Pls
4289 2915 Pls
4289 2915 Pls
4289 2915 Pls
4290 2914 Pls
4291 2914 Pls
4291 2914 Pls
4292 2914 Pls
4292 2914 Pls
4292 2914 Pls
4293 2913 Pls
4293 2913 Pls
4293 2913 Pls
4293 2913 Pls
4294 2913 Pls
4294 2913 Pls
4295 2912 Pls
4295 2912 Pls
4295 2912 Pls
4297 2912 Pls
4297 2912 Pls
4297 2912 Pls
4297 2912 Pls
4297 2912 Pls
4298 2911 Pls
4298 2911 Pls
4298 2911 Pls
4299 2911 Pls
4299 2911 Pls
4300 2911 Pls
4301 2911 Pls
4302 2910 Pls
4302 2910 Pls
4302 2910 Pls
4303 2910 Pls
4303 2910 Pls
4303 2909 Pls
4303 2909 Pls
4304 2909 Pls
4305 2909 Pls
4305 2909 Pls
4305 2909 Pls
4306 2909 Pls
4306 2908 Pls
4306 2908 Pls
4306 2908 Pls
4307 2908 Pls
4307 2908 Pls
4307 2908 Pls
4307 2907 Pls
4307 2907 Pls
4308 2907 Pls
4308 2906 Pls
4309 2906 Pls
4309 2906 Pls
4310 2906 Pls
4310 2906 Pls
4310 2905 Pls
4311 2905 Pls
4311 2905 Pls
4311 2905 Pls
4311 2905 Pls
4312 2905 Pls
4312 2905 Pls
4313 2905 Pls
4313 2904 Pls
4313 2904 Pls
4314 2904 Pls
4314 2904 Pls
4314 2904 Pls
4316 2904 Pls
4316 2904 Pls
4316 2903 Pls
4317 2903 Pls
4317 2903 Pls
4317 2903 Pls
4318 2903 Pls
4318 2903 Pls
4318 2903 Pls
4318 2902 Pls
4320 2902 Pls
4320 2902 Pls
4320 2902 Pls
4321 2902 Pls
4321 2901 Pls
4321 2901 Pls
4321 2901 Pls
4322 2901 Pls
4322 2901 Pls
4322 2901 Pls
4323 2901 Pls
4323 2900 Pls
4323 2900 Pls
4324 2900 Pls
4324 2900 Pls
4325 2900 Pls
4325 2900 Pls
4325 2900 Pls
4325 2899 Pls
4326 2899 Pls
4326 2899 Pls
4326 2899 Pls
4326 2899 Pls
4327 2898 Pls
4327 2898 Pls
4327 2898 Pls
4327 2898 Pls
4327 2898 Pls
4327 2898 Pls
4327 2898 Pls
4328 2898 Pls
4328 2897 Pls
4328 2897 Pls
4328 2897 Pls
4328 2896 Pls
4329 2896 Pls
4330 2896 Pls
4330 2896 Pls
4330 2896 Pls
4331 2896 Pls
4331 2895 Pls
4331 2895 Pls
4331 2895 Pls
4331 2895 Pls
4332 2895 Pls
4332 2895 Pls
4332 2895 Pls
4333 2895 Pls
4333 2894 Pls
4333 2894 Pls
4333 2894 Pls
4334 2894 Pls
4334 2894 Pls
4334 2893 Pls
4335 2893 Pls
4335 2893 Pls
4335 2893 Pls
4335 2893 Pls
4335 2893 Pls
4336 2893 Pls
4336 2892 Pls
4336 2892 Pls
4336 2892 Pls
4337 2892 Pls
4337 2892 Pls
4337 2892 Pls
4337 2891 Pls
4337 2891 Pls
4338 2891 Pls
4338 2891 Pls
4338 2891 Pls
4339 2891 Pls
4339 2891 Pls
4339 2890 Pls
4340 2890 Pls
4340 2890 Pls
4340 2890 Pls
4341 2890 Pls
4341 2890 Pls
4341 2890 Pls
4342 2889 Pls
4343 2889 Pls
4344 2889 Pls
4344 2889 Pls
4344 2889 Pls
4345 2889 Pls
4346 2889 Pls
4346 2888 Pls
4347 2888 Pls
4347 2888 Pls
4348 2888 Pls
4348 2888 Pls
4349 2888 Pls
4349 2888 Pls
4349 2887 Pls
4350 2887 Pls
4350 2887 Pls
4350 2887 Pls
4350 2887 Pls
4351 2887 Pls
4351 2886 Pls
4351 2886 Pls
4352 2886 Pls
4352 2886 Pls
4352 2886 Pls
4353 2886 Pls
4354 2886 Pls
4354 2885 Pls
4355 2885 Pls
4355 2885 Pls
4356 2885 Pls
4356 2885 Pls
4356 2885 Pls
4357 2885 Pls
4357 2884 Pls
4357 2884 Pls
4358 2884 Pls
4358 2884 Pls
4359 2884 Pls
4359 2884 Pls
4359 2884 Pls
4359 2883 Pls
4359 2883 Pls
4360 2883 Pls
4360 2883 Pls
4360 2883 Pls
4360 2883 Pls
4360 2882 Pls
4361 2882 Pls
4361 2882 Pls
4361 2882 Pls
4363 2882 Pls
4363 2881 Pls
4364 2881 Pls
4364 2881 Pls
4365 2881 Pls
4365 2881 Pls
4365 2881 Pls
4366 2880 Pls
4367 2880 Pls
4368 2880 Pls
4368 2880 Pls
4368 2880 Pls
4368 2880 Pls
4369 2880 Pls
4369 2879 Pls
4370 2879 Pls
4370 2879 Pls
4370 2879 Pls
4370 2879 Pls
4370 2879 Pls
4370 2879 Pls
4371 2878 Pls
4371 2878 Pls
4371 2878 Pls
4372 2878 Pls
4372 2878 Pls
4372 2878 Pls
4373 2877 Pls
4373 2877 Pls
4373 2877 Pls
4374 2877 Pls
4374 2877 Pls
4375 2876 Pls
4375 2876 Pls
4375 2876 Pls
4376 2876 Pls
4377 2876 Pls
4378 2876 Pls
4379 2875 Pls
4379 2875 Pls
4380 2875 Pls
4380 2875 Pls
4381 2875 Pls
4381 2874 Pls
4381 2874 Pls
4381 2874 Pls
4382 2874 Pls
4382 2874 Pls
4382 2873 Pls
4383 2873 Pls
4383 2873 Pls
4384 2873 Pls
4384 2872 Pls
4384 2872 Pls
4385 2872 Pls
4386 2872 Pls
4386 2872 Pls
4387 2872 Pls
4387 2871 Pls
4387 2871 Pls
4388 2871 Pls
4388 2871 Pls
4388 2871 Pls
4389 2871 Pls
4389 2871 Pls
4389 2870 Pls
4389 2870 Pls
4390 2870 Pls
4390 2870 Pls
4390 2870 Pls
4390 2870 Pls
4390 2869 Pls
4391 2869 Pls
4392 2869 Pls
4392 2869 Pls
4392 2869 Pls
4392 2869 Pls
4392 2868 Pls
4393 2868 Pls
4393 2868 Pls
4394 2868 Pls
4394 2868 Pls
4395 2868 Pls
4395 2867 Pls
4396 2867 Pls
4396 2867 Pls
4397 2867 Pls
4397 2866 Pls
4397 2866 Pls
4398 2866 Pls
4398 2866 Pls
4398 2866 Pls
4399 2866 Pls
4399 2865 Pls
4399 2865 Pls
4399 2865 Pls
4400 2865 Pls
4400 2865 Pls
4401 2864 Pls
4401 2864 Pls
4401 2864 Pls
4402 2864 Pls
4402 2864 Pls
4402 2864 Pls
4403 2864 Pls
4404 2863 Pls
4404 2863 Pls
4405 2863 Pls
4406 2863 Pls
4406 2863 Pls
4409 2862 Pls
4409 2862 Pls
4409 2862 Pls
4410 2862 Pls
4410 2862 Pls
4411 2861 Pls
4411 2861 Pls
4411 2861 Pls
4411 2861 Pls
4411 2861 Pls
4412 2860 Pls
4412 2860 Pls
4413 2860 Pls
4413 2860 Pls
4413 2860 Pls
4413 2859 Pls
4414 2859 Pls
4414 2859 Pls
4414 2859 Pls
4414 2859 Pls
4415 2859 Pls
4415 2858 Pls
4416 2858 Pls
4416 2858 Pls
4417 2858 Pls
4417 2858 Pls
4417 2858 Pls
4417 2857 Pls
4417 2857 Pls
4418 2857 Pls
4419 2857 Pls
4420 2857 Pls
4420 2856 Pls
4420 2856 Pls
4420 2856 Pls
4422 2856 Pls
4422 2855 Pls
4423 2855 Pls
4423 2855 Pls
4423 2855 Pls
4423 2855 Pls
4424 2855 Pls
4424 2854 Pls
4424 2854 Pls
4424 2854 Pls
4424 2854 Pls
4424 2854 Pls
4425 2853 Pls
4425 2853 Pls
4426 2853 Pls
4426 2853 Pls
4427 2853 Pls
4427 2852 Pls
4428 2852 Pls
4428 2852 Pls
4428 2852 Pls
4430 2852 Pls
4430 2851 Pls
4430 2851 Pls
4431 2851 Pls
4431 2851 Pls
4432 2851 Pls
4432 2851 Pls
4433 2850 Pls
4433 2850 Pls
4433 2850 Pls
4433 2850 Pls
4434 2850 Pls
4434 2850 Pls
4434 2849 Pls
4434 2849 Pls
4434 2849 Pls
4435 2849 Pls
4436 2849 Pls
4436 2848 Pls
4436 2848 Pls
4436 2848 Pls
4437 2848 Pls
4437 2847 Pls
4437 2847 Pls
4438 2846 Pls
4438 2846 Pls
4438 2846 Pls
4439 2846 Pls
4439 2846 Pls
4439 2846 Pls
4439 2845 Pls
4439 2845 Pls
4439 2845 Pls
4439 2845 Pls
4440 2845 Pls
4440 2844 Pls
4440 2844 Pls
4440 2844 Pls
4440 2844 Pls
4440 2844 Pls
4440 2844 Pls
4442 2843 Pls
4443 2843 Pls
4443 2843 Pls
4443 2843 Pls
4443 2843 Pls
4444 2842 Pls
4444 2842 Pls
4445 2842 Pls
4445 2842 Pls
4446 2842 Pls
4446 2841 Pls
4446 2841 Pls
4447 2841 Pls
4447 2841 Pls
4448 2841 Pls
4448 2840 Pls
4448 2840 Pls
4449 2840 Pls
4451 2840 Pls
4451 2840 Pls
4451 2840 Pls
4452 2839 Pls
4452 2839 Pls
4452 2839 Pls
4452 2839 Pls
4453 2839 Pls
4453 2839 Pls
4453 2838 Pls
4453 2838 Pls
4454 2838 Pls
4454 2838 Pls
4455 2838 Pls
4456 2838 Pls
4457 2837 Pls
4458 2837 Pls
4459 2837 Pls
4459 2837 Pls
4459 2837 Pls
4459 2837 Pls
4460 2836 Pls
4460 2836 Pls
4460 2836 Pls
4461 2836 Pls
4461 2836 Pls
4461 2835 Pls
4463 2835 Pls
4464 2835 Pls
4464 2835 Pls
4464 2835 Pls
4464 2835 Pls
4465 2834 Pls
4466 2834 Pls
4466 2834 Pls
4466 2834 Pls
4466 2834 Pls
4467 2834 Pls
4467 2833 Pls
4468 2833 Pls
4468 2833 Pls
4468 2833 Pls
4469 2832 Pls
4470 2832 Pls
4470 2832 Pls
4470 2832 Pls
4471 2831 Pls
4472 2831 Pls
4473 2831 Pls
4474 2831 Pls
4474 2831 Pls
4474 2830 Pls
4475 2830 Pls
4477 2830 Pls
4477 2830 Pls
4477 2830 Pls
4478 2829 Pls
4478 2829 Pls
4478 2829 Pls
4478 2829 Pls
4479 2829 Pls
4479 2829 Pls
4480 2828 Pls
4480 2828 Pls
4480 2828 Pls
4481 2828 Pls
4481 2827 Pls
4482 2827 Pls
4482 2827 Pls
4483 2827 Pls
4484 2827 Pls
4485 2827 Pls
4485 2826 Pls
4485 2826 Pls
4485 2826 Pls
4487 2826 Pls
4488 2826 Pls
4488 2826 Pls
4489 2825 Pls
4489 2825 Pls
4489 2825 Pls
4490 2824 Pls
4490 2824 Pls
4491 2824 Pls
4492 2824 Pls
4492 2824 Pls
4493 2824 Pls
4493 2823 Pls
4493 2823 Pls
4494 2823 Pls
4494 2823 Pls
4494 2823 Pls
4495 2822 Pls
4495 2822 Pls
4495 2822 Pls
4495 2822 Pls
4495 2822 Pls
4496 2821 Pls
4497 2821 Pls
4497 2821 Pls
4499 2821 Pls
4499 2821 Pls
4499 2821 Pls
4499 2820 Pls
4499 2820 Pls
4500 2820 Pls
4500 2820 Pls
4500 2820 Pls
4500 2819 Pls
4501 2819 Pls
4501 2819 Pls
4501 2819 Pls
4501 2819 Pls
4501 2819 Pls
4501 2818 Pls
4502 2818 Pls
4502 2818 Pls
4503 2818 Pls
4503 2818 Pls
4503 2817 Pls
4504 2817 Pls
4504 2817 Pls
4504 2817 Pls
4505 2817 Pls
4505 2817 Pls
4506 2816 Pls
4507 2816 Pls
4508 2816 Pls
4508 2816 Pls
4510 2816 Pls
4511 2815 Pls
4511 2815 Pls
4511 2815 Pls
4512 2815 Pls
4512 2815 Pls
4513 2815 Pls
4513 2814 Pls
4514 2814 Pls
4514 2814 Pls
4514 2814 Pls
4515 2814 Pls
4515 2813 Pls
4515 2813 Pls
4516 2813 Pls
4516 2813 Pls
4516 2813 Pls
4518 2813 Pls
4518 2812 Pls
4518 2812 Pls
4518 2812 Pls
4519 2811 Pls
4519 2811 Pls
4520 2811 Pls
4520 2811 Pls
4520 2811 Pls
4521 2810 Pls
4521 2810 Pls
4521 2810 Pls
4522 2810 Pls
4522 2810 Pls
4522 2809 Pls
4522 2809 Pls
4523 2809 Pls
4525 2809 Pls
4525 2808 Pls
4525 2808 Pls
4526 2808 Pls
4526 2808 Pls
4527 2808 Pls
4528 2808 Pls
4528 2807 Pls
4528 2807 Pls
4529 2807 Pls
4529 2807 Pls
4530 2807 Pls
4530 2806 Pls
4531 2806 Pls
4531 2806 Pls
4532 2806 Pls
4533 2806 Pls
4533 2805 Pls
4533 2805 Pls
4534 2805 Pls
4534 2805 Pls
4535 2805 Pls
4535 2804 Pls
4535 2804 Pls
4536 2804 Pls
4536 2804 Pls
4536 2804 Pls
4536 2803 Pls
4537 2803 Pls
4537 2803 Pls
4537 2803 Pls
4538 2803 Pls
4538 2802 Pls
4538 2802 Pls
4538 2802 Pls
4538 2802 Pls
4539 2802 Pls
4539 2801 Pls
4540 2801 Pls
4541 2801 Pls
4541 2801 Pls
4542 2801 Pls
4542 2801 Pls
4543 2800 Pls
4544 2800 Pls
4545 2800 Pls
4545 2800 Pls
4546 2800 Pls
4546 2799 Pls
4546 2799 Pls
4546 2799 Pls
4547 2799 Pls
4547 2798 Pls
4549 2798 Pls
4551 2798 Pls
4553 2798 Pls
4553 2798 Pls
4555 2797 Pls
4556 2797 Pls
4557 2797 Pls
4557 2797 Pls
4558 2797 Pls
4558 2796 Pls
4559 2796 Pls
4559 2796 Pls
4559 2796 Pls
4560 2796 Pls
4560 2795 Pls
4561 2795 Pls
4561 2795 Pls
4561 2795 Pls
4561 2795 Pls
4562 2794 Pls
4562 2794 Pls
4562 2794 Pls
4562 2794 Pls
4562 2794 Pls
4563 2794 Pls
4563 2793 Pls
4564 2793 Pls
4564 2793 Pls
4564 2793 Pls
4564 2793 Pls
4565 2792 Pls
4565 2792 Pls
4565 2792 Pls
4565 2792 Pls
4565 2791 Pls
4565 2791 Pls
4566 2791 Pls
4567 2791 Pls
4567 2790 Pls
4567 2790 Pls
4567 2790 Pls
4568 2790 Pls
4568 2789 Pls
4568 2789 Pls
4569 2789 Pls
4569 2789 Pls
4569 2789 Pls
4569 2788 Pls
4569 2788 Pls
4570 2788 Pls
4570 2788 Pls
4570 2788 Pls
4571 2787 Pls
4571 2787 Pls
4572 2787 Pls
4572 2787 Pls
4572 2786 Pls
4572 2786 Pls
4573 2786 Pls
4573 2786 Pls
4573 2785 Pls
4574 2785 Pls
4574 2785 Pls
4574 2785 Pls
4574 2784 Pls
4575 2784 Pls
4576 2784 Pls
4576 2784 Pls
4576 2784 Pls
4577 2783 Pls
4577 2783 Pls
4578 2783 Pls
4578 2783 Pls
4579 2782 Pls
4579 2782 Pls
4579 2782 Pls
4579 2782 Pls
4579 2782 Pls
4579 2781 Pls
4579 2781 Pls
4580 2781 Pls
4580 2781 Pls
4580 2781 Pls
4581 2780 Pls
4581 2780 Pls
4582 2780 Pls
4582 2780 Pls
4583 2780 Pls
4584 2779 Pls
4584 2779 Pls
4584 2779 Pls
4586 2779 Pls
4586 2779 Pls
4586 2778 Pls
4587 2778 Pls
4587 2778 Pls
4587 2778 Pls
4588 2777 Pls
4589 2777 Pls
4590 2777 Pls
4590 2777 Pls
4591 2777 Pls
4592 2776 Pls
4593 2776 Pls
4593 2776 Pls
4595 2776 Pls
4595 2776 Pls
4596 2775 Pls
4596 2775 Pls
4596 2775 Pls
4597 2775 Pls
4598 2775 Pls
4598 2774 Pls
4598 2774 Pls
4599 2774 Pls
4600 2774 Pls
4600 2773 Pls
4605 2773 Pls
4606 2773 Pls
4607 2772 Pls
4607 2772 Pls
4607 2772 Pls
4607 2772 Pls
4607 2771 Pls
4608 2771 Pls
4608 2771 Pls
4608 2771 Pls
4609 2771 Pls
4609 2770 Pls
4609 2770 Pls
4609 2770 Pls
4610 2769 Pls
4610 2769 Pls
4610 2769 Pls
4611 2769 Pls
4611 2768 Pls
4611 2768 Pls
4612 2768 Pls
4612 2768 Pls
4613 2768 Pls
4614 2767 Pls
4614 2767 Pls
4614 2767 Pls
4614 2767 Pls
4614 2766 Pls
4615 2766 Pls
4615 2766 Pls
4615 2766 Pls
4616 2765 Pls
4616 2765 Pls
4616 2765 Pls
4616 2765 Pls
4616 2764 Pls
4617 2764 Pls
4618 2764 Pls
4619 2764 Pls
4619 2763 Pls
4620 2763 Pls
4621 2763 Pls
4621 2763 Pls
4621 2763 Pls
4621 2762 Pls
4622 2762 Pls
4622 2762 Pls
4622 2762 Pls
4622 2761 Pls
4622 2761 Pls
4623 2761 Pls
4623 2761 Pls
4623 2761 Pls
4624 2760 Pls
4625 2760 Pls
4627 2760 Pls
4627 2760 Pls
4627 2759 Pls
4629 2759 Pls
4629 2759 Pls
4630 2759 Pls
4630 2759 Pls
4631 2758 Pls
4631 2758 Pls
4631 2758 Pls
4632 2758 Pls
4632 2757 Pls
4633 2757 Pls
4633 2757 Pls
4633 2757 Pls
4633 2757 Pls
4634 2756 Pls
4635 2756 Pls
4635 2756 Pls
4636 2756 Pls
4636 2755 Pls
4637 2755 Pls
4637 2755 Pls
4638 2754 Pls
4638 2754 Pls
4638 2754 Pls
4638 2754 Pls
4638 2754 Pls
4638 2753 Pls
4638 2753 Pls
4641 2753 Pls
4641 2753 Pls
4642 2752 Pls
4643 2752 Pls
4643 2752 Pls
4644 2752 Pls
4644 2752 Pls
4648 2751 Pls
4648 2751 Pls
4648 2751 Pls
4648 2751 Pls
4649 2750 Pls
4649 2750 Pls
4649 2750 Pls
4649 2749 Pls
4650 2749 Pls
4650 2749 Pls
4651 2749 Pls
4652 2749 Pls
4652 2748 Pls
4652 2748 Pls
4653 2748 Pls
4655 2748 Pls
4655 2747 Pls
4656 2747 Pls
4657 2747 Pls
4658 2747 Pls
4658 2746 Pls
4658 2746 Pls
4659 2746 Pls
4660 2746 Pls
4661 2746 Pls
4662 2745 Pls
4662 2745 Pls
4662 2745 Pls
4663 2744 Pls
4663 2744 Pls
4663 2743 Pls
4663 2743 Pls
4663 2743 Pls
4663 2742 Pls
4663 2742 Pls
4664 2742 Pls
4665 2742 Pls
4665 2742 Pls
4665 2741 Pls
4665 2741 Pls
4666 2741 Pls
4667 2741 Pls
4668 2740 Pls
4669 2740 Pls
4670 2740 Pls
4671 2740 Pls
4671 2739 Pls
4671 2739 Pls
4672 2739 Pls
4672 2739 Pls
4672 2738 Pls
4673 2738 Pls
4673 2738 Pls
4673 2738 Pls
4674 2737 Pls
4674 2737 Pls
4676 2737 Pls
4676 2737 Pls
4677 2737 Pls
4678 2736 Pls
4679 2736 Pls
4679 2736 Pls
4680 2736 Pls
4680 2735 Pls
4680 2735 Pls
4681 2735 Pls
4681 2734 Pls
4682 2734 Pls
4682 2734 Pls
4683 2734 Pls
4683 2733 Pls
4684 2733 Pls
4684 2733 Pls
4684 2733 Pls
4685 2732 Pls
4686 2732 Pls
4686 2732 Pls
4686 2732 Pls
4687 2731 Pls
4687 2731 Pls
4687 2731 Pls
4688 2730 Pls
4688 2730 Pls
4690 2730 Pls
4691 2730 Pls
4692 2729 Pls
4692 2729 Pls
4694 2729 Pls
4694 2729 Pls
4695 2728 Pls
4696 2728 Pls
4696 2728 Pls
4697 2728 Pls
4697 2727 Pls
4698 2727 Pls
4698 2727 Pls
4699 2727 Pls
4699 2726 Pls
4700 2726 Pls
4701 2726 Pls
4702 2726 Pls
4703 2725 Pls
4703 2725 Pls
4704 2725 Pls
4704 2725 Pls
4704 2724 Pls
4705 2724 Pls
4705 2724 Pls
4705 2724 Pls
4705 2723 Pls
4705 2723 Pls
4706 2723 Pls
4706 2722 Pls
4706 2722 Pls
4706 2722 Pls
4708 2722 Pls
4708 2721 Pls
4708 2721 Pls
4708 2721 Pls
4709 2721 Pls
4709 2720 Pls
4711 2720 Pls
4711 2720 Pls
4711 2720 Pls
4712 2719 Pls
4712 2719 Pls
4713 2719 Pls
4713 2719 Pls
4713 2718 Pls
4713 2718 Pls
4714 2718 Pls
4714 2718 Pls
4714 2717 Pls
4714 2717 Pls
4715 2717 Pls
4716 2717 Pls
4717 2716 Pls
4717 2716 Pls
4717 2715 Pls
4717 2715 Pls
4718 2715 Pls
4719 2715 Pls
4720 2714 Pls
4721 2714 Pls
4721 2714 Pls
4722 2713 Pls
4722 2713 Pls
4722 2713 Pls
4722 2713 Pls
4724 2712 Pls
4724 2712 Pls
4724 2712 Pls
4725 2712 Pls
4727 2711 Pls
4727 2711 Pls
4727 2711 Pls
4728 2711 Pls
4729 2710 Pls
4729 2710 Pls
4729 2710 Pls
4729 2710 Pls
4730 2709 Pls
4730 2709 Pls
4731 2709 Pls
4732 2708 Pls
4732 2708 Pls
4734 2708 Pls
4735 2708 Pls
4735 2707 Pls
4735 2707 Pls
4736 2707 Pls
4736 2707 Pls
4737 2706 Pls
4738 2706 Pls
4738 2706 Pls
4739 2706 Pls
4739 2705 Pls
4741 2705 Pls
4741 2705 Pls
4742 2704 Pls
4742 2704 Pls
4742 2704 Pls
4742 2703 Pls
4742 2703 Pls
4743 2702 Pls
4744 2702 Pls
4745 2702 Pls
4745 2701 Pls
4745 2701 Pls
4745 2701 Pls
4746 2701 Pls
4747 2700 Pls
4747 2700 Pls
4747 2700 Pls
4747 2700 Pls
4749 2699 Pls
4749 2699 Pls
4749 2699 Pls
4749 2698 Pls
4751 2698 Pls
4752 2698 Pls
4752 2698 Pls
4752 2697 Pls
4752 2697 Pls
4752 2697 Pls
4753 2697 Pls
4753 2696 Pls
4753 2696 Pls
4753 2696 Pls
4754 2695 Pls
4754 2695 Pls
4755 2695 Pls
4755 2695 Pls
4757 2694 Pls
4757 2694 Pls
4758 2694 Pls
4758 2693 Pls
4758 2693 Pls
4759 2693 Pls
4759 2693 Pls
4760 2692 Pls
4760 2692 Pls
4760 2692 Pls
4761 2691 Pls
4762 2691 Pls
4762 2691 Pls
4763 2691 Pls
4764 2690 Pls
4764 2690 Pls
4764 2690 Pls
4764 2690 Pls
4764 2689 Pls
4765 2689 Pls
4766 2689 Pls
4766 2688 Pls
4766 2688 Pls
4766 2688 Pls
4767 2688 Pls
4767 2687 Pls
4768 2687 Pls
4769 2687 Pls
4769 2686 Pls
4769 2686 Pls
4769 2686 Pls
4769 2686 Pls
4769 2685 Pls
4769 2685 Pls
4769 2685 Pls
4770 2684 Pls
4770 2684 Pls
4772 2684 Pls
4772 2683 Pls
4772 2683 Pls
4773 2683 Pls
4773 2683 Pls
4773 2682 Pls
4774 2682 Pls
4774 2682 Pls
4775 2681 Pls
4775 2681 Pls
4775 2681 Pls
4776 2681 Pls
4776 2680 Pls
4776 2680 Pls
4776 2679 Pls
4777 2679 Pls
4778 2679 Pls
4778 2678 Pls
4778 2678 Pls
4779 2678 Pls
4779 2677 Pls
4779 2677 Pls
4780 2677 Pls
4780 2676 Pls
4780 2676 Pls
4780 2676 Pls
4781 2676 Pls
4781 2675 Pls
4782 2675 Pls
4782 2675 Pls
4783 2674 Pls
4783 2674 Pls
4783 2674 Pls
4783 2673 Pls
4783 2673 Pls
4783 2673 Pls
4784 2672 Pls
4784 2672 Pls
4785 2672 Pls
4786 2671 Pls
4787 2671 Pls
4787 2671 Pls
4787 2670 Pls
4787 2670 Pls
4788 2670 Pls
4788 2670 Pls
4788 2669 Pls
4788 2669 Pls
4789 2669 Pls
4790 2668 Pls
4790 2668 Pls
4790 2668 Pls
4791 2667 Pls
4791 2667 Pls
4791 2667 Pls
4791 2666 Pls
4792 2666 Pls
4792 2666 Pls
4793 2666 Pls
4793 2665 Pls
4793 2665 Pls
4793 2665 Pls
4794 2664 Pls
4794 2664 Pls
4794 2664 Pls
4795 2663 Pls
4795 2663 Pls
4796 2663 Pls
4797 2662 Pls
4797 2662 Pls
4799 2662 Pls
4799 2661 Pls
4799 2661 Pls
4800 2661 Pls
4800 2661 Pls
4800 2660 Pls
4801 2660 Pls
4801 2659 Pls
4802 2659 Pls
4802 2659 Pls
4803 2658 Pls
4803 2658 Pls
4803 2658 Pls
4805 2657 Pls
4805 2657 Pls
4806 2657 Pls
4807 2656 Pls
4807 2656 Pls
4807 2656 Pls
4808 2655 Pls
4811 2655 Pls
4812 2655 Pls
4813 2654 Pls
4813 2654 Pls
4813 2654 Pls
4814 2654 Pls
4814 2653 Pls
4815 2653 Pls
4816 2653 Pls
4817 2652 Pls
4817 2652 Pls
4817 2652 Pls
4818 2651 Pls
4818 2651 Pls
4818 2651 Pls
4819 2650 Pls
4819 2650 Pls
4819 2650 Pls
4819 2649 Pls
4819 2649 Pls
4819 2649 Pls
4820 2648 Pls
4820 2648 Pls
4821 2648 Pls
4821 2647 Pls
4822 2647 Pls
4822 2647 Pls
4822 2646 Pls
4823 2646 Pls
4823 2646 Pls
4824 2645 Pls
4824 2645 Pls
4825 2645 Pls
4825 2644 Pls
4826 2644 Pls
4827 2644 Pls
4827 2643 Pls
4828 2643 Pls
4828 2643 Pls
4829 2642 Pls
4829 2642 Pls
4830 2642 Pls
4830 2641 Pls
4831 2641 Pls
4831 2641 Pls
4832 2640 Pls
4834 2640 Pls
4834 2640 Pls
4837 2639 Pls
4839 2639 Pls
4839 2639 Pls
4840 2638 Pls
4841 2638 Pls
4841 2638 Pls
4842 2637 Pls
4842 2637 Pls
4844 2637 Pls
4845 2636 Pls
4848 2636 Pls
4849 2636 Pls
4849 2635 Pls
4850 2635 Pls
4850 2635 Pls
4851 2634 Pls
4852 2634 Pls
4852 2634 Pls
4853 2633 Pls
4854 2633 Pls
4855 2632 Pls
4855 2632 Pls
4856 2632 Pls
4857 2631 Pls
4857 2631 Pls
4857 2631 Pls
4857 2630 Pls
4857 2630 Pls
4857 2630 Pls
4858 2629 Pls
4860 2629 Pls
4860 2629 Pls
4861 2628 Pls
4861 2628 Pls
4865 2628 Pls
4865 2627 Pls
4866 2627 Pls
4867 2627 Pls
4868 2626 Pls
4868 2626 Pls
4868 2625 Pls
4869 2625 Pls
4869 2625 Pls
4869 2624 Pls
4870 2624 Pls
4870 2624 Pls
4870 2623 Pls
4870 2623 Pls
4870 2623 Pls
4870 2622 Pls
4871 2622 Pls
4871 2622 Pls
4871 2621 Pls
4871 2621 Pls
4872 2620 Pls
4873 2620 Pls
4873 2620 Pls
4875 2619 Pls
4875 2619 Pls
4875 2619 Pls
4875 2618 Pls
4876 2618 Pls
4877 2618 Pls
4878 2617 Pls
4879 2617 Pls
4879 2616 Pls
4879 2616 Pls
4881 2616 Pls
4882 2615 Pls
4882 2615 Pls
4882 2615 Pls
4882 2614 Pls
4883 2614 Pls
4883 2613 Pls
4883 2613 Pls
4884 2613 Pls
4884 2612 Pls
4886 2612 Pls
4886 2612 Pls
4886 2611 Pls
4887 2611 Pls
4888 2610 Pls
4890 2610 Pls
4890 2610 Pls
4891 2609 Pls
4891 2609 Pls
4894 2609 Pls
4894 2608 Pls
4895 2608 Pls
4896 2607 Pls
4898 2607 Pls
4898 2607 Pls
4899 2606 Pls
4900 2606 Pls
4901 2606 Pls
4901 2605 Pls
4901 2605 Pls
4902 2604 Pls
4902 2604 Pls
4903 2604 Pls
4903 2603 Pls
4903 2603 Pls
4903 2603 Pls
4903 2602 Pls
4904 2602 Pls
4904 2601 Pls
4905 2601 Pls
4906 2601 Pls
4906 2600 Pls
4907 2600 Pls
4907 2599 Pls
4908 2599 Pls
4908 2599 Pls
4908 2598 Pls
4909 2598 Pls
4909 2597 Pls
4909 2597 Pls
4910 2597 Pls
4910 2596 Pls
4910 2596 Pls
4911 2595 Pls
4911 2595 Pls
4911 2595 Pls
4912 2594 Pls
4912 2594 Pls
4912 2593 Pls
4912 2593 Pls
4912 2593 Pls
4913 2592 Pls
4915 2592 Pls
4915 2592 Pls
4915 2591 Pls
4916 2591 Pls
4917 2590 Pls
4917 2590 Pls
4917 2589 Pls
4919 2589 Pls
4920 2589 Pls
4920 2588 Pls
4921 2588 Pls
4921 2587 Pls
4921 2587 Pls
4922 2587 Pls
4922 2586 Pls
4922 2586 Pls
4922 2585 Pls
4923 2585 Pls
4923 2585 Pls
4923 2584 Pls
4923 2584 Pls
4924 2583 Pls
4925 2583 Pls
4925 2583 Pls
4926 2582 Pls
4926 2582 Pls
4928 2581 Pls
4928 2581 Pls
4930 2580 Pls
4931 2580 Pls
4931 2580 Pls
4933 2579 Pls
4935 2579 Pls
4937 2578 Pls
4937 2578 Pls
4938 2578 Pls
4938 2577 Pls
4939 2577 Pls
4939 2576 Pls
4940 2576 Pls
4940 2575 Pls
4941 2575 Pls
4941 2575 Pls
4944 2574 Pls
4944 2574 Pls
4946 2573 Pls
4947 2573 Pls
4947 2572 Pls
4948 2572 Pls
4949 2572 Pls
4949 2571 Pls
4950 2571 Pls
4950 2570 Pls
4950 2570 Pls
4950 2569 Pls
4951 2569 Pls
4952 2569 Pls
4953 2568 Pls
4954 2568 Pls
4956 2567 Pls
4956 2567 Pls
4957 2566 Pls
4957 2566 Pls
4958 2566 Pls
4958 2565 Pls
4958 2565 Pls
4959 2564 Pls
4959 2564 Pls
4960 2563 Pls
4962 2562 Pls
4965 2562 Pls
4966 2562 Pls
4966 2561 Pls
4967 2561 Pls
4967 2560 Pls
4967 2560 Pls
4968 2559 Pls
4968 2559 Pls
4969 2558 Pls
4969 2558 Pls
4970 2558 Pls
4970 2557 Pls
4971 2557 Pls
4971 2556 Pls
4971 2556 Pls
4972 2555 Pls
4973 2554 Pls
4974 2554 Pls
4975 2553 Pls
4977 2553 Pls
4978 2552 Pls
4979 2552 Pls
4979 2552 Pls
4982 2551 Pls
4982 2551 Pls
4983 2550 Pls
4983 2550 Pls
4983 2549 Pls
4983 2549 Pls
4983 2548 Pls
4983 2548 Pls
4984 2547 Pls
4984 2547 Pls
4984 2546 Pls
4984 2546 Pls
4984 2546 Pls
4984 2545 Pls
4985 2545 Pls
4985 2544 Pls
4985 2544 Pls
4985 2543 Pls
4985 2543 Pls
4985 2542 Pls
4986 2542 Pls
4986 2541 Pls
4986 2541 Pls
4987 2540 Pls
4987 2540 Pls
4987 2539 Pls
4987 2539 Pls
4987 2538 Pls
4987 2537 Pls
4987 2537 Pls
4988 2536 Pls
4988 2536 Pls
4988 2535 Pls
4988 2535 Pls
4988 2534 Pls
4988 2534 Pls
4988 2533 Pls
4988 2533 Pls
4989 2533 Pls
4989 2532 Pls
4989 2532 Pls
4989 2531 Pls
4990 2531 Pls
4990 2530 Pls
4990 2530 Pls
4990 2529 Pls
4990 2529 Pls
4991 2528 Pls
4991 2528 Pls
4991 2527 Pls
4991 2527 Pls
4991 2526 Pls
4991 2526 Pls
4991 2525 Pls
4992 2525 Pls
4992 2524 Pls
4992 2524 Pls
4992 2523 Pls
4992 2522 Pls
4992 2522 Pls
4992 2521 Pls
4992 2521 Pls
4992 2520 Pls
4993 2520 Pls
4993 2519 Pls
4993 2519 Pls
4993 2518 Pls
4993 2518 Pls
4993 2517 Pls
4994 2517 Pls
4994 2516 Pls
4994 2516 Pls
4994 2515 Pls
4994 2515 Pls
4994 2514 Pls
4994 2514 Pls
4994 2513 Pls
4994 2512 Pls
4994 2512 Pls
4995 2511 Pls
4995 2510 Pls
4995 2510 Pls
4995 2509 Pls
4995 2509 Pls
4995 2508 Pls
4995 2508 Pls
4995 2507 Pls
4995 2507 Pls
4995 2506 Pls
4996 2506 Pls
4996 2505 Pls
4996 2505 Pls
4996 2504 Pls
4996 2503 Pls
4996 2502 Pls
4996 2502 Pls
4996 2501 Pls
4996 2501 Pls
4996 2500 Pls
4997 2500 Pls
4997 2499 Pls
4997 2499 Pls
4997 2498 Pls
4997 2497 Pls
4997 2497 Pls
4997 2496 Pls
4998 2496 Pls
4998 2495 Pls
4998 2495 Pls
4998 2494 Pls
4999 2493 Pls
4999 2493 Pls
4999 2492 Pls
4999 2492 Pls
4999 2491 Pls
4999 2491 Pls
5000 2490 Pls
5000 2490 Pls
5000 2489 Pls
5000 2488 Pls
5000 2488 Pls
5000 2487 Pls
5001 2487 Pls
5001 2486 Pls
5001 2485 Pls
5001 2485 Pls
5002 2484 Pls
5002 2483 Pls
5002 2483 Pls
5002 2482 Pls
5002 2481 Pls
5002 2481 Pls
5002 2480 Pls
5002 2480 Pls
5003 2479 Pls
5003 2478 Pls
5003 2478 Pls
5004 2477 Pls
5004 2477 Pls
5005 2476 Pls
5005 2475 Pls
5005 2475 Pls
5005 2474 Pls
5005 2474 Pls
5005 2473 Pls
5006 2472 Pls
5006 2472 Pls
5006 2471 Pls
5006 2471 Pls
5006 2470 Pls
5006 2469 Pls
5006 2469 Pls
5007 2468 Pls
5007 2467 Pls
5007 2467 Pls
5007 2466 Pls
5007 2466 Pls
5007 2465 Pls
5008 2464 Pls
5008 2464 Pls
5008 2463 Pls
5008 2462 Pls
5010 2462 Pls
5010 2461 Pls
5010 2461 Pls
5010 2460 Pls
5010 2458 Pls
5010 2457 Pls
5010 2456 Pls
5010 2455 Pls
5010 2455 Pls
5010 2454 Pls
5010 2454 Pls
5010 2453 Pls
5010 2452 Pls
5010 2452 Pls
5011 2451 Pls
5011 2450 Pls
5011 2450 Pls
5012 2449 Pls
5013 2448 Pls
5013 2448 Pls
5013 2447 Pls
5014 2446 Pls
5015 2446 Pls
5015 2445 Pls
5016 2444 Pls
5018 2444 Pls
5018 2443 Pls
5018 2442 Pls
5019 2442 Pls
5019 2441 Pls
5020 2440 Pls
5021 2440 Pls
5022 2439 Pls
5022 2438 Pls
5022 2437 Pls
5023 2437 Pls
5024 2436 Pls
5024 2435 Pls
5024 2435 Pls
5024 2434 Pls
5025 2433 Pls
5026 2433 Pls
5029 2432 Pls
5029 2431 Pls
5029 2430 Pls
5030 2430 Pls
5030 2429 Pls
5031 2428 Pls
5031 2428 Pls
5031 2427 Pls
5031 2426 Pls
5032 2426 Pls
5032 2425 Pls
5033 2424 Pls
5036 2423 Pls
5036 2423 Pls
5037 2422 Pls
5037 2421 Pls
5038 2420 Pls
5039 2420 Pls
5039 2419 Pls
5040 2418 Pls
5040 2418 Pls
5040 2417 Pls
5040 2416 Pls
5040 2415 Pls
5043 2415 Pls
5044 2414 Pls
5045 2413 Pls
5045 2412 Pls
5045 2412 Pls
5045 2411 Pls
5046 2410 Pls
5047 2409 Pls
5048 2409 Pls
5050 2408 Pls
5050 2407 Pls
5052 2406 Pls
5054 2405 Pls
5055 2405 Pls
5057 2404 Pls
5058 2403 Pls
5060 2402 Pls
5060 2402 Pls
5060 2401 Pls
5061 2400 Pls
5062 2399 Pls
5063 2398 Pls
5063 2398 Pls
5064 2397 Pls
5064 2396 Pls
5068 2395 Pls
5069 2394 Pls
5069 2394 Pls
5069 2393 Pls
5073 2392 Pls
5074 2391 Pls
5075 2390 Pls
5075 2390 Pls
5075 2389 Pls
5077 2388 Pls
5078 2387 Pls
5078 2386 Pls
5079 2386 Pls
5079 2385 Pls
5082 2384 Pls
5083 2383 Pls
5083 2382 Pls
5085 2381 Pls
5088 2381 Pls
5089 2380 Pls
5089 2379 Pls
5089 2378 Pls
5090 2377 Pls
5090 2376 Pls
5090 2375 Pls
5090 2375 Pls
5091 2374 Pls
5092 2373 Pls
5096 2372 Pls
5101 2371 Pls
5102 2370 Pls
5105 2369 Pls
5107 2369 Pls
5110 2368 Pls
5111 2367 Pls
5111 2366 Pls
5113 2365 Pls
5114 2364 Pls
5115 2363 Pls
5115 2362 Pls
5115 2361 Pls
5116 2361 Pls
5116 2360 Pls
5117 2359 Pls
5119 2358 Pls
5120 2357 Pls
5122 2356 Pls
5123 2355 Pls
5125 2353 Pls
5126 2352 Pls
5126 2351 Pls
5127 2350 Pls
5127 2349 Pls
5129 2349 Pls
5131 2348 Pls
5132 2347 Pls
5134 2346 Pls
5136 2345 Pls
5136 2344 Pls
5137 2343 Pls
5137 2342 Pls
5142 2341 Pls
5143 2340 Pls
5143 2339 Pls
5143 2338 Pls
5144 2337 Pls
5145 2336 Pls
5145 2335 Pls
5145 2334 Pls
5147 2333 Pls
5149 2332 Pls
5155 2331 Pls
5156 2330 Pls
5157 2329 Pls
5157 2328 Pls
5159 2327 Pls
5161 2326 Pls
5161 2325 Pls
5163 2324 Pls
5165 2323 Pls
5170 2322 Pls
5172 2321 Pls
5172 2320 Pls
5175 2319 Pls
5175 2318 Pls
5176 2317 Pls
5181 2316 Pls
5181 2315 Pls
5182 2314 Pls
5183 2313 Pls
5184 2311 Pls
5186 2310 Pls
5186 2309 Pls
5186 2308 Pls
5187 2307 Pls
5191 2306 Pls
5191 2305 Pls
5194 2304 Pls
5195 2303 Pls
5197 2302 Pls
5198 2301 Pls
5200 2299 Pls
5202 2298 Pls
5203 2297 Pls
5203 2296 Pls
5203 2295 Pls
5204 2294 Pls
5204 2293 Pls
5207 2291 Pls
5208 2290 Pls
5209 2289 Pls
5209 2288 Pls
5210 2287 Pls
5211 2286 Pls
5212 2285 Pls
5214 2283 Pls
5214 2282 Pls
5214 2281 Pls
5215 2280 Pls
5216 2279 Pls
5216 2277 Pls
5218 2276 Pls
5221 2275 Pls
5222 2274 Pls
5223 2273 Pls
5223 2271 Pls
5227 2270 Pls
5230 2269 Pls
5232 2268 Pls
5235 2266 Pls
5235 2265 Pls
5235 2264 Pls
5235 2263 Pls
5236 2261 Pls
5241 2260 Pls
5243 2259 Pls
5244 2257 Pls
5244 2256 Pls
5244 2255 Pls
5247 2253 Pls
5248 2252 Pls
5249 2251 Pls
5249 2249 Pls
5250 2248 Pls
5252 2247 Pls
5253 2245 Pls
5259 2244 Pls
5262 2243 Pls
5263 2241 Pls
5263 2240 Pls
5267 2239 Pls
5267 2237 Pls
5267 2236 Pls
5268 2234 Pls
5270 2233 Pls
5272 2232 Pls
5275 2230 Pls
5276 2229 Pls
5280 2227 Pls
5281 2226 Pls
5281 2224 Pls
5282 2223 Pls
5282 2222 Pls
5282 2220 Pls
5283 2219 Pls
5284 2217 Pls
5285 2216 Pls
5287 2214 Pls
5287 2213 Pls
5287 2211 Pls
5288 2210 Pls
5289 2208 Pls
5295 2206 Pls
5296 2205 Pls
5300 2203 Pls
5300 2202 Pls
5304 2200 Pls
5306 2199 Pls
5307 2197 Pls
5308 2195 Pls
5310 2194 Pls
5313 2192 Pls
5313 2191 Pls
5314 2189 Pls
5316 2187 Pls
5318 2186 Pls
5318 2184 Pls
5318 2182 Pls
5320 2181 Pls
5320 2179 Pls
5322 2177 Pls
5327 2175 Pls
5327 2174 Pls
5333 2172 Pls
5335 2170 Pls
5337 2168 Pls
5337 2167 Pls
5338 2165 Pls
5339 2163 Pls
5345 2161 Pls
5351 2159 Pls
5354 2158 Pls
5357 2156 Pls
5363 2154 Pls
5369 2152 Pls
5370 2150 Pls
5372 2148 Pls
5373 2146 Pls
5379 2144 Pls
5382 2143 Pls
5382 2141 Pls
5383 2139 Pls
5392 2137 Pls
5392 2135 Pls
5392 2133 Pls
5392 2131 Pls
5395 2129 Pls
5398 2127 Pls
5399 2125 Pls
5404 2122 Pls
5407 2120 Pls
5409 2118 Pls
5414 2116 Pls
5419 2114 Pls
5422 2112 Pls
5423 2110 Pls
5427 2108 Pls
5428 2105 Pls
5430 2103 Pls
5431 2101 Pls
5433 2099 Pls
5434 2096 Pls
5436 2094 Pls
5438 2092 Pls
5438 2089 Pls
5444 2087 Pls
5452 2085 Pls
5452 2082 Pls
5453 2080 Pls
5453 2078 Pls
5455 2075 Pls
5458 2073 Pls
5458 2070 Pls
5459 2068 Pls
5459 2065 Pls
5466 2063 Pls
5466 2060 Pls
5468 2057 Pls
5473 2055 Pls
5476 2052 Pls
5481 2049 Pls
5483 2047 Pls
5493 2044 Pls
5493 2041 Pls
5494 2038 Pls
5495 2036 Pls
5506 2033 Pls
5508 2030 Pls
5512 2027 Pls
5522 2024 Pls
5527 2021 Pls
5530 2018 Pls
5532 2015 Pls
5533 2012 Pls
5536 2009 Pls
5539 2006 Pls
5541 2003 Pls
5543 2000 Pls
5543 1996 Pls
5549 1993 Pls
5550 1990 Pls
5555 1987 Pls
5555 1983 Pls
5562 1980 Pls
5569 1976 Pls
5569 1973 Pls
5576 1969 Pls
5579 1966 Pls
5579 1962 Pls
5581 1958 Pls
5581 1955 Pls
5585 1951 Pls
5585 1947 Pls
5586 1943 Pls
5588 1939 Pls
5591 1935 Pls
5593 1931 Pls
5595 1927 Pls
5596 1923 Pls
5598 1919 Pls
5604 1914 Pls
5616 1910 Pls
5618 1906 Pls
5629 1901 Pls
5631 1897 Pls
5632 1892 Pls
5635 1887 Pls
5657 1883 Pls
5667 1878 Pls
5688 1873 Pls
5689 1868 Pls
5692 1863 Pls
5693 1857 Pls
5695 1852 Pls
5707 1847 Pls
5713 1841 Pls
5716 1835 Pls
5719 1830 Pls
5722 1824 Pls
5722 1818 Pls
5730 1812 Pls
5741 1805 Pls
5742 1799 Pls
5751 1792 Pls
5758 1786 Pls
5763 1779 Pls
5770 1772 Pls
5775 1765 Pls
5776 1757 Pls
5776 1750 Pls
5785 1742 Pls
5792 1734 Pls
5796 1726 Pls
5808 1717 Pls
5809 1708 Pls
5811 1699 Pls
5828 1690 Pls
5832 1680 Pls
5833 1670 Pls
5834 1660 Pls
5840 1649 Pls
5841 1638 Pls
5858 1626 Pls
5946 1614 Pls
5961 1602 Pls
5963 1588 Pls
5985 1574 Pls
6012 1560 Pls
6041 1544 Pls
6044 1528 Pls
6082 1511 Pls
6165 1492 Pls
6176 1473 Pls
6197 1452 Pls
6217 1429 Pls
6231 1404 Pls
6239 1377 Pls
6289 1347 Pls
6290 1313 Pls
6299 1275 Pls
6367 1231 Pls
6396 1180 Pls
6451 1116 Pls
6472 1034 Pls
6598 919 Pls
6708 721 Pls
% End plot #1
2.000 UL
LTb
LCb setrgbcolor
1.000 UL
LTB
LCb setrgbcolor
966 4871 N
966 280 L
5981 0 V
0 4591 V
-5981 0 V
Z stroke
1.000 UP
1.000 UL
LTb
LCb setrgbcolor
stroke
grestore
end
showpage
%%Trailer
%%DocumentFonts: Helvetica
%%Pages: 1
