%!PS-Adobe-2.0
%%Title: packets-uv-log-packets-uv-s-ccdf-linlog.eps
%%Creator: gnuplot 5.0 patchlevel 3
%%CreationDate: Mon May 29 11:10:24 2017
%%DocumentFonts: (atend)
%%BoundingBox: 50 50 554 770
%%Orientation: Landscape
%%Pages: (atend)
%%EndComments
%%BeginProlog
/gnudict 256 dict def
gnudict begin
%
% The following true/false flags may be edited by hand if desired.
% The unit line width and grayscale image gamma correction may also be changed.
%
/Color true def
/Blacktext false def
/Solid false def
/Dashlength 1 def
/Landscape true def
/Level1 false def
/Level3 false def
/Rounded false def
/ClipToBoundingBox false def
/SuppressPDFMark false def
/TransparentPatterns false def
/gnulinewidth 5.000 def
/userlinewidth gnulinewidth def
/Gamma 1.0 def
/BackgroundColor {-1.000 -1.000 -1.000} def
%
/vshift -46 def
/dl1 {
  10.0 Dashlength userlinewidth gnulinewidth div mul mul mul
  Rounded { currentlinewidth 0.75 mul sub dup 0 le { pop 0.01 } if } if
} def
/dl2 {
  10.0 Dashlength userlinewidth gnulinewidth div mul mul mul
  Rounded { currentlinewidth 0.75 mul add } if
} def
/hpt_ 31.5 def
/vpt_ 31.5 def
/hpt hpt_ def
/vpt vpt_ def
/doclip {
  ClipToBoundingBox {
    newpath 50 50 moveto 554 50 lineto 554 770 lineto 50 770 lineto closepath
    clip
  } if
} def
%
% Gnuplot Prolog Version 5.1 (Oct 2015)
%
%/SuppressPDFMark true def
%
/M {moveto} bind def
/L {lineto} bind def
/R {rmoveto} bind def
/V {rlineto} bind def
/N {newpath moveto} bind def
/Z {closepath} bind def
/C {setrgbcolor} bind def
/f {rlineto fill} bind def
/g {setgray} bind def
/Gshow {show} def   % May be redefined later in the file to support UTF-8
/vpt2 vpt 2 mul def
/hpt2 hpt 2 mul def
/Lshow {currentpoint stroke M 0 vshift R 
	Blacktext {gsave 0 setgray textshow grestore} {textshow} ifelse} def
/Rshow {currentpoint stroke M dup stringwidth pop neg vshift R
	Blacktext {gsave 0 setgray textshow grestore} {textshow} ifelse} def
/Cshow {currentpoint stroke M dup stringwidth pop -2 div vshift R 
	Blacktext {gsave 0 setgray textshow grestore} {textshow} ifelse} def
/UP {dup vpt_ mul /vpt exch def hpt_ mul /hpt exch def
  /hpt2 hpt 2 mul def /vpt2 vpt 2 mul def} def
/DL {Color {setrgbcolor Solid {pop []} if 0 setdash}
 {pop pop pop 0 setgray Solid {pop []} if 0 setdash} ifelse} def
/BL {stroke userlinewidth 2 mul setlinewidth
	Rounded {1 setlinejoin 1 setlinecap} if} def
/AL {stroke userlinewidth 2 div setlinewidth
	Rounded {1 setlinejoin 1 setlinecap} if} def
/UL {dup gnulinewidth mul /userlinewidth exch def
	dup 1 lt {pop 1} if 10 mul /udl exch def} def
/PL {stroke userlinewidth setlinewidth
	Rounded {1 setlinejoin 1 setlinecap} if} def
3.8 setmiterlimit
% Classic Line colors (version 5.0)
/LCw {1 1 1} def
/LCb {0 0 0} def
/LCa {0 0 0} def
/LC0 {1 0 0} def
/LC1 {0 1 0} def
/LC2 {0 0 1} def
/LC3 {1 0 1} def
/LC4 {0 1 1} def
/LC5 {1 1 0} def
/LC6 {0 0 0} def
/LC7 {1 0.3 0} def
/LC8 {0.5 0.5 0.5} def
% Default dash patterns (version 5.0)
/LTB {BL [] LCb DL} def
/LTw {PL [] 1 setgray} def
/LTb {PL [] LCb DL} def
/LTa {AL [1 udl mul 2 udl mul] 0 setdash LCa setrgbcolor} def
/LT0 {PL [] LC0 DL} def
/LT1 {PL [2 dl1 3 dl2] LC1 DL} def
/LT2 {PL [1 dl1 1.5 dl2] LC2 DL} def
/LT3 {PL [6 dl1 2 dl2 1 dl1 2 dl2] LC3 DL} def
/LT4 {PL [1 dl1 2 dl2 6 dl1 2 dl2 1 dl1 2 dl2] LC4 DL} def
/LT5 {PL [4 dl1 2 dl2] LC5 DL} def
/LT6 {PL [1.5 dl1 1.5 dl2 1.5 dl1 1.5 dl2 1.5 dl1 6 dl2] LC6 DL} def
/LT7 {PL [3 dl1 3 dl2 1 dl1 3 dl2] LC7 DL} def
/LT8 {PL [2 dl1 2 dl2 2 dl1 6 dl2] LC8 DL} def
/SL {[] 0 setdash} def
/Pnt {stroke [] 0 setdash gsave 1 setlinecap M 0 0 V stroke grestore} def
/Dia {stroke [] 0 setdash 2 copy vpt add M
  hpt neg vpt neg V hpt vpt neg V
  hpt vpt V hpt neg vpt V closepath stroke
  Pnt} def
/Pls {stroke [] 0 setdash vpt sub M 0 vpt2 V
  currentpoint stroke M
  hpt neg vpt neg R hpt2 0 V stroke
 } def
/Box {stroke [] 0 setdash 2 copy exch hpt sub exch vpt add M
  0 vpt2 neg V hpt2 0 V 0 vpt2 V
  hpt2 neg 0 V closepath stroke
  Pnt} def
/Crs {stroke [] 0 setdash exch hpt sub exch vpt add M
  hpt2 vpt2 neg V currentpoint stroke M
  hpt2 neg 0 R hpt2 vpt2 V stroke} def
/TriU {stroke [] 0 setdash 2 copy vpt 1.12 mul add M
  hpt neg vpt -1.62 mul V
  hpt 2 mul 0 V
  hpt neg vpt 1.62 mul V closepath stroke
  Pnt} def
/Star {2 copy Pls Crs} def
/BoxF {stroke [] 0 setdash exch hpt sub exch vpt add M
  0 vpt2 neg V hpt2 0 V 0 vpt2 V
  hpt2 neg 0 V closepath fill} def
/TriUF {stroke [] 0 setdash vpt 1.12 mul add M
  hpt neg vpt -1.62 mul V
  hpt 2 mul 0 V
  hpt neg vpt 1.62 mul V closepath fill} def
/TriD {stroke [] 0 setdash 2 copy vpt 1.12 mul sub M
  hpt neg vpt 1.62 mul V
  hpt 2 mul 0 V
  hpt neg vpt -1.62 mul V closepath stroke
  Pnt} def
/TriDF {stroke [] 0 setdash vpt 1.12 mul sub M
  hpt neg vpt 1.62 mul V
  hpt 2 mul 0 V
  hpt neg vpt -1.62 mul V closepath fill} def
/DiaF {stroke [] 0 setdash vpt add M
  hpt neg vpt neg V hpt vpt neg V
  hpt vpt V hpt neg vpt V closepath fill} def
/Pent {stroke [] 0 setdash 2 copy gsave
  translate 0 hpt M 4 {72 rotate 0 hpt L} repeat
  closepath stroke grestore Pnt} def
/PentF {stroke [] 0 setdash gsave
  translate 0 hpt M 4 {72 rotate 0 hpt L} repeat
  closepath fill grestore} def
/Circle {stroke [] 0 setdash 2 copy
  hpt 0 360 arc stroke Pnt} def
/CircleF {stroke [] 0 setdash hpt 0 360 arc fill} def
/C0 {BL [] 0 setdash 2 copy moveto vpt 90 450 arc} bind def
/C1 {BL [] 0 setdash 2 copy moveto
	2 copy vpt 0 90 arc closepath fill
	vpt 0 360 arc closepath} bind def
/C2 {BL [] 0 setdash 2 copy moveto
	2 copy vpt 90 180 arc closepath fill
	vpt 0 360 arc closepath} bind def
/C3 {BL [] 0 setdash 2 copy moveto
	2 copy vpt 0 180 arc closepath fill
	vpt 0 360 arc closepath} bind def
/C4 {BL [] 0 setdash 2 copy moveto
	2 copy vpt 180 270 arc closepath fill
	vpt 0 360 arc closepath} bind def
/C5 {BL [] 0 setdash 2 copy moveto
	2 copy vpt 0 90 arc
	2 copy moveto
	2 copy vpt 180 270 arc closepath fill
	vpt 0 360 arc} bind def
/C6 {BL [] 0 setdash 2 copy moveto
	2 copy vpt 90 270 arc closepath fill
	vpt 0 360 arc closepath} bind def
/C7 {BL [] 0 setdash 2 copy moveto
	2 copy vpt 0 270 arc closepath fill
	vpt 0 360 arc closepath} bind def
/C8 {BL [] 0 setdash 2 copy moveto
	2 copy vpt 270 360 arc closepath fill
	vpt 0 360 arc closepath} bind def
/C9 {BL [] 0 setdash 2 copy moveto
	2 copy vpt 270 450 arc closepath fill
	vpt 0 360 arc closepath} bind def
/C10 {BL [] 0 setdash 2 copy 2 copy moveto vpt 270 360 arc closepath fill
	2 copy moveto
	2 copy vpt 90 180 arc closepath fill
	vpt 0 360 arc closepath} bind def
/C11 {BL [] 0 setdash 2 copy moveto
	2 copy vpt 0 180 arc closepath fill
	2 copy moveto
	2 copy vpt 270 360 arc closepath fill
	vpt 0 360 arc closepath} bind def
/C12 {BL [] 0 setdash 2 copy moveto
	2 copy vpt 180 360 arc closepath fill
	vpt 0 360 arc closepath} bind def
/C13 {BL [] 0 setdash 2 copy moveto
	2 copy vpt 0 90 arc closepath fill
	2 copy moveto
	2 copy vpt 180 360 arc closepath fill
	vpt 0 360 arc closepath} bind def
/C14 {BL [] 0 setdash 2 copy moveto
	2 copy vpt 90 360 arc closepath fill
	vpt 0 360 arc} bind def
/C15 {BL [] 0 setdash 2 copy vpt 0 360 arc closepath fill
	vpt 0 360 arc closepath} bind def
/Rec {newpath 4 2 roll moveto 1 index 0 rlineto 0 exch rlineto
	neg 0 rlineto closepath} bind def
/Square {dup Rec} bind def
/Bsquare {vpt sub exch vpt sub exch vpt2 Square} bind def
/S0 {BL [] 0 setdash 2 copy moveto 0 vpt rlineto BL Bsquare} bind def
/S1 {BL [] 0 setdash 2 copy vpt Square fill Bsquare} bind def
/S2 {BL [] 0 setdash 2 copy exch vpt sub exch vpt Square fill Bsquare} bind def
/S3 {BL [] 0 setdash 2 copy exch vpt sub exch vpt2 vpt Rec fill Bsquare} bind def
/S4 {BL [] 0 setdash 2 copy exch vpt sub exch vpt sub vpt Square fill Bsquare} bind def
/S5 {BL [] 0 setdash 2 copy 2 copy vpt Square fill
	exch vpt sub exch vpt sub vpt Square fill Bsquare} bind def
/S6 {BL [] 0 setdash 2 copy exch vpt sub exch vpt sub vpt vpt2 Rec fill Bsquare} bind def
/S7 {BL [] 0 setdash 2 copy exch vpt sub exch vpt sub vpt vpt2 Rec fill
	2 copy vpt Square fill Bsquare} bind def
/S8 {BL [] 0 setdash 2 copy vpt sub vpt Square fill Bsquare} bind def
/S9 {BL [] 0 setdash 2 copy vpt sub vpt vpt2 Rec fill Bsquare} bind def
/S10 {BL [] 0 setdash 2 copy vpt sub vpt Square fill 2 copy exch vpt sub exch vpt Square fill
	Bsquare} bind def
/S11 {BL [] 0 setdash 2 copy vpt sub vpt Square fill 2 copy exch vpt sub exch vpt2 vpt Rec fill
	Bsquare} bind def
/S12 {BL [] 0 setdash 2 copy exch vpt sub exch vpt sub vpt2 vpt Rec fill Bsquare} bind def
/S13 {BL [] 0 setdash 2 copy exch vpt sub exch vpt sub vpt2 vpt Rec fill
	2 copy vpt Square fill Bsquare} bind def
/S14 {BL [] 0 setdash 2 copy exch vpt sub exch vpt sub vpt2 vpt Rec fill
	2 copy exch vpt sub exch vpt Square fill Bsquare} bind def
/S15 {BL [] 0 setdash 2 copy Bsquare fill Bsquare} bind def
/D0 {gsave translate 45 rotate 0 0 S0 stroke grestore} bind def
/D1 {gsave translate 45 rotate 0 0 S1 stroke grestore} bind def
/D2 {gsave translate 45 rotate 0 0 S2 stroke grestore} bind def
/D3 {gsave translate 45 rotate 0 0 S3 stroke grestore} bind def
/D4 {gsave translate 45 rotate 0 0 S4 stroke grestore} bind def
/D5 {gsave translate 45 rotate 0 0 S5 stroke grestore} bind def
/D6 {gsave translate 45 rotate 0 0 S6 stroke grestore} bind def
/D7 {gsave translate 45 rotate 0 0 S7 stroke grestore} bind def
/D8 {gsave translate 45 rotate 0 0 S8 stroke grestore} bind def
/D9 {gsave translate 45 rotate 0 0 S9 stroke grestore} bind def
/D10 {gsave translate 45 rotate 0 0 S10 stroke grestore} bind def
/D11 {gsave translate 45 rotate 0 0 S11 stroke grestore} bind def
/D12 {gsave translate 45 rotate 0 0 S12 stroke grestore} bind def
/D13 {gsave translate 45 rotate 0 0 S13 stroke grestore} bind def
/D14 {gsave translate 45 rotate 0 0 S14 stroke grestore} bind def
/D15 {gsave translate 45 rotate 0 0 S15 stroke grestore} bind def
/DiaE {stroke [] 0 setdash vpt add M
  hpt neg vpt neg V hpt vpt neg V
  hpt vpt V hpt neg vpt V closepath stroke} def
/BoxE {stroke [] 0 setdash exch hpt sub exch vpt add M
  0 vpt2 neg V hpt2 0 V 0 vpt2 V
  hpt2 neg 0 V closepath stroke} def
/TriUE {stroke [] 0 setdash vpt 1.12 mul add M
  hpt neg vpt -1.62 mul V
  hpt 2 mul 0 V
  hpt neg vpt 1.62 mul V closepath stroke} def
/TriDE {stroke [] 0 setdash vpt 1.12 mul sub M
  hpt neg vpt 1.62 mul V
  hpt 2 mul 0 V
  hpt neg vpt -1.62 mul V closepath stroke} def
/PentE {stroke [] 0 setdash gsave
  translate 0 hpt M 4 {72 rotate 0 hpt L} repeat
  closepath stroke grestore} def
/CircE {stroke [] 0 setdash 
  hpt 0 360 arc stroke} def
/Opaque {gsave closepath 1 setgray fill grestore 0 setgray closepath} def
/DiaW {stroke [] 0 setdash vpt add M
  hpt neg vpt neg V hpt vpt neg V
  hpt vpt V hpt neg vpt V Opaque stroke} def
/BoxW {stroke [] 0 setdash exch hpt sub exch vpt add M
  0 vpt2 neg V hpt2 0 V 0 vpt2 V
  hpt2 neg 0 V Opaque stroke} def
/TriUW {stroke [] 0 setdash vpt 1.12 mul add M
  hpt neg vpt -1.62 mul V
  hpt 2 mul 0 V
  hpt neg vpt 1.62 mul V Opaque stroke} def
/TriDW {stroke [] 0 setdash vpt 1.12 mul sub M
  hpt neg vpt 1.62 mul V
  hpt 2 mul 0 V
  hpt neg vpt -1.62 mul V Opaque stroke} def
/PentW {stroke [] 0 setdash gsave
  translate 0 hpt M 4 {72 rotate 0 hpt L} repeat
  Opaque stroke grestore} def
/CircW {stroke [] 0 setdash 
  hpt 0 360 arc Opaque stroke} def
/BoxFill {gsave Rec 1 setgray fill grestore} def
/Density {
  /Fillden exch def
  currentrgbcolor
  /ColB exch def /ColG exch def /ColR exch def
  /ColR ColR Fillden mul Fillden sub 1 add def
  /ColG ColG Fillden mul Fillden sub 1 add def
  /ColB ColB Fillden mul Fillden sub 1 add def
  ColR ColG ColB setrgbcolor} def
/BoxColFill {gsave Rec PolyFill} def
/PolyFill {gsave Density fill grestore grestore} def
/h {rlineto rlineto rlineto gsave closepath fill grestore} bind def
%
% PostScript Level 1 Pattern Fill routine for rectangles
% Usage: x y w h s a XX PatternFill
%	x,y = lower left corner of box to be filled
%	w,h = width and height of box
%	  a = angle in degrees between lines and x-axis
%	 XX = 0/1 for no/yes cross-hatch
%
/PatternFill {gsave /PFa [ 9 2 roll ] def
  PFa 0 get PFa 2 get 2 div add PFa 1 get PFa 3 get 2 div add translate
  PFa 2 get -2 div PFa 3 get -2 div PFa 2 get PFa 3 get Rec
  TransparentPatterns {} {gsave 1 setgray fill grestore} ifelse
  clip
  currentlinewidth 0.5 mul setlinewidth
  /PFs PFa 2 get dup mul PFa 3 get dup mul add sqrt def
  0 0 M PFa 5 get rotate PFs -2 div dup translate
  0 1 PFs PFa 4 get div 1 add floor cvi
	{PFa 4 get mul 0 M 0 PFs V} for
  0 PFa 6 get ne {
	0 1 PFs PFa 4 get div 1 add floor cvi
	{PFa 4 get mul 0 2 1 roll M PFs 0 V} for
 } if
  stroke grestore} def
%
/languagelevel where
 {pop languagelevel} {1} ifelse
dup 2 lt
	{/InterpretLevel1 true def
	 /InterpretLevel3 false def}
	{/InterpretLevel1 Level1 def
	 2 gt
	    {/InterpretLevel3 Level3 def}
	    {/InterpretLevel3 false def}
	 ifelse }
 ifelse
%
% PostScript level 2 pattern fill definitions
%
/Level2PatternFill {
/Tile8x8 {/PaintType 2 /PatternType 1 /TilingType 1 /BBox [0 0 8 8] /XStep 8 /YStep 8}
	bind def
/KeepColor {currentrgbcolor [/Pattern /DeviceRGB] setcolorspace} bind def
<< Tile8x8
 /PaintProc {0.5 setlinewidth pop 0 0 M 8 8 L 0 8 M 8 0 L stroke} 
>> matrix makepattern
/Pat1 exch def
<< Tile8x8
 /PaintProc {0.5 setlinewidth pop 0 0 M 8 8 L 0 8 M 8 0 L stroke
	0 4 M 4 8 L 8 4 L 4 0 L 0 4 L stroke}
>> matrix makepattern
/Pat2 exch def
<< Tile8x8
 /PaintProc {0.5 setlinewidth pop 0 0 M 0 8 L
	8 8 L 8 0 L 0 0 L fill}
>> matrix makepattern
/Pat3 exch def
<< Tile8x8
 /PaintProc {0.5 setlinewidth pop -4 8 M 8 -4 L
	0 12 M 12 0 L stroke}
>> matrix makepattern
/Pat4 exch def
<< Tile8x8
 /PaintProc {0.5 setlinewidth pop -4 0 M 8 12 L
	0 -4 M 12 8 L stroke}
>> matrix makepattern
/Pat5 exch def
<< Tile8x8
 /PaintProc {0.5 setlinewidth pop -2 8 M 4 -4 L
	0 12 M 8 -4 L 4 12 M 10 0 L stroke}
>> matrix makepattern
/Pat6 exch def
<< Tile8x8
 /PaintProc {0.5 setlinewidth pop -2 0 M 4 12 L
	0 -4 M 8 12 L 4 -4 M 10 8 L stroke}
>> matrix makepattern
/Pat7 exch def
<< Tile8x8
 /PaintProc {0.5 setlinewidth pop 8 -2 M -4 4 L
	12 0 M -4 8 L 12 4 M 0 10 L stroke}
>> matrix makepattern
/Pat8 exch def
<< Tile8x8
 /PaintProc {0.5 setlinewidth pop 0 -2 M 12 4 L
	-4 0 M 12 8 L -4 4 M 8 10 L stroke}
>> matrix makepattern
/Pat9 exch def
/Pattern1 {PatternBgnd KeepColor Pat1 setpattern} bind def
/Pattern2 {PatternBgnd KeepColor Pat2 setpattern} bind def
/Pattern3 {PatternBgnd KeepColor Pat3 setpattern} bind def
/Pattern4 {PatternBgnd KeepColor Landscape {Pat5} {Pat4} ifelse setpattern} bind def
/Pattern5 {PatternBgnd KeepColor Landscape {Pat4} {Pat5} ifelse setpattern} bind def
/Pattern6 {PatternBgnd KeepColor Landscape {Pat9} {Pat6} ifelse setpattern} bind def
/Pattern7 {PatternBgnd KeepColor Landscape {Pat8} {Pat7} ifelse setpattern} bind def
} def
%
%
%End of PostScript Level 2 code
%
/PatternBgnd {
  TransparentPatterns {} {gsave 1 setgray fill grestore} ifelse
} def
%
% Substitute for Level 2 pattern fill codes with
% grayscale if Level 2 support is not selected.
%
/Level1PatternFill {
/Pattern1 {0.250 Density} bind def
/Pattern2 {0.500 Density} bind def
/Pattern3 {0.750 Density} bind def
/Pattern4 {0.125 Density} bind def
/Pattern5 {0.375 Density} bind def
/Pattern6 {0.625 Density} bind def
/Pattern7 {0.875 Density} bind def
} def
%
% Now test for support of Level 2 code
%
Level1 {Level1PatternFill} {Level2PatternFill} ifelse
%
/Symbol-Oblique /Symbol findfont [1 0 .167 1 0 0] makefont
dup length dict begin {1 index /FID eq {pop pop} {def} ifelse} forall
currentdict end definefont pop
%
/MFshow {
   { dup 5 get 3 ge
     { 5 get 3 eq {gsave} {grestore} ifelse }
     {dup dup 0 get findfont exch 1 get scalefont setfont
     [ currentpoint ] exch dup 2 get 0 exch R dup 5 get 2 ne {dup dup 6
     get exch 4 get {textshow} {stringwidth pop 0 R} ifelse }if dup 5 get 0 eq
     {dup 3 get {2 get neg 0 exch R pop} {pop aload pop M} ifelse} {dup 5
     get 1 eq {dup 2 get exch dup 3 get exch 6 get stringwidth pop -2 div
     dup 0 R} {dup 6 get stringwidth pop -2 div 0 R 6 get
     textshow 2 index {aload pop M neg 3 -1 roll neg R pop pop} {pop pop pop
     pop aload pop M} ifelse }ifelse }ifelse }
     ifelse }
   forall} def
/Gswidth {dup type /stringtype eq {stringwidth} {pop (n) stringwidth} ifelse} def
/MFwidth {0 exch { dup 5 get 3 ge { 5 get 3 eq { 0 } { pop } ifelse }
 {dup 3 get{dup dup 0 get findfont exch 1 get scalefont setfont
     6 get Gswidth pop add} {pop} ifelse} ifelse} forall} def
/MLshow { currentpoint stroke M
  0 exch R
  Blacktext {gsave 0 setgray MFshow grestore} {MFshow} ifelse } bind def
/MRshow { currentpoint stroke M
  exch dup MFwidth neg 3 -1 roll R
  Blacktext {gsave 0 setgray MFshow grestore} {MFshow} ifelse } bind def
/MCshow { currentpoint stroke M
  exch dup MFwidth -2 div 3 -1 roll R
  Blacktext {gsave 0 setgray MFshow grestore} {MFshow} ifelse } bind def
/XYsave    { [( ) 1 2 true false 3 ()] } bind def
/XYrestore { [( ) 1 2 true false 4 ()] } bind def
Level1 SuppressPDFMark or 
{} {
/SDict 10 dict def
systemdict /pdfmark known not {
  userdict /pdfmark systemdict /cleartomark get put
} if
SDict begin [
  /Title (packets-uv-log-packets-uv-s-ccdf-linlog.eps)
  /Subject (gnuplot plot)
  /Creator (gnuplot 5.0 patchlevel 3)
  /Author (tiphaine)
%  /Producer (gnuplot)
%  /Keywords ()
  /CreationDate (Mon May 29 11:10:24 2017)
  /DOCINFO pdfmark
end
} ifelse
%
% Support for boxed text - Ethan A Merritt May 2005
%
/InitTextBox { userdict /TBy2 3 -1 roll put userdict /TBx2 3 -1 roll put
           userdict /TBy1 3 -1 roll put userdict /TBx1 3 -1 roll put
	   /Boxing true def } def
/ExtendTextBox { Boxing
    { gsave dup false charpath pathbbox
      dup TBy2 gt {userdict /TBy2 3 -1 roll put} {pop} ifelse
      dup TBx2 gt {userdict /TBx2 3 -1 roll put} {pop} ifelse
      dup TBy1 lt {userdict /TBy1 3 -1 roll put} {pop} ifelse
      dup TBx1 lt {userdict /TBx1 3 -1 roll put} {pop} ifelse
      grestore } if } def
/PopTextBox { newpath TBx1 TBxmargin sub TBy1 TBymargin sub M
               TBx1 TBxmargin sub TBy2 TBymargin add L
	       TBx2 TBxmargin add TBy2 TBymargin add L
	       TBx2 TBxmargin add TBy1 TBymargin sub L closepath } def
/DrawTextBox { PopTextBox stroke /Boxing false def} def
/FillTextBox { gsave PopTextBox 1 1 1 setrgbcolor fill grestore /Boxing false def} def
0 0 0 0 InitTextBox
/TBxmargin 20 def
/TBymargin 20 def
/Boxing false def
/textshow { ExtendTextBox Gshow } def
%
% redundant definitions for compatibility with prologue.ps older than 5.0.2
/LTB {BL [] LCb DL} def
/LTb {PL [] LCb DL} def
end
%%EndProlog
%%Page: 1 1
gnudict begin
gsave
doclip
50 50 translate
0.100 0.100 scale
90 rotate
0 -5040 translate
0 setgray
newpath
(Helvetica) findfont 140 scalefont setfont
BackgroundColor 0 lt 3 1 roll 0 lt exch 0 lt or or not {gsave BackgroundColor C clippath fill grestore} if
1.000 UL
LTb
LCb setrgbcolor
966 280 M
63 0 V
5918 0 R
-63 0 V
stroke
882 280 M
[ [(Helvetica) 140.0 0.0 true true 0 (0.0000001)]
] -46.7 MRshow
1.000 UL
LTb
LCb setrgbcolor
966 477 M
31 0 V
5950 0 R
-31 0 V
966 738 M
31 0 V
5950 0 R
-31 0 V
966 872 M
31 0 V
5950 0 R
-31 0 V
966 936 M
63 0 V
5918 0 R
-63 0 V
stroke
882 936 M
[ [(Helvetica) 140.0 0.0 true true 0 (0.0000010)]
] -46.7 MRshow
1.000 UL
LTb
LCb setrgbcolor
966 1133 M
31 0 V
5950 0 R
-31 0 V
966 1394 M
31 0 V
5950 0 R
-31 0 V
966 1528 M
31 0 V
5950 0 R
-31 0 V
966 1592 M
63 0 V
5918 0 R
-63 0 V
stroke
882 1592 M
[ [(Helvetica) 140.0 0.0 true true 0 (0.0000100)]
] -46.7 MRshow
1.000 UL
LTb
LCb setrgbcolor
966 1789 M
31 0 V
5950 0 R
-31 0 V
966 2050 M
31 0 V
5950 0 R
-31 0 V
966 2184 M
31 0 V
5950 0 R
-31 0 V
966 2248 M
63 0 V
5918 0 R
-63 0 V
stroke
882 2248 M
[ [(Helvetica) 140.0 0.0 true true 0 (0.0001000)]
] -46.7 MRshow
1.000 UL
LTb
LCb setrgbcolor
966 2445 M
31 0 V
5950 0 R
-31 0 V
966 2706 M
31 0 V
5950 0 R
-31 0 V
966 2840 M
31 0 V
5950 0 R
-31 0 V
966 2903 M
63 0 V
5918 0 R
-63 0 V
stroke
882 2903 M
[ [(Helvetica) 140.0 0.0 true true 0 (0.0010000)]
] -46.7 MRshow
1.000 UL
LTb
LCb setrgbcolor
966 3101 M
31 0 V
5950 0 R
-31 0 V
966 3362 M
31 0 V
5950 0 R
-31 0 V
966 3496 M
31 0 V
5950 0 R
-31 0 V
966 3559 M
63 0 V
5918 0 R
-63 0 V
stroke
882 3559 M
[ [(Helvetica) 140.0 0.0 true true 0 (0.0100000)]
] -46.7 MRshow
1.000 UL
LTb
LCb setrgbcolor
966 3757 M
31 0 V
5950 0 R
-31 0 V
966 4018 M
31 0 V
5950 0 R
-31 0 V
966 4152 M
31 0 V
5950 0 R
-31 0 V
966 4215 M
63 0 V
5918 0 R
-63 0 V
stroke
882 4215 M
[ [(Helvetica) 140.0 0.0 true true 0 (0.1000000)]
] -46.7 MRshow
1.000 UL
LTb
LCb setrgbcolor
966 4413 M
31 0 V
5950 0 R
-31 0 V
966 4674 M
31 0 V
5950 0 R
-31 0 V
966 4807 M
31 0 V
5950 0 R
-31 0 V
966 4871 M
63 0 V
5918 0 R
-63 0 V
stroke
882 4871 M
[ [(Helvetica) 140.0 0.0 true true 0 (1.0000000)]
] -46.7 MRshow
1.000 UL
LTb
LCb setrgbcolor
966 280 M
0 63 V
0 4528 R
0 -63 V
stroke
966 140 M
[ [(Helvetica) 140.0 0.0 true true 0 ( 0)]
] -46.7 MCshow
1.000 UL
LTb
LCb setrgbcolor
1564 280 M
0 63 V
0 4528 R
0 -63 V
stroke
1564 140 M
[ [(Helvetica) 140.0 0.0 true true 0 ( 5x10)]
[(Helvetica) 112.0 70.0 true true 0 (6)]
] -60.7 MCshow
1.000 UL
LTb
LCb setrgbcolor
2162 280 M
0 63 V
0 4528 R
0 -63 V
stroke
2162 140 M
[ [(Helvetica) 140.0 0.0 true true 0 ( 1x10)]
[(Helvetica) 112.0 70.0 true true 0 (7)]
] -60.7 MCshow
1.000 UL
LTb
LCb setrgbcolor
2760 280 M
0 63 V
0 4528 R
0 -63 V
stroke
2760 140 M
[ [(Helvetica) 140.0 0.0 true true 0 ( 1.5x10)]
[(Helvetica) 112.0 70.0 true true 0 (7)]
] -60.7 MCshow
1.000 UL
LTb
LCb setrgbcolor
3358 280 M
0 63 V
0 4528 R
0 -63 V
stroke
3358 140 M
[ [(Helvetica) 140.0 0.0 true true 0 ( 2x10)]
[(Helvetica) 112.0 70.0 true true 0 (7)]
] -60.7 MCshow
1.000 UL
LTb
LCb setrgbcolor
3957 280 M
0 63 V
0 4528 R
0 -63 V
stroke
3957 140 M
[ [(Helvetica) 140.0 0.0 true true 0 ( 2.5x10)]
[(Helvetica) 112.0 70.0 true true 0 (7)]
] -60.7 MCshow
1.000 UL
LTb
LCb setrgbcolor
4555 280 M
0 63 V
0 4528 R
0 -63 V
stroke
4555 140 M
[ [(Helvetica) 140.0 0.0 true true 0 ( 3x10)]
[(Helvetica) 112.0 70.0 true true 0 (7)]
] -60.7 MCshow
1.000 UL
LTb
LCb setrgbcolor
5153 280 M
0 63 V
0 4528 R
0 -63 V
stroke
5153 140 M
[ [(Helvetica) 140.0 0.0 true true 0 ( 3.5x10)]
[(Helvetica) 112.0 70.0 true true 0 (7)]
] -60.7 MCshow
1.000 UL
LTb
LCb setrgbcolor
5751 280 M
0 63 V
0 4528 R
0 -63 V
stroke
5751 140 M
[ [(Helvetica) 140.0 0.0 true true 0 ( 4x10)]
[(Helvetica) 112.0 70.0 true true 0 (7)]
] -60.7 MCshow
1.000 UL
LTb
LCb setrgbcolor
6349 280 M
0 63 V
0 4528 R
0 -63 V
stroke
6349 140 M
[ [(Helvetica) 140.0 0.0 true true 0 ( 4.5x10)]
[(Helvetica) 112.0 70.0 true true 0 (7)]
] -60.7 MCshow
1.000 UL
LTb
LCb setrgbcolor
6947 280 M
0 63 V
0 4528 R
0 -63 V
stroke
6947 140 M
[ [(Helvetica) 140.0 0.0 true true 0 ( 5x10)]
[(Helvetica) 112.0 70.0 true true 0 (7)]
] -60.7 MCshow
1.000 UL
LTb
LCb setrgbcolor
1.000 UL
LTB
LCb setrgbcolor
966 4871 N
966 280 L
5981 0 V
0 4591 V
-5981 0 V
Z stroke
1.000 UP
1.000 UL
LTb
LCb setrgbcolor
% Begin plot #1
1.000 UP
1.000 UL
LTb
0.58 0.00 0.83 C 966 4871 Pls
966 4645 Pls
966 4418 Pls
966 4361 Pls
966 4311 Pls
966 4277 Pls
966 4243 Pls
966 4223 Pls
966 4195 Pls
966 4178 Pls
966 4145 Pls
966 4129 Pls
966 4106 Pls
966 4091 Pls
966 4073 Pls
966 4057 Pls
966 4038 Pls
966 4025 Pls
966 4008 Pls
966 3995 Pls
966 3977 Pls
966 3966 Pls
966 3953 Pls
966 3944 Pls
966 3932 Pls
966 3924 Pls
966 3915 Pls
966 3907 Pls
966 3898 Pls
966 3893 Pls
966 3882 Pls
966 3877 Pls
966 3870 Pls
966 3864 Pls
966 3857 Pls
966 3852 Pls
966 3845 Pls
966 3840 Pls
966 3835 Pls
966 3830 Pls
966 3825 Pls
966 3820 Pls
966 3816 Pls
966 3812 Pls
966 3807 Pls
966 3803 Pls
966 3798 Pls
966 3792 Pls
966 3786 Pls
966 3780 Pls
966 3775 Pls
966 3770 Pls
966 3766 Pls
966 3763 Pls
966 3759 Pls
966 3755 Pls
966 3751 Pls
966 3748 Pls
966 3744 Pls
966 3741 Pls
966 3734 Pls
966 3731 Pls
966 3728 Pls
966 3725 Pls
966 3722 Pls
966 3719 Pls
966 3716 Pls
966 3714 Pls
966 3711 Pls
966 3708 Pls
966 3705 Pls
966 3703 Pls
966 3700 Pls
966 3697 Pls
966 3695 Pls
966 3693 Pls
966 3690 Pls
966 3688 Pls
966 3685 Pls
966 3682 Pls
966 3679 Pls
966 3677 Pls
966 3675 Pls
966 3673 Pls
966 3671 Pls
966 3668 Pls
966 3666 Pls
966 3665 Pls
966 3663 Pls
966 3661 Pls
966 3658 Pls
966 3656 Pls
966 3654 Pls
966 3652 Pls
966 3650 Pls
966 3648 Pls
966 3645 Pls
966 3643 Pls
966 3642 Pls
966 3639 Pls
966 3632 Pls
966 3630 Pls
966 3628 Pls
966 3627 Pls
966 3625 Pls
966 3623 Pls
966 3621 Pls
966 3619 Pls
966 3617 Pls
966 3616 Pls
966 3614 Pls
966 3612 Pls
966 3610 Pls
966 3608 Pls
966 3606 Pls
966 3605 Pls
966 3603 Pls
966 3601 Pls
966 3600 Pls
966 3598 Pls
966 3595 Pls
966 3593 Pls
966 3592 Pls
966 3590 Pls
966 3589 Pls
966 3587 Pls
966 3586 Pls
966 3584 Pls
966 3582 Pls
966 3581 Pls
966 3577 Pls
966 3576 Pls
966 3573 Pls
966 3572 Pls
966 3571 Pls
966 3569 Pls
966 3567 Pls
966 3566 Pls
966 3564 Pls
966 3562 Pls
966 3561 Pls
966 3559 Pls
966 3558 Pls
966 3556 Pls
966 3555 Pls
966 3554 Pls
966 3553 Pls
966 3551 Pls
966 3550 Pls
966 3549 Pls
966 3548 Pls
966 3546 Pls
966 3545 Pls
966 3544 Pls
966 3543 Pls
966 3542 Pls
966 3541 Pls
966 3539 Pls
966 3538 Pls
966 3537 Pls
966 3536 Pls
966 3534 Pls
966 3533 Pls
966 3532 Pls
966 3531 Pls
966 3530 Pls
966 3529 Pls
966 3528 Pls
966 3527 Pls
966 3526 Pls
966 3524 Pls
966 3523 Pls
966 3522 Pls
966 3521 Pls
966 3520 Pls
966 3519 Pls
966 3518 Pls
966 3516 Pls
966 3515 Pls
966 3514 Pls
966 3512 Pls
966 3510 Pls
966 3509 Pls
966 3508 Pls
966 3507 Pls
966 3506 Pls
966 3505 Pls
966 3504 Pls
966 3503 Pls
966 3502 Pls
966 3501 Pls
966 3500 Pls
966 3499 Pls
966 3498 Pls
966 3497 Pls
966 3496 Pls
966 3495 Pls
966 3494 Pls
966 3493 Pls
966 3493 Pls
966 3492 Pls
966 3491 Pls
966 3490 Pls
966 3488 Pls
966 3487 Pls
966 3487 Pls
966 3486 Pls
966 3485 Pls
966 3484 Pls
966 3483 Pls
966 3481 Pls
966 3480 Pls
966 3479 Pls
966 3478 Pls
966 3477 Pls
966 3476 Pls
966 3475 Pls
966 3474 Pls
966 3473 Pls
966 3473 Pls
966 3472 Pls
966 3471 Pls
966 3470 Pls
966 3469 Pls
966 3468 Pls
966 3467 Pls
966 3467 Pls
966 3466 Pls
966 3465 Pls
966 3465 Pls
966 3464 Pls
966 3463 Pls
966 3462 Pls
966 3461 Pls
966 3460 Pls
966 3460 Pls
966 3459 Pls
966 3458 Pls
966 3457 Pls
966 3456 Pls
966 3454 Pls
966 3454 Pls
966 3453 Pls
966 3452 Pls
966 3451 Pls
966 3451 Pls
966 3450 Pls
966 3449 Pls
966 3448 Pls
966 3448 Pls
966 3447 Pls
966 3446 Pls
966 3445 Pls
966 3444 Pls
966 3444 Pls
966 3443 Pls
966 3442 Pls
966 3442 Pls
966 3441 Pls
966 3440 Pls
966 3440 Pls
966 3439 Pls
966 3438 Pls
966 3437 Pls
966 3437 Pls
966 3436 Pls
966 3436 Pls
966 3435 Pls
966 3434 Pls
966 3433 Pls
966 3433 Pls
966 3432 Pls
966 3431 Pls
966 3431 Pls
966 3430 Pls
966 3429 Pls
966 3429 Pls
966 3428 Pls
966 3427 Pls
966 3426 Pls
966 3426 Pls
966 3425 Pls
966 3424 Pls
966 3424 Pls
966 3423 Pls
966 3422 Pls
966 3422 Pls
966 3421 Pls
966 3420 Pls
966 3420 Pls
966 3419 Pls
966 3419 Pls
966 3418 Pls
966 3417 Pls
966 3417 Pls
966 3416 Pls
966 3415 Pls
966 3415 Pls
966 3414 Pls
966 3413 Pls
966 3413 Pls
966 3412 Pls
966 3411 Pls
966 3411 Pls
966 3410 Pls
966 3409 Pls
966 3409 Pls
966 3408 Pls
966 3407 Pls
966 3407 Pls
966 3406 Pls
966 3405 Pls
966 3405 Pls
966 3404 Pls
966 3403 Pls
966 3402 Pls
966 3402 Pls
966 3401 Pls
966 3401 Pls
966 3400 Pls
966 3399 Pls
966 3399 Pls
966 3398 Pls
966 3398 Pls
966 3397 Pls
966 3397 Pls
966 3396 Pls
966 3396 Pls
966 3395 Pls
966 3394 Pls
966 3394 Pls
966 3393 Pls
966 3393 Pls
966 3392 Pls
966 3392 Pls
966 3391 Pls
966 3391 Pls
966 3390 Pls
966 3390 Pls
966 3389 Pls
966 3389 Pls
966 3388 Pls
966 3388 Pls
966 3387 Pls
966 3387 Pls
966 3386 Pls
966 3385 Pls
966 3385 Pls
966 3384 Pls
966 3384 Pls
966 3383 Pls
966 3383 Pls
966 3382 Pls
966 3382 Pls
966 3381 Pls
966 3380 Pls
966 3380 Pls
966 3379 Pls
966 3379 Pls
966 3378 Pls
966 3377 Pls
966 3377 Pls
966 3376 Pls
966 3376 Pls
966 3375 Pls
966 3375 Pls
966 3374 Pls
966 3374 Pls
966 3373 Pls
966 3373 Pls
966 3373 Pls
966 3372 Pls
966 3371 Pls
966 3371 Pls
966 3370 Pls
966 3370 Pls
966 3370 Pls
966 3369 Pls
966 3369 Pls
966 3368 Pls
966 3368 Pls
966 3367 Pls
966 3367 Pls
966 3366 Pls
966 3366 Pls
966 3365 Pls
966 3365 Pls
966 3364 Pls
966 3364 Pls
966 3364 Pls
966 3363 Pls
966 3363 Pls
966 3362 Pls
966 3362 Pls
966 3361 Pls
966 3361 Pls
966 3361 Pls
966 3360 Pls
966 3360 Pls
966 3359 Pls
966 3359 Pls
966 3358 Pls
966 3358 Pls
966 3357 Pls
966 3357 Pls
966 3356 Pls
966 3356 Pls
966 3355 Pls
966 3355 Pls
966 3354 Pls
966 3354 Pls
966 3353 Pls
966 3353 Pls
966 3352 Pls
966 3352 Pls
966 3352 Pls
966 3351 Pls
966 3351 Pls
966 3350 Pls
966 3350 Pls
966 3349 Pls
966 3348 Pls
966 3348 Pls
966 3347 Pls
966 3347 Pls
966 3346 Pls
966 3346 Pls
966 3346 Pls
966 3345 Pls
966 3344 Pls
966 3344 Pls
966 3344 Pls
966 3343 Pls
966 3343 Pls
966 3342 Pls
966 3342 Pls
966 3342 Pls
966 3341 Pls
966 3341 Pls
966 3340 Pls
966 3340 Pls
966 3339 Pls
966 3339 Pls
966 3338 Pls
966 3338 Pls
966 3337 Pls
966 3337 Pls
966 3336 Pls
966 3336 Pls
966 3336 Pls
966 3335 Pls
966 3335 Pls
966 3334 Pls
966 3334 Pls
966 3333 Pls
966 3333 Pls
966 3333 Pls
966 3332 Pls
966 3332 Pls
966 3331 Pls
966 3331 Pls
966 3330 Pls
966 3330 Pls
966 3329 Pls
966 3329 Pls
966 3329 Pls
966 3328 Pls
966 3328 Pls
966 3328 Pls
966 3327 Pls
966 3327 Pls
966 3326 Pls
966 3326 Pls
966 3325 Pls
966 3324 Pls
966 3324 Pls
966 3324 Pls
966 3323 Pls
966 3322 Pls
966 3322 Pls
966 3321 Pls
966 3321 Pls
966 3320 Pls
966 3320 Pls
966 3320 Pls
966 3319 Pls
966 3319 Pls
966 3319 Pls
966 3318 Pls
966 3318 Pls
966 3318 Pls
966 3317 Pls
966 3317 Pls
966 3316 Pls
966 3316 Pls
966 3316 Pls
966 3315 Pls
966 3315 Pls
966 3315 Pls
966 3314 Pls
966 3314 Pls
966 3314 Pls
966 3313 Pls
966 3313 Pls
966 3312 Pls
966 3312 Pls
966 3312 Pls
966 3311 Pls
966 3311 Pls
966 3311 Pls
966 3310 Pls
966 3310 Pls
966 3309 Pls
966 3309 Pls
966 3308 Pls
966 3308 Pls
966 3308 Pls
966 3307 Pls
966 3307 Pls
966 3306 Pls
966 3306 Pls
966 3305 Pls
966 3305 Pls
966 3304 Pls
966 3304 Pls
966 3304 Pls
966 3303 Pls
966 3303 Pls
966 3303 Pls
966 3302 Pls
966 3302 Pls
966 3301 Pls
966 3301 Pls
966 3301 Pls
966 3300 Pls
966 3300 Pls
966 3300 Pls
966 3299 Pls
966 3299 Pls
966 3298 Pls
966 3298 Pls
966 3298 Pls
966 3297 Pls
966 3297 Pls
966 3297 Pls
966 3296 Pls
966 3296 Pls
966 3296 Pls
966 3295 Pls
966 3295 Pls
966 3294 Pls
966 3294 Pls
966 3293 Pls
966 3293 Pls
966 3293 Pls
966 3292 Pls
966 3292 Pls
966 3292 Pls
966 3291 Pls
966 3291 Pls
966 3291 Pls
966 3290 Pls
966 3290 Pls
966 3289 Pls
966 3289 Pls
966 3289 Pls
966 3288 Pls
966 3288 Pls
966 3288 Pls
966 3287 Pls
966 3287 Pls
966 3287 Pls
966 3286 Pls
966 3286 Pls
966 3286 Pls
966 3285 Pls
966 3285 Pls
966 3285 Pls
966 3285 Pls
966 3284 Pls
966 3284 Pls
966 3283 Pls
966 3283 Pls
966 3283 Pls
966 3282 Pls
966 3282 Pls
966 3282 Pls
966 3282 Pls
966 3281 Pls
966 3281 Pls
966 3281 Pls
966 3280 Pls
966 3280 Pls
966 3280 Pls
966 3279 Pls
966 3279 Pls
966 3278 Pls
966 3278 Pls
966 3278 Pls
966 3278 Pls
966 3277 Pls
966 3277 Pls
966 3277 Pls
966 3276 Pls
966 3276 Pls
966 3276 Pls
966 3275 Pls
966 3275 Pls
966 3275 Pls
966 3274 Pls
966 3274 Pls
966 3274 Pls
966 3273 Pls
966 3273 Pls
966 3273 Pls
966 3273 Pls
966 3272 Pls
966 3272 Pls
966 3272 Pls
966 3271 Pls
966 3271 Pls
966 3271 Pls
966 3270 Pls
966 3270 Pls
966 3270 Pls
966 3269 Pls
966 3269 Pls
966 3268 Pls
966 3268 Pls
966 3267 Pls
966 3266 Pls
966 3266 Pls
966 3266 Pls
966 3265 Pls
966 3265 Pls
966 3264 Pls
966 3264 Pls
966 3263 Pls
966 3263 Pls
966 3262 Pls
966 3261 Pls
966 3261 Pls
966 3260 Pls
966 3260 Pls
966 3259 Pls
967 3258 Pls
967 3258 Pls
967 3257 Pls
967 3256 Pls
967 3256 Pls
967 3255 Pls
967 3255 Pls
967 3254 Pls
967 3254 Pls
967 3253 Pls
967 3252 Pls
967 3252 Pls
967 3251 Pls
967 3250 Pls
967 3250 Pls
967 3249 Pls
967 3248 Pls
967 3248 Pls
967 3247 Pls
967 3247 Pls
967 3246 Pls
967 3245 Pls
967 3245 Pls
967 3244 Pls
967 3244 Pls
967 3243 Pls
967 3243 Pls
967 3242 Pls
967 3242 Pls
967 3241 Pls
967 3241 Pls
967 3240 Pls
967 3239 Pls
967 3239 Pls
967 3238 Pls
967 3238 Pls
967 3237 Pls
967 3237 Pls
967 3236 Pls
967 3236 Pls
967 3235 Pls
967 3235 Pls
967 3234 Pls
967 3234 Pls
967 3233 Pls
967 3233 Pls
967 3233 Pls
967 3232 Pls
967 3232 Pls
967 3231 Pls
967 3230 Pls
967 3230 Pls
967 3229 Pls
967 3229 Pls
967 3229 Pls
967 3228 Pls
967 3227 Pls
967 3227 Pls
967 3226 Pls
967 3226 Pls
967 3225 Pls
967 3225 Pls
967 3225 Pls
967 3224 Pls
967 3224 Pls
967 3223 Pls
967 3223 Pls
967 3223 Pls
967 3222 Pls
967 3222 Pls
967 3221 Pls
967 3220 Pls
967 3220 Pls
967 3220 Pls
967 3219 Pls
967 3219 Pls
967 3218 Pls
967 3218 Pls
967 3217 Pls
967 3217 Pls
967 3216 Pls
967 3216 Pls
967 3215 Pls
967 3215 Pls
967 3214 Pls
967 3214 Pls
967 3214 Pls
967 3214 Pls
967 3213 Pls
967 3213 Pls
967 3212 Pls
967 3212 Pls
967 3211 Pls
967 3211 Pls
967 3211 Pls
967 3210 Pls
967 3210 Pls
967 3210 Pls
967 3209 Pls
967 3209 Pls
967 3209 Pls
967 3208 Pls
967 3208 Pls
967 3208 Pls
967 3207 Pls
967 3207 Pls
967 3207 Pls
967 3206 Pls
967 3206 Pls
967 3206 Pls
967 3205 Pls
967 3205 Pls
967 3205 Pls
967 3204 Pls
967 3204 Pls
967 3203 Pls
967 3203 Pls
967 3203 Pls
967 3202 Pls
967 3202 Pls
967 3202 Pls
967 3201 Pls
967 3201 Pls
967 3201 Pls
967 3201 Pls
967 3200 Pls
967 3200 Pls
967 3200 Pls
967 3199 Pls
967 3199 Pls
967 3198 Pls
967 3198 Pls
967 3198 Pls
967 3197 Pls
967 3197 Pls
967 3197 Pls
967 3196 Pls
967 3196 Pls
967 3195 Pls
967 3195 Pls
967 3195 Pls
967 3195 Pls
967 3194 Pls
967 3194 Pls
967 3194 Pls
967 3193 Pls
967 3192 Pls
967 3192 Pls
967 3191 Pls
967 3191 Pls
967 3191 Pls
967 3190 Pls
967 3190 Pls
967 3189 Pls
967 3189 Pls
967 3189 Pls
967 3188 Pls
967 3188 Pls
967 3188 Pls
967 3187 Pls
967 3187 Pls
967 3187 Pls
967 3187 Pls
967 3186 Pls
967 3186 Pls
967 3186 Pls
967 3185 Pls
967 3185 Pls
967 3184 Pls
967 3184 Pls
967 3184 Pls
967 3183 Pls
967 3183 Pls
967 3183 Pls
967 3182 Pls
967 3182 Pls
967 3182 Pls
967 3182 Pls
967 3181 Pls
967 3181 Pls
967 3181 Pls
967 3181 Pls
967 3180 Pls
967 3180 Pls
967 3180 Pls
967 3180 Pls
967 3180 Pls
967 3179 Pls
967 3179 Pls
967 3179 Pls
967 3179 Pls
967 3178 Pls
967 3178 Pls
967 3178 Pls
967 3178 Pls
967 3177 Pls
967 3177 Pls
967 3177 Pls
967 3177 Pls
967 3176 Pls
967 3176 Pls
967 3176 Pls
967 3175 Pls
967 3175 Pls
967 3175 Pls
967 3175 Pls
967 3175 Pls
967 3175 Pls
967 3174 Pls
967 3174 Pls
967 3174 Pls
967 3173 Pls
967 3173 Pls
967 3173 Pls
967 3173 Pls
967 3172 Pls
967 3172 Pls
967 3172 Pls
967 3172 Pls
967 3172 Pls
967 3171 Pls
967 3171 Pls
967 3171 Pls
967 3171 Pls
967 3171 Pls
967 3170 Pls
967 3170 Pls
967 3170 Pls
967 3170 Pls
967 3170 Pls
967 3170 Pls
967 3169 Pls
967 3169 Pls
967 3168 Pls
967 3168 Pls
967 3168 Pls
967 3168 Pls
967 3168 Pls
967 3168 Pls
967 3167 Pls
967 3167 Pls
967 3167 Pls
967 3167 Pls
967 3166 Pls
967 3166 Pls
967 3166 Pls
967 3165 Pls
967 3165 Pls
967 3165 Pls
967 3165 Pls
967 3164 Pls
967 3164 Pls
967 3164 Pls
967 3164 Pls
967 3164 Pls
967 3163 Pls
967 3163 Pls
967 3163 Pls
967 3162 Pls
967 3162 Pls
967 3162 Pls
967 3162 Pls
967 3161 Pls
967 3161 Pls
967 3161 Pls
967 3161 Pls
967 3161 Pls
967 3161 Pls
967 3161 Pls
967 3160 Pls
967 3160 Pls
967 3160 Pls
967 3160 Pls
967 3160 Pls
967 3159 Pls
967 3159 Pls
967 3159 Pls
967 3159 Pls
967 3159 Pls
967 3158 Pls
967 3158 Pls
967 3158 Pls
967 3158 Pls
967 3158 Pls
967 3157 Pls
967 3157 Pls
967 3157 Pls
967 3157 Pls
967 3157 Pls
967 3157 Pls
967 3156 Pls
967 3156 Pls
967 3156 Pls
967 3155 Pls
967 3155 Pls
967 3155 Pls
967 3155 Pls
967 3155 Pls
967 3154 Pls
967 3154 Pls
967 3154 Pls
967 3154 Pls
967 3153 Pls
967 3153 Pls
967 3153 Pls
967 3153 Pls
967 3153 Pls
967 3152 Pls
967 3152 Pls
967 3152 Pls
967 3152 Pls
967 3151 Pls
967 3151 Pls
967 3151 Pls
967 3151 Pls
967 3150 Pls
967 3150 Pls
967 3150 Pls
967 3149 Pls
967 3149 Pls
967 3149 Pls
967 3149 Pls
967 3148 Pls
967 3148 Pls
967 3148 Pls
967 3148 Pls
967 3148 Pls
967 3148 Pls
967 3147 Pls
967 3147 Pls
967 3147 Pls
967 3147 Pls
967 3147 Pls
967 3146 Pls
967 3146 Pls
967 3146 Pls
967 3146 Pls
967 3145 Pls
967 3145 Pls
967 3145 Pls
967 3145 Pls
967 3144 Pls
967 3144 Pls
967 3144 Pls
967 3144 Pls
967 3143 Pls
967 3143 Pls
967 3143 Pls
967 3143 Pls
967 3142 Pls
967 3142 Pls
967 3142 Pls
967 3142 Pls
967 3141 Pls
967 3141 Pls
967 3141 Pls
967 3141 Pls
967 3141 Pls
967 3140 Pls
967 3140 Pls
967 3139 Pls
967 3139 Pls
967 3139 Pls
967 3139 Pls
967 3139 Pls
967 3139 Pls
967 3138 Pls
967 3138 Pls
967 3138 Pls
967 3138 Pls
967 3138 Pls
967 3137 Pls
967 3137 Pls
967 3137 Pls
967 3137 Pls
967 3137 Pls
967 3137 Pls
967 3136 Pls
967 3136 Pls
967 3135 Pls
967 3135 Pls
967 3135 Pls
967 3135 Pls
967 3134 Pls
967 3134 Pls
967 3134 Pls
967 3134 Pls
967 3133 Pls
967 3133 Pls
967 3133 Pls
967 3133 Pls
967 3133 Pls
967 3133 Pls
967 3132 Pls
967 3132 Pls
967 3132 Pls
967 3132 Pls
967 3132 Pls
967 3132 Pls
967 3132 Pls
967 3131 Pls
967 3131 Pls
967 3131 Pls
967 3131 Pls
967 3131 Pls
967 3130 Pls
967 3130 Pls
967 3130 Pls
967 3129 Pls
967 3129 Pls
967 3129 Pls
967 3129 Pls
967 3129 Pls
967 3129 Pls
967 3128 Pls
967 3128 Pls
967 3128 Pls
967 3128 Pls
967 3128 Pls
967 3128 Pls
967 3128 Pls
967 3127 Pls
967 3127 Pls
967 3127 Pls
967 3127 Pls
967 3127 Pls
967 3127 Pls
967 3126 Pls
967 3126 Pls
967 3126 Pls
967 3126 Pls
967 3126 Pls
967 3125 Pls
967 3125 Pls
967 3125 Pls
967 3125 Pls
967 3125 Pls
967 3125 Pls
967 3124 Pls
967 3124 Pls
967 3124 Pls
967 3124 Pls
967 3124 Pls
967 3123 Pls
967 3123 Pls
967 3123 Pls
967 3122 Pls
967 3122 Pls
967 3122 Pls
967 3122 Pls
967 3122 Pls
967 3122 Pls
967 3122 Pls
967 3121 Pls
967 3121 Pls
967 3121 Pls
967 3121 Pls
967 3121 Pls
967 3120 Pls
967 3120 Pls
967 3120 Pls
967 3120 Pls
967 3119 Pls
967 3119 Pls
967 3119 Pls
967 3119 Pls
967 3119 Pls
967 3119 Pls
967 3118 Pls
967 3118 Pls
967 3118 Pls
967 3118 Pls
967 3118 Pls
967 3118 Pls
967 3118 Pls
967 3117 Pls
967 3117 Pls
967 3117 Pls
967 3117 Pls
967 3117 Pls
967 3116 Pls
967 3116 Pls
967 3116 Pls
967 3116 Pls
967 3116 Pls
967 3115 Pls
967 3115 Pls
967 3115 Pls
967 3115 Pls
967 3114 Pls
967 3114 Pls
967 3114 Pls
967 3114 Pls
967 3113 Pls
967 3112 Pls
967 3112 Pls
967 3112 Pls
967 3112 Pls
967 3112 Pls
967 3111 Pls
967 3111 Pls
967 3111 Pls
967 3111 Pls
967 3111 Pls
967 3111 Pls
967 3111 Pls
967 3111 Pls
967 3111 Pls
967 3110 Pls
967 3110 Pls
967 3110 Pls
967 3110 Pls
967 3110 Pls
967 3109 Pls
967 3109 Pls
967 3109 Pls
967 3109 Pls
967 3109 Pls
967 3109 Pls
967 3108 Pls
967 3108 Pls
967 3108 Pls
967 3108 Pls
967 3108 Pls
967 3108 Pls
967 3108 Pls
967 3107 Pls
967 3107 Pls
967 3107 Pls
967 3107 Pls
967 3107 Pls
967 3106 Pls
967 3106 Pls
967 3106 Pls
967 3106 Pls
967 3106 Pls
967 3106 Pls
967 3106 Pls
967 3105 Pls
967 3105 Pls
967 3105 Pls
967 3105 Pls
967 3104 Pls
967 3104 Pls
967 3104 Pls
967 3104 Pls
967 3104 Pls
967 3104 Pls
967 3103 Pls
967 3103 Pls
967 3103 Pls
967 3103 Pls
967 3103 Pls
967 3102 Pls
967 3102 Pls
967 3102 Pls
967 3102 Pls
967 3102 Pls
967 3102 Pls
967 3101 Pls
967 3101 Pls
967 3101 Pls
967 3101 Pls
967 3101 Pls
967 3101 Pls
967 3100 Pls
967 3100 Pls
967 3100 Pls
967 3100 Pls
967 3100 Pls
967 3100 Pls
967 3100 Pls
967 3100 Pls
967 3100 Pls
967 3099 Pls
967 3099 Pls
967 3099 Pls
967 3099 Pls
967 3099 Pls
967 3098 Pls
967 3098 Pls
967 3098 Pls
967 3098 Pls
967 3098 Pls
967 3098 Pls
967 3098 Pls
967 3098 Pls
967 3097 Pls
967 3097 Pls
967 3097 Pls
967 3097 Pls
967 3097 Pls
967 3097 Pls
967 3096 Pls
967 3096 Pls
967 3096 Pls
967 3096 Pls
967 3095 Pls
967 3095 Pls
967 3095 Pls
967 3095 Pls
967 3095 Pls
967 3095 Pls
967 3094 Pls
967 3094 Pls
967 3094 Pls
967 3094 Pls
967 3094 Pls
967 3094 Pls
967 3093 Pls
967 3093 Pls
967 3093 Pls
967 3093 Pls
967 3093 Pls
967 3093 Pls
967 3093 Pls
967 3092 Pls
967 3092 Pls
967 3092 Pls
967 3092 Pls
967 3092 Pls
967 3092 Pls
967 3091 Pls
967 3091 Pls
967 3091 Pls
967 3091 Pls
967 3091 Pls
967 3091 Pls
967 3090 Pls
967 3090 Pls
967 3090 Pls
967 3090 Pls
967 3090 Pls
967 3090 Pls
967 3090 Pls
967 3089 Pls
967 3089 Pls
967 3089 Pls
967 3089 Pls
967 3088 Pls
967 3088 Pls
967 3088 Pls
967 3088 Pls
967 3088 Pls
967 3088 Pls
967 3087 Pls
967 3087 Pls
967 3087 Pls
967 3087 Pls
967 3087 Pls
967 3087 Pls
967 3086 Pls
967 3086 Pls
967 3086 Pls
967 3086 Pls
967 3086 Pls
967 3086 Pls
967 3085 Pls
967 3085 Pls
967 3085 Pls
967 3085 Pls
967 3085 Pls
967 3085 Pls
967 3084 Pls
967 3084 Pls
967 3084 Pls
967 3084 Pls
967 3084 Pls
967 3084 Pls
967 3084 Pls
967 3084 Pls
967 3083 Pls
967 3083 Pls
967 3083 Pls
967 3083 Pls
967 3082 Pls
967 3082 Pls
967 3082 Pls
967 3082 Pls
967 3082 Pls
967 3081 Pls
967 3081 Pls
967 3081 Pls
967 3081 Pls
967 3081 Pls
967 3080 Pls
967 3080 Pls
967 3080 Pls
967 3080 Pls
967 3080 Pls
967 3080 Pls
967 3080 Pls
967 3079 Pls
967 3079 Pls
967 3079 Pls
967 3078 Pls
967 3078 Pls
967 3078 Pls
967 3078 Pls
967 3078 Pls
967 3078 Pls
967 3077 Pls
967 3077 Pls
967 3077 Pls
967 3077 Pls
967 3076 Pls
967 3076 Pls
967 3076 Pls
967 3076 Pls
967 3076 Pls
967 3076 Pls
967 3076 Pls
967 3076 Pls
967 3075 Pls
967 3075 Pls
967 3075 Pls
967 3075 Pls
967 3075 Pls
967 3075 Pls
967 3075 Pls
967 3074 Pls
967 3074 Pls
967 3074 Pls
967 3074 Pls
967 3074 Pls
967 3074 Pls
967 3074 Pls
967 3073 Pls
967 3073 Pls
967 3073 Pls
967 3073 Pls
967 3073 Pls
967 3073 Pls
967 3072 Pls
967 3072 Pls
967 3072 Pls
967 3072 Pls
967 3072 Pls
967 3072 Pls
967 3071 Pls
967 3071 Pls
967 3071 Pls
967 3070 Pls
967 3070 Pls
967 3070 Pls
967 3070 Pls
967 3069 Pls
967 3069 Pls
967 3069 Pls
967 3069 Pls
967 3068 Pls
967 3068 Pls
967 3068 Pls
967 3068 Pls
967 3068 Pls
967 3068 Pls
967 3068 Pls
967 3068 Pls
967 3067 Pls
967 3067 Pls
967 3067 Pls
967 3067 Pls
967 3066 Pls
967 3066 Pls
967 3066 Pls
967 3066 Pls
967 3066 Pls
967 3066 Pls
967 3066 Pls
967 3066 Pls
967 3065 Pls
967 3065 Pls
967 3065 Pls
967 3065 Pls
967 3065 Pls
967 3064 Pls
967 3064 Pls
967 3064 Pls
967 3064 Pls
967 3064 Pls
967 3064 Pls
967 3063 Pls
967 3063 Pls
967 3063 Pls
967 3063 Pls
967 3063 Pls
967 3062 Pls
967 3062 Pls
967 3062 Pls
967 3062 Pls
967 3062 Pls
967 3061 Pls
967 3061 Pls
967 3061 Pls
967 3060 Pls
967 3060 Pls
967 3060 Pls
967 3060 Pls
967 3060 Pls
967 3060 Pls
967 3060 Pls
967 3060 Pls
967 3059 Pls
967 3059 Pls
967 3059 Pls
967 3059 Pls
967 3059 Pls
967 3059 Pls
967 3059 Pls
967 3059 Pls
967 3058 Pls
967 3058 Pls
967 3058 Pls
967 3058 Pls
967 3058 Pls
967 3057 Pls
967 3057 Pls
967 3057 Pls
967 3057 Pls
967 3056 Pls
967 3056 Pls
967 3056 Pls
967 3056 Pls
967 3056 Pls
967 3056 Pls
967 3056 Pls
967 3056 Pls
967 3055 Pls
967 3055 Pls
967 3055 Pls
967 3055 Pls
967 3055 Pls
967 3055 Pls
967 3055 Pls
967 3054 Pls
967 3054 Pls
967 3054 Pls
967 3054 Pls
967 3053 Pls
967 3053 Pls
967 3053 Pls
967 3053 Pls
967 3053 Pls
967 3053 Pls
967 3053 Pls
967 3053 Pls
967 3052 Pls
967 3052 Pls
967 3052 Pls
967 3052 Pls
967 3052 Pls
967 3052 Pls
967 3051 Pls
967 3051 Pls
967 3051 Pls
967 3051 Pls
967 3051 Pls
967 3051 Pls
967 3051 Pls
967 3051 Pls
967 3050 Pls
967 3050 Pls
967 3050 Pls
967 3050 Pls
967 3050 Pls
967 3050 Pls
967 3050 Pls
967 3049 Pls
967 3049 Pls
967 3049 Pls
967 3049 Pls
967 3049 Pls
967 3048 Pls
967 3048 Pls
967 3048 Pls
967 3048 Pls
967 3048 Pls
967 3047 Pls
967 3047 Pls
967 3047 Pls
967 3047 Pls
967 3047 Pls
967 3046 Pls
967 3046 Pls
967 3046 Pls
967 3046 Pls
967 3046 Pls
967 3046 Pls
967 3046 Pls
967 3046 Pls
967 3045 Pls
967 3045 Pls
967 3045 Pls
967 3045 Pls
967 3045 Pls
967 3045 Pls
967 3045 Pls
967 3045 Pls
967 3045 Pls
967 3045 Pls
967 3044 Pls
967 3044 Pls
967 3044 Pls
967 3044 Pls
967 3044 Pls
967 3044 Pls
967 3044 Pls
967 3043 Pls
967 3043 Pls
967 3043 Pls
967 3043 Pls
967 3043 Pls
967 3043 Pls
967 3043 Pls
967 3042 Pls
967 3042 Pls
967 3042 Pls
967 3042 Pls
967 3042 Pls
967 3041 Pls
967 3041 Pls
967 3041 Pls
967 3041 Pls
967 3041 Pls
967 3041 Pls
967 3041 Pls
967 3040 Pls
967 3040 Pls
967 3040 Pls
967 3040 Pls
968 3040 Pls
968 3040 Pls
968 3039 Pls
968 3039 Pls
968 3039 Pls
968 3039 Pls
968 3039 Pls
968 3039 Pls
968 3039 Pls
968 3039 Pls
968 3038 Pls
968 3038 Pls
968 3038 Pls
968 3038 Pls
968 3038 Pls
968 3038 Pls
968 3037 Pls
968 3037 Pls
968 3037 Pls
968 3037 Pls
968 3037 Pls
968 3037 Pls
968 3037 Pls
968 3037 Pls
968 3037 Pls
968 3036 Pls
968 3036 Pls
968 3036 Pls
968 3036 Pls
968 3036 Pls
968 3036 Pls
968 3036 Pls
968 3036 Pls
968 3035 Pls
968 3035 Pls
968 3035 Pls
968 3035 Pls
968 3035 Pls
968 3035 Pls
968 3035 Pls
968 3034 Pls
968 3034 Pls
968 3034 Pls
968 3034 Pls
968 3034 Pls
968 3034 Pls
968 3034 Pls
968 3034 Pls
968 3034 Pls
968 3033 Pls
968 3033 Pls
968 3033 Pls
968 3033 Pls
968 3033 Pls
968 3032 Pls
968 3032 Pls
968 3032 Pls
968 3032 Pls
968 3032 Pls
968 3032 Pls
968 3032 Pls
968 3031 Pls
968 3031 Pls
968 3031 Pls
968 3031 Pls
968 3031 Pls
968 3031 Pls
968 3030 Pls
968 3030 Pls
968 3030 Pls
968 3030 Pls
968 3030 Pls
968 3030 Pls
968 3030 Pls
968 3030 Pls
968 3029 Pls
968 3029 Pls
968 3029 Pls
968 3029 Pls
968 3029 Pls
968 3029 Pls
968 3028 Pls
968 3028 Pls
968 3028 Pls
968 3028 Pls
968 3028 Pls
968 3028 Pls
968 3028 Pls
968 3027 Pls
968 3027 Pls
968 3027 Pls
968 3027 Pls
968 3027 Pls
968 3027 Pls
968 3027 Pls
968 3026 Pls
968 3026 Pls
968 3026 Pls
968 3026 Pls
968 3025 Pls
968 3025 Pls
968 3025 Pls
968 3025 Pls
968 3024 Pls
968 3024 Pls
968 3024 Pls
968 3024 Pls
968 3024 Pls
968 3024 Pls
968 3023 Pls
968 3023 Pls
968 3023 Pls
968 3023 Pls
968 3023 Pls
968 3023 Pls
968 3023 Pls
968 3022 Pls
968 3022 Pls
968 3022 Pls
968 3022 Pls
968 3022 Pls
968 3022 Pls
968 3021 Pls
968 3021 Pls
968 3021 Pls
968 3021 Pls
968 3021 Pls
968 3021 Pls
968 3021 Pls
968 3021 Pls
968 3020 Pls
968 3020 Pls
968 3020 Pls
968 3020 Pls
968 3020 Pls
968 3020 Pls
968 3020 Pls
968 3020 Pls
968 3019 Pls
968 3019 Pls
968 3019 Pls
968 3019 Pls
968 3019 Pls
968 3019 Pls
968 3019 Pls
968 3019 Pls
968 3019 Pls
968 3019 Pls
968 3018 Pls
968 3018 Pls
968 3018 Pls
968 3018 Pls
968 3018 Pls
968 3018 Pls
968 3018 Pls
968 3017 Pls
968 3017 Pls
968 3017 Pls
968 3017 Pls
968 3017 Pls
968 3016 Pls
968 3016 Pls
968 3016 Pls
968 3016 Pls
968 3016 Pls
968 3016 Pls
968 3016 Pls
968 3016 Pls
968 3015 Pls
968 3015 Pls
968 3015 Pls
968 3015 Pls
968 3015 Pls
968 3015 Pls
968 3015 Pls
968 3015 Pls
968 3014 Pls
968 3014 Pls
968 3014 Pls
968 3014 Pls
968 3014 Pls
968 3014 Pls
968 3013 Pls
968 3013 Pls
968 3013 Pls
968 3013 Pls
968 3013 Pls
968 3013 Pls
968 3012 Pls
968 3012 Pls
968 3012 Pls
968 3012 Pls
968 3012 Pls
968 3012 Pls
968 3012 Pls
968 3012 Pls
968 3011 Pls
968 3011 Pls
968 3011 Pls
968 3011 Pls
968 3011 Pls
968 3011 Pls
968 3010 Pls
968 3010 Pls
968 3010 Pls
968 3010 Pls
968 3010 Pls
968 3010 Pls
968 3010 Pls
968 3010 Pls
968 3009 Pls
968 3009 Pls
968 3009 Pls
968 3009 Pls
968 3009 Pls
968 3009 Pls
968 3008 Pls
968 3008 Pls
968 3008 Pls
968 3008 Pls
968 3008 Pls
968 3007 Pls
968 3007 Pls
968 3007 Pls
968 3007 Pls
968 3007 Pls
968 3007 Pls
968 3007 Pls
968 3007 Pls
968 3007 Pls
968 3006 Pls
968 3006 Pls
968 3006 Pls
968 3006 Pls
968 3006 Pls
968 3006 Pls
968 3005 Pls
968 3005 Pls
968 3005 Pls
968 3005 Pls
968 3005 Pls
968 3005 Pls
968 3005 Pls
968 3005 Pls
968 3005 Pls
968 3004 Pls
968 3004 Pls
968 3004 Pls
968 3004 Pls
968 3004 Pls
968 3003 Pls
968 3003 Pls
968 3003 Pls
968 3003 Pls
968 3003 Pls
968 3003 Pls
968 3003 Pls
968 3003 Pls
968 3002 Pls
968 3002 Pls
968 3002 Pls
968 3002 Pls
968 3002 Pls
968 3002 Pls
968 3002 Pls
968 3001 Pls
968 3001 Pls
968 3001 Pls
968 3001 Pls
968 3001 Pls
968 3000 Pls
968 3000 Pls
968 3000 Pls
968 3000 Pls
968 3000 Pls
968 3000 Pls
968 3000 Pls
968 2999 Pls
968 2999 Pls
968 2999 Pls
968 2999 Pls
968 2999 Pls
968 2999 Pls
968 2998 Pls
968 2998 Pls
968 2998 Pls
968 2998 Pls
968 2998 Pls
968 2998 Pls
968 2998 Pls
968 2998 Pls
968 2997 Pls
968 2997 Pls
968 2997 Pls
968 2997 Pls
968 2997 Pls
968 2997 Pls
968 2996 Pls
968 2996 Pls
968 2996 Pls
968 2996 Pls
968 2996 Pls
968 2996 Pls
968 2995 Pls
968 2995 Pls
968 2995 Pls
968 2995 Pls
968 2995 Pls
968 2995 Pls
968 2995 Pls
968 2994 Pls
968 2994 Pls
968 2994 Pls
968 2994 Pls
968 2994 Pls
968 2994 Pls
968 2994 Pls
968 2994 Pls
968 2993 Pls
968 2993 Pls
968 2993 Pls
968 2993 Pls
968 2993 Pls
968 2993 Pls
968 2992 Pls
968 2992 Pls
968 2992 Pls
968 2992 Pls
968 2991 Pls
968 2991 Pls
968 2991 Pls
968 2991 Pls
968 2991 Pls
968 2991 Pls
968 2990 Pls
968 2990 Pls
968 2990 Pls
968 2990 Pls
968 2990 Pls
968 2990 Pls
968 2990 Pls
968 2990 Pls
968 2990 Pls
968 2989 Pls
968 2989 Pls
968 2989 Pls
968 2989 Pls
968 2989 Pls
968 2989 Pls
968 2989 Pls
968 2989 Pls
968 2989 Pls
968 2988 Pls
968 2988 Pls
968 2988 Pls
968 2988 Pls
968 2988 Pls
968 2988 Pls
968 2988 Pls
968 2987 Pls
968 2987 Pls
968 2987 Pls
968 2987 Pls
968 2986 Pls
968 2986 Pls
968 2986 Pls
968 2986 Pls
968 2986 Pls
968 2986 Pls
968 2985 Pls
968 2985 Pls
968 2985 Pls
968 2985 Pls
968 2985 Pls
968 2984 Pls
968 2984 Pls
968 2984 Pls
968 2984 Pls
968 2984 Pls
968 2984 Pls
968 2984 Pls
968 2984 Pls
968 2983 Pls
968 2983 Pls
968 2983 Pls
968 2983 Pls
968 2983 Pls
968 2982 Pls
968 2982 Pls
968 2982 Pls
968 2982 Pls
968 2982 Pls
968 2982 Pls
968 2981 Pls
968 2981 Pls
968 2981 Pls
968 2981 Pls
968 2981 Pls
968 2981 Pls
968 2981 Pls
968 2981 Pls
968 2980 Pls
968 2980 Pls
968 2980 Pls
968 2980 Pls
968 2980 Pls
968 2979 Pls
968 2979 Pls
968 2979 Pls
968 2979 Pls
968 2979 Pls
968 2979 Pls
968 2979 Pls
968 2979 Pls
968 2978 Pls
968 2978 Pls
968 2978 Pls
968 2978 Pls
968 2978 Pls
968 2978 Pls
968 2978 Pls
968 2978 Pls
968 2978 Pls
968 2977 Pls
968 2977 Pls
968 2977 Pls
968 2977 Pls
968 2977 Pls
968 2977 Pls
968 2977 Pls
968 2977 Pls
968 2976 Pls
968 2976 Pls
968 2976 Pls
968 2976 Pls
968 2976 Pls
968 2976 Pls
968 2976 Pls
968 2976 Pls
968 2976 Pls
968 2975 Pls
968 2975 Pls
968 2975 Pls
968 2975 Pls
968 2975 Pls
968 2975 Pls
968 2975 Pls
968 2975 Pls
968 2974 Pls
968 2974 Pls
968 2974 Pls
968 2974 Pls
968 2974 Pls
968 2974 Pls
968 2974 Pls
968 2973 Pls
968 2973 Pls
968 2973 Pls
968 2973 Pls
968 2973 Pls
968 2973 Pls
968 2973 Pls
968 2973 Pls
968 2973 Pls
968 2973 Pls
968 2972 Pls
968 2972 Pls
968 2972 Pls
968 2972 Pls
968 2972 Pls
968 2972 Pls
968 2972 Pls
968 2972 Pls
968 2972 Pls
968 2971 Pls
968 2971 Pls
968 2971 Pls
968 2971 Pls
968 2971 Pls
968 2971 Pls
968 2970 Pls
968 2970 Pls
968 2970 Pls
968 2970 Pls
968 2970 Pls
968 2970 Pls
968 2970 Pls
968 2969 Pls
968 2969 Pls
968 2969 Pls
968 2969 Pls
968 2969 Pls
968 2969 Pls
968 2969 Pls
968 2969 Pls
968 2969 Pls
968 2968 Pls
968 2968 Pls
968 2968 Pls
968 2968 Pls
968 2968 Pls
968 2968 Pls
968 2968 Pls
968 2968 Pls
968 2968 Pls
968 2967 Pls
968 2967 Pls
968 2967 Pls
968 2967 Pls
968 2967 Pls
968 2967 Pls
968 2967 Pls
968 2967 Pls
968 2966 Pls
968 2966 Pls
968 2966 Pls
968 2966 Pls
968 2966 Pls
968 2966 Pls
968 2965 Pls
968 2965 Pls
968 2965 Pls
968 2965 Pls
968 2965 Pls
968 2965 Pls
968 2964 Pls
968 2964 Pls
968 2964 Pls
968 2964 Pls
968 2964 Pls
968 2964 Pls
968 2964 Pls
968 2964 Pls
968 2963 Pls
969 2963 Pls
969 2963 Pls
969 2963 Pls
969 2963 Pls
969 2963 Pls
969 2963 Pls
969 2963 Pls
969 2962 Pls
969 2962 Pls
969 2962 Pls
969 2962 Pls
969 2962 Pls
969 2962 Pls
969 2962 Pls
969 2962 Pls
969 2961 Pls
969 2961 Pls
969 2961 Pls
969 2961 Pls
969 2961 Pls
969 2961 Pls
969 2961 Pls
969 2961 Pls
969 2960 Pls
969 2960 Pls
969 2960 Pls
969 2960 Pls
969 2960 Pls
969 2959 Pls
969 2959 Pls
969 2959 Pls
969 2959 Pls
969 2959 Pls
969 2959 Pls
969 2959 Pls
969 2958 Pls
969 2958 Pls
969 2958 Pls
969 2958 Pls
969 2958 Pls
969 2958 Pls
969 2958 Pls
969 2958 Pls
969 2957 Pls
969 2957 Pls
969 2957 Pls
969 2957 Pls
969 2957 Pls
969 2957 Pls
969 2957 Pls
969 2957 Pls
969 2956 Pls
969 2956 Pls
969 2956 Pls
969 2956 Pls
969 2956 Pls
969 2956 Pls
969 2956 Pls
969 2956 Pls
969 2955 Pls
969 2955 Pls
969 2955 Pls
969 2955 Pls
969 2954 Pls
969 2954 Pls
969 2954 Pls
969 2954 Pls
969 2954 Pls
969 2953 Pls
969 2953 Pls
969 2953 Pls
969 2953 Pls
969 2953 Pls
969 2953 Pls
969 2953 Pls
969 2953 Pls
969 2952 Pls
969 2952 Pls
969 2952 Pls
969 2952 Pls
969 2952 Pls
969 2952 Pls
969 2952 Pls
969 2952 Pls
969 2951 Pls
969 2951 Pls
969 2951 Pls
969 2951 Pls
969 2951 Pls
969 2951 Pls
969 2951 Pls
969 2951 Pls
969 2950 Pls
969 2950 Pls
969 2950 Pls
969 2950 Pls
969 2950 Pls
969 2949 Pls
969 2949 Pls
969 2949 Pls
969 2949 Pls
969 2949 Pls
969 2949 Pls
969 2949 Pls
969 2949 Pls
969 2949 Pls
969 2948 Pls
969 2948 Pls
969 2948 Pls
969 2948 Pls
969 2948 Pls
969 2948 Pls
969 2947 Pls
969 2947 Pls
969 2947 Pls
969 2947 Pls
969 2947 Pls
969 2947 Pls
969 2947 Pls
969 2946 Pls
969 2946 Pls
969 2946 Pls
969 2946 Pls
969 2946 Pls
969 2946 Pls
969 2946 Pls
969 2946 Pls
969 2945 Pls
969 2945 Pls
969 2945 Pls
969 2945 Pls
969 2945 Pls
969 2945 Pls
969 2945 Pls
969 2944 Pls
969 2944 Pls
969 2944 Pls
969 2944 Pls
969 2944 Pls
969 2944 Pls
969 2944 Pls
969 2944 Pls
969 2943 Pls
969 2943 Pls
969 2943 Pls
969 2942 Pls
969 2942 Pls
969 2942 Pls
969 2942 Pls
969 2942 Pls
969 2942 Pls
969 2941 Pls
969 2941 Pls
969 2941 Pls
969 2940 Pls
969 2940 Pls
969 2933 Pls
969 2933 Pls
969 2933 Pls
969 2933 Pls
969 2933 Pls
969 2932 Pls
969 2932 Pls
969 2932 Pls
969 2932 Pls
969 2932 Pls
969 2932 Pls
969 2932 Pls
969 2931 Pls
969 2931 Pls
969 2931 Pls
969 2931 Pls
969 2931 Pls
969 2931 Pls
969 2930 Pls
969 2930 Pls
969 2930 Pls
969 2930 Pls
969 2930 Pls
969 2930 Pls
969 2930 Pls
969 2929 Pls
969 2929 Pls
969 2929 Pls
969 2929 Pls
969 2929 Pls
969 2929 Pls
969 2929 Pls
969 2928 Pls
969 2928 Pls
969 2928 Pls
969 2928 Pls
969 2928 Pls
969 2928 Pls
969 2928 Pls
969 2928 Pls
969 2927 Pls
969 2927 Pls
969 2927 Pls
969 2927 Pls
969 2927 Pls
969 2927 Pls
969 2926 Pls
969 2926 Pls
969 2926 Pls
969 2926 Pls
969 2926 Pls
969 2926 Pls
969 2925 Pls
969 2925 Pls
969 2925 Pls
969 2925 Pls
969 2925 Pls
969 2925 Pls
969 2925 Pls
969 2925 Pls
969 2924 Pls
969 2924 Pls
969 2924 Pls
969 2924 Pls
969 2924 Pls
969 2924 Pls
969 2924 Pls
969 2923 Pls
969 2923 Pls
969 2923 Pls
969 2923 Pls
969 2923 Pls
969 2923 Pls
969 2923 Pls
969 2922 Pls
969 2922 Pls
969 2922 Pls
969 2922 Pls
969 2922 Pls
969 2922 Pls
969 2922 Pls
969 2921 Pls
969 2921 Pls
969 2921 Pls
969 2921 Pls
969 2921 Pls
969 2921 Pls
969 2920 Pls
969 2920 Pls
969 2920 Pls
969 2920 Pls
969 2920 Pls
969 2919 Pls
969 2919 Pls
969 2919 Pls
969 2919 Pls
969 2919 Pls
969 2919 Pls
969 2919 Pls
969 2918 Pls
969 2918 Pls
969 2918 Pls
969 2918 Pls
969 2918 Pls
969 2918 Pls
969 2918 Pls
969 2917 Pls
969 2917 Pls
969 2917 Pls
969 2917 Pls
969 2917 Pls
969 2916 Pls
969 2916 Pls
969 2916 Pls
969 2916 Pls
969 2916 Pls
969 2916 Pls
969 2916 Pls
969 2915 Pls
969 2915 Pls
969 2915 Pls
969 2915 Pls
969 2915 Pls
969 2915 Pls
969 2914 Pls
969 2914 Pls
969 2914 Pls
969 2914 Pls
969 2914 Pls
969 2914 Pls
969 2913 Pls
969 2913 Pls
969 2913 Pls
969 2913 Pls
969 2913 Pls
969 2913 Pls
969 2912 Pls
969 2912 Pls
969 2912 Pls
969 2912 Pls
969 2912 Pls
969 2912 Pls
969 2912 Pls
969 2912 Pls
969 2911 Pls
969 2911 Pls
969 2911 Pls
969 2911 Pls
969 2911 Pls
969 2911 Pls
969 2911 Pls
969 2910 Pls
969 2910 Pls
969 2910 Pls
969 2910 Pls
969 2910 Pls
969 2909 Pls
969 2909 Pls
969 2909 Pls
969 2909 Pls
969 2909 Pls
970 2909 Pls
970 2909 Pls
970 2908 Pls
970 2908 Pls
970 2908 Pls
970 2908 Pls
970 2908 Pls
970 2908 Pls
970 2907 Pls
970 2907 Pls
970 2907 Pls
970 2906 Pls
970 2906 Pls
970 2906 Pls
970 2906 Pls
970 2906 Pls
970 2905 Pls
970 2905 Pls
970 2905 Pls
970 2905 Pls
970 2905 Pls
970 2905 Pls
970 2905 Pls
970 2905 Pls
970 2904 Pls
970 2904 Pls
970 2904 Pls
970 2904 Pls
970 2904 Pls
970 2904 Pls
970 2904 Pls
970 2903 Pls
970 2903 Pls
970 2903 Pls
970 2903 Pls
970 2903 Pls
970 2903 Pls
970 2903 Pls
970 2902 Pls
970 2902 Pls
970 2902 Pls
970 2902 Pls
970 2902 Pls
970 2901 Pls
970 2901 Pls
970 2901 Pls
970 2901 Pls
970 2901 Pls
970 2901 Pls
970 2901 Pls
970 2900 Pls
970 2900 Pls
970 2900 Pls
970 2900 Pls
970 2900 Pls
970 2900 Pls
970 2900 Pls
970 2899 Pls
970 2899 Pls
970 2899 Pls
970 2899 Pls
970 2899 Pls
970 2898 Pls
970 2898 Pls
970 2898 Pls
970 2898 Pls
970 2898 Pls
970 2898 Pls
970 2898 Pls
970 2898 Pls
970 2897 Pls
970 2897 Pls
970 2897 Pls
970 2896 Pls
970 2896 Pls
970 2896 Pls
970 2896 Pls
970 2896 Pls
970 2896 Pls
970 2895 Pls
970 2895 Pls
970 2895 Pls
970 2895 Pls
970 2895 Pls
970 2895 Pls
970 2895 Pls
970 2895 Pls
970 2894 Pls
970 2894 Pls
970 2894 Pls
970 2894 Pls
970 2894 Pls
970 2893 Pls
970 2893 Pls
970 2893 Pls
970 2893 Pls
970 2893 Pls
970 2893 Pls
970 2893 Pls
970 2892 Pls
970 2892 Pls
970 2892 Pls
970 2892 Pls
970 2892 Pls
970 2892 Pls
970 2891 Pls
970 2891 Pls
970 2891 Pls
970 2891 Pls
970 2891 Pls
970 2891 Pls
970 2891 Pls
970 2890 Pls
970 2890 Pls
970 2890 Pls
970 2890 Pls
970 2890 Pls
970 2890 Pls
970 2890 Pls
970 2889 Pls
970 2889 Pls
970 2889 Pls
970 2889 Pls
970 2889 Pls
970 2889 Pls
970 2889 Pls
970 2888 Pls
970 2888 Pls
970 2888 Pls
970 2888 Pls
970 2888 Pls
970 2888 Pls
970 2888 Pls
970 2887 Pls
970 2887 Pls
970 2887 Pls
970 2887 Pls
970 2887 Pls
970 2887 Pls
970 2886 Pls
970 2886 Pls
970 2886 Pls
970 2886 Pls
970 2886 Pls
970 2886 Pls
970 2886 Pls
970 2885 Pls
970 2885 Pls
970 2885 Pls
970 2885 Pls
970 2885 Pls
970 2885 Pls
970 2885 Pls
970 2884 Pls
970 2884 Pls
970 2884 Pls
970 2884 Pls
970 2884 Pls
970 2884 Pls
970 2884 Pls
970 2883 Pls
970 2883 Pls
970 2883 Pls
970 2883 Pls
970 2883 Pls
970 2883 Pls
970 2882 Pls
970 2882 Pls
970 2882 Pls
970 2882 Pls
970 2882 Pls
970 2881 Pls
970 2881 Pls
970 2881 Pls
970 2881 Pls
970 2881 Pls
970 2881 Pls
970 2880 Pls
970 2880 Pls
970 2880 Pls
970 2880 Pls
970 2880 Pls
970 2880 Pls
970 2880 Pls
970 2879 Pls
970 2879 Pls
970 2879 Pls
970 2879 Pls
970 2879 Pls
970 2879 Pls
970 2879 Pls
970 2878 Pls
970 2878 Pls
970 2878 Pls
970 2878 Pls
970 2878 Pls
970 2878 Pls
970 2877 Pls
970 2877 Pls
970 2877 Pls
970 2877 Pls
970 2877 Pls
970 2876 Pls
970 2876 Pls
970 2876 Pls
970 2876 Pls
970 2876 Pls
970 2876 Pls
970 2875 Pls
970 2875 Pls
970 2875 Pls
970 2875 Pls
970 2875 Pls
970 2874 Pls
970 2874 Pls
970 2874 Pls
970 2874 Pls
970 2874 Pls
970 2873 Pls
970 2873 Pls
970 2873 Pls
970 2873 Pls
970 2872 Pls
970 2872 Pls
970 2872 Pls
970 2872 Pls
970 2872 Pls
970 2872 Pls
971 2871 Pls
971 2871 Pls
971 2871 Pls
971 2871 Pls
971 2871 Pls
971 2871 Pls
971 2871 Pls
971 2870 Pls
971 2870 Pls
971 2870 Pls
971 2870 Pls
971 2870 Pls
971 2870 Pls
971 2869 Pls
971 2869 Pls
971 2869 Pls
971 2869 Pls
971 2869 Pls
971 2869 Pls
971 2868 Pls
971 2868 Pls
971 2868 Pls
971 2868 Pls
971 2868 Pls
971 2868 Pls
971 2867 Pls
971 2867 Pls
971 2867 Pls
971 2867 Pls
971 2866 Pls
971 2866 Pls
971 2866 Pls
971 2866 Pls
971 2866 Pls
971 2866 Pls
971 2865 Pls
971 2865 Pls
971 2865 Pls
971 2865 Pls
971 2865 Pls
971 2864 Pls
971 2864 Pls
971 2864 Pls
971 2864 Pls
971 2864 Pls
971 2864 Pls
971 2864 Pls
971 2863 Pls
971 2863 Pls
971 2863 Pls
971 2863 Pls
971 2863 Pls
971 2862 Pls
971 2862 Pls
971 2862 Pls
971 2862 Pls
971 2862 Pls
971 2861 Pls
971 2861 Pls
971 2861 Pls
971 2861 Pls
971 2861 Pls
971 2860 Pls
971 2860 Pls
971 2860 Pls
971 2860 Pls
971 2860 Pls
971 2859 Pls
971 2859 Pls
971 2859 Pls
971 2859 Pls
971 2859 Pls
971 2859 Pls
971 2858 Pls
971 2858 Pls
971 2858 Pls
971 2858 Pls
971 2858 Pls
971 2858 Pls
971 2857 Pls
971 2857 Pls
971 2857 Pls
971 2857 Pls
971 2857 Pls
971 2856 Pls
971 2856 Pls
971 2856 Pls
971 2856 Pls
971 2855 Pls
971 2855 Pls
971 2855 Pls
971 2855 Pls
971 2855 Pls
971 2855 Pls
971 2854 Pls
971 2854 Pls
971 2854 Pls
971 2854 Pls
971 2854 Pls
971 2853 Pls
971 2853 Pls
971 2853 Pls
971 2853 Pls
971 2853 Pls
971 2852 Pls
971 2852 Pls
971 2852 Pls
971 2852 Pls
971 2852 Pls
971 2851 Pls
971 2851 Pls
971 2851 Pls
971 2851 Pls
971 2851 Pls
971 2851 Pls
971 2850 Pls
971 2850 Pls
971 2850 Pls
971 2850 Pls
971 2850 Pls
971 2850 Pls
971 2849 Pls
971 2849 Pls
971 2849 Pls
971 2849 Pls
971 2849 Pls
971 2848 Pls
971 2848 Pls
971 2848 Pls
971 2848 Pls
971 2847 Pls
971 2847 Pls
971 2846 Pls
971 2846 Pls
971 2846 Pls
971 2846 Pls
971 2846 Pls
971 2846 Pls
971 2845 Pls
971 2845 Pls
971 2845 Pls
971 2845 Pls
971 2845 Pls
971 2844 Pls
971 2844 Pls
971 2844 Pls
971 2844 Pls
971 2844 Pls
971 2844 Pls
971 2843 Pls
971 2843 Pls
971 2843 Pls
971 2843 Pls
971 2843 Pls
971 2842 Pls
971 2842 Pls
971 2842 Pls
971 2842 Pls
971 2842 Pls
971 2841 Pls
971 2841 Pls
971 2841 Pls
971 2841 Pls
971 2841 Pls
971 2840 Pls
971 2840 Pls
971 2840 Pls
971 2840 Pls
971 2840 Pls
971 2840 Pls
971 2839 Pls
972 2839 Pls
972 2839 Pls
972 2839 Pls
972 2839 Pls
972 2839 Pls
972 2838 Pls
972 2838 Pls
972 2838 Pls
972 2838 Pls
972 2838 Pls
972 2838 Pls
972 2837 Pls
972 2837 Pls
972 2837 Pls
972 2837 Pls
972 2837 Pls
972 2837 Pls
972 2836 Pls
972 2836 Pls
972 2836 Pls
972 2836 Pls
972 2836 Pls
972 2835 Pls
972 2835 Pls
972 2835 Pls
972 2835 Pls
972 2835 Pls
972 2835 Pls
972 2834 Pls
972 2834 Pls
972 2834 Pls
972 2834 Pls
972 2834 Pls
972 2834 Pls
972 2833 Pls
972 2833 Pls
972 2833 Pls
972 2833 Pls
972 2832 Pls
972 2832 Pls
972 2832 Pls
972 2832 Pls
972 2831 Pls
972 2831 Pls
972 2831 Pls
972 2831 Pls
972 2831 Pls
972 2830 Pls
972 2830 Pls
972 2830 Pls
972 2830 Pls
972 2830 Pls
972 2829 Pls
972 2829 Pls
972 2829 Pls
972 2829 Pls
972 2829 Pls
972 2829 Pls
972 2828 Pls
972 2828 Pls
972 2828 Pls
972 2828 Pls
972 2827 Pls
972 2827 Pls
972 2827 Pls
972 2827 Pls
972 2827 Pls
972 2827 Pls
972 2826 Pls
972 2826 Pls
972 2826 Pls
972 2826 Pls
972 2826 Pls
972 2826 Pls
972 2825 Pls
972 2825 Pls
972 2825 Pls
972 2824 Pls
972 2824 Pls
972 2824 Pls
972 2824 Pls
972 2824 Pls
972 2824 Pls
972 2823 Pls
972 2823 Pls
972 2823 Pls
972 2823 Pls
972 2823 Pls
972 2822 Pls
972 2822 Pls
972 2822 Pls
972 2822 Pls
972 2822 Pls
972 2821 Pls
972 2821 Pls
972 2821 Pls
972 2821 Pls
972 2821 Pls
972 2821 Pls
972 2820 Pls
972 2820 Pls
972 2820 Pls
972 2820 Pls
972 2820 Pls
972 2819 Pls
972 2819 Pls
972 2819 Pls
972 2819 Pls
972 2819 Pls
972 2819 Pls
972 2818 Pls
972 2818 Pls
972 2818 Pls
972 2818 Pls
972 2818 Pls
972 2817 Pls
972 2817 Pls
972 2817 Pls
972 2817 Pls
972 2817 Pls
972 2817 Pls
973 2816 Pls
973 2816 Pls
973 2816 Pls
973 2816 Pls
973 2816 Pls
973 2815 Pls
973 2815 Pls
973 2815 Pls
973 2815 Pls
973 2815 Pls
973 2815 Pls
973 2814 Pls
973 2814 Pls
973 2814 Pls
973 2814 Pls
973 2814 Pls
973 2813 Pls
973 2813 Pls
973 2813 Pls
973 2813 Pls
973 2813 Pls
973 2813 Pls
973 2812 Pls
973 2812 Pls
973 2812 Pls
973 2811 Pls
973 2811 Pls
973 2811 Pls
973 2811 Pls
973 2811 Pls
973 2810 Pls
973 2810 Pls
973 2810 Pls
973 2810 Pls
973 2810 Pls
973 2809 Pls
973 2809 Pls
973 2809 Pls
973 2809 Pls
973 2808 Pls
973 2808 Pls
973 2808 Pls
973 2808 Pls
973 2808 Pls
973 2808 Pls
973 2807 Pls
973 2807 Pls
973 2807 Pls
973 2807 Pls
973 2807 Pls
973 2806 Pls
973 2806 Pls
973 2806 Pls
973 2806 Pls
973 2806 Pls
973 2805 Pls
973 2805 Pls
973 2805 Pls
973 2805 Pls
973 2805 Pls
973 2804 Pls
973 2804 Pls
973 2804 Pls
973 2804 Pls
973 2804 Pls
973 2803 Pls
973 2803 Pls
973 2803 Pls
973 2803 Pls
973 2803 Pls
973 2802 Pls
973 2802 Pls
973 2802 Pls
973 2802 Pls
973 2802 Pls
973 2801 Pls
973 2801 Pls
973 2801 Pls
973 2801 Pls
973 2801 Pls
973 2801 Pls
973 2800 Pls
973 2800 Pls
973 2800 Pls
973 2800 Pls
973 2800 Pls
973 2799 Pls
973 2799 Pls
973 2799 Pls
973 2799 Pls
973 2798 Pls
973 2798 Pls
973 2798 Pls
974 2798 Pls
974 2798 Pls
974 2797 Pls
974 2797 Pls
974 2797 Pls
974 2797 Pls
974 2797 Pls
974 2796 Pls
974 2796 Pls
974 2796 Pls
974 2796 Pls
974 2796 Pls
974 2795 Pls
974 2795 Pls
974 2795 Pls
974 2795 Pls
974 2795 Pls
974 2794 Pls
974 2794 Pls
974 2794 Pls
974 2794 Pls
974 2794 Pls
974 2794 Pls
974 2793 Pls
974 2793 Pls
974 2793 Pls
974 2793 Pls
974 2793 Pls
974 2792 Pls
974 2792 Pls
974 2792 Pls
974 2792 Pls
974 2791 Pls
974 2791 Pls
974 2791 Pls
974 2791 Pls
974 2790 Pls
974 2790 Pls
974 2790 Pls
974 2790 Pls
974 2789 Pls
974 2789 Pls
974 2789 Pls
974 2789 Pls
974 2789 Pls
974 2788 Pls
974 2788 Pls
974 2788 Pls
974 2788 Pls
974 2788 Pls
974 2787 Pls
974 2787 Pls
974 2787 Pls
974 2787 Pls
974 2786 Pls
974 2786 Pls
974 2786 Pls
974 2786 Pls
974 2785 Pls
974 2785 Pls
974 2785 Pls
974 2785 Pls
974 2784 Pls
974 2784 Pls
974 2784 Pls
974 2784 Pls
974 2784 Pls
974 2783 Pls
974 2783 Pls
974 2783 Pls
974 2783 Pls
974 2782 Pls
974 2782 Pls
974 2782 Pls
974 2782 Pls
974 2782 Pls
974 2781 Pls
974 2781 Pls
974 2781 Pls
974 2781 Pls
974 2781 Pls
974 2780 Pls
974 2780 Pls
974 2780 Pls
974 2780 Pls
974 2780 Pls
974 2779 Pls
974 2779 Pls
974 2779 Pls
974 2779 Pls
974 2779 Pls
974 2778 Pls
974 2778 Pls
974 2778 Pls
974 2778 Pls
974 2777 Pls
974 2777 Pls
974 2777 Pls
974 2777 Pls
974 2777 Pls
974 2776 Pls
974 2776 Pls
975 2776 Pls
975 2776 Pls
975 2776 Pls
975 2775 Pls
975 2775 Pls
975 2775 Pls
975 2775 Pls
975 2775 Pls
975 2774 Pls
975 2774 Pls
975 2774 Pls
975 2774 Pls
975 2773 Pls
975 2773 Pls
975 2773 Pls
975 2772 Pls
975 2772 Pls
975 2772 Pls
975 2772 Pls
975 2771 Pls
975 2771 Pls
975 2771 Pls
975 2771 Pls
975 2771 Pls
975 2770 Pls
975 2770 Pls
975 2770 Pls
975 2769 Pls
975 2769 Pls
975 2769 Pls
975 2769 Pls
975 2768 Pls
975 2768 Pls
975 2768 Pls
975 2768 Pls
975 2768 Pls
975 2767 Pls
975 2767 Pls
975 2767 Pls
975 2767 Pls
975 2766 Pls
975 2766 Pls
975 2766 Pls
975 2766 Pls
975 2765 Pls
975 2765 Pls
975 2765 Pls
975 2765 Pls
975 2764 Pls
975 2764 Pls
975 2764 Pls
975 2764 Pls
975 2763 Pls
975 2763 Pls
975 2763 Pls
975 2763 Pls
975 2763 Pls
975 2762 Pls
975 2762 Pls
975 2762 Pls
975 2762 Pls
975 2761 Pls
975 2761 Pls
975 2761 Pls
975 2761 Pls
975 2761 Pls
975 2760 Pls
975 2760 Pls
975 2760 Pls
975 2760 Pls
975 2759 Pls
975 2759 Pls
975 2759 Pls
976 2759 Pls
976 2759 Pls
976 2758 Pls
976 2758 Pls
976 2758 Pls
976 2758 Pls
976 2757 Pls
976 2757 Pls
976 2757 Pls
976 2757 Pls
976 2757 Pls
976 2756 Pls
976 2756 Pls
976 2756 Pls
976 2756 Pls
976 2755 Pls
976 2755 Pls
976 2755 Pls
976 2754 Pls
976 2754 Pls
976 2754 Pls
976 2754 Pls
976 2754 Pls
976 2753 Pls
976 2753 Pls
976 2753 Pls
976 2753 Pls
976 2752 Pls
976 2752 Pls
976 2752 Pls
976 2752 Pls
976 2752 Pls
976 2751 Pls
976 2751 Pls
976 2751 Pls
976 2751 Pls
976 2750 Pls
976 2750 Pls
976 2750 Pls
976 2749 Pls
976 2749 Pls
976 2749 Pls
976 2749 Pls
976 2749 Pls
976 2748 Pls
976 2748 Pls
976 2748 Pls
976 2748 Pls
976 2747 Pls
976 2747 Pls
976 2747 Pls
976 2747 Pls
976 2746 Pls
976 2746 Pls
976 2746 Pls
976 2746 Pls
976 2746 Pls
977 2745 Pls
977 2745 Pls
977 2745 Pls
977 2744 Pls
977 2744 Pls
977 2743 Pls
977 2743 Pls
977 2743 Pls
977 2742 Pls
977 2742 Pls
977 2742 Pls
977 2742 Pls
977 2742 Pls
977 2741 Pls
977 2741 Pls
977 2741 Pls
977 2741 Pls
977 2740 Pls
977 2740 Pls
977 2740 Pls
977 2740 Pls
977 2739 Pls
977 2739 Pls
977 2739 Pls
977 2739 Pls
977 2738 Pls
977 2738 Pls
977 2738 Pls
977 2738 Pls
977 2737 Pls
977 2737 Pls
977 2737 Pls
977 2737 Pls
977 2737 Pls
977 2736 Pls
977 2736 Pls
977 2736 Pls
977 2736 Pls
977 2735 Pls
977 2735 Pls
977 2735 Pls
977 2734 Pls
977 2734 Pls
977 2734 Pls
977 2734 Pls
977 2733 Pls
977 2733 Pls
977 2733 Pls
977 2733 Pls
977 2732 Pls
977 2732 Pls
977 2732 Pls
977 2732 Pls
977 2731 Pls
977 2731 Pls
977 2731 Pls
977 2730 Pls
977 2730 Pls
977 2730 Pls
977 2730 Pls
978 2729 Pls
978 2729 Pls
978 2729 Pls
978 2729 Pls
978 2728 Pls
978 2728 Pls
978 2728 Pls
978 2728 Pls
978 2727 Pls
978 2727 Pls
978 2727 Pls
978 2727 Pls
978 2726 Pls
978 2726 Pls
978 2726 Pls
978 2726 Pls
978 2725 Pls
978 2725 Pls
978 2725 Pls
978 2725 Pls
978 2724 Pls
978 2724 Pls
978 2724 Pls
978 2724 Pls
978 2723 Pls
978 2723 Pls
978 2723 Pls
978 2722 Pls
978 2722 Pls
978 2722 Pls
978 2722 Pls
978 2721 Pls
978 2721 Pls
978 2721 Pls
978 2721 Pls
978 2720 Pls
978 2720 Pls
978 2720 Pls
978 2720 Pls
978 2719 Pls
978 2719 Pls
978 2719 Pls
978 2719 Pls
978 2718 Pls
978 2718 Pls
978 2718 Pls
978 2718 Pls
978 2717 Pls
978 2717 Pls
978 2717 Pls
978 2717 Pls
978 2716 Pls
978 2716 Pls
978 2715 Pls
978 2715 Pls
978 2715 Pls
979 2715 Pls
979 2714 Pls
979 2714 Pls
979 2714 Pls
979 2713 Pls
979 2713 Pls
979 2713 Pls
979 2713 Pls
979 2712 Pls
979 2712 Pls
979 2712 Pls
979 2712 Pls
979 2711 Pls
979 2711 Pls
979 2711 Pls
979 2711 Pls
979 2710 Pls
979 2710 Pls
979 2710 Pls
979 2710 Pls
979 2709 Pls
979 2709 Pls
979 2709 Pls
979 2708 Pls
979 2708 Pls
979 2708 Pls
979 2708 Pls
979 2707 Pls
979 2707 Pls
979 2707 Pls
979 2707 Pls
979 2706 Pls
979 2706 Pls
979 2706 Pls
979 2706 Pls
979 2705 Pls
979 2705 Pls
979 2705 Pls
979 2704 Pls
979 2704 Pls
979 2704 Pls
979 2703 Pls
979 2703 Pls
979 2702 Pls
980 2702 Pls
980 2702 Pls
980 2701 Pls
980 2701 Pls
980 2701 Pls
980 2701 Pls
980 2700 Pls
980 2700 Pls
980 2700 Pls
980 2700 Pls
980 2699 Pls
980 2699 Pls
980 2699 Pls
980 2698 Pls
980 2698 Pls
980 2698 Pls
980 2698 Pls
980 2697 Pls
980 2697 Pls
980 2697 Pls
980 2697 Pls
980 2696 Pls
980 2696 Pls
980 2696 Pls
980 2695 Pls
980 2695 Pls
980 2695 Pls
980 2695 Pls
980 2694 Pls
980 2694 Pls
980 2694 Pls
980 2693 Pls
980 2693 Pls
980 2693 Pls
980 2693 Pls
980 2692 Pls
980 2692 Pls
980 2692 Pls
980 2691 Pls
980 2691 Pls
980 2691 Pls
980 2691 Pls
980 2690 Pls
980 2690 Pls
980 2690 Pls
980 2690 Pls
980 2689 Pls
980 2689 Pls
980 2689 Pls
980 2688 Pls
980 2688 Pls
980 2688 Pls
981 2688 Pls
981 2687 Pls
981 2687 Pls
981 2687 Pls
981 2686 Pls
981 2686 Pls
981 2686 Pls
981 2686 Pls
981 2685 Pls
981 2685 Pls
981 2685 Pls
981 2684 Pls
981 2684 Pls
981 2684 Pls
981 2683 Pls
981 2683 Pls
981 2683 Pls
981 2683 Pls
981 2682 Pls
981 2682 Pls
981 2682 Pls
981 2681 Pls
981 2681 Pls
981 2681 Pls
981 2681 Pls
981 2680 Pls
981 2680 Pls
981 2679 Pls
981 2679 Pls
981 2679 Pls
981 2678 Pls
981 2678 Pls
981 2678 Pls
981 2677 Pls
981 2677 Pls
981 2677 Pls
981 2676 Pls
981 2676 Pls
981 2676 Pls
981 2676 Pls
981 2675 Pls
981 2675 Pls
981 2675 Pls
981 2674 Pls
981 2674 Pls
981 2674 Pls
981 2673 Pls
981 2673 Pls
981 2673 Pls
981 2672 Pls
981 2672 Pls
981 2672 Pls
981 2671 Pls
981 2671 Pls
981 2671 Pls
981 2670 Pls
981 2670 Pls
981 2670 Pls
981 2670 Pls
981 2669 Pls
982 2669 Pls
982 2669 Pls
982 2668 Pls
982 2668 Pls
982 2668 Pls
982 2667 Pls
982 2667 Pls
982 2667 Pls
982 2666 Pls
982 2666 Pls
982 2666 Pls
982 2666 Pls
982 2665 Pls
982 2665 Pls
982 2665 Pls
982 2664 Pls
982 2664 Pls
982 2664 Pls
982 2663 Pls
982 2663 Pls
982 2663 Pls
982 2662 Pls
982 2662 Pls
982 2662 Pls
982 2661 Pls
982 2661 Pls
982 2661 Pls
982 2661 Pls
982 2660 Pls
982 2660 Pls
982 2659 Pls
982 2659 Pls
982 2659 Pls
982 2658 Pls
982 2658 Pls
982 2658 Pls
982 2657 Pls
982 2657 Pls
982 2657 Pls
982 2656 Pls
982 2656 Pls
982 2656 Pls
982 2655 Pls
983 2655 Pls
983 2655 Pls
983 2654 Pls
983 2654 Pls
983 2654 Pls
983 2654 Pls
983 2653 Pls
983 2653 Pls
983 2653 Pls
983 2652 Pls
983 2652 Pls
983 2652 Pls
983 2651 Pls
983 2651 Pls
983 2651 Pls
983 2650 Pls
983 2650 Pls
983 2650 Pls
983 2649 Pls
983 2649 Pls
983 2649 Pls
983 2648 Pls
983 2648 Pls
983 2648 Pls
983 2647 Pls
983 2647 Pls
983 2647 Pls
983 2646 Pls
983 2646 Pls
983 2646 Pls
983 2645 Pls
983 2645 Pls
983 2645 Pls
983 2644 Pls
983 2644 Pls
983 2644 Pls
983 2643 Pls
984 2643 Pls
984 2643 Pls
984 2642 Pls
984 2642 Pls
984 2642 Pls
984 2641 Pls
984 2641 Pls
984 2641 Pls
984 2640 Pls
984 2640 Pls
984 2640 Pls
984 2639 Pls
984 2639 Pls
984 2639 Pls
984 2638 Pls
984 2638 Pls
984 2638 Pls
984 2637 Pls
984 2637 Pls
984 2637 Pls
984 2636 Pls
985 2636 Pls
985 2636 Pls
985 2635 Pls
985 2635 Pls
985 2635 Pls
985 2634 Pls
985 2634 Pls
985 2634 Pls
985 2633 Pls
985 2633 Pls
985 2632 Pls
985 2632 Pls
985 2632 Pls
985 2631 Pls
985 2631 Pls
985 2631 Pls
985 2630 Pls
985 2630 Pls
985 2630 Pls
985 2629 Pls
985 2629 Pls
985 2629 Pls
985 2628 Pls
985 2628 Pls
986 2628 Pls
986 2627 Pls
986 2627 Pls
986 2627 Pls
986 2626 Pls
986 2626 Pls
986 2625 Pls
986 2625 Pls
986 2625 Pls
986 2624 Pls
986 2624 Pls
986 2624 Pls
986 2623 Pls
986 2623 Pls
986 2623 Pls
986 2622 Pls
986 2622 Pls
986 2622 Pls
986 2621 Pls
986 2621 Pls
986 2620 Pls
986 2620 Pls
986 2620 Pls
986 2619 Pls
986 2619 Pls
986 2619 Pls
986 2618 Pls
986 2618 Pls
986 2618 Pls
986 2617 Pls
986 2617 Pls
987 2616 Pls
987 2616 Pls
987 2616 Pls
987 2615 Pls
987 2615 Pls
987 2615 Pls
987 2614 Pls
987 2614 Pls
987 2613 Pls
987 2613 Pls
987 2613 Pls
987 2612 Pls
987 2612 Pls
987 2612 Pls
987 2611 Pls
987 2611 Pls
987 2610 Pls
987 2610 Pls
987 2610 Pls
987 2609 Pls
987 2609 Pls
987 2609 Pls
987 2608 Pls
988 2608 Pls
988 2607 Pls
988 2607 Pls
988 2607 Pls
988 2606 Pls
988 2606 Pls
988 2606 Pls
988 2605 Pls
988 2605 Pls
988 2604 Pls
988 2604 Pls
988 2604 Pls
988 2603 Pls
988 2603 Pls
988 2603 Pls
988 2602 Pls
988 2602 Pls
988 2601 Pls
988 2601 Pls
988 2601 Pls
988 2600 Pls
988 2600 Pls
988 2599 Pls
988 2599 Pls
988 2599 Pls
988 2598 Pls
988 2598 Pls
988 2597 Pls
988 2597 Pls
989 2597 Pls
989 2596 Pls
989 2596 Pls
989 2595 Pls
989 2595 Pls
989 2595 Pls
989 2594 Pls
989 2594 Pls
989 2593 Pls
989 2593 Pls
989 2593 Pls
989 2592 Pls
989 2592 Pls
989 2592 Pls
989 2591 Pls
989 2591 Pls
989 2590 Pls
989 2590 Pls
989 2589 Pls
989 2589 Pls
989 2589 Pls
989 2588 Pls
989 2588 Pls
989 2587 Pls
989 2587 Pls
989 2587 Pls
989 2586 Pls
989 2586 Pls
989 2585 Pls
989 2585 Pls
989 2585 Pls
989 2584 Pls
990 2584 Pls
990 2583 Pls
990 2583 Pls
990 2583 Pls
990 2582 Pls
990 2582 Pls
990 2581 Pls
990 2581 Pls
990 2580 Pls
990 2580 Pls
990 2580 Pls
990 2579 Pls
990 2579 Pls
990 2578 Pls
991 2578 Pls
991 2578 Pls
991 2577 Pls
991 2577 Pls
991 2576 Pls
991 2576 Pls
991 2575 Pls
991 2575 Pls
991 2575 Pls
991 2574 Pls
991 2574 Pls
991 2573 Pls
991 2573 Pls
991 2572 Pls
991 2572 Pls
991 2572 Pls
991 2571 Pls
992 2571 Pls
992 2570 Pls
992 2570 Pls
992 2569 Pls
992 2569 Pls
992 2569 Pls
992 2568 Pls
992 2568 Pls
992 2567 Pls
992 2567 Pls
992 2566 Pls
992 2566 Pls
992 2566 Pls
992 2565 Pls
992 2565 Pls
992 2564 Pls
992 2564 Pls
992 2563 Pls
992 2562 Pls
993 2562 Pls
993 2562 Pls
993 2561 Pls
993 2561 Pls
993 2560 Pls
993 2560 Pls
993 2559 Pls
993 2559 Pls
993 2558 Pls
993 2558 Pls
993 2558 Pls
993 2557 Pls
993 2557 Pls
993 2556 Pls
993 2556 Pls
993 2555 Pls
993 2554 Pls
993 2554 Pls
994 2553 Pls
994 2553 Pls
994 2552 Pls
994 2552 Pls
994 2552 Pls
994 2551 Pls
994 2551 Pls
994 2550 Pls
994 2550 Pls
994 2549 Pls
994 2549 Pls
994 2548 Pls
994 2548 Pls
994 2547 Pls
994 2547 Pls
994 2546 Pls
994 2546 Pls
994 2546 Pls
994 2545 Pls
994 2545 Pls
994 2544 Pls
994 2544 Pls
994 2543 Pls
994 2543 Pls
994 2542 Pls
994 2542 Pls
995 2541 Pls
995 2541 Pls
995 2540 Pls
995 2540 Pls
995 2539 Pls
995 2539 Pls
995 2538 Pls
995 2537 Pls
995 2537 Pls
995 2536 Pls
995 2536 Pls
995 2535 Pls
995 2535 Pls
995 2534 Pls
995 2534 Pls
995 2533 Pls
995 2533 Pls
995 2533 Pls
995 2532 Pls
995 2532 Pls
995 2531 Pls
995 2531 Pls
995 2530 Pls
995 2530 Pls
995 2529 Pls
995 2529 Pls
995 2528 Pls
995 2528 Pls
995 2527 Pls
995 2527 Pls
995 2526 Pls
995 2526 Pls
995 2525 Pls
995 2525 Pls
995 2524 Pls
995 2524 Pls
995 2523 Pls
995 2522 Pls
995 2522 Pls
995 2521 Pls
995 2521 Pls
995 2520 Pls
995 2520 Pls
995 2519 Pls
995 2519 Pls
995 2518 Pls
995 2518 Pls
995 2517 Pls
995 2517 Pls
995 2516 Pls
995 2516 Pls
995 2515 Pls
995 2515 Pls
995 2514 Pls
995 2514 Pls
995 2513 Pls
995 2512 Pls
995 2512 Pls
995 2511 Pls
995 2510 Pls
995 2510 Pls
995 2509 Pls
995 2509 Pls
995 2508 Pls
995 2508 Pls
995 2507 Pls
995 2507 Pls
995 2506 Pls
995 2506 Pls
995 2505 Pls
995 2505 Pls
995 2504 Pls
995 2503 Pls
995 2502 Pls
995 2502 Pls
995 2501 Pls
995 2501 Pls
995 2500 Pls
995 2500 Pls
995 2499 Pls
995 2499 Pls
995 2498 Pls
996 2497 Pls
996 2497 Pls
996 2496 Pls
996 2496 Pls
996 2495 Pls
996 2495 Pls
996 2494 Pls
996 2493 Pls
996 2493 Pls
996 2492 Pls
996 2492 Pls
996 2491 Pls
996 2491 Pls
996 2490 Pls
996 2490 Pls
996 2489 Pls
996 2488 Pls
996 2488 Pls
996 2487 Pls
996 2487 Pls
996 2486 Pls
996 2485 Pls
996 2485 Pls
996 2484 Pls
996 2483 Pls
996 2483 Pls
996 2482 Pls
996 2481 Pls
996 2481 Pls
996 2480 Pls
996 2480 Pls
996 2479 Pls
996 2478 Pls
996 2478 Pls
996 2477 Pls
996 2477 Pls
996 2476 Pls
996 2475 Pls
996 2475 Pls
996 2474 Pls
996 2474 Pls
996 2473 Pls
996 2472 Pls
996 2472 Pls
996 2471 Pls
996 2471 Pls
996 2470 Pls
996 2469 Pls
996 2469 Pls
996 2468 Pls
996 2467 Pls
996 2467 Pls
996 2466 Pls
996 2466 Pls
996 2465 Pls
996 2464 Pls
996 2464 Pls
997 2463 Pls
997 2462 Pls
997 2462 Pls
997 2461 Pls
997 2461 Pls
997 2460 Pls
997 2458 Pls
997 2457 Pls
997 2456 Pls
997 2455 Pls
997 2455 Pls
997 2454 Pls
997 2454 Pls
997 2453 Pls
997 2452 Pls
997 2452 Pls
997 2451 Pls
997 2450 Pls
997 2450 Pls
997 2449 Pls
997 2448 Pls
997 2448 Pls
997 2447 Pls
997 2446 Pls
997 2446 Pls
997 2445 Pls
997 2444 Pls
997 2444 Pls
997 2443 Pls
997 2442 Pls
998 2442 Pls
998 2441 Pls
998 2440 Pls
998 2440 Pls
998 2439 Pls
998 2438 Pls
998 2437 Pls
998 2437 Pls
998 2436 Pls
998 2435 Pls
998 2435 Pls
998 2434 Pls
998 2433 Pls
998 2433 Pls
999 2432 Pls
999 2431 Pls
999 2430 Pls
999 2430 Pls
999 2429 Pls
999 2428 Pls
999 2428 Pls
999 2427 Pls
999 2426 Pls
999 2426 Pls
999 2425 Pls
999 2424 Pls
999 2423 Pls
999 2423 Pls
999 2422 Pls
999 2421 Pls
999 2420 Pls
1000 2420 Pls
1000 2419 Pls
1000 2418 Pls
1000 2418 Pls
1000 2417 Pls
1000 2416 Pls
1000 2415 Pls
1000 2415 Pls
1000 2414 Pls
1000 2413 Pls
1000 2412 Pls
1000 2412 Pls
1000 2411 Pls
1000 2410 Pls
1000 2409 Pls
1000 2409 Pls
1001 2408 Pls
1001 2407 Pls
1001 2406 Pls
1001 2405 Pls
1001 2405 Pls
1002 2404 Pls
1002 2403 Pls
1002 2402 Pls
1002 2402 Pls
1002 2401 Pls
1002 2400 Pls
1002 2399 Pls
1002 2398 Pls
1002 2398 Pls
1002 2397 Pls
1002 2396 Pls
1003 2395 Pls
1003 2394 Pls
1003 2394 Pls
1003 2393 Pls
1003 2392 Pls
1003 2391 Pls
1003 2390 Pls
1004 2390 Pls
1004 2389 Pls
1004 2388 Pls
1004 2387 Pls
1004 2386 Pls
1004 2386 Pls
1004 2385 Pls
1004 2384 Pls
1004 2383 Pls
1004 2382 Pls
1005 2381 Pls
1005 2381 Pls
1005 2380 Pls
1005 2379 Pls
1005 2378 Pls
1005 2377 Pls
1005 2376 Pls
1005 2375 Pls
1005 2375 Pls
1005 2374 Pls
1005 2373 Pls
1006 2372 Pls
1007 2371 Pls
1007 2370 Pls
1007 2369 Pls
1007 2369 Pls
1008 2368 Pls
1008 2367 Pls
1008 2366 Pls
1008 2365 Pls
1008 2364 Pls
1008 2363 Pls
1008 2362 Pls
1008 2361 Pls
1009 2361 Pls
1009 2360 Pls
1009 2359 Pls
1009 2358 Pls
1009 2357 Pls
1009 2356 Pls
1009 2355 Pls
1010 2353 Pls
1010 2352 Pls
1010 2351 Pls
1010 2350 Pls
1010 2349 Pls
1010 2349 Pls
1010 2348 Pls
1011 2347 Pls
1011 2346 Pls
1011 2345 Pls
1011 2344 Pls
1011 2343 Pls
1011 2342 Pls
1012 2341 Pls
1012 2340 Pls
1012 2339 Pls
1012 2338 Pls
1012 2337 Pls
1012 2336 Pls
1013 2335 Pls
1013 2334 Pls
1013 2333 Pls
1013 2332 Pls
1014 2331 Pls
1014 2330 Pls
1014 2329 Pls
1014 2328 Pls
1015 2327 Pls
1015 2326 Pls
1015 2325 Pls
1015 2324 Pls
1016 2323 Pls
1016 2322 Pls
1016 2321 Pls
1017 2320 Pls
1017 2319 Pls
1017 2318 Pls
1017 2317 Pls
1018 2316 Pls
1018 2315 Pls
1018 2314 Pls
1018 2313 Pls
1018 2311 Pls
1019 2310 Pls
1019 2309 Pls
1019 2308 Pls
1019 2307 Pls
1020 2306 Pls
1020 2305 Pls
1020 2304 Pls
1020 2303 Pls
1021 2302 Pls
1021 2301 Pls
1021 2299 Pls
1021 2298 Pls
1022 2297 Pls
1022 2296 Pls
1022 2295 Pls
1022 2294 Pls
1022 2293 Pls
1022 2291 Pls
1023 2290 Pls
1023 2289 Pls
1023 2288 Pls
1023 2287 Pls
1023 2286 Pls
1023 2285 Pls
1023 2283 Pls
1024 2282 Pls
1024 2281 Pls
1024 2280 Pls
1024 2279 Pls
1024 2277 Pls
1024 2276 Pls
1025 2275 Pls
1025 2274 Pls
1025 2273 Pls
1025 2271 Pls
1026 2270 Pls
1026 2269 Pls
1027 2268 Pls
1027 2266 Pls
1027 2265 Pls
1027 2264 Pls
1027 2263 Pls
1028 2261 Pls
1028 2260 Pls
1029 2259 Pls
1029 2257 Pls
1029 2256 Pls
1029 2255 Pls
1030 2253 Pls
1030 2252 Pls
1030 2251 Pls
1030 2249 Pls
1030 2248 Pls
1031 2247 Pls
1031 2245 Pls
1032 2244 Pls
1033 2243 Pls
1033 2241 Pls
1033 2240 Pls
1034 2239 Pls
1034 2237 Pls
1034 2236 Pls
1034 2234 Pls
1034 2233 Pls
1035 2232 Pls
1035 2230 Pls
1036 2229 Pls
1036 2227 Pls
1037 2226 Pls
1037 2224 Pls
1037 2223 Pls
1037 2222 Pls
1037 2220 Pls
1037 2219 Pls
1037 2217 Pls
1038 2216 Pls
1038 2214 Pls
1038 2213 Pls
1038 2211 Pls
1038 2210 Pls
1039 2208 Pls
1040 2206 Pls
1040 2205 Pls
1041 2203 Pls
1041 2202 Pls
1042 2200 Pls
1042 2199 Pls
1042 2197 Pls
1043 2195 Pls
1043 2194 Pls
1044 2192 Pls
1044 2191 Pls
1044 2189 Pls
1045 2187 Pls
1045 2186 Pls
1045 2184 Pls
1045 2182 Pls
1046 2181 Pls
1046 2179 Pls
1046 2177 Pls
1048 2175 Pls
1048 2174 Pls
1049 2172 Pls
1050 2170 Pls
1050 2168 Pls
1050 2167 Pls
1050 2165 Pls
1050 2163 Pls
1052 2161 Pls
1054 2159 Pls
1054 2158 Pls
1055 2156 Pls
1057 2154 Pls
1059 2152 Pls
1059 2150 Pls
1060 2148 Pls
1060 2146 Pls
1062 2144 Pls
1062 2143 Pls
1062 2141 Pls
1063 2139 Pls
1065 2137 Pls
1066 2135 Pls
1066 2133 Pls
1066 2131 Pls
1066 2129 Pls
1067 2127 Pls
1068 2125 Pls
1069 2122 Pls
1070 2120 Pls
1071 2118 Pls
1072 2116 Pls
1074 2114 Pls
1075 2112 Pls
1076 2110 Pls
1077 2108 Pls
1077 2105 Pls
1078 2103 Pls
1078 2101 Pls
1079 2099 Pls
1079 2096 Pls
1080 2094 Pls
1081 2092 Pls
1081 2089 Pls
1083 2087 Pls
1086 2085 Pls
1086 2082 Pls
1086 2080 Pls
1086 2078 Pls
1087 2075 Pls
1088 2073 Pls
1088 2070 Pls
1088 2068 Pls
1088 2065 Pls
1091 2063 Pls
1091 2060 Pls
1092 2057 Pls
1094 2055 Pls
1095 2052 Pls
1097 2049 Pls
1098 2047 Pls
1102 2044 Pls
1102 2041 Pls
1102 2038 Pls
1103 2036 Pls
1107 2033 Pls
1108 2030 Pls
1110 2027 Pls
1114 2024 Pls
1117 2021 Pls
1118 2018 Pls
1119 2015 Pls
1120 2012 Pls
1121 2009 Pls
1122 2006 Pls
1124 2003 Pls
1125 2000 Pls
1125 1996 Pls
1127 1993 Pls
1128 1990 Pls
1130 1987 Pls
1131 1983 Pls
1134 1980 Pls
1138 1976 Pls
1138 1973 Pls
1142 1969 Pls
1143 1966 Pls
1143 1962 Pls
1144 1958 Pls
1144 1955 Pls
1146 1951 Pls
1147 1947 Pls
1147 1943 Pls
1148 1939 Pls
1150 1935 Pls
1151 1931 Pls
1152 1927 Pls
1152 1923 Pls
1154 1919 Pls
1157 1914 Pls
1164 1910 Pls
1166 1906 Pls
1173 1901 Pls
1174 1897 Pls
1174 1892 Pls
1176 1887 Pls
1191 1883 Pls
1198 1878 Pls
1214 1873 Pls
1214 1868 Pls
1217 1863 Pls
1218 1857 Pls
1219 1852 Pls
1228 1847 Pls
1234 1841 Pls
1236 1835 Pls
1238 1830 Pls
1241 1824 Pls
1241 1818 Pls
1248 1812 Pls
1258 1805 Pls
1258 1799 Pls
1267 1792 Pls
1274 1786 Pls
1278 1779 Pls
1285 1772 Pls
1290 1765 Pls
1291 1757 Pls
1291 1750 Pls
1300 1742 Pls
1307 1734 Pls
1311 1726 Pls
1324 1717 Pls
1325 1708 Pls
1328 1699 Pls
1347 1690 Pls
1352 1680 Pls
1354 1670 Pls
1354 1660 Pls
1361 1649 Pls
1363 1638 Pls
1384 1626 Pls
1515 1614 Pls
1539 1602 Pls
1543 1588 Pls
1585 1574 Pls
1639 1560 Pls
1701 1544 Pls
1708 1528 Pls
1799 1511 Pls
2041 1492 Pls
2078 1473 Pls
2152 1452 Pls
2231 1429 Pls
2285 1404 Pls
2317 1377 Pls
2543 1347 Pls
2546 1313 Pls
2591 1275 Pls
2973 1231 Pls
3157 1180 Pls
3565 1116 Pls
3736 1034 Pls
5054 919 Pls
6694 721 Pls
% End plot #1
2.000 UL
LTb
LCb setrgbcolor
1.000 UL
LTB
LCb setrgbcolor
966 4871 N
966 280 L
5981 0 V
0 4591 V
-5981 0 V
Z stroke
1.000 UP
1.000 UL
LTb
LCb setrgbcolor
stroke
grestore
end
showpage
%%Trailer
%%DocumentFonts: Helvetica
%%Pages: 1
