%!PS-Adobe-2.0
%%Title: packets-uv-s-add-packets-uv-dist-loglin.eps
%%Creator: gnuplot 5.0 patchlevel 3
%%CreationDate: Mon May 29 11:08:45 2017
%%DocumentFonts: (atend)
%%BoundingBox: 50 50 554 770
%%Orientation: Landscape
%%Pages: (atend)
%%EndComments
%%BeginProlog
/gnudict 256 dict def
gnudict begin
%
% The following true/false flags may be edited by hand if desired.
% The unit line width and grayscale image gamma correction may also be changed.
%
/Color true def
/Blacktext false def
/Solid false def
/Dashlength 1 def
/Landscape true def
/Level1 false def
/Level3 false def
/Rounded false def
/ClipToBoundingBox false def
/SuppressPDFMark false def
/TransparentPatterns false def
/gnulinewidth 5.000 def
/userlinewidth gnulinewidth def
/Gamma 1.0 def
/BackgroundColor {-1.000 -1.000 -1.000} def
%
/vshift -46 def
/dl1 {
  10.0 Dashlength userlinewidth gnulinewidth div mul mul mul
  Rounded { currentlinewidth 0.75 mul sub dup 0 le { pop 0.01 } if } if
} def
/dl2 {
  10.0 Dashlength userlinewidth gnulinewidth div mul mul mul
  Rounded { currentlinewidth 0.75 mul add } if
} def
/hpt_ 31.5 def
/vpt_ 31.5 def
/hpt hpt_ def
/vpt vpt_ def
/doclip {
  ClipToBoundingBox {
    newpath 50 50 moveto 554 50 lineto 554 770 lineto 50 770 lineto closepath
    clip
  } if
} def
%
% Gnuplot Prolog Version 5.1 (Oct 2015)
%
%/SuppressPDFMark true def
%
/M {moveto} bind def
/L {lineto} bind def
/R {rmoveto} bind def
/V {rlineto} bind def
/N {newpath moveto} bind def
/Z {closepath} bind def
/C {setrgbcolor} bind def
/f {rlineto fill} bind def
/g {setgray} bind def
/Gshow {show} def   % May be redefined later in the file to support UTF-8
/vpt2 vpt 2 mul def
/hpt2 hpt 2 mul def
/Lshow {currentpoint stroke M 0 vshift R 
	Blacktext {gsave 0 setgray textshow grestore} {textshow} ifelse} def
/Rshow {currentpoint stroke M dup stringwidth pop neg vshift R
	Blacktext {gsave 0 setgray textshow grestore} {textshow} ifelse} def
/Cshow {currentpoint stroke M dup stringwidth pop -2 div vshift R 
	Blacktext {gsave 0 setgray textshow grestore} {textshow} ifelse} def
/UP {dup vpt_ mul /vpt exch def hpt_ mul /hpt exch def
  /hpt2 hpt 2 mul def /vpt2 vpt 2 mul def} def
/DL {Color {setrgbcolor Solid {pop []} if 0 setdash}
 {pop pop pop 0 setgray Solid {pop []} if 0 setdash} ifelse} def
/BL {stroke userlinewidth 2 mul setlinewidth
	Rounded {1 setlinejoin 1 setlinecap} if} def
/AL {stroke userlinewidth 2 div setlinewidth
	Rounded {1 setlinejoin 1 setlinecap} if} def
/UL {dup gnulinewidth mul /userlinewidth exch def
	dup 1 lt {pop 1} if 10 mul /udl exch def} def
/PL {stroke userlinewidth setlinewidth
	Rounded {1 setlinejoin 1 setlinecap} if} def
3.8 setmiterlimit
% Classic Line colors (version 5.0)
/LCw {1 1 1} def
/LCb {0 0 0} def
/LCa {0 0 0} def
/LC0 {1 0 0} def
/LC1 {0 1 0} def
/LC2 {0 0 1} def
/LC3 {1 0 1} def
/LC4 {0 1 1} def
/LC5 {1 1 0} def
/LC6 {0 0 0} def
/LC7 {1 0.3 0} def
/LC8 {0.5 0.5 0.5} def
% Default dash patterns (version 5.0)
/LTB {BL [] LCb DL} def
/LTw {PL [] 1 setgray} def
/LTb {PL [] LCb DL} def
/LTa {AL [1 udl mul 2 udl mul] 0 setdash LCa setrgbcolor} def
/LT0 {PL [] LC0 DL} def
/LT1 {PL [2 dl1 3 dl2] LC1 DL} def
/LT2 {PL [1 dl1 1.5 dl2] LC2 DL} def
/LT3 {PL [6 dl1 2 dl2 1 dl1 2 dl2] LC3 DL} def
/LT4 {PL [1 dl1 2 dl2 6 dl1 2 dl2 1 dl1 2 dl2] LC4 DL} def
/LT5 {PL [4 dl1 2 dl2] LC5 DL} def
/LT6 {PL [1.5 dl1 1.5 dl2 1.5 dl1 1.5 dl2 1.5 dl1 6 dl2] LC6 DL} def
/LT7 {PL [3 dl1 3 dl2 1 dl1 3 dl2] LC7 DL} def
/LT8 {PL [2 dl1 2 dl2 2 dl1 6 dl2] LC8 DL} def
/SL {[] 0 setdash} def
/Pnt {stroke [] 0 setdash gsave 1 setlinecap M 0 0 V stroke grestore} def
/Dia {stroke [] 0 setdash 2 copy vpt add M
  hpt neg vpt neg V hpt vpt neg V
  hpt vpt V hpt neg vpt V closepath stroke
  Pnt} def
/Pls {stroke [] 0 setdash vpt sub M 0 vpt2 V
  currentpoint stroke M
  hpt neg vpt neg R hpt2 0 V stroke
 } def
/Box {stroke [] 0 setdash 2 copy exch hpt sub exch vpt add M
  0 vpt2 neg V hpt2 0 V 0 vpt2 V
  hpt2 neg 0 V closepath stroke
  Pnt} def
/Crs {stroke [] 0 setdash exch hpt sub exch vpt add M
  hpt2 vpt2 neg V currentpoint stroke M
  hpt2 neg 0 R hpt2 vpt2 V stroke} def
/TriU {stroke [] 0 setdash 2 copy vpt 1.12 mul add M
  hpt neg vpt -1.62 mul V
  hpt 2 mul 0 V
  hpt neg vpt 1.62 mul V closepath stroke
  Pnt} def
/Star {2 copy Pls Crs} def
/BoxF {stroke [] 0 setdash exch hpt sub exch vpt add M
  0 vpt2 neg V hpt2 0 V 0 vpt2 V
  hpt2 neg 0 V closepath fill} def
/TriUF {stroke [] 0 setdash vpt 1.12 mul add M
  hpt neg vpt -1.62 mul V
  hpt 2 mul 0 V
  hpt neg vpt 1.62 mul V closepath fill} def
/TriD {stroke [] 0 setdash 2 copy vpt 1.12 mul sub M
  hpt neg vpt 1.62 mul V
  hpt 2 mul 0 V
  hpt neg vpt -1.62 mul V closepath stroke
  Pnt} def
/TriDF {stroke [] 0 setdash vpt 1.12 mul sub M
  hpt neg vpt 1.62 mul V
  hpt 2 mul 0 V
  hpt neg vpt -1.62 mul V closepath fill} def
/DiaF {stroke [] 0 setdash vpt add M
  hpt neg vpt neg V hpt vpt neg V
  hpt vpt V hpt neg vpt V closepath fill} def
/Pent {stroke [] 0 setdash 2 copy gsave
  translate 0 hpt M 4 {72 rotate 0 hpt L} repeat
  closepath stroke grestore Pnt} def
/PentF {stroke [] 0 setdash gsave
  translate 0 hpt M 4 {72 rotate 0 hpt L} repeat
  closepath fill grestore} def
/Circle {stroke [] 0 setdash 2 copy
  hpt 0 360 arc stroke Pnt} def
/CircleF {stroke [] 0 setdash hpt 0 360 arc fill} def
/C0 {BL [] 0 setdash 2 copy moveto vpt 90 450 arc} bind def
/C1 {BL [] 0 setdash 2 copy moveto
	2 copy vpt 0 90 arc closepath fill
	vpt 0 360 arc closepath} bind def
/C2 {BL [] 0 setdash 2 copy moveto
	2 copy vpt 90 180 arc closepath fill
	vpt 0 360 arc closepath} bind def
/C3 {BL [] 0 setdash 2 copy moveto
	2 copy vpt 0 180 arc closepath fill
	vpt 0 360 arc closepath} bind def
/C4 {BL [] 0 setdash 2 copy moveto
	2 copy vpt 180 270 arc closepath fill
	vpt 0 360 arc closepath} bind def
/C5 {BL [] 0 setdash 2 copy moveto
	2 copy vpt 0 90 arc
	2 copy moveto
	2 copy vpt 180 270 arc closepath fill
	vpt 0 360 arc} bind def
/C6 {BL [] 0 setdash 2 copy moveto
	2 copy vpt 90 270 arc closepath fill
	vpt 0 360 arc closepath} bind def
/C7 {BL [] 0 setdash 2 copy moveto
	2 copy vpt 0 270 arc closepath fill
	vpt 0 360 arc closepath} bind def
/C8 {BL [] 0 setdash 2 copy moveto
	2 copy vpt 270 360 arc closepath fill
	vpt 0 360 arc closepath} bind def
/C9 {BL [] 0 setdash 2 copy moveto
	2 copy vpt 270 450 arc closepath fill
	vpt 0 360 arc closepath} bind def
/C10 {BL [] 0 setdash 2 copy 2 copy moveto vpt 270 360 arc closepath fill
	2 copy moveto
	2 copy vpt 90 180 arc closepath fill
	vpt 0 360 arc closepath} bind def
/C11 {BL [] 0 setdash 2 copy moveto
	2 copy vpt 0 180 arc closepath fill
	2 copy moveto
	2 copy vpt 270 360 arc closepath fill
	vpt 0 360 arc closepath} bind def
/C12 {BL [] 0 setdash 2 copy moveto
	2 copy vpt 180 360 arc closepath fill
	vpt 0 360 arc closepath} bind def
/C13 {BL [] 0 setdash 2 copy moveto
	2 copy vpt 0 90 arc closepath fill
	2 copy moveto
	2 copy vpt 180 360 arc closepath fill
	vpt 0 360 arc closepath} bind def
/C14 {BL [] 0 setdash 2 copy moveto
	2 copy vpt 90 360 arc closepath fill
	vpt 0 360 arc} bind def
/C15 {BL [] 0 setdash 2 copy vpt 0 360 arc closepath fill
	vpt 0 360 arc closepath} bind def
/Rec {newpath 4 2 roll moveto 1 index 0 rlineto 0 exch rlineto
	neg 0 rlineto closepath} bind def
/Square {dup Rec} bind def
/Bsquare {vpt sub exch vpt sub exch vpt2 Square} bind def
/S0 {BL [] 0 setdash 2 copy moveto 0 vpt rlineto BL Bsquare} bind def
/S1 {BL [] 0 setdash 2 copy vpt Square fill Bsquare} bind def
/S2 {BL [] 0 setdash 2 copy exch vpt sub exch vpt Square fill Bsquare} bind def
/S3 {BL [] 0 setdash 2 copy exch vpt sub exch vpt2 vpt Rec fill Bsquare} bind def
/S4 {BL [] 0 setdash 2 copy exch vpt sub exch vpt sub vpt Square fill Bsquare} bind def
/S5 {BL [] 0 setdash 2 copy 2 copy vpt Square fill
	exch vpt sub exch vpt sub vpt Square fill Bsquare} bind def
/S6 {BL [] 0 setdash 2 copy exch vpt sub exch vpt sub vpt vpt2 Rec fill Bsquare} bind def
/S7 {BL [] 0 setdash 2 copy exch vpt sub exch vpt sub vpt vpt2 Rec fill
	2 copy vpt Square fill Bsquare} bind def
/S8 {BL [] 0 setdash 2 copy vpt sub vpt Square fill Bsquare} bind def
/S9 {BL [] 0 setdash 2 copy vpt sub vpt vpt2 Rec fill Bsquare} bind def
/S10 {BL [] 0 setdash 2 copy vpt sub vpt Square fill 2 copy exch vpt sub exch vpt Square fill
	Bsquare} bind def
/S11 {BL [] 0 setdash 2 copy vpt sub vpt Square fill 2 copy exch vpt sub exch vpt2 vpt Rec fill
	Bsquare} bind def
/S12 {BL [] 0 setdash 2 copy exch vpt sub exch vpt sub vpt2 vpt Rec fill Bsquare} bind def
/S13 {BL [] 0 setdash 2 copy exch vpt sub exch vpt sub vpt2 vpt Rec fill
	2 copy vpt Square fill Bsquare} bind def
/S14 {BL [] 0 setdash 2 copy exch vpt sub exch vpt sub vpt2 vpt Rec fill
	2 copy exch vpt sub exch vpt Square fill Bsquare} bind def
/S15 {BL [] 0 setdash 2 copy Bsquare fill Bsquare} bind def
/D0 {gsave translate 45 rotate 0 0 S0 stroke grestore} bind def
/D1 {gsave translate 45 rotate 0 0 S1 stroke grestore} bind def
/D2 {gsave translate 45 rotate 0 0 S2 stroke grestore} bind def
/D3 {gsave translate 45 rotate 0 0 S3 stroke grestore} bind def
/D4 {gsave translate 45 rotate 0 0 S4 stroke grestore} bind def
/D5 {gsave translate 45 rotate 0 0 S5 stroke grestore} bind def
/D6 {gsave translate 45 rotate 0 0 S6 stroke grestore} bind def
/D7 {gsave translate 45 rotate 0 0 S7 stroke grestore} bind def
/D8 {gsave translate 45 rotate 0 0 S8 stroke grestore} bind def
/D9 {gsave translate 45 rotate 0 0 S9 stroke grestore} bind def
/D10 {gsave translate 45 rotate 0 0 S10 stroke grestore} bind def
/D11 {gsave translate 45 rotate 0 0 S11 stroke grestore} bind def
/D12 {gsave translate 45 rotate 0 0 S12 stroke grestore} bind def
/D13 {gsave translate 45 rotate 0 0 S13 stroke grestore} bind def
/D14 {gsave translate 45 rotate 0 0 S14 stroke grestore} bind def
/D15 {gsave translate 45 rotate 0 0 S15 stroke grestore} bind def
/DiaE {stroke [] 0 setdash vpt add M
  hpt neg vpt neg V hpt vpt neg V
  hpt vpt V hpt neg vpt V closepath stroke} def
/BoxE {stroke [] 0 setdash exch hpt sub exch vpt add M
  0 vpt2 neg V hpt2 0 V 0 vpt2 V
  hpt2 neg 0 V closepath stroke} def
/TriUE {stroke [] 0 setdash vpt 1.12 mul add M
  hpt neg vpt -1.62 mul V
  hpt 2 mul 0 V
  hpt neg vpt 1.62 mul V closepath stroke} def
/TriDE {stroke [] 0 setdash vpt 1.12 mul sub M
  hpt neg vpt 1.62 mul V
  hpt 2 mul 0 V
  hpt neg vpt -1.62 mul V closepath stroke} def
/PentE {stroke [] 0 setdash gsave
  translate 0 hpt M 4 {72 rotate 0 hpt L} repeat
  closepath stroke grestore} def
/CircE {stroke [] 0 setdash 
  hpt 0 360 arc stroke} def
/Opaque {gsave closepath 1 setgray fill grestore 0 setgray closepath} def
/DiaW {stroke [] 0 setdash vpt add M
  hpt neg vpt neg V hpt vpt neg V
  hpt vpt V hpt neg vpt V Opaque stroke} def
/BoxW {stroke [] 0 setdash exch hpt sub exch vpt add M
  0 vpt2 neg V hpt2 0 V 0 vpt2 V
  hpt2 neg 0 V Opaque stroke} def
/TriUW {stroke [] 0 setdash vpt 1.12 mul add M
  hpt neg vpt -1.62 mul V
  hpt 2 mul 0 V
  hpt neg vpt 1.62 mul V Opaque stroke} def
/TriDW {stroke [] 0 setdash vpt 1.12 mul sub M
  hpt neg vpt 1.62 mul V
  hpt 2 mul 0 V
  hpt neg vpt -1.62 mul V Opaque stroke} def
/PentW {stroke [] 0 setdash gsave
  translate 0 hpt M 4 {72 rotate 0 hpt L} repeat
  Opaque stroke grestore} def
/CircW {stroke [] 0 setdash 
  hpt 0 360 arc Opaque stroke} def
/BoxFill {gsave Rec 1 setgray fill grestore} def
/Density {
  /Fillden exch def
  currentrgbcolor
  /ColB exch def /ColG exch def /ColR exch def
  /ColR ColR Fillden mul Fillden sub 1 add def
  /ColG ColG Fillden mul Fillden sub 1 add def
  /ColB ColB Fillden mul Fillden sub 1 add def
  ColR ColG ColB setrgbcolor} def
/BoxColFill {gsave Rec PolyFill} def
/PolyFill {gsave Density fill grestore grestore} def
/h {rlineto rlineto rlineto gsave closepath fill grestore} bind def
%
% PostScript Level 1 Pattern Fill routine for rectangles
% Usage: x y w h s a XX PatternFill
%	x,y = lower left corner of box to be filled
%	w,h = width and height of box
%	  a = angle in degrees between lines and x-axis
%	 XX = 0/1 for no/yes cross-hatch
%
/PatternFill {gsave /PFa [ 9 2 roll ] def
  PFa 0 get PFa 2 get 2 div add PFa 1 get PFa 3 get 2 div add translate
  PFa 2 get -2 div PFa 3 get -2 div PFa 2 get PFa 3 get Rec
  TransparentPatterns {} {gsave 1 setgray fill grestore} ifelse
  clip
  currentlinewidth 0.5 mul setlinewidth
  /PFs PFa 2 get dup mul PFa 3 get dup mul add sqrt def
  0 0 M PFa 5 get rotate PFs -2 div dup translate
  0 1 PFs PFa 4 get div 1 add floor cvi
	{PFa 4 get mul 0 M 0 PFs V} for
  0 PFa 6 get ne {
	0 1 PFs PFa 4 get div 1 add floor cvi
	{PFa 4 get mul 0 2 1 roll M PFs 0 V} for
 } if
  stroke grestore} def
%
/languagelevel where
 {pop languagelevel} {1} ifelse
dup 2 lt
	{/InterpretLevel1 true def
	 /InterpretLevel3 false def}
	{/InterpretLevel1 Level1 def
	 2 gt
	    {/InterpretLevel3 Level3 def}
	    {/InterpretLevel3 false def}
	 ifelse }
 ifelse
%
% PostScript level 2 pattern fill definitions
%
/Level2PatternFill {
/Tile8x8 {/PaintType 2 /PatternType 1 /TilingType 1 /BBox [0 0 8 8] /XStep 8 /YStep 8}
	bind def
/KeepColor {currentrgbcolor [/Pattern /DeviceRGB] setcolorspace} bind def
<< Tile8x8
 /PaintProc {0.5 setlinewidth pop 0 0 M 8 8 L 0 8 M 8 0 L stroke} 
>> matrix makepattern
/Pat1 exch def
<< Tile8x8
 /PaintProc {0.5 setlinewidth pop 0 0 M 8 8 L 0 8 M 8 0 L stroke
	0 4 M 4 8 L 8 4 L 4 0 L 0 4 L stroke}
>> matrix makepattern
/Pat2 exch def
<< Tile8x8
 /PaintProc {0.5 setlinewidth pop 0 0 M 0 8 L
	8 8 L 8 0 L 0 0 L fill}
>> matrix makepattern
/Pat3 exch def
<< Tile8x8
 /PaintProc {0.5 setlinewidth pop -4 8 M 8 -4 L
	0 12 M 12 0 L stroke}
>> matrix makepattern
/Pat4 exch def
<< Tile8x8
 /PaintProc {0.5 setlinewidth pop -4 0 M 8 12 L
	0 -4 M 12 8 L stroke}
>> matrix makepattern
/Pat5 exch def
<< Tile8x8
 /PaintProc {0.5 setlinewidth pop -2 8 M 4 -4 L
	0 12 M 8 -4 L 4 12 M 10 0 L stroke}
>> matrix makepattern
/Pat6 exch def
<< Tile8x8
 /PaintProc {0.5 setlinewidth pop -2 0 M 4 12 L
	0 -4 M 8 12 L 4 -4 M 10 8 L stroke}
>> matrix makepattern
/Pat7 exch def
<< Tile8x8
 /PaintProc {0.5 setlinewidth pop 8 -2 M -4 4 L
	12 0 M -4 8 L 12 4 M 0 10 L stroke}
>> matrix makepattern
/Pat8 exch def
<< Tile8x8
 /PaintProc {0.5 setlinewidth pop 0 -2 M 12 4 L
	-4 0 M 12 8 L -4 4 M 8 10 L stroke}
>> matrix makepattern
/Pat9 exch def
/Pattern1 {PatternBgnd KeepColor Pat1 setpattern} bind def
/Pattern2 {PatternBgnd KeepColor Pat2 setpattern} bind def
/Pattern3 {PatternBgnd KeepColor Pat3 setpattern} bind def
/Pattern4 {PatternBgnd KeepColor Landscape {Pat5} {Pat4} ifelse setpattern} bind def
/Pattern5 {PatternBgnd KeepColor Landscape {Pat4} {Pat5} ifelse setpattern} bind def
/Pattern6 {PatternBgnd KeepColor Landscape {Pat9} {Pat6} ifelse setpattern} bind def
/Pattern7 {PatternBgnd KeepColor Landscape {Pat8} {Pat7} ifelse setpattern} bind def
} def
%
%
%End of PostScript Level 2 code
%
/PatternBgnd {
  TransparentPatterns {} {gsave 1 setgray fill grestore} ifelse
} def
%
% Substitute for Level 2 pattern fill codes with
% grayscale if Level 2 support is not selected.
%
/Level1PatternFill {
/Pattern1 {0.250 Density} bind def
/Pattern2 {0.500 Density} bind def
/Pattern3 {0.750 Density} bind def
/Pattern4 {0.125 Density} bind def
/Pattern5 {0.375 Density} bind def
/Pattern6 {0.625 Density} bind def
/Pattern7 {0.875 Density} bind def
} def
%
% Now test for support of Level 2 code
%
Level1 {Level1PatternFill} {Level2PatternFill} ifelse
%
/Symbol-Oblique /Symbol findfont [1 0 .167 1 0 0] makefont
dup length dict begin {1 index /FID eq {pop pop} {def} ifelse} forall
currentdict end definefont pop
%
/MFshow {
   { dup 5 get 3 ge
     { 5 get 3 eq {gsave} {grestore} ifelse }
     {dup dup 0 get findfont exch 1 get scalefont setfont
     [ currentpoint ] exch dup 2 get 0 exch R dup 5 get 2 ne {dup dup 6
     get exch 4 get {textshow} {stringwidth pop 0 R} ifelse }if dup 5 get 0 eq
     {dup 3 get {2 get neg 0 exch R pop} {pop aload pop M} ifelse} {dup 5
     get 1 eq {dup 2 get exch dup 3 get exch 6 get stringwidth pop -2 div
     dup 0 R} {dup 6 get stringwidth pop -2 div 0 R 6 get
     textshow 2 index {aload pop M neg 3 -1 roll neg R pop pop} {pop pop pop
     pop aload pop M} ifelse }ifelse }ifelse }
     ifelse }
   forall} def
/Gswidth {dup type /stringtype eq {stringwidth} {pop (n) stringwidth} ifelse} def
/MFwidth {0 exch { dup 5 get 3 ge { 5 get 3 eq { 0 } { pop } ifelse }
 {dup 3 get{dup dup 0 get findfont exch 1 get scalefont setfont
     6 get Gswidth pop add} {pop} ifelse} ifelse} forall} def
/MLshow { currentpoint stroke M
  0 exch R
  Blacktext {gsave 0 setgray MFshow grestore} {MFshow} ifelse } bind def
/MRshow { currentpoint stroke M
  exch dup MFwidth neg 3 -1 roll R
  Blacktext {gsave 0 setgray MFshow grestore} {MFshow} ifelse } bind def
/MCshow { currentpoint stroke M
  exch dup MFwidth -2 div 3 -1 roll R
  Blacktext {gsave 0 setgray MFshow grestore} {MFshow} ifelse } bind def
/XYsave    { [( ) 1 2 true false 3 ()] } bind def
/XYrestore { [( ) 1 2 true false 4 ()] } bind def
Level1 SuppressPDFMark or 
{} {
/SDict 10 dict def
systemdict /pdfmark known not {
  userdict /pdfmark systemdict /cleartomark get put
} if
SDict begin [
  /Title (packets-uv-s-add-packets-uv-dist-loglin.eps)
  /Subject (gnuplot plot)
  /Creator (gnuplot 5.0 patchlevel 3)
  /Author (tiphaine)
%  /Producer (gnuplot)
%  /Keywords ()
  /CreationDate (Mon May 29 11:08:45 2017)
  /DOCINFO pdfmark
end
} ifelse
%
% Support for boxed text - Ethan A Merritt May 2005
%
/InitTextBox { userdict /TBy2 3 -1 roll put userdict /TBx2 3 -1 roll put
           userdict /TBy1 3 -1 roll put userdict /TBx1 3 -1 roll put
	   /Boxing true def } def
/ExtendTextBox { Boxing
    { gsave dup false charpath pathbbox
      dup TBy2 gt {userdict /TBy2 3 -1 roll put} {pop} ifelse
      dup TBx2 gt {userdict /TBx2 3 -1 roll put} {pop} ifelse
      dup TBy1 lt {userdict /TBy1 3 -1 roll put} {pop} ifelse
      dup TBx1 lt {userdict /TBx1 3 -1 roll put} {pop} ifelse
      grestore } if } def
/PopTextBox { newpath TBx1 TBxmargin sub TBy1 TBymargin sub M
               TBx1 TBxmargin sub TBy2 TBymargin add L
	       TBx2 TBxmargin add TBy2 TBymargin add L
	       TBx2 TBxmargin add TBy1 TBymargin sub L closepath } def
/DrawTextBox { PopTextBox stroke /Boxing false def} def
/FillTextBox { gsave PopTextBox 1 1 1 setrgbcolor fill grestore /Boxing false def} def
0 0 0 0 InitTextBox
/TBxmargin 20 def
/TBymargin 20 def
/Boxing false def
/textshow { ExtendTextBox Gshow } def
%
% redundant definitions for compatibility with prologue.ps older than 5.0.2
/LTB {BL [] LCb DL} def
/LTb {PL [] LCb DL} def
end
%%EndProlog
%%Page: 1 1
gnudict begin
gsave
doclip
50 50 translate
0.100 0.100 scale
90 rotate
0 -5040 translate
0 setgray
newpath
(Helvetica) findfont 140 scalefont setfont
BackgroundColor 0 lt 3 1 roll 0 lt exch 0 lt or or not {gsave BackgroundColor C clippath fill grestore} if
1.000 UL
LTb
LCb setrgbcolor
798 280 M
63 0 V
6086 0 R
-63 0 V
stroke
714 280 M
[ [(Helvetica) 140.0 0.0 true true 0 ( 0)]
] -46.7 MRshow
1.000 UL
LTb
LCb setrgbcolor
798 1045 M
63 0 V
6086 0 R
-63 0 V
stroke
714 1045 M
[ [(Helvetica) 140.0 0.0 true true 0 ( 200000)]
] -46.7 MRshow
1.000 UL
LTb
LCb setrgbcolor
798 1810 M
63 0 V
6086 0 R
-63 0 V
stroke
714 1810 M
[ [(Helvetica) 140.0 0.0 true true 0 ( 400000)]
] -46.7 MRshow
1.000 UL
LTb
LCb setrgbcolor
798 2576 M
63 0 V
6086 0 R
-63 0 V
stroke
714 2576 M
[ [(Helvetica) 140.0 0.0 true true 0 ( 600000)]
] -46.7 MRshow
1.000 UL
LTb
LCb setrgbcolor
798 3341 M
63 0 V
6086 0 R
-63 0 V
stroke
714 3341 M
[ [(Helvetica) 140.0 0.0 true true 0 ( 800000)]
] -46.7 MRshow
1.000 UL
LTb
LCb setrgbcolor
798 4106 M
63 0 V
6086 0 R
-63 0 V
stroke
714 4106 M
[ [(Helvetica) 140.0 0.0 true true 0 ( 1x10)]
[(Helvetica) 112.0 70.0 true true 0 (6)]
] -60.7 MRshow
1.000 UL
LTb
LCb setrgbcolor
798 4871 M
63 0 V
6086 0 R
-63 0 V
stroke
714 4871 M
[ [(Helvetica) 140.0 0.0 true true 0 ( 1.2x10)]
[(Helvetica) 112.0 70.0 true true 0 (6)]
] -60.7 MRshow
1.000 UL
LTb
LCb setrgbcolor
798 280 M
0 63 V
0 4528 R
0 -63 V
stroke
798 140 M
[ [(Helvetica) 140.0 0.0 true true 0 ( 1)]
] -46.7 MCshow
1.000 UL
LTb
LCb setrgbcolor
1062 280 M
0 31 V
0 4560 R
0 -31 V
1412 280 M
0 31 V
0 4560 R
0 -31 V
1591 280 M
0 31 V
0 4560 R
0 -31 V
1676 280 M
0 63 V
0 4528 R
0 -63 V
stroke
1676 140 M
[ [(Helvetica) 140.0 0.0 true true 0 ( 10)]
] -46.7 MCshow
1.000 UL
LTb
LCb setrgbcolor
1941 280 M
0 31 V
0 4560 R
0 -31 V
2290 280 M
0 31 V
0 4560 R
0 -31 V
2470 280 M
0 31 V
0 4560 R
0 -31 V
2555 280 M
0 63 V
0 4528 R
0 -63 V
stroke
2555 140 M
[ [(Helvetica) 140.0 0.0 true true 0 ( 100)]
] -46.7 MCshow
1.000 UL
LTb
LCb setrgbcolor
2819 280 M
0 31 V
0 4560 R
0 -31 V
3169 280 M
0 31 V
0 4560 R
0 -31 V
3348 280 M
0 31 V
0 4560 R
0 -31 V
3433 280 M
0 63 V
0 4528 R
0 -63 V
stroke
3433 140 M
[ [(Helvetica) 140.0 0.0 true true 0 ( 1000)]
] -46.7 MCshow
1.000 UL
LTb
LCb setrgbcolor
3698 280 M
0 31 V
0 4560 R
0 -31 V
4047 280 M
0 31 V
0 4560 R
0 -31 V
4227 280 M
0 31 V
0 4560 R
0 -31 V
4312 280 M
0 63 V
0 4528 R
0 -63 V
stroke
4312 140 M
[ [(Helvetica) 140.0 0.0 true true 0 ( 10000)]
] -46.7 MCshow
1.000 UL
LTb
LCb setrgbcolor
4576 280 M
0 31 V
0 4560 R
0 -31 V
4926 280 M
0 31 V
0 4560 R
0 -31 V
5105 280 M
0 31 V
0 4560 R
0 -31 V
5190 280 M
0 63 V
0 4528 R
0 -63 V
stroke
5190 140 M
[ [(Helvetica) 140.0 0.0 true true 0 ( 100000)]
] -46.7 MCshow
1.000 UL
LTb
LCb setrgbcolor
5455 280 M
0 31 V
0 4560 R
0 -31 V
5804 280 M
0 31 V
0 4560 R
0 -31 V
5983 280 M
0 31 V
0 4560 R
0 -31 V
6069 280 M
0 63 V
0 4528 R
0 -63 V
stroke
6069 140 M
[ [(Helvetica) 140.0 0.0 true true 0 ( 1x10)]
[(Helvetica) 112.0 70.0 true true 0 (6)]
] -60.7 MCshow
1.000 UL
LTb
LCb setrgbcolor
6333 280 M
0 31 V
0 4560 R
0 -31 V
6683 280 M
0 31 V
0 4560 R
0 -31 V
6862 280 M
0 31 V
0 4560 R
0 -31 V
6947 280 M
0 63 V
0 4528 R
0 -63 V
stroke
6947 140 M
[ [(Helvetica) 140.0 0.0 true true 0 ( 1x10)]
[(Helvetica) 112.0 70.0 true true 0 (7)]
] -60.7 MCshow
1.000 UL
LTb
LCb setrgbcolor
1.000 UL
LTB
LCb setrgbcolor
798 4871 N
798 280 L
6149 0 V
0 4591 V
-6149 0 V
Z stroke
1.000 UP
1.000 UL
LTb
LCb setrgbcolor
% Begin plot #1
1.000 UP
1.000 UL
LTb
0.58 0.00 0.83 C 1062 4739 Pls
1327 2297 Pls
1482 578 Pls
1591 498 Pls
1676 408 Pls
1746 395 Pls
1805 342 Pls
1856 356 Pls
1901 325 Pls
1941 357 Pls
1977 316 Pls
2010 327 Pls
2041 308 Pls
2069 312 Pls
2096 307 Pls
2120 310 Pls
2143 300 Pls
2165 304 Pls
2186 297 Pls
2205 303 Pls
2224 294 Pls
2242 295 Pls
2259 290 Pls
2275 293 Pls
2290 288 Pls
2305 289 Pls
2320 287 Pls
2334 289 Pls
2347 285 Pls
2360 289 Pls
2372 285 Pls
2385 286 Pls
2396 285 Pls
2408 286 Pls
2419 284 Pls
2430 286 Pls
2440 284 Pls
2450 284 Pls
2460 283 Pls
2470 284 Pls
2479 283 Pls
2488 283 Pls
2497 283 Pls
2506 283 Pls
2515 283 Pls
2523 283 Pls
2531 284 Pls
2539 284 Pls
2547 284 Pls
2555 283 Pls
2562 283 Pls
2570 282 Pls
2577 282 Pls
2584 282 Pls
2591 282 Pls
2598 282 Pls
2605 282 Pls
2611 282 Pls
2618 282 Pls
2624 283 Pls
2631 282 Pls
2637 282 Pls
2643 282 Pls
2649 282 Pls
2655 282 Pls
2661 281 Pls
2667 281 Pls
2672 281 Pls
2678 281 Pls
2683 281 Pls
2689 281 Pls
2694 281 Pls
2699 281 Pls
2704 281 Pls
2710 281 Pls
2715 281 Pls
2720 281 Pls
2725 281 Pls
2729 281 Pls
2734 281 Pls
2739 281 Pls
2744 281 Pls
2748 281 Pls
2753 281 Pls
2757 281 Pls
2762 281 Pls
2766 281 Pls
2771 281 Pls
2775 281 Pls
2779 281 Pls
2783 281 Pls
2787 281 Pls
2792 281 Pls
2796 281 Pls
2800 281 Pls
2804 281 Pls
2808 281 Pls
2812 281 Pls
2815 281 Pls
2819 283 Pls
2823 281 Pls
2827 281 Pls
2831 281 Pls
2834 281 Pls
2838 281 Pls
2842 281 Pls
2845 281 Pls
2849 281 Pls
2852 281 Pls
2856 281 Pls
2859 281 Pls
2863 281 Pls
2866 281 Pls
2869 281 Pls
2873 281 Pls
2876 281 Pls
2879 281 Pls
2882 280 Pls
2886 281 Pls
2889 281 Pls
2892 281 Pls
2895 281 Pls
2898 280 Pls
2901 280 Pls
2904 280 Pls
2907 280 Pls
2910 280 Pls
2913 281 Pls
2916 281 Pls
2919 281 Pls
2922 280 Pls
2925 281 Pls
2928 280 Pls
2931 280 Pls
2934 280 Pls
2937 280 Pls
2939 280 Pls
2942 281 Pls
2945 281 Pls
2948 280 Pls
2950 280 Pls
2953 280 Pls
2956 280 Pls
2958 280 Pls
2961 280 Pls
2964 280 Pls
2966 280 Pls
2969 280 Pls
2971 280 Pls
2974 280 Pls
2977 280 Pls
2979 280 Pls
2982 280 Pls
2984 280 Pls
2986 280 Pls
2989 280 Pls
2991 280 Pls
2994 280 Pls
2996 280 Pls
2999 280 Pls
3001 280 Pls
3003 280 Pls
3006 280 Pls
3008 280 Pls
3010 280 Pls
3013 280 Pls
3015 280 Pls
3017 280 Pls
3019 280 Pls
3022 280 Pls
3024 280 Pls
3026 280 Pls
3028 280 Pls
3031 280 Pls
3033 280 Pls
3035 280 Pls
3037 280 Pls
3039 280 Pls
3041 280 Pls
3044 280 Pls
3046 280 Pls
3048 280 Pls
3050 280 Pls
3052 280 Pls
3054 280 Pls
3056 280 Pls
3058 280 Pls
3060 280 Pls
3062 280 Pls
3064 280 Pls
3066 280 Pls
3068 280 Pls
3070 280 Pls
3072 280 Pls
3074 280 Pls
3076 280 Pls
3078 280 Pls
3080 280 Pls
3082 280 Pls
3084 280 Pls
3086 280 Pls
3088 280 Pls
3089 280 Pls
3091 280 Pls
3093 280 Pls
3095 280 Pls
3097 280 Pls
3099 280 Pls
3101 280 Pls
3102 280 Pls
3104 280 Pls
3106 280 Pls
3108 280 Pls
3110 280 Pls
3111 280 Pls
3113 280 Pls
3115 280 Pls
3117 280 Pls
3118 280 Pls
3120 280 Pls
3122 280 Pls
3124 280 Pls
3125 280 Pls
3127 280 Pls
3129 280 Pls
3130 280 Pls
3132 280 Pls
3134 280 Pls
3135 280 Pls
3137 280 Pls
3139 280 Pls
3140 280 Pls
3142 280 Pls
3144 280 Pls
3145 280 Pls
3147 280 Pls
3148 280 Pls
3150 280 Pls
3152 280 Pls
3153 280 Pls
3155 280 Pls
3156 280 Pls
3158 280 Pls
3160 280 Pls
3161 280 Pls
3163 280 Pls
3164 280 Pls
3166 280 Pls
3167 280 Pls
3169 280 Pls
3170 280 Pls
3172 280 Pls
3173 280 Pls
3175 280 Pls
3176 280 Pls
3178 280 Pls
3179 280 Pls
3181 280 Pls
3182 280 Pls
3184 280 Pls
3185 280 Pls
3187 280 Pls
3188 280 Pls
3190 280 Pls
3191 280 Pls
3193 280 Pls
3194 280 Pls
3195 280 Pls
3197 280 Pls
3198 280 Pls
3200 280 Pls
3201 280 Pls
3202 280 Pls
3204 280 Pls
3205 280 Pls
3207 280 Pls
3208 280 Pls
3209 280 Pls
3211 280 Pls
3212 280 Pls
3213 280 Pls
3215 280 Pls
3216 280 Pls
3217 280 Pls
3219 280 Pls
3220 280 Pls
3222 280 Pls
3223 280 Pls
3224 280 Pls
3225 280 Pls
3227 280 Pls
3228 280 Pls
3229 280 Pls
3231 280 Pls
3232 280 Pls
3233 280 Pls
3235 280 Pls
3236 280 Pls
3237 280 Pls
3238 280 Pls
3240 280 Pls
3241 280 Pls
3242 280 Pls
3243 280 Pls
3245 280 Pls
3246 280 Pls
3247 280 Pls
3248 280 Pls
3250 280 Pls
3251 280 Pls
3252 280 Pls
3253 280 Pls
3255 280 Pls
3256 280 Pls
3257 280 Pls
3258 280 Pls
3259 280 Pls
3261 280 Pls
3262 280 Pls
3263 280 Pls
3264 280 Pls
3265 280 Pls
3267 280 Pls
3268 280 Pls
3269 280 Pls
3270 280 Pls
3271 280 Pls
3272 280 Pls
3274 280 Pls
3275 280 Pls
3276 280 Pls
3277 280 Pls
3278 280 Pls
3279 280 Pls
3281 280 Pls
3282 280 Pls
3283 280 Pls
3284 280 Pls
3285 280 Pls
3286 280 Pls
3287 280 Pls
3288 280 Pls
3290 280 Pls
3291 280 Pls
3292 280 Pls
3293 280 Pls
3294 280 Pls
3295 280 Pls
3296 280 Pls
3297 280 Pls
3298 280 Pls
3299 280 Pls
3300 280 Pls
3302 280 Pls
3303 280 Pls
3304 280 Pls
3305 280 Pls
3306 280 Pls
3307 280 Pls
3308 280 Pls
3309 280 Pls
3310 280 Pls
3311 280 Pls
3312 280 Pls
3313 280 Pls
3314 280 Pls
3315 280 Pls
3316 280 Pls
3317 280 Pls
3318 280 Pls
3319 280 Pls
3320 280 Pls
3321 280 Pls
3323 280 Pls
3324 280 Pls
3325 280 Pls
3326 280 Pls
3327 280 Pls
3328 280 Pls
3329 280 Pls
3330 280 Pls
3331 280 Pls
3332 280 Pls
3333 280 Pls
3334 280 Pls
3335 280 Pls
3336 280 Pls
3337 280 Pls
3338 280 Pls
3338 280 Pls
3339 280 Pls
3340 280 Pls
3341 280 Pls
3342 280 Pls
3343 280 Pls
3344 280 Pls
3345 280 Pls
3346 280 Pls
3347 280 Pls
3348 280 Pls
3349 280 Pls
3350 280 Pls
3351 280 Pls
3352 280 Pls
3353 280 Pls
3354 280 Pls
3355 280 Pls
3356 280 Pls
3357 280 Pls
3358 280 Pls
3359 280 Pls
3359 280 Pls
3360 280 Pls
3361 280 Pls
3362 280 Pls
3363 280 Pls
3364 280 Pls
3365 280 Pls
3366 280 Pls
3367 280 Pls
3368 280 Pls
3369 280 Pls
3369 280 Pls
3370 280 Pls
3371 280 Pls
3372 280 Pls
3373 280 Pls
3374 280 Pls
3375 280 Pls
3376 280 Pls
3377 280 Pls
3378 280 Pls
3378 280 Pls
3379 280 Pls
3380 280 Pls
3381 280 Pls
3382 280 Pls
3383 280 Pls
3384 280 Pls
3385 280 Pls
3385 280 Pls
3386 280 Pls
3387 280 Pls
3388 280 Pls
3389 280 Pls
3390 280 Pls
3391 280 Pls
3391 280 Pls
3392 280 Pls
3393 280 Pls
3394 280 Pls
3395 280 Pls
3396 280 Pls
3396 280 Pls
3397 280 Pls
3398 280 Pls
3399 280 Pls
3400 280 Pls
3401 280 Pls
3401 280 Pls
3402 280 Pls
3403 280 Pls
3404 280 Pls
3405 280 Pls
3406 280 Pls
3406 280 Pls
3407 280 Pls
3408 280 Pls
3409 280 Pls
3410 280 Pls
3410 280 Pls
3411 280 Pls
3412 280 Pls
3413 280 Pls
3414 280 Pls
3415 280 Pls
3415 280 Pls
3416 280 Pls
3417 280 Pls
3418 280 Pls
3419 280 Pls
3419 280 Pls
3420 280 Pls
3421 280 Pls
3422 280 Pls
3422 280 Pls
3423 280 Pls
3424 280 Pls
3425 280 Pls
3426 280 Pls
3426 280 Pls
3427 280 Pls
3428 280 Pls
3429 280 Pls
3429 280 Pls
3430 280 Pls
3431 280 Pls
3432 280 Pls
3433 280 Pls
3433 280 Pls
3434 280 Pls
3435 280 Pls
3436 280 Pls
3436 280 Pls
3437 280 Pls
3438 280 Pls
3439 280 Pls
3439 280 Pls
3440 280 Pls
3441 280 Pls
3442 280 Pls
3442 280 Pls
3443 280 Pls
3444 280 Pls
3445 280 Pls
3445 280 Pls
3446 280 Pls
3447 280 Pls
3448 280 Pls
3448 280 Pls
3449 280 Pls
3450 280 Pls
3450 280 Pls
3451 280 Pls
3452 280 Pls
3453 280 Pls
3453 280 Pls
3454 280 Pls
3455 280 Pls
3456 280 Pls
3456 280 Pls
3457 280 Pls
3458 280 Pls
3458 280 Pls
3459 280 Pls
3460 280 Pls
3461 280 Pls
3461 280 Pls
3462 280 Pls
3463 280 Pls
3463 280 Pls
3464 280 Pls
3465 280 Pls
3465 280 Pls
3466 280 Pls
3467 280 Pls
3468 280 Pls
3468 280 Pls
3469 280 Pls
3470 280 Pls
3470 280 Pls
3471 280 Pls
3472 280 Pls
3472 280 Pls
3473 280 Pls
3474 280 Pls
3474 280 Pls
3475 280 Pls
3476 280 Pls
3477 280 Pls
3477 280 Pls
3478 280 Pls
3479 280 Pls
3479 280 Pls
3480 280 Pls
3481 280 Pls
3481 280 Pls
3482 280 Pls
3483 280 Pls
3483 280 Pls
3484 280 Pls
3485 280 Pls
3485 280 Pls
3486 280 Pls
3487 280 Pls
3487 280 Pls
3488 280 Pls
3489 280 Pls
3489 280 Pls
3490 280 Pls
3491 280 Pls
3491 280 Pls
3492 280 Pls
3493 280 Pls
3493 280 Pls
3494 280 Pls
3494 280 Pls
3495 280 Pls
3496 280 Pls
3496 280 Pls
3497 280 Pls
3498 280 Pls
3498 280 Pls
3499 280 Pls
3500 280 Pls
3500 280 Pls
3501 280 Pls
3502 280 Pls
3502 280 Pls
3503 280 Pls
3503 280 Pls
3504 280 Pls
3505 280 Pls
3505 280 Pls
3506 280 Pls
3507 280 Pls
3507 280 Pls
3508 280 Pls
3509 280 Pls
3509 280 Pls
3510 280 Pls
3510 280 Pls
3511 280 Pls
3512 280 Pls
3512 280 Pls
3513 280 Pls
3513 280 Pls
3514 280 Pls
3515 280 Pls
3515 280 Pls
3516 280 Pls
3517 280 Pls
3517 280 Pls
3518 280 Pls
3518 280 Pls
3519 280 Pls
3520 280 Pls
3520 280 Pls
3521 280 Pls
3521 280 Pls
3522 280 Pls
3523 280 Pls
3523 280 Pls
3524 280 Pls
3524 280 Pls
3525 280 Pls
3526 280 Pls
3526 280 Pls
3527 280 Pls
3527 280 Pls
3528 280 Pls
3529 280 Pls
3529 280 Pls
3530 280 Pls
3530 280 Pls
3531 280 Pls
3532 280 Pls
3532 280 Pls
3533 280 Pls
3533 280 Pls
3534 280 Pls
3535 280 Pls
3535 280 Pls
3536 280 Pls
3536 280 Pls
3537 280 Pls
3537 280 Pls
3538 280 Pls
3539 280 Pls
3539 280 Pls
3540 280 Pls
3540 280 Pls
3541 280 Pls
3542 280 Pls
3542 280 Pls
3543 280 Pls
3543 280 Pls
3544 280 Pls
3544 280 Pls
3545 280 Pls
3546 280 Pls
3546 280 Pls
3547 280 Pls
3547 280 Pls
3548 280 Pls
3548 280 Pls
3549 280 Pls
3549 280 Pls
3550 280 Pls
3551 280 Pls
3551 280 Pls
3552 280 Pls
3552 280 Pls
3553 280 Pls
3553 280 Pls
3554 280 Pls
3554 280 Pls
3555 280 Pls
3556 280 Pls
3556 280 Pls
3557 280 Pls
3557 280 Pls
3558 280 Pls
3558 280 Pls
3559 280 Pls
3559 280 Pls
3560 280 Pls
3561 280 Pls
3561 280 Pls
3562 280 Pls
3562 280 Pls
3563 280 Pls
3563 280 Pls
3564 280 Pls
3564 280 Pls
3565 280 Pls
3565 280 Pls
3566 280 Pls
3567 280 Pls
3567 280 Pls
3568 280 Pls
3568 280 Pls
3569 280 Pls
3569 280 Pls
3570 280 Pls
3570 280 Pls
3571 280 Pls
3571 280 Pls
3572 280 Pls
3572 280 Pls
3573 280 Pls
3573 280 Pls
3574 280 Pls
3575 280 Pls
3575 280 Pls
3576 280 Pls
3576 280 Pls
3577 280 Pls
3577 280 Pls
3578 280 Pls
3578 280 Pls
3579 280 Pls
3579 280 Pls
3580 280 Pls
3580 280 Pls
3581 280 Pls
3581 280 Pls
3582 280 Pls
3582 280 Pls
3583 280 Pls
3583 280 Pls
3584 280 Pls
3584 280 Pls
3585 280 Pls
3585 280 Pls
3586 280 Pls
3586 280 Pls
3587 280 Pls
3587 280 Pls
3588 280 Pls
3588 280 Pls
3589 280 Pls
3589 280 Pls
3590 280 Pls
3591 280 Pls
3591 280 Pls
3592 280 Pls
3592 280 Pls
3593 280 Pls
3593 280 Pls
3594 280 Pls
3594 280 Pls
3595 280 Pls
3595 280 Pls
3596 280 Pls
3596 280 Pls
3597 280 Pls
3597 280 Pls
3598 280 Pls
3598 280 Pls
3599 280 Pls
3599 280 Pls
3599 280 Pls
3600 280 Pls
3600 280 Pls
3601 280 Pls
3601 280 Pls
3602 280 Pls
3602 280 Pls
3603 280 Pls
3603 280 Pls
3604 280 Pls
3604 280 Pls
3605 280 Pls
3605 280 Pls
3606 280 Pls
3606 280 Pls
3607 280 Pls
3607 280 Pls
3608 280 Pls
3608 280 Pls
3609 280 Pls
3609 280 Pls
3610 280 Pls
3610 280 Pls
3611 280 Pls
3611 280 Pls
3612 280 Pls
3612 280 Pls
3613 280 Pls
3613 280 Pls
3614 280 Pls
3614 280 Pls
3614 280 Pls
3615 280 Pls
3615 280 Pls
3616 280 Pls
3616 280 Pls
3617 280 Pls
3617 280 Pls
3618 280 Pls
3618 280 Pls
3619 280 Pls
3619 280 Pls
3620 280 Pls
3620 280 Pls
3621 280 Pls
3621 280 Pls
3622 280 Pls
3622 280 Pls
3622 280 Pls
3623 280 Pls
3623 280 Pls
3624 280 Pls
3624 280 Pls
3625 280 Pls
3625 280 Pls
3626 280 Pls
3626 280 Pls
3627 280 Pls
3627 280 Pls
3628 280 Pls
3628 280 Pls
3628 280 Pls
3629 280 Pls
3629 280 Pls
3630 280 Pls
3630 280 Pls
3631 280 Pls
3631 280 Pls
3632 280 Pls
3632 280 Pls
3633 280 Pls
3633 280 Pls
3633 280 Pls
3634 280 Pls
3634 280 Pls
3635 280 Pls
3635 280 Pls
3636 280 Pls
3636 280 Pls
3637 280 Pls
3637 280 Pls
3638 280 Pls
3638 280 Pls
3638 280 Pls
3639 280 Pls
3639 280 Pls
3640 280 Pls
3640 280 Pls
3641 280 Pls
3641 280 Pls
3642 280 Pls
3642 280 Pls
3642 280 Pls
3643 280 Pls
3644 280 Pls
3644 280 Pls
3645 280 Pls
3645 280 Pls
3645 280 Pls
3646 280 Pls
3646 280 Pls
3647 280 Pls
3648 280 Pls
3648 280 Pls
3649 280 Pls
3649 280 Pls
3649 280 Pls
3650 280 Pls
3650 280 Pls
3651 280 Pls
3651 280 Pls
3652 280 Pls
3652 280 Pls
3652 280 Pls
3653 280 Pls
3653 280 Pls
3654 280 Pls
3654 280 Pls
3655 280 Pls
3655 280 Pls
3655 280 Pls
3656 280 Pls
3656 280 Pls
3657 280 Pls
3657 280 Pls
3658 280 Pls
3658 280 Pls
3658 280 Pls
3659 280 Pls
3659 280 Pls
3660 280 Pls
3660 280 Pls
3660 280 Pls
3661 280 Pls
3661 280 Pls
3662 280 Pls
3662 280 Pls
3663 280 Pls
3663 280 Pls
3663 280 Pls
3664 280 Pls
3664 280 Pls
3665 280 Pls
3665 280 Pls
3665 280 Pls
3666 280 Pls
3666 280 Pls
3667 280 Pls
3667 280 Pls
3668 280 Pls
3668 280 Pls
3668 280 Pls
3669 280 Pls
3669 280 Pls
3670 280 Pls
3670 280 Pls
3670 280 Pls
3671 280 Pls
3671 280 Pls
3672 280 Pls
3672 280 Pls
3672 280 Pls
3673 280 Pls
3673 280 Pls
3674 280 Pls
3674 280 Pls
3675 280 Pls
3675 280 Pls
3675 280 Pls
3676 280 Pls
3676 280 Pls
3677 280 Pls
3677 280 Pls
3677 280 Pls
3678 280 Pls
3678 280 Pls
3679 280 Pls
3679 280 Pls
3679 280 Pls
3680 280 Pls
3680 280 Pls
3681 280 Pls
3681 280 Pls
3681 280 Pls
3682 280 Pls
3682 280 Pls
3683 280 Pls
3683 280 Pls
3683 280 Pls
3684 280 Pls
3684 280 Pls
3685 280 Pls
3685 280 Pls
3685 280 Pls
3686 280 Pls
3686 280 Pls
3686 280 Pls
3687 280 Pls
3687 280 Pls
3688 280 Pls
3688 280 Pls
3688 280 Pls
3689 280 Pls
3689 280 Pls
3690 280 Pls
3690 280 Pls
3690 280 Pls
3691 280 Pls
3691 280 Pls
3692 280 Pls
3692 280 Pls
3692 280 Pls
3693 280 Pls
3693 280 Pls
3693 280 Pls
3694 280 Pls
3694 280 Pls
3695 280 Pls
3695 280 Pls
3695 280 Pls
3696 280 Pls
3696 280 Pls
3697 280 Pls
3697 280 Pls
3697 280 Pls
3698 280 Pls
3698 280 Pls
3698 280 Pls
3699 280 Pls
3699 280 Pls
3700 280 Pls
3700 280 Pls
3700 280 Pls
3701 280 Pls
3701 280 Pls
3702 280 Pls
3702 280 Pls
3702 280 Pls
3703 280 Pls
3703 280 Pls
3703 280 Pls
3704 280 Pls
3704 280 Pls
3705 280 Pls
3705 280 Pls
3705 280 Pls
3706 280 Pls
3706 280 Pls
3706 280 Pls
3707 280 Pls
3707 280 Pls
3708 280 Pls
3708 280 Pls
3708 280 Pls
3709 280 Pls
3709 280 Pls
3709 280 Pls
3710 280 Pls
3710 280 Pls
3710 280 Pls
3711 280 Pls
3711 280 Pls
3712 280 Pls
3712 280 Pls
3712 280 Pls
3713 280 Pls
3713 280 Pls
3713 280 Pls
3714 280 Pls
3714 280 Pls
3715 280 Pls
3715 280 Pls
3715 280 Pls
3716 280 Pls
3716 280 Pls
3716 280 Pls
3717 280 Pls
3717 280 Pls
3717 280 Pls
3718 280 Pls
3718 280 Pls
3719 280 Pls
3719 280 Pls
3719 280 Pls
3720 280 Pls
3720 280 Pls
3721 280 Pls
3721 280 Pls
3721 280 Pls
3722 280 Pls
3722 280 Pls
3722 280 Pls
3723 280 Pls
3724 280 Pls
3724 280 Pls
3725 280 Pls
3725 280 Pls
3725 280 Pls
3726 280 Pls
3726 280 Pls
3726 280 Pls
3727 280 Pls
3727 280 Pls
3727 280 Pls
3728 280 Pls
3728 280 Pls
3728 280 Pls
3729 280 Pls
3729 280 Pls
3730 280 Pls
3730 280 Pls
3730 280 Pls
3731 280 Pls
3731 280 Pls
3731 280 Pls
3732 280 Pls
3732 280 Pls
3732 280 Pls
3733 280 Pls
3733 280 Pls
3733 280 Pls
3734 280 Pls
3734 280 Pls
3734 280 Pls
3735 280 Pls
3735 280 Pls
3735 280 Pls
3736 280 Pls
3736 280 Pls
3736 280 Pls
3737 280 Pls
3737 280 Pls
3738 280 Pls
3738 280 Pls
3739 280 Pls
3739 280 Pls
3739 280 Pls
3740 280 Pls
3740 280 Pls
3741 280 Pls
3741 280 Pls
3742 280 Pls
3742 280 Pls
3743 280 Pls
3743 280 Pls
3744 280 Pls
3744 280 Pls
3744 280 Pls
3745 280 Pls
3745 280 Pls
3746 280 Pls
3746 280 Pls
3746 280 Pls
3747 280 Pls
3747 280 Pls
3747 280 Pls
3748 280 Pls
3749 280 Pls
3749 280 Pls
3749 280 Pls
3750 280 Pls
3750 280 Pls
3750 280 Pls
3751 280 Pls
3751 280 Pls
3751 280 Pls
3752 280 Pls
3752 280 Pls
3752 280 Pls
3753 280 Pls
3753 280 Pls
3753 280 Pls
3754 280 Pls
3754 280 Pls
3755 280 Pls
3755 280 Pls
3755 280 Pls
3756 280 Pls
3756 280 Pls
3756 280 Pls
3757 280 Pls
3757 280 Pls
3757 280 Pls
3758 280 Pls
3758 280 Pls
3759 280 Pls
3759 280 Pls
3759 280 Pls
3760 280 Pls
3760 280 Pls
3760 280 Pls
3761 280 Pls
3761 280 Pls
3761 280 Pls
3762 280 Pls
3762 280 Pls
3762 280 Pls
3762 280 Pls
3763 280 Pls
3763 280 Pls
3763 280 Pls
3764 280 Pls
3764 280 Pls
3764 280 Pls
3765 280 Pls
3765 280 Pls
3765 280 Pls
3766 280 Pls
3766 280 Pls
3767 280 Pls
3767 280 Pls
3767 280 Pls
3768 280 Pls
3768 280 Pls
3768 280 Pls
3769 280 Pls
3769 280 Pls
3769 280 Pls
3769 280 Pls
3770 280 Pls
3770 280 Pls
3770 280 Pls
3771 280 Pls
3771 280 Pls
3772 280 Pls
3772 280 Pls
3773 280 Pls
3773 280 Pls
3773 280 Pls
3774 280 Pls
3774 280 Pls
3774 280 Pls
3775 280 Pls
3775 280 Pls
3775 280 Pls
3775 280 Pls
3776 280 Pls
3777 280 Pls
3777 280 Pls
3778 280 Pls
3778 280 Pls
3779 280 Pls
3779 280 Pls
3779 280 Pls
3779 280 Pls
3780 280 Pls
3780 280 Pls
3781 280 Pls
3781 280 Pls
3782 280 Pls
3782 280 Pls
3782 280 Pls
3783 280 Pls
3783 280 Pls
3783 280 Pls
3783 280 Pls
3784 280 Pls
3784 280 Pls
3785 280 Pls
3785 280 Pls
3785 280 Pls
3786 280 Pls
3786 280 Pls
3786 280 Pls
3787 280 Pls
3787 280 Pls
3787 280 Pls
3788 280 Pls
3788 280 Pls
3788 280 Pls
3789 280 Pls
3789 280 Pls
3789 280 Pls
3790 280 Pls
3790 280 Pls
3790 280 Pls
3790 280 Pls
3791 280 Pls
3791 280 Pls
3791 280 Pls
3792 280 Pls
3792 280 Pls
3793 280 Pls
3793 280 Pls
3793 280 Pls
3794 280 Pls
3794 280 Pls
3795 280 Pls
3795 280 Pls
3795 280 Pls
3796 280 Pls
3796 280 Pls
3796 280 Pls
3797 280 Pls
3797 280 Pls
3797 280 Pls
3798 280 Pls
3798 280 Pls
3798 280 Pls
3799 280 Pls
3799 280 Pls
3799 280 Pls
3800 280 Pls
3800 280 Pls
3800 280 Pls
3801 280 Pls
3801 280 Pls
3801 280 Pls
3802 280 Pls
3802 280 Pls
3802 280 Pls
3802 280 Pls
3803 280 Pls
3803 280 Pls
3803 280 Pls
3804 280 Pls
3804 280 Pls
3805 280 Pls
3805 280 Pls
3805 280 Pls
3806 280 Pls
3806 280 Pls
3806 280 Pls
3807 280 Pls
3807 280 Pls
3808 280 Pls
3808 280 Pls
3808 280 Pls
3809 280 Pls
3809 280 Pls
3809 280 Pls
3810 280 Pls
3810 280 Pls
3810 280 Pls
3811 280 Pls
3811 280 Pls
3811 280 Pls
3812 280 Pls
3812 280 Pls
3812 280 Pls
3812 280 Pls
3813 280 Pls
3813 280 Pls
3813 280 Pls
3814 280 Pls
3814 280 Pls
3814 280 Pls
3814 280 Pls
3815 280 Pls
3815 280 Pls
3815 280 Pls
3816 280 Pls
3816 280 Pls
3816 280 Pls
3816 280 Pls
3817 280 Pls
3817 280 Pls
3818 280 Pls
3818 280 Pls
3818 280 Pls
3818 280 Pls
3819 280 Pls
3819 280 Pls
3819 280 Pls
3819 280 Pls
3820 280 Pls
3820 280 Pls
3821 280 Pls
3821 280 Pls
3821 280 Pls
3821 280 Pls
3822 280 Pls
3822 280 Pls
3822 280 Pls
3823 280 Pls
3823 280 Pls
3823 280 Pls
3824 280 Pls
3824 280 Pls
3824 280 Pls
3824 280 Pls
3825 280 Pls
3825 280 Pls
3825 280 Pls
3826 280 Pls
3826 280 Pls
3826 280 Pls
3827 280 Pls
3827 280 Pls
3827 280 Pls
3827 280 Pls
3828 280 Pls
3828 280 Pls
3829 280 Pls
3829 280 Pls
3830 280 Pls
3831 280 Pls
3831 280 Pls
3831 280 Pls
3831 280 Pls
3832 280 Pls
3832 280 Pls
3832 280 Pls
3833 280 Pls
3833 280 Pls
3833 280 Pls
3834 280 Pls
3834 280 Pls
3834 280 Pls
3835 280 Pls
3835 280 Pls
3835 280 Pls
3836 280 Pls
3836 280 Pls
3836 280 Pls
3836 280 Pls
3837 280 Pls
3837 280 Pls
3837 280 Pls
3837 280 Pls
3838 280 Pls
3838 280 Pls
3838 280 Pls
3839 280 Pls
3839 280 Pls
3840 280 Pls
3840 280 Pls
3841 280 Pls
3841 280 Pls
3841 280 Pls
3841 280 Pls
3842 280 Pls
3842 280 Pls
3842 280 Pls
3842 280 Pls
3843 280 Pls
3843 280 Pls
3843 280 Pls
3844 280 Pls
3844 280 Pls
3844 280 Pls
3844 280 Pls
3845 280 Pls
3845 280 Pls
3845 280 Pls
3845 280 Pls
3846 280 Pls
3847 280 Pls
3847 280 Pls
3847 280 Pls
3848 280 Pls
3848 280 Pls
3849 280 Pls
3849 280 Pls
3849 280 Pls
3850 280 Pls
3850 280 Pls
3850 280 Pls
3850 280 Pls
3851 280 Pls
3851 280 Pls
3851 280 Pls
3852 280 Pls
3852 280 Pls
3853 280 Pls
3853 280 Pls
3853 280 Pls
3854 280 Pls
3854 280 Pls
3854 280 Pls
3854 280 Pls
3855 280 Pls
3855 280 Pls
3855 280 Pls
3856 280 Pls
3856 280 Pls
3856 280 Pls
3857 280 Pls
3857 280 Pls
3857 280 Pls
3858 280 Pls
3858 280 Pls
3859 280 Pls
3859 280 Pls
3859 280 Pls
3860 280 Pls
3860 280 Pls
3860 280 Pls
3861 280 Pls
3861 280 Pls
3862 280 Pls
3862 280 Pls
3862 280 Pls
3862 280 Pls
3863 280 Pls
3863 280 Pls
3864 280 Pls
3864 280 Pls
3864 280 Pls
3864 280 Pls
3865 280 Pls
3865 280 Pls
3865 280 Pls
3866 280 Pls
3866 280 Pls
3866 280 Pls
3867 280 Pls
3867 280 Pls
3867 280 Pls
3868 280 Pls
3868 280 Pls
3868 280 Pls
3868 280 Pls
3869 280 Pls
3869 280 Pls
3870 280 Pls
3870 280 Pls
3870 280 Pls
3870 280 Pls
3871 280 Pls
3871 280 Pls
3872 280 Pls
3872 280 Pls
3872 280 Pls
3872 280 Pls
3872 280 Pls
3873 280 Pls
3873 280 Pls
3873 280 Pls
3874 280 Pls
3874 280 Pls
3874 280 Pls
3875 280 Pls
3875 280 Pls
3876 280 Pls
3876 280 Pls
3876 280 Pls
3876 280 Pls
3877 280 Pls
3878 280 Pls
3878 280 Pls
3878 280 Pls
3878 280 Pls
3879 280 Pls
3879 280 Pls
3879 280 Pls
3880 280 Pls
3880 280 Pls
3880 280 Pls
3881 280 Pls
3881 280 Pls
3881 280 Pls
3882 280 Pls
3882 280 Pls
3882 280 Pls
3882 280 Pls
3883 280 Pls
3883 280 Pls
3884 280 Pls
3884 280 Pls
3884 280 Pls
3884 280 Pls
3885 280 Pls
3885 280 Pls
3885 280 Pls
3886 280 Pls
3886 280 Pls
3886 280 Pls
3886 280 Pls
3887 280 Pls
3887 280 Pls
3887 280 Pls
3887 280 Pls
3888 280 Pls
3889 280 Pls
3889 280 Pls
3889 280 Pls
3889 280 Pls
3889 280 Pls
3890 280 Pls
3890 280 Pls
3890 280 Pls
3891 280 Pls
3891 280 Pls
3891 280 Pls
3891 280 Pls
3892 280 Pls
3892 280 Pls
3893 280 Pls
3893 280 Pls
3893 280 Pls
3894 280 Pls
3894 280 Pls
3894 280 Pls
3895 280 Pls
3895 280 Pls
3896 280 Pls
3896 280 Pls
3896 280 Pls
3897 280 Pls
3897 280 Pls
3897 280 Pls
3897 280 Pls
3897 280 Pls
3898 280 Pls
3898 280 Pls
3899 280 Pls
3899 280 Pls
3899 280 Pls
3899 280 Pls
3900 280 Pls
3900 280 Pls
3900 280 Pls
3900 280 Pls
3901 280 Pls
3901 280 Pls
3901 280 Pls
3901 280 Pls
3902 280 Pls
3902 280 Pls
3902 280 Pls
3902 280 Pls
3903 280 Pls
3903 280 Pls
3903 280 Pls
3904 280 Pls
3904 280 Pls
3904 280 Pls
3905 280 Pls
3905 280 Pls
3905 280 Pls
3905 280 Pls
3906 280 Pls
3906 280 Pls
3906 280 Pls
3906 280 Pls
3907 280 Pls
3907 280 Pls
3907 280 Pls
3907 280 Pls
3908 280 Pls
3908 280 Pls
3908 280 Pls
3909 280 Pls
3909 280 Pls
3909 280 Pls
3909 280 Pls
3910 280 Pls
3910 280 Pls
3910 280 Pls
3910 280 Pls
3911 280 Pls
3911 280 Pls
3911 280 Pls
3912 280 Pls
3912 280 Pls
3913 280 Pls
3913 280 Pls
3913 280 Pls
3913 280 Pls
3914 280 Pls
3914 280 Pls
3914 280 Pls
3915 280 Pls
3915 280 Pls
3915 280 Pls
3915 280 Pls
3916 280 Pls
3917 280 Pls
3917 280 Pls
3917 280 Pls
3918 280 Pls
3918 280 Pls
3919 280 Pls
3919 280 Pls
3919 280 Pls
3919 280 Pls
3919 280 Pls
3920 280 Pls
3920 280 Pls
3920 280 Pls
3921 280 Pls
3921 280 Pls
3922 280 Pls
3922 280 Pls
3922 280 Pls
3922 280 Pls
3922 280 Pls
3923 280 Pls
3923 280 Pls
3923 280 Pls
3923 280 Pls
3924 280 Pls
3924 280 Pls
3924 280 Pls
3924 280 Pls
3925 280 Pls
3925 280 Pls
3925 280 Pls
3926 280 Pls
3926 280 Pls
3926 280 Pls
3927 280 Pls
3927 280 Pls
3927 280 Pls
3927 280 Pls
3928 280 Pls
3928 280 Pls
3928 280 Pls
3929 280 Pls
3929 280 Pls
3929 280 Pls
3929 280 Pls
3930 280 Pls
3931 280 Pls
3932 280 Pls
3932 280 Pls
3932 280 Pls
3932 280 Pls
3933 280 Pls
3933 280 Pls
3934 280 Pls
3934 280 Pls
3934 280 Pls
3934 280 Pls
3934 280 Pls
3935 280 Pls
3935 280 Pls
3935 280 Pls
3936 280 Pls
3936 280 Pls
3937 280 Pls
3937 280 Pls
3937 280 Pls
3937 280 Pls
3937 280 Pls
3938 280 Pls
3938 280 Pls
3938 280 Pls
3939 280 Pls
3939 280 Pls
3939 280 Pls
3940 280 Pls
3940 280 Pls
3940 280 Pls
3941 280 Pls
3941 280 Pls
3942 280 Pls
3942 280 Pls
3942 280 Pls
3942 280 Pls
3942 280 Pls
3943 280 Pls
3943 280 Pls
3944 280 Pls
3944 280 Pls
3945 280 Pls
3945 280 Pls
3946 280 Pls
3947 280 Pls
3947 280 Pls
3947 280 Pls
3948 280 Pls
3948 280 Pls
3948 280 Pls
3949 280 Pls
3949 280 Pls
3949 280 Pls
3949 280 Pls
3949 280 Pls
3951 280 Pls
3951 280 Pls
3952 280 Pls
3953 280 Pls
3953 280 Pls
3954 280 Pls
3954 280 Pls
3954 280 Pls
3954 280 Pls
3955 280 Pls
3955 280 Pls
3955 280 Pls
3955 280 Pls
3956 280 Pls
3956 280 Pls
3956 280 Pls
3956 280 Pls
3956 280 Pls
3957 280 Pls
3957 280 Pls
3957 280 Pls
3958 280 Pls
3958 280 Pls
3958 280 Pls
3959 280 Pls
3960 280 Pls
3960 280 Pls
3960 280 Pls
3961 280 Pls
3961 280 Pls
3962 280 Pls
3962 280 Pls
3962 280 Pls
3962 280 Pls
3962 280 Pls
3963 280 Pls
3963 280 Pls
3964 280 Pls
3964 280 Pls
3964 280 Pls
3965 280 Pls
3965 280 Pls
3965 280 Pls
3966 280 Pls
3966 280 Pls
3966 280 Pls
3967 280 Pls
3967 280 Pls
3967 280 Pls
3967 280 Pls
3968 280 Pls
3968 280 Pls
3968 280 Pls
3968 280 Pls
3968 280 Pls
3969 280 Pls
3969 280 Pls
3969 280 Pls
3970 280 Pls
3970 280 Pls
3970 280 Pls
3970 280 Pls
3971 280 Pls
3972 280 Pls
3972 280 Pls
3972 280 Pls
3972 280 Pls
3973 280 Pls
3973 280 Pls
3973 280 Pls
3974 280 Pls
3974 280 Pls
3975 280 Pls
3975 280 Pls
3976 280 Pls
3976 280 Pls
3976 280 Pls
3976 280 Pls
3977 280 Pls
3978 280 Pls
3978 280 Pls
3979 280 Pls
3980 280 Pls
3980 280 Pls
3980 280 Pls
3980 280 Pls
3980 280 Pls
3981 280 Pls
3981 280 Pls
3981 280 Pls
3982 280 Pls
3982 280 Pls
3982 280 Pls
3983 280 Pls
3983 280 Pls
3983 280 Pls
3984 280 Pls
3984 280 Pls
3984 280 Pls
3985 280 Pls
3985 280 Pls
3985 280 Pls
3985 280 Pls
3986 280 Pls
3986 280 Pls
3986 280 Pls
3986 280 Pls
3987 280 Pls
3987 280 Pls
3987 280 Pls
3988 280 Pls
3988 280 Pls
3988 280 Pls
3988 280 Pls
3989 280 Pls
3989 280 Pls
3990 280 Pls
3990 280 Pls
3990 280 Pls
3990 280 Pls
3990 280 Pls
3991 280 Pls
3991 280 Pls
3991 280 Pls
3992 280 Pls
3992 280 Pls
3992 280 Pls
3993 280 Pls
3993 280 Pls
3993 280 Pls
3993 280 Pls
3993 280 Pls
3994 280 Pls
3994 280 Pls
3994 280 Pls
3994 280 Pls
3995 280 Pls
3996 280 Pls
3996 280 Pls
3996 280 Pls
3996 280 Pls
3996 280 Pls
3997 280 Pls
3997 280 Pls
3997 280 Pls
3998 280 Pls
3999 280 Pls
3999 280 Pls
3999 280 Pls
3999 280 Pls
4000 280 Pls
4000 280 Pls
4000 280 Pls
4000 280 Pls
4001 280 Pls
4001 280 Pls
4001 280 Pls
4001 280 Pls
4002 280 Pls
4002 280 Pls
4002 280 Pls
4002 280 Pls
4003 280 Pls
4003 280 Pls
4003 280 Pls
4004 280 Pls
4004 280 Pls
4004 280 Pls
4004 280 Pls
4005 280 Pls
4005 280 Pls
4005 280 Pls
4005 280 Pls
4005 280 Pls
4006 280 Pls
4007 280 Pls
4007 280 Pls
4007 280 Pls
4007 280 Pls
4007 280 Pls
4008 280 Pls
4008 280 Pls
4008 280 Pls
4008 280 Pls
4008 280 Pls
4009 280 Pls
4009 280 Pls
4009 280 Pls
4009 280 Pls
4010 280 Pls
4010 280 Pls
4010 280 Pls
4010 280 Pls
4011 280 Pls
4011 280 Pls
4011 280 Pls
4011 280 Pls
4012 280 Pls
4012 280 Pls
4012 280 Pls
4013 280 Pls
4013 280 Pls
4013 280 Pls
4014 280 Pls
4014 280 Pls
4014 280 Pls
4015 280 Pls
4015 280 Pls
4015 280 Pls
4016 280 Pls
4016 280 Pls
4016 280 Pls
4017 280 Pls
4017 280 Pls
4018 280 Pls
4018 280 Pls
4018 280 Pls
4019 280 Pls
4019 280 Pls
4020 280 Pls
4020 280 Pls
4020 280 Pls
4021 280 Pls
4021 280 Pls
4021 280 Pls
4022 280 Pls
4022 280 Pls
4023 280 Pls
4023 280 Pls
4023 280 Pls
4024 280 Pls
4024 280 Pls
4024 280 Pls
4025 280 Pls
4025 280 Pls
4025 280 Pls
4026 280 Pls
4026 280 Pls
4027 280 Pls
4027 280 Pls
4027 280 Pls
4027 280 Pls
4028 280 Pls
4028 280 Pls
4029 280 Pls
4029 280 Pls
4029 280 Pls
4029 280 Pls
4029 280 Pls
4030 280 Pls
4030 280 Pls
4031 280 Pls
4031 280 Pls
4031 280 Pls
4031 280 Pls
4031 280 Pls
4032 280 Pls
4032 280 Pls
4032 280 Pls
4033 280 Pls
4033 280 Pls
4033 280 Pls
4033 280 Pls
4033 280 Pls
4034 280 Pls
4035 280 Pls
4036 280 Pls
4036 280 Pls
4037 280 Pls
4037 280 Pls
4037 280 Pls
4038 280 Pls
4038 280 Pls
4038 280 Pls
4038 280 Pls
4038 280 Pls
4039 280 Pls
4039 280 Pls
4039 280 Pls
4039 280 Pls
4039 280 Pls
4040 280 Pls
4040 280 Pls
4040 280 Pls
4040 280 Pls
4040 280 Pls
4041 280 Pls
4041 280 Pls
4041 280 Pls
4041 280 Pls
4042 280 Pls
4042 280 Pls
4043 280 Pls
4043 280 Pls
4043 280 Pls
4044 280 Pls
4044 280 Pls
4046 280 Pls
4046 280 Pls
4047 280 Pls
4047 280 Pls
4048 280 Pls
4048 280 Pls
4048 280 Pls
4049 280 Pls
4049 280 Pls
4050 280 Pls
4050 280 Pls
4050 280 Pls
4051 280 Pls
4051 280 Pls
4052 280 Pls
4052 280 Pls
4052 280 Pls
4052 280 Pls
4053 280 Pls
4053 280 Pls
4053 280 Pls
4053 280 Pls
4053 280 Pls
4054 280 Pls
4054 280 Pls
4054 280 Pls
4055 280 Pls
4055 280 Pls
4056 280 Pls
4056 280 Pls
4056 280 Pls
4056 280 Pls
4056 280 Pls
4057 280 Pls
4057 280 Pls
4058 280 Pls
4058 280 Pls
4058 280 Pls
4059 280 Pls
4059 280 Pls
4059 280 Pls
4059 280 Pls
4060 280 Pls
4060 280 Pls
4060 280 Pls
4061 280 Pls
4061 280 Pls
4061 280 Pls
4062 280 Pls
4062 280 Pls
4062 280 Pls
4063 280 Pls
4063 280 Pls
4063 280 Pls
4064 280 Pls
4064 280 Pls
4064 280 Pls
4064 280 Pls
4065 280 Pls
4065 280 Pls
4066 280 Pls
4066 280 Pls
4066 280 Pls
4066 280 Pls
4067 280 Pls
4067 280 Pls
4068 280 Pls
4069 280 Pls
4069 280 Pls
4069 280 Pls
4070 280 Pls
4071 280 Pls
4071 280 Pls
4071 280 Pls
4071 280 Pls
4072 280 Pls
4072 280 Pls
4073 280 Pls
4073 280 Pls
4073 280 Pls
4074 280 Pls
4074 280 Pls
4074 280 Pls
4074 280 Pls
4075 280 Pls
4075 280 Pls
4075 280 Pls
4075 280 Pls
4076 280 Pls
4076 280 Pls
4076 280 Pls
4076 280 Pls
4077 280 Pls
4077 280 Pls
4077 280 Pls
4077 280 Pls
4078 280 Pls
4078 280 Pls
4078 280 Pls
4078 280 Pls
4078 280 Pls
4078 280 Pls
4079 280 Pls
4079 280 Pls
4079 280 Pls
4080 280 Pls
4080 280 Pls
4081 280 Pls
4081 280 Pls
4081 280 Pls
4082 280 Pls
4082 280 Pls
4083 280 Pls
4083 280 Pls
4083 280 Pls
4083 280 Pls
4083 280 Pls
4085 280 Pls
4085 280 Pls
4086 280 Pls
4086 280 Pls
4087 280 Pls
4087 280 Pls
4087 280 Pls
4087 280 Pls
4087 280 Pls
4087 280 Pls
4088 280 Pls
4088 280 Pls
4088 280 Pls
4088 280 Pls
4089 280 Pls
4089 280 Pls
4089 280 Pls
4090 280 Pls
4090 280 Pls
4090 280 Pls
4091 280 Pls
4092 280 Pls
4092 280 Pls
4093 280 Pls
4093 280 Pls
4094 280 Pls
4094 280 Pls
4094 280 Pls
4094 280 Pls
4095 280 Pls
4095 280 Pls
4096 280 Pls
4096 280 Pls
4096 280 Pls
4097 280 Pls
4097 280 Pls
4097 280 Pls
4098 280 Pls
4098 280 Pls
4099 280 Pls
4099 280 Pls
4100 280 Pls
4100 280 Pls
4101 280 Pls
4101 280 Pls
4101 280 Pls
4102 280 Pls
4102 280 Pls
4102 280 Pls
4103 280 Pls
4103 280 Pls
4103 280 Pls
4104 280 Pls
4104 280 Pls
4104 280 Pls
4104 280 Pls
4105 280 Pls
4105 280 Pls
4105 280 Pls
4106 280 Pls
4106 280 Pls
4106 280 Pls
4107 280 Pls
4107 280 Pls
4107 280 Pls
4108 280 Pls
4108 280 Pls
4108 280 Pls
4108 280 Pls
4109 280 Pls
4109 280 Pls
4109 280 Pls
4110 280 Pls
4110 280 Pls
4110 280 Pls
4110 280 Pls
4110 280 Pls
4111 280 Pls
4111 280 Pls
4111 280 Pls
4111 280 Pls
4111 280 Pls
4112 280 Pls
4113 280 Pls
4113 280 Pls
4114 280 Pls
4114 280 Pls
4114 280 Pls
4115 280 Pls
4115 280 Pls
4115 280 Pls
4116 280 Pls
4116 280 Pls
4117 280 Pls
4117 280 Pls
4117 280 Pls
4118 280 Pls
4118 280 Pls
4118 280 Pls
4118 280 Pls
4118 280 Pls
4118 280 Pls
4119 280 Pls
4119 280 Pls
4119 280 Pls
4119 280 Pls
4119 280 Pls
4119 280 Pls
4120 280 Pls
4120 280 Pls
4120 280 Pls
4121 280 Pls
4122 280 Pls
4122 280 Pls
4123 280 Pls
4123 280 Pls
4123 280 Pls
4123 280 Pls
4124 280 Pls
4125 280 Pls
4125 280 Pls
4125 280 Pls
4126 280 Pls
4126 280 Pls
4126 280 Pls
4127 280 Pls
4127 280 Pls
4127 280 Pls
4127 280 Pls
4127 280 Pls
4129 280 Pls
4129 280 Pls
4129 280 Pls
4129 280 Pls
4130 280 Pls
4130 280 Pls
4131 280 Pls
4131 280 Pls
4131 280 Pls
4132 280 Pls
4132 280 Pls
4133 280 Pls
4133 280 Pls
4133 280 Pls
4133 280 Pls
4134 280 Pls
4134 280 Pls
4134 280 Pls
4135 280 Pls
4135 280 Pls
4135 280 Pls
4135 280 Pls
4136 280 Pls
4136 280 Pls
4136 280 Pls
4136 280 Pls
4137 280 Pls
4137 280 Pls
4137 280 Pls
4138 280 Pls
4138 280 Pls
4138 280 Pls
4139 280 Pls
4139 280 Pls
4139 280 Pls
4140 280 Pls
4140 280 Pls
4140 280 Pls
4141 280 Pls
4141 280 Pls
4141 280 Pls
4141 280 Pls
4142 280 Pls
4142 280 Pls
4143 280 Pls
4143 280 Pls
4145 280 Pls
4145 280 Pls
4145 280 Pls
4146 280 Pls
4146 280 Pls
4147 280 Pls
4147 280 Pls
4147 280 Pls
4148 280 Pls
4148 280 Pls
4149 280 Pls
4149 280 Pls
4149 280 Pls
4150 280 Pls
4150 280 Pls
4150 280 Pls
4151 280 Pls
4151 280 Pls
4151 280 Pls
4152 280 Pls
4152 280 Pls
4152 280 Pls
4152 280 Pls
4153 280 Pls
4153 280 Pls
4153 280 Pls
4154 280 Pls
4155 280 Pls
4156 280 Pls
4156 280 Pls
4156 280 Pls
4156 280 Pls
4156 280 Pls
4157 280 Pls
4157 280 Pls
4157 280 Pls
4158 280 Pls
4158 280 Pls
4158 280 Pls
4159 280 Pls
4159 280 Pls
4159 280 Pls
4159 280 Pls
4160 280 Pls
4160 280 Pls
4160 280 Pls
4161 280 Pls
4162 280 Pls
4163 280 Pls
4164 280 Pls
4164 280 Pls
4165 280 Pls
4166 280 Pls
4167 280 Pls
4167 280 Pls
4167 280 Pls
4167 280 Pls
4168 280 Pls
4169 280 Pls
4169 280 Pls
4170 280 Pls
4170 280 Pls
4170 280 Pls
4171 280 Pls
4171 280 Pls
4171 280 Pls
4172 280 Pls
4172 280 Pls
4172 280 Pls
4173 280 Pls
4173 280 Pls
4174 280 Pls
4175 280 Pls
4175 280 Pls
4176 280 Pls
4176 280 Pls
4176 280 Pls
4176 280 Pls
4177 280 Pls
4177 280 Pls
4177 280 Pls
4177 280 Pls
4179 280 Pls
4179 280 Pls
4180 280 Pls
4181 280 Pls
4181 280 Pls
4181 280 Pls
4181 280 Pls
4182 280 Pls
4182 280 Pls
4182 280 Pls
4183 280 Pls
4184 280 Pls
4184 280 Pls
4184 280 Pls
4185 280 Pls
4185 280 Pls
4185 280 Pls
4186 280 Pls
4186 280 Pls
4186 280 Pls
4186 280 Pls
4186 280 Pls
4186 280 Pls
4186 280 Pls
4188 280 Pls
4188 280 Pls
4189 280 Pls
4189 280 Pls
4189 280 Pls
4190 280 Pls
4190 280 Pls
4190 280 Pls
4191 280 Pls
4191 280 Pls
4191 280 Pls
4192 280 Pls
4192 280 Pls
4193 280 Pls
4193 280 Pls
4193 280 Pls
4193 280 Pls
4195 280 Pls
4195 280 Pls
4196 280 Pls
4196 280 Pls
4196 280 Pls
4197 280 Pls
4197 280 Pls
4197 280 Pls
4198 280 Pls
4198 280 Pls
4199 280 Pls
4200 280 Pls
4200 280 Pls
4200 280 Pls
4200 280 Pls
4201 280 Pls
4201 280 Pls
4202 280 Pls
4202 280 Pls
4202 280 Pls
4202 280 Pls
4203 280 Pls
4203 280 Pls
4204 280 Pls
4204 280 Pls
4204 280 Pls
4205 280 Pls
4205 280 Pls
4205 280 Pls
4206 280 Pls
4206 280 Pls
4206 280 Pls
4206 280 Pls
4206 280 Pls
4206 280 Pls
4207 280 Pls
4207 280 Pls
4207 280 Pls
4207 280 Pls
4207 280 Pls
4207 280 Pls
4208 280 Pls
4208 280 Pls
4208 280 Pls
4208 280 Pls
4208 280 Pls
4210 280 Pls
4210 280 Pls
4210 280 Pls
4211 280 Pls
4211 280 Pls
4211 280 Pls
4211 280 Pls
4211 280 Pls
4212 280 Pls
4212 280 Pls
4212 280 Pls
4213 280 Pls
4213 280 Pls
4213 280 Pls
4213 280 Pls
4214 280 Pls
4214 280 Pls
4215 280 Pls
4215 280 Pls
4215 280 Pls
4215 280 Pls
4215 280 Pls
4216 280 Pls
4216 280 Pls
4216 280 Pls
4216 280 Pls
4217 280 Pls
4217 280 Pls
4217 280 Pls
4217 280 Pls
4217 280 Pls
4218 280 Pls
4218 280 Pls
4218 280 Pls
4219 280 Pls
4219 280 Pls
4219 280 Pls
4220 280 Pls
4220 280 Pls
4221 280 Pls
4221 280 Pls
4221 280 Pls
4222 280 Pls
4222 280 Pls
4223 280 Pls
4223 280 Pls
4224 280 Pls
4225 280 Pls
4225 280 Pls
4226 280 Pls
4226 280 Pls
4227 280 Pls
4227 280 Pls
4228 280 Pls
4228 280 Pls
4229 280 Pls
4230 280 Pls
4230 280 Pls
4230 280 Pls
4230 280 Pls
4230 280 Pls
4231 280 Pls
4231 280 Pls
4232 280 Pls
4232 280 Pls
4232 280 Pls
4233 280 Pls
4233 280 Pls
4233 280 Pls
4234 280 Pls
4235 280 Pls
4235 280 Pls
4236 280 Pls
4236 280 Pls
4237 280 Pls
4237 280 Pls
4238 280 Pls
4238 280 Pls
4239 280 Pls
4239 280 Pls
4239 280 Pls
4240 280 Pls
4240 280 Pls
4240 280 Pls
4240 280 Pls
4240 280 Pls
4240 280 Pls
4241 280 Pls
4241 280 Pls
4242 280 Pls
4242 280 Pls
4242 280 Pls
4242 280 Pls
4243 280 Pls
4243 280 Pls
4244 280 Pls
4245 280 Pls
4245 280 Pls
4246 280 Pls
4246 280 Pls
4247 280 Pls
4247 280 Pls
4247 280 Pls
4249 280 Pls
4249 280 Pls
4249 280 Pls
4250 280 Pls
4250 280 Pls
4251 280 Pls
4251 280 Pls
4252 280 Pls
4252 280 Pls
4252 280 Pls
4252 280 Pls
4252 280 Pls
4252 280 Pls
4252 280 Pls
4253 280 Pls
4253 280 Pls
4254 280 Pls
4254 280 Pls
4254 280 Pls
4255 280 Pls
4255 280 Pls
4255 280 Pls
4256 280 Pls
4256 280 Pls
4257 280 Pls
4258 280 Pls
4258 280 Pls
4258 280 Pls
4260 280 Pls
4260 280 Pls
4262 280 Pls
4262 280 Pls
4262 280 Pls
4262 280 Pls
4263 280 Pls
4263 280 Pls
4263 280 Pls
4264 280 Pls
4264 280 Pls
4265 280 Pls
4265 280 Pls
4265 280 Pls
4266 280 Pls
4266 280 Pls
4267 280 Pls
4267 280 Pls
4267 280 Pls
4269 280 Pls
4269 280 Pls
4269 280 Pls
4269 280 Pls
4270 280 Pls
4270 280 Pls
4271 280 Pls
4271 280 Pls
4271 280 Pls
4272 280 Pls
4272 280 Pls
4272 280 Pls
4272 280 Pls
4273 280 Pls
4273 280 Pls
4273 280 Pls
4273 280 Pls
4273 280 Pls
4275 280 Pls
4275 280 Pls
4275 280 Pls
4275 280 Pls
4275 280 Pls
4276 280 Pls
4276 280 Pls
4277 280 Pls
4277 280 Pls
4278 280 Pls
4278 280 Pls
4279 280 Pls
4279 280 Pls
4280 280 Pls
4280 280 Pls
4280 280 Pls
4281 280 Pls
4281 280 Pls
4281 280 Pls
4282 280 Pls
4282 280 Pls
4282 280 Pls
4283 280 Pls
4283 280 Pls
4284 280 Pls
4284 280 Pls
4285 280 Pls
4285 280 Pls
4285 280 Pls
4285 280 Pls
4286 280 Pls
4287 280 Pls
4287 280 Pls
4288 280 Pls
4289 280 Pls
4289 280 Pls
4290 280 Pls
4292 280 Pls
4292 280 Pls
4293 280 Pls
4294 280 Pls
4294 280 Pls
4295 280 Pls
4295 280 Pls
4295 280 Pls
4295 280 Pls
4295 280 Pls
4296 280 Pls
4296 280 Pls
4297 280 Pls
4297 280 Pls
4297 280 Pls
4297 280 Pls
4298 280 Pls
4298 280 Pls
4298 280 Pls
4298 280 Pls
4299 280 Pls
4299 280 Pls
4300 280 Pls
4300 280 Pls
4301 280 Pls
4301 280 Pls
4301 280 Pls
4301 280 Pls
4302 280 Pls
4302 280 Pls
4304 280 Pls
4304 280 Pls
4304 280 Pls
4304 280 Pls
4305 280 Pls
4306 280 Pls
4306 280 Pls
4307 280 Pls
4307 280 Pls
4308 280 Pls
4308 280 Pls
4308 280 Pls
4308 280 Pls
4308 280 Pls
4309 280 Pls
4309 280 Pls
4309 280 Pls
4310 280 Pls
4310 280 Pls
4310 280 Pls
4311 280 Pls
4311 280 Pls
4312 280 Pls
4312 280 Pls
4313 280 Pls
4313 280 Pls
4315 280 Pls
4315 280 Pls
4315 280 Pls
4316 280 Pls
4316 280 Pls
4317 280 Pls
4317 280 Pls
4318 280 Pls
4318 280 Pls
4318 280 Pls
4319 280 Pls
4319 280 Pls
4319 280 Pls
4319 280 Pls
4319 280 Pls
4319 280 Pls
4320 280 Pls
4321 280 Pls
4321 280 Pls
4321 280 Pls
4322 280 Pls
4322 280 Pls
4322 280 Pls
4323 280 Pls
4323 280 Pls
4323 280 Pls
4323 280 Pls
4324 280 Pls
4324 280 Pls
4324 280 Pls
4325 280 Pls
4325 280 Pls
4325 280 Pls
4325 280 Pls
4325 280 Pls
4325 280 Pls
4325 280 Pls
4325 280 Pls
4326 280 Pls
4326 280 Pls
4326 280 Pls
4328 280 Pls
4328 280 Pls
4328 280 Pls
4328 280 Pls
4329 280 Pls
4330 280 Pls
4330 280 Pls
4330 280 Pls
4331 280 Pls
4332 280 Pls
4332 280 Pls
4332 280 Pls
4332 280 Pls
4333 280 Pls
4334 280 Pls
4334 280 Pls
4334 280 Pls
4335 280 Pls
4337 280 Pls
4337 280 Pls
4337 280 Pls
4338 280 Pls
4338 280 Pls
4338 280 Pls
4338 280 Pls
4339 280 Pls
4339 280 Pls
4339 280 Pls
4340 280 Pls
4340 280 Pls
4341 280 Pls
4341 280 Pls
4342 280 Pls
4343 280 Pls
4345 280 Pls
4345 280 Pls
4345 280 Pls
4346 280 Pls
4346 280 Pls
4346 280 Pls
4347 280 Pls
4347 280 Pls
4347 280 Pls
4347 280 Pls
4348 280 Pls
4349 280 Pls
4350 280 Pls
4351 280 Pls
4351 280 Pls
4351 280 Pls
4352 280 Pls
4352 280 Pls
4353 280 Pls
4353 280 Pls
4353 280 Pls
4354 280 Pls
4354 280 Pls
4355 280 Pls
4355 280 Pls
4355 280 Pls
4356 280 Pls
4357 280 Pls
4357 280 Pls
4357 280 Pls
4358 280 Pls
4359 280 Pls
4360 280 Pls
4361 280 Pls
4361 280 Pls
4361 280 Pls
4362 280 Pls
4364 280 Pls
4364 280 Pls
4364 280 Pls
4365 280 Pls
4365 280 Pls
4365 280 Pls
4366 280 Pls
4366 280 Pls
4366 280 Pls
4367 280 Pls
4367 280 Pls
4367 280 Pls
4369 280 Pls
4369 280 Pls
4370 280 Pls
4370 280 Pls
4371 280 Pls
4372 280 Pls
4373 280 Pls
4373 280 Pls
4373 280 Pls
4373 280 Pls
4375 280 Pls
4376 280 Pls
4376 280 Pls
4377 280 Pls
4377 280 Pls
4377 280 Pls
4378 280 Pls
4378 280 Pls
4380 280 Pls
4380 280 Pls
4380 280 Pls
4381 280 Pls
4381 280 Pls
4381 280 Pls
4382 280 Pls
4382 280 Pls
4383 280 Pls
4383 280 Pls
4384 280 Pls
4384 280 Pls
4384 280 Pls
4384 280 Pls
4384 280 Pls
4385 280 Pls
4385 280 Pls
4388 280 Pls
4388 280 Pls
4388 280 Pls
4388 280 Pls
4388 280 Pls
4388 280 Pls
4389 280 Pls
4389 280 Pls
4389 280 Pls
4389 280 Pls
4389 280 Pls
4390 280 Pls
4390 280 Pls
4390 280 Pls
4390 280 Pls
4390 280 Pls
4391 280 Pls
4392 280 Pls
4392 280 Pls
4392 280 Pls
4393 280 Pls
4393 280 Pls
4393 280 Pls
4394 280 Pls
4394 280 Pls
4395 280 Pls
4396 280 Pls
4397 280 Pls
4397 280 Pls
4399 280 Pls
4400 280 Pls
4400 280 Pls
4401 280 Pls
4401 280 Pls
4402 280 Pls
4402 280 Pls
4403 280 Pls
4403 280 Pls
4403 280 Pls
4403 280 Pls
4404 280 Pls
4405 280 Pls
4405 280 Pls
4405 280 Pls
4405 280 Pls
4406 280 Pls
4407 280 Pls
4407 280 Pls
4408 280 Pls
4408 280 Pls
4408 280 Pls
4408 280 Pls
4409 280 Pls
4410 280 Pls
4410 280 Pls
4411 280 Pls
4411 280 Pls
4411 280 Pls
4411 280 Pls
4411 280 Pls
4412 280 Pls
4412 280 Pls
4413 280 Pls
4415 280 Pls
4415 280 Pls
4415 280 Pls
4416 280 Pls
4416 280 Pls
4417 280 Pls
4418 280 Pls
4418 280 Pls
4418 280 Pls
4419 280 Pls
4419 280 Pls
4420 280 Pls
4420 280 Pls
4422 280 Pls
4422 280 Pls
4423 280 Pls
4423 280 Pls
4423 280 Pls
4423 280 Pls
4424 280 Pls
4425 280 Pls
4425 280 Pls
4425 280 Pls
4426 280 Pls
4427 280 Pls
4427 280 Pls
4427 280 Pls
4427 280 Pls
4428 280 Pls
4428 280 Pls
4428 280 Pls
4428 280 Pls
4428 280 Pls
4428 280 Pls
4429 280 Pls
4429 280 Pls
4430 280 Pls
4430 280 Pls
4430 280 Pls
4432 280 Pls
4432 280 Pls
4433 280 Pls
4433 280 Pls
4434 280 Pls
4435 280 Pls
4436 280 Pls
4436 280 Pls
4437 280 Pls
4437 280 Pls
4437 280 Pls
4437 280 Pls
4438 280 Pls
4438 280 Pls
4441 280 Pls
4442 280 Pls
4444 280 Pls
4444 280 Pls
4447 280 Pls
4448 280 Pls
4448 280 Pls
4449 280 Pls
4450 280 Pls
4450 280 Pls
4451 280 Pls
4451 280 Pls
4451 280 Pls
4452 280 Pls
4452 280 Pls
4453 280 Pls
4453 280 Pls
4453 280 Pls
4453 280 Pls
4454 280 Pls
4454 280 Pls
4454 280 Pls
4454 280 Pls
4455 280 Pls
4455 280 Pls
4455 280 Pls
4456 280 Pls
4456 280 Pls
4456 280 Pls
4456 280 Pls
4457 280 Pls
4457 280 Pls
4457 280 Pls
4458 280 Pls
4458 280 Pls
4458 280 Pls
4458 280 Pls
4459 280 Pls
4459 280 Pls
4459 280 Pls
4459 280 Pls
4460 280 Pls
4461 280 Pls
4461 280 Pls
4461 280 Pls
4461 280 Pls
4462 280 Pls
4462 280 Pls
4462 280 Pls
4462 280 Pls
4462 280 Pls
4463 280 Pls
4463 280 Pls
4464 280 Pls
4464 280 Pls
4464 280 Pls
4465 280 Pls
4465 280 Pls
4465 280 Pls
4466 280 Pls
4466 280 Pls
4466 280 Pls
4466 280 Pls
4467 280 Pls
4467 280 Pls
4467 280 Pls
4468 280 Pls
4469 280 Pls
4469 280 Pls
4470 280 Pls
4470 280 Pls
4471 280 Pls
4471 280 Pls
4472 280 Pls
4472 280 Pls
4472 280 Pls
4472 280 Pls
4472 280 Pls
4472 280 Pls
4472 280 Pls
4473 280 Pls
4473 280 Pls
4474 280 Pls
4474 280 Pls
4475 280 Pls
4475 280 Pls
4475 280 Pls
4476 280 Pls
4477 280 Pls
4477 280 Pls
4478 280 Pls
4479 280 Pls
4479 280 Pls
4480 280 Pls
4480 280 Pls
4480 280 Pls
4481 280 Pls
4482 280 Pls
4483 280 Pls
4484 280 Pls
4484 280 Pls
4485 280 Pls
4485 280 Pls
4487 280 Pls
4487 280 Pls
4489 280 Pls
4489 280 Pls
4490 280 Pls
4490 280 Pls
4490 280 Pls
4491 280 Pls
4492 280 Pls
4492 280 Pls
4492 280 Pls
4493 280 Pls
4494 280 Pls
4495 280 Pls
4500 280 Pls
4501 280 Pls
4501 280 Pls
4501 280 Pls
4502 280 Pls
4502 280 Pls
4502 280 Pls
4502 280 Pls
4502 280 Pls
4503 280 Pls
4503 280 Pls
4503 280 Pls
4504 280 Pls
4504 280 Pls
4504 280 Pls
4505 280 Pls
4505 280 Pls
4505 280 Pls
4506 280 Pls
4506 280 Pls
4507 280 Pls
4507 280 Pls
4508 280 Pls
4509 280 Pls
4509 280 Pls
4509 280 Pls
4509 280 Pls
4509 280 Pls
4510 280 Pls
4510 280 Pls
4510 280 Pls
4511 280 Pls
4511 280 Pls
4511 280 Pls
4511 280 Pls
4512 280 Pls
4512 280 Pls
4513 280 Pls
4514 280 Pls
4514 280 Pls
4516 280 Pls
4516 280 Pls
4516 280 Pls
4516 280 Pls
4517 280 Pls
4517 280 Pls
4517 280 Pls
4517 280 Pls
4517 280 Pls
4517 280 Pls
4518 280 Pls
4519 280 Pls
4519 280 Pls
4520 280 Pls
4521 280 Pls
4522 280 Pls
4523 280 Pls
4523 280 Pls
4525 280 Pls
4525 280 Pls
4526 280 Pls
4526 280 Pls
4527 280 Pls
4527 280 Pls
4527 280 Pls
4528 280 Pls
4529 280 Pls
4529 280 Pls
4529 280 Pls
4529 280 Pls
4530 280 Pls
4530 280 Pls
4531 280 Pls
4532 280 Pls
4532 280 Pls
4533 280 Pls
4533 280 Pls
4534 280 Pls
4534 280 Pls
4534 280 Pls
4534 280 Pls
4534 280 Pls
4535 280 Pls
4535 280 Pls
4535 280 Pls
4537 280 Pls
4538 280 Pls
4539 280 Pls
4539 280 Pls
4540 280 Pls
4540 280 Pls
4541 280 Pls
4545 280 Pls
4545 280 Pls
4545 280 Pls
4545 280 Pls
4546 280 Pls
4546 280 Pls
4546 280 Pls
4546 280 Pls
4547 280 Pls
4547 280 Pls
4548 280 Pls
4549 280 Pls
4549 280 Pls
4549 280 Pls
4550 280 Pls
4552 280 Pls
4553 280 Pls
4553 280 Pls
4555 280 Pls
4555 280 Pls
4556 280 Pls
4556 280 Pls
4556 280 Pls
4558 280 Pls
4559 280 Pls
4560 280 Pls
4560 280 Pls
4560 280 Pls
4560 280 Pls
4560 280 Pls
4560 280 Pls
4561 280 Pls
4561 280 Pls
4561 280 Pls
4561 280 Pls
4562 280 Pls
4562 280 Pls
4563 280 Pls
4563 280 Pls
4563 280 Pls
4564 280 Pls
4565 280 Pls
4566 280 Pls
4567 280 Pls
4568 280 Pls
4569 280 Pls
4569 280 Pls
4570 280 Pls
4570 280 Pls
4570 280 Pls
4571 280 Pls
4572 280 Pls
4572 280 Pls
4572 280 Pls
4573 280 Pls
4573 280 Pls
4575 280 Pls
4575 280 Pls
4576 280 Pls
4577 280 Pls
4577 280 Pls
4577 280 Pls
4579 280 Pls
4579 280 Pls
4579 280 Pls
4580 280 Pls
4580 280 Pls
4581 280 Pls
4581 280 Pls
4582 280 Pls
4582 280 Pls
4583 280 Pls
4583 280 Pls
4583 280 Pls
4584 280 Pls
4585 280 Pls
4585 280 Pls
4586 280 Pls
4586 280 Pls
4586 280 Pls
4586 280 Pls
4587 280 Pls
4588 280 Pls
4589 280 Pls
4590 280 Pls
4591 280 Pls
4592 280 Pls
4594 280 Pls
4594 280 Pls
4595 280 Pls
4596 280 Pls
4596 280 Pls
4596 280 Pls
4597 280 Pls
4598 280 Pls
4598 280 Pls
4599 280 Pls
4599 280 Pls
4600 280 Pls
4601 280 Pls
4602 280 Pls
4603 280 Pls
4603 280 Pls
4604 280 Pls
4604 280 Pls
4605 280 Pls
4605 280 Pls
4605 280 Pls
4605 280 Pls
4606 280 Pls
4606 280 Pls
4606 280 Pls
4606 280 Pls
4607 280 Pls
4607 280 Pls
4608 280 Pls
4609 280 Pls
4609 280 Pls
4609 280 Pls
4609 280 Pls
4610 280 Pls
4611 280 Pls
4612 280 Pls
4612 280 Pls
4612 280 Pls
4613 280 Pls
4614 280 Pls
4614 280 Pls
4614 280 Pls
4614 280 Pls
4615 280 Pls
4615 280 Pls
4615 280 Pls
4615 280 Pls
4616 280 Pls
4617 280 Pls
4618 280 Pls
4618 280 Pls
4618 280 Pls
4618 280 Pls
4619 280 Pls
4620 280 Pls
4622 280 Pls
4622 280 Pls
4623 280 Pls
4623 280 Pls
4623 280 Pls
4624 280 Pls
4624 280 Pls
4625 280 Pls
4626 280 Pls
4626 280 Pls
4627 280 Pls
4628 280 Pls
4628 280 Pls
4629 280 Pls
4630 280 Pls
4631 280 Pls
4631 280 Pls
4631 280 Pls
4631 280 Pls
4632 280 Pls
4632 280 Pls
4633 280 Pls
4634 280 Pls
4634 280 Pls
4636 280 Pls
4637 280 Pls
4637 280 Pls
4638 280 Pls
4638 280 Pls
4639 280 Pls
4639 280 Pls
4640 280 Pls
4641 280 Pls
4642 280 Pls
4642 280 Pls
4643 280 Pls
4644 280 Pls
4644 280 Pls
4644 280 Pls
4645 280 Pls
4645 280 Pls
4645 280 Pls
4645 280 Pls
4647 280 Pls
4647 280 Pls
4648 280 Pls
4648 280 Pls
4648 280 Pls
4649 280 Pls
4650 280 Pls
4650 280 Pls
4650 280 Pls
4650 280 Pls
4652 280 Pls
4652 280 Pls
4652 280 Pls
4652 280 Pls
4654 280 Pls
4655 280 Pls
4655 280 Pls
4655 280 Pls
4655 280 Pls
4656 280 Pls
4656 280 Pls
4656 280 Pls
4657 280 Pls
4657 280 Pls
4657 280 Pls
4658 280 Pls
4659 280 Pls
4659 280 Pls
4660 280 Pls
4661 280 Pls
4662 280 Pls
4662 280 Pls
4662 280 Pls
4662 280 Pls
4663 280 Pls
4663 280 Pls
4663 280 Pls
4664 280 Pls
4665 280 Pls
4666 280 Pls
4666 280 Pls
4667 280 Pls
4668 280 Pls
4668 280 Pls
4668 280 Pls
4668 280 Pls
4668 280 Pls
4669 280 Pls
4670 280 Pls
4670 280 Pls
4671 280 Pls
4671 280 Pls
4671 280 Pls
4671 280 Pls
4672 280 Pls
4673 280 Pls
4673 280 Pls
4673 280 Pls
4673 280 Pls
4673 280 Pls
4674 280 Pls
4674 280 Pls
4674 280 Pls
4674 280 Pls
4675 280 Pls
4676 280 Pls
4677 280 Pls
4677 280 Pls
4677 280 Pls
4677 280 Pls
4677 280 Pls
4678 280 Pls
4679 280 Pls
4679 280 Pls
4680 280 Pls
4680 280 Pls
4680 280 Pls
4681 280 Pls
4681 280 Pls
4681 280 Pls
4682 280 Pls
4682 280 Pls
4683 280 Pls
4683 280 Pls
4684 280 Pls
4684 280 Pls
4684 280 Pls
4685 280 Pls
4685 280 Pls
4685 280 Pls
4685 280 Pls
4686 280 Pls
4686 280 Pls
4687 280 Pls
4687 280 Pls
4688 280 Pls
4688 280 Pls
4688 280 Pls
4688 280 Pls
4689 280 Pls
4689 280 Pls
4689 280 Pls
4689 280 Pls
4690 280 Pls
4691 280 Pls
4692 280 Pls
4692 280 Pls
4692 280 Pls
4693 280 Pls
4693 280 Pls
4694 280 Pls
4694 280 Pls
4694 280 Pls
4694 280 Pls
4696 280 Pls
4696 280 Pls
4696 280 Pls
4697 280 Pls
4697 280 Pls
4697 280 Pls
4697 280 Pls
4697 280 Pls
4698 280 Pls
4699 280 Pls
4699 280 Pls
4699 280 Pls
4699 280 Pls
4699 280 Pls
4700 280 Pls
4700 280 Pls
4701 280 Pls
4701 280 Pls
4702 280 Pls
4703 280 Pls
4703 280 Pls
4705 280 Pls
4705 280 Pls
4705 280 Pls
4706 280 Pls
4706 280 Pls
4707 280 Pls
4708 280 Pls
4708 280 Pls
4708 280 Pls
4709 280 Pls
4709 280 Pls
4710 280 Pls
4710 280 Pls
4711 280 Pls
4712 280 Pls
4713 280 Pls
4713 280 Pls
4714 280 Pls
4714 280 Pls
4714 280 Pls
4718 280 Pls
4719 280 Pls
4720 280 Pls
4720 280 Pls
4721 280 Pls
4721 280 Pls
4722 280 Pls
4723 280 Pls
4724 280 Pls
4724 280 Pls
4724 280 Pls
4724 280 Pls
4725 280 Pls
4726 280 Pls
4726 280 Pls
4726 280 Pls
4726 280 Pls
4727 280 Pls
4727 280 Pls
4727 280 Pls
4727 280 Pls
4728 280 Pls
4728 280 Pls
4729 280 Pls
4729 280 Pls
4729 280 Pls
4730 280 Pls
4730 280 Pls
4731 280 Pls
4731 280 Pls
4732 280 Pls
4732 280 Pls
4732 280 Pls
4733 280 Pls
4734 280 Pls
4735 280 Pls
4736 280 Pls
4736 280 Pls
4736 280 Pls
4737 280 Pls
4737 280 Pls
4738 280 Pls
4738 280 Pls
4739 280 Pls
4739 280 Pls
4741 280 Pls
4742 280 Pls
4742 280 Pls
4746 280 Pls
4748 280 Pls
4748 280 Pls
4749 280 Pls
4749 280 Pls
4750 280 Pls
4751 280 Pls
4751 280 Pls
4753 280 Pls
4755 280 Pls
4758 280 Pls
4759 280 Pls
4759 280 Pls
4759 280 Pls
4760 280 Pls
4761 280 Pls
4762 280 Pls
4762 280 Pls
4762 280 Pls
4764 280 Pls
4765 280 Pls
4765 280 Pls
4766 280 Pls
4766 280 Pls
4767 280 Pls
4767 280 Pls
4767 280 Pls
4767 280 Pls
4767 280 Pls
4768 280 Pls
4770 280 Pls
4771 280 Pls
4771 280 Pls
4772 280 Pls
4775 280 Pls
4776 280 Pls
4776 280 Pls
4777 280 Pls
4778 280 Pls
4778 280 Pls
4779 280 Pls
4779 280 Pls
4780 280 Pls
4780 280 Pls
4781 280 Pls
4781 280 Pls
4781 280 Pls
4781 280 Pls
4781 280 Pls
4781 280 Pls
4782 280 Pls
4782 280 Pls
4782 280 Pls
4782 280 Pls
4783 280 Pls
4784 280 Pls
4784 280 Pls
4786 280 Pls
4786 280 Pls
4786 280 Pls
4787 280 Pls
4787 280 Pls
4789 280 Pls
4789 280 Pls
4790 280 Pls
4790 280 Pls
4791 280 Pls
4793 280 Pls
4794 280 Pls
4794 280 Pls
4794 280 Pls
4794 280 Pls
4794 280 Pls
4794 280 Pls
4795 280 Pls
4796 280 Pls
4796 280 Pls
4797 280 Pls
4798 280 Pls
4798 280 Pls
4799 280 Pls
4800 280 Pls
4802 280 Pls
4802 280 Pls
4803 280 Pls
4803 280 Pls
4806 280 Pls
4806 280 Pls
4808 280 Pls
4808 280 Pls
4810 280 Pls
4811 280 Pls
4812 280 Pls
4813 280 Pls
4814 280 Pls
4814 280 Pls
4814 280 Pls
4814 280 Pls
4815 280 Pls
4816 280 Pls
4816 280 Pls
4816 280 Pls
4816 280 Pls
4816 280 Pls
4817 280 Pls
4817 280 Pls
4818 280 Pls
4819 280 Pls
4819 280 Pls
4820 280 Pls
4820 280 Pls
4821 280 Pls
4821 280 Pls
4822 280 Pls
4822 280 Pls
4822 280 Pls
4822 280 Pls
4823 280 Pls
4824 280 Pls
4824 280 Pls
4824 280 Pls
4825 280 Pls
4825 280 Pls
4825 280 Pls
4825 280 Pls
4825 280 Pls
4826 280 Pls
4826 280 Pls
4827 280 Pls
4829 280 Pls
4829 280 Pls
4829 280 Pls
4830 280 Pls
4831 280 Pls
4831 280 Pls
4831 280 Pls
4833 280 Pls
4834 280 Pls
4834 280 Pls
4835 280 Pls
4835 280 Pls
4836 280 Pls
4836 280 Pls
4836 280 Pls
4836 280 Pls
4837 280 Pls
4837 280 Pls
4837 280 Pls
4838 280 Pls
4838 280 Pls
4839 280 Pls
4840 280 Pls
4840 280 Pls
4840 280 Pls
4841 280 Pls
4843 280 Pls
4843 280 Pls
4845 280 Pls
4845 280 Pls
4846 280 Pls
4848 280 Pls
4850 280 Pls
4852 280 Pls
4853 280 Pls
4853 280 Pls
4853 280 Pls
4854 280 Pls
4855 280 Pls
4855 280 Pls
4855 280 Pls
4856 280 Pls
4857 280 Pls
4859 280 Pls
4860 280 Pls
4862 280 Pls
4863 280 Pls
4863 280 Pls
4864 280 Pls
4865 280 Pls
4865 280 Pls
4866 280 Pls
4866 280 Pls
4866 280 Pls
4866 280 Pls
4868 280 Pls
4868 280 Pls
4869 280 Pls
4870 280 Pls
4872 280 Pls
4873 280 Pls
4874 280 Pls
4874 280 Pls
4875 280 Pls
4875 280 Pls
4875 280 Pls
4876 280 Pls
4876 280 Pls
4877 280 Pls
4878 280 Pls
4882 280 Pls
4884 280 Pls
4884 280 Pls
4884 280 Pls
4884 280 Pls
4885 280 Pls
4886 280 Pls
4886 280 Pls
4887 280 Pls
4887 280 Pls
4887 280 Pls
4888 280 Pls
4888 280 Pls
4888 280 Pls
4889 280 Pls
4890 280 Pls
4890 280 Pls
4892 280 Pls
4893 280 Pls
4895 280 Pls
4896 280 Pls
4897 280 Pls
4898 280 Pls
4901 280 Pls
4901 280 Pls
4901 280 Pls
4901 280 Pls
4901 280 Pls
4901 280 Pls
4902 280 Pls
4902 280 Pls
4902 280 Pls
4902 280 Pls
4903 280 Pls
4903 280 Pls
4903 280 Pls
4903 280 Pls
4903 280 Pls
4903 280 Pls
4904 280 Pls
4904 280 Pls
4904 280 Pls
4904 280 Pls
4904 280 Pls
4905 280 Pls
4905 280 Pls
4905 280 Pls
4906 280 Pls
4906 280 Pls
4906 280 Pls
4906 280 Pls
4906 280 Pls
4906 280 Pls
4906 280 Pls
4907 280 Pls
4907 280 Pls
4907 280 Pls
4907 280 Pls
4907 280 Pls
4907 280 Pls
4907 280 Pls
4908 280 Pls
4908 280 Pls
4908 280 Pls
4908 280 Pls
4909 280 Pls
4909 280 Pls
4909 280 Pls
4909 280 Pls
4909 280 Pls
4909 280 Pls
4910 280 Pls
4910 280 Pls
4910 280 Pls
4910 280 Pls
4910 280 Pls
4910 280 Pls
4911 280 Pls
4911 280 Pls
4911 280 Pls
4911 280 Pls
4911 280 Pls
4911 280 Pls
4911 280 Pls
4911 280 Pls
4912 280 Pls
4912 280 Pls
4912 280 Pls
4912 280 Pls
4912 280 Pls
4912 280 Pls
4913 280 Pls
4913 280 Pls
4913 280 Pls
4913 280 Pls
4913 280 Pls
4913 280 Pls
4913 280 Pls
4913 280 Pls
4913 280 Pls
4914 280 Pls
4914 280 Pls
4914 280 Pls
4914 280 Pls
4914 280 Pls
4914 280 Pls
4914 280 Pls
4914 280 Pls
4914 280 Pls
4914 280 Pls
4914 280 Pls
4914 280 Pls
4915 280 Pls
4915 280 Pls
4915 280 Pls
4915 280 Pls
4915 280 Pls
4915 280 Pls
4915 280 Pls
4916 280 Pls
4916 280 Pls
4916 280 Pls
4916 280 Pls
4916 280 Pls
4916 280 Pls
4916 280 Pls
4917 280 Pls
4917 280 Pls
4917 280 Pls
4917 280 Pls
4917 280 Pls
4918 280 Pls
4918 280 Pls
4918 280 Pls
4918 280 Pls
4918 280 Pls
4918 280 Pls
4919 280 Pls
4919 280 Pls
4919 280 Pls
4919 280 Pls
4919 280 Pls
4919 280 Pls
4920 280 Pls
4920 280 Pls
4920 280 Pls
4920 280 Pls
4921 280 Pls
4921 280 Pls
4921 280 Pls
4922 280 Pls
4922 280 Pls
4922 280 Pls
4922 280 Pls
4922 280 Pls
4922 280 Pls
4922 280 Pls
4923 280 Pls
4923 280 Pls
4923 280 Pls
4924 280 Pls
4924 280 Pls
4925 280 Pls
4925 280 Pls
4925 280 Pls
4925 280 Pls
4925 280 Pls
4925 280 Pls
4926 280 Pls
4926 280 Pls
4926 280 Pls
4926 280 Pls
4926 280 Pls
4926 280 Pls
4927 280 Pls
4927 280 Pls
4927 280 Pls
4927 280 Pls
4927 280 Pls
4927 280 Pls
4927 280 Pls
4928 280 Pls
4928 280 Pls
4928 280 Pls
4928 280 Pls
4930 280 Pls
4930 280 Pls
4930 280 Pls
4930 280 Pls
4930 280 Pls
4930 280 Pls
4930 280 Pls
4930 280 Pls
4930 280 Pls
4930 280 Pls
4930 280 Pls
4930 280 Pls
4931 280 Pls
4931 280 Pls
4931 280 Pls
4931 280 Pls
4932 280 Pls
4932 280 Pls
4933 280 Pls
4933 280 Pls
4934 280 Pls
4935 280 Pls
4935 280 Pls
4936 280 Pls
4937 280 Pls
4938 280 Pls
4939 280 Pls
4939 280 Pls
4939 280 Pls
4940 280 Pls
4941 280 Pls
4942 280 Pls
4943 280 Pls
4943 280 Pls
4944 280 Pls
4944 280 Pls
4945 280 Pls
4945 280 Pls
4945 280 Pls
4945 280 Pls
4946 280 Pls
4947 280 Pls
4950 280 Pls
4950 280 Pls
4950 280 Pls
4951 280 Pls
4951 280 Pls
4952 280 Pls
4952 280 Pls
4953 280 Pls
4953 280 Pls
4953 280 Pls
4954 280 Pls
4955 280 Pls
4958 280 Pls
4958 280 Pls
4960 280 Pls
4960 280 Pls
4961 280 Pls
4961 280 Pls
4962 280 Pls
4962 280 Pls
4962 280 Pls
4962 280 Pls
4962 280 Pls
4963 280 Pls
4965 280 Pls
4966 280 Pls
4967 280 Pls
4968 280 Pls
4968 280 Pls
4968 280 Pls
4968 280 Pls
4970 280 Pls
4970 280 Pls
4973 280 Pls
4973 280 Pls
4975 280 Pls
4978 280 Pls
4979 280 Pls
4981 280 Pls
4982 280 Pls
4983 280 Pls
4983 280 Pls
4984 280 Pls
4985 280 Pls
4986 280 Pls
4987 280 Pls
4987 280 Pls
4988 280 Pls
4988 280 Pls
4992 280 Pls
4993 280 Pls
4994 280 Pls
4994 280 Pls
4998 280 Pls
4999 280 Pls
5000 280 Pls
5000 280 Pls
5000 280 Pls
5002 280 Pls
5003 280 Pls
5004 280 Pls
5004 280 Pls
5004 280 Pls
5008 280 Pls
5008 280 Pls
5009 280 Pls
5010 280 Pls
5013 280 Pls
5015 280 Pls
5015 280 Pls
5015 280 Pls
5016 280 Pls
5016 280 Pls
5016 280 Pls
5016 280 Pls
5017 280 Pls
5018 280 Pls
5023 280 Pls
5027 280 Pls
5029 280 Pls
5032 280 Pls
5034 280 Pls
5037 280 Pls
5038 280 Pls
5038 280 Pls
5040 280 Pls
5042 280 Pls
5042 280 Pls
5042 280 Pls
5043 280 Pls
5044 280 Pls
5044 280 Pls
5045 280 Pls
5047 280 Pls
5048 280 Pls
5050 280 Pls
5051 280 Pls
5053 280 Pls
5054 280 Pls
5054 280 Pls
5055 280 Pls
5056 280 Pls
5058 280 Pls
5059 280 Pls
5061 280 Pls
5063 280 Pls
5065 280 Pls
5066 280 Pls
5066 280 Pls
5066 280 Pls
5072 280 Pls
5072 280 Pls
5073 280 Pls
5073 280 Pls
5074 280 Pls
5075 280 Pls
5075 280 Pls
5075 280 Pls
5077 280 Pls
5079 280 Pls
5086 280 Pls
5086 280 Pls
5087 280 Pls
5088 280 Pls
5090 280 Pls
5092 280 Pls
5092 280 Pls
5095 280 Pls
5097 280 Pls
5102 280 Pls
5103 280 Pls
5104 280 Pls
5107 280 Pls
5107 280 Pls
5108 280 Pls
5113 280 Pls
5114 280 Pls
5114 280 Pls
5116 280 Pls
5116 280 Pls
5118 280 Pls
5119 280 Pls
5119 280 Pls
5120 280 Pls
5124 280 Pls
5124 280 Pls
5127 280 Pls
5128 280 Pls
5131 280 Pls
5132 280 Pls
5134 280 Pls
5136 280 Pls
5137 280 Pls
5137 280 Pls
5138 280 Pls
5138 280 Pls
5139 280 Pls
5141 280 Pls
5143 280 Pls
5143 280 Pls
5144 280 Pls
5145 280 Pls
5146 280 Pls
5147 280 Pls
5149 280 Pls
5149 280 Pls
5149 280 Pls
5150 280 Pls
5151 280 Pls
5151 280 Pls
5154 280 Pls
5157 280 Pls
5157 280 Pls
5158 280 Pls
5159 280 Pls
5162 280 Pls
5166 280 Pls
5168 280 Pls
5171 280 Pls
5171 280 Pls
5171 280 Pls
5172 280 Pls
5173 280 Pls
5178 280 Pls
5180 280 Pls
5181 280 Pls
5182 280 Pls
5182 280 Pls
5184 280 Pls
5186 280 Pls
5186 280 Pls
5187 280 Pls
5188 280 Pls
5190 280 Pls
5191 280 Pls
5197 280 Pls
5200 280 Pls
5202 280 Pls
5202 280 Pls
5206 280 Pls
5206 280 Pls
5206 280 Pls
5207 280 Pls
5210 280 Pls
5211 280 Pls
5214 280 Pls
5216 280 Pls
5220 280 Pls
5221 280 Pls
5221 280 Pls
5222 280 Pls
5222 280 Pls
5222 280 Pls
5223 280 Pls
5225 280 Pls
5225 280 Pls
5227 280 Pls
5227 280 Pls
5228 280 Pls
5229 280 Pls
5230 280 Pls
5236 280 Pls
5237 280 Pls
5242 280 Pls
5242 280 Pls
5246 280 Pls
5248 280 Pls
5249 280 Pls
5250 280 Pls
5252 280 Pls
5255 280 Pls
5256 280 Pls
5257 280 Pls
5259 280 Pls
5260 280 Pls
5261 280 Pls
5261 280 Pls
5263 280 Pls
5263 280 Pls
5265 280 Pls
5271 280 Pls
5271 280 Pls
5277 280 Pls
5280 280 Pls
5281 280 Pls
5282 280 Pls
5282 280 Pls
5283 280 Pls
5290 280 Pls
5296 280 Pls
5299 280 Pls
5303 280 Pls
5309 280 Pls
5316 280 Pls
5317 280 Pls
5319 280 Pls
5320 280 Pls
5327 280 Pls
5329 280 Pls
5330 280 Pls
5331 280 Pls
5340 280 Pls
5341 280 Pls
5341 280 Pls
5341 280 Pls
5343 280 Pls
5347 280 Pls
5348 280 Pls
5353 280 Pls
5357 280 Pls
5359 280 Pls
5364 280 Pls
5370 280 Pls
5373 280 Pls
5375 280 Pls
5378 280 Pls
5379 280 Pls
5382 280 Pls
5383 280 Pls
5385 280 Pls
5386 280 Pls
5389 280 Pls
5390 280 Pls
5391 280 Pls
5397 280 Pls
5405 280 Pls
5406 280 Pls
5406 280 Pls
5406 280 Pls
5409 280 Pls
5412 280 Pls
5412 280 Pls
5413 280 Pls
5413 280 Pls
5420 280 Pls
5421 280 Pls
5423 280 Pls
5428 280 Pls
5432 280 Pls
5437 280 Pls
5439 280 Pls
5450 280 Pls
5450 280 Pls
5451 280 Pls
5452 280 Pls
5464 280 Pls
5466 280 Pls
5470 280 Pls
5481 280 Pls
5486 280 Pls
5489 280 Pls
5492 280 Pls
5493 280 Pls
5496 280 Pls
5499 280 Pls
5502 280 Pls
5504 280 Pls
5504 280 Pls
5510 280 Pls
5511 280 Pls
5517 280 Pls
5517 280 Pls
5525 280 Pls
5532 280 Pls
5532 280 Pls
5540 280 Pls
5543 280 Pls
5543 280 Pls
5545 280 Pls
5545 280 Pls
5549 280 Pls
5550 280 Pls
5550 280 Pls
5552 280 Pls
5556 280 Pls
5558 280 Pls
5560 280 Pls
5561 280 Pls
5563 280 Pls
5570 280 Pls
5583 280 Pls
5585 280 Pls
5597 280 Pls
5599 280 Pls
5600 280 Pls
5604 280 Pls
5627 280 Pls
5638 280 Pls
5661 280 Pls
5662 280 Pls
5665 280 Pls
5667 280 Pls
5668 280 Pls
5681 280 Pls
5689 280 Pls
5692 280 Pls
5694 280 Pls
5698 280 Pls
5698 280 Pls
5706 280 Pls
5719 280 Pls
5719 280 Pls
5729 280 Pls
5737 280 Pls
5742 280 Pls
5750 280 Pls
5755 280 Pls
5756 280 Pls
5757 280 Pls
5767 280 Pls
5774 280 Pls
5778 280 Pls
5791 280 Pls
5792 280 Pls
5795 280 Pls
5813 280 Pls
5818 280 Pls
5819 280 Pls
5820 280 Pls
5826 280 Pls
5827 280 Pls
5846 280 Pls
5942 280 Pls
5957 280 Pls
5959 280 Pls
5984 280 Pls
6014 280 Pls
6045 280 Pls
6049 280 Pls
6090 280 Pls
6180 280 Pls
6192 280 Pls
6215 280 Pls
6238 280 Pls
6253 280 Pls
6261 280 Pls
6316 280 Pls
6317 280 Pls
6327 280 Pls
6402 280 Pls
6433 280 Pls
6494 280 Pls
6517 280 Pls
6656 280 Pls
6776 280 Pls
% End plot #1
2.000 UL
LTb
LCb setrgbcolor
1.000 UL
LTB
LCb setrgbcolor
798 4871 N
798 280 L
6149 0 V
0 4591 V
-6149 0 V
Z stroke
1.000 UP
1.000 UL
LTb
LCb setrgbcolor
stroke
grestore
end
showpage
%%Trailer
%%DocumentFonts: Helvetica
%%Pages: 1
