%!PS-Adobe-2.0
%%Title: packets-uv-s-add-packets-uv-ccdf-loglin.eps
%%Creator: gnuplot 5.0 patchlevel 3
%%CreationDate: Mon May 29 11:08:45 2017
%%DocumentFonts: (atend)
%%BoundingBox: 50 50 554 770
%%Orientation: Landscape
%%Pages: (atend)
%%EndComments
%%BeginProlog
/gnudict 256 dict def
gnudict begin
%
% The following true/false flags may be edited by hand if desired.
% The unit line width and grayscale image gamma correction may also be changed.
%
/Color true def
/Blacktext false def
/Solid false def
/Dashlength 1 def
/Landscape true def
/Level1 false def
/Level3 false def
/Rounded false def
/ClipToBoundingBox false def
/SuppressPDFMark false def
/TransparentPatterns false def
/gnulinewidth 5.000 def
/userlinewidth gnulinewidth def
/Gamma 1.0 def
/BackgroundColor {-1.000 -1.000 -1.000} def
%
/vshift -46 def
/dl1 {
  10.0 Dashlength userlinewidth gnulinewidth div mul mul mul
  Rounded { currentlinewidth 0.75 mul sub dup 0 le { pop 0.01 } if } if
} def
/dl2 {
  10.0 Dashlength userlinewidth gnulinewidth div mul mul mul
  Rounded { currentlinewidth 0.75 mul add } if
} def
/hpt_ 31.5 def
/vpt_ 31.5 def
/hpt hpt_ def
/vpt vpt_ def
/doclip {
  ClipToBoundingBox {
    newpath 50 50 moveto 554 50 lineto 554 770 lineto 50 770 lineto closepath
    clip
  } if
} def
%
% Gnuplot Prolog Version 5.1 (Oct 2015)
%
%/SuppressPDFMark true def
%
/M {moveto} bind def
/L {lineto} bind def
/R {rmoveto} bind def
/V {rlineto} bind def
/N {newpath moveto} bind def
/Z {closepath} bind def
/C {setrgbcolor} bind def
/f {rlineto fill} bind def
/g {setgray} bind def
/Gshow {show} def   % May be redefined later in the file to support UTF-8
/vpt2 vpt 2 mul def
/hpt2 hpt 2 mul def
/Lshow {currentpoint stroke M 0 vshift R 
	Blacktext {gsave 0 setgray textshow grestore} {textshow} ifelse} def
/Rshow {currentpoint stroke M dup stringwidth pop neg vshift R
	Blacktext {gsave 0 setgray textshow grestore} {textshow} ifelse} def
/Cshow {currentpoint stroke M dup stringwidth pop -2 div vshift R 
	Blacktext {gsave 0 setgray textshow grestore} {textshow} ifelse} def
/UP {dup vpt_ mul /vpt exch def hpt_ mul /hpt exch def
  /hpt2 hpt 2 mul def /vpt2 vpt 2 mul def} def
/DL {Color {setrgbcolor Solid {pop []} if 0 setdash}
 {pop pop pop 0 setgray Solid {pop []} if 0 setdash} ifelse} def
/BL {stroke userlinewidth 2 mul setlinewidth
	Rounded {1 setlinejoin 1 setlinecap} if} def
/AL {stroke userlinewidth 2 div setlinewidth
	Rounded {1 setlinejoin 1 setlinecap} if} def
/UL {dup gnulinewidth mul /userlinewidth exch def
	dup 1 lt {pop 1} if 10 mul /udl exch def} def
/PL {stroke userlinewidth setlinewidth
	Rounded {1 setlinejoin 1 setlinecap} if} def
3.8 setmiterlimit
% Classic Line colors (version 5.0)
/LCw {1 1 1} def
/LCb {0 0 0} def
/LCa {0 0 0} def
/LC0 {1 0 0} def
/LC1 {0 1 0} def
/LC2 {0 0 1} def
/LC3 {1 0 1} def
/LC4 {0 1 1} def
/LC5 {1 1 0} def
/LC6 {0 0 0} def
/LC7 {1 0.3 0} def
/LC8 {0.5 0.5 0.5} def
% Default dash patterns (version 5.0)
/LTB {BL [] LCb DL} def
/LTw {PL [] 1 setgray} def
/LTb {PL [] LCb DL} def
/LTa {AL [1 udl mul 2 udl mul] 0 setdash LCa setrgbcolor} def
/LT0 {PL [] LC0 DL} def
/LT1 {PL [2 dl1 3 dl2] LC1 DL} def
/LT2 {PL [1 dl1 1.5 dl2] LC2 DL} def
/LT3 {PL [6 dl1 2 dl2 1 dl1 2 dl2] LC3 DL} def
/LT4 {PL [1 dl1 2 dl2 6 dl1 2 dl2 1 dl1 2 dl2] LC4 DL} def
/LT5 {PL [4 dl1 2 dl2] LC5 DL} def
/LT6 {PL [1.5 dl1 1.5 dl2 1.5 dl1 1.5 dl2 1.5 dl1 6 dl2] LC6 DL} def
/LT7 {PL [3 dl1 3 dl2 1 dl1 3 dl2] LC7 DL} def
/LT8 {PL [2 dl1 2 dl2 2 dl1 6 dl2] LC8 DL} def
/SL {[] 0 setdash} def
/Pnt {stroke [] 0 setdash gsave 1 setlinecap M 0 0 V stroke grestore} def
/Dia {stroke [] 0 setdash 2 copy vpt add M
  hpt neg vpt neg V hpt vpt neg V
  hpt vpt V hpt neg vpt V closepath stroke
  Pnt} def
/Pls {stroke [] 0 setdash vpt sub M 0 vpt2 V
  currentpoint stroke M
  hpt neg vpt neg R hpt2 0 V stroke
 } def
/Box {stroke [] 0 setdash 2 copy exch hpt sub exch vpt add M
  0 vpt2 neg V hpt2 0 V 0 vpt2 V
  hpt2 neg 0 V closepath stroke
  Pnt} def
/Crs {stroke [] 0 setdash exch hpt sub exch vpt add M
  hpt2 vpt2 neg V currentpoint stroke M
  hpt2 neg 0 R hpt2 vpt2 V stroke} def
/TriU {stroke [] 0 setdash 2 copy vpt 1.12 mul add M
  hpt neg vpt -1.62 mul V
  hpt 2 mul 0 V
  hpt neg vpt 1.62 mul V closepath stroke
  Pnt} def
/Star {2 copy Pls Crs} def
/BoxF {stroke [] 0 setdash exch hpt sub exch vpt add M
  0 vpt2 neg V hpt2 0 V 0 vpt2 V
  hpt2 neg 0 V closepath fill} def
/TriUF {stroke [] 0 setdash vpt 1.12 mul add M
  hpt neg vpt -1.62 mul V
  hpt 2 mul 0 V
  hpt neg vpt 1.62 mul V closepath fill} def
/TriD {stroke [] 0 setdash 2 copy vpt 1.12 mul sub M
  hpt neg vpt 1.62 mul V
  hpt 2 mul 0 V
  hpt neg vpt -1.62 mul V closepath stroke
  Pnt} def
/TriDF {stroke [] 0 setdash vpt 1.12 mul sub M
  hpt neg vpt 1.62 mul V
  hpt 2 mul 0 V
  hpt neg vpt -1.62 mul V closepath fill} def
/DiaF {stroke [] 0 setdash vpt add M
  hpt neg vpt neg V hpt vpt neg V
  hpt vpt V hpt neg vpt V closepath fill} def
/Pent {stroke [] 0 setdash 2 copy gsave
  translate 0 hpt M 4 {72 rotate 0 hpt L} repeat
  closepath stroke grestore Pnt} def
/PentF {stroke [] 0 setdash gsave
  translate 0 hpt M 4 {72 rotate 0 hpt L} repeat
  closepath fill grestore} def
/Circle {stroke [] 0 setdash 2 copy
  hpt 0 360 arc stroke Pnt} def
/CircleF {stroke [] 0 setdash hpt 0 360 arc fill} def
/C0 {BL [] 0 setdash 2 copy moveto vpt 90 450 arc} bind def
/C1 {BL [] 0 setdash 2 copy moveto
	2 copy vpt 0 90 arc closepath fill
	vpt 0 360 arc closepath} bind def
/C2 {BL [] 0 setdash 2 copy moveto
	2 copy vpt 90 180 arc closepath fill
	vpt 0 360 arc closepath} bind def
/C3 {BL [] 0 setdash 2 copy moveto
	2 copy vpt 0 180 arc closepath fill
	vpt 0 360 arc closepath} bind def
/C4 {BL [] 0 setdash 2 copy moveto
	2 copy vpt 180 270 arc closepath fill
	vpt 0 360 arc closepath} bind def
/C5 {BL [] 0 setdash 2 copy moveto
	2 copy vpt 0 90 arc
	2 copy moveto
	2 copy vpt 180 270 arc closepath fill
	vpt 0 360 arc} bind def
/C6 {BL [] 0 setdash 2 copy moveto
	2 copy vpt 90 270 arc closepath fill
	vpt 0 360 arc closepath} bind def
/C7 {BL [] 0 setdash 2 copy moveto
	2 copy vpt 0 270 arc closepath fill
	vpt 0 360 arc closepath} bind def
/C8 {BL [] 0 setdash 2 copy moveto
	2 copy vpt 270 360 arc closepath fill
	vpt 0 360 arc closepath} bind def
/C9 {BL [] 0 setdash 2 copy moveto
	2 copy vpt 270 450 arc closepath fill
	vpt 0 360 arc closepath} bind def
/C10 {BL [] 0 setdash 2 copy 2 copy moveto vpt 270 360 arc closepath fill
	2 copy moveto
	2 copy vpt 90 180 arc closepath fill
	vpt 0 360 arc closepath} bind def
/C11 {BL [] 0 setdash 2 copy moveto
	2 copy vpt 0 180 arc closepath fill
	2 copy moveto
	2 copy vpt 270 360 arc closepath fill
	vpt 0 360 arc closepath} bind def
/C12 {BL [] 0 setdash 2 copy moveto
	2 copy vpt 180 360 arc closepath fill
	vpt 0 360 arc closepath} bind def
/C13 {BL [] 0 setdash 2 copy moveto
	2 copy vpt 0 90 arc closepath fill
	2 copy moveto
	2 copy vpt 180 360 arc closepath fill
	vpt 0 360 arc closepath} bind def
/C14 {BL [] 0 setdash 2 copy moveto
	2 copy vpt 90 360 arc closepath fill
	vpt 0 360 arc} bind def
/C15 {BL [] 0 setdash 2 copy vpt 0 360 arc closepath fill
	vpt 0 360 arc closepath} bind def
/Rec {newpath 4 2 roll moveto 1 index 0 rlineto 0 exch rlineto
	neg 0 rlineto closepath} bind def
/Square {dup Rec} bind def
/Bsquare {vpt sub exch vpt sub exch vpt2 Square} bind def
/S0 {BL [] 0 setdash 2 copy moveto 0 vpt rlineto BL Bsquare} bind def
/S1 {BL [] 0 setdash 2 copy vpt Square fill Bsquare} bind def
/S2 {BL [] 0 setdash 2 copy exch vpt sub exch vpt Square fill Bsquare} bind def
/S3 {BL [] 0 setdash 2 copy exch vpt sub exch vpt2 vpt Rec fill Bsquare} bind def
/S4 {BL [] 0 setdash 2 copy exch vpt sub exch vpt sub vpt Square fill Bsquare} bind def
/S5 {BL [] 0 setdash 2 copy 2 copy vpt Square fill
	exch vpt sub exch vpt sub vpt Square fill Bsquare} bind def
/S6 {BL [] 0 setdash 2 copy exch vpt sub exch vpt sub vpt vpt2 Rec fill Bsquare} bind def
/S7 {BL [] 0 setdash 2 copy exch vpt sub exch vpt sub vpt vpt2 Rec fill
	2 copy vpt Square fill Bsquare} bind def
/S8 {BL [] 0 setdash 2 copy vpt sub vpt Square fill Bsquare} bind def
/S9 {BL [] 0 setdash 2 copy vpt sub vpt vpt2 Rec fill Bsquare} bind def
/S10 {BL [] 0 setdash 2 copy vpt sub vpt Square fill 2 copy exch vpt sub exch vpt Square fill
	Bsquare} bind def
/S11 {BL [] 0 setdash 2 copy vpt sub vpt Square fill 2 copy exch vpt sub exch vpt2 vpt Rec fill
	Bsquare} bind def
/S12 {BL [] 0 setdash 2 copy exch vpt sub exch vpt sub vpt2 vpt Rec fill Bsquare} bind def
/S13 {BL [] 0 setdash 2 copy exch vpt sub exch vpt sub vpt2 vpt Rec fill
	2 copy vpt Square fill Bsquare} bind def
/S14 {BL [] 0 setdash 2 copy exch vpt sub exch vpt sub vpt2 vpt Rec fill
	2 copy exch vpt sub exch vpt Square fill Bsquare} bind def
/S15 {BL [] 0 setdash 2 copy Bsquare fill Bsquare} bind def
/D0 {gsave translate 45 rotate 0 0 S0 stroke grestore} bind def
/D1 {gsave translate 45 rotate 0 0 S1 stroke grestore} bind def
/D2 {gsave translate 45 rotate 0 0 S2 stroke grestore} bind def
/D3 {gsave translate 45 rotate 0 0 S3 stroke grestore} bind def
/D4 {gsave translate 45 rotate 0 0 S4 stroke grestore} bind def
/D5 {gsave translate 45 rotate 0 0 S5 stroke grestore} bind def
/D6 {gsave translate 45 rotate 0 0 S6 stroke grestore} bind def
/D7 {gsave translate 45 rotate 0 0 S7 stroke grestore} bind def
/D8 {gsave translate 45 rotate 0 0 S8 stroke grestore} bind def
/D9 {gsave translate 45 rotate 0 0 S9 stroke grestore} bind def
/D10 {gsave translate 45 rotate 0 0 S10 stroke grestore} bind def
/D11 {gsave translate 45 rotate 0 0 S11 stroke grestore} bind def
/D12 {gsave translate 45 rotate 0 0 S12 stroke grestore} bind def
/D13 {gsave translate 45 rotate 0 0 S13 stroke grestore} bind def
/D14 {gsave translate 45 rotate 0 0 S14 stroke grestore} bind def
/D15 {gsave translate 45 rotate 0 0 S15 stroke grestore} bind def
/DiaE {stroke [] 0 setdash vpt add M
  hpt neg vpt neg V hpt vpt neg V
  hpt vpt V hpt neg vpt V closepath stroke} def
/BoxE {stroke [] 0 setdash exch hpt sub exch vpt add M
  0 vpt2 neg V hpt2 0 V 0 vpt2 V
  hpt2 neg 0 V closepath stroke} def
/TriUE {stroke [] 0 setdash vpt 1.12 mul add M
  hpt neg vpt -1.62 mul V
  hpt 2 mul 0 V
  hpt neg vpt 1.62 mul V closepath stroke} def
/TriDE {stroke [] 0 setdash vpt 1.12 mul sub M
  hpt neg vpt 1.62 mul V
  hpt 2 mul 0 V
  hpt neg vpt -1.62 mul V closepath stroke} def
/PentE {stroke [] 0 setdash gsave
  translate 0 hpt M 4 {72 rotate 0 hpt L} repeat
  closepath stroke grestore} def
/CircE {stroke [] 0 setdash 
  hpt 0 360 arc stroke} def
/Opaque {gsave closepath 1 setgray fill grestore 0 setgray closepath} def
/DiaW {stroke [] 0 setdash vpt add M
  hpt neg vpt neg V hpt vpt neg V
  hpt vpt V hpt neg vpt V Opaque stroke} def
/BoxW {stroke [] 0 setdash exch hpt sub exch vpt add M
  0 vpt2 neg V hpt2 0 V 0 vpt2 V
  hpt2 neg 0 V Opaque stroke} def
/TriUW {stroke [] 0 setdash vpt 1.12 mul add M
  hpt neg vpt -1.62 mul V
  hpt 2 mul 0 V
  hpt neg vpt 1.62 mul V Opaque stroke} def
/TriDW {stroke [] 0 setdash vpt 1.12 mul sub M
  hpt neg vpt 1.62 mul V
  hpt 2 mul 0 V
  hpt neg vpt -1.62 mul V Opaque stroke} def
/PentW {stroke [] 0 setdash gsave
  translate 0 hpt M 4 {72 rotate 0 hpt L} repeat
  Opaque stroke grestore} def
/CircW {stroke [] 0 setdash 
  hpt 0 360 arc Opaque stroke} def
/BoxFill {gsave Rec 1 setgray fill grestore} def
/Density {
  /Fillden exch def
  currentrgbcolor
  /ColB exch def /ColG exch def /ColR exch def
  /ColR ColR Fillden mul Fillden sub 1 add def
  /ColG ColG Fillden mul Fillden sub 1 add def
  /ColB ColB Fillden mul Fillden sub 1 add def
  ColR ColG ColB setrgbcolor} def
/BoxColFill {gsave Rec PolyFill} def
/PolyFill {gsave Density fill grestore grestore} def
/h {rlineto rlineto rlineto gsave closepath fill grestore} bind def
%
% PostScript Level 1 Pattern Fill routine for rectangles
% Usage: x y w h s a XX PatternFill
%	x,y = lower left corner of box to be filled
%	w,h = width and height of box
%	  a = angle in degrees between lines and x-axis
%	 XX = 0/1 for no/yes cross-hatch
%
/PatternFill {gsave /PFa [ 9 2 roll ] def
  PFa 0 get PFa 2 get 2 div add PFa 1 get PFa 3 get 2 div add translate
  PFa 2 get -2 div PFa 3 get -2 div PFa 2 get PFa 3 get Rec
  TransparentPatterns {} {gsave 1 setgray fill grestore} ifelse
  clip
  currentlinewidth 0.5 mul setlinewidth
  /PFs PFa 2 get dup mul PFa 3 get dup mul add sqrt def
  0 0 M PFa 5 get rotate PFs -2 div dup translate
  0 1 PFs PFa 4 get div 1 add floor cvi
	{PFa 4 get mul 0 M 0 PFs V} for
  0 PFa 6 get ne {
	0 1 PFs PFa 4 get div 1 add floor cvi
	{PFa 4 get mul 0 2 1 roll M PFs 0 V} for
 } if
  stroke grestore} def
%
/languagelevel where
 {pop languagelevel} {1} ifelse
dup 2 lt
	{/InterpretLevel1 true def
	 /InterpretLevel3 false def}
	{/InterpretLevel1 Level1 def
	 2 gt
	    {/InterpretLevel3 Level3 def}
	    {/InterpretLevel3 false def}
	 ifelse }
 ifelse
%
% PostScript level 2 pattern fill definitions
%
/Level2PatternFill {
/Tile8x8 {/PaintType 2 /PatternType 1 /TilingType 1 /BBox [0 0 8 8] /XStep 8 /YStep 8}
	bind def
/KeepColor {currentrgbcolor [/Pattern /DeviceRGB] setcolorspace} bind def
<< Tile8x8
 /PaintProc {0.5 setlinewidth pop 0 0 M 8 8 L 0 8 M 8 0 L stroke} 
>> matrix makepattern
/Pat1 exch def
<< Tile8x8
 /PaintProc {0.5 setlinewidth pop 0 0 M 8 8 L 0 8 M 8 0 L stroke
	0 4 M 4 8 L 8 4 L 4 0 L 0 4 L stroke}
>> matrix makepattern
/Pat2 exch def
<< Tile8x8
 /PaintProc {0.5 setlinewidth pop 0 0 M 0 8 L
	8 8 L 8 0 L 0 0 L fill}
>> matrix makepattern
/Pat3 exch def
<< Tile8x8
 /PaintProc {0.5 setlinewidth pop -4 8 M 8 -4 L
	0 12 M 12 0 L stroke}
>> matrix makepattern
/Pat4 exch def
<< Tile8x8
 /PaintProc {0.5 setlinewidth pop -4 0 M 8 12 L
	0 -4 M 12 8 L stroke}
>> matrix makepattern
/Pat5 exch def
<< Tile8x8
 /PaintProc {0.5 setlinewidth pop -2 8 M 4 -4 L
	0 12 M 8 -4 L 4 12 M 10 0 L stroke}
>> matrix makepattern
/Pat6 exch def
<< Tile8x8
 /PaintProc {0.5 setlinewidth pop -2 0 M 4 12 L
	0 -4 M 8 12 L 4 -4 M 10 8 L stroke}
>> matrix makepattern
/Pat7 exch def
<< Tile8x8
 /PaintProc {0.5 setlinewidth pop 8 -2 M -4 4 L
	12 0 M -4 8 L 12 4 M 0 10 L stroke}
>> matrix makepattern
/Pat8 exch def
<< Tile8x8
 /PaintProc {0.5 setlinewidth pop 0 -2 M 12 4 L
	-4 0 M 12 8 L -4 4 M 8 10 L stroke}
>> matrix makepattern
/Pat9 exch def
/Pattern1 {PatternBgnd KeepColor Pat1 setpattern} bind def
/Pattern2 {PatternBgnd KeepColor Pat2 setpattern} bind def
/Pattern3 {PatternBgnd KeepColor Pat3 setpattern} bind def
/Pattern4 {PatternBgnd KeepColor Landscape {Pat5} {Pat4} ifelse setpattern} bind def
/Pattern5 {PatternBgnd KeepColor Landscape {Pat4} {Pat5} ifelse setpattern} bind def
/Pattern6 {PatternBgnd KeepColor Landscape {Pat9} {Pat6} ifelse setpattern} bind def
/Pattern7 {PatternBgnd KeepColor Landscape {Pat8} {Pat7} ifelse setpattern} bind def
} def
%
%
%End of PostScript Level 2 code
%
/PatternBgnd {
  TransparentPatterns {} {gsave 1 setgray fill grestore} ifelse
} def
%
% Substitute for Level 2 pattern fill codes with
% grayscale if Level 2 support is not selected.
%
/Level1PatternFill {
/Pattern1 {0.250 Density} bind def
/Pattern2 {0.500 Density} bind def
/Pattern3 {0.750 Density} bind def
/Pattern4 {0.125 Density} bind def
/Pattern5 {0.375 Density} bind def
/Pattern6 {0.625 Density} bind def
/Pattern7 {0.875 Density} bind def
} def
%
% Now test for support of Level 2 code
%
Level1 {Level1PatternFill} {Level2PatternFill} ifelse
%
/Symbol-Oblique /Symbol findfont [1 0 .167 1 0 0] makefont
dup length dict begin {1 index /FID eq {pop pop} {def} ifelse} forall
currentdict end definefont pop
%
/MFshow {
   { dup 5 get 3 ge
     { 5 get 3 eq {gsave} {grestore} ifelse }
     {dup dup 0 get findfont exch 1 get scalefont setfont
     [ currentpoint ] exch dup 2 get 0 exch R dup 5 get 2 ne {dup dup 6
     get exch 4 get {textshow} {stringwidth pop 0 R} ifelse }if dup 5 get 0 eq
     {dup 3 get {2 get neg 0 exch R pop} {pop aload pop M} ifelse} {dup 5
     get 1 eq {dup 2 get exch dup 3 get exch 6 get stringwidth pop -2 div
     dup 0 R} {dup 6 get stringwidth pop -2 div 0 R 6 get
     textshow 2 index {aload pop M neg 3 -1 roll neg R pop pop} {pop pop pop
     pop aload pop M} ifelse }ifelse }ifelse }
     ifelse }
   forall} def
/Gswidth {dup type /stringtype eq {stringwidth} {pop (n) stringwidth} ifelse} def
/MFwidth {0 exch { dup 5 get 3 ge { 5 get 3 eq { 0 } { pop } ifelse }
 {dup 3 get{dup dup 0 get findfont exch 1 get scalefont setfont
     6 get Gswidth pop add} {pop} ifelse} ifelse} forall} def
/MLshow { currentpoint stroke M
  0 exch R
  Blacktext {gsave 0 setgray MFshow grestore} {MFshow} ifelse } bind def
/MRshow { currentpoint stroke M
  exch dup MFwidth neg 3 -1 roll R
  Blacktext {gsave 0 setgray MFshow grestore} {MFshow} ifelse } bind def
/MCshow { currentpoint stroke M
  exch dup MFwidth -2 div 3 -1 roll R
  Blacktext {gsave 0 setgray MFshow grestore} {MFshow} ifelse } bind def
/XYsave    { [( ) 1 2 true false 3 ()] } bind def
/XYrestore { [( ) 1 2 true false 4 ()] } bind def
Level1 SuppressPDFMark or 
{} {
/SDict 10 dict def
systemdict /pdfmark known not {
  userdict /pdfmark systemdict /cleartomark get put
} if
SDict begin [
  /Title (packets-uv-s-add-packets-uv-ccdf-loglin.eps)
  /Subject (gnuplot plot)
  /Creator (gnuplot 5.0 patchlevel 3)
  /Author (tiphaine)
%  /Producer (gnuplot)
%  /Keywords ()
  /CreationDate (Mon May 29 11:08:45 2017)
  /DOCINFO pdfmark
end
} ifelse
%
% Support for boxed text - Ethan A Merritt May 2005
%
/InitTextBox { userdict /TBy2 3 -1 roll put userdict /TBx2 3 -1 roll put
           userdict /TBy1 3 -1 roll put userdict /TBx1 3 -1 roll put
	   /Boxing true def } def
/ExtendTextBox { Boxing
    { gsave dup false charpath pathbbox
      dup TBy2 gt {userdict /TBy2 3 -1 roll put} {pop} ifelse
      dup TBx2 gt {userdict /TBx2 3 -1 roll put} {pop} ifelse
      dup TBy1 lt {userdict /TBy1 3 -1 roll put} {pop} ifelse
      dup TBx1 lt {userdict /TBx1 3 -1 roll put} {pop} ifelse
      grestore } if } def
/PopTextBox { newpath TBx1 TBxmargin sub TBy1 TBymargin sub M
               TBx1 TBxmargin sub TBy2 TBymargin add L
	       TBx2 TBxmargin add TBy2 TBymargin add L
	       TBx2 TBxmargin add TBy1 TBymargin sub L closepath } def
/DrawTextBox { PopTextBox stroke /Boxing false def} def
/FillTextBox { gsave PopTextBox 1 1 1 setrgbcolor fill grestore /Boxing false def} def
0 0 0 0 InitTextBox
/TBxmargin 20 def
/TBymargin 20 def
/Boxing false def
/textshow { ExtendTextBox Gshow } def
%
% redundant definitions for compatibility with prologue.ps older than 5.0.2
/LTB {BL [] LCb DL} def
/LTb {PL [] LCb DL} def
end
%%EndProlog
%%Page: 1 1
gnudict begin
gsave
doclip
50 50 translate
0.100 0.100 scale
90 rotate
0 -5040 translate
0 setgray
newpath
(Helvetica) findfont 140 scalefont setfont
BackgroundColor 0 lt 3 1 roll 0 lt exch 0 lt or or not {gsave BackgroundColor C clippath fill grestore} if
1.000 UL
LTb
LCb setrgbcolor
546 280 M
63 0 V
6338 0 R
-63 0 V
stroke
462 280 M
[ [(Helvetica) 140.0 0.0 true true 0 ( 0)]
] -46.7 MRshow
1.000 UL
LTb
LCb setrgbcolor
546 739 M
63 0 V
6338 0 R
-63 0 V
stroke
462 739 M
[ [(Helvetica) 140.0 0.0 true true 0 ( 0.1)]
] -46.7 MRshow
1.000 UL
LTb
LCb setrgbcolor
546 1198 M
63 0 V
6338 0 R
-63 0 V
stroke
462 1198 M
[ [(Helvetica) 140.0 0.0 true true 0 ( 0.2)]
] -46.7 MRshow
1.000 UL
LTb
LCb setrgbcolor
546 1657 M
63 0 V
6338 0 R
-63 0 V
stroke
462 1657 M
[ [(Helvetica) 140.0 0.0 true true 0 ( 0.3)]
] -46.7 MRshow
1.000 UL
LTb
LCb setrgbcolor
546 2116 M
63 0 V
6338 0 R
-63 0 V
stroke
462 2116 M
[ [(Helvetica) 140.0 0.0 true true 0 ( 0.4)]
] -46.7 MRshow
1.000 UL
LTb
LCb setrgbcolor
546 2576 M
63 0 V
6338 0 R
-63 0 V
stroke
462 2576 M
[ [(Helvetica) 140.0 0.0 true true 0 ( 0.5)]
] -46.7 MRshow
1.000 UL
LTb
LCb setrgbcolor
546 3035 M
63 0 V
6338 0 R
-63 0 V
stroke
462 3035 M
[ [(Helvetica) 140.0 0.0 true true 0 ( 0.6)]
] -46.7 MRshow
1.000 UL
LTb
LCb setrgbcolor
546 3494 M
63 0 V
6338 0 R
-63 0 V
stroke
462 3494 M
[ [(Helvetica) 140.0 0.0 true true 0 ( 0.7)]
] -46.7 MRshow
1.000 UL
LTb
LCb setrgbcolor
546 3953 M
63 0 V
6338 0 R
-63 0 V
stroke
462 3953 M
[ [(Helvetica) 140.0 0.0 true true 0 ( 0.8)]
] -46.7 MRshow
1.000 UL
LTb
LCb setrgbcolor
546 4412 M
63 0 V
6338 0 R
-63 0 V
stroke
462 4412 M
[ [(Helvetica) 140.0 0.0 true true 0 ( 0.9)]
] -46.7 MRshow
1.000 UL
LTb
LCb setrgbcolor
546 4871 M
63 0 V
6338 0 R
-63 0 V
stroke
462 4871 M
[ [(Helvetica) 140.0 0.0 true true 0 ( 1)]
] -46.7 MRshow
1.000 UL
LTb
LCb setrgbcolor
546 280 M
0 63 V
0 4528 R
0 -63 V
stroke
546 140 M
[ [(Helvetica) 140.0 0.0 true true 0 ( 1)]
] -46.7 MCshow
1.000 UL
LTb
LCb setrgbcolor
821 280 M
0 31 V
0 4560 R
0 -31 V
1185 280 M
0 31 V
0 4560 R
0 -31 V
1372 280 M
0 31 V
0 4560 R
0 -31 V
1460 280 M
0 63 V
0 4528 R
0 -63 V
stroke
1460 140 M
[ [(Helvetica) 140.0 0.0 true true 0 ( 10)]
] -46.7 MCshow
1.000 UL
LTb
LCb setrgbcolor
1736 280 M
0 31 V
0 4560 R
0 -31 V
2100 280 M
0 31 V
0 4560 R
0 -31 V
2286 280 M
0 31 V
0 4560 R
0 -31 V
2375 280 M
0 63 V
0 4528 R
0 -63 V
stroke
2375 140 M
[ [(Helvetica) 140.0 0.0 true true 0 ( 100)]
] -46.7 MCshow
1.000 UL
LTb
LCb setrgbcolor
2650 280 M
0 31 V
0 4560 R
0 -31 V
3014 280 M
0 31 V
0 4560 R
0 -31 V
3201 280 M
0 31 V
0 4560 R
0 -31 V
3289 280 M
0 63 V
0 4528 R
0 -63 V
stroke
3289 140 M
[ [(Helvetica) 140.0 0.0 true true 0 ( 1000)]
] -46.7 MCshow
1.000 UL
LTb
LCb setrgbcolor
3565 280 M
0 31 V
0 4560 R
0 -31 V
3928 280 M
0 31 V
0 4560 R
0 -31 V
4115 280 M
0 31 V
0 4560 R
0 -31 V
4204 280 M
0 63 V
0 4528 R
0 -63 V
stroke
4204 140 M
[ [(Helvetica) 140.0 0.0 true true 0 ( 10000)]
] -46.7 MCshow
1.000 UL
LTb
LCb setrgbcolor
4479 280 M
0 31 V
0 4560 R
0 -31 V
4843 280 M
0 31 V
0 4560 R
0 -31 V
5030 280 M
0 31 V
0 4560 R
0 -31 V
5118 280 M
0 63 V
0 4528 R
0 -63 V
stroke
5118 140 M
[ [(Helvetica) 140.0 0.0 true true 0 ( 100000)]
] -46.7 MCshow
1.000 UL
LTb
LCb setrgbcolor
5393 280 M
0 31 V
0 4560 R
0 -31 V
5757 280 M
0 31 V
0 4560 R
0 -31 V
5944 280 M
0 31 V
0 4560 R
0 -31 V
6033 280 M
0 63 V
0 4528 R
0 -63 V
stroke
6033 140 M
[ [(Helvetica) 140.0 0.0 true true 0 ( 1x10)]
[(Helvetica) 112.0 70.0 true true 0 (6)]
] -60.7 MCshow
1.000 UL
LTb
LCb setrgbcolor
6308 280 M
0 31 V
0 4560 R
0 -31 V
6672 280 M
0 31 V
0 4560 R
0 -31 V
6858 280 M
0 31 V
0 4560 R
0 -31 V
6947 280 M
0 63 V
0 4528 R
0 -63 V
stroke
6947 140 M
[ [(Helvetica) 140.0 0.0 true true 0 ( 1x10)]
[(Helvetica) 112.0 70.0 true true 0 (7)]
] -60.7 MCshow
1.000 UL
LTb
LCb setrgbcolor
1.000 UL
LTB
LCb setrgbcolor
546 4871 N
546 280 L
6401 0 V
0 4591 V
-6401 0 V
Z stroke
1.000 UP
1.000 UL
LTb
LCb setrgbcolor
% Begin plot #1
1.000 UP
1.000 UL
LTb
0.58 0.00 0.83 C 821 4871 Pls
1097 2354 Pls
1258 1215 Pls
1372 1047 Pls
1460 923 Pls
1533 851 Pls
1594 786 Pls
1647 751 Pls
1694 708 Pls
1736 683 Pls
1774 640 Pls
1808 619 Pls
1840 592 Pls
1869 577 Pls
1897 559 Pls
1922 543 Pls
1946 526 Pls
1969 515 Pls
1991 502 Pls
2011 492 Pls
2030 479 Pls
2049 471 Pls
2066 463 Pls
2083 457 Pls
2100 450 Pls
2115 445 Pls
2130 440 Pls
2145 436 Pls
2159 431 Pls
2172 428 Pls
2185 423 Pls
2198 420 Pls
2210 417 Pls
2222 414 Pls
2233 411 Pls
2244 408 Pls
2255 405 Pls
2266 403 Pls
2276 401 Pls
2286 399 Pls
2296 397 Pls
2306 395 Pls
2315 393 Pls
2324 391 Pls
2333 390 Pls
2342 388 Pls
2350 386 Pls
2359 384 Pls
2367 382 Pls
2375 380 Pls
2383 378 Pls
2390 376 Pls
2398 375 Pls
2405 374 Pls
2413 372 Pls
2420 371 Pls
2427 370 Pls
2434 369 Pls
2441 368 Pls
2447 367 Pls
2454 365 Pls
2460 364 Pls
2467 363 Pls
2473 362 Pls
2479 361 Pls
2485 360 Pls
2491 360 Pls
2497 359 Pls
2503 358 Pls
2508 357 Pls
2514 357 Pls
2520 356 Pls
2525 355 Pls
2531 355 Pls
2536 354 Pls
2541 353 Pls
2546 353 Pls
2551 352 Pls
2557 351 Pls
2562 351 Pls
2566 350 Pls
2571 349 Pls
2576 349 Pls
2581 348 Pls
2586 348 Pls
2590 347 Pls
2595 347 Pls
2599 346 Pls
2604 346 Pls
2608 346 Pls
2613 345 Pls
2617 345 Pls
2621 344 Pls
2626 344 Pls
2630 343 Pls
2634 343 Pls
2638 342 Pls
2642 342 Pls
2646 341 Pls
2650 341 Pls
2654 339 Pls
2658 339 Pls
2662 338 Pls
2666 338 Pls
2670 338 Pls
2673 337 Pls
2677 337 Pls
2681 337 Pls
2684 336 Pls
2688 336 Pls
2692 336 Pls
2695 335 Pls
2699 335 Pls
2702 335 Pls
2706 334 Pls
2709 334 Pls
2712 334 Pls
2716 333 Pls
2719 333 Pls
2723 333 Pls
2726 332 Pls
2729 332 Pls
2732 331 Pls
2736 331 Pls
2739 331 Pls
2742 331 Pls
2745 330 Pls
2748 330 Pls
2751 330 Pls
2754 329 Pls
2757 329 Pls
2760 329 Pls
2763 328 Pls
2766 328 Pls
2769 328 Pls
2772 328 Pls
2775 327 Pls
2778 327 Pls
2781 327 Pls
2784 326 Pls
2787 326 Pls
2789 326 Pls
2792 326 Pls
2795 325 Pls
2798 325 Pls
2800 325 Pls
2803 325 Pls
2806 325 Pls
2808 324 Pls
2811 324 Pls
2814 324 Pls
2816 324 Pls
2819 324 Pls
2822 324 Pls
2824 323 Pls
2827 323 Pls
2829 323 Pls
2832 323 Pls
2834 323 Pls
2837 322 Pls
2839 322 Pls
2842 322 Pls
2844 322 Pls
2847 322 Pls
2849 322 Pls
2851 321 Pls
2854 321 Pls
2856 321 Pls
2859 321 Pls
2861 321 Pls
2863 321 Pls
2866 320 Pls
2868 320 Pls
2870 320 Pls
2872 320 Pls
2875 320 Pls
2877 320 Pls
2879 319 Pls
2881 319 Pls
2884 319 Pls
2886 319 Pls
2888 319 Pls
2890 318 Pls
2892 318 Pls
2894 318 Pls
2897 318 Pls
2899 318 Pls
2901 318 Pls
2903 318 Pls
2905 318 Pls
2907 317 Pls
2909 317 Pls
2911 317 Pls
2913 317 Pls
2915 317 Pls
2917 317 Pls
2919 317 Pls
2921 317 Pls
2923 316 Pls
2925 316 Pls
2927 316 Pls
2929 316 Pls
2931 316 Pls
2933 316 Pls
2935 316 Pls
2937 316 Pls
2939 315 Pls
2941 315 Pls
2943 315 Pls
2945 315 Pls
2947 315 Pls
2949 315 Pls
2950 315 Pls
2952 315 Pls
2954 314 Pls
2956 314 Pls
2958 314 Pls
2960 314 Pls
2961 314 Pls
2963 314 Pls
2965 314 Pls
2967 314 Pls
2969 314 Pls
2970 313 Pls
2972 313 Pls
2974 313 Pls
2976 313 Pls
2977 313 Pls
2979 313 Pls
2981 313 Pls
2983 313 Pls
2984 313 Pls
2986 313 Pls
2988 313 Pls
2989 312 Pls
2991 312 Pls
2993 312 Pls
2994 312 Pls
2996 312 Pls
2998 312 Pls
2999 312 Pls
3001 312 Pls
3003 312 Pls
3004 312 Pls
3006 311 Pls
3008 311 Pls
3009 311 Pls
3011 311 Pls
3012 311 Pls
3014 311 Pls
3016 311 Pls
3017 311 Pls
3019 311 Pls
3020 311 Pls
3022 311 Pls
3023 311 Pls
3025 310 Pls
3027 310 Pls
3028 310 Pls
3030 310 Pls
3031 310 Pls
3033 310 Pls
3034 310 Pls
3036 310 Pls
3037 310 Pls
3039 310 Pls
3040 310 Pls
3042 310 Pls
3043 310 Pls
3045 310 Pls
3046 309 Pls
3048 309 Pls
3049 309 Pls
3050 309 Pls
3052 309 Pls
3053 309 Pls
3055 309 Pls
3056 309 Pls
3058 309 Pls
3059 309 Pls
3060 309 Pls
3062 309 Pls
3063 309 Pls
3065 309 Pls
3066 308 Pls
3067 308 Pls
3069 308 Pls
3070 308 Pls
3072 308 Pls
3073 308 Pls
3074 308 Pls
3076 308 Pls
3077 308 Pls
3078 308 Pls
3080 308 Pls
3081 308 Pls
3082 308 Pls
3084 308 Pls
3085 308 Pls
3086 307 Pls
3088 307 Pls
3089 307 Pls
3090 307 Pls
3092 307 Pls
3093 307 Pls
3094 307 Pls
3096 307 Pls
3097 307 Pls
3098 307 Pls
3099 307 Pls
3101 307 Pls
3102 307 Pls
3103 307 Pls
3105 307 Pls
3106 307 Pls
3107 306 Pls
3108 306 Pls
3110 306 Pls
3111 306 Pls
3112 306 Pls
3113 306 Pls
3115 306 Pls
3116 306 Pls
3117 306 Pls
3118 306 Pls
3119 306 Pls
3121 306 Pls
3122 306 Pls
3123 306 Pls
3124 306 Pls
3125 306 Pls
3127 306 Pls
3128 306 Pls
3129 306 Pls
3130 305 Pls
3131 305 Pls
3133 305 Pls
3134 305 Pls
3135 305 Pls
3136 305 Pls
3137 305 Pls
3138 305 Pls
3140 305 Pls
3141 305 Pls
3142 305 Pls
3143 305 Pls
3144 305 Pls
3145 305 Pls
3147 305 Pls
3148 305 Pls
3149 305 Pls
3150 305 Pls
3151 305 Pls
3152 305 Pls
3153 305 Pls
3154 305 Pls
3156 304 Pls
3157 304 Pls
3158 304 Pls
3159 304 Pls
3160 304 Pls
3161 304 Pls
3162 304 Pls
3163 304 Pls
3164 304 Pls
3165 304 Pls
3166 304 Pls
3168 304 Pls
3169 304 Pls
3170 304 Pls
3171 304 Pls
3172 304 Pls
3173 304 Pls
3174 304 Pls
3175 304 Pls
3176 304 Pls
3177 304 Pls
3178 304 Pls
3179 304 Pls
3180 303 Pls
3181 303 Pls
3182 303 Pls
3183 303 Pls
3184 303 Pls
3185 303 Pls
3187 303 Pls
3188 303 Pls
3189 303 Pls
3190 303 Pls
3191 303 Pls
3192 303 Pls
3193 303 Pls
3194 303 Pls
3195 303 Pls
3196 303 Pls
3197 303 Pls
3198 303 Pls
3199 303 Pls
3200 303 Pls
3201 303 Pls
3202 303 Pls
3203 303 Pls
3204 303 Pls
3205 303 Pls
3206 303 Pls
3207 302 Pls
3208 302 Pls
3209 302 Pls
3210 302 Pls
3210 302 Pls
3211 302 Pls
3212 302 Pls
3213 302 Pls
3214 302 Pls
3215 302 Pls
3216 302 Pls
3217 302 Pls
3218 302 Pls
3219 302 Pls
3220 302 Pls
3221 302 Pls
3222 302 Pls
3223 302 Pls
3224 302 Pls
3225 302 Pls
3226 302 Pls
3227 302 Pls
3228 302 Pls
3228 302 Pls
3229 302 Pls
3230 302 Pls
3231 302 Pls
3232 302 Pls
3233 301 Pls
3234 301 Pls
3235 301 Pls
3236 301 Pls
3237 301 Pls
3238 301 Pls
3239 301 Pls
3239 301 Pls
3240 301 Pls
3241 301 Pls
3242 301 Pls
3243 301 Pls
3244 301 Pls
3245 301 Pls
3246 301 Pls
3247 301 Pls
3247 301 Pls
3248 301 Pls
3249 301 Pls
3250 301 Pls
3251 301 Pls
3252 301 Pls
3253 301 Pls
3254 301 Pls
3254 301 Pls
3255 301 Pls
3256 301 Pls
3257 301 Pls
3258 301 Pls
3259 301 Pls
3260 300 Pls
3260 300 Pls
3261 300 Pls
3262 300 Pls
3263 300 Pls
3264 300 Pls
3265 300 Pls
3266 300 Pls
3266 300 Pls
3267 300 Pls
3268 300 Pls
3269 300 Pls
3270 300 Pls
3271 300 Pls
3271 300 Pls
3272 300 Pls
3273 300 Pls
3274 300 Pls
3275 300 Pls
3276 300 Pls
3276 300 Pls
3277 300 Pls
3278 300 Pls
3279 300 Pls
3280 300 Pls
3280 300 Pls
3281 300 Pls
3282 300 Pls
3283 300 Pls
3284 300 Pls
3284 300 Pls
3285 300 Pls
3286 300 Pls
3287 299 Pls
3288 299 Pls
3288 299 Pls
3289 299 Pls
3290 299 Pls
3291 299 Pls
3292 299 Pls
3292 299 Pls
3293 299 Pls
3294 299 Pls
3295 299 Pls
3296 299 Pls
3296 299 Pls
3297 299 Pls
3298 299 Pls
3299 299 Pls
3299 299 Pls
3300 299 Pls
3301 299 Pls
3302 299 Pls
3303 299 Pls
3303 299 Pls
3304 299 Pls
3305 299 Pls
3306 299 Pls
3306 299 Pls
3307 299 Pls
3308 299 Pls
3309 299 Pls
3309 299 Pls
3310 299 Pls
3311 299 Pls
3312 299 Pls
3312 299 Pls
3313 299 Pls
3314 299 Pls
3315 299 Pls
3315 299 Pls
3316 299 Pls
3317 298 Pls
3318 298 Pls
3318 298 Pls
3319 298 Pls
3320 298 Pls
3321 298 Pls
3321 298 Pls
3322 298 Pls
3323 298 Pls
3324 298 Pls
3324 298 Pls
3325 298 Pls
3326 298 Pls
3326 298 Pls
3327 298 Pls
3328 298 Pls
3329 298 Pls
3329 298 Pls
3330 298 Pls
3331 298 Pls
3331 298 Pls
3332 298 Pls
3333 298 Pls
3334 298 Pls
3334 298 Pls
3335 298 Pls
3336 298 Pls
3336 298 Pls
3337 298 Pls
3338 298 Pls
3339 298 Pls
3339 298 Pls
3340 298 Pls
3341 298 Pls
3341 298 Pls
3342 298 Pls
3343 298 Pls
3343 298 Pls
3344 298 Pls
3345 298 Pls
3345 298 Pls
3346 298 Pls
3347 298 Pls
3348 298 Pls
3348 297 Pls
3349 297 Pls
3350 297 Pls
3350 297 Pls
3351 297 Pls
3352 297 Pls
3352 297 Pls
3353 297 Pls
3354 297 Pls
3354 297 Pls
3355 297 Pls
3356 297 Pls
3356 297 Pls
3357 297 Pls
3358 297 Pls
3358 297 Pls
3359 297 Pls
3360 297 Pls
3360 297 Pls
3361 297 Pls
3362 297 Pls
3362 297 Pls
3363 297 Pls
3364 297 Pls
3364 297 Pls
3365 297 Pls
3366 297 Pls
3366 297 Pls
3367 297 Pls
3368 297 Pls
3368 297 Pls
3369 297 Pls
3370 297 Pls
3370 297 Pls
3371 297 Pls
3371 297 Pls
3372 297 Pls
3373 297 Pls
3373 297 Pls
3374 297 Pls
3375 297 Pls
3375 297 Pls
3376 297 Pls
3377 297 Pls
3377 297 Pls
3378 297 Pls
3379 297 Pls
3379 297 Pls
3380 297 Pls
3380 296 Pls
3381 296 Pls
3382 296 Pls
3382 296 Pls
3383 296 Pls
3384 296 Pls
3384 296 Pls
3385 296 Pls
3385 296 Pls
3386 296 Pls
3387 296 Pls
3387 296 Pls
3388 296 Pls
3389 296 Pls
3389 296 Pls
3390 296 Pls
3390 296 Pls
3391 296 Pls
3392 296 Pls
3392 296 Pls
3393 296 Pls
3393 296 Pls
3394 296 Pls
3395 296 Pls
3395 296 Pls
3396 296 Pls
3397 296 Pls
3397 296 Pls
3398 296 Pls
3398 296 Pls
3399 296 Pls
3400 295 Pls
3400 295 Pls
3401 295 Pls
3401 295 Pls
3402 295 Pls
3403 295 Pls
3403 295 Pls
3404 295 Pls
3404 295 Pls
3405 295 Pls
3406 295 Pls
3406 295 Pls
3407 295 Pls
3407 295 Pls
3408 295 Pls
3408 295 Pls
3409 295 Pls
3410 295 Pls
3410 295 Pls
3411 295 Pls
3411 295 Pls
3412 295 Pls
3413 295 Pls
3413 295 Pls
3414 295 Pls
3414 295 Pls
3415 295 Pls
3415 295 Pls
3416 295 Pls
3417 295 Pls
3417 295 Pls
3418 295 Pls
3418 295 Pls
3419 295 Pls
3419 295 Pls
3420 295 Pls
3421 294 Pls
3421 294 Pls
3422 294 Pls
3422 294 Pls
3423 294 Pls
3423 294 Pls
3424 294 Pls
3425 294 Pls
3425 294 Pls
3426 294 Pls
3426 294 Pls
3427 294 Pls
3427 294 Pls
3428 294 Pls
3429 294 Pls
3429 294 Pls
3430 294 Pls
3430 294 Pls
3431 294 Pls
3431 294 Pls
3432 294 Pls
3432 294 Pls
3433 294 Pls
3434 294 Pls
3434 294 Pls
3435 294 Pls
3435 294 Pls
3436 294 Pls
3436 294 Pls
3437 294 Pls
3437 294 Pls
3438 294 Pls
3438 294 Pls
3439 294 Pls
3440 294 Pls
3440 294 Pls
3441 294 Pls
3441 294 Pls
3442 294 Pls
3442 294 Pls
3443 294 Pls
3443 294 Pls
3444 294 Pls
3444 294 Pls
3445 293 Pls
3446 293 Pls
3446 293 Pls
3447 293 Pls
3447 293 Pls
3448 293 Pls
3448 293 Pls
3449 293 Pls
3449 293 Pls
3450 293 Pls
3450 293 Pls
3451 293 Pls
3451 293 Pls
3452 293 Pls
3452 293 Pls
3453 293 Pls
3453 293 Pls
3454 293 Pls
3455 293 Pls
3455 293 Pls
3456 293 Pls
3456 293 Pls
3457 293 Pls
3457 293 Pls
3458 293 Pls
3458 293 Pls
3459 293 Pls
3459 293 Pls
3460 293 Pls
3460 293 Pls
3461 293 Pls
3461 293 Pls
3462 293 Pls
3462 293 Pls
3463 293 Pls
3463 293 Pls
3464 293 Pls
3464 293 Pls
3465 293 Pls
3465 293 Pls
3466 293 Pls
3466 293 Pls
3467 293 Pls
3467 293 Pls
3468 293 Pls
3468 293 Pls
3469 293 Pls
3469 293 Pls
3470 293 Pls
3470 293 Pls
3471 293 Pls
3471 293 Pls
3472 293 Pls
3472 293 Pls
3473 293 Pls
3473 293 Pls
3474 293 Pls
3474 293 Pls
3475 293 Pls
3475 293 Pls
3476 293 Pls
3476 292 Pls
3477 292 Pls
3477 292 Pls
3478 292 Pls
3478 292 Pls
3479 292 Pls
3479 292 Pls
3480 292 Pls
3480 292 Pls
3481 292 Pls
3481 292 Pls
3482 292 Pls
3482 292 Pls
3483 292 Pls
3483 292 Pls
3484 292 Pls
3484 292 Pls
3485 292 Pls
3485 292 Pls
3486 292 Pls
3486 292 Pls
3487 292 Pls
3487 292 Pls
3488 292 Pls
3488 292 Pls
3489 292 Pls
3489 292 Pls
3490 292 Pls
3490 292 Pls
3491 292 Pls
3491 292 Pls
3492 292 Pls
3492 292 Pls
3492 292 Pls
3493 292 Pls
3493 292 Pls
3494 292 Pls
3494 292 Pls
3495 292 Pls
3495 292 Pls
3496 292 Pls
3496 292 Pls
3497 292 Pls
3497 292 Pls
3498 292 Pls
3498 292 Pls
3499 292 Pls
3499 292 Pls
3500 292 Pls
3500 292 Pls
3500 292 Pls
3501 292 Pls
3501 292 Pls
3502 292 Pls
3502 292 Pls
3503 292 Pls
3503 292 Pls
3504 292 Pls
3504 292 Pls
3505 292 Pls
3505 292 Pls
3506 292 Pls
3506 292 Pls
3507 292 Pls
3507 292 Pls
3508 292 Pls
3508 292 Pls
3509 292 Pls
3509 292 Pls
3510 292 Pls
3510 292 Pls
3511 292 Pls
3511 292 Pls
3512 292 Pls
3512 292 Pls
3513 292 Pls
3513 292 Pls
3514 292 Pls
3514 292 Pls
3515 292 Pls
3515 292 Pls
3516 292 Pls
3516 292 Pls
3516 292 Pls
3517 292 Pls
3517 292 Pls
3518 292 Pls
3518 292 Pls
3519 292 Pls
3519 292 Pls
3520 292 Pls
3520 292 Pls
3521 292 Pls
3521 291 Pls
3521 291 Pls
3522 291 Pls
3522 291 Pls
3523 291 Pls
3523 291 Pls
3524 291 Pls
3524 291 Pls
3524 291 Pls
3525 291 Pls
3525 291 Pls
3526 291 Pls
3526 291 Pls
3527 291 Pls
3527 291 Pls
3528 291 Pls
3528 291 Pls
3528 291 Pls
3529 291 Pls
3529 291 Pls
3530 291 Pls
3530 291 Pls
3531 291 Pls
3531 291 Pls
3531 291 Pls
3532 291 Pls
3532 291 Pls
3533 291 Pls
3533 291 Pls
3534 291 Pls
3534 291 Pls
3534 291 Pls
3535 291 Pls
3535 291 Pls
3536 291 Pls
3536 291 Pls
3537 291 Pls
3537 291 Pls
3537 291 Pls
3538 291 Pls
3538 291 Pls
3539 291 Pls
3539 291 Pls
3540 291 Pls
3540 291 Pls
3540 291 Pls
3541 291 Pls
3541 291 Pls
3542 291 Pls
3542 291 Pls
3543 291 Pls
3543 291 Pls
3543 291 Pls
3544 291 Pls
3544 291 Pls
3545 291 Pls
3545 291 Pls
3545 291 Pls
3546 291 Pls
3546 291 Pls
3547 291 Pls
3547 291 Pls
3548 291 Pls
3548 291 Pls
3548 291 Pls
3549 291 Pls
3549 291 Pls
3550 291 Pls
3550 291 Pls
3550 291 Pls
3551 291 Pls
3551 291 Pls
3552 291 Pls
3552 291 Pls
3552 291 Pls
3553 291 Pls
3553 291 Pls
3554 291 Pls
3554 291 Pls
3555 291 Pls
3555 291 Pls
3555 291 Pls
3556 291 Pls
3556 291 Pls
3557 291 Pls
3557 291 Pls
3557 291 Pls
3558 291 Pls
3558 291 Pls
3559 291 Pls
3559 291 Pls
3559 291 Pls
3560 291 Pls
3560 291 Pls
3561 291 Pls
3561 291 Pls
3561 291 Pls
3562 291 Pls
3562 291 Pls
3563 291 Pls
3563 291 Pls
3563 291 Pls
3564 291 Pls
3564 291 Pls
3565 291 Pls
3565 291 Pls
3565 291 Pls
3566 291 Pls
3566 291 Pls
3567 291 Pls
3567 291 Pls
3567 291 Pls
3568 291 Pls
3568 291 Pls
3569 291 Pls
3569 290 Pls
3569 290 Pls
3570 290 Pls
3570 290 Pls
3570 290 Pls
3571 290 Pls
3571 290 Pls
3572 290 Pls
3572 290 Pls
3572 290 Pls
3573 290 Pls
3573 290 Pls
3574 290 Pls
3574 290 Pls
3574 290 Pls
3575 290 Pls
3575 290 Pls
3576 290 Pls
3576 290 Pls
3576 290 Pls
3577 290 Pls
3577 290 Pls
3577 290 Pls
3578 290 Pls
3578 290 Pls
3579 290 Pls
3579 290 Pls
3579 290 Pls
3580 290 Pls
3580 290 Pls
3581 290 Pls
3581 290 Pls
3581 290 Pls
3582 290 Pls
3582 290 Pls
3582 290 Pls
3583 290 Pls
3583 290 Pls
3584 290 Pls
3584 290 Pls
3584 290 Pls
3585 290 Pls
3585 290 Pls
3585 290 Pls
3586 290 Pls
3586 290 Pls
3587 290 Pls
3587 290 Pls
3587 290 Pls
3588 290 Pls
3588 290 Pls
3589 290 Pls
3589 290 Pls
3590 290 Pls
3590 290 Pls
3590 290 Pls
3591 290 Pls
3591 290 Pls
3592 290 Pls
3593 290 Pls
3593 290 Pls
3593 290 Pls
3594 290 Pls
3594 290 Pls
3594 290 Pls
3595 290 Pls
3595 290 Pls
3595 290 Pls
3596 290 Pls
3596 290 Pls
3597 290 Pls
3597 290 Pls
3597 290 Pls
3598 290 Pls
3598 290 Pls
3598 290 Pls
3599 290 Pls
3599 290 Pls
3600 290 Pls
3600 290 Pls
3600 290 Pls
3601 290 Pls
3601 290 Pls
3601 290 Pls
3602 290 Pls
3602 290 Pls
3602 290 Pls
3603 290 Pls
3603 290 Pls
3603 290 Pls
3604 290 Pls
3604 290 Pls
3605 290 Pls
3605 290 Pls
3605 290 Pls
3606 290 Pls
3606 290 Pls
3607 290 Pls
3607 290 Pls
3607 290 Pls
3608 290 Pls
3608 290 Pls
3609 290 Pls
3609 290 Pls
3610 290 Pls
3610 290 Pls
3611 290 Pls
3611 290 Pls
3612 290 Pls
3612 290 Pls
3613 290 Pls
3613 290 Pls
3613 290 Pls
3614 290 Pls
3614 290 Pls
3615 290 Pls
3615 290 Pls
3616 290 Pls
3616 290 Pls
3616 290 Pls
3617 290 Pls
3618 290 Pls
3618 290 Pls
3618 290 Pls
3619 290 Pls
3619 290 Pls
3619 290 Pls
3620 290 Pls
3620 290 Pls
3620 290 Pls
3621 290 Pls
3621 290 Pls
3621 290 Pls
3622 290 Pls
3622 290 Pls
3622 290 Pls
3623 290 Pls
3623 290 Pls
3624 290 Pls
3624 290 Pls
3625 290 Pls
3625 290 Pls
3625 290 Pls
3626 290 Pls
3626 290 Pls
3626 289 Pls
3627 289 Pls
3627 289 Pls
3627 289 Pls
3628 289 Pls
3628 289 Pls
3629 289 Pls
3629 289 Pls
3629 289 Pls
3630 289 Pls
3630 289 Pls
3630 289 Pls
3631 289 Pls
3631 289 Pls
3631 289 Pls
3632 289 Pls
3632 289 Pls
3632 289 Pls
3633 289 Pls
3633 289 Pls
3633 289 Pls
3634 289 Pls
3634 289 Pls
3634 289 Pls
3635 289 Pls
3635 289 Pls
3635 289 Pls
3636 289 Pls
3636 289 Pls
3637 289 Pls
3637 289 Pls
3637 289 Pls
3638 289 Pls
3638 289 Pls
3638 289 Pls
3639 289 Pls
3639 289 Pls
3639 289 Pls
3640 289 Pls
3640 289 Pls
3640 289 Pls
3641 289 Pls
3641 289 Pls
3642 289 Pls
3642 289 Pls
3643 289 Pls
3643 289 Pls
3643 289 Pls
3644 289 Pls
3644 289 Pls
3644 289 Pls
3645 289 Pls
3645 289 Pls
3645 289 Pls
3645 289 Pls
3646 289 Pls
3647 289 Pls
3647 289 Pls
3648 289 Pls
3648 289 Pls
3649 289 Pls
3649 289 Pls
3649 289 Pls
3650 289 Pls
3650 289 Pls
3651 289 Pls
3651 289 Pls
3652 289 Pls
3652 289 Pls
3652 289 Pls
3653 289 Pls
3653 289 Pls
3653 289 Pls
3653 289 Pls
3654 289 Pls
3654 289 Pls
3654 289 Pls
3655 289 Pls
3655 289 Pls
3656 289 Pls
3656 289 Pls
3657 289 Pls
3657 289 Pls
3657 289 Pls
3658 289 Pls
3658 289 Pls
3658 289 Pls
3659 289 Pls
3659 289 Pls
3659 289 Pls
3659 289 Pls
3660 289 Pls
3660 289 Pls
3660 289 Pls
3661 289 Pls
3661 289 Pls
3661 289 Pls
3662 289 Pls
3662 289 Pls
3663 289 Pls
3663 289 Pls
3664 289 Pls
3664 289 Pls
3664 289 Pls
3664 289 Pls
3665 289 Pls
3666 289 Pls
3666 289 Pls
3666 289 Pls
3667 289 Pls
3667 289 Pls
3667 289 Pls
3668 289 Pls
3668 289 Pls
3668 289 Pls
3668 289 Pls
3669 289 Pls
3669 289 Pls
3670 289 Pls
3670 289 Pls
3670 289 Pls
3671 289 Pls
3671 289 Pls
3671 289 Pls
3672 289 Pls
3672 289 Pls
3672 289 Pls
3673 289 Pls
3673 289 Pls
3673 289 Pls
3674 289 Pls
3674 289 Pls
3674 289 Pls
3675 289 Pls
3675 289 Pls
3675 289 Pls
3676 289 Pls
3676 289 Pls
3677 289 Pls
3677 289 Pls
3677 289 Pls
3678 289 Pls
3678 289 Pls
3679 289 Pls
3679 289 Pls
3679 289 Pls
3680 289 Pls
3680 289 Pls
3680 289 Pls
3681 289 Pls
3681 289 Pls
3681 289 Pls
3682 289 Pls
3682 289 Pls
3682 289 Pls
3683 289 Pls
3683 289 Pls
3683 289 Pls
3684 289 Pls
3684 289 Pls
3684 289 Pls
3685 289 Pls
3685 289 Pls
3685 289 Pls
3685 289 Pls
3686 289 Pls
3686 289 Pls
3686 289 Pls
3687 289 Pls
3687 289 Pls
3687 289 Pls
3688 289 Pls
3688 289 Pls
3688 289 Pls
3689 289 Pls
3689 289 Pls
3689 289 Pls
3690 289 Pls
3690 289 Pls
3690 289 Pls
3690 289 Pls
3691 289 Pls
3691 289 Pls
3691 289 Pls
3692 289 Pls
3692 289 Pls
3692 289 Pls
3693 288 Pls
3693 288 Pls
3693 288 Pls
3694 288 Pls
3694 288 Pls
3694 288 Pls
3694 288 Pls
3695 288 Pls
3695 288 Pls
3696 288 Pls
3696 288 Pls
3696 288 Pls
3696 288 Pls
3697 288 Pls
3697 288 Pls
3697 288 Pls
3698 288 Pls
3698 288 Pls
3698 288 Pls
3699 288 Pls
3699 288 Pls
3699 288 Pls
3700 288 Pls
3700 288 Pls
3700 288 Pls
3701 288 Pls
3701 288 Pls
3702 288 Pls
3703 288 Pls
3703 288 Pls
3704 288 Pls
3704 288 Pls
3704 288 Pls
3704 288 Pls
3705 288 Pls
3705 288 Pls
3705 288 Pls
3706 288 Pls
3706 288 Pls
3706 288 Pls
3707 288 Pls
3707 288 Pls
3707 288 Pls
3708 288 Pls
3708 288 Pls
3708 288 Pls
3709 288 Pls
3709 288 Pls
3709 288 Pls
3709 288 Pls
3710 288 Pls
3710 288 Pls
3710 288 Pls
3710 288 Pls
3711 288 Pls
3711 288 Pls
3712 288 Pls
3712 288 Pls
3713 288 Pls
3713 288 Pls
3713 288 Pls
3714 288 Pls
3714 288 Pls
3714 288 Pls
3715 288 Pls
3715 288 Pls
3715 288 Pls
3715 288 Pls
3716 288 Pls
3716 288 Pls
3716 288 Pls
3717 288 Pls
3717 288 Pls
3717 288 Pls
3718 288 Pls
3718 288 Pls
3718 288 Pls
3718 288 Pls
3719 288 Pls
3719 288 Pls
3720 288 Pls
3720 288 Pls
3721 288 Pls
3721 288 Pls
3722 288 Pls
3722 288 Pls
3722 288 Pls
3723 288 Pls
3723 288 Pls
3723 288 Pls
3723 288 Pls
3724 288 Pls
3724 288 Pls
3724 288 Pls
3725 288 Pls
3726 288 Pls
3726 288 Pls
3726 288 Pls
3726 288 Pls
3727 288 Pls
3727 288 Pls
3727 288 Pls
3728 288 Pls
3728 288 Pls
3728 288 Pls
3729 288 Pls
3729 288 Pls
3729 288 Pls
3730 288 Pls
3730 288 Pls
3730 288 Pls
3731 288 Pls
3731 288 Pls
3731 288 Pls
3732 288 Pls
3732 288 Pls
3733 288 Pls
3733 288 Pls
3733 288 Pls
3734 288 Pls
3734 288 Pls
3735 288 Pls
3735 288 Pls
3736 288 Pls
3736 288 Pls
3736 288 Pls
3736 288 Pls
3737 288 Pls
3737 288 Pls
3738 288 Pls
3738 288 Pls
3738 288 Pls
3738 288 Pls
3739 288 Pls
3739 288 Pls
3739 288 Pls
3740 288 Pls
3740 288 Pls
3740 288 Pls
3741 288 Pls
3741 288 Pls
3741 288 Pls
3742 288 Pls
3742 288 Pls
3742 288 Pls
3742 288 Pls
3743 288 Pls
3743 288 Pls
3744 288 Pls
3744 288 Pls
3744 288 Pls
3745 288 Pls
3745 288 Pls
3745 288 Pls
3746 288 Pls
3746 288 Pls
3746 288 Pls
3746 288 Pls
3747 288 Pls
3747 288 Pls
3747 288 Pls
3748 288 Pls
3748 288 Pls
3748 288 Pls
3749 288 Pls
3749 288 Pls
3750 288 Pls
3750 288 Pls
3750 288 Pls
3750 288 Pls
3751 288 Pls
3752 288 Pls
3752 288 Pls
3752 288 Pls
3753 288 Pls
3753 288 Pls
3753 288 Pls
3754 288 Pls
3754 288 Pls
3754 288 Pls
3755 288 Pls
3755 288 Pls
3755 288 Pls
3755 288 Pls
3756 288 Pls
3756 288 Pls
3757 288 Pls
3757 288 Pls
3757 288 Pls
3757 288 Pls
3758 288 Pls
3758 288 Pls
3759 288 Pls
3759 288 Pls
3759 288 Pls
3760 288 Pls
3760 288 Pls
3760 288 Pls
3760 288 Pls
3761 288 Pls
3761 288 Pls
3761 288 Pls
3761 288 Pls
3762 288 Pls
3762 288 Pls
3763 288 Pls
3763 288 Pls
3763 288 Pls
3764 288 Pls
3764 288 Pls
3764 288 Pls
3764 288 Pls
3765 288 Pls
3765 288 Pls
3765 287 Pls
3766 287 Pls
3766 287 Pls
3766 287 Pls
3766 287 Pls
3767 287 Pls
3768 287 Pls
3768 287 Pls
3768 287 Pls
3769 287 Pls
3769 287 Pls
3769 287 Pls
3769 287 Pls
3770 287 Pls
3771 287 Pls
3771 287 Pls
3771 287 Pls
3772 287 Pls
3772 287 Pls
3772 287 Pls
3772 287 Pls
3772 287 Pls
3773 287 Pls
3773 287 Pls
3774 287 Pls
3774 287 Pls
3774 287 Pls
3774 287 Pls
3775 287 Pls
3775 287 Pls
3775 287 Pls
3776 287 Pls
3776 287 Pls
3776 287 Pls
3776 287 Pls
3777 287 Pls
3777 287 Pls
3777 287 Pls
3777 287 Pls
3778 287 Pls
3778 287 Pls
3778 287 Pls
3779 287 Pls
3779 287 Pls
3779 287 Pls
3780 287 Pls
3780 287 Pls
3780 287 Pls
3780 287 Pls
3781 287 Pls
3781 287 Pls
3781 287 Pls
3782 287 Pls
3782 287 Pls
3782 287 Pls
3782 287 Pls
3782 287 Pls
3783 287 Pls
3783 287 Pls
3784 287 Pls
3784 287 Pls
3784 287 Pls
3784 287 Pls
3785 287 Pls
3785 287 Pls
3785 287 Pls
3785 287 Pls
3786 287 Pls
3786 287 Pls
3787 287 Pls
3787 287 Pls
3787 287 Pls
3788 287 Pls
3788 287 Pls
3788 287 Pls
3788 287 Pls
3789 287 Pls
3789 287 Pls
3790 287 Pls
3790 287 Pls
3790 287 Pls
3790 287 Pls
3791 287 Pls
3791 287 Pls
3791 287 Pls
3792 287 Pls
3792 287 Pls
3793 287 Pls
3793 287 Pls
3794 287 Pls
3794 287 Pls
3794 287 Pls
3795 287 Pls
3795 287 Pls
3795 287 Pls
3795 287 Pls
3796 287 Pls
3796 287 Pls
3796 287 Pls
3797 287 Pls
3797 287 Pls
3798 287 Pls
3798 287 Pls
3798 287 Pls
3798 287 Pls
3798 287 Pls
3799 287 Pls
3799 287 Pls
3799 287 Pls
3800 287 Pls
3800 287 Pls
3800 287 Pls
3800 287 Pls
3800 287 Pls
3801 287 Pls
3801 287 Pls
3801 287 Pls
3802 287 Pls
3802 287 Pls
3802 287 Pls
3803 287 Pls
3803 287 Pls
3803 287 Pls
3804 287 Pls
3804 287 Pls
3804 287 Pls
3805 287 Pls
3805 287 Pls
3805 287 Pls
3805 287 Pls
3806 287 Pls
3807 287 Pls
3808 287 Pls
3808 287 Pls
3808 287 Pls
3809 287 Pls
3809 287 Pls
3809 287 Pls
3810 287 Pls
3810 287 Pls
3810 287 Pls
3811 287 Pls
3811 287 Pls
3811 287 Pls
3811 287 Pls
3812 287 Pls
3812 287 Pls
3812 287 Pls
3813 287 Pls
3813 287 Pls
3813 287 Pls
3814 287 Pls
3814 287 Pls
3814 287 Pls
3814 287 Pls
3815 287 Pls
3815 287 Pls
3815 287 Pls
3816 287 Pls
3816 287 Pls
3816 287 Pls
3817 287 Pls
3817 287 Pls
3817 287 Pls
3818 287 Pls
3818 287 Pls
3819 287 Pls
3819 287 Pls
3819 287 Pls
3819 287 Pls
3820 287 Pls
3820 287 Pls
3821 287 Pls
3821 287 Pls
3822 287 Pls
3822 287 Pls
3823 287 Pls
3824 287 Pls
3824 287 Pls
3824 287 Pls
3825 287 Pls
3825 287 Pls
3825 287 Pls
3826 287 Pls
3826 287 Pls
3826 287 Pls
3826 287 Pls
3827 287 Pls
3828 287 Pls
3829 287 Pls
3829 287 Pls
3830 287 Pls
3830 287 Pls
3831 287 Pls
3831 287 Pls
3832 287 Pls
3832 287 Pls
3832 287 Pls
3832 287 Pls
3832 287 Pls
3833 287 Pls
3833 287 Pls
3833 287 Pls
3833 287 Pls
3834 287 Pls
3834 287 Pls
3834 287 Pls
3834 287 Pls
3835 287 Pls
3835 287 Pls
3835 287 Pls
3836 287 Pls
3836 287 Pls
3837 287 Pls
3837 287 Pls
3838 287 Pls
3839 287 Pls
3839 287 Pls
3839 287 Pls
3839 287 Pls
3840 287 Pls
3840 287 Pls
3840 287 Pls
3840 287 Pls
3841 287 Pls
3841 287 Pls
3842 287 Pls
3842 287 Pls
3843 287 Pls
3843 287 Pls
3843 287 Pls
3844 287 Pls
3844 287 Pls
3844 287 Pls
3844 287 Pls
3845 287 Pls
3845 287 Pls
3845 287 Pls
3846 287 Pls
3846 287 Pls
3846 287 Pls
3846 287 Pls
3846 287 Pls
3847 287 Pls
3847 287 Pls
3847 287 Pls
3848 287 Pls
3848 287 Pls
3848 287 Pls
3848 287 Pls
3849 287 Pls
3850 287 Pls
3850 287 Pls
3850 287 Pls
3850 287 Pls
3851 287 Pls
3851 287 Pls
3852 287 Pls
3852 287 Pls
3852 287 Pls
3853 287 Pls
3853 287 Pls
3854 287 Pls
3854 287 Pls
3854 287 Pls
3855 287 Pls
3855 287 Pls
3856 287 Pls
3856 287 Pls
3858 287 Pls
3858 287 Pls
3858 287 Pls
3858 287 Pls
3859 287 Pls
3859 287 Pls
3859 287 Pls
3860 287 Pls
3860 287 Pls
3860 287 Pls
3860 286 Pls
3861 286 Pls
3861 286 Pls
3861 286 Pls
3862 286 Pls
3862 286 Pls
3863 286 Pls
3863 286 Pls
3863 286 Pls
3864 286 Pls
3864 286 Pls
3864 286 Pls
3864 286 Pls
3865 286 Pls
3865 286 Pls
3865 286 Pls
3865 286 Pls
3866 286 Pls
3866 286 Pls
3866 286 Pls
3867 286 Pls
3867 286 Pls
3867 286 Pls
3868 286 Pls
3868 286 Pls
3868 286 Pls
3869 286 Pls
3869 286 Pls
3869 286 Pls
3869 286 Pls
3870 286 Pls
3870 286 Pls
3870 286 Pls
3871 286 Pls
3871 286 Pls
3871 286 Pls
3871 286 Pls
3872 286 Pls
3872 286 Pls
3872 286 Pls
3872 286 Pls
3873 286 Pls
3873 286 Pls
3873 286 Pls
3873 286 Pls
3874 286 Pls
3875 286 Pls
3875 286 Pls
3875 286 Pls
3875 286 Pls
3875 286 Pls
3876 286 Pls
3876 286 Pls
3876 286 Pls
3877 286 Pls
3878 286 Pls
3878 286 Pls
3878 286 Pls
3879 286 Pls
3879 286 Pls
3879 286 Pls
3879 286 Pls
3880 286 Pls
3880 286 Pls
3880 286 Pls
3880 286 Pls
3881 286 Pls
3881 286 Pls
3881 286 Pls
3882 286 Pls
3882 286 Pls
3882 286 Pls
3882 286 Pls
3883 286 Pls
3883 286 Pls
3883 286 Pls
3884 286 Pls
3884 286 Pls
3884 286 Pls
3884 286 Pls
3884 286 Pls
3885 286 Pls
3885 286 Pls
3885 286 Pls
3886 286 Pls
3886 286 Pls
3887 286 Pls
3887 286 Pls
3887 286 Pls
3887 286 Pls
3887 286 Pls
3888 286 Pls
3888 286 Pls
3888 286 Pls
3888 286 Pls
3888 286 Pls
3889 286 Pls
3889 286 Pls
3889 286 Pls
3889 286 Pls
3890 286 Pls
3890 286 Pls
3891 286 Pls
3891 286 Pls
3891 286 Pls
3891 286 Pls
3892 286 Pls
3892 286 Pls
3892 286 Pls
3893 286 Pls
3893 286 Pls
3893 286 Pls
3893 286 Pls
3894 286 Pls
3894 286 Pls
3894 286 Pls
3895 286 Pls
3895 286 Pls
3896 286 Pls
3896 286 Pls
3896 286 Pls
3897 286 Pls
3897 286 Pls
3898 286 Pls
3898 286 Pls
3898 286 Pls
3899 286 Pls
3899 286 Pls
3900 286 Pls
3900 286 Pls
3900 286 Pls
3901 286 Pls
3901 286 Pls
3901 286 Pls
3902 286 Pls
3903 286 Pls
3903 286 Pls
3903 286 Pls
3904 286 Pls
3904 286 Pls
3904 286 Pls
3904 286 Pls
3905 286 Pls
3905 286 Pls
3905 286 Pls
3906 286 Pls
3906 286 Pls
3907 286 Pls
3907 286 Pls
3907 286 Pls
3908 286 Pls
3908 286 Pls
3909 286 Pls
3909 286 Pls
3909 286 Pls
3909 286 Pls
3909 286 Pls
3910 286 Pls
3910 286 Pls
3911 286 Pls
3911 286 Pls
3911 286 Pls
3912 286 Pls
3912 286 Pls
3912 286 Pls
3912 286 Pls
3912 286 Pls
3913 286 Pls
3913 286 Pls
3913 286 Pls
3913 286 Pls
3914 286 Pls
3914 286 Pls
3915 286 Pls
3915 286 Pls
3916 286 Pls
3917 286 Pls
3917 286 Pls
3918 286 Pls
3918 286 Pls
3918 286 Pls
3919 286 Pls
3919 286 Pls
3919 286 Pls
3919 286 Pls
3919 286 Pls
3920 286 Pls
3920 286 Pls
3920 286 Pls
3920 286 Pls
3921 286 Pls
3921 286 Pls
3921 286 Pls
3921 286 Pls
3921 286 Pls
3921 286 Pls
3922 286 Pls
3922 286 Pls
3922 286 Pls
3923 286 Pls
3923 286 Pls
3923 286 Pls
3924 286 Pls
3924 286 Pls
3925 286 Pls
3925 286 Pls
3927 286 Pls
3927 286 Pls
3928 286 Pls
3929 286 Pls
3929 286 Pls
3929 286 Pls
3930 286 Pls
3930 286 Pls
3930 286 Pls
3931 286 Pls
3931 286 Pls
3932 286 Pls
3932 286 Pls
3933 286 Pls
3933 286 Pls
3933 286 Pls
3933 286 Pls
3934 286 Pls
3934 286 Pls
3934 286 Pls
3934 286 Pls
3935 286 Pls
3935 286 Pls
3935 286 Pls
3935 286 Pls
3936 286 Pls
3936 286 Pls
3936 286 Pls
3937 286 Pls
3937 286 Pls
3938 286 Pls
3938 286 Pls
3938 286 Pls
3938 286 Pls
3938 286 Pls
3939 286 Pls
3939 286 Pls
3939 286 Pls
3940 286 Pls
3940 286 Pls
3941 286 Pls
3941 286 Pls
3941 286 Pls
3942 286 Pls
3942 286 Pls
3942 286 Pls
3943 286 Pls
3943 286 Pls
3944 286 Pls
3944 286 Pls
3944 286 Pls
3944 286 Pls
3944 286 Pls
3945 286 Pls
3946 286 Pls
3946 286 Pls
3946 286 Pls
3946 286 Pls
3946 286 Pls
3947 286 Pls
3948 286 Pls
3948 286 Pls
3948 286 Pls
3948 286 Pls
3949 286 Pls
3949 286 Pls
3950 286 Pls
3951 286 Pls
3951 286 Pls
3951 286 Pls
3952 286 Pls
3953 286 Pls
3953 286 Pls
3953 286 Pls
3954 286 Pls
3954 286 Pls
3954 286 Pls
3955 286 Pls
3955 286 Pls
3956 286 Pls
3956 286 Pls
3956 286 Pls
3956 286 Pls
3957 286 Pls
3957 286 Pls
3957 286 Pls
3957 286 Pls
3958 286 Pls
3958 286 Pls
3958 286 Pls
3958 286 Pls
3958 286 Pls
3959 286 Pls
3959 286 Pls
3959 286 Pls
3960 286 Pls
3960 286 Pls
3960 286 Pls
3960 286 Pls
3960 286 Pls
3961 286 Pls
3961 286 Pls
3961 286 Pls
3962 286 Pls
3962 286 Pls
3962 286 Pls
3963 286 Pls
3963 286 Pls
3963 286 Pls
3964 286 Pls
3964 286 Pls
3965 286 Pls
3965 286 Pls
3965 286 Pls
3966 286 Pls
3966 286 Pls
3966 286 Pls
3967 286 Pls
3968 286 Pls
3969 286 Pls
3969 286 Pls
3969 286 Pls
3970 286 Pls
3970 286 Pls
3970 286 Pls
3970 286 Pls
3970 286 Pls
3970 286 Pls
3971 286 Pls
3971 286 Pls
3971 286 Pls
3971 286 Pls
3972 285 Pls
3972 285 Pls
3972 285 Pls
3973 285 Pls
3973 285 Pls
3973 285 Pls
3975 285 Pls
3975 285 Pls
3976 285 Pls
3976 285 Pls
3977 285 Pls
3977 285 Pls
3977 285 Pls
3977 285 Pls
3978 285 Pls
3978 285 Pls
3979 285 Pls
3979 285 Pls
3980 285 Pls
3980 285 Pls
3980 285 Pls
3981 285 Pls
3981 285 Pls
3981 285 Pls
3982 285 Pls
3982 285 Pls
3984 285 Pls
3984 285 Pls
3984 285 Pls
3984 285 Pls
3985 285 Pls
3985 285 Pls
3985 285 Pls
3986 285 Pls
3986 285 Pls
3986 285 Pls
3987 285 Pls
3988 285 Pls
3988 285 Pls
3988 285 Pls
3988 285 Pls
3989 285 Pls
3989 285 Pls
3989 285 Pls
3989 285 Pls
3989 285 Pls
3990 285 Pls
3991 285 Pls
3991 285 Pls
3991 285 Pls
3991 285 Pls
3992 285 Pls
3992 285 Pls
3992 285 Pls
3993 285 Pls
3993 285 Pls
3993 285 Pls
3993 285 Pls
3994 285 Pls
3994 285 Pls
3994 285 Pls
3994 285 Pls
3994 285 Pls
3995 285 Pls
3995 285 Pls
3995 285 Pls
3995 285 Pls
3996 285 Pls
3997 285 Pls
3997 285 Pls
3997 285 Pls
3998 285 Pls
3998 285 Pls
3999 285 Pls
3999 285 Pls
3999 285 Pls
4000 285 Pls
4000 285 Pls
4001 285 Pls
4001 285 Pls
4002 285 Pls
4002 285 Pls
4002 285 Pls
4002 285 Pls
4002 285 Pls
4002 285 Pls
4003 285 Pls
4003 285 Pls
4003 285 Pls
4003 285 Pls
4003 285 Pls
4003 285 Pls
4004 285 Pls
4004 285 Pls
4004 285 Pls
4004 285 Pls
4005 285 Pls
4006 285 Pls
4007 285 Pls
4007 285 Pls
4007 285 Pls
4007 285 Pls
4008 285 Pls
4008 285 Pls
4009 285 Pls
4009 285 Pls
4010 285 Pls
4010 285 Pls
4010 285 Pls
4010 285 Pls
4011 285 Pls
4011 285 Pls
4011 285 Pls
4012 285 Pls
4012 285 Pls
4013 285 Pls
4013 285 Pls
4013 285 Pls
4014 285 Pls
4015 285 Pls
4015 285 Pls
4015 285 Pls
4015 285 Pls
4016 285 Pls
4016 285 Pls
4017 285 Pls
4017 285 Pls
4017 285 Pls
4018 285 Pls
4018 285 Pls
4018 285 Pls
4018 285 Pls
4018 285 Pls
4019 285 Pls
4020 285 Pls
4020 285 Pls
4020 285 Pls
4020 285 Pls
4021 285 Pls
4021 285 Pls
4021 285 Pls
4021 285 Pls
4022 285 Pls
4022 285 Pls
4023 285 Pls
4023 285 Pls
4023 285 Pls
4024 285 Pls
4024 285 Pls
4024 285 Pls
4024 285 Pls
4025 285 Pls
4025 285 Pls
4025 285 Pls
4026 285 Pls
4026 285 Pls
4026 285 Pls
4027 285 Pls
4027 285 Pls
4028 285 Pls
4029 285 Pls
4030 285 Pls
4031 285 Pls
4031 285 Pls
4031 285 Pls
4032 285 Pls
4032 285 Pls
4032 285 Pls
4033 285 Pls
4033 285 Pls
4033 285 Pls
4034 285 Pls
4034 285 Pls
4035 285 Pls
4035 285 Pls
4036 285 Pls
4036 285 Pls
4036 285 Pls
4037 285 Pls
4037 285 Pls
4037 285 Pls
4037 285 Pls
4037 285 Pls
4037 285 Pls
4038 285 Pls
4038 285 Pls
4039 285 Pls
4040 285 Pls
4040 285 Pls
4041 285 Pls
4042 285 Pls
4042 285 Pls
4042 285 Pls
4042 285 Pls
4043 285 Pls
4043 285 Pls
4043 285 Pls
4044 285 Pls
4044 285 Pls
4044 285 Pls
4045 285 Pls
4045 285 Pls
4045 285 Pls
4045 285 Pls
4046 285 Pls
4046 285 Pls
4046 285 Pls
4047 285 Pls
4047 285 Pls
4049 285 Pls
4050 285 Pls
4050 285 Pls
4051 285 Pls
4052 285 Pls
4053 285 Pls
4053 285 Pls
4053 285 Pls
4053 285 Pls
4054 285 Pls
4056 285 Pls
4056 285 Pls
4056 285 Pls
4056 285 Pls
4057 285 Pls
4057 285 Pls
4057 285 Pls
4058 285 Pls
4058 285 Pls
4058 285 Pls
4058 285 Pls
4059 285 Pls
4060 285 Pls
4060 285 Pls
4061 285 Pls
4062 285 Pls
4062 285 Pls
4062 285 Pls
4062 285 Pls
4063 285 Pls
4063 285 Pls
4063 285 Pls
4064 285 Pls
4064 285 Pls
4065 285 Pls
4066 285 Pls
4067 285 Pls
4067 285 Pls
4068 285 Pls
4068 285 Pls
4068 285 Pls
4068 285 Pls
4069 285 Pls
4069 285 Pls
4070 285 Pls
4070 285 Pls
4071 285 Pls
4071 285 Pls
4071 285 Pls
4072 285 Pls
4072 285 Pls
4072 285 Pls
4073 285 Pls
4073 285 Pls
4073 285 Pls
4073 285 Pls
4073 285 Pls
4073 285 Pls
4075 285 Pls
4075 285 Pls
4075 285 Pls
4076 285 Pls
4076 285 Pls
4077 285 Pls
4077 285 Pls
4077 285 Pls
4078 285 Pls
4078 285 Pls
4078 285 Pls
4079 285 Pls
4079 285 Pls
4080 285 Pls
4080 285 Pls
4080 285 Pls
4080 285 Pls
4082 285 Pls
4082 285 Pls
4083 285 Pls
4083 285 Pls
4084 285 Pls
4084 285 Pls
4084 285 Pls
4084 285 Pls
4085 285 Pls
4085 285 Pls
4087 285 Pls
4087 285 Pls
4087 285 Pls
4088 285 Pls
4088 285 Pls
4088 285 Pls
4088 285 Pls
4089 285 Pls
4089 285 Pls
4089 285 Pls
4090 285 Pls
4090 285 Pls
4091 285 Pls
4091 285 Pls
4092 285 Pls
4092 285 Pls
4092 285 Pls
4092 285 Pls
4093 285 Pls
4093 285 Pls
4093 285 Pls
4094 285 Pls
4094 285 Pls
4094 285 Pls
4094 285 Pls
4094 285 Pls
4094 285 Pls
4094 285 Pls
4095 285 Pls
4095 284 Pls
4095 284 Pls
4095 284 Pls
4095 284 Pls
4096 284 Pls
4096 284 Pls
4096 284 Pls
4098 284 Pls
4098 284 Pls
4098 284 Pls
4099 284 Pls
4099 284 Pls
4099 284 Pls
4099 284 Pls
4099 284 Pls
4100 284 Pls
4100 284 Pls
4100 284 Pls
4101 284 Pls
4101 284 Pls
4101 284 Pls
4101 284 Pls
4102 284 Pls
4102 284 Pls
4103 284 Pls
4103 284 Pls
4103 284 Pls
4103 284 Pls
4103 284 Pls
4104 284 Pls
4104 284 Pls
4104 284 Pls
4105 284 Pls
4105 284 Pls
4105 284 Pls
4105 284 Pls
4105 284 Pls
4106 284 Pls
4106 284 Pls
4106 284 Pls
4106 284 Pls
4107 284 Pls
4107 284 Pls
4108 284 Pls
4108 284 Pls
4108 284 Pls
4109 284 Pls
4109 284 Pls
4109 284 Pls
4110 284 Pls
4110 284 Pls
4111 284 Pls
4112 284 Pls
4113 284 Pls
4113 284 Pls
4113 284 Pls
4115 284 Pls
4115 284 Pls
4115 284 Pls
4116 284 Pls
4117 284 Pls
4117 284 Pls
4118 284 Pls
4118 284 Pls
4118 284 Pls
4119 284 Pls
4119 284 Pls
4119 284 Pls
4119 284 Pls
4120 284 Pls
4120 284 Pls
4121 284 Pls
4121 284 Pls
4121 284 Pls
4122 284 Pls
4122 284 Pls
4122 284 Pls
4124 284 Pls
4124 284 Pls
4125 284 Pls
4125 284 Pls
4126 284 Pls
4126 284 Pls
4127 284 Pls
4127 284 Pls
4128 284 Pls
4128 284 Pls
4128 284 Pls
4129 284 Pls
4129 284 Pls
4129 284 Pls
4129 284 Pls
4129 284 Pls
4129 284 Pls
4130 284 Pls
4130 284 Pls
4131 284 Pls
4131 284 Pls
4131 284 Pls
4131 284 Pls
4132 284 Pls
4132 284 Pls
4133 284 Pls
4134 284 Pls
4135 284 Pls
4135 284 Pls
4136 284 Pls
4136 284 Pls
4136 284 Pls
4137 284 Pls
4139 284 Pls
4139 284 Pls
4139 284 Pls
4139 284 Pls
4140 284 Pls
4140 284 Pls
4141 284 Pls
4141 284 Pls
4141 284 Pls
4142 284 Pls
4142 284 Pls
4142 284 Pls
4142 284 Pls
4142 284 Pls
4142 284 Pls
4143 284 Pls
4143 284 Pls
4143 284 Pls
4144 284 Pls
4144 284 Pls
4145 284 Pls
4145 284 Pls
4146 284 Pls
4146 284 Pls
4147 284 Pls
4147 284 Pls
4147 284 Pls
4148 284 Pls
4150 284 Pls
4150 284 Pls
4152 284 Pls
4152 284 Pls
4152 284 Pls
4152 284 Pls
4153 284 Pls
4153 284 Pls
4153 284 Pls
4154 284 Pls
4154 284 Pls
4155 284 Pls
4155 284 Pls
4156 284 Pls
4156 284 Pls
4156 284 Pls
4157 284 Pls
4157 284 Pls
4158 284 Pls
4159 284 Pls
4159 284 Pls
4159 284 Pls
4160 284 Pls
4160 284 Pls
4161 284 Pls
4162 284 Pls
4162 284 Pls
4162 284 Pls
4162 284 Pls
4162 284 Pls
4162 284 Pls
4163 284 Pls
4163 284 Pls
4164 284 Pls
4164 284 Pls
4164 284 Pls
4164 284 Pls
4165 284 Pls
4165 284 Pls
4165 284 Pls
4166 284 Pls
4166 284 Pls
4166 284 Pls
4167 284 Pls
4167 284 Pls
4168 284 Pls
4168 284 Pls
4169 284 Pls
4170 284 Pls
4170 284 Pls
4170 284 Pls
4171 284 Pls
4171 284 Pls
4172 284 Pls
4172 284 Pls
4172 284 Pls
4173 284 Pls
4173 284 Pls
4173 284 Pls
4174 284 Pls
4174 284 Pls
4175 284 Pls
4175 284 Pls
4175 284 Pls
4176 284 Pls
4176 284 Pls
4176 284 Pls
4177 284 Pls
4178 284 Pls
4178 284 Pls
4179 284 Pls
4180 284 Pls
4180 284 Pls
4181 284 Pls
4184 284 Pls
4184 284 Pls
4184 284 Pls
4185 284 Pls
4185 284 Pls
4186 284 Pls
4186 284 Pls
4186 284 Pls
4186 284 Pls
4187 284 Pls
4187 284 Pls
4187 284 Pls
4188 284 Pls
4188 284 Pls
4188 284 Pls
4189 284 Pls
4189 284 Pls
4189 284 Pls
4190 284 Pls
4190 284 Pls
4191 284 Pls
4191 284 Pls
4191 284 Pls
4192 284 Pls
4192 284 Pls
4193 284 Pls
4193 284 Pls
4193 284 Pls
4193 284 Pls
4193 284 Pls
4195 284 Pls
4196 284 Pls
4196 284 Pls
4196 284 Pls
4197 284 Pls
4198 284 Pls
4198 284 Pls
4199 284 Pls
4199 284 Pls
4200 284 Pls
4200 284 Pls
4200 284 Pls
4200 284 Pls
4200 284 Pls
4200 284 Pls
4201 284 Pls
4201 284 Pls
4202 284 Pls
4202 284 Pls
4202 284 Pls
4203 284 Pls
4203 284 Pls
4204 284 Pls
4204 284 Pls
4205 284 Pls
4205 284 Pls
4207 284 Pls
4207 284 Pls
4208 284 Pls
4208 284 Pls
4208 284 Pls
4209 284 Pls
4210 284 Pls
4210 284 Pls
4210 284 Pls
4210 284 Pls
4211 284 Pls
4211 284 Pls
4211 284 Pls
4211 284 Pls
4211 284 Pls
4212 284 Pls
4213 284 Pls
4213 284 Pls
4214 284 Pls
4214 284 Pls
4214 284 Pls
4215 284 Pls
4215 284 Pls
4215 284 Pls
4215 284 Pls
4216 284 Pls
4216 284 Pls
4217 284 Pls
4217 284 Pls
4217 284 Pls
4217 284 Pls
4217 284 Pls
4217 284 Pls
4217 284 Pls
4217 284 Pls
4218 284 Pls
4218 284 Pls
4218 284 Pls
4218 284 Pls
4218 284 Pls
4218 284 Pls
4221 284 Pls
4221 284 Pls
4221 284 Pls
4221 284 Pls
4222 284 Pls
4222 284 Pls
4223 284 Pls
4223 284 Pls
4223 284 Pls
4224 284 Pls
4225 284 Pls
4225 284 Pls
4225 284 Pls
4226 284 Pls
4227 284 Pls
4227 284 Pls
4227 284 Pls
4228 284 Pls
4230 284 Pls
4230 284 Pls
4230 284 Pls
4231 284 Pls
4231 284 Pls
4231 284 Pls
4232 284 Pls
4232 284 Pls
4232 284 Pls
4232 284 Pls
4233 284 Pls
4233 284 Pls
4234 284 Pls
4235 284 Pls
4236 284 Pls
4237 284 Pls
4238 284 Pls
4239 284 Pls
4239 284 Pls
4239 284 Pls
4239 284 Pls
4240 284 Pls
4240 284 Pls
4240 284 Pls
4241 284 Pls
4241 284 Pls
4241 284 Pls
4243 284 Pls
4244 284 Pls
4244 284 Pls
4245 284 Pls
4245 284 Pls
4245 284 Pls
4246 284 Pls
4246 284 Pls
4247 284 Pls
4247 284 Pls
4247 284 Pls
4248 284 Pls
4249 284 Pls
4249 284 Pls
4249 284 Pls
4250 284 Pls
4251 284 Pls
4251 284 Pls
4251 284 Pls
4252 284 Pls
4253 284 Pls
4254 284 Pls
4255 284 Pls
4255 284 Pls
4255 284 Pls
4256 284 Pls
4258 284 Pls
4258 284 Pls
4258 284 Pls
4259 284 Pls
4259 284 Pls
4260 284 Pls
4260 284 Pls
4260 284 Pls
4261 284 Pls
4261 284 Pls
4261 284 Pls
4262 284 Pls
4263 284 Pls
4263 284 Pls
4264 284 Pls
4264 284 Pls
4265 284 Pls
4266 284 Pls
4267 284 Pls
4268 284 Pls
4268 284 Pls
4268 283 Pls
4270 283 Pls
4270 283 Pls
4271 283 Pls
4271 283 Pls
4272 283 Pls
4272 283 Pls
4273 283 Pls
4273 283 Pls
4274 283 Pls
4275 283 Pls
4275 283 Pls
4276 283 Pls
4276 283 Pls
4276 283 Pls
4277 283 Pls
4277 283 Pls
4277 283 Pls
4278 283 Pls
4278 283 Pls
4279 283 Pls
4279 283 Pls
4279 283 Pls
4279 283 Pls
4280 283 Pls
4280 283 Pls
4283 283 Pls
4283 283 Pls
4283 283 Pls
4283 283 Pls
4283 283 Pls
4283 283 Pls
4284 283 Pls
4284 283 Pls
4284 283 Pls
4284 283 Pls
4285 283 Pls
4285 283 Pls
4285 283 Pls
4285 283 Pls
4285 283 Pls
4286 283 Pls
4286 283 Pls
4287 283 Pls
4287 283 Pls
4287 283 Pls
4288 283 Pls
4288 283 Pls
4288 283 Pls
4289 283 Pls
4289 283 Pls
4291 283 Pls
4292 283 Pls
4292 283 Pls
4293 283 Pls
4295 283 Pls
4296 283 Pls
4296 283 Pls
4296 283 Pls
4296 283 Pls
4297 283 Pls
4298 283 Pls
4298 283 Pls
4299 283 Pls
4299 283 Pls
4299 283 Pls
4300 283 Pls
4300 283 Pls
4301 283 Pls
4301 283 Pls
4301 283 Pls
4302 283 Pls
4303 283 Pls
4303 283 Pls
4304 283 Pls
4304 283 Pls
4304 283 Pls
4304 283 Pls
4305 283 Pls
4306 283 Pls
4306 283 Pls
4307 283 Pls
4307 283 Pls
4307 283 Pls
4307 283 Pls
4308 283 Pls
4308 283 Pls
4308 283 Pls
4309 283 Pls
4311 283 Pls
4312 283 Pls
4312 283 Pls
4312 283 Pls
4313 283 Pls
4314 283 Pls
4314 283 Pls
4315 283 Pls
4315 283 Pls
4315 283 Pls
4315 283 Pls
4316 283 Pls
4317 283 Pls
4318 283 Pls
4318 283 Pls
4319 283 Pls
4320 283 Pls
4320 283 Pls
4320 283 Pls
4321 283 Pls
4321 283 Pls
4322 283 Pls
4322 283 Pls
4323 283 Pls
4323 283 Pls
4324 283 Pls
4324 283 Pls
4324 283 Pls
4324 283 Pls
4324 283 Pls
4325 283 Pls
4325 283 Pls
4325 283 Pls
4325 283 Pls
4326 283 Pls
4326 283 Pls
4326 283 Pls
4327 283 Pls
4327 283 Pls
4329 283 Pls
4329 283 Pls
4330 283 Pls
4330 283 Pls
4331 283 Pls
4332 283 Pls
4333 283 Pls
4333 283 Pls
4334 283 Pls
4334 283 Pls
4334 283 Pls
4334 283 Pls
4335 283 Pls
4336 283 Pls
4338 283 Pls
4340 283 Pls
4342 283 Pls
4342 283 Pls
4344 283 Pls
4345 283 Pls
4346 283 Pls
4347 283 Pls
4348 283 Pls
4348 283 Pls
4348 283 Pls
4349 283 Pls
4349 283 Pls
4349 283 Pls
4350 283 Pls
4350 283 Pls
4351 283 Pls
4351 283 Pls
4351 283 Pls
4352 283 Pls
4352 283 Pls
4352 283 Pls
4352 283 Pls
4352 283 Pls
4352 283 Pls
4353 283 Pls
4354 283 Pls
4354 283 Pls
4354 283 Pls
4354 283 Pls
4355 283 Pls
4355 283 Pls
4355 283 Pls
4356 283 Pls
4356 283 Pls
4356 283 Pls
4356 283 Pls
4357 283 Pls
4357 283 Pls
4357 283 Pls
4357 283 Pls
4358 283 Pls
4359 283 Pls
4359 283 Pls
4359 283 Pls
4360 283 Pls
4360 283 Pls
4360 283 Pls
4360 283 Pls
4360 283 Pls
4361 283 Pls
4361 283 Pls
4362 283 Pls
4362 283 Pls
4363 283 Pls
4363 283 Pls
4363 283 Pls
4363 283 Pls
4363 283 Pls
4364 283 Pls
4364 283 Pls
4365 283 Pls
4365 283 Pls
4365 283 Pls
4365 283 Pls
4366 283 Pls
4367 283 Pls
4368 283 Pls
4368 283 Pls
4368 283 Pls
4369 283 Pls
4369 283 Pls
4370 283 Pls
4370 283 Pls
4370 283 Pls
4371 283 Pls
4371 283 Pls
4371 283 Pls
4371 283 Pls
4371 283 Pls
4371 283 Pls
4372 283 Pls
4372 283 Pls
4373 283 Pls
4373 283 Pls
4373 283 Pls
4374 283 Pls
4374 283 Pls
4376 283 Pls
4376 283 Pls
4376 283 Pls
4378 283 Pls
4378 283 Pls
4379 283 Pls
4379 283 Pls
4379 283 Pls
4380 283 Pls
4381 283 Pls
4382 283 Pls
4383 283 Pls
4383 283 Pls
4384 283 Pls
4384 283 Pls
4386 283 Pls
4386 283 Pls
4388 283 Pls
4389 283 Pls
4389 283 Pls
4389 283 Pls
4389 283 Pls
4390 283 Pls
4391 283 Pls
4391 283 Pls
4391 283 Pls
4392 283 Pls
4394 283 Pls
4394 283 Pls
4399 283 Pls
4401 283 Pls
4401 283 Pls
4401 283 Pls
4401 283 Pls
4402 283 Pls
4402 283 Pls
4402 283 Pls
4402 283 Pls
4403 283 Pls
4403 283 Pls
4403 283 Pls
4404 283 Pls
4404 283 Pls
4404 283 Pls
4404 283 Pls
4405 283 Pls
4405 283 Pls
4406 283 Pls
4406 283 Pls
4407 283 Pls
4407 283 Pls
4408 283 Pls
4409 283 Pls
4409 283 Pls
4409 283 Pls
4409 283 Pls
4410 283 Pls
4410 283 Pls
4410 283 Pls
4411 283 Pls
4411 283 Pls
4411 283 Pls
4411 283 Pls
4412 283 Pls
4412 283 Pls
4413 283 Pls
4413 283 Pls
4415 283 Pls
4415 283 Pls
4416 283 Pls
4416 283 Pls
4417 283 Pls
4417 283 Pls
4417 283 Pls
4418 283 Pls
4418 283 Pls
4418 283 Pls
4418 283 Pls
4418 283 Pls
4419 283 Pls
4419 283 Pls
4420 283 Pls
4420 283 Pls
4421 283 Pls
4423 283 Pls
4423 283 Pls
4424 283 Pls
4426 283 Pls
4426 283 Pls
4426 283 Pls
4426 283 Pls
4428 283 Pls
4428 283 Pls
4428 283 Pls
4429 283 Pls
4429 283 Pls
4430 283 Pls
4430 283 Pls
4430 283 Pls
4431 283 Pls
4431 283 Pls
4432 283 Pls
4433 283 Pls
4433 283 Pls
4434 283 Pls
4434 283 Pls
4435 283 Pls
4435 283 Pls
4435 283 Pls
4435 283 Pls
4436 283 Pls
4436 283 Pls
4436 283 Pls
4436 283 Pls
4438 283 Pls
4439 283 Pls
4440 283 Pls
4441 283 Pls
4441 283 Pls
4442 283 Pls
4442 283 Pls
4446 283 Pls
4446 283 Pls
4446 283 Pls
4447 283 Pls
4447 283 Pls
4447 283 Pls
4448 283 Pls
4448 283 Pls
4449 283 Pls
4449 283 Pls
4450 283 Pls
4451 283 Pls
4451 283 Pls
4451 283 Pls
4452 283 Pls
4454 283 Pls
4454 283 Pls
4455 283 Pls
4457 283 Pls
4457 283 Pls
4458 283 Pls
4458 283 Pls
4458 283 Pls
4460 283 Pls
4461 283 Pls
4462 283 Pls
4462 283 Pls
4463 283 Pls
4463 283 Pls
4463 283 Pls
4463 283 Pls
4463 283 Pls
4463 283 Pls
4463 283 Pls
4463 283 Pls
4465 283 Pls
4465 283 Pls
4465 283 Pls
4465 283 Pls
4465 283 Pls
4466 283 Pls
4467 283 Pls
4469 283 Pls
4470 283 Pls
4471 283 Pls
4472 283 Pls
4472 283 Pls
4472 283 Pls
4473 283 Pls
4473 283 Pls
4474 283 Pls
4474 283 Pls
4474 283 Pls
4474 283 Pls
4475 283 Pls
4476 283 Pls
4478 283 Pls
4478 283 Pls
4479 283 Pls
4480 283 Pls
4480 283 Pls
4480 283 Pls
4482 283 Pls
4482 283 Pls
4482 283 Pls
4483 283 Pls
4483 283 Pls
4484 283 Pls
4484 283 Pls
4485 283 Pls
4485 283 Pls
4486 283 Pls
4486 283 Pls
4486 283 Pls
4487 283 Pls
4488 283 Pls
4488 283 Pls
4489 283 Pls
4489 283 Pls
4490 283 Pls
4490 283 Pls
4491 283 Pls
4491 282 Pls
4492 282 Pls
4494 282 Pls
4495 282 Pls
4495 282 Pls
4498 282 Pls
4498 282 Pls
4498 282 Pls
4500 282 Pls
4500 282 Pls
4500 282 Pls
4501 282 Pls
4501 282 Pls
4502 282 Pls
4503 282 Pls
4503 282 Pls
4504 282 Pls
4505 282 Pls
4506 282 Pls
4507 282 Pls
4507 282 Pls
4508 282 Pls
4508 282 Pls
4509 282 Pls
4509 282 Pls
4509 282 Pls
4509 282 Pls
4510 282 Pls
4510 282 Pls
4510 282 Pls
4510 282 Pls
4511 282 Pls
4511 282 Pls
4513 282 Pls
4513 282 Pls
4513 282 Pls
4513 282 Pls
4514 282 Pls
4514 282 Pls
4516 282 Pls
4516 282 Pls
4517 282 Pls
4517 282 Pls
4517 282 Pls
4518 282 Pls
4518 282 Pls
4518 282 Pls
4518 282 Pls
4519 282 Pls
4519 282 Pls
4519 282 Pls
4519 282 Pls
4520 282 Pls
4521 282 Pls
4522 282 Pls
4523 282 Pls
4523 282 Pls
4523 282 Pls
4524 282 Pls
4524 282 Pls
4526 282 Pls
4527 282 Pls
4527 282 Pls
4528 282 Pls
4528 282 Pls
4529 282 Pls
4529 282 Pls
4530 282 Pls
4530 282 Pls
4531 282 Pls
4532 282 Pls
4533 282 Pls
4533 282 Pls
4534 282 Pls
4535 282 Pls
4536 282 Pls
4536 282 Pls
4536 282 Pls
4536 282 Pls
4537 282 Pls
4537 282 Pls
4538 282 Pls
4539 282 Pls
4540 282 Pls
4541 282 Pls
4542 282 Pls
4542 282 Pls
4543 282 Pls
4543 282 Pls
4544 282 Pls
4545 282 Pls
4545 282 Pls
4546 282 Pls
4547 282 Pls
4547 282 Pls
4549 282 Pls
4550 282 Pls
4550 282 Pls
4550 282 Pls
4550 282 Pls
4551 282 Pls
4551 282 Pls
4551 282 Pls
4553 282 Pls
4553 282 Pls
4554 282 Pls
4554 282 Pls
4554 282 Pls
4555 282 Pls
4556 282 Pls
4556 282 Pls
4556 282 Pls
4556 282 Pls
4558 282 Pls
4558 282 Pls
4558 282 Pls
4558 282 Pls
4560 282 Pls
4561 282 Pls
4561 282 Pls
4561 282 Pls
4561 282 Pls
4562 282 Pls
4562 282 Pls
4562 282 Pls
4563 282 Pls
4563 282 Pls
4563 282 Pls
4564 282 Pls
4565 282 Pls
4565 282 Pls
4567 282 Pls
4567 282 Pls
4568 282 Pls
4568 282 Pls
4568 282 Pls
4569 282 Pls
4569 282 Pls
4570 282 Pls
4570 282 Pls
4570 282 Pls
4572 282 Pls
4572 282 Pls
4573 282 Pls
4573 282 Pls
4574 282 Pls
4574 282 Pls
4575 282 Pls
4575 282 Pls
4575 282 Pls
4576 282 Pls
4577 282 Pls
4577 282 Pls
4577 282 Pls
4577 282 Pls
4578 282 Pls
4578 282 Pls
4579 282 Pls
4580 282 Pls
4580 282 Pls
4580 282 Pls
4580 282 Pls
4580 282 Pls
4580 282 Pls
4581 282 Pls
4581 282 Pls
4581 282 Pls
4582 282 Pls
4583 282 Pls
4584 282 Pls
4584 282 Pls
4584 282 Pls
4584 282 Pls
4584 282 Pls
4585 282 Pls
4586 282 Pls
4586 282 Pls
4587 282 Pls
4587 282 Pls
4587 282 Pls
4588 282 Pls
4588 282 Pls
4588 282 Pls
4589 282 Pls
4590 282 Pls
4590 282 Pls
4590 282 Pls
4591 282 Pls
4591 282 Pls
4591 282 Pls
4592 282 Pls
4592 282 Pls
4592 282 Pls
4592 282 Pls
4593 282 Pls
4594 282 Pls
4594 282 Pls
4594 282 Pls
4596 282 Pls
4596 282 Pls
4596 282 Pls
4596 282 Pls
4596 282 Pls
4596 282 Pls
4596 282 Pls
4597 282 Pls
4597 282 Pls
4599 282 Pls
4600 282 Pls
4600 282 Pls
4600 282 Pls
4600 282 Pls
4601 282 Pls
4601 282 Pls
4601 282 Pls
4602 282 Pls
4602 282 Pls
4603 282 Pls
4603 282 Pls
4604 282 Pls
4604 282 Pls
4605 282 Pls
4605 282 Pls
4605 282 Pls
4605 282 Pls
4606 282 Pls
4606 282 Pls
4607 282 Pls
4607 282 Pls
4607 282 Pls
4607 282 Pls
4608 282 Pls
4608 282 Pls
4609 282 Pls
4609 282 Pls
4610 282 Pls
4611 282 Pls
4611 282 Pls
4613 282 Pls
4613 282 Pls
4613 282 Pls
4614 282 Pls
4615 282 Pls
4615 282 Pls
4616 282 Pls
4616 282 Pls
4617 282 Pls
4617 282 Pls
4618 282 Pls
4618 282 Pls
4618 282 Pls
4620 282 Pls
4621 282 Pls
4622 282 Pls
4622 282 Pls
4622 282 Pls
4623 282 Pls
4623 282 Pls
4626 282 Pls
4628 282 Pls
4629 282 Pls
4629 282 Pls
4629 282 Pls
4630 282 Pls
4630 282 Pls
4632 282 Pls
4632 282 Pls
4633 282 Pls
4633 282 Pls
4633 282 Pls
4634 282 Pls
4635 282 Pls
4635 282 Pls
4635 282 Pls
4635 282 Pls
4636 282 Pls
4636 282 Pls
4636 282 Pls
4636 282 Pls
4637 282 Pls
4637 282 Pls
4638 282 Pls
4638 282 Pls
4638 282 Pls
4639 282 Pls
4639 282 Pls
4640 282 Pls
4640 282 Pls
4641 282 Pls
4641 282 Pls
4642 282 Pls
4643 282 Pls
4643 282 Pls
4645 282 Pls
4645 282 Pls
4645 282 Pls
4646 282 Pls
4647 282 Pls
4647 282 Pls
4647 282 Pls
4647 282 Pls
4648 282 Pls
4649 282 Pls
4650 282 Pls
4652 282 Pls
4652 282 Pls
4656 282 Pls
4658 282 Pls
4658 282 Pls
4659 282 Pls
4659 282 Pls
4660 282 Pls
4661 282 Pls
4661 282 Pls
4664 282 Pls
4665 282 Pls
4668 282 Pls
4669 282 Pls
4669 282 Pls
4670 282 Pls
4670 282 Pls
4671 282 Pls
4672 282 Pls
4672 282 Pls
4673 282 Pls
4674 282 Pls
4675 282 Pls
4676 282 Pls
4676 282 Pls
4677 282 Pls
4677 282 Pls
4677 282 Pls
4678 282 Pls
4678 282 Pls
4678 282 Pls
4679 282 Pls
4681 282 Pls
4681 282 Pls
4682 282 Pls
4682 282 Pls
4686 282 Pls
4687 282 Pls
4687 282 Pls
4689 282 Pls
4689 282 Pls
4689 282 Pls
4690 282 Pls
4691 282 Pls
4691 282 Pls
4691 282 Pls
4692 282 Pls
4692 282 Pls
4692 282 Pls
4692 282 Pls
4692 282 Pls
4692 282 Pls
4693 282 Pls
4693 282 Pls
4693 282 Pls
4694 282 Pls
4694 282 Pls
4695 282 Pls
4696 282 Pls
4697 282 Pls
4698 282 Pls
4698 282 Pls
4698 282 Pls
4699 282 Pls
4700 282 Pls
4701 282 Pls
4702 282 Pls
4702 282 Pls
4702 282 Pls
4704 282 Pls
4706 282 Pls
4706 282 Pls
4706 282 Pls
4706 282 Pls
4706 282 Pls
4706 282 Pls
4707 282 Pls
4708 282 Pls
4708 282 Pls
4709 282 Pls
4709 282 Pls
4710 282 Pls
4711 282 Pls
4712 282 Pls
4714 282 Pls
4714 282 Pls
4715 282 Pls
4715 282 Pls
4719 282 Pls
4719 282 Pls
4720 282 Pls
4721 282 Pls
4723 282 Pls
4723 282 Pls
4725 282 Pls
4726 282 Pls
4726 282 Pls
4727 282 Pls
4727 282 Pls
4727 282 Pls
4727 282 Pls
4728 282 Pls
4729 282 Pls
4729 282 Pls
4729 282 Pls
4729 282 Pls
4730 282 Pls
4730 282 Pls
4731 282 Pls
4732 282 Pls
4732 282 Pls
4733 282 Pls
4733 282 Pls
4734 282 Pls
4734 282 Pls
4735 282 Pls
4735 282 Pls
4735 282 Pls
4735 282 Pls
4736 282 Pls
4737 282 Pls
4737 282 Pls
4737 282 Pls
4738 282 Pls
4738 282 Pls
4738 282 Pls
4738 282 Pls
4738 282 Pls
4739 282 Pls
4739 282 Pls
4740 282 Pls
4742 282 Pls
4742 282 Pls
4742 282 Pls
4743 282 Pls
4744 282 Pls
4744 282 Pls
4744 282 Pls
4746 282 Pls
4747 282 Pls
4747 282 Pls
4748 282 Pls
4749 282 Pls
4749 282 Pls
4749 282 Pls
4749 282 Pls
4750 282 Pls
4750 282 Pls
4751 282 Pls
4751 281 Pls
4751 281 Pls
4751 281 Pls
4752 281 Pls
4753 281 Pls
4754 281 Pls
4754 281 Pls
4754 281 Pls
4756 281 Pls
4757 281 Pls
4759 281 Pls
4759 281 Pls
4760 281 Pls
4762 281 Pls
4764 281 Pls
4766 281 Pls
4767 281 Pls
4767 281 Pls
4767 281 Pls
4769 281 Pls
4769 281 Pls
4769 281 Pls
4770 281 Pls
4771 281 Pls
4771 281 Pls
4774 281 Pls
4774 281 Pls
4777 281 Pls
4777 281 Pls
4778 281 Pls
4778 281 Pls
4779 281 Pls
4780 281 Pls
4781 281 Pls
4781 281 Pls
4781 281 Pls
4781 281 Pls
4782 281 Pls
4783 281 Pls
4784 281 Pls
4785 281 Pls
4787 281 Pls
4788 281 Pls
4789 281 Pls
4789 281 Pls
4790 281 Pls
4790 281 Pls
4790 281 Pls
4791 281 Pls
4791 281 Pls
4792 281 Pls
4794 281 Pls
4798 281 Pls
4799 281 Pls
4799 281 Pls
4799 281 Pls
4800 281 Pls
4800 281 Pls
4801 281 Pls
4801 281 Pls
4802 281 Pls
4803 281 Pls
4803 281 Pls
4803 281 Pls
4804 281 Pls
4804 281 Pls
4805 281 Pls
4805 281 Pls
4806 281 Pls
4807 281 Pls
4809 281 Pls
4811 281 Pls
4812 281 Pls
4813 281 Pls
4814 281 Pls
4817 281 Pls
4817 281 Pls
4817 281 Pls
4817 281 Pls
4817 281 Pls
4818 281 Pls
4818 281 Pls
4818 281 Pls
4819 281 Pls
4819 281 Pls
4819 281 Pls
4819 281 Pls
4819 281 Pls
4819 281 Pls
4819 281 Pls
4820 281 Pls
4820 281 Pls
4820 281 Pls
4820 281 Pls
4820 281 Pls
4820 281 Pls
4821 281 Pls
4821 281 Pls
4822 281 Pls
4822 281 Pls
4822 281 Pls
4822 281 Pls
4822 281 Pls
4822 281 Pls
4822 281 Pls
4823 281 Pls
4823 281 Pls
4823 281 Pls
4823 281 Pls
4824 281 Pls
4824 281 Pls
4824 281 Pls
4824 281 Pls
4824 281 Pls
4824 281 Pls
4825 281 Pls
4825 281 Pls
4825 281 Pls
4825 281 Pls
4825 281 Pls
4826 281 Pls
4826 281 Pls
4826 281 Pls
4826 281 Pls
4826 281 Pls
4826 281 Pls
4827 281 Pls
4827 281 Pls
4827 281 Pls
4827 281 Pls
4827 281 Pls
4828 281 Pls
4828 281 Pls
4828 281 Pls
4828 281 Pls
4828 281 Pls
4828 281 Pls
4828 281 Pls
4828 281 Pls
4829 281 Pls
4829 281 Pls
4829 281 Pls
4829 281 Pls
4829 281 Pls
4829 281 Pls
4829 281 Pls
4830 281 Pls
4830 281 Pls
4830 281 Pls
4830 281 Pls
4830 281 Pls
4830 281 Pls
4830 281 Pls
4830 281 Pls
4831 281 Pls
4831 281 Pls
4831 281 Pls
4831 281 Pls
4831 281 Pls
4831 281 Pls
4831 281 Pls
4831 281 Pls
4831 281 Pls
4831 281 Pls
4832 281 Pls
4832 281 Pls
4832 281 Pls
4832 281 Pls
4832 281 Pls
4832 281 Pls
4832 281 Pls
4832 281 Pls
4832 281 Pls
4832 281 Pls
4833 281 Pls
4833 281 Pls
4833 281 Pls
4833 281 Pls
4834 281 Pls
4834 281 Pls
4834 281 Pls
4834 281 Pls
4834 281 Pls
4834 281 Pls
4835 281 Pls
4835 281 Pls
4835 281 Pls
4835 281 Pls
4835 281 Pls
4836 281 Pls
4836 281 Pls
4836 281 Pls
4836 281 Pls
4836 281 Pls
4836 281 Pls
4836 281 Pls
4836 281 Pls
4837 281 Pls
4837 281 Pls
4838 281 Pls
4838 281 Pls
4838 281 Pls
4839 281 Pls
4839 281 Pls
4839 281 Pls
4839 281 Pls
4839 281 Pls
4839 281 Pls
4839 281 Pls
4840 281 Pls
4840 281 Pls
4840 281 Pls
4841 281 Pls
4841 281 Pls
4842 281 Pls
4842 281 Pls
4842 281 Pls
4842 281 Pls
4842 281 Pls
4842 281 Pls
4843 281 Pls
4843 281 Pls
4843 281 Pls
4843 281 Pls
4843 281 Pls
4844 281 Pls
4844 281 Pls
4844 281 Pls
4844 281 Pls
4844 281 Pls
4844 281 Pls
4845 281 Pls
4845 281 Pls
4845 281 Pls
4845 281 Pls
4845 281 Pls
4846 281 Pls
4847 281 Pls
4847 281 Pls
4847 281 Pls
4847 281 Pls
4847 281 Pls
4847 281 Pls
4847 281 Pls
4848 281 Pls
4848 281 Pls
4848 281 Pls
4848 281 Pls
4848 281 Pls
4848 281 Pls
4848 281 Pls
4848 281 Pls
4849 281 Pls
4849 281 Pls
4850 281 Pls
4850 281 Pls
4851 281 Pls
4851 281 Pls
4852 281 Pls
4853 281 Pls
4853 281 Pls
4855 281 Pls
4856 281 Pls
4856 281 Pls
4857 281 Pls
4857 281 Pls
4858 281 Pls
4858 281 Pls
4860 281 Pls
4861 281 Pls
4861 281 Pls
4861 281 Pls
4862 281 Pls
4863 281 Pls
4863 281 Pls
4863 281 Pls
4863 281 Pls
4864 281 Pls
4865 281 Pls
4869 281 Pls
4869 281 Pls
4869 281 Pls
4869 281 Pls
4870 281 Pls
4870 281 Pls
4871 281 Pls
4871 281 Pls
4872 281 Pls
4872 281 Pls
4873 281 Pls
4873 281 Pls
4876 281 Pls
4876 281 Pls
4878 281 Pls
4878 281 Pls
4879 281 Pls
4880 281 Pls
4880 281 Pls
4881 281 Pls
4881 281 Pls
4881 281 Pls
4881 281 Pls
4881 281 Pls
4884 281 Pls
4885 281 Pls
4886 281 Pls
4887 281 Pls
4887 281 Pls
4887 281 Pls
4887 281 Pls
4889 281 Pls
4889 281 Pls
4892 281 Pls
4892 281 Pls
4894 281 Pls
4897 281 Pls
4898 281 Pls
4900 281 Pls
4901 281 Pls
4903 281 Pls
4903 281 Pls
4904 281 Pls
4905 281 Pls
4905 281 Pls
4907 281 Pls
4907 281 Pls
4908 281 Pls
4908 281 Pls
4912 281 Pls
4913 281 Pls
4914 281 Pls
4914 281 Pls
4918 281 Pls
4919 281 Pls
4920 281 Pls
4920 281 Pls
4920 281 Pls
4923 281 Pls
4923 281 Pls
4924 281 Pls
4924 281 Pls
4924 281 Pls
4928 281 Pls
4928 281 Pls
4929 281 Pls
4931 281 Pls
4934 281 Pls
4935 281 Pls
4936 281 Pls
4936 281 Pls
4936 281 Pls
4936 281 Pls
4937 281 Pls
4937 281 Pls
4938 281 Pls
4939 281 Pls
4944 281 Pls
4949 281 Pls
4950 281 Pls
4954 281 Pls
4956 281 Pls
4959 281 Pls
4960 281 Pls
4960 281 Pls
4962 281 Pls
4964 281 Pls
4964 281 Pls
4964 281 Pls
4965 281 Pls
4966 281 Pls
4966 281 Pls
4967 281 Pls
4969 281 Pls
4970 281 Pls
4972 281 Pls
4973 281 Pls
4976 281 Pls
4977 281 Pls
4977 281 Pls
4978 281 Pls
4978 281 Pls
4980 281 Pls
4982 281 Pls
4984 281 Pls
4986 281 Pls
4988 281 Pls
4989 281 Pls
4989 281 Pls
4989 281 Pls
4995 281 Pls
4996 281 Pls
4996 281 Pls
4996 281 Pls
4997 281 Pls
4998 281 Pls
4998 281 Pls
4998 281 Pls
5001 281 Pls
5003 281 Pls
5009 281 Pls
5010 281 Pls
5011 281 Pls
5011 281 Pls
5014 281 Pls
5016 281 Pls
5016 281 Pls
5019 281 Pls
5021 281 Pls
5026 281 Pls
5028 281 Pls
5028 281 Pls
5031 281 Pls
5032 281 Pls
5032 281 Pls
5038 281 Pls
5039 281 Pls
5039 281 Pls
5041 281 Pls
5041 281 Pls
5044 281 Pls
5044 281 Pls
5044 281 Pls
5045 281 Pls
5049 281 Pls
5049 281 Pls
5053 281 Pls
5054 281 Pls
5057 281 Pls
5058 281 Pls
5060 281 Pls
5062 281 Pls
5063 281 Pls
5063 281 Pls
5064 281 Pls
5064 281 Pls
5065 281 Pls
5067 281 Pls
5069 281 Pls
5070 281 Pls
5070 281 Pls
5071 281 Pls
5072 281 Pls
5073 281 Pls
5075 281 Pls
5076 281 Pls
5076 281 Pls
5076 281 Pls
5077 281 Pls
5078 281 Pls
5080 281 Pls
5084 281 Pls
5084 281 Pls
5085 281 Pls
5086 280 Pls
5089 280 Pls
5093 280 Pls
5095 280 Pls
5098 280 Pls
5098 280 Pls
5099 280 Pls
5099 280 Pls
5100 280 Pls
5105 280 Pls
5108 280 Pls
5109 280 Pls
5109 280 Pls
5109 280 Pls
5112 280 Pls
5113 280 Pls
5114 280 Pls
5115 280 Pls
5116 280 Pls
5118 280 Pls
5119 280 Pls
5125 280 Pls
5129 280 Pls
5130 280 Pls
5131 280 Pls
5134 280 Pls
5135 280 Pls
5135 280 Pls
5136 280 Pls
5139 280 Pls
5140 280 Pls
5143 280 Pls
5145 280 Pls
5149 280 Pls
5150 280 Pls
5150 280 Pls
5151 280 Pls
5151 280 Pls
5151 280 Pls
5153 280 Pls
5154 280 Pls
5154 280 Pls
5157 280 Pls
5157 280 Pls
5157 280 Pls
5158 280 Pls
5160 280 Pls
5166 280 Pls
5167 280 Pls
5172 280 Pls
5172 280 Pls
5177 280 Pls
5179 280 Pls
5179 280 Pls
5181 280 Pls
5182 280 Pls
5186 280 Pls
5186 280 Pls
5187 280 Pls
5190 280 Pls
5191 280 Pls
5192 280 Pls
5192 280 Pls
5194 280 Pls
5194 280 Pls
5196 280 Pls
5202 280 Pls
5202 280 Pls
5209 280 Pls
5211 280 Pls
5213 280 Pls
5214 280 Pls
5214 280 Pls
5215 280 Pls
5222 280 Pls
5229 280 Pls
5232 280 Pls
5235 280 Pls
5242 280 Pls
5249 280 Pls
5250 280 Pls
5252 280 Pls
5254 280 Pls
5260 280 Pls
5263 280 Pls
5263 280 Pls
5265 280 Pls
5274 280 Pls
5275 280 Pls
5275 280 Pls
5275 280 Pls
5278 280 Pls
5282 280 Pls
5282 280 Pls
5288 280 Pls
5292 280 Pls
5294 280 Pls
5300 280 Pls
5305 280 Pls
5308 280 Pls
5310 280 Pls
5314 280 Pls
5315 280 Pls
5318 280 Pls
5319 280 Pls
5321 280 Pls
5322 280 Pls
5325 280 Pls
5327 280 Pls
5327 280 Pls
5334 280 Pls
5342 280 Pls
5343 280 Pls
5343 280 Pls
5343 280 Pls
5346 280 Pls
5349 280 Pls
5349 280 Pls
5350 280 Pls
5350 280 Pls
5358 280 Pls
5358 280 Pls
5360 280 Pls
5366 280 Pls
5370 280 Pls
5375 280 Pls
5377 280 Pls
5388 280 Pls
5389 280 Pls
5390 280 Pls
5390 280 Pls
5403 280 Pls
5405 280 Pls
5410 280 Pls
5421 280 Pls
5427 280 Pls
5430 280 Pls
5432 280 Pls
5434 280 Pls
5437 280 Pls
5440 280 Pls
5443 280 Pls
5445 280 Pls
5445 280 Pls
5452 280 Pls
5452 280 Pls
5458 280 Pls
5459 280 Pls
5466 280 Pls
5474 280 Pls
5474 280 Pls
5482 280 Pls
5485 280 Pls
5485 280 Pls
5487 280 Pls
5487 280 Pls
5491 280 Pls
5492 280 Pls
5493 280 Pls
5495 280 Pls
5499 280 Pls
5501 280 Pls
5503 280 Pls
5504 280 Pls
5506 280 Pls
5513 280 Pls
5527 280 Pls
5529 280 Pls
5542 280 Pls
5544 280 Pls
5545 280 Pls
5549 280 Pls
5573 280 Pls
5584 280 Pls
5608 280 Pls
5609 280 Pls
5613 280 Pls
5614 280 Pls
5616 280 Pls
5629 280 Pls
5637 280 Pls
5640 280 Pls
5643 280 Pls
5647 280 Pls
5647 280 Pls
5655 280 Pls
5668 280 Pls
5669 280 Pls
5679 280 Pls
5688 280 Pls
5692 280 Pls
5701 280 Pls
5707 280 Pls
5708 280 Pls
5708 280 Pls
5718 280 Pls
5726 280 Pls
5730 280 Pls
5743 280 Pls
5745 280 Pls
5748 280 Pls
5766 280 Pls
5771 280 Pls
5773 280 Pls
5773 280 Pls
5780 280 Pls
5781 280 Pls
5801 280 Pls
5901 280 Pls
5917 280 Pls
5919 280 Pls
5945 280 Pls
5976 280 Pls
6008 280 Pls
6012 280 Pls
6054 280 Pls
6149 280 Pls
6161 280 Pls
6185 280 Pls
6209 280 Pls
6224 280 Pls
6233 280 Pls
6291 280 Pls
6291 280 Pls
6302 280 Pls
6380 280 Pls
6412 280 Pls
6476 280 Pls
6499 280 Pls
6644 280 Pls
6769 280 Pls
% End plot #1
2.000 UL
LTb
LCb setrgbcolor
1.000 UL
LTB
LCb setrgbcolor
546 4871 N
546 280 L
6401 0 V
0 4591 V
-6401 0 V
Z stroke
1.000 UP
1.000 UL
LTb
LCb setrgbcolor
stroke
grestore
end
showpage
%%Trailer
%%DocumentFonts: Helvetica
%%Pages: 1
