%!PS-Adobe-2.0
%%Title: packets-uv-s-add-packets-uv-ccdf-loglog.eps
%%Creator: gnuplot 5.0 patchlevel 3
%%CreationDate: Mon May 29 11:08:45 2017
%%DocumentFonts: (atend)
%%BoundingBox: 50 50 554 770
%%Orientation: Landscape
%%Pages: (atend)
%%EndComments
%%BeginProlog
/gnudict 256 dict def
gnudict begin
%
% The following true/false flags may be edited by hand if desired.
% The unit line width and grayscale image gamma correction may also be changed.
%
/Color true def
/Blacktext false def
/Solid false def
/Dashlength 1 def
/Landscape true def
/Level1 false def
/Level3 false def
/Rounded false def
/ClipToBoundingBox false def
/SuppressPDFMark false def
/TransparentPatterns false def
/gnulinewidth 5.000 def
/userlinewidth gnulinewidth def
/Gamma 1.0 def
/BackgroundColor {-1.000 -1.000 -1.000} def
%
/vshift -46 def
/dl1 {
  10.0 Dashlength userlinewidth gnulinewidth div mul mul mul
  Rounded { currentlinewidth 0.75 mul sub dup 0 le { pop 0.01 } if } if
} def
/dl2 {
  10.0 Dashlength userlinewidth gnulinewidth div mul mul mul
  Rounded { currentlinewidth 0.75 mul add } if
} def
/hpt_ 31.5 def
/vpt_ 31.5 def
/hpt hpt_ def
/vpt vpt_ def
/doclip {
  ClipToBoundingBox {
    newpath 50 50 moveto 554 50 lineto 554 770 lineto 50 770 lineto closepath
    clip
  } if
} def
%
% Gnuplot Prolog Version 5.1 (Oct 2015)
%
%/SuppressPDFMark true def
%
/M {moveto} bind def
/L {lineto} bind def
/R {rmoveto} bind def
/V {rlineto} bind def
/N {newpath moveto} bind def
/Z {closepath} bind def
/C {setrgbcolor} bind def
/f {rlineto fill} bind def
/g {setgray} bind def
/Gshow {show} def   % May be redefined later in the file to support UTF-8
/vpt2 vpt 2 mul def
/hpt2 hpt 2 mul def
/Lshow {currentpoint stroke M 0 vshift R 
	Blacktext {gsave 0 setgray textshow grestore} {textshow} ifelse} def
/Rshow {currentpoint stroke M dup stringwidth pop neg vshift R
	Blacktext {gsave 0 setgray textshow grestore} {textshow} ifelse} def
/Cshow {currentpoint stroke M dup stringwidth pop -2 div vshift R 
	Blacktext {gsave 0 setgray textshow grestore} {textshow} ifelse} def
/UP {dup vpt_ mul /vpt exch def hpt_ mul /hpt exch def
  /hpt2 hpt 2 mul def /vpt2 vpt 2 mul def} def
/DL {Color {setrgbcolor Solid {pop []} if 0 setdash}
 {pop pop pop 0 setgray Solid {pop []} if 0 setdash} ifelse} def
/BL {stroke userlinewidth 2 mul setlinewidth
	Rounded {1 setlinejoin 1 setlinecap} if} def
/AL {stroke userlinewidth 2 div setlinewidth
	Rounded {1 setlinejoin 1 setlinecap} if} def
/UL {dup gnulinewidth mul /userlinewidth exch def
	dup 1 lt {pop 1} if 10 mul /udl exch def} def
/PL {stroke userlinewidth setlinewidth
	Rounded {1 setlinejoin 1 setlinecap} if} def
3.8 setmiterlimit
% Classic Line colors (version 5.0)
/LCw {1 1 1} def
/LCb {0 0 0} def
/LCa {0 0 0} def
/LC0 {1 0 0} def
/LC1 {0 1 0} def
/LC2 {0 0 1} def
/LC3 {1 0 1} def
/LC4 {0 1 1} def
/LC5 {1 1 0} def
/LC6 {0 0 0} def
/LC7 {1 0.3 0} def
/LC8 {0.5 0.5 0.5} def
% Default dash patterns (version 5.0)
/LTB {BL [] LCb DL} def
/LTw {PL [] 1 setgray} def
/LTb {PL [] LCb DL} def
/LTa {AL [1 udl mul 2 udl mul] 0 setdash LCa setrgbcolor} def
/LT0 {PL [] LC0 DL} def
/LT1 {PL [2 dl1 3 dl2] LC1 DL} def
/LT2 {PL [1 dl1 1.5 dl2] LC2 DL} def
/LT3 {PL [6 dl1 2 dl2 1 dl1 2 dl2] LC3 DL} def
/LT4 {PL [1 dl1 2 dl2 6 dl1 2 dl2 1 dl1 2 dl2] LC4 DL} def
/LT5 {PL [4 dl1 2 dl2] LC5 DL} def
/LT6 {PL [1.5 dl1 1.5 dl2 1.5 dl1 1.5 dl2 1.5 dl1 6 dl2] LC6 DL} def
/LT7 {PL [3 dl1 3 dl2 1 dl1 3 dl2] LC7 DL} def
/LT8 {PL [2 dl1 2 dl2 2 dl1 6 dl2] LC8 DL} def
/SL {[] 0 setdash} def
/Pnt {stroke [] 0 setdash gsave 1 setlinecap M 0 0 V stroke grestore} def
/Dia {stroke [] 0 setdash 2 copy vpt add M
  hpt neg vpt neg V hpt vpt neg V
  hpt vpt V hpt neg vpt V closepath stroke
  Pnt} def
/Pls {stroke [] 0 setdash vpt sub M 0 vpt2 V
  currentpoint stroke M
  hpt neg vpt neg R hpt2 0 V stroke
 } def
/Box {stroke [] 0 setdash 2 copy exch hpt sub exch vpt add M
  0 vpt2 neg V hpt2 0 V 0 vpt2 V
  hpt2 neg 0 V closepath stroke
  Pnt} def
/Crs {stroke [] 0 setdash exch hpt sub exch vpt add M
  hpt2 vpt2 neg V currentpoint stroke M
  hpt2 neg 0 R hpt2 vpt2 V stroke} def
/TriU {stroke [] 0 setdash 2 copy vpt 1.12 mul add M
  hpt neg vpt -1.62 mul V
  hpt 2 mul 0 V
  hpt neg vpt 1.62 mul V closepath stroke
  Pnt} def
/Star {2 copy Pls Crs} def
/BoxF {stroke [] 0 setdash exch hpt sub exch vpt add M
  0 vpt2 neg V hpt2 0 V 0 vpt2 V
  hpt2 neg 0 V closepath fill} def
/TriUF {stroke [] 0 setdash vpt 1.12 mul add M
  hpt neg vpt -1.62 mul V
  hpt 2 mul 0 V
  hpt neg vpt 1.62 mul V closepath fill} def
/TriD {stroke [] 0 setdash 2 copy vpt 1.12 mul sub M
  hpt neg vpt 1.62 mul V
  hpt 2 mul 0 V
  hpt neg vpt -1.62 mul V closepath stroke
  Pnt} def
/TriDF {stroke [] 0 setdash vpt 1.12 mul sub M
  hpt neg vpt 1.62 mul V
  hpt 2 mul 0 V
  hpt neg vpt -1.62 mul V closepath fill} def
/DiaF {stroke [] 0 setdash vpt add M
  hpt neg vpt neg V hpt vpt neg V
  hpt vpt V hpt neg vpt V closepath fill} def
/Pent {stroke [] 0 setdash 2 copy gsave
  translate 0 hpt M 4 {72 rotate 0 hpt L} repeat
  closepath stroke grestore Pnt} def
/PentF {stroke [] 0 setdash gsave
  translate 0 hpt M 4 {72 rotate 0 hpt L} repeat
  closepath fill grestore} def
/Circle {stroke [] 0 setdash 2 copy
  hpt 0 360 arc stroke Pnt} def
/CircleF {stroke [] 0 setdash hpt 0 360 arc fill} def
/C0 {BL [] 0 setdash 2 copy moveto vpt 90 450 arc} bind def
/C1 {BL [] 0 setdash 2 copy moveto
	2 copy vpt 0 90 arc closepath fill
	vpt 0 360 arc closepath} bind def
/C2 {BL [] 0 setdash 2 copy moveto
	2 copy vpt 90 180 arc closepath fill
	vpt 0 360 arc closepath} bind def
/C3 {BL [] 0 setdash 2 copy moveto
	2 copy vpt 0 180 arc closepath fill
	vpt 0 360 arc closepath} bind def
/C4 {BL [] 0 setdash 2 copy moveto
	2 copy vpt 180 270 arc closepath fill
	vpt 0 360 arc closepath} bind def
/C5 {BL [] 0 setdash 2 copy moveto
	2 copy vpt 0 90 arc
	2 copy moveto
	2 copy vpt 180 270 arc closepath fill
	vpt 0 360 arc} bind def
/C6 {BL [] 0 setdash 2 copy moveto
	2 copy vpt 90 270 arc closepath fill
	vpt 0 360 arc closepath} bind def
/C7 {BL [] 0 setdash 2 copy moveto
	2 copy vpt 0 270 arc closepath fill
	vpt 0 360 arc closepath} bind def
/C8 {BL [] 0 setdash 2 copy moveto
	2 copy vpt 270 360 arc closepath fill
	vpt 0 360 arc closepath} bind def
/C9 {BL [] 0 setdash 2 copy moveto
	2 copy vpt 270 450 arc closepath fill
	vpt 0 360 arc closepath} bind def
/C10 {BL [] 0 setdash 2 copy 2 copy moveto vpt 270 360 arc closepath fill
	2 copy moveto
	2 copy vpt 90 180 arc closepath fill
	vpt 0 360 arc closepath} bind def
/C11 {BL [] 0 setdash 2 copy moveto
	2 copy vpt 0 180 arc closepath fill
	2 copy moveto
	2 copy vpt 270 360 arc closepath fill
	vpt 0 360 arc closepath} bind def
/C12 {BL [] 0 setdash 2 copy moveto
	2 copy vpt 180 360 arc closepath fill
	vpt 0 360 arc closepath} bind def
/C13 {BL [] 0 setdash 2 copy moveto
	2 copy vpt 0 90 arc closepath fill
	2 copy moveto
	2 copy vpt 180 360 arc closepath fill
	vpt 0 360 arc closepath} bind def
/C14 {BL [] 0 setdash 2 copy moveto
	2 copy vpt 90 360 arc closepath fill
	vpt 0 360 arc} bind def
/C15 {BL [] 0 setdash 2 copy vpt 0 360 arc closepath fill
	vpt 0 360 arc closepath} bind def
/Rec {newpath 4 2 roll moveto 1 index 0 rlineto 0 exch rlineto
	neg 0 rlineto closepath} bind def
/Square {dup Rec} bind def
/Bsquare {vpt sub exch vpt sub exch vpt2 Square} bind def
/S0 {BL [] 0 setdash 2 copy moveto 0 vpt rlineto BL Bsquare} bind def
/S1 {BL [] 0 setdash 2 copy vpt Square fill Bsquare} bind def
/S2 {BL [] 0 setdash 2 copy exch vpt sub exch vpt Square fill Bsquare} bind def
/S3 {BL [] 0 setdash 2 copy exch vpt sub exch vpt2 vpt Rec fill Bsquare} bind def
/S4 {BL [] 0 setdash 2 copy exch vpt sub exch vpt sub vpt Square fill Bsquare} bind def
/S5 {BL [] 0 setdash 2 copy 2 copy vpt Square fill
	exch vpt sub exch vpt sub vpt Square fill Bsquare} bind def
/S6 {BL [] 0 setdash 2 copy exch vpt sub exch vpt sub vpt vpt2 Rec fill Bsquare} bind def
/S7 {BL [] 0 setdash 2 copy exch vpt sub exch vpt sub vpt vpt2 Rec fill
	2 copy vpt Square fill Bsquare} bind def
/S8 {BL [] 0 setdash 2 copy vpt sub vpt Square fill Bsquare} bind def
/S9 {BL [] 0 setdash 2 copy vpt sub vpt vpt2 Rec fill Bsquare} bind def
/S10 {BL [] 0 setdash 2 copy vpt sub vpt Square fill 2 copy exch vpt sub exch vpt Square fill
	Bsquare} bind def
/S11 {BL [] 0 setdash 2 copy vpt sub vpt Square fill 2 copy exch vpt sub exch vpt2 vpt Rec fill
	Bsquare} bind def
/S12 {BL [] 0 setdash 2 copy exch vpt sub exch vpt sub vpt2 vpt Rec fill Bsquare} bind def
/S13 {BL [] 0 setdash 2 copy exch vpt sub exch vpt sub vpt2 vpt Rec fill
	2 copy vpt Square fill Bsquare} bind def
/S14 {BL [] 0 setdash 2 copy exch vpt sub exch vpt sub vpt2 vpt Rec fill
	2 copy exch vpt sub exch vpt Square fill Bsquare} bind def
/S15 {BL [] 0 setdash 2 copy Bsquare fill Bsquare} bind def
/D0 {gsave translate 45 rotate 0 0 S0 stroke grestore} bind def
/D1 {gsave translate 45 rotate 0 0 S1 stroke grestore} bind def
/D2 {gsave translate 45 rotate 0 0 S2 stroke grestore} bind def
/D3 {gsave translate 45 rotate 0 0 S3 stroke grestore} bind def
/D4 {gsave translate 45 rotate 0 0 S4 stroke grestore} bind def
/D5 {gsave translate 45 rotate 0 0 S5 stroke grestore} bind def
/D6 {gsave translate 45 rotate 0 0 S6 stroke grestore} bind def
/D7 {gsave translate 45 rotate 0 0 S7 stroke grestore} bind def
/D8 {gsave translate 45 rotate 0 0 S8 stroke grestore} bind def
/D9 {gsave translate 45 rotate 0 0 S9 stroke grestore} bind def
/D10 {gsave translate 45 rotate 0 0 S10 stroke grestore} bind def
/D11 {gsave translate 45 rotate 0 0 S11 stroke grestore} bind def
/D12 {gsave translate 45 rotate 0 0 S12 stroke grestore} bind def
/D13 {gsave translate 45 rotate 0 0 S13 stroke grestore} bind def
/D14 {gsave translate 45 rotate 0 0 S14 stroke grestore} bind def
/D15 {gsave translate 45 rotate 0 0 S15 stroke grestore} bind def
/DiaE {stroke [] 0 setdash vpt add M
  hpt neg vpt neg V hpt vpt neg V
  hpt vpt V hpt neg vpt V closepath stroke} def
/BoxE {stroke [] 0 setdash exch hpt sub exch vpt add M
  0 vpt2 neg V hpt2 0 V 0 vpt2 V
  hpt2 neg 0 V closepath stroke} def
/TriUE {stroke [] 0 setdash vpt 1.12 mul add M
  hpt neg vpt -1.62 mul V
  hpt 2 mul 0 V
  hpt neg vpt 1.62 mul V closepath stroke} def
/TriDE {stroke [] 0 setdash vpt 1.12 mul sub M
  hpt neg vpt 1.62 mul V
  hpt 2 mul 0 V
  hpt neg vpt -1.62 mul V closepath stroke} def
/PentE {stroke [] 0 setdash gsave
  translate 0 hpt M 4 {72 rotate 0 hpt L} repeat
  closepath stroke grestore} def
/CircE {stroke [] 0 setdash 
  hpt 0 360 arc stroke} def
/Opaque {gsave closepath 1 setgray fill grestore 0 setgray closepath} def
/DiaW {stroke [] 0 setdash vpt add M
  hpt neg vpt neg V hpt vpt neg V
  hpt vpt V hpt neg vpt V Opaque stroke} def
/BoxW {stroke [] 0 setdash exch hpt sub exch vpt add M
  0 vpt2 neg V hpt2 0 V 0 vpt2 V
  hpt2 neg 0 V Opaque stroke} def
/TriUW {stroke [] 0 setdash vpt 1.12 mul add M
  hpt neg vpt -1.62 mul V
  hpt 2 mul 0 V
  hpt neg vpt 1.62 mul V Opaque stroke} def
/TriDW {stroke [] 0 setdash vpt 1.12 mul sub M
  hpt neg vpt 1.62 mul V
  hpt 2 mul 0 V
  hpt neg vpt -1.62 mul V Opaque stroke} def
/PentW {stroke [] 0 setdash gsave
  translate 0 hpt M 4 {72 rotate 0 hpt L} repeat
  Opaque stroke grestore} def
/CircW {stroke [] 0 setdash 
  hpt 0 360 arc Opaque stroke} def
/BoxFill {gsave Rec 1 setgray fill grestore} def
/Density {
  /Fillden exch def
  currentrgbcolor
  /ColB exch def /ColG exch def /ColR exch def
  /ColR ColR Fillden mul Fillden sub 1 add def
  /ColG ColG Fillden mul Fillden sub 1 add def
  /ColB ColB Fillden mul Fillden sub 1 add def
  ColR ColG ColB setrgbcolor} def
/BoxColFill {gsave Rec PolyFill} def
/PolyFill {gsave Density fill grestore grestore} def
/h {rlineto rlineto rlineto gsave closepath fill grestore} bind def
%
% PostScript Level 1 Pattern Fill routine for rectangles
% Usage: x y w h s a XX PatternFill
%	x,y = lower left corner of box to be filled
%	w,h = width and height of box
%	  a = angle in degrees between lines and x-axis
%	 XX = 0/1 for no/yes cross-hatch
%
/PatternFill {gsave /PFa [ 9 2 roll ] def
  PFa 0 get PFa 2 get 2 div add PFa 1 get PFa 3 get 2 div add translate
  PFa 2 get -2 div PFa 3 get -2 div PFa 2 get PFa 3 get Rec
  TransparentPatterns {} {gsave 1 setgray fill grestore} ifelse
  clip
  currentlinewidth 0.5 mul setlinewidth
  /PFs PFa 2 get dup mul PFa 3 get dup mul add sqrt def
  0 0 M PFa 5 get rotate PFs -2 div dup translate
  0 1 PFs PFa 4 get div 1 add floor cvi
	{PFa 4 get mul 0 M 0 PFs V} for
  0 PFa 6 get ne {
	0 1 PFs PFa 4 get div 1 add floor cvi
	{PFa 4 get mul 0 2 1 roll M PFs 0 V} for
 } if
  stroke grestore} def
%
/languagelevel where
 {pop languagelevel} {1} ifelse
dup 2 lt
	{/InterpretLevel1 true def
	 /InterpretLevel3 false def}
	{/InterpretLevel1 Level1 def
	 2 gt
	    {/InterpretLevel3 Level3 def}
	    {/InterpretLevel3 false def}
	 ifelse }
 ifelse
%
% PostScript level 2 pattern fill definitions
%
/Level2PatternFill {
/Tile8x8 {/PaintType 2 /PatternType 1 /TilingType 1 /BBox [0 0 8 8] /XStep 8 /YStep 8}
	bind def
/KeepColor {currentrgbcolor [/Pattern /DeviceRGB] setcolorspace} bind def
<< Tile8x8
 /PaintProc {0.5 setlinewidth pop 0 0 M 8 8 L 0 8 M 8 0 L stroke} 
>> matrix makepattern
/Pat1 exch def
<< Tile8x8
 /PaintProc {0.5 setlinewidth pop 0 0 M 8 8 L 0 8 M 8 0 L stroke
	0 4 M 4 8 L 8 4 L 4 0 L 0 4 L stroke}
>> matrix makepattern
/Pat2 exch def
<< Tile8x8
 /PaintProc {0.5 setlinewidth pop 0 0 M 0 8 L
	8 8 L 8 0 L 0 0 L fill}
>> matrix makepattern
/Pat3 exch def
<< Tile8x8
 /PaintProc {0.5 setlinewidth pop -4 8 M 8 -4 L
	0 12 M 12 0 L stroke}
>> matrix makepattern
/Pat4 exch def
<< Tile8x8
 /PaintProc {0.5 setlinewidth pop -4 0 M 8 12 L
	0 -4 M 12 8 L stroke}
>> matrix makepattern
/Pat5 exch def
<< Tile8x8
 /PaintProc {0.5 setlinewidth pop -2 8 M 4 -4 L
	0 12 M 8 -4 L 4 12 M 10 0 L stroke}
>> matrix makepattern
/Pat6 exch def
<< Tile8x8
 /PaintProc {0.5 setlinewidth pop -2 0 M 4 12 L
	0 -4 M 8 12 L 4 -4 M 10 8 L stroke}
>> matrix makepattern
/Pat7 exch def
<< Tile8x8
 /PaintProc {0.5 setlinewidth pop 8 -2 M -4 4 L
	12 0 M -4 8 L 12 4 M 0 10 L stroke}
>> matrix makepattern
/Pat8 exch def
<< Tile8x8
 /PaintProc {0.5 setlinewidth pop 0 -2 M 12 4 L
	-4 0 M 12 8 L -4 4 M 8 10 L stroke}
>> matrix makepattern
/Pat9 exch def
/Pattern1 {PatternBgnd KeepColor Pat1 setpattern} bind def
/Pattern2 {PatternBgnd KeepColor Pat2 setpattern} bind def
/Pattern3 {PatternBgnd KeepColor Pat3 setpattern} bind def
/Pattern4 {PatternBgnd KeepColor Landscape {Pat5} {Pat4} ifelse setpattern} bind def
/Pattern5 {PatternBgnd KeepColor Landscape {Pat4} {Pat5} ifelse setpattern} bind def
/Pattern6 {PatternBgnd KeepColor Landscape {Pat9} {Pat6} ifelse setpattern} bind def
/Pattern7 {PatternBgnd KeepColor Landscape {Pat8} {Pat7} ifelse setpattern} bind def
} def
%
%
%End of PostScript Level 2 code
%
/PatternBgnd {
  TransparentPatterns {} {gsave 1 setgray fill grestore} ifelse
} def
%
% Substitute for Level 2 pattern fill codes with
% grayscale if Level 2 support is not selected.
%
/Level1PatternFill {
/Pattern1 {0.250 Density} bind def
/Pattern2 {0.500 Density} bind def
/Pattern3 {0.750 Density} bind def
/Pattern4 {0.125 Density} bind def
/Pattern5 {0.375 Density} bind def
/Pattern6 {0.625 Density} bind def
/Pattern7 {0.875 Density} bind def
} def
%
% Now test for support of Level 2 code
%
Level1 {Level1PatternFill} {Level2PatternFill} ifelse
%
/Symbol-Oblique /Symbol findfont [1 0 .167 1 0 0] makefont
dup length dict begin {1 index /FID eq {pop pop} {def} ifelse} forall
currentdict end definefont pop
%
/MFshow {
   { dup 5 get 3 ge
     { 5 get 3 eq {gsave} {grestore} ifelse }
     {dup dup 0 get findfont exch 1 get scalefont setfont
     [ currentpoint ] exch dup 2 get 0 exch R dup 5 get 2 ne {dup dup 6
     get exch 4 get {textshow} {stringwidth pop 0 R} ifelse }if dup 5 get 0 eq
     {dup 3 get {2 get neg 0 exch R pop} {pop aload pop M} ifelse} {dup 5
     get 1 eq {dup 2 get exch dup 3 get exch 6 get stringwidth pop -2 div
     dup 0 R} {dup 6 get stringwidth pop -2 div 0 R 6 get
     textshow 2 index {aload pop M neg 3 -1 roll neg R pop pop} {pop pop pop
     pop aload pop M} ifelse }ifelse }ifelse }
     ifelse }
   forall} def
/Gswidth {dup type /stringtype eq {stringwidth} {pop (n) stringwidth} ifelse} def
/MFwidth {0 exch { dup 5 get 3 ge { 5 get 3 eq { 0 } { pop } ifelse }
 {dup 3 get{dup dup 0 get findfont exch 1 get scalefont setfont
     6 get Gswidth pop add} {pop} ifelse} ifelse} forall} def
/MLshow { currentpoint stroke M
  0 exch R
  Blacktext {gsave 0 setgray MFshow grestore} {MFshow} ifelse } bind def
/MRshow { currentpoint stroke M
  exch dup MFwidth neg 3 -1 roll R
  Blacktext {gsave 0 setgray MFshow grestore} {MFshow} ifelse } bind def
/MCshow { currentpoint stroke M
  exch dup MFwidth -2 div 3 -1 roll R
  Blacktext {gsave 0 setgray MFshow grestore} {MFshow} ifelse } bind def
/XYsave    { [( ) 1 2 true false 3 ()] } bind def
/XYrestore { [( ) 1 2 true false 4 ()] } bind def
Level1 SuppressPDFMark or 
{} {
/SDict 10 dict def
systemdict /pdfmark known not {
  userdict /pdfmark systemdict /cleartomark get put
} if
SDict begin [
  /Title (packets-uv-s-add-packets-uv-ccdf-loglog.eps)
  /Subject (gnuplot plot)
  /Creator (gnuplot 5.0 patchlevel 3)
  /Author (tiphaine)
%  /Producer (gnuplot)
%  /Keywords ()
  /CreationDate (Mon May 29 11:08:45 2017)
  /DOCINFO pdfmark
end
} ifelse
%
% Support for boxed text - Ethan A Merritt May 2005
%
/InitTextBox { userdict /TBy2 3 -1 roll put userdict /TBx2 3 -1 roll put
           userdict /TBy1 3 -1 roll put userdict /TBx1 3 -1 roll put
	   /Boxing true def } def
/ExtendTextBox { Boxing
    { gsave dup false charpath pathbbox
      dup TBy2 gt {userdict /TBy2 3 -1 roll put} {pop} ifelse
      dup TBx2 gt {userdict /TBx2 3 -1 roll put} {pop} ifelse
      dup TBy1 lt {userdict /TBy1 3 -1 roll put} {pop} ifelse
      dup TBx1 lt {userdict /TBx1 3 -1 roll put} {pop} ifelse
      grestore } if } def
/PopTextBox { newpath TBx1 TBxmargin sub TBy1 TBymargin sub M
               TBx1 TBxmargin sub TBy2 TBymargin add L
	       TBx2 TBxmargin add TBy2 TBymargin add L
	       TBx2 TBxmargin add TBy1 TBymargin sub L closepath } def
/DrawTextBox { PopTextBox stroke /Boxing false def} def
/FillTextBox { gsave PopTextBox 1 1 1 setrgbcolor fill grestore /Boxing false def} def
0 0 0 0 InitTextBox
/TBxmargin 20 def
/TBymargin 20 def
/Boxing false def
/textshow { ExtendTextBox Gshow } def
%
% redundant definitions for compatibility with prologue.ps older than 5.0.2
/LTB {BL [] LCb DL} def
/LTb {PL [] LCb DL} def
end
%%EndProlog
%%Page: 1 1
gnudict begin
gsave
doclip
50 50 translate
0.100 0.100 scale
90 rotate
0 -5040 translate
0 setgray
newpath
(Helvetica) findfont 140 scalefont setfont
BackgroundColor 0 lt 3 1 roll 0 lt exch 0 lt or or not {gsave BackgroundColor C clippath fill grestore} if
1.000 UL
LTb
LCb setrgbcolor
966 280 M
63 0 V
5918 0 R
-63 0 V
stroke
882 280 M
[ [(Helvetica) 140.0 0.0 true true 0 (0.0000001)]
] -46.7 MRshow
1.000 UL
LTb
LCb setrgbcolor
966 477 M
31 0 V
5950 0 R
-31 0 V
966 738 M
31 0 V
5950 0 R
-31 0 V
966 872 M
31 0 V
5950 0 R
-31 0 V
966 936 M
63 0 V
5918 0 R
-63 0 V
stroke
882 936 M
[ [(Helvetica) 140.0 0.0 true true 0 (0.0000010)]
] -46.7 MRshow
1.000 UL
LTb
LCb setrgbcolor
966 1133 M
31 0 V
5950 0 R
-31 0 V
966 1394 M
31 0 V
5950 0 R
-31 0 V
966 1528 M
31 0 V
5950 0 R
-31 0 V
966 1592 M
63 0 V
5918 0 R
-63 0 V
stroke
882 1592 M
[ [(Helvetica) 140.0 0.0 true true 0 (0.0000100)]
] -46.7 MRshow
1.000 UL
LTb
LCb setrgbcolor
966 1789 M
31 0 V
5950 0 R
-31 0 V
966 2050 M
31 0 V
5950 0 R
-31 0 V
966 2184 M
31 0 V
5950 0 R
-31 0 V
966 2248 M
63 0 V
5918 0 R
-63 0 V
stroke
882 2248 M
[ [(Helvetica) 140.0 0.0 true true 0 (0.0001000)]
] -46.7 MRshow
1.000 UL
LTb
LCb setrgbcolor
966 2445 M
31 0 V
5950 0 R
-31 0 V
966 2706 M
31 0 V
5950 0 R
-31 0 V
966 2840 M
31 0 V
5950 0 R
-31 0 V
966 2903 M
63 0 V
5918 0 R
-63 0 V
stroke
882 2903 M
[ [(Helvetica) 140.0 0.0 true true 0 (0.0010000)]
] -46.7 MRshow
1.000 UL
LTb
LCb setrgbcolor
966 3101 M
31 0 V
5950 0 R
-31 0 V
966 3362 M
31 0 V
5950 0 R
-31 0 V
966 3496 M
31 0 V
5950 0 R
-31 0 V
966 3559 M
63 0 V
5918 0 R
-63 0 V
stroke
882 3559 M
[ [(Helvetica) 140.0 0.0 true true 0 (0.0100000)]
] -46.7 MRshow
1.000 UL
LTb
LCb setrgbcolor
966 3757 M
31 0 V
5950 0 R
-31 0 V
966 4018 M
31 0 V
5950 0 R
-31 0 V
966 4152 M
31 0 V
5950 0 R
-31 0 V
966 4215 M
63 0 V
5918 0 R
-63 0 V
stroke
882 4215 M
[ [(Helvetica) 140.0 0.0 true true 0 (0.1000000)]
] -46.7 MRshow
1.000 UL
LTb
LCb setrgbcolor
966 4413 M
31 0 V
5950 0 R
-31 0 V
966 4674 M
31 0 V
5950 0 R
-31 0 V
966 4807 M
31 0 V
5950 0 R
-31 0 V
966 4871 M
63 0 V
5918 0 R
-63 0 V
stroke
882 4871 M
[ [(Helvetica) 140.0 0.0 true true 0 (1.0000000)]
] -46.7 MRshow
1.000 UL
LTb
LCb setrgbcolor
966 280 M
0 63 V
0 4528 R
0 -63 V
stroke
966 140 M
[ [(Helvetica) 140.0 0.0 true true 0 ( 1)]
] -46.7 MCshow
1.000 UL
LTb
LCb setrgbcolor
1223 280 M
0 31 V
0 4560 R
0 -31 V
1563 280 M
0 31 V
0 4560 R
0 -31 V
1738 280 M
0 31 V
0 4560 R
0 -31 V
1820 280 M
0 63 V
0 4528 R
0 -63 V
stroke
1820 140 M
[ [(Helvetica) 140.0 0.0 true true 0 ( 10)]
] -46.7 MCshow
1.000 UL
LTb
LCb setrgbcolor
2078 280 M
0 31 V
0 4560 R
0 -31 V
2418 280 M
0 31 V
0 4560 R
0 -31 V
2592 280 M
0 31 V
0 4560 R
0 -31 V
2675 280 M
0 63 V
0 4528 R
0 -63 V
stroke
2675 140 M
[ [(Helvetica) 140.0 0.0 true true 0 ( 100)]
] -46.7 MCshow
1.000 UL
LTb
LCb setrgbcolor
2932 280 M
0 31 V
0 4560 R
0 -31 V
3272 280 M
0 31 V
0 4560 R
0 -31 V
3446 280 M
0 31 V
0 4560 R
0 -31 V
3529 280 M
0 63 V
0 4528 R
0 -63 V
stroke
3529 140 M
[ [(Helvetica) 140.0 0.0 true true 0 ( 1000)]
] -46.7 MCshow
1.000 UL
LTb
LCb setrgbcolor
3786 280 M
0 31 V
0 4560 R
0 -31 V
4127 280 M
0 31 V
0 4560 R
0 -31 V
4301 280 M
0 31 V
0 4560 R
0 -31 V
4384 280 M
0 63 V
0 4528 R
0 -63 V
stroke
4384 140 M
[ [(Helvetica) 140.0 0.0 true true 0 ( 10000)]
] -46.7 MCshow
1.000 UL
LTb
LCb setrgbcolor
4641 280 M
0 31 V
0 4560 R
0 -31 V
4981 280 M
0 31 V
0 4560 R
0 -31 V
5155 280 M
0 31 V
0 4560 R
0 -31 V
5238 280 M
0 63 V
0 4528 R
0 -63 V
stroke
5238 140 M
[ [(Helvetica) 140.0 0.0 true true 0 ( 100000)]
] -46.7 MCshow
1.000 UL
LTb
LCb setrgbcolor
5495 280 M
0 31 V
0 4560 R
0 -31 V
5835 280 M
0 31 V
0 4560 R
0 -31 V
6010 280 M
0 31 V
0 4560 R
0 -31 V
6093 280 M
0 63 V
0 4528 R
0 -63 V
stroke
6093 140 M
[ [(Helvetica) 140.0 0.0 true true 0 ( 1x10)]
[(Helvetica) 112.0 70.0 true true 0 (6)]
] -60.7 MCshow
1.000 UL
LTb
LCb setrgbcolor
6350 280 M
0 31 V
0 4560 R
0 -31 V
6690 280 M
0 31 V
0 4560 R
0 -31 V
6864 280 M
0 31 V
0 4560 R
0 -31 V
6947 280 M
0 63 V
0 4528 R
0 -63 V
stroke
6947 140 M
[ [(Helvetica) 140.0 0.0 true true 0 ( 1x10)]
[(Helvetica) 112.0 70.0 true true 0 (7)]
] -60.7 MCshow
1.000 UL
LTb
LCb setrgbcolor
1.000 UL
LTB
LCb setrgbcolor
966 4871 N
966 280 L
5981 0 V
0 4591 V
-5981 0 V
Z stroke
1.000 UP
1.000 UL
LTb
LCb setrgbcolor
% Begin plot #1
1.000 UP
1.000 UL
LTb
0.58 0.00 0.83 C 1223 4871 Pls
1480 4645 Pls
1631 4418 Pls
1738 4361 Pls
1820 4311 Pls
1888 4277 Pls
1945 4243 Pls
1995 4223 Pls
2039 4195 Pls
2078 4178 Pls
2113 4145 Pls
2145 4129 Pls
2175 4106 Pls
2202 4091 Pls
2228 4073 Pls
2252 4057 Pls
2275 4038 Pls
2296 4025 Pls
2316 4008 Pls
2335 3995 Pls
2353 3977 Pls
2370 3966 Pls
2387 3953 Pls
2403 3944 Pls
2418 3932 Pls
2432 3924 Pls
2446 3915 Pls
2460 3907 Pls
2473 3898 Pls
2485 3893 Pls
2497 3882 Pls
2509 3877 Pls
2521 3870 Pls
2532 3864 Pls
2543 3857 Pls
2553 3852 Pls
2563 3845 Pls
2573 3840 Pls
2583 3835 Pls
2592 3830 Pls
2601 3825 Pls
2610 3820 Pls
2619 3816 Pls
2627 3812 Pls
2636 3807 Pls
2644 3803 Pls
2652 3798 Pls
2660 3792 Pls
2667 3786 Pls
2675 3780 Pls
2682 3775 Pls
2689 3770 Pls
2696 3766 Pls
2703 3763 Pls
2710 3759 Pls
2717 3755 Pls
2723 3751 Pls
2730 3748 Pls
2736 3744 Pls
2743 3741 Pls
2749 3734 Pls
2755 3731 Pls
2761 3728 Pls
2766 3725 Pls
2772 3722 Pls
2778 3719 Pls
2783 3716 Pls
2789 3714 Pls
2794 3711 Pls
2800 3708 Pls
2805 3705 Pls
2810 3703 Pls
2815 3700 Pls
2820 3697 Pls
2825 3695 Pls
2830 3693 Pls
2835 3690 Pls
2840 3688 Pls
2845 3685 Pls
2849 3682 Pls
2854 3679 Pls
2858 3677 Pls
2863 3675 Pls
2867 3673 Pls
2872 3671 Pls
2876 3668 Pls
2880 3666 Pls
2885 3665 Pls
2889 3663 Pls
2893 3661 Pls
2897 3658 Pls
2901 3656 Pls
2905 3654 Pls
2909 3652 Pls
2913 3650 Pls
2917 3648 Pls
2921 3645 Pls
2925 3643 Pls
2928 3642 Pls
2932 3639 Pls
2936 3632 Pls
2939 3630 Pls
2943 3628 Pls
2947 3627 Pls
2950 3625 Pls
2954 3623 Pls
2957 3621 Pls
2961 3619 Pls
2964 3617 Pls
2967 3616 Pls
2971 3614 Pls
2974 3612 Pls
2977 3610 Pls
2981 3608 Pls
2984 3606 Pls
2987 3605 Pls
2990 3603 Pls
2993 3601 Pls
2997 3600 Pls
3000 3598 Pls
3003 3595 Pls
3006 3593 Pls
3009 3592 Pls
3012 3590 Pls
3015 3589 Pls
3018 3587 Pls
3021 3586 Pls
3024 3584 Pls
3027 3582 Pls
3029 3581 Pls
3032 3577 Pls
3035 3576 Pls
3038 3573 Pls
3041 3572 Pls
3043 3571 Pls
3046 3569 Pls
3049 3567 Pls
3052 3566 Pls
3054 3564 Pls
3057 3562 Pls
3060 3561 Pls
3062 3559 Pls
3065 3558 Pls
3067 3556 Pls
3070 3555 Pls
3072 3554 Pls
3075 3553 Pls
3078 3551 Pls
3080 3550 Pls
3083 3549 Pls
3085 3548 Pls
3087 3546 Pls
3090 3545 Pls
3092 3544 Pls
3095 3543 Pls
3097 3542 Pls
3099 3541 Pls
3102 3539 Pls
3104 3538 Pls
3106 3537 Pls
3109 3536 Pls
3111 3534 Pls
3113 3533 Pls
3116 3532 Pls
3118 3531 Pls
3120 3530 Pls
3122 3529 Pls
3125 3528 Pls
3127 3527 Pls
3129 3526 Pls
3131 3524 Pls
3133 3523 Pls
3135 3522 Pls
3138 3521 Pls
3140 3520 Pls
3142 3519 Pls
3144 3518 Pls
3146 3516 Pls
3148 3515 Pls
3150 3514 Pls
3152 3512 Pls
3154 3510 Pls
3156 3509 Pls
3158 3508 Pls
3160 3507 Pls
3162 3506 Pls
3164 3505 Pls
3166 3504 Pls
3168 3503 Pls
3170 3502 Pls
3172 3501 Pls
3174 3500 Pls
3176 3499 Pls
3178 3498 Pls
3180 3497 Pls
3182 3496 Pls
3184 3495 Pls
3186 3494 Pls
3187 3493 Pls
3189 3493 Pls
3191 3492 Pls
3193 3491 Pls
3195 3490 Pls
3197 3488 Pls
3198 3487 Pls
3200 3487 Pls
3202 3486 Pls
3204 3485 Pls
3206 3484 Pls
3207 3483 Pls
3209 3481 Pls
3211 3480 Pls
3213 3479 Pls
3214 3478 Pls
3216 3477 Pls
3218 3476 Pls
3220 3475 Pls
3221 3474 Pls
3223 3473 Pls
3225 3473 Pls
3226 3472 Pls
3228 3471 Pls
3230 3470 Pls
3231 3469 Pls
3233 3468 Pls
3235 3467 Pls
3236 3467 Pls
3238 3466 Pls
3240 3465 Pls
3241 3465 Pls
3243 3464 Pls
3244 3463 Pls
3246 3462 Pls
3248 3461 Pls
3249 3460 Pls
3251 3460 Pls
3252 3459 Pls
3254 3458 Pls
3255 3457 Pls
3257 3456 Pls
3258 3454 Pls
3260 3454 Pls
3262 3453 Pls
3263 3452 Pls
3265 3451 Pls
3266 3451 Pls
3268 3450 Pls
3269 3449 Pls
3271 3448 Pls
3272 3448 Pls
3274 3447 Pls
3275 3446 Pls
3277 3445 Pls
3278 3444 Pls
3279 3444 Pls
3281 3443 Pls
3282 3442 Pls
3284 3442 Pls
3285 3441 Pls
3287 3440 Pls
3288 3440 Pls
3289 3439 Pls
3291 3438 Pls
3292 3437 Pls
3294 3437 Pls
3295 3436 Pls
3296 3436 Pls
3298 3435 Pls
3299 3434 Pls
3301 3433 Pls
3302 3433 Pls
3303 3432 Pls
3305 3431 Pls
3306 3431 Pls
3307 3430 Pls
3309 3429 Pls
3310 3429 Pls
3311 3428 Pls
3313 3427 Pls
3314 3426 Pls
3315 3426 Pls
3317 3425 Pls
3318 3424 Pls
3319 3424 Pls
3321 3423 Pls
3322 3422 Pls
3323 3422 Pls
3325 3421 Pls
3326 3420 Pls
3327 3420 Pls
3328 3419 Pls
3330 3419 Pls
3331 3418 Pls
3332 3417 Pls
3333 3417 Pls
3335 3416 Pls
3336 3415 Pls
3337 3415 Pls
3338 3414 Pls
3340 3413 Pls
3341 3413 Pls
3342 3412 Pls
3343 3411 Pls
3345 3411 Pls
3346 3410 Pls
3347 3409 Pls
3348 3409 Pls
3349 3408 Pls
3351 3407 Pls
3352 3407 Pls
3353 3406 Pls
3354 3405 Pls
3355 3405 Pls
3357 3404 Pls
3358 3403 Pls
3359 3402 Pls
3360 3402 Pls
3361 3401 Pls
3363 3401 Pls
3364 3400 Pls
3365 3399 Pls
3366 3399 Pls
3367 3398 Pls
3368 3398 Pls
3369 3397 Pls
3371 3397 Pls
3372 3396 Pls
3373 3396 Pls
3374 3395 Pls
3375 3394 Pls
3376 3394 Pls
3377 3393 Pls
3378 3393 Pls
3380 3392 Pls
3381 3392 Pls
3382 3391 Pls
3383 3391 Pls
3384 3390 Pls
3385 3390 Pls
3386 3389 Pls
3387 3389 Pls
3388 3388 Pls
3389 3388 Pls
3391 3387 Pls
3392 3387 Pls
3393 3386 Pls
3394 3385 Pls
3395 3385 Pls
3396 3384 Pls
3397 3384 Pls
3398 3383 Pls
3399 3383 Pls
3400 3382 Pls
3401 3382 Pls
3402 3381 Pls
3403 3380 Pls
3404 3380 Pls
3405 3379 Pls
3406 3379 Pls
3407 3378 Pls
3408 3377 Pls
3409 3377 Pls
3410 3376 Pls
3411 3376 Pls
3413 3375 Pls
3414 3375 Pls
3415 3374 Pls
3416 3374 Pls
3417 3373 Pls
3418 3373 Pls
3419 3373 Pls
3420 3372 Pls
3421 3371 Pls
3422 3371 Pls
3423 3370 Pls
3424 3370 Pls
3425 3370 Pls
3425 3369 Pls
3426 3369 Pls
3427 3368 Pls
3428 3368 Pls
3429 3367 Pls
3430 3367 Pls
3431 3366 Pls
3432 3366 Pls
3433 3365 Pls
3434 3365 Pls
3435 3364 Pls
3436 3364 Pls
3437 3364 Pls
3438 3363 Pls
3439 3363 Pls
3440 3362 Pls
3441 3362 Pls
3442 3361 Pls
3443 3361 Pls
3444 3361 Pls
3445 3360 Pls
3446 3360 Pls
3446 3359 Pls
3447 3359 Pls
3448 3358 Pls
3449 3358 Pls
3450 3357 Pls
3451 3357 Pls
3452 3356 Pls
3453 3356 Pls
3454 3355 Pls
3455 3355 Pls
3456 3354 Pls
3457 3354 Pls
3457 3353 Pls
3458 3353 Pls
3459 3352 Pls
3460 3352 Pls
3461 3352 Pls
3462 3351 Pls
3463 3351 Pls
3464 3350 Pls
3465 3350 Pls
3465 3349 Pls
3466 3348 Pls
3467 3348 Pls
3468 3347 Pls
3469 3347 Pls
3470 3346 Pls
3471 3346 Pls
3472 3346 Pls
3472 3345 Pls
3473 3344 Pls
3474 3344 Pls
3475 3344 Pls
3476 3343 Pls
3477 3343 Pls
3478 3342 Pls
3478 3342 Pls
3479 3342 Pls
3480 3341 Pls
3481 3341 Pls
3482 3340 Pls
3483 3340 Pls
3484 3339 Pls
3484 3339 Pls
3485 3338 Pls
3486 3338 Pls
3487 3337 Pls
3488 3337 Pls
3489 3336 Pls
3489 3336 Pls
3490 3336 Pls
3491 3335 Pls
3492 3335 Pls
3493 3334 Pls
3493 3334 Pls
3494 3333 Pls
3495 3333 Pls
3496 3333 Pls
3497 3332 Pls
3498 3332 Pls
3498 3331 Pls
3499 3331 Pls
3500 3330 Pls
3501 3330 Pls
3502 3329 Pls
3502 3329 Pls
3503 3329 Pls
3504 3328 Pls
3505 3328 Pls
3506 3328 Pls
3506 3327 Pls
3507 3327 Pls
3508 3326 Pls
3509 3326 Pls
3509 3325 Pls
3510 3324 Pls
3511 3324 Pls
3512 3324 Pls
3513 3323 Pls
3513 3322 Pls
3514 3322 Pls
3515 3321 Pls
3516 3321 Pls
3516 3320 Pls
3517 3320 Pls
3518 3320 Pls
3519 3319 Pls
3520 3319 Pls
3520 3319 Pls
3521 3318 Pls
3522 3318 Pls
3523 3318 Pls
3523 3317 Pls
3524 3317 Pls
3525 3316 Pls
3526 3316 Pls
3526 3316 Pls
3527 3315 Pls
3528 3315 Pls
3529 3315 Pls
3529 3314 Pls
3530 3314 Pls
3531 3314 Pls
3532 3313 Pls
3532 3313 Pls
3533 3312 Pls
3534 3312 Pls
3534 3312 Pls
3535 3311 Pls
3536 3311 Pls
3537 3311 Pls
3537 3310 Pls
3538 3310 Pls
3539 3309 Pls
3540 3309 Pls
3540 3308 Pls
3541 3308 Pls
3542 3308 Pls
3542 3307 Pls
3543 3307 Pls
3544 3306 Pls
3545 3306 Pls
3545 3305 Pls
3546 3305 Pls
3547 3304 Pls
3547 3304 Pls
3548 3304 Pls
3549 3303 Pls
3550 3303 Pls
3550 3303 Pls
3551 3302 Pls
3552 3302 Pls
3552 3301 Pls
3553 3301 Pls
3554 3301 Pls
3554 3300 Pls
3555 3300 Pls
3556 3300 Pls
3556 3299 Pls
3557 3299 Pls
3558 3298 Pls
3559 3298 Pls
3559 3298 Pls
3560 3297 Pls
3561 3297 Pls
3561 3297 Pls
3562 3296 Pls
3563 3296 Pls
3563 3296 Pls
3564 3295 Pls
3565 3295 Pls
3565 3294 Pls
3566 3294 Pls
3567 3293 Pls
3567 3293 Pls
3568 3293 Pls
3569 3292 Pls
3569 3292 Pls
3570 3292 Pls
3571 3291 Pls
3571 3291 Pls
3572 3291 Pls
3573 3290 Pls
3573 3290 Pls
3574 3289 Pls
3575 3289 Pls
3575 3289 Pls
3576 3288 Pls
3577 3288 Pls
3577 3288 Pls
3578 3287 Pls
3579 3287 Pls
3579 3287 Pls
3580 3286 Pls
3581 3286 Pls
3581 3286 Pls
3582 3285 Pls
3582 3285 Pls
3583 3285 Pls
3584 3285 Pls
3584 3284 Pls
3585 3284 Pls
3586 3283 Pls
3586 3283 Pls
3587 3283 Pls
3588 3282 Pls
3588 3282 Pls
3589 3282 Pls
3589 3282 Pls
3590 3281 Pls
3591 3281 Pls
3591 3281 Pls
3592 3280 Pls
3593 3280 Pls
3593 3280 Pls
3594 3279 Pls
3594 3279 Pls
3595 3278 Pls
3596 3278 Pls
3596 3278 Pls
3597 3278 Pls
3598 3277 Pls
3598 3277 Pls
3599 3277 Pls
3599 3276 Pls
3600 3276 Pls
3601 3276 Pls
3601 3275 Pls
3602 3275 Pls
3602 3275 Pls
3603 3274 Pls
3604 3274 Pls
3604 3274 Pls
3605 3273 Pls
3605 3273 Pls
3606 3273 Pls
3607 3273 Pls
3607 3272 Pls
3608 3272 Pls
3609 3272 Pls
3609 3271 Pls
3610 3271 Pls
3610 3271 Pls
3611 3270 Pls
3611 3270 Pls
3612 3270 Pls
3613 3269 Pls
3613 3269 Pls
3614 3268 Pls
3614 3268 Pls
3615 3267 Pls
3616 3266 Pls
3616 3266 Pls
3617 3266 Pls
3617 3265 Pls
3618 3265 Pls
3619 3264 Pls
3619 3264 Pls
3620 3263 Pls
3620 3263 Pls
3621 3262 Pls
3621 3261 Pls
3622 3261 Pls
3623 3260 Pls
3623 3260 Pls
3624 3259 Pls
3624 3258 Pls
3625 3258 Pls
3625 3257 Pls
3626 3256 Pls
3627 3256 Pls
3627 3255 Pls
3628 3255 Pls
3628 3254 Pls
3629 3254 Pls
3629 3253 Pls
3630 3252 Pls
3631 3252 Pls
3631 3251 Pls
3632 3250 Pls
3632 3250 Pls
3633 3249 Pls
3633 3248 Pls
3634 3248 Pls
3635 3247 Pls
3635 3247 Pls
3636 3246 Pls
3636 3245 Pls
3637 3245 Pls
3637 3244 Pls
3638 3244 Pls
3638 3243 Pls
3639 3243 Pls
3640 3242 Pls
3640 3242 Pls
3641 3241 Pls
3641 3241 Pls
3642 3240 Pls
3642 3239 Pls
3643 3239 Pls
3643 3238 Pls
3644 3238 Pls
3644 3237 Pls
3645 3237 Pls
3646 3236 Pls
3646 3236 Pls
3647 3235 Pls
3647 3235 Pls
3648 3234 Pls
3648 3234 Pls
3649 3233 Pls
3649 3233 Pls
3650 3233 Pls
3650 3232 Pls
3651 3232 Pls
3651 3231 Pls
3652 3230 Pls
3653 3230 Pls
3653 3229 Pls
3654 3229 Pls
3654 3229 Pls
3655 3228 Pls
3655 3227 Pls
3656 3227 Pls
3656 3226 Pls
3657 3226 Pls
3657 3225 Pls
3658 3225 Pls
3658 3225 Pls
3659 3224 Pls
3659 3224 Pls
3660 3223 Pls
3660 3223 Pls
3661 3223 Pls
3661 3222 Pls
3662 3222 Pls
3663 3221 Pls
3663 3220 Pls
3664 3220 Pls
3664 3220 Pls
3665 3219 Pls
3665 3219 Pls
3666 3218 Pls
3666 3218 Pls
3667 3217 Pls
3667 3217 Pls
3668 3216 Pls
3668 3216 Pls
3669 3215 Pls
3669 3215 Pls
3670 3214 Pls
3670 3214 Pls
3671 3214 Pls
3671 3214 Pls
3672 3213 Pls
3672 3213 Pls
3673 3212 Pls
3673 3212 Pls
3674 3211 Pls
3674 3211 Pls
3675 3211 Pls
3675 3210 Pls
3676 3210 Pls
3676 3210 Pls
3677 3209 Pls
3677 3209 Pls
3678 3209 Pls
3678 3208 Pls
3679 3208 Pls
3679 3208 Pls
3680 3207 Pls
3680 3207 Pls
3681 3207 Pls
3681 3206 Pls
3682 3206 Pls
3682 3206 Pls
3683 3205 Pls
3683 3205 Pls
3684 3205 Pls
3684 3204 Pls
3685 3204 Pls
3685 3203 Pls
3686 3203 Pls
3686 3203 Pls
3687 3202 Pls
3687 3202 Pls
3688 3202 Pls
3688 3201 Pls
3689 3201 Pls
3689 3201 Pls
3690 3201 Pls
3690 3200 Pls
3690 3200 Pls
3691 3200 Pls
3691 3199 Pls
3692 3199 Pls
3692 3198 Pls
3693 3198 Pls
3693 3198 Pls
3694 3197 Pls
3694 3197 Pls
3695 3197 Pls
3695 3196 Pls
3696 3196 Pls
3696 3195 Pls
3697 3195 Pls
3697 3195 Pls
3698 3195 Pls
3698 3194 Pls
3699 3194 Pls
3699 3194 Pls
3699 3193 Pls
3700 3192 Pls
3700 3192 Pls
3701 3191 Pls
3701 3191 Pls
3702 3191 Pls
3702 3190 Pls
3703 3190 Pls
3703 3189 Pls
3704 3189 Pls
3704 3189 Pls
3705 3188 Pls
3705 3188 Pls
3706 3188 Pls
3706 3187 Pls
3706 3187 Pls
3707 3187 Pls
3707 3187 Pls
3708 3186 Pls
3708 3186 Pls
3709 3186 Pls
3709 3185 Pls
3710 3185 Pls
3710 3184 Pls
3711 3184 Pls
3711 3184 Pls
3711 3183 Pls
3712 3183 Pls
3712 3183 Pls
3713 3182 Pls
3713 3182 Pls
3714 3182 Pls
3714 3182 Pls
3715 3181 Pls
3715 3181 Pls
3716 3181 Pls
3716 3181 Pls
3716 3180 Pls
3717 3180 Pls
3717 3180 Pls
3718 3180 Pls
3718 3180 Pls
3719 3179 Pls
3719 3179 Pls
3720 3179 Pls
3720 3179 Pls
3720 3178 Pls
3721 3178 Pls
3721 3178 Pls
3722 3178 Pls
3722 3177 Pls
3723 3177 Pls
3723 3177 Pls
3724 3177 Pls
3724 3176 Pls
3724 3176 Pls
3725 3176 Pls
3725 3175 Pls
3726 3175 Pls
3726 3175 Pls
3727 3175 Pls
3727 3175 Pls
3727 3175 Pls
3728 3174 Pls
3728 3174 Pls
3729 3174 Pls
3729 3173 Pls
3730 3173 Pls
3730 3173 Pls
3731 3173 Pls
3731 3172 Pls
3731 3172 Pls
3732 3172 Pls
3732 3172 Pls
3733 3172 Pls
3734 3171 Pls
3734 3171 Pls
3734 3171 Pls
3735 3171 Pls
3735 3171 Pls
3736 3170 Pls
3736 3170 Pls
3737 3170 Pls
3737 3170 Pls
3738 3170 Pls
3738 3170 Pls
3739 3169 Pls
3739 3169 Pls
3739 3168 Pls
3740 3168 Pls
3740 3168 Pls
3741 3168 Pls
3741 3168 Pls
3742 3168 Pls
3742 3167 Pls
3742 3167 Pls
3743 3167 Pls
3743 3167 Pls
3744 3166 Pls
3744 3166 Pls
3745 3166 Pls
3745 3165 Pls
3745 3165 Pls
3746 3165 Pls
3746 3165 Pls
3747 3164 Pls
3747 3164 Pls
3747 3164 Pls
3748 3164 Pls
3748 3164 Pls
3749 3163 Pls
3749 3163 Pls
3749 3163 Pls
3750 3162 Pls
3750 3162 Pls
3751 3162 Pls
3751 3162 Pls
3751 3161 Pls
3752 3161 Pls
3752 3161 Pls
3753 3161 Pls
3753 3161 Pls
3754 3161 Pls
3754 3161 Pls
3754 3160 Pls
3755 3160 Pls
3755 3160 Pls
3756 3160 Pls
3756 3160 Pls
3756 3159 Pls
3757 3159 Pls
3757 3159 Pls
3758 3159 Pls
3758 3159 Pls
3758 3158 Pls
3759 3158 Pls
3759 3158 Pls
3760 3158 Pls
3760 3158 Pls
3760 3157 Pls
3761 3157 Pls
3761 3157 Pls
3762 3157 Pls
3762 3157 Pls
3762 3157 Pls
3763 3156 Pls
3763 3156 Pls
3764 3156 Pls
3764 3155 Pls
3764 3155 Pls
3765 3155 Pls
3765 3155 Pls
3766 3155 Pls
3766 3154 Pls
3766 3154 Pls
3767 3154 Pls
3767 3154 Pls
3767 3153 Pls
3768 3153 Pls
3768 3153 Pls
3769 3153 Pls
3769 3153 Pls
3769 3152 Pls
3770 3152 Pls
3770 3152 Pls
3771 3152 Pls
3771 3151 Pls
3771 3151 Pls
3772 3151 Pls
3772 3151 Pls
3773 3150 Pls
3773 3150 Pls
3773 3150 Pls
3774 3149 Pls
3774 3149 Pls
3774 3149 Pls
3775 3149 Pls
3775 3148 Pls
3776 3148 Pls
3776 3148 Pls
3776 3148 Pls
3777 3148 Pls
3777 3148 Pls
3777 3147 Pls
3778 3147 Pls
3778 3147 Pls
3779 3147 Pls
3779 3147 Pls
3779 3146 Pls
3780 3146 Pls
3780 3146 Pls
3781 3146 Pls
3781 3145 Pls
3781 3145 Pls
3782 3145 Pls
3782 3145 Pls
3782 3144 Pls
3783 3144 Pls
3783 3144 Pls
3784 3144 Pls
3784 3143 Pls
3784 3143 Pls
3785 3143 Pls
3785 3143 Pls
3785 3142 Pls
3786 3142 Pls
3786 3142 Pls
3786 3142 Pls
3787 3141 Pls
3787 3141 Pls
3788 3141 Pls
3788 3141 Pls
3788 3141 Pls
3789 3140 Pls
3789 3140 Pls
3789 3139 Pls
3790 3139 Pls
3790 3139 Pls
3791 3139 Pls
3791 3139 Pls
3791 3139 Pls
3792 3138 Pls
3792 3138 Pls
3792 3138 Pls
3793 3138 Pls
3793 3138 Pls
3793 3137 Pls
3794 3137 Pls
3794 3137 Pls
3795 3137 Pls
3795 3137 Pls
3795 3137 Pls
3796 3136 Pls
3796 3136 Pls
3796 3135 Pls
3797 3135 Pls
3797 3135 Pls
3797 3135 Pls
3798 3134 Pls
3798 3134 Pls
3799 3134 Pls
3799 3134 Pls
3799 3133 Pls
3800 3133 Pls
3800 3133 Pls
3800 3133 Pls
3801 3133 Pls
3801 3133 Pls
3801 3132 Pls
3802 3132 Pls
3802 3132 Pls
3802 3132 Pls
3803 3132 Pls
3803 3132 Pls
3804 3132 Pls
3804 3131 Pls
3804 3131 Pls
3805 3131 Pls
3805 3131 Pls
3805 3131 Pls
3806 3130 Pls
3806 3130 Pls
3806 3130 Pls
3807 3129 Pls
3807 3129 Pls
3807 3129 Pls
3808 3129 Pls
3808 3129 Pls
3809 3129 Pls
3809 3128 Pls
3810 3128 Pls
3810 3128 Pls
3810 3128 Pls
3811 3128 Pls
3811 3128 Pls
3812 3128 Pls
3812 3127 Pls
3813 3127 Pls
3813 3127 Pls
3813 3127 Pls
3814 3127 Pls
3814 3127 Pls
3814 3126 Pls
3815 3126 Pls
3815 3126 Pls
3815 3126 Pls
3816 3126 Pls
3816 3125 Pls
3816 3125 Pls
3817 3125 Pls
3817 3125 Pls
3817 3125 Pls
3818 3125 Pls
3818 3124 Pls
3818 3124 Pls
3819 3124 Pls
3819 3124 Pls
3819 3124 Pls
3820 3123 Pls
3820 3123 Pls
3821 3123 Pls
3821 3122 Pls
3821 3122 Pls
3822 3122 Pls
3822 3122 Pls
3822 3122 Pls
3823 3122 Pls
3823 3122 Pls
3823 3121 Pls
3824 3121 Pls
3824 3121 Pls
3824 3121 Pls
3825 3121 Pls
3825 3120 Pls
3826 3120 Pls
3826 3120 Pls
3826 3120 Pls
3827 3119 Pls
3827 3119 Pls
3827 3119 Pls
3828 3119 Pls
3828 3119 Pls
3829 3119 Pls
3829 3118 Pls
3830 3118 Pls
3830 3118 Pls
3831 3118 Pls
3831 3118 Pls
3832 3118 Pls
3832 3118 Pls
3832 3117 Pls
3833 3117 Pls
3833 3117 Pls
3833 3117 Pls
3834 3117 Pls
3834 3116 Pls
3834 3116 Pls
3835 3116 Pls
3836 3116 Pls
3836 3116 Pls
3836 3115 Pls
3837 3115 Pls
3837 3115 Pls
3837 3115 Pls
3838 3114 Pls
3838 3114 Pls
3838 3114 Pls
3839 3114 Pls
3839 3113 Pls
3839 3112 Pls
3840 3112 Pls
3840 3112 Pls
3840 3112 Pls
3841 3112 Pls
3841 3111 Pls
3842 3111 Pls
3842 3111 Pls
3842 3111 Pls
3843 3111 Pls
3843 3111 Pls
3843 3111 Pls
3843 3111 Pls
3844 3111 Pls
3844 3110 Pls
3844 3110 Pls
3845 3110 Pls
3845 3110 Pls
3846 3110 Pls
3846 3109 Pls
3846 3109 Pls
3847 3109 Pls
3847 3109 Pls
3847 3109 Pls
3848 3109 Pls
3848 3108 Pls
3848 3108 Pls
3849 3108 Pls
3849 3108 Pls
3849 3108 Pls
3849 3108 Pls
3850 3108 Pls
3850 3107 Pls
3850 3107 Pls
3851 3107 Pls
3851 3107 Pls
3851 3107 Pls
3852 3106 Pls
3852 3106 Pls
3852 3106 Pls
3853 3106 Pls
3853 3106 Pls
3854 3106 Pls
3854 3106 Pls
3854 3105 Pls
3854 3105 Pls
3855 3105 Pls
3855 3105 Pls
3855 3104 Pls
3856 3104 Pls
3856 3104 Pls
3856 3104 Pls
3857 3104 Pls
3857 3104 Pls
3857 3103 Pls
3858 3103 Pls
3858 3103 Pls
3858 3103 Pls
3859 3103 Pls
3859 3102 Pls
3860 3102 Pls
3860 3102 Pls
3860 3102 Pls
3861 3102 Pls
3861 3102 Pls
3861 3101 Pls
3861 3101 Pls
3862 3101 Pls
3862 3101 Pls
3862 3101 Pls
3863 3101 Pls
3864 3100 Pls
3864 3100 Pls
3865 3100 Pls
3865 3100 Pls
3865 3100 Pls
3866 3100 Pls
3866 3100 Pls
3867 3100 Pls
3867 3100 Pls
3868 3099 Pls
3868 3099 Pls
3868 3099 Pls
3868 3099 Pls
3869 3099 Pls
3869 3098 Pls
3869 3098 Pls
3870 3098 Pls
3870 3098 Pls
3870 3098 Pls
3870 3098 Pls
3871 3098 Pls
3871 3098 Pls
3872 3097 Pls
3872 3097 Pls
3873 3097 Pls
3873 3097 Pls
3873 3097 Pls
3873 3097 Pls
3874 3096 Pls
3874 3096 Pls
3874 3096 Pls
3875 3096 Pls
3875 3095 Pls
3875 3095 Pls
3875 3095 Pls
3876 3095 Pls
3876 3095 Pls
3876 3095 Pls
3877 3094 Pls
3877 3094 Pls
3877 3094 Pls
3878 3094 Pls
3878 3094 Pls
3879 3094 Pls
3879 3093 Pls
3879 3093 Pls
3880 3093 Pls
3880 3093 Pls
3880 3093 Pls
3881 3093 Pls
3881 3093 Pls
3882 3092 Pls
3882 3092 Pls
3882 3092 Pls
3882 3092 Pls
3883 3092 Pls
3883 3092 Pls
3883 3091 Pls
3884 3091 Pls
3884 3091 Pls
3884 3091 Pls
3885 3091 Pls
3885 3091 Pls
3885 3090 Pls
3886 3090 Pls
3886 3090 Pls
3886 3090 Pls
3887 3090 Pls
3887 3090 Pls
3887 3090 Pls
3888 3089 Pls
3888 3089 Pls
3888 3089 Pls
3888 3089 Pls
3889 3088 Pls
3889 3088 Pls
3889 3088 Pls
3890 3088 Pls
3890 3088 Pls
3890 3088 Pls
3891 3087 Pls
3891 3087 Pls
3891 3087 Pls
3892 3087 Pls
3892 3087 Pls
3892 3087 Pls
3893 3086 Pls
3893 3086 Pls
3894 3086 Pls
3894 3086 Pls
3895 3086 Pls
3895 3086 Pls
3895 3085 Pls
3895 3085 Pls
3896 3085 Pls
3896 3085 Pls
3896 3085 Pls
3896 3085 Pls
3897 3084 Pls
3897 3084 Pls
3898 3084 Pls
3898 3084 Pls
3898 3084 Pls
3898 3084 Pls
3899 3084 Pls
3899 3084 Pls
3899 3083 Pls
3900 3083 Pls
3900 3083 Pls
3900 3083 Pls
3900 3082 Pls
3901 3082 Pls
3901 3082 Pls
3901 3082 Pls
3901 3082 Pls
3902 3081 Pls
3902 3081 Pls
3902 3081 Pls
3903 3081 Pls
3903 3081 Pls
3903 3080 Pls
3904 3080 Pls
3904 3080 Pls
3904 3080 Pls
3904 3080 Pls
3905 3080 Pls
3905 3080 Pls
3905 3079 Pls
3906 3079 Pls
3906 3079 Pls
3906 3078 Pls
3907 3078 Pls
3907 3078 Pls
3907 3078 Pls
3907 3078 Pls
3908 3078 Pls
3908 3077 Pls
3908 3077 Pls
3908 3077 Pls
3909 3077 Pls
3909 3076 Pls
3909 3076 Pls
3910 3076 Pls
3910 3076 Pls
3910 3076 Pls
3911 3076 Pls
3911 3076 Pls
3911 3076 Pls
3911 3075 Pls
3912 3075 Pls
3912 3075 Pls
3912 3075 Pls
3913 3075 Pls
3913 3075 Pls
3913 3075 Pls
3914 3074 Pls
3914 3074 Pls
3915 3074 Pls
3916 3074 Pls
3916 3074 Pls
3916 3074 Pls
3917 3074 Pls
3917 3073 Pls
3917 3073 Pls
3917 3073 Pls
3918 3073 Pls
3918 3073 Pls
3918 3073 Pls
3919 3072 Pls
3919 3072 Pls
3919 3072 Pls
3920 3072 Pls
3920 3072 Pls
3920 3072 Pls
3921 3071 Pls
3921 3071 Pls
3921 3071 Pls
3921 3070 Pls
3922 3070 Pls
3922 3070 Pls
3922 3070 Pls
3922 3069 Pls
3923 3069 Pls
3923 3069 Pls
3923 3069 Pls
3924 3068 Pls
3924 3068 Pls
3925 3068 Pls
3925 3068 Pls
3925 3068 Pls
3926 3068 Pls
3926 3068 Pls
3926 3068 Pls
3926 3067 Pls
3927 3067 Pls
3927 3067 Pls
3927 3067 Pls
3927 3066 Pls
3928 3066 Pls
3928 3066 Pls
3928 3066 Pls
3929 3066 Pls
3929 3066 Pls
3929 3066 Pls
3929 3066 Pls
3930 3065 Pls
3930 3065 Pls
3930 3065 Pls
3930 3065 Pls
3931 3065 Pls
3931 3064 Pls
3932 3064 Pls
3933 3064 Pls
3933 3064 Pls
3933 3064 Pls
3933 3064 Pls
3934 3063 Pls
3934 3063 Pls
3934 3063 Pls
3935 3063 Pls
3935 3063 Pls
3935 3062 Pls
3935 3062 Pls
3936 3062 Pls
3936 3062 Pls
3937 3062 Pls
3937 3061 Pls
3937 3061 Pls
3938 3061 Pls
3938 3060 Pls
3938 3060 Pls
3939 3060 Pls
3939 3060 Pls
3939 3060 Pls
3940 3060 Pls
3940 3060 Pls
3940 3060 Pls
3940 3059 Pls
3941 3059 Pls
3941 3059 Pls
3941 3059 Pls
3942 3059 Pls
3942 3059 Pls
3942 3059 Pls
3943 3059 Pls
3943 3058 Pls
3944 3058 Pls
3944 3058 Pls
3944 3058 Pls
3945 3058 Pls
3945 3057 Pls
3946 3057 Pls
3946 3057 Pls
3946 3057 Pls
3946 3056 Pls
3947 3056 Pls
3947 3056 Pls
3948 3056 Pls
3948 3056 Pls
3948 3056 Pls
3948 3056 Pls
3949 3056 Pls
3949 3055 Pls
3949 3055 Pls
3949 3055 Pls
3950 3055 Pls
3950 3055 Pls
3951 3055 Pls
3951 3055 Pls
3951 3054 Pls
3952 3054 Pls
3952 3054 Pls
3952 3054 Pls
3952 3053 Pls
3952 3053 Pls
3953 3053 Pls
3953 3053 Pls
3954 3053 Pls
3954 3053 Pls
3954 3053 Pls
3954 3053 Pls
3955 3052 Pls
3955 3052 Pls
3956 3052 Pls
3956 3052 Pls
3956 3052 Pls
3956 3052 Pls
3956 3051 Pls
3957 3051 Pls
3957 3051 Pls
3957 3051 Pls
3958 3051 Pls
3958 3051 Pls
3958 3051 Pls
3959 3051 Pls
3959 3050 Pls
3960 3050 Pls
3960 3050 Pls
3960 3050 Pls
3960 3050 Pls
3961 3050 Pls
3961 3050 Pls
3962 3049 Pls
3962 3049 Pls
3962 3049 Pls
3963 3049 Pls
3963 3049 Pls
3963 3048 Pls
3964 3048 Pls
3964 3048 Pls
3964 3048 Pls
3964 3048 Pls
3965 3047 Pls
3965 3047 Pls
3965 3047 Pls
3966 3047 Pls
3966 3047 Pls
3966 3046 Pls
3966 3046 Pls
3967 3046 Pls
3967 3046 Pls
3968 3046 Pls
3968 3046 Pls
3968 3046 Pls
3968 3046 Pls
3969 3045 Pls
3969 3045 Pls
3969 3045 Pls
3969 3045 Pls
3970 3045 Pls
3970 3045 Pls
3970 3045 Pls
3971 3045 Pls
3971 3045 Pls
3971 3045 Pls
3972 3044 Pls
3972 3044 Pls
3972 3044 Pls
3973 3044 Pls
3973 3044 Pls
3973 3044 Pls
3973 3044 Pls
3974 3043 Pls
3974 3043 Pls
3974 3043 Pls
3974 3043 Pls
3975 3043 Pls
3975 3043 Pls
3975 3043 Pls
3976 3042 Pls
3976 3042 Pls
3977 3042 Pls
3977 3042 Pls
3977 3042 Pls
3977 3041 Pls
3978 3041 Pls
3978 3041 Pls
3978 3041 Pls
3979 3041 Pls
3979 3041 Pls
3980 3041 Pls
3980 3040 Pls
3980 3040 Pls
3980 3040 Pls
3981 3040 Pls
3981 3040 Pls
3981 3040 Pls
3981 3039 Pls
3982 3039 Pls
3982 3039 Pls
3982 3039 Pls
3983 3039 Pls
3983 3039 Pls
3983 3039 Pls
3983 3039 Pls
3984 3038 Pls
3984 3038 Pls
3984 3038 Pls
3984 3038 Pls
3985 3038 Pls
3985 3038 Pls
3985 3037 Pls
3985 3037 Pls
3986 3037 Pls
3986 3037 Pls
3986 3037 Pls
3986 3037 Pls
3987 3037 Pls
3987 3037 Pls
3988 3037 Pls
3988 3036 Pls
3988 3036 Pls
3988 3036 Pls
3988 3036 Pls
3989 3036 Pls
3989 3036 Pls
3989 3036 Pls
3989 3036 Pls
3990 3035 Pls
3990 3035 Pls
3990 3035 Pls
3990 3035 Pls
3991 3035 Pls
3991 3035 Pls
3991 3035 Pls
3992 3034 Pls
3992 3034 Pls
3992 3034 Pls
3992 3034 Pls
3993 3034 Pls
3993 3034 Pls
3993 3034 Pls
3993 3034 Pls
3994 3034 Pls
3994 3033 Pls
3994 3033 Pls
3995 3033 Pls
3995 3033 Pls
3995 3033 Pls
3996 3032 Pls
3996 3032 Pls
3996 3032 Pls
3997 3032 Pls
3997 3032 Pls
3997 3032 Pls
3998 3032 Pls
3998 3031 Pls
3998 3031 Pls
3998 3031 Pls
3999 3031 Pls
3999 3031 Pls
4000 3031 Pls
4000 3030 Pls
4000 3030 Pls
4001 3030 Pls
4001 3030 Pls
4002 3030 Pls
4002 3030 Pls
4002 3030 Pls
4002 3030 Pls
4003 3029 Pls
4003 3029 Pls
4003 3029 Pls
4003 3029 Pls
4004 3029 Pls
4004 3029 Pls
4004 3028 Pls
4005 3028 Pls
4005 3028 Pls
4005 3028 Pls
4005 3028 Pls
4006 3028 Pls
4006 3028 Pls
4006 3027 Pls
4006 3027 Pls
4006 3027 Pls
4007 3027 Pls
4007 3027 Pls
4007 3027 Pls
4008 3027 Pls
4008 3026 Pls
4008 3026 Pls
4008 3026 Pls
4009 3026 Pls
4009 3025 Pls
4009 3025 Pls
4010 3025 Pls
4010 3025 Pls
4010 3024 Pls
4011 3024 Pls
4011 3024 Pls
4011 3024 Pls
4011 3024 Pls
4012 3024 Pls
4012 3023 Pls
4013 3023 Pls
4014 3023 Pls
4014 3023 Pls
4014 3023 Pls
4015 3023 Pls
4015 3023 Pls
4015 3022 Pls
4016 3022 Pls
4016 3022 Pls
4016 3022 Pls
4016 3022 Pls
4017 3022 Pls
4017 3021 Pls
4017 3021 Pls
4018 3021 Pls
4018 3021 Pls
4018 3021 Pls
4019 3021 Pls
4019 3021 Pls
4019 3021 Pls
4019 3020 Pls
4019 3020 Pls
4020 3020 Pls
4020 3020 Pls
4020 3020 Pls
4020 3020 Pls
4021 3020 Pls
4021 3020 Pls
4021 3019 Pls
4022 3019 Pls
4022 3019 Pls
4023 3019 Pls
4023 3019 Pls
4023 3019 Pls
4024 3019 Pls
4024 3019 Pls
4024 3019 Pls
4024 3019 Pls
4024 3018 Pls
4025 3018 Pls
4025 3018 Pls
4026 3018 Pls
4026 3018 Pls
4027 3018 Pls
4027 3018 Pls
4028 3017 Pls
4029 3017 Pls
4029 3017 Pls
4029 3017 Pls
4030 3017 Pls
4030 3016 Pls
4030 3016 Pls
4030 3016 Pls
4031 3016 Pls
4031 3016 Pls
4031 3016 Pls
4031 3016 Pls
4033 3016 Pls
4033 3015 Pls
4034 3015 Pls
4034 3015 Pls
4035 3015 Pls
4035 3015 Pls
4036 3015 Pls
4036 3015 Pls
4036 3015 Pls
4036 3014 Pls
4037 3014 Pls
4037 3014 Pls
4037 3014 Pls
4037 3014 Pls
4038 3014 Pls
4038 3013 Pls
4038 3013 Pls
4038 3013 Pls
4038 3013 Pls
4038 3013 Pls
4039 3013 Pls
4039 3012 Pls
4039 3012 Pls
4040 3012 Pls
4040 3012 Pls
4041 3012 Pls
4041 3012 Pls
4042 3012 Pls
4043 3012 Pls
4043 3011 Pls
4043 3011 Pls
4043 3011 Pls
4044 3011 Pls
4044 3011 Pls
4044 3011 Pls
4044 3010 Pls
4045 3010 Pls
4045 3010 Pls
4046 3010 Pls
4046 3010 Pls
4046 3010 Pls
4047 3010 Pls
4047 3010 Pls
4047 3009 Pls
4048 3009 Pls
4048 3009 Pls
4048 3009 Pls
4048 3009 Pls
4048 3009 Pls
4049 3008 Pls
4049 3008 Pls
4049 3008 Pls
4049 3008 Pls
4050 3008 Pls
4050 3007 Pls
4050 3007 Pls
4051 3007 Pls
4051 3007 Pls
4051 3007 Pls
4051 3007 Pls
4052 3007 Pls
4052 3007 Pls
4052 3007 Pls
4053 3006 Pls
4053 3006 Pls
4053 3006 Pls
4054 3006 Pls
4054 3006 Pls
4054 3006 Pls
4055 3005 Pls
4055 3005 Pls
4055 3005 Pls
4056 3005 Pls
4056 3005 Pls
4057 3005 Pls
4057 3005 Pls
4057 3005 Pls
4058 3005 Pls
4058 3004 Pls
4059 3004 Pls
4059 3004 Pls
4060 3004 Pls
4061 3004 Pls
4061 3003 Pls
4061 3003 Pls
4061 3003 Pls
4061 3003 Pls
4062 3003 Pls
4062 3003 Pls
4063 3003 Pls
4063 3003 Pls
4063 3002 Pls
4063 3002 Pls
4064 3002 Pls
4064 3002 Pls
4064 3002 Pls
4065 3002 Pls
4065 3002 Pls
4065 3001 Pls
4066 3001 Pls
4066 3001 Pls
4066 3001 Pls
4066 3001 Pls
4067 3000 Pls
4067 3000 Pls
4067 3000 Pls
4067 3000 Pls
4068 3000 Pls
4068 3000 Pls
4068 3000 Pls
4068 2999 Pls
4069 2999 Pls
4069 2999 Pls
4069 2999 Pls
4070 2999 Pls
4070 2999 Pls
4070 2998 Pls
4071 2998 Pls
4071 2998 Pls
4071 2998 Pls
4071 2998 Pls
4072 2998 Pls
4072 2998 Pls
4072 2998 Pls
4072 2997 Pls
4073 2997 Pls
4073 2997 Pls
4073 2997 Pls
4074 2997 Pls
4074 2997 Pls
4074 2996 Pls
4074 2996 Pls
4074 2996 Pls
4075 2996 Pls
4075 2996 Pls
4075 2996 Pls
4076 2995 Pls
4076 2995 Pls
4076 2995 Pls
4077 2995 Pls
4077 2995 Pls
4077 2995 Pls
4078 2995 Pls
4078 2994 Pls
4078 2994 Pls
4079 2994 Pls
4079 2994 Pls
4079 2994 Pls
4079 2994 Pls
4080 2994 Pls
4080 2994 Pls
4080 2993 Pls
4080 2993 Pls
4081 2993 Pls
4081 2993 Pls
4081 2993 Pls
4081 2993 Pls
4082 2992 Pls
4082 2992 Pls
4082 2992 Pls
4083 2992 Pls
4083 2991 Pls
4083 2991 Pls
4083 2991 Pls
4084 2991 Pls
4084 2991 Pls
4084 2991 Pls
4085 2990 Pls
4085 2990 Pls
4085 2990 Pls
4085 2990 Pls
4085 2990 Pls
4086 2990 Pls
4086 2990 Pls
4086 2990 Pls
4087 2990 Pls
4087 2989 Pls
4087 2989 Pls
4088 2989 Pls
4088 2989 Pls
4088 2989 Pls
4088 2989 Pls
4088 2989 Pls
4089 2989 Pls
4089 2989 Pls
4089 2988 Pls
4089 2988 Pls
4089 2988 Pls
4090 2988 Pls
4090 2988 Pls
4090 2988 Pls
4090 2988 Pls
4090 2987 Pls
4091 2987 Pls
4091 2987 Pls
4092 2987 Pls
4092 2986 Pls
4092 2986 Pls
4092 2986 Pls
4093 2986 Pls
4093 2986 Pls
4093 2986 Pls
4094 2985 Pls
4094 2985 Pls
4094 2985 Pls
4094 2985 Pls
4095 2985 Pls
4095 2984 Pls
4095 2984 Pls
4096 2984 Pls
4096 2984 Pls
4096 2984 Pls
4097 2984 Pls
4097 2984 Pls
4098 2984 Pls
4098 2983 Pls
4098 2983 Pls
4099 2983 Pls
4099 2983 Pls
4100 2983 Pls
4100 2982 Pls
4100 2982 Pls
4101 2982 Pls
4101 2982 Pls
4101 2982 Pls
4102 2982 Pls
4102 2981 Pls
4103 2981 Pls
4103 2981 Pls
4103 2981 Pls
4103 2981 Pls
4104 2981 Pls
4104 2981 Pls
4104 2981 Pls
4105 2980 Pls
4105 2980 Pls
4105 2980 Pls
4106 2980 Pls
4107 2980 Pls
4107 2979 Pls
4107 2979 Pls
4107 2979 Pls
4107 2979 Pls
4108 2979 Pls
4108 2979 Pls
4108 2979 Pls
4109 2979 Pls
4109 2978 Pls
4109 2978 Pls
4110 2978 Pls
4110 2978 Pls
4110 2978 Pls
4111 2978 Pls
4111 2978 Pls
4111 2978 Pls
4111 2978 Pls
4111 2977 Pls
4112 2977 Pls
4112 2977 Pls
4112 2977 Pls
4112 2977 Pls
4112 2977 Pls
4113 2977 Pls
4113 2977 Pls
4114 2976 Pls
4114 2976 Pls
4115 2976 Pls
4116 2976 Pls
4116 2976 Pls
4117 2976 Pls
4117 2976 Pls
4117 2976 Pls
4117 2976 Pls
4118 2975 Pls
4118 2975 Pls
4118 2975 Pls
4118 2975 Pls
4118 2975 Pls
4118 2975 Pls
4119 2975 Pls
4119 2975 Pls
4119 2974 Pls
4119 2974 Pls
4119 2974 Pls
4120 2974 Pls
4120 2974 Pls
4120 2974 Pls
4120 2974 Pls
4120 2973 Pls
4121 2973 Pls
4121 2973 Pls
4121 2973 Pls
4122 2973 Pls
4122 2973 Pls
4122 2973 Pls
4123 2973 Pls
4123 2973 Pls
4125 2973 Pls
4125 2972 Pls
4126 2972 Pls
4127 2972 Pls
4127 2972 Pls
4127 2972 Pls
4128 2972 Pls
4128 2972 Pls
4128 2972 Pls
4129 2972 Pls
4129 2971 Pls
4130 2971 Pls
4130 2971 Pls
4130 2971 Pls
4131 2971 Pls
4131 2971 Pls
4131 2970 Pls
4132 2970 Pls
4132 2970 Pls
4132 2970 Pls
4132 2970 Pls
4132 2970 Pls
4132 2970 Pls
4133 2969 Pls
4133 2969 Pls
4133 2969 Pls
4134 2969 Pls
4134 2969 Pls
4135 2969 Pls
4135 2969 Pls
4135 2969 Pls
4135 2969 Pls
4135 2968 Pls
4136 2968 Pls
4136 2968 Pls
4136 2968 Pls
4137 2968 Pls
4137 2968 Pls
4138 2968 Pls
4138 2968 Pls
4138 2968 Pls
4138 2967 Pls
4139 2967 Pls
4139 2967 Pls
4139 2967 Pls
4140 2967 Pls
4140 2967 Pls
4140 2967 Pls
4141 2967 Pls
4141 2966 Pls
4141 2966 Pls
4141 2966 Pls
4141 2966 Pls
4142 2966 Pls
4142 2966 Pls
4143 2965 Pls
4143 2965 Pls
4143 2965 Pls
4143 2965 Pls
4144 2965 Pls
4144 2965 Pls
4145 2964 Pls
4145 2964 Pls
4145 2964 Pls
4146 2964 Pls
4146 2964 Pls
4147 2964 Pls
4148 2964 Pls
4148 2964 Pls
4148 2963 Pls
4148 2963 Pls
4149 2963 Pls
4149 2963 Pls
4150 2963 Pls
4150 2963 Pls
4150 2963 Pls
4151 2963 Pls
4151 2962 Pls
4152 2962 Pls
4152 2962 Pls
4152 2962 Pls
4152 2962 Pls
4153 2962 Pls
4153 2962 Pls
4153 2962 Pls
4153 2961 Pls
4154 2961 Pls
4154 2961 Pls
4154 2961 Pls
4154 2961 Pls
4154 2961 Pls
4155 2961 Pls
4155 2961 Pls
4155 2960 Pls
4155 2960 Pls
4156 2960 Pls
4156 2960 Pls
4156 2960 Pls
4156 2959 Pls
4156 2959 Pls
4157 2959 Pls
4157 2959 Pls
4157 2959 Pls
4157 2959 Pls
4158 2959 Pls
4158 2958 Pls
4158 2958 Pls
4159 2958 Pls
4159 2958 Pls
4159 2958 Pls
4160 2958 Pls
4161 2958 Pls
4161 2958 Pls
4161 2957 Pls
4161 2957 Pls
4161 2957 Pls
4161 2957 Pls
4163 2957 Pls
4163 2957 Pls
4164 2957 Pls
4164 2957 Pls
4165 2956 Pls
4165 2956 Pls
4165 2956 Pls
4165 2956 Pls
4165 2956 Pls
4165 2956 Pls
4166 2956 Pls
4166 2956 Pls
4166 2955 Pls
4166 2955 Pls
4167 2955 Pls
4167 2955 Pls
4167 2954 Pls
4168 2954 Pls
4168 2954 Pls
4168 2954 Pls
4169 2954 Pls
4170 2953 Pls
4170 2953 Pls
4171 2953 Pls
4171 2953 Pls
4171 2953 Pls
4172 2953 Pls
4172 2953 Pls
4172 2953 Pls
4173 2952 Pls
4173 2952 Pls
4173 2952 Pls
4174 2952 Pls
4174 2952 Pls
4175 2952 Pls
4175 2952 Pls
4175 2952 Pls
4176 2951 Pls
4176 2951 Pls
4176 2951 Pls
4177 2951 Pls
4178 2951 Pls
4178 2951 Pls
4179 2951 Pls
4179 2951 Pls
4179 2950 Pls
4179 2950 Pls
4180 2950 Pls
4180 2950 Pls
4180 2950 Pls
4181 2949 Pls
4181 2949 Pls
4182 2949 Pls
4182 2949 Pls
4182 2949 Pls
4182 2949 Pls
4183 2949 Pls
4183 2949 Pls
4183 2949 Pls
4183 2948 Pls
4183 2948 Pls
4184 2948 Pls
4185 2948 Pls
4185 2948 Pls
4185 2948 Pls
4185 2947 Pls
4186 2947 Pls
4186 2947 Pls
4186 2947 Pls
4187 2947 Pls
4187 2947 Pls
4187 2947 Pls
4187 2946 Pls
4187 2946 Pls
4188 2946 Pls
4188 2946 Pls
4188 2946 Pls
4188 2946 Pls
4188 2946 Pls
4188 2946 Pls
4189 2945 Pls
4189 2945 Pls
4190 2945 Pls
4190 2945 Pls
4191 2945 Pls
4191 2945 Pls
4191 2945 Pls
4192 2944 Pls
4192 2944 Pls
4192 2944 Pls
4193 2944 Pls
4193 2944 Pls
4193 2944 Pls
4194 2944 Pls
4194 2944 Pls
4195 2943 Pls
4195 2943 Pls
4195 2943 Pls
4195 2942 Pls
4196 2942 Pls
4196 2942 Pls
4196 2942 Pls
4196 2942 Pls
4196 2942 Pls
4196 2941 Pls
4197 2941 Pls
4197 2941 Pls
4197 2940 Pls
4197 2940 Pls
4197 2933 Pls
4197 2933 Pls
4198 2933 Pls
4199 2933 Pls
4199 2933 Pls
4200 2932 Pls
4200 2932 Pls
4200 2932 Pls
4200 2932 Pls
4201 2932 Pls
4202 2932 Pls
4202 2932 Pls
4202 2931 Pls
4203 2931 Pls
4203 2931 Pls
4203 2931 Pls
4204 2931 Pls
4204 2931 Pls
4204 2930 Pls
4204 2930 Pls
4205 2930 Pls
4206 2930 Pls
4206 2930 Pls
4206 2930 Pls
4206 2930 Pls
4207 2929 Pls
4207 2929 Pls
4208 2929 Pls
4208 2929 Pls
4208 2929 Pls
4209 2929 Pls
4209 2929 Pls
4210 2928 Pls
4210 2928 Pls
4210 2928 Pls
4210 2928 Pls
4210 2928 Pls
4210 2928 Pls
4211 2928 Pls
4211 2928 Pls
4212 2927 Pls
4212 2927 Pls
4212 2927 Pls
4212 2927 Pls
4213 2927 Pls
4213 2927 Pls
4213 2926 Pls
4213 2926 Pls
4214 2926 Pls
4214 2926 Pls
4214 2926 Pls
4215 2926 Pls
4215 2925 Pls
4215 2925 Pls
4216 2925 Pls
4216 2925 Pls
4216 2925 Pls
4217 2925 Pls
4217 2925 Pls
4217 2925 Pls
4217 2924 Pls
4218 2924 Pls
4218 2924 Pls
4219 2924 Pls
4219 2924 Pls
4219 2924 Pls
4220 2924 Pls
4221 2923 Pls
4222 2923 Pls
4222 2923 Pls
4222 2923 Pls
4223 2923 Pls
4223 2923 Pls
4224 2923 Pls
4224 2922 Pls
4224 2922 Pls
4225 2922 Pls
4225 2922 Pls
4225 2922 Pls
4226 2922 Pls
4226 2922 Pls
4227 2921 Pls
4227 2921 Pls
4227 2921 Pls
4228 2921 Pls
4228 2921 Pls
4228 2921 Pls
4228 2920 Pls
4228 2920 Pls
4228 2920 Pls
4229 2920 Pls
4229 2920 Pls
4230 2919 Pls
4230 2919 Pls
4231 2919 Pls
4232 2919 Pls
4232 2919 Pls
4232 2919 Pls
4233 2919 Pls
4233 2918 Pls
4233 2918 Pls
4233 2918 Pls
4234 2918 Pls
4234 2918 Pls
4235 2918 Pls
4235 2918 Pls
4235 2917 Pls
4235 2917 Pls
4235 2917 Pls
4236 2917 Pls
4236 2917 Pls
4236 2916 Pls
4237 2916 Pls
4237 2916 Pls
4238 2916 Pls
4239 2916 Pls
4240 2916 Pls
4240 2916 Pls
4241 2915 Pls
4242 2915 Pls
4243 2915 Pls
4243 2915 Pls
4243 2915 Pls
4243 2915 Pls
4244 2914 Pls
4245 2914 Pls
4245 2914 Pls
4246 2914 Pls
4246 2914 Pls
4246 2914 Pls
4247 2913 Pls
4247 2913 Pls
4247 2913 Pls
4248 2913 Pls
4248 2913 Pls
4248 2913 Pls
4249 2912 Pls
4249 2912 Pls
4249 2912 Pls
4251 2912 Pls
4251 2912 Pls
4251 2912 Pls
4251 2912 Pls
4252 2912 Pls
4252 2911 Pls
4252 2911 Pls
4253 2911 Pls
4253 2911 Pls
4253 2911 Pls
4254 2911 Pls
4255 2911 Pls
4256 2910 Pls
4256 2910 Pls
4257 2910 Pls
4257 2910 Pls
4257 2910 Pls
4257 2909 Pls
4258 2909 Pls
4258 2909 Pls
4259 2909 Pls
4259 2909 Pls
4260 2909 Pls
4260 2909 Pls
4260 2908 Pls
4260 2908 Pls
4260 2908 Pls
4261 2908 Pls
4261 2908 Pls
4262 2908 Pls
4262 2907 Pls
4262 2907 Pls
4262 2907 Pls
4262 2906 Pls
4263 2906 Pls
4263 2906 Pls
4264 2906 Pls
4264 2906 Pls
4265 2905 Pls
4265 2905 Pls
4265 2905 Pls
4265 2905 Pls
4266 2905 Pls
4266 2905 Pls
4266 2905 Pls
4267 2905 Pls
4268 2904 Pls
4268 2904 Pls
4268 2904 Pls
4268 2904 Pls
4268 2904 Pls
4270 2904 Pls
4270 2904 Pls
4271 2903 Pls
4271 2903 Pls
4272 2903 Pls
4272 2903 Pls
4272 2903 Pls
4272 2903 Pls
4273 2903 Pls
4273 2902 Pls
4274 2902 Pls
4275 2902 Pls
4275 2902 Pls
4275 2902 Pls
4275 2901 Pls
4276 2901 Pls
4276 2901 Pls
4277 2901 Pls
4277 2901 Pls
4277 2901 Pls
4277 2901 Pls
4278 2900 Pls
4278 2900 Pls
4279 2900 Pls
4279 2900 Pls
4279 2900 Pls
4280 2900 Pls
4280 2900 Pls
4280 2899 Pls
4280 2899 Pls
4281 2899 Pls
4281 2899 Pls
4281 2899 Pls
4281 2898 Pls
4281 2898 Pls
4281 2898 Pls
4281 2898 Pls
4282 2898 Pls
4282 2898 Pls
4282 2898 Pls
4282 2898 Pls
4282 2897 Pls
4283 2897 Pls
4283 2897 Pls
4283 2896 Pls
4283 2896 Pls
4285 2896 Pls
4285 2896 Pls
4285 2896 Pls
4285 2896 Pls
4286 2895 Pls
4286 2895 Pls
4286 2895 Pls
4286 2895 Pls
4287 2895 Pls
4287 2895 Pls
4287 2895 Pls
4287 2895 Pls
4288 2894 Pls
4288 2894 Pls
4288 2894 Pls
4289 2894 Pls
4289 2894 Pls
4289 2893 Pls
4290 2893 Pls
4290 2893 Pls
4290 2893 Pls
4290 2893 Pls
4290 2893 Pls
4291 2893 Pls
4291 2892 Pls
4291 2892 Pls
4291 2892 Pls
4292 2892 Pls
4292 2892 Pls
4292 2892 Pls
4292 2891 Pls
4292 2891 Pls
4292 2891 Pls
4292 2891 Pls
4293 2891 Pls
4294 2891 Pls
4294 2891 Pls
4294 2890 Pls
4295 2890 Pls
4295 2890 Pls
4295 2890 Pls
4296 2890 Pls
4296 2890 Pls
4296 2890 Pls
4297 2889 Pls
4298 2889 Pls
4299 2889 Pls
4299 2889 Pls
4299 2889 Pls
4300 2889 Pls
4301 2889 Pls
4301 2888 Pls
4302 2888 Pls
4302 2888 Pls
4303 2888 Pls
4303 2888 Pls
4304 2888 Pls
4304 2888 Pls
4304 2887 Pls
4305 2887 Pls
4305 2887 Pls
4305 2887 Pls
4305 2887 Pls
4306 2887 Pls
4306 2886 Pls
4306 2886 Pls
4307 2886 Pls
4307 2886 Pls
4308 2886 Pls
4308 2886 Pls
4309 2886 Pls
4309 2885 Pls
4310 2885 Pls
4311 2885 Pls
4311 2885 Pls
4312 2885 Pls
4312 2885 Pls
4312 2885 Pls
4313 2884 Pls
4313 2884 Pls
4313 2884 Pls
4314 2884 Pls
4314 2884 Pls
4314 2884 Pls
4314 2884 Pls
4314 2883 Pls
4314 2883 Pls
4315 2883 Pls
4315 2883 Pls
4315 2883 Pls
4316 2883 Pls
4316 2882 Pls
4316 2882 Pls
4316 2882 Pls
4317 2882 Pls
4318 2882 Pls
4319 2881 Pls
4319 2881 Pls
4320 2881 Pls
4320 2881 Pls
4320 2881 Pls
4321 2881 Pls
4321 2880 Pls
4323 2880 Pls
4323 2880 Pls
4323 2880 Pls
4323 2880 Pls
4324 2880 Pls
4324 2880 Pls
4325 2879 Pls
4325 2879 Pls
4325 2879 Pls
4326 2879 Pls
4326 2879 Pls
4326 2879 Pls
4326 2879 Pls
4326 2878 Pls
4326 2878 Pls
4327 2878 Pls
4327 2878 Pls
4327 2878 Pls
4328 2878 Pls
4328 2877 Pls
4329 2877 Pls
4329 2877 Pls
4329 2877 Pls
4330 2877 Pls
4331 2876 Pls
4331 2876 Pls
4331 2876 Pls
4331 2876 Pls
4333 2876 Pls
4333 2876 Pls
4335 2875 Pls
4335 2875 Pls
4335 2875 Pls
4336 2875 Pls
4337 2875 Pls
4337 2874 Pls
4337 2874 Pls
4337 2874 Pls
4337 2874 Pls
4338 2874 Pls
4338 2873 Pls
4339 2873 Pls
4339 2873 Pls
4339 2873 Pls
4340 2872 Pls
4340 2872 Pls
4341 2872 Pls
4342 2872 Pls
4342 2872 Pls
4342 2872 Pls
4343 2871 Pls
4343 2871 Pls
4343 2871 Pls
4344 2871 Pls
4344 2871 Pls
4345 2871 Pls
4345 2871 Pls
4345 2870 Pls
4345 2870 Pls
4346 2870 Pls
4346 2870 Pls
4346 2870 Pls
4346 2870 Pls
4346 2869 Pls
4347 2869 Pls
4348 2869 Pls
4348 2869 Pls
4348 2869 Pls
4348 2869 Pls
4348 2868 Pls
4349 2868 Pls
4349 2868 Pls
4350 2868 Pls
4350 2868 Pls
4351 2868 Pls
4351 2867 Pls
4352 2867 Pls
4352 2867 Pls
4353 2867 Pls
4353 2866 Pls
4353 2866 Pls
4354 2866 Pls
4354 2866 Pls
4354 2866 Pls
4355 2866 Pls
4355 2865 Pls
4355 2865 Pls
4356 2865 Pls
4356 2865 Pls
4357 2865 Pls
4357 2864 Pls
4357 2864 Pls
4358 2864 Pls
4358 2864 Pls
4358 2864 Pls
4359 2864 Pls
4360 2864 Pls
4360 2863 Pls
4360 2863 Pls
4362 2863 Pls
4362 2863 Pls
4362 2863 Pls
4365 2862 Pls
4365 2862 Pls
4366 2862 Pls
4366 2862 Pls
4366 2862 Pls
4367 2861 Pls
4367 2861 Pls
4367 2861 Pls
4368 2861 Pls
4368 2861 Pls
4368 2860 Pls
4368 2860 Pls
4369 2860 Pls
4369 2860 Pls
4369 2860 Pls
4370 2859 Pls
4370 2859 Pls
4370 2859 Pls
4371 2859 Pls
4371 2859 Pls
4372 2859 Pls
4372 2858 Pls
4372 2858 Pls
4372 2858 Pls
4373 2858 Pls
4373 2858 Pls
4373 2858 Pls
4374 2857 Pls
4374 2857 Pls
4374 2857 Pls
4376 2857 Pls
4376 2857 Pls
4376 2856 Pls
4376 2856 Pls
4377 2856 Pls
4378 2856 Pls
4379 2855 Pls
4379 2855 Pls
4380 2855 Pls
4380 2855 Pls
4380 2855 Pls
4380 2855 Pls
4380 2854 Pls
4381 2854 Pls
4381 2854 Pls
4381 2854 Pls
4381 2854 Pls
4382 2853 Pls
4382 2853 Pls
4382 2853 Pls
4383 2853 Pls
4383 2853 Pls
4384 2852 Pls
4384 2852 Pls
4385 2852 Pls
4385 2852 Pls
4386 2852 Pls
4387 2851 Pls
4387 2851 Pls
4388 2851 Pls
4388 2851 Pls
4389 2851 Pls
4389 2851 Pls
4389 2850 Pls
4390 2850 Pls
4390 2850 Pls
4390 2850 Pls
4391 2850 Pls
4391 2850 Pls
4391 2849 Pls
4391 2849 Pls
4391 2849 Pls
4392 2849 Pls
4393 2849 Pls
4393 2848 Pls
4393 2848 Pls
4393 2848 Pls
4394 2848 Pls
4394 2847 Pls
4394 2847 Pls
4395 2846 Pls
4395 2846 Pls
4395 2846 Pls
4396 2846 Pls
4396 2846 Pls
4396 2846 Pls
4396 2845 Pls
4396 2845 Pls
4396 2845 Pls
4396 2845 Pls
4397 2845 Pls
4397 2844 Pls
4397 2844 Pls
4397 2844 Pls
4397 2844 Pls
4397 2844 Pls
4397 2844 Pls
4399 2843 Pls
4400 2843 Pls
4400 2843 Pls
4400 2843 Pls
4400 2843 Pls
4401 2842 Pls
4401 2842 Pls
4402 2842 Pls
4402 2842 Pls
4403 2842 Pls
4403 2841 Pls
4404 2841 Pls
4404 2841 Pls
4405 2841 Pls
4405 2841 Pls
4405 2840 Pls
4405 2840 Pls
4406 2840 Pls
4408 2840 Pls
4408 2840 Pls
4409 2840 Pls
4409 2839 Pls
4409 2839 Pls
4410 2839 Pls
4410 2839 Pls
4410 2839 Pls
4410 2839 Pls
4411 2838 Pls
4411 2838 Pls
4411 2838 Pls
4412 2838 Pls
4413 2838 Pls
4413 2838 Pls
4414 2837 Pls
4416 2837 Pls
4416 2837 Pls
4416 2837 Pls
4417 2837 Pls
4417 2837 Pls
4417 2836 Pls
4418 2836 Pls
4418 2836 Pls
4418 2836 Pls
4418 2836 Pls
4419 2835 Pls
4420 2835 Pls
4421 2835 Pls
4422 2835 Pls
4422 2835 Pls
4422 2835 Pls
4423 2834 Pls
4423 2834 Pls
4423 2834 Pls
4424 2834 Pls
4424 2834 Pls
4424 2834 Pls
4425 2833 Pls
4426 2833 Pls
4426 2833 Pls
4426 2833 Pls
4427 2832 Pls
4428 2832 Pls
4428 2832 Pls
4428 2832 Pls
4429 2831 Pls
4430 2831 Pls
4430 2831 Pls
4431 2831 Pls
4432 2831 Pls
4432 2830 Pls
4433 2830 Pls
4435 2830 Pls
4435 2830 Pls
4435 2830 Pls
4436 2829 Pls
4436 2829 Pls
4436 2829 Pls
4436 2829 Pls
4437 2829 Pls
4437 2829 Pls
4438 2828 Pls
4438 2828 Pls
4438 2828 Pls
4439 2828 Pls
4439 2827 Pls
4440 2827 Pls
4440 2827 Pls
4441 2827 Pls
4442 2827 Pls
4443 2827 Pls
4443 2826 Pls
4443 2826 Pls
4444 2826 Pls
4445 2826 Pls
4446 2826 Pls
4447 2826 Pls
4447 2825 Pls
4447 2825 Pls
4448 2825 Pls
4448 2824 Pls
4448 2824 Pls
4450 2824 Pls
4450 2824 Pls
4451 2824 Pls
4451 2824 Pls
4451 2823 Pls
4451 2823 Pls
4452 2823 Pls
4452 2823 Pls
4453 2823 Pls
4453 2822 Pls
4454 2822 Pls
4454 2822 Pls
4454 2822 Pls
4454 2822 Pls
4454 2821 Pls
4455 2821 Pls
4455 2821 Pls
4458 2821 Pls
4458 2821 Pls
4458 2821 Pls
4458 2820 Pls
4458 2820 Pls
4458 2820 Pls
4459 2820 Pls
4459 2820 Pls
4459 2819 Pls
4459 2819 Pls
4459 2819 Pls
4460 2819 Pls
4460 2819 Pls
4460 2819 Pls
4460 2818 Pls
4460 2818 Pls
4461 2818 Pls
4461 2818 Pls
4462 2818 Pls
4462 2817 Pls
4462 2817 Pls
4462 2817 Pls
4463 2817 Pls
4464 2817 Pls
4464 2817 Pls
4465 2816 Pls
4466 2816 Pls
4466 2816 Pls
4467 2816 Pls
4469 2816 Pls
4470 2815 Pls
4470 2815 Pls
4470 2815 Pls
4470 2815 Pls
4471 2815 Pls
4472 2815 Pls
4472 2814 Pls
4473 2814 Pls
4473 2814 Pls
4473 2814 Pls
4474 2814 Pls
4474 2813 Pls
4474 2813 Pls
4474 2813 Pls
4475 2813 Pls
4475 2813 Pls
4476 2813 Pls
4477 2812 Pls
4477 2812 Pls
4477 2812 Pls
4478 2811 Pls
4478 2811 Pls
4479 2811 Pls
4479 2811 Pls
4479 2811 Pls
4480 2810 Pls
4480 2810 Pls
4480 2810 Pls
4481 2810 Pls
4481 2810 Pls
4481 2809 Pls
4482 2809 Pls
4482 2809 Pls
4484 2809 Pls
4484 2808 Pls
4485 2808 Pls
4485 2808 Pls
4485 2808 Pls
4486 2808 Pls
4487 2808 Pls
4487 2807 Pls
4488 2807 Pls
4488 2807 Pls
4488 2807 Pls
4489 2807 Pls
4489 2806 Pls
4491 2806 Pls
4491 2806 Pls
4491 2806 Pls
4492 2806 Pls
4492 2805 Pls
4492 2805 Pls
4493 2805 Pls
4494 2805 Pls
4494 2805 Pls
4494 2804 Pls
4495 2804 Pls
4496 2804 Pls
4496 2804 Pls
4496 2804 Pls
4496 2803 Pls
4496 2803 Pls
4497 2803 Pls
4497 2803 Pls
4497 2803 Pls
4497 2802 Pls
4497 2802 Pls
4498 2802 Pls
4498 2802 Pls
4498 2802 Pls
4499 2801 Pls
4499 2801 Pls
4500 2801 Pls
4501 2801 Pls
4501 2801 Pls
4502 2801 Pls
4503 2800 Pls
4504 2800 Pls
4504 2800 Pls
4505 2800 Pls
4505 2800 Pls
4505 2799 Pls
4505 2799 Pls
4505 2799 Pls
4507 2799 Pls
4507 2798 Pls
4509 2798 Pls
4511 2798 Pls
4512 2798 Pls
4513 2798 Pls
4515 2797 Pls
4516 2797 Pls
4517 2797 Pls
4517 2797 Pls
4518 2797 Pls
4518 2796 Pls
4519 2796 Pls
4519 2796 Pls
4519 2796 Pls
4520 2796 Pls
4520 2795 Pls
4521 2795 Pls
4521 2795 Pls
4521 2795 Pls
4522 2795 Pls
4522 2794 Pls
4522 2794 Pls
4522 2794 Pls
4522 2794 Pls
4523 2794 Pls
4523 2794 Pls
4523 2793 Pls
4524 2793 Pls
4524 2793 Pls
4524 2793 Pls
4524 2793 Pls
4525 2792 Pls
4525 2792 Pls
4525 2792 Pls
4526 2792 Pls
4526 2791 Pls
4526 2791 Pls
4526 2791 Pls
4527 2791 Pls
4527 2790 Pls
4527 2790 Pls
4527 2790 Pls
4528 2790 Pls
4529 2789 Pls
4529 2789 Pls
4529 2789 Pls
4529 2789 Pls
4529 2789 Pls
4530 2788 Pls
4530 2788 Pls
4530 2788 Pls
4530 2788 Pls
4531 2788 Pls
4531 2787 Pls
4532 2787 Pls
4532 2787 Pls
4532 2787 Pls
4533 2786 Pls
4533 2786 Pls
4533 2786 Pls
4534 2786 Pls
4534 2785 Pls
4534 2785 Pls
4534 2785 Pls
4535 2785 Pls
4535 2784 Pls
4535 2784 Pls
4536 2784 Pls
4537 2784 Pls
4537 2784 Pls
4538 2783 Pls
4538 2783 Pls
4538 2783 Pls
4539 2783 Pls
4539 2782 Pls
4540 2782 Pls
4540 2782 Pls
4540 2782 Pls
4540 2782 Pls
4540 2781 Pls
4540 2781 Pls
4540 2781 Pls
4541 2781 Pls
4541 2781 Pls
4542 2780 Pls
4542 2780 Pls
4542 2780 Pls
4543 2780 Pls
4543 2780 Pls
4545 2779 Pls
4545 2779 Pls
4545 2779 Pls
4547 2779 Pls
4547 2779 Pls
4547 2778 Pls
4548 2778 Pls
4548 2778 Pls
4548 2778 Pls
4549 2777 Pls
4550 2777 Pls
4551 2777 Pls
4551 2777 Pls
4552 2777 Pls
4553 2776 Pls
4554 2776 Pls
4554 2776 Pls
4556 2776 Pls
4556 2776 Pls
4557 2775 Pls
4557 2775 Pls
4557 2775 Pls
4558 2775 Pls
4559 2775 Pls
4559 2774 Pls
4559 2774 Pls
4560 2774 Pls
4561 2774 Pls
4562 2773 Pls
4567 2773 Pls
4568 2773 Pls
4568 2772 Pls
4568 2772 Pls
4568 2772 Pls
4569 2772 Pls
4569 2771 Pls
4569 2771 Pls
4569 2771 Pls
4569 2771 Pls
4570 2771 Pls
4570 2770 Pls
4571 2770 Pls
4571 2770 Pls
4571 2769 Pls
4571 2769 Pls
4571 2769 Pls
4572 2769 Pls
4573 2768 Pls
4573 2768 Pls
4573 2768 Pls
4573 2768 Pls
4575 2768 Pls
4575 2767 Pls
4575 2767 Pls
4576 2767 Pls
4576 2767 Pls
4576 2766 Pls
4576 2766 Pls
4576 2766 Pls
4577 2766 Pls
4577 2765 Pls
4577 2765 Pls
4577 2765 Pls
4578 2765 Pls
4578 2764 Pls
4579 2764 Pls
4579 2764 Pls
4581 2764 Pls
4581 2763 Pls
4582 2763 Pls
4582 2763 Pls
4583 2763 Pls
4583 2763 Pls
4583 2762 Pls
4583 2762 Pls
4584 2762 Pls
4584 2762 Pls
4584 2761 Pls
4584 2761 Pls
4585 2761 Pls
4585 2761 Pls
4585 2761 Pls
4586 2760 Pls
4587 2760 Pls
4589 2760 Pls
4589 2760 Pls
4589 2759 Pls
4591 2759 Pls
4591 2759 Pls
4592 2759 Pls
4592 2759 Pls
4593 2758 Pls
4593 2758 Pls
4594 2758 Pls
4594 2758 Pls
4595 2757 Pls
4595 2757 Pls
4595 2757 Pls
4595 2757 Pls
4596 2757 Pls
4596 2756 Pls
4597 2756 Pls
4598 2756 Pls
4598 2756 Pls
4599 2755 Pls
4599 2755 Pls
4600 2755 Pls
4600 2754 Pls
4600 2754 Pls
4600 2754 Pls
4600 2754 Pls
4601 2754 Pls
4601 2753 Pls
4601 2753 Pls
4603 2753 Pls
4604 2753 Pls
4605 2752 Pls
4605 2752 Pls
4606 2752 Pls
4606 2752 Pls
4607 2752 Pls
4610 2751 Pls
4610 2751 Pls
4611 2751 Pls
4611 2751 Pls
4611 2750 Pls
4611 2750 Pls
4612 2750 Pls
4612 2749 Pls
4613 2749 Pls
4613 2749 Pls
4613 2749 Pls
4615 2749 Pls
4615 2748 Pls
4615 2748 Pls
4616 2748 Pls
4618 2748 Pls
4618 2747 Pls
4619 2747 Pls
4620 2747 Pls
4620 2747 Pls
4621 2746 Pls
4621 2746 Pls
4621 2746 Pls
4623 2746 Pls
4624 2746 Pls
4625 2745 Pls
4625 2745 Pls
4626 2745 Pls
4626 2744 Pls
4626 2744 Pls
4626 2743 Pls
4626 2743 Pls
4626 2743 Pls
4626 2742 Pls
4626 2742 Pls
4628 2742 Pls
4628 2742 Pls
4628 2742 Pls
4628 2741 Pls
4628 2741 Pls
4629 2741 Pls
4630 2741 Pls
4631 2740 Pls
4632 2740 Pls
4633 2740 Pls
4634 2740 Pls
4634 2739 Pls
4635 2739 Pls
4635 2739 Pls
4635 2739 Pls
4636 2738 Pls
4636 2738 Pls
4636 2738 Pls
4637 2738 Pls
4637 2737 Pls
4638 2737 Pls
4640 2737 Pls
4640 2737 Pls
4641 2737 Pls
4641 2736 Pls
4642 2736 Pls
4642 2736 Pls
4643 2736 Pls
4644 2735 Pls
4644 2735 Pls
4645 2735 Pls
4645 2734 Pls
4645 2734 Pls
4646 2734 Pls
4646 2734 Pls
4647 2733 Pls
4647 2733 Pls
4647 2733 Pls
4648 2733 Pls
4648 2732 Pls
4649 2732 Pls
4650 2732 Pls
4650 2732 Pls
4651 2731 Pls
4651 2731 Pls
4651 2731 Pls
4652 2730 Pls
4652 2730 Pls
4653 2730 Pls
4655 2730 Pls
4656 2729 Pls
4656 2729 Pls
4658 2729 Pls
4659 2729 Pls
4659 2728 Pls
4660 2728 Pls
4660 2728 Pls
4661 2728 Pls
4661 2727 Pls
4662 2727 Pls
4663 2727 Pls
4663 2727 Pls
4663 2726 Pls
4664 2726 Pls
4665 2726 Pls
4666 2726 Pls
4667 2725 Pls
4667 2725 Pls
4668 2725 Pls
4668 2725 Pls
4669 2724 Pls
4669 2724 Pls
4669 2724 Pls
4669 2724 Pls
4669 2723 Pls
4670 2723 Pls
4670 2723 Pls
4670 2722 Pls
4670 2722 Pls
4671 2722 Pls
4672 2722 Pls
4673 2721 Pls
4673 2721 Pls
4673 2721 Pls
4673 2721 Pls
4674 2720 Pls
4675 2720 Pls
4676 2720 Pls
4676 2720 Pls
4676 2719 Pls
4676 2719 Pls
4677 2719 Pls
4678 2719 Pls
4678 2718 Pls
4678 2718 Pls
4678 2718 Pls
4678 2718 Pls
4678 2717 Pls
4679 2717 Pls
4679 2717 Pls
4681 2717 Pls
4681 2716 Pls
4682 2716 Pls
4682 2715 Pls
4682 2715 Pls
4683 2715 Pls
4683 2715 Pls
4685 2714 Pls
4686 2714 Pls
4686 2714 Pls
4686 2713 Pls
4687 2713 Pls
4687 2713 Pls
4687 2713 Pls
4689 2712 Pls
4689 2712 Pls
4689 2712 Pls
4690 2712 Pls
4692 2711 Pls
4692 2711 Pls
4692 2711 Pls
4693 2711 Pls
4694 2710 Pls
4694 2710 Pls
4694 2710 Pls
4694 2710 Pls
4695 2709 Pls
4696 2709 Pls
4696 2709 Pls
4697 2708 Pls
4698 2708 Pls
4699 2708 Pls
4700 2708 Pls
4700 2707 Pls
4701 2707 Pls
4701 2707 Pls
4702 2707 Pls
4702 2706 Pls
4703 2706 Pls
4704 2706 Pls
4705 2706 Pls
4705 2705 Pls
4706 2705 Pls
4707 2705 Pls
4707 2704 Pls
4707 2704 Pls
4708 2704 Pls
4708 2703 Pls
4708 2703 Pls
4708 2702 Pls
4710 2702 Pls
4710 2702 Pls
4711 2701 Pls
4711 2701 Pls
4711 2701 Pls
4712 2701 Pls
4712 2700 Pls
4713 2700 Pls
4713 2700 Pls
4713 2700 Pls
4714 2699 Pls
4715 2699 Pls
4715 2699 Pls
4715 2698 Pls
4717 2698 Pls
4718 2698 Pls
4718 2698 Pls
4718 2697 Pls
4718 2697 Pls
4718 2697 Pls
4719 2697 Pls
4719 2696 Pls
4719 2696 Pls
4719 2696 Pls
4720 2695 Pls
4720 2695 Pls
4721 2695 Pls
4721 2695 Pls
4723 2694 Pls
4723 2694 Pls
4724 2694 Pls
4724 2693 Pls
4724 2693 Pls
4725 2693 Pls
4725 2693 Pls
4726 2692 Pls
4726 2692 Pls
4726 2692 Pls
4728 2691 Pls
4728 2691 Pls
4729 2691 Pls
4729 2691 Pls
4730 2690 Pls
4730 2690 Pls
4730 2690 Pls
4730 2690 Pls
4731 2689 Pls
4731 2689 Pls
4732 2689 Pls
4733 2688 Pls
4733 2688 Pls
4733 2688 Pls
4733 2688 Pls
4733 2687 Pls
4734 2687 Pls
4735 2687 Pls
4735 2686 Pls
4736 2686 Pls
4736 2686 Pls
4736 2686 Pls
4736 2685 Pls
4736 2685 Pls
4736 2685 Pls
4736 2684 Pls
4737 2684 Pls
4738 2684 Pls
4739 2683 Pls
4739 2683 Pls
4739 2683 Pls
4739 2683 Pls
4739 2682 Pls
4740 2682 Pls
4741 2682 Pls
4741 2681 Pls
4742 2681 Pls
4742 2681 Pls
4742 2681 Pls
4743 2680 Pls
4743 2680 Pls
4743 2679 Pls
4743 2679 Pls
4744 2679 Pls
4745 2678 Pls
4745 2678 Pls
4745 2678 Pls
4746 2677 Pls
4746 2677 Pls
4747 2677 Pls
4747 2676 Pls
4747 2676 Pls
4747 2676 Pls
4747 2676 Pls
4748 2675 Pls
4748 2675 Pls
4749 2675 Pls
4750 2674 Pls
4750 2674 Pls
4750 2674 Pls
4750 2673 Pls
4750 2673 Pls
4750 2673 Pls
4751 2672 Pls
4751 2672 Pls
4752 2672 Pls
4753 2671 Pls
4754 2671 Pls
4754 2671 Pls
4754 2670 Pls
4754 2670 Pls
4755 2670 Pls
4755 2670 Pls
4755 2669 Pls
4756 2669 Pls
4756 2669 Pls
4757 2668 Pls
4757 2668 Pls
4757 2668 Pls
4758 2667 Pls
4758 2667 Pls
4759 2667 Pls
4759 2666 Pls
4759 2666 Pls
4759 2666 Pls
4760 2666 Pls
4760 2665 Pls
4761 2665 Pls
4761 2665 Pls
4761 2664 Pls
4761 2664 Pls
4762 2664 Pls
4762 2663 Pls
4763 2663 Pls
4763 2663 Pls
4764 2662 Pls
4764 2662 Pls
4766 2662 Pls
4766 2661 Pls
4767 2661 Pls
4767 2661 Pls
4768 2661 Pls
4768 2660 Pls
4769 2660 Pls
4769 2659 Pls
4770 2659 Pls
4770 2659 Pls
4771 2658 Pls
4771 2658 Pls
4771 2658 Pls
4772 2657 Pls
4773 2657 Pls
4774 2657 Pls
4774 2656 Pls
4775 2656 Pls
4775 2656 Pls
4775 2655 Pls
4778 2655 Pls
4780 2655 Pls
4781 2654 Pls
4781 2654 Pls
4781 2654 Pls
4782 2654 Pls
4782 2653 Pls
4783 2653 Pls
4784 2653 Pls
4785 2652 Pls
4785 2652 Pls
4785 2652 Pls
4786 2651 Pls
4786 2651 Pls
4787 2651 Pls
4787 2650 Pls
4787 2650 Pls
4787 2650 Pls
4788 2649 Pls
4788 2649 Pls
4788 2649 Pls
4788 2648 Pls
4788 2648 Pls
4789 2648 Pls
4790 2647 Pls
4790 2647 Pls
4790 2647 Pls
4791 2646 Pls
4791 2646 Pls
4792 2646 Pls
4793 2645 Pls
4793 2645 Pls
4793 2645 Pls
4794 2644 Pls
4794 2644 Pls
4796 2644 Pls
4796 2643 Pls
4796 2643 Pls
4797 2643 Pls
4798 2642 Pls
4798 2642 Pls
4798 2642 Pls
4798 2641 Pls
4799 2641 Pls
4799 2641 Pls
4801 2640 Pls
4802 2640 Pls
4803 2640 Pls
4806 2639 Pls
4808 2639 Pls
4808 2639 Pls
4809 2638 Pls
4809 2638 Pls
4810 2638 Pls
4811 2637 Pls
4811 2637 Pls
4813 2637 Pls
4815 2636 Pls
4818 2636 Pls
4819 2636 Pls
4819 2635 Pls
4819 2635 Pls
4819 2635 Pls
4821 2634 Pls
4821 2634 Pls
4822 2634 Pls
4822 2633 Pls
4823 2633 Pls
4824 2632 Pls
4825 2632 Pls
4825 2632 Pls
4826 2631 Pls
4826 2631 Pls
4826 2631 Pls
4827 2630 Pls
4827 2630 Pls
4827 2630 Pls
4827 2629 Pls
4830 2629 Pls
4830 2629 Pls
4831 2628 Pls
4831 2628 Pls
4835 2628 Pls
4835 2627 Pls
4835 2627 Pls
4837 2627 Pls
4837 2626 Pls
4838 2626 Pls
4838 2625 Pls
4839 2625 Pls
4839 2625 Pls
4839 2624 Pls
4840 2624 Pls
4840 2624 Pls
4840 2623 Pls
4840 2623 Pls
4840 2623 Pls
4840 2622 Pls
4841 2622 Pls
4841 2622 Pls
4841 2621 Pls
4841 2621 Pls
4842 2620 Pls
4843 2620 Pls
4844 2620 Pls
4845 2619 Pls
4845 2619 Pls
4845 2619 Pls
4846 2618 Pls
4846 2618 Pls
4848 2618 Pls
4848 2617 Pls
4849 2617 Pls
4849 2616 Pls
4850 2616 Pls
4851 2616 Pls
4853 2615 Pls
4853 2615 Pls
4853 2615 Pls
4853 2614 Pls
4853 2614 Pls
4853 2613 Pls
4854 2613 Pls
4855 2613 Pls
4855 2612 Pls
4856 2612 Pls
4856 2612 Pls
4857 2611 Pls
4858 2611 Pls
4858 2610 Pls
4861 2610 Pls
4861 2610 Pls
4861 2609 Pls
4862 2609 Pls
4865 2609 Pls
4865 2608 Pls
4866 2608 Pls
4867 2607 Pls
4869 2607 Pls
4869 2607 Pls
4870 2606 Pls
4872 2606 Pls
4872 2606 Pls
4872 2605 Pls
4873 2605 Pls
4873 2604 Pls
4873 2604 Pls
4874 2604 Pls
4874 2603 Pls
4874 2603 Pls
4874 2603 Pls
4874 2602 Pls
4875 2602 Pls
4876 2601 Pls
4876 2601 Pls
4877 2601 Pls
4877 2600 Pls
4878 2600 Pls
4879 2599 Pls
4879 2599 Pls
4879 2599 Pls
4880 2598 Pls
4880 2598 Pls
4880 2597 Pls
4880 2597 Pls
4881 2597 Pls
4882 2596 Pls
4882 2596 Pls
4882 2595 Pls
4883 2595 Pls
4883 2595 Pls
4883 2594 Pls
4883 2594 Pls
4883 2593 Pls
4884 2593 Pls
4884 2593 Pls
4885 2592 Pls
4886 2592 Pls
4887 2592 Pls
4887 2591 Pls
4888 2591 Pls
4888 2590 Pls
4889 2590 Pls
4889 2589 Pls
4891 2589 Pls
4891 2589 Pls
4892 2588 Pls
4893 2588 Pls
4893 2587 Pls
4893 2587 Pls
4893 2587 Pls
4894 2586 Pls
4894 2586 Pls
4894 2585 Pls
4895 2585 Pls
4895 2585 Pls
4895 2584 Pls
4895 2584 Pls
4896 2583 Pls
4897 2583 Pls
4898 2583 Pls
4898 2582 Pls
4898 2582 Pls
4900 2581 Pls
4901 2581 Pls
4903 2580 Pls
4903 2580 Pls
4904 2580 Pls
4905 2579 Pls
4907 2579 Pls
4909 2578 Pls
4910 2578 Pls
4910 2578 Pls
4910 2577 Pls
4912 2577 Pls
4912 2576 Pls
4912 2576 Pls
4913 2575 Pls
4914 2575 Pls
4914 2575 Pls
4916 2574 Pls
4917 2574 Pls
4919 2573 Pls
4920 2573 Pls
4920 2572 Pls
4921 2572 Pls
4922 2572 Pls
4922 2571 Pls
4923 2571 Pls
4923 2570 Pls
4923 2570 Pls
4923 2569 Pls
4924 2569 Pls
4925 2569 Pls
4926 2568 Pls
4927 2568 Pls
4929 2567 Pls
4930 2567 Pls
4930 2566 Pls
4931 2566 Pls
4931 2566 Pls
4931 2565 Pls
4932 2565 Pls
4932 2564 Pls
4933 2564 Pls
4933 2563 Pls
4935 2562 Pls
4939 2562 Pls
4940 2562 Pls
4940 2561 Pls
4940 2561 Pls
4941 2560 Pls
4941 2560 Pls
4942 2559 Pls
4942 2559 Pls
4943 2558 Pls
4943 2558 Pls
4943 2558 Pls
4944 2557 Pls
4944 2557 Pls
4945 2556 Pls
4945 2556 Pls
4946 2555 Pls
4947 2554 Pls
4948 2554 Pls
4949 2553 Pls
4951 2553 Pls
4952 2552 Pls
4953 2552 Pls
4954 2552 Pls
4956 2551 Pls
4957 2551 Pls
4957 2550 Pls
4957 2550 Pls
4957 2549 Pls
4957 2549 Pls
4957 2548 Pls
4958 2548 Pls
4958 2547 Pls
4958 2547 Pls
4959 2546 Pls
4959 2546 Pls
4959 2546 Pls
4959 2545 Pls
4959 2545 Pls
4959 2544 Pls
4959 2544 Pls
4959 2543 Pls
4960 2543 Pls
4960 2542 Pls
4960 2542 Pls
4961 2541 Pls
4961 2541 Pls
4961 2540 Pls
4961 2540 Pls
4962 2539 Pls
4962 2539 Pls
4962 2538 Pls
4962 2537 Pls
4962 2537 Pls
4962 2536 Pls
4962 2536 Pls
4962 2535 Pls
4963 2535 Pls
4963 2534 Pls
4963 2534 Pls
4963 2533 Pls
4963 2533 Pls
4964 2533 Pls
4964 2532 Pls
4964 2532 Pls
4964 2531 Pls
4964 2531 Pls
4965 2530 Pls
4965 2530 Pls
4965 2529 Pls
4965 2529 Pls
4965 2528 Pls
4965 2528 Pls
4965 2527 Pls
4965 2527 Pls
4966 2526 Pls
4966 2526 Pls
4966 2525 Pls
4966 2525 Pls
4966 2524 Pls
4967 2524 Pls
4967 2523 Pls
4967 2522 Pls
4967 2522 Pls
4967 2521 Pls
4967 2521 Pls
4967 2520 Pls
4967 2520 Pls
4968 2519 Pls
4968 2519 Pls
4968 2518 Pls
4968 2518 Pls
4968 2517 Pls
4968 2517 Pls
4968 2516 Pls
4969 2516 Pls
4969 2515 Pls
4969 2515 Pls
4969 2514 Pls
4969 2514 Pls
4969 2513 Pls
4969 2512 Pls
4969 2512 Pls
4969 2511 Pls
4969 2510 Pls
4970 2510 Pls
4970 2509 Pls
4970 2509 Pls
4970 2508 Pls
4970 2508 Pls
4970 2507 Pls
4970 2507 Pls
4970 2506 Pls
4970 2506 Pls
4970 2505 Pls
4971 2505 Pls
4971 2504 Pls
4971 2503 Pls
4971 2502 Pls
4971 2502 Pls
4971 2501 Pls
4971 2501 Pls
4971 2500 Pls
4972 2500 Pls
4972 2499 Pls
4972 2499 Pls
4972 2498 Pls
4972 2497 Pls
4972 2497 Pls
4972 2496 Pls
4973 2496 Pls
4973 2495 Pls
4973 2495 Pls
4973 2494 Pls
4973 2493 Pls
4973 2493 Pls
4974 2492 Pls
4974 2492 Pls
4974 2491 Pls
4974 2491 Pls
4975 2490 Pls
4975 2490 Pls
4975 2489 Pls
4975 2488 Pls
4975 2488 Pls
4975 2487 Pls
4976 2487 Pls
4976 2486 Pls
4976 2485 Pls
4976 2485 Pls
4977 2484 Pls
4977 2483 Pls
4977 2483 Pls
4977 2482 Pls
4977 2481 Pls
4977 2481 Pls
4977 2480 Pls
4978 2480 Pls
4978 2479 Pls
4978 2478 Pls
4979 2478 Pls
4979 2477 Pls
4979 2477 Pls
4980 2476 Pls
4980 2475 Pls
4980 2475 Pls
4980 2474 Pls
4980 2474 Pls
4981 2473 Pls
4981 2472 Pls
4981 2472 Pls
4981 2471 Pls
4981 2471 Pls
4981 2470 Pls
4982 2469 Pls
4982 2469 Pls
4982 2468 Pls
4982 2467 Pls
4982 2467 Pls
4982 2466 Pls
4982 2466 Pls
4983 2465 Pls
4983 2464 Pls
4983 2464 Pls
4983 2463 Pls
4984 2462 Pls
4985 2462 Pls
4985 2461 Pls
4985 2461 Pls
4985 2460 Pls
4985 2458 Pls
4985 2457 Pls
4985 2456 Pls
4985 2455 Pls
4985 2455 Pls
4985 2454 Pls
4985 2454 Pls
4986 2453 Pls
4986 2452 Pls
4986 2452 Pls
4986 2451 Pls
4986 2450 Pls
4987 2450 Pls
4987 2449 Pls
4988 2448 Pls
4989 2448 Pls
4989 2447 Pls
4990 2446 Pls
4990 2446 Pls
4991 2445 Pls
4992 2444 Pls
4993 2444 Pls
4993 2443 Pls
4994 2442 Pls
4994 2442 Pls
4995 2441 Pls
4996 2440 Pls
4997 2440 Pls
4998 2439 Pls
4998 2438 Pls
4998 2437 Pls
4998 2437 Pls
5000 2436 Pls
5000 2435 Pls
5000 2435 Pls
5000 2434 Pls
5001 2433 Pls
5002 2433 Pls
5005 2432 Pls
5005 2431 Pls
5005 2430 Pls
5006 2430 Pls
5006 2429 Pls
5007 2428 Pls
5007 2428 Pls
5008 2427 Pls
5008 2426 Pls
5008 2426 Pls
5009 2425 Pls
5009 2424 Pls
5012 2423 Pls
5012 2423 Pls
5014 2422 Pls
5014 2421 Pls
5015 2420 Pls
5015 2420 Pls
5016 2419 Pls
5016 2418 Pls
5016 2418 Pls
5016 2417 Pls
5017 2416 Pls
5017 2415 Pls
5020 2415 Pls
5021 2414 Pls
5021 2413 Pls
5022 2412 Pls
5022 2412 Pls
5022 2411 Pls
5023 2410 Pls
5024 2409 Pls
5024 2409 Pls
5027 2408 Pls
5027 2407 Pls
5029 2406 Pls
5031 2405 Pls
5032 2405 Pls
5035 2404 Pls
5035 2403 Pls
5037 2402 Pls
5037 2402 Pls
5038 2401 Pls
5039 2400 Pls
5039 2399 Pls
5041 2398 Pls
5041 2398 Pls
5042 2397 Pls
5042 2396 Pls
5046 2395 Pls
5047 2394 Pls
5047 2394 Pls
5047 2393 Pls
5051 2392 Pls
5052 2391 Pls
5053 2390 Pls
5053 2390 Pls
5053 2389 Pls
5055 2388 Pls
5056 2387 Pls
5057 2386 Pls
5057 2386 Pls
5057 2385 Pls
5061 2384 Pls
5061 2383 Pls
5062 2382 Pls
5063 2381 Pls
5066 2381 Pls
5067 2380 Pls
5068 2379 Pls
5068 2378 Pls
5068 2377 Pls
5068 2376 Pls
5069 2375 Pls
5069 2375 Pls
5070 2374 Pls
5071 2373 Pls
5075 2372 Pls
5080 2371 Pls
5081 2370 Pls
5084 2369 Pls
5086 2369 Pls
5089 2368 Pls
5090 2367 Pls
5091 2366 Pls
5093 2365 Pls
5094 2364 Pls
5094 2363 Pls
5094 2362 Pls
5095 2361 Pls
5096 2361 Pls
5096 2360 Pls
5097 2359 Pls
5099 2358 Pls
5100 2357 Pls
5102 2356 Pls
5103 2355 Pls
5105 2353 Pls
5106 2352 Pls
5106 2351 Pls
5107 2350 Pls
5108 2349 Pls
5109 2349 Pls
5111 2348 Pls
5113 2347 Pls
5114 2346 Pls
5116 2345 Pls
5117 2344 Pls
5117 2343 Pls
5118 2342 Pls
5123 2341 Pls
5124 2340 Pls
5124 2339 Pls
5124 2338 Pls
5125 2337 Pls
5126 2336 Pls
5126 2335 Pls
5126 2334 Pls
5128 2333 Pls
5130 2332 Pls
5136 2331 Pls
5137 2330 Pls
5138 2329 Pls
5138 2328 Pls
5141 2327 Pls
5142 2326 Pls
5143 2325 Pls
5145 2324 Pls
5147 2323 Pls
5152 2322 Pls
5154 2321 Pls
5154 2320 Pls
5157 2319 Pls
5157 2318 Pls
5158 2317 Pls
5163 2316 Pls
5164 2315 Pls
5164 2314 Pls
5166 2313 Pls
5166 2311 Pls
5168 2310 Pls
5169 2309 Pls
5169 2308 Pls
5170 2307 Pls
5174 2306 Pls
5174 2305 Pls
5177 2304 Pls
5178 2303 Pls
5181 2302 Pls
5182 2301 Pls
5184 2299 Pls
5185 2298 Pls
5187 2297 Pls
5187 2296 Pls
5187 2295 Pls
5188 2294 Pls
5188 2293 Pls
5190 2291 Pls
5192 2290 Pls
5193 2289 Pls
5193 2288 Pls
5194 2287 Pls
5195 2286 Pls
5196 2285 Pls
5198 2283 Pls
5198 2282 Pls
5198 2281 Pls
5199 2280 Pls
5200 2279 Pls
5200 2277 Pls
5203 2276 Pls
5206 2275 Pls
5206 2274 Pls
5207 2273 Pls
5208 2271 Pls
5211 2270 Pls
5215 2269 Pls
5217 2268 Pls
5220 2266 Pls
5220 2265 Pls
5220 2264 Pls
5220 2263 Pls
5221 2261 Pls
5226 2260 Pls
5229 2259 Pls
5230 2257 Pls
5230 2256 Pls
5230 2255 Pls
5232 2253 Pls
5234 2252 Pls
5235 2251 Pls
5235 2249 Pls
5236 2248 Pls
5238 2247 Pls
5239 2245 Pls
5245 2244 Pls
5248 2243 Pls
5250 2241 Pls
5250 2240 Pls
5253 2239 Pls
5254 2237 Pls
5254 2236 Pls
5255 2234 Pls
5257 2233 Pls
5259 2232 Pls
5262 2230 Pls
5263 2229 Pls
5267 2227 Pls
5268 2226 Pls
5268 2224 Pls
5269 2223 Pls
5269 2222 Pls
5269 2220 Pls
5271 2219 Pls
5272 2217 Pls
5272 2216 Pls
5274 2214 Pls
5274 2213 Pls
5275 2211 Pls
5276 2210 Pls
5277 2208 Pls
5283 2206 Pls
5284 2205 Pls
5288 2203 Pls
5288 2202 Pls
5293 2200 Pls
5295 2199 Pls
5295 2197 Pls
5296 2195 Pls
5298 2194 Pls
5301 2192 Pls
5302 2191 Pls
5303 2189 Pls
5305 2187 Pls
5306 2186 Pls
5307 2184 Pls
5307 2182 Pls
5309 2181 Pls
5309 2179 Pls
5311 2177 Pls
5317 2175 Pls
5317 2174 Pls
5323 2172 Pls
5325 2170 Pls
5327 2168 Pls
5327 2167 Pls
5328 2165 Pls
5329 2163 Pls
5335 2161 Pls
5342 2159 Pls
5344 2158 Pls
5348 2156 Pls
5354 2154 Pls
5360 2152 Pls
5361 2150 Pls
5364 2148 Pls
5365 2146 Pls
5371 2144 Pls
5374 2143 Pls
5374 2141 Pls
5376 2139 Pls
5384 2137 Pls
5385 2135 Pls
5385 2133 Pls
5385 2131 Pls
5387 2129 Pls
5391 2127 Pls
5392 2125 Pls
5397 2122 Pls
5401 2120 Pls
5402 2118 Pls
5408 2116 Pls
5413 2114 Pls
5416 2112 Pls
5417 2110 Pls
5421 2108 Pls
5422 2105 Pls
5425 2103 Pls
5426 2101 Pls
5428 2099 Pls
5428 2096 Pls
5431 2094 Pls
5433 2092 Pls
5433 2089 Pls
5440 2087 Pls
5447 2085 Pls
5448 2082 Pls
5448 2080 Pls
5448 2078 Pls
5451 2075 Pls
5454 2073 Pls
5454 2070 Pls
5455 2068 Pls
5455 2065 Pls
5462 2063 Pls
5462 2060 Pls
5464 2057 Pls
5470 2055 Pls
5473 2052 Pls
5478 2049 Pls
5480 2047 Pls
5490 2044 Pls
5491 2041 Pls
5492 2038 Pls
5493 2036 Pls
5504 2033 Pls
5506 2030 Pls
5511 2027 Pls
5521 2024 Pls
5526 2021 Pls
5529 2018 Pls
5532 2015 Pls
5533 2012 Pls
5536 2009 Pls
5539 2006 Pls
5542 2003 Pls
5543 2000 Pls
5544 1996 Pls
5550 1993 Pls
5550 1990 Pls
5556 1987 Pls
5556 1983 Pls
5563 1980 Pls
5571 1976 Pls
5571 1973 Pls
5578 1969 Pls
5581 1966 Pls
5581 1962 Pls
5583 1958 Pls
5583 1955 Pls
5587 1951 Pls
5588 1947 Pls
5589 1943 Pls
5590 1939 Pls
5594 1935 Pls
5596 1931 Pls
5598 1927 Pls
5599 1923 Pls
5601 1919 Pls
5608 1914 Pls
5620 1910 Pls
5622 1906 Pls
5634 1901 Pls
5636 1897 Pls
5637 1892 Pls
5640 1887 Pls
5663 1883 Pls
5674 1878 Pls
5696 1873 Pls
5697 1868 Pls
5700 1863 Pls
5702 1857 Pls
5703 1852 Pls
5716 1847 Pls
5723 1841 Pls
5726 1835 Pls
5729 1830 Pls
5732 1824 Pls
5732 1818 Pls
5740 1812 Pls
5752 1805 Pls
5753 1799 Pls
5762 1792 Pls
5770 1786 Pls
5775 1779 Pls
5783 1772 Pls
5788 1765 Pls
5789 1757 Pls
5789 1750 Pls
5799 1742 Pls
5806 1734 Pls
5810 1726 Pls
5822 1717 Pls
5824 1708 Pls
5826 1699 Pls
5844 1690 Pls
5848 1680 Pls
5850 1670 Pls
5850 1660 Pls
5856 1649 Pls
5858 1638 Pls
5876 1626 Pls
5969 1614 Pls
5984 1602 Pls
5986 1588 Pls
6011 1574 Pls
6039 1560 Pls
6070 1544 Pls
6073 1528 Pls
6113 1511 Pls
6201 1492 Pls
6213 1473 Pls
6235 1452 Pls
6257 1429 Pls
6272 1404 Pls
6280 1377 Pls
6334 1347 Pls
6334 1313 Pls
6344 1275 Pls
6417 1231 Pls
6447 1180 Pls
6507 1116 Pls
6529 1034 Pls
6664 919 Pls
6781 721 Pls
% End plot #1
2.000 UL
LTb
LCb setrgbcolor
1.000 UL
LTB
LCb setrgbcolor
966 4871 N
966 280 L
5981 0 V
0 4591 V
-5981 0 V
Z stroke
1.000 UP
1.000 UL
LTb
LCb setrgbcolor
stroke
grestore
end
showpage
%%Trailer
%%DocumentFonts: Helvetica
%%Pages: 1
