%!PS-Adobe-2.0
%%Title: packets-uv-s-add-packets-uv-dist-loglog.eps
%%Creator: gnuplot 5.0 patchlevel 3
%%CreationDate: Mon May 29 11:08:45 2017
%%DocumentFonts: (atend)
%%BoundingBox: 50 50 554 770
%%Orientation: Landscape
%%Pages: (atend)
%%EndComments
%%BeginProlog
/gnudict 256 dict def
gnudict begin
%
% The following true/false flags may be edited by hand if desired.
% The unit line width and grayscale image gamma correction may also be changed.
%
/Color true def
/Blacktext false def
/Solid false def
/Dashlength 1 def
/Landscape true def
/Level1 false def
/Level3 false def
/Rounded false def
/ClipToBoundingBox false def
/SuppressPDFMark false def
/TransparentPatterns false def
/gnulinewidth 5.000 def
/userlinewidth gnulinewidth def
/Gamma 1.0 def
/BackgroundColor {-1.000 -1.000 -1.000} def
%
/vshift -46 def
/dl1 {
  10.0 Dashlength userlinewidth gnulinewidth div mul mul mul
  Rounded { currentlinewidth 0.75 mul sub dup 0 le { pop 0.01 } if } if
} def
/dl2 {
  10.0 Dashlength userlinewidth gnulinewidth div mul mul mul
  Rounded { currentlinewidth 0.75 mul add } if
} def
/hpt_ 31.5 def
/vpt_ 31.5 def
/hpt hpt_ def
/vpt vpt_ def
/doclip {
  ClipToBoundingBox {
    newpath 50 50 moveto 554 50 lineto 554 770 lineto 50 770 lineto closepath
    clip
  } if
} def
%
% Gnuplot Prolog Version 5.1 (Oct 2015)
%
%/SuppressPDFMark true def
%
/M {moveto} bind def
/L {lineto} bind def
/R {rmoveto} bind def
/V {rlineto} bind def
/N {newpath moveto} bind def
/Z {closepath} bind def
/C {setrgbcolor} bind def
/f {rlineto fill} bind def
/g {setgray} bind def
/Gshow {show} def   % May be redefined later in the file to support UTF-8
/vpt2 vpt 2 mul def
/hpt2 hpt 2 mul def
/Lshow {currentpoint stroke M 0 vshift R 
	Blacktext {gsave 0 setgray textshow grestore} {textshow} ifelse} def
/Rshow {currentpoint stroke M dup stringwidth pop neg vshift R
	Blacktext {gsave 0 setgray textshow grestore} {textshow} ifelse} def
/Cshow {currentpoint stroke M dup stringwidth pop -2 div vshift R 
	Blacktext {gsave 0 setgray textshow grestore} {textshow} ifelse} def
/UP {dup vpt_ mul /vpt exch def hpt_ mul /hpt exch def
  /hpt2 hpt 2 mul def /vpt2 vpt 2 mul def} def
/DL {Color {setrgbcolor Solid {pop []} if 0 setdash}
 {pop pop pop 0 setgray Solid {pop []} if 0 setdash} ifelse} def
/BL {stroke userlinewidth 2 mul setlinewidth
	Rounded {1 setlinejoin 1 setlinecap} if} def
/AL {stroke userlinewidth 2 div setlinewidth
	Rounded {1 setlinejoin 1 setlinecap} if} def
/UL {dup gnulinewidth mul /userlinewidth exch def
	dup 1 lt {pop 1} if 10 mul /udl exch def} def
/PL {stroke userlinewidth setlinewidth
	Rounded {1 setlinejoin 1 setlinecap} if} def
3.8 setmiterlimit
% Classic Line colors (version 5.0)
/LCw {1 1 1} def
/LCb {0 0 0} def
/LCa {0 0 0} def
/LC0 {1 0 0} def
/LC1 {0 1 0} def
/LC2 {0 0 1} def
/LC3 {1 0 1} def
/LC4 {0 1 1} def
/LC5 {1 1 0} def
/LC6 {0 0 0} def
/LC7 {1 0.3 0} def
/LC8 {0.5 0.5 0.5} def
% Default dash patterns (version 5.0)
/LTB {BL [] LCb DL} def
/LTw {PL [] 1 setgray} def
/LTb {PL [] LCb DL} def
/LTa {AL [1 udl mul 2 udl mul] 0 setdash LCa setrgbcolor} def
/LT0 {PL [] LC0 DL} def
/LT1 {PL [2 dl1 3 dl2] LC1 DL} def
/LT2 {PL [1 dl1 1.5 dl2] LC2 DL} def
/LT3 {PL [6 dl1 2 dl2 1 dl1 2 dl2] LC3 DL} def
/LT4 {PL [1 dl1 2 dl2 6 dl1 2 dl2 1 dl1 2 dl2] LC4 DL} def
/LT5 {PL [4 dl1 2 dl2] LC5 DL} def
/LT6 {PL [1.5 dl1 1.5 dl2 1.5 dl1 1.5 dl2 1.5 dl1 6 dl2] LC6 DL} def
/LT7 {PL [3 dl1 3 dl2 1 dl1 3 dl2] LC7 DL} def
/LT8 {PL [2 dl1 2 dl2 2 dl1 6 dl2] LC8 DL} def
/SL {[] 0 setdash} def
/Pnt {stroke [] 0 setdash gsave 1 setlinecap M 0 0 V stroke grestore} def
/Dia {stroke [] 0 setdash 2 copy vpt add M
  hpt neg vpt neg V hpt vpt neg V
  hpt vpt V hpt neg vpt V closepath stroke
  Pnt} def
/Pls {stroke [] 0 setdash vpt sub M 0 vpt2 V
  currentpoint stroke M
  hpt neg vpt neg R hpt2 0 V stroke
 } def
/Box {stroke [] 0 setdash 2 copy exch hpt sub exch vpt add M
  0 vpt2 neg V hpt2 0 V 0 vpt2 V
  hpt2 neg 0 V closepath stroke
  Pnt} def
/Crs {stroke [] 0 setdash exch hpt sub exch vpt add M
  hpt2 vpt2 neg V currentpoint stroke M
  hpt2 neg 0 R hpt2 vpt2 V stroke} def
/TriU {stroke [] 0 setdash 2 copy vpt 1.12 mul add M
  hpt neg vpt -1.62 mul V
  hpt 2 mul 0 V
  hpt neg vpt 1.62 mul V closepath stroke
  Pnt} def
/Star {2 copy Pls Crs} def
/BoxF {stroke [] 0 setdash exch hpt sub exch vpt add M
  0 vpt2 neg V hpt2 0 V 0 vpt2 V
  hpt2 neg 0 V closepath fill} def
/TriUF {stroke [] 0 setdash vpt 1.12 mul add M
  hpt neg vpt -1.62 mul V
  hpt 2 mul 0 V
  hpt neg vpt 1.62 mul V closepath fill} def
/TriD {stroke [] 0 setdash 2 copy vpt 1.12 mul sub M
  hpt neg vpt 1.62 mul V
  hpt 2 mul 0 V
  hpt neg vpt -1.62 mul V closepath stroke
  Pnt} def
/TriDF {stroke [] 0 setdash vpt 1.12 mul sub M
  hpt neg vpt 1.62 mul V
  hpt 2 mul 0 V
  hpt neg vpt -1.62 mul V closepath fill} def
/DiaF {stroke [] 0 setdash vpt add M
  hpt neg vpt neg V hpt vpt neg V
  hpt vpt V hpt neg vpt V closepath fill} def
/Pent {stroke [] 0 setdash 2 copy gsave
  translate 0 hpt M 4 {72 rotate 0 hpt L} repeat
  closepath stroke grestore Pnt} def
/PentF {stroke [] 0 setdash gsave
  translate 0 hpt M 4 {72 rotate 0 hpt L} repeat
  closepath fill grestore} def
/Circle {stroke [] 0 setdash 2 copy
  hpt 0 360 arc stroke Pnt} def
/CircleF {stroke [] 0 setdash hpt 0 360 arc fill} def
/C0 {BL [] 0 setdash 2 copy moveto vpt 90 450 arc} bind def
/C1 {BL [] 0 setdash 2 copy moveto
	2 copy vpt 0 90 arc closepath fill
	vpt 0 360 arc closepath} bind def
/C2 {BL [] 0 setdash 2 copy moveto
	2 copy vpt 90 180 arc closepath fill
	vpt 0 360 arc closepath} bind def
/C3 {BL [] 0 setdash 2 copy moveto
	2 copy vpt 0 180 arc closepath fill
	vpt 0 360 arc closepath} bind def
/C4 {BL [] 0 setdash 2 copy moveto
	2 copy vpt 180 270 arc closepath fill
	vpt 0 360 arc closepath} bind def
/C5 {BL [] 0 setdash 2 copy moveto
	2 copy vpt 0 90 arc
	2 copy moveto
	2 copy vpt 180 270 arc closepath fill
	vpt 0 360 arc} bind def
/C6 {BL [] 0 setdash 2 copy moveto
	2 copy vpt 90 270 arc closepath fill
	vpt 0 360 arc closepath} bind def
/C7 {BL [] 0 setdash 2 copy moveto
	2 copy vpt 0 270 arc closepath fill
	vpt 0 360 arc closepath} bind def
/C8 {BL [] 0 setdash 2 copy moveto
	2 copy vpt 270 360 arc closepath fill
	vpt 0 360 arc closepath} bind def
/C9 {BL [] 0 setdash 2 copy moveto
	2 copy vpt 270 450 arc closepath fill
	vpt 0 360 arc closepath} bind def
/C10 {BL [] 0 setdash 2 copy 2 copy moveto vpt 270 360 arc closepath fill
	2 copy moveto
	2 copy vpt 90 180 arc closepath fill
	vpt 0 360 arc closepath} bind def
/C11 {BL [] 0 setdash 2 copy moveto
	2 copy vpt 0 180 arc closepath fill
	2 copy moveto
	2 copy vpt 270 360 arc closepath fill
	vpt 0 360 arc closepath} bind def
/C12 {BL [] 0 setdash 2 copy moveto
	2 copy vpt 180 360 arc closepath fill
	vpt 0 360 arc closepath} bind def
/C13 {BL [] 0 setdash 2 copy moveto
	2 copy vpt 0 90 arc closepath fill
	2 copy moveto
	2 copy vpt 180 360 arc closepath fill
	vpt 0 360 arc closepath} bind def
/C14 {BL [] 0 setdash 2 copy moveto
	2 copy vpt 90 360 arc closepath fill
	vpt 0 360 arc} bind def
/C15 {BL [] 0 setdash 2 copy vpt 0 360 arc closepath fill
	vpt 0 360 arc closepath} bind def
/Rec {newpath 4 2 roll moveto 1 index 0 rlineto 0 exch rlineto
	neg 0 rlineto closepath} bind def
/Square {dup Rec} bind def
/Bsquare {vpt sub exch vpt sub exch vpt2 Square} bind def
/S0 {BL [] 0 setdash 2 copy moveto 0 vpt rlineto BL Bsquare} bind def
/S1 {BL [] 0 setdash 2 copy vpt Square fill Bsquare} bind def
/S2 {BL [] 0 setdash 2 copy exch vpt sub exch vpt Square fill Bsquare} bind def
/S3 {BL [] 0 setdash 2 copy exch vpt sub exch vpt2 vpt Rec fill Bsquare} bind def
/S4 {BL [] 0 setdash 2 copy exch vpt sub exch vpt sub vpt Square fill Bsquare} bind def
/S5 {BL [] 0 setdash 2 copy 2 copy vpt Square fill
	exch vpt sub exch vpt sub vpt Square fill Bsquare} bind def
/S6 {BL [] 0 setdash 2 copy exch vpt sub exch vpt sub vpt vpt2 Rec fill Bsquare} bind def
/S7 {BL [] 0 setdash 2 copy exch vpt sub exch vpt sub vpt vpt2 Rec fill
	2 copy vpt Square fill Bsquare} bind def
/S8 {BL [] 0 setdash 2 copy vpt sub vpt Square fill Bsquare} bind def
/S9 {BL [] 0 setdash 2 copy vpt sub vpt vpt2 Rec fill Bsquare} bind def
/S10 {BL [] 0 setdash 2 copy vpt sub vpt Square fill 2 copy exch vpt sub exch vpt Square fill
	Bsquare} bind def
/S11 {BL [] 0 setdash 2 copy vpt sub vpt Square fill 2 copy exch vpt sub exch vpt2 vpt Rec fill
	Bsquare} bind def
/S12 {BL [] 0 setdash 2 copy exch vpt sub exch vpt sub vpt2 vpt Rec fill Bsquare} bind def
/S13 {BL [] 0 setdash 2 copy exch vpt sub exch vpt sub vpt2 vpt Rec fill
	2 copy vpt Square fill Bsquare} bind def
/S14 {BL [] 0 setdash 2 copy exch vpt sub exch vpt sub vpt2 vpt Rec fill
	2 copy exch vpt sub exch vpt Square fill Bsquare} bind def
/S15 {BL [] 0 setdash 2 copy Bsquare fill Bsquare} bind def
/D0 {gsave translate 45 rotate 0 0 S0 stroke grestore} bind def
/D1 {gsave translate 45 rotate 0 0 S1 stroke grestore} bind def
/D2 {gsave translate 45 rotate 0 0 S2 stroke grestore} bind def
/D3 {gsave translate 45 rotate 0 0 S3 stroke grestore} bind def
/D4 {gsave translate 45 rotate 0 0 S4 stroke grestore} bind def
/D5 {gsave translate 45 rotate 0 0 S5 stroke grestore} bind def
/D6 {gsave translate 45 rotate 0 0 S6 stroke grestore} bind def
/D7 {gsave translate 45 rotate 0 0 S7 stroke grestore} bind def
/D8 {gsave translate 45 rotate 0 0 S8 stroke grestore} bind def
/D9 {gsave translate 45 rotate 0 0 S9 stroke grestore} bind def
/D10 {gsave translate 45 rotate 0 0 S10 stroke grestore} bind def
/D11 {gsave translate 45 rotate 0 0 S11 stroke grestore} bind def
/D12 {gsave translate 45 rotate 0 0 S12 stroke grestore} bind def
/D13 {gsave translate 45 rotate 0 0 S13 stroke grestore} bind def
/D14 {gsave translate 45 rotate 0 0 S14 stroke grestore} bind def
/D15 {gsave translate 45 rotate 0 0 S15 stroke grestore} bind def
/DiaE {stroke [] 0 setdash vpt add M
  hpt neg vpt neg V hpt vpt neg V
  hpt vpt V hpt neg vpt V closepath stroke} def
/BoxE {stroke [] 0 setdash exch hpt sub exch vpt add M
  0 vpt2 neg V hpt2 0 V 0 vpt2 V
  hpt2 neg 0 V closepath stroke} def
/TriUE {stroke [] 0 setdash vpt 1.12 mul add M
  hpt neg vpt -1.62 mul V
  hpt 2 mul 0 V
  hpt neg vpt 1.62 mul V closepath stroke} def
/TriDE {stroke [] 0 setdash vpt 1.12 mul sub M
  hpt neg vpt 1.62 mul V
  hpt 2 mul 0 V
  hpt neg vpt -1.62 mul V closepath stroke} def
/PentE {stroke [] 0 setdash gsave
  translate 0 hpt M 4 {72 rotate 0 hpt L} repeat
  closepath stroke grestore} def
/CircE {stroke [] 0 setdash 
  hpt 0 360 arc stroke} def
/Opaque {gsave closepath 1 setgray fill grestore 0 setgray closepath} def
/DiaW {stroke [] 0 setdash vpt add M
  hpt neg vpt neg V hpt vpt neg V
  hpt vpt V hpt neg vpt V Opaque stroke} def
/BoxW {stroke [] 0 setdash exch hpt sub exch vpt add M
  0 vpt2 neg V hpt2 0 V 0 vpt2 V
  hpt2 neg 0 V Opaque stroke} def
/TriUW {stroke [] 0 setdash vpt 1.12 mul add M
  hpt neg vpt -1.62 mul V
  hpt 2 mul 0 V
  hpt neg vpt 1.62 mul V Opaque stroke} def
/TriDW {stroke [] 0 setdash vpt 1.12 mul sub M
  hpt neg vpt 1.62 mul V
  hpt 2 mul 0 V
  hpt neg vpt -1.62 mul V Opaque stroke} def
/PentW {stroke [] 0 setdash gsave
  translate 0 hpt M 4 {72 rotate 0 hpt L} repeat
  Opaque stroke grestore} def
/CircW {stroke [] 0 setdash 
  hpt 0 360 arc Opaque stroke} def
/BoxFill {gsave Rec 1 setgray fill grestore} def
/Density {
  /Fillden exch def
  currentrgbcolor
  /ColB exch def /ColG exch def /ColR exch def
  /ColR ColR Fillden mul Fillden sub 1 add def
  /ColG ColG Fillden mul Fillden sub 1 add def
  /ColB ColB Fillden mul Fillden sub 1 add def
  ColR ColG ColB setrgbcolor} def
/BoxColFill {gsave Rec PolyFill} def
/PolyFill {gsave Density fill grestore grestore} def
/h {rlineto rlineto rlineto gsave closepath fill grestore} bind def
%
% PostScript Level 1 Pattern Fill routine for rectangles
% Usage: x y w h s a XX PatternFill
%	x,y = lower left corner of box to be filled
%	w,h = width and height of box
%	  a = angle in degrees between lines and x-axis
%	 XX = 0/1 for no/yes cross-hatch
%
/PatternFill {gsave /PFa [ 9 2 roll ] def
  PFa 0 get PFa 2 get 2 div add PFa 1 get PFa 3 get 2 div add translate
  PFa 2 get -2 div PFa 3 get -2 div PFa 2 get PFa 3 get Rec
  TransparentPatterns {} {gsave 1 setgray fill grestore} ifelse
  clip
  currentlinewidth 0.5 mul setlinewidth
  /PFs PFa 2 get dup mul PFa 3 get dup mul add sqrt def
  0 0 M PFa 5 get rotate PFs -2 div dup translate
  0 1 PFs PFa 4 get div 1 add floor cvi
	{PFa 4 get mul 0 M 0 PFs V} for
  0 PFa 6 get ne {
	0 1 PFs PFa 4 get div 1 add floor cvi
	{PFa 4 get mul 0 2 1 roll M PFs 0 V} for
 } if
  stroke grestore} def
%
/languagelevel where
 {pop languagelevel} {1} ifelse
dup 2 lt
	{/InterpretLevel1 true def
	 /InterpretLevel3 false def}
	{/InterpretLevel1 Level1 def
	 2 gt
	    {/InterpretLevel3 Level3 def}
	    {/InterpretLevel3 false def}
	 ifelse }
 ifelse
%
% PostScript level 2 pattern fill definitions
%
/Level2PatternFill {
/Tile8x8 {/PaintType 2 /PatternType 1 /TilingType 1 /BBox [0 0 8 8] /XStep 8 /YStep 8}
	bind def
/KeepColor {currentrgbcolor [/Pattern /DeviceRGB] setcolorspace} bind def
<< Tile8x8
 /PaintProc {0.5 setlinewidth pop 0 0 M 8 8 L 0 8 M 8 0 L stroke} 
>> matrix makepattern
/Pat1 exch def
<< Tile8x8
 /PaintProc {0.5 setlinewidth pop 0 0 M 8 8 L 0 8 M 8 0 L stroke
	0 4 M 4 8 L 8 4 L 4 0 L 0 4 L stroke}
>> matrix makepattern
/Pat2 exch def
<< Tile8x8
 /PaintProc {0.5 setlinewidth pop 0 0 M 0 8 L
	8 8 L 8 0 L 0 0 L fill}
>> matrix makepattern
/Pat3 exch def
<< Tile8x8
 /PaintProc {0.5 setlinewidth pop -4 8 M 8 -4 L
	0 12 M 12 0 L stroke}
>> matrix makepattern
/Pat4 exch def
<< Tile8x8
 /PaintProc {0.5 setlinewidth pop -4 0 M 8 12 L
	0 -4 M 12 8 L stroke}
>> matrix makepattern
/Pat5 exch def
<< Tile8x8
 /PaintProc {0.5 setlinewidth pop -2 8 M 4 -4 L
	0 12 M 8 -4 L 4 12 M 10 0 L stroke}
>> matrix makepattern
/Pat6 exch def
<< Tile8x8
 /PaintProc {0.5 setlinewidth pop -2 0 M 4 12 L
	0 -4 M 8 12 L 4 -4 M 10 8 L stroke}
>> matrix makepattern
/Pat7 exch def
<< Tile8x8
 /PaintProc {0.5 setlinewidth pop 8 -2 M -4 4 L
	12 0 M -4 8 L 12 4 M 0 10 L stroke}
>> matrix makepattern
/Pat8 exch def
<< Tile8x8
 /PaintProc {0.5 setlinewidth pop 0 -2 M 12 4 L
	-4 0 M 12 8 L -4 4 M 8 10 L stroke}
>> matrix makepattern
/Pat9 exch def
/Pattern1 {PatternBgnd KeepColor Pat1 setpattern} bind def
/Pattern2 {PatternBgnd KeepColor Pat2 setpattern} bind def
/Pattern3 {PatternBgnd KeepColor Pat3 setpattern} bind def
/Pattern4 {PatternBgnd KeepColor Landscape {Pat5} {Pat4} ifelse setpattern} bind def
/Pattern5 {PatternBgnd KeepColor Landscape {Pat4} {Pat5} ifelse setpattern} bind def
/Pattern6 {PatternBgnd KeepColor Landscape {Pat9} {Pat6} ifelse setpattern} bind def
/Pattern7 {PatternBgnd KeepColor Landscape {Pat8} {Pat7} ifelse setpattern} bind def
} def
%
%
%End of PostScript Level 2 code
%
/PatternBgnd {
  TransparentPatterns {} {gsave 1 setgray fill grestore} ifelse
} def
%
% Substitute for Level 2 pattern fill codes with
% grayscale if Level 2 support is not selected.
%
/Level1PatternFill {
/Pattern1 {0.250 Density} bind def
/Pattern2 {0.500 Density} bind def
/Pattern3 {0.750 Density} bind def
/Pattern4 {0.125 Density} bind def
/Pattern5 {0.375 Density} bind def
/Pattern6 {0.625 Density} bind def
/Pattern7 {0.875 Density} bind def
} def
%
% Now test for support of Level 2 code
%
Level1 {Level1PatternFill} {Level2PatternFill} ifelse
%
/Symbol-Oblique /Symbol findfont [1 0 .167 1 0 0] makefont
dup length dict begin {1 index /FID eq {pop pop} {def} ifelse} forall
currentdict end definefont pop
%
/MFshow {
   { dup 5 get 3 ge
     { 5 get 3 eq {gsave} {grestore} ifelse }
     {dup dup 0 get findfont exch 1 get scalefont setfont
     [ currentpoint ] exch dup 2 get 0 exch R dup 5 get 2 ne {dup dup 6
     get exch 4 get {textshow} {stringwidth pop 0 R} ifelse }if dup 5 get 0 eq
     {dup 3 get {2 get neg 0 exch R pop} {pop aload pop M} ifelse} {dup 5
     get 1 eq {dup 2 get exch dup 3 get exch 6 get stringwidth pop -2 div
     dup 0 R} {dup 6 get stringwidth pop -2 div 0 R 6 get
     textshow 2 index {aload pop M neg 3 -1 roll neg R pop pop} {pop pop pop
     pop aload pop M} ifelse }ifelse }ifelse }
     ifelse }
   forall} def
/Gswidth {dup type /stringtype eq {stringwidth} {pop (n) stringwidth} ifelse} def
/MFwidth {0 exch { dup 5 get 3 ge { 5 get 3 eq { 0 } { pop } ifelse }
 {dup 3 get{dup dup 0 get findfont exch 1 get scalefont setfont
     6 get Gswidth pop add} {pop} ifelse} ifelse} forall} def
/MLshow { currentpoint stroke M
  0 exch R
  Blacktext {gsave 0 setgray MFshow grestore} {MFshow} ifelse } bind def
/MRshow { currentpoint stroke M
  exch dup MFwidth neg 3 -1 roll R
  Blacktext {gsave 0 setgray MFshow grestore} {MFshow} ifelse } bind def
/MCshow { currentpoint stroke M
  exch dup MFwidth -2 div 3 -1 roll R
  Blacktext {gsave 0 setgray MFshow grestore} {MFshow} ifelse } bind def
/XYsave    { [( ) 1 2 true false 3 ()] } bind def
/XYrestore { [( ) 1 2 true false 4 ()] } bind def
Level1 SuppressPDFMark or 
{} {
/SDict 10 dict def
systemdict /pdfmark known not {
  userdict /pdfmark systemdict /cleartomark get put
} if
SDict begin [
  /Title (packets-uv-s-add-packets-uv-dist-loglog.eps)
  /Subject (gnuplot plot)
  /Creator (gnuplot 5.0 patchlevel 3)
  /Author (tiphaine)
%  /Producer (gnuplot)
%  /Keywords ()
  /CreationDate (Mon May 29 11:08:45 2017)
  /DOCINFO pdfmark
end
} ifelse
%
% Support for boxed text - Ethan A Merritt May 2005
%
/InitTextBox { userdict /TBy2 3 -1 roll put userdict /TBx2 3 -1 roll put
           userdict /TBy1 3 -1 roll put userdict /TBx1 3 -1 roll put
	   /Boxing true def } def
/ExtendTextBox { Boxing
    { gsave dup false charpath pathbbox
      dup TBy2 gt {userdict /TBy2 3 -1 roll put} {pop} ifelse
      dup TBx2 gt {userdict /TBx2 3 -1 roll put} {pop} ifelse
      dup TBy1 lt {userdict /TBy1 3 -1 roll put} {pop} ifelse
      dup TBx1 lt {userdict /TBx1 3 -1 roll put} {pop} ifelse
      grestore } if } def
/PopTextBox { newpath TBx1 TBxmargin sub TBy1 TBymargin sub M
               TBx1 TBxmargin sub TBy2 TBymargin add L
	       TBx2 TBxmargin add TBy2 TBymargin add L
	       TBx2 TBxmargin add TBy1 TBymargin sub L closepath } def
/DrawTextBox { PopTextBox stroke /Boxing false def} def
/FillTextBox { gsave PopTextBox 1 1 1 setrgbcolor fill grestore /Boxing false def} def
0 0 0 0 InitTextBox
/TBxmargin 20 def
/TBymargin 20 def
/Boxing false def
/textshow { ExtendTextBox Gshow } def
%
% redundant definitions for compatibility with prologue.ps older than 5.0.2
/LTB {BL [] LCb DL} def
/LTb {PL [] LCb DL} def
end
%%EndProlog
%%Page: 1 1
gnudict begin
gsave
doclip
50 50 translate
0.100 0.100 scale
90 rotate
0 -5040 translate
0 setgray
newpath
(Helvetica) findfont 140 scalefont setfont
BackgroundColor 0 lt 3 1 roll 0 lt exch 0 lt or or not {gsave BackgroundColor C clippath fill grestore} if
1.000 UL
LTb
LCb setrgbcolor
798 280 M
63 0 V
6086 0 R
-63 0 V
stroke
714 280 M
[ [(Helvetica) 140.0 0.0 true true 0 ( 1)]
] -46.7 MRshow
1.000 UL
LTb
LCb setrgbcolor
798 477 M
31 0 V
6118 0 R
-31 0 V
798 738 M
31 0 V
6118 0 R
-31 0 V
798 872 M
31 0 V
6118 0 R
-31 0 V
798 936 M
63 0 V
6086 0 R
-63 0 V
stroke
714 936 M
[ [(Helvetica) 140.0 0.0 true true 0 ( 10)]
] -46.7 MRshow
1.000 UL
LTb
LCb setrgbcolor
798 1133 M
31 0 V
6118 0 R
-31 0 V
798 1394 M
31 0 V
6118 0 R
-31 0 V
798 1528 M
31 0 V
6118 0 R
-31 0 V
798 1592 M
63 0 V
6086 0 R
-63 0 V
stroke
714 1592 M
[ [(Helvetica) 140.0 0.0 true true 0 ( 100)]
] -46.7 MRshow
1.000 UL
LTb
LCb setrgbcolor
798 1789 M
31 0 V
6118 0 R
-31 0 V
798 2050 M
31 0 V
6118 0 R
-31 0 V
798 2184 M
31 0 V
6118 0 R
-31 0 V
798 2248 M
63 0 V
6086 0 R
-63 0 V
stroke
714 2248 M
[ [(Helvetica) 140.0 0.0 true true 0 ( 1000)]
] -46.7 MRshow
1.000 UL
LTb
LCb setrgbcolor
798 2445 M
31 0 V
6118 0 R
-31 0 V
798 2706 M
31 0 V
6118 0 R
-31 0 V
798 2840 M
31 0 V
6118 0 R
-31 0 V
798 2903 M
63 0 V
6086 0 R
-63 0 V
stroke
714 2903 M
[ [(Helvetica) 140.0 0.0 true true 0 ( 10000)]
] -46.7 MRshow
1.000 UL
LTb
LCb setrgbcolor
798 3101 M
31 0 V
6118 0 R
-31 0 V
798 3362 M
31 0 V
6118 0 R
-31 0 V
798 3496 M
31 0 V
6118 0 R
-31 0 V
798 3559 M
63 0 V
6086 0 R
-63 0 V
stroke
714 3559 M
[ [(Helvetica) 140.0 0.0 true true 0 ( 100000)]
] -46.7 MRshow
1.000 UL
LTb
LCb setrgbcolor
798 3757 M
31 0 V
6118 0 R
-31 0 V
798 4018 M
31 0 V
6118 0 R
-31 0 V
798 4152 M
31 0 V
6118 0 R
-31 0 V
798 4215 M
63 0 V
6086 0 R
-63 0 V
stroke
714 4215 M
[ [(Helvetica) 140.0 0.0 true true 0 ( 1x10)]
[(Helvetica) 112.0 70.0 true true 0 (6)]
] -60.7 MRshow
1.000 UL
LTb
LCb setrgbcolor
798 4413 M
31 0 V
6118 0 R
-31 0 V
798 4674 M
31 0 V
6118 0 R
-31 0 V
798 4807 M
31 0 V
6118 0 R
-31 0 V
798 4871 M
63 0 V
6086 0 R
-63 0 V
stroke
714 4871 M
[ [(Helvetica) 140.0 0.0 true true 0 ( 1x10)]
[(Helvetica) 112.0 70.0 true true 0 (7)]
] -60.7 MRshow
1.000 UL
LTb
LCb setrgbcolor
798 280 M
0 63 V
0 4528 R
0 -63 V
stroke
798 140 M
[ [(Helvetica) 140.0 0.0 true true 0 ( 1)]
] -46.7 MCshow
1.000 UL
LTb
LCb setrgbcolor
1062 280 M
0 31 V
0 4560 R
0 -31 V
1412 280 M
0 31 V
0 4560 R
0 -31 V
1591 280 M
0 31 V
0 4560 R
0 -31 V
1676 280 M
0 63 V
0 4528 R
0 -63 V
stroke
1676 140 M
[ [(Helvetica) 140.0 0.0 true true 0 ( 10)]
] -46.7 MCshow
1.000 UL
LTb
LCb setrgbcolor
1941 280 M
0 31 V
0 4560 R
0 -31 V
2290 280 M
0 31 V
0 4560 R
0 -31 V
2470 280 M
0 31 V
0 4560 R
0 -31 V
2555 280 M
0 63 V
0 4528 R
0 -63 V
stroke
2555 140 M
[ [(Helvetica) 140.0 0.0 true true 0 ( 100)]
] -46.7 MCshow
1.000 UL
LTb
LCb setrgbcolor
2819 280 M
0 31 V
0 4560 R
0 -31 V
3169 280 M
0 31 V
0 4560 R
0 -31 V
3348 280 M
0 31 V
0 4560 R
0 -31 V
3433 280 M
0 63 V
0 4528 R
0 -63 V
stroke
3433 140 M
[ [(Helvetica) 140.0 0.0 true true 0 ( 1000)]
] -46.7 MCshow
1.000 UL
LTb
LCb setrgbcolor
3698 280 M
0 31 V
0 4560 R
0 -31 V
4047 280 M
0 31 V
0 4560 R
0 -31 V
4227 280 M
0 31 V
0 4560 R
0 -31 V
4312 280 M
0 63 V
0 4528 R
0 -63 V
stroke
4312 140 M
[ [(Helvetica) 140.0 0.0 true true 0 ( 10000)]
] -46.7 MCshow
1.000 UL
LTb
LCb setrgbcolor
4576 280 M
0 31 V
0 4560 R
0 -31 V
4926 280 M
0 31 V
0 4560 R
0 -31 V
5105 280 M
0 31 V
0 4560 R
0 -31 V
5190 280 M
0 63 V
0 4528 R
0 -63 V
stroke
5190 140 M
[ [(Helvetica) 140.0 0.0 true true 0 ( 100000)]
] -46.7 MCshow
1.000 UL
LTb
LCb setrgbcolor
5455 280 M
0 31 V
0 4560 R
0 -31 V
5804 280 M
0 31 V
0 4560 R
0 -31 V
5983 280 M
0 31 V
0 4560 R
0 -31 V
6069 280 M
0 63 V
0 4528 R
0 -63 V
stroke
6069 140 M
[ [(Helvetica) 140.0 0.0 true true 0 ( 1x10)]
[(Helvetica) 112.0 70.0 true true 0 (6)]
] -60.7 MCshow
1.000 UL
LTb
LCb setrgbcolor
6333 280 M
0 31 V
0 4560 R
0 -31 V
6683 280 M
0 31 V
0 4560 R
0 -31 V
6862 280 M
0 31 V
0 4560 R
0 -31 V
6947 280 M
0 63 V
0 4528 R
0 -63 V
stroke
6947 140 M
[ [(Helvetica) 140.0 0.0 true true 0 ( 1x10)]
[(Helvetica) 112.0 70.0 true true 0 (7)]
] -60.7 MCshow
1.000 UL
LTb
LCb setrgbcolor
1.000 UL
LTB
LCb setrgbcolor
798 4871 N
798 280 L
6149 0 V
0 4591 V
-6149 0 V
Z stroke
1.000 UP
1.000 UL
LTb
LCb setrgbcolor
% Begin plot #1
1.000 UP
1.000 UL
LTb
0.58 0.00 0.83 C 1062 4259 Pls
1327 4033 Pls
1482 3488 Pls
1591 3400 Pls
1676 3247 Pls
1746 3216 Pls
1805 3042 Pls
1856 3099 Pls
1901 2949 Pls
1941 3103 Pls
1977 2886 Pls
2010 2964 Pls
2041 2816 Pls
2069 2848 Pls
2096 2809 Pls
2120 2832 Pls
2143 2717 Pls
2165 2766 Pls
2186 2680 Pls
2205 2762 Pls
2224 2610 Pls
2242 2632 Pls
2259 2509 Pls
2275 2607 Pls
2290 2472 Pls
2305 2493 Pls
2320 2428 Pls
2334 2479 Pls
2347 2350 Pls
2360 2495 Pls
2372 2307 Pls
2385 2381 Pls
2396 2304 Pls
2408 2367 Pls
2419 2277 Pls
2430 2363 Pls
2440 2228 Pls
2450 2268 Pls
2460 2201 Pls
2470 2280 Pls
2479 2173 Pls
2488 2214 Pls
2497 2158 Pls
2506 2195 Pls
2515 2178 Pls
2523 2161 Pls
2531 2277 Pls
2539 2252 Pls
2547 2232 Pls
2555 2194 Pls
2562 2146 Pls
2570 2122 Pls
2577 2090 Pls
2584 2090 Pls
2591 2071 Pls
2598 2098 Pls
2605 2057 Pls
2611 2026 Pls
2618 2048 Pls
2624 2220 Pls
2631 1996 Pls
2637 1994 Pls
2643 1988 Pls
2649 1992 Pls
2655 1990 Pls
2661 1953 Pls
2667 1935 Pls
2672 1950 Pls
2678 1954 Pls
2683 1973 Pls
2689 1919 Pls
2694 1966 Pls
2699 1901 Pls
2704 1886 Pls
2710 1892 Pls
2715 1885 Pls
2720 1874 Pls
2725 1974 Pls
2729 1896 Pls
2734 1913 Pls
2739 1858 Pls
2744 1836 Pls
2748 1836 Pls
2753 1857 Pls
2757 1854 Pls
2762 1798 Pls
2766 1795 Pls
2771 1812 Pls
2775 1782 Pls
2779 1892 Pls
2783 1746 Pls
2787 1829 Pls
2792 1833 Pls
2796 1785 Pls
2800 1807 Pls
2804 1902 Pls
2808 1724 Pls
2812 1778 Pls
2815 1792 Pls
2819 2169 Pls
2823 1761 Pls
2827 1718 Pls
2831 1690 Pls
2834 1751 Pls
2838 1793 Pls
2842 1681 Pls
2845 1743 Pls
2849 1764 Pls
2852 1675 Pls
2856 1761 Pls
2859 1775 Pls
2863 1729 Pls
2866 1717 Pls
2869 1736 Pls
2873 1692 Pls
2876 1705 Pls
2879 1746 Pls
2882 1632 Pls
2886 1729 Pls
2889 1847 Pls
2892 1673 Pls
2895 1701 Pls
2898 1658 Pls
2901 1653 Pls
2904 1660 Pls
2907 1636 Pls
2910 1597 Pls
2913 1739 Pls
2916 1690 Pls
2919 1879 Pls
2922 1639 Pls
2925 1761 Pls
2928 1592 Pls
2931 1606 Pls
2934 1653 Pls
2937 1653 Pls
2939 1666 Pls
2942 1677 Pls
2945 1679 Pls
2948 1660 Pls
2950 1634 Pls
2953 1595 Pls
2956 1568 Pls
2958 1583 Pls
2961 1562 Pls
2964 1549 Pls
2966 1549 Pls
2969 1532 Pls
2971 1595 Pls
2974 1597 Pls
2977 1552 Pls
2979 1552 Pls
2982 1510 Pls
2984 1535 Pls
2986 1437 Pls
2989 1586 Pls
2991 1562 Pls
2994 1510 Pls
2996 1528 Pls
2999 1603 Pls
3001 1552 Pls
3003 1514 Pls
3006 1482 Pls
3008 1482 Pls
3010 1437 Pls
3013 1528 Pls
3015 1478 Pls
3017 1521 Pls
3019 1502 Pls
3022 1586 Pls
3024 1510 Pls
3026 1411 Pls
3028 1482 Pls
3031 1532 Pls
3033 1525 Pls
3035 1528 Pls
3037 1565 Pls
3039 1525 Pls
3041 1555 Pls
3044 1624 Pls
3046 1574 Pls
3048 1545 Pls
3050 1510 Pls
3052 1517 Pls
3054 1437 Pls
3056 1490 Pls
3058 1432 Pls
3060 1389 Pls
3062 1460 Pls
3064 1446 Pls
3066 1427 Pls
3068 1421 Pls
3070 1405 Pls
3072 1400 Pls
3074 1437 Pls
3076 1421 Pls
3078 1465 Pls
3080 1427 Pls
3082 1364 Pls
3084 1473 Pls
3086 1383 Pls
3088 1490 Pls
3089 1441 Pls
3091 1460 Pls
3093 1364 Pls
3095 1400 Pls
3097 1416 Pls
3099 1427 Pls
3101 1421 Pls
3102 1634 Pls
3104 1416 Pls
3106 1432 Pls
3108 1389 Pls
3110 1411 Pls
3111 1405 Pls
3113 1405 Pls
3115 1383 Pls
3117 1371 Pls
3118 1400 Pls
3120 1371 Pls
3122 1371 Pls
3124 1316 Pls
3125 1316 Pls
3127 1437 Pls
3129 1394 Pls
3130 1338 Pls
3132 1309 Pls
3134 1301 Pls
3135 1316 Pls
3137 1432 Pls
3139 1351 Pls
3140 1301 Pls
3142 1331 Pls
3144 1383 Pls
3145 1345 Pls
3147 1338 Pls
3148 1293 Pls
3150 1400 Pls
3152 1351 Pls
3153 1611 Pls
3155 1293 Pls
3156 1371 Pls
3158 1331 Pls
3160 1358 Pls
3161 1258 Pls
3163 1345 Pls
3164 1309 Pls
3166 1309 Pls
3167 1309 Pls
3169 1371 Pls
3170 1239 Pls
3172 1301 Pls
3173 1338 Pls
3175 1258 Pls
3176 1338 Pls
3178 1338 Pls
3179 1276 Pls
3181 1258 Pls
3182 1293 Pls
3184 1219 Pls
3185 1309 Pls
3187 1229 Pls
3188 1345 Pls
3190 1276 Pls
3191 1208 Pls
3193 1284 Pls
3194 1239 Pls
3195 1276 Pls
3197 1301 Pls
3198 1316 Pls
3200 1258 Pls
3201 1293 Pls
3202 1258 Pls
3204 1267 Pls
3205 1316 Pls
3207 1185 Pls
3208 1309 Pls
3209 1258 Pls
3211 1309 Pls
3212 1239 Pls
3213 1229 Pls
3215 1324 Pls
3216 1229 Pls
3217 1316 Pls
3219 1185 Pls
3220 1249 Pls
3222 1249 Pls
3223 1267 Pls
3224 1249 Pls
3225 1219 Pls
3227 1249 Pls
3228 1229 Pls
3229 1258 Pls
3231 1249 Pls
3232 1267 Pls
3233 1249 Pls
3235 1185 Pls
3236 1219 Pls
3237 1284 Pls
3238 1258 Pls
3240 1229 Pls
3241 1276 Pls
3242 1208 Pls
3243 1267 Pls
3245 1197 Pls
3246 1173 Pls
3247 1309 Pls
3248 1197 Pls
3250 1293 Pls
3251 1301 Pls
3252 1103 Pls
3253 1301 Pls
3255 1229 Pls
3256 1331 Pls
3257 1208 Pls
3258 1229 Pls
3259 1219 Pls
3261 988 Pls
3262 1239 Pls
3263 1239 Pls
3264 1276 Pls
3265 1173 Pls
3267 1133 Pls
3268 1173 Pls
3269 1147 Pls
3270 1133 Pls
3271 1208 Pls
3272 1219 Pls
3274 1103 Pls
3275 1276 Pls
3276 1185 Pls
3277 1147 Pls
3278 1185 Pls
3279 1087 Pls
3281 1103 Pls
3282 1197 Pls
3283 1103 Pls
3284 1160 Pls
3285 1119 Pls
3286 1160 Pls
3287 963 Pls
3288 1249 Pls
3290 1185 Pls
3291 1087 Pls
3292 1258 Pls
3293 1032 Pls
3294 1087 Pls
3295 1301 Pls
3296 1119 Pls
3297 1160 Pls
3298 1147 Pls
3299 1133 Pls
3300 1185 Pls
3302 1147 Pls
3303 1173 Pls
3304 1185 Pls
3305 1197 Pls
3306 1208 Pls
3307 1133 Pls
3308 1284 Pls
3309 1070 Pls
3310 1208 Pls
3311 1147 Pls
3312 1119 Pls
3313 906 Pls
3314 1133 Pls
3315 1173 Pls
3316 988 Pls
3317 1051 Pls
3318 1087 Pls
3319 1133 Pls
3320 1208 Pls
3321 1160 Pls
3323 1087 Pls
3324 1087 Pls
3325 936 Pls
3326 1070 Pls
3327 1133 Pls
3328 1087 Pls
3329 1087 Pls
3330 1070 Pls
3331 1051 Pls
3332 1197 Pls
3333 1119 Pls
3334 1119 Pls
3335 1070 Pls
3336 1103 Pls
3337 1032 Pls
3338 1133 Pls
3338 1103 Pls
3339 1032 Pls
3340 1133 Pls
3341 1133 Pls
3342 1032 Pls
3343 1051 Pls
3344 963 Pls
3345 1087 Pls
3346 1133 Pls
3347 1070 Pls
3348 1011 Pls
3349 1133 Pls
3350 1160 Pls
3351 1133 Pls
3352 1087 Pls
3353 1133 Pls
3354 1051 Pls
3355 1119 Pls
3356 1087 Pls
3357 1103 Pls
3358 1087 Pls
3359 963 Pls
3359 1103 Pls
3360 1103 Pls
3361 1011 Pls
3362 1147 Pls
3363 1070 Pls
3364 1087 Pls
3365 1160 Pls
3366 1070 Pls
3367 1103 Pls
3368 1208 Pls
3369 1133 Pls
3369 1032 Pls
3370 1103 Pls
3371 1051 Pls
3372 1032 Pls
3373 1087 Pls
3374 1103 Pls
3375 1133 Pls
3376 1070 Pls
3377 790 Pls
3378 1087 Pls
3378 1133 Pls
3379 1087 Pls
3380 963 Pls
3381 1011 Pls
3382 1087 Pls
3383 1133 Pls
3384 1070 Pls
3385 1011 Pls
3385 1147 Pls
3386 1011 Pls
3387 1103 Pls
3388 1011 Pls
3389 1051 Pls
3390 1011 Pls
3391 1133 Pls
3391 1051 Pls
3392 1032 Pls
3393 963 Pls
3394 1173 Pls
3395 1070 Pls
3396 872 Pls
3396 1011 Pls
3397 963 Pls
3398 1032 Pls
3399 988 Pls
3400 1160 Pls
3401 1051 Pls
3401 1051 Pls
3402 1119 Pls
3403 1103 Pls
3404 936 Pls
3405 906 Pls
3406 988 Pls
3406 1032 Pls
3407 963 Pls
3408 1032 Pls
3409 1087 Pls
3410 988 Pls
3410 936 Pls
3411 1119 Pls
3412 1185 Pls
3413 1173 Pls
3414 936 Pls
3415 1119 Pls
3415 1070 Pls
3416 1147 Pls
3417 1051 Pls
3418 1119 Pls
3419 1070 Pls
3419 1011 Pls
3420 1051 Pls
3421 963 Pls
3422 988 Pls
3422 936 Pls
3423 936 Pls
3424 936 Pls
3425 1032 Pls
3426 936 Pls
3426 936 Pls
3427 936 Pls
3428 1103 Pls
3429 834 Pls
3429 1087 Pls
3430 906 Pls
3431 593 Pls
3432 936 Pls
3433 1032 Pls
3433 1011 Pls
3434 1032 Pls
3435 872 Pls
3436 1070 Pls
3436 1070 Pls
3437 936 Pls
3438 906 Pls
3439 1011 Pls
3439 988 Pls
3440 936 Pls
3441 1070 Pls
3442 1032 Pls
3442 872 Pls
3443 963 Pls
3444 1119 Pls
3445 936 Pls
3445 906 Pls
3446 1070 Pls
3447 988 Pls
3448 1011 Pls
3448 1133 Pls
3449 1032 Pls
3450 988 Pls
3450 1103 Pls
3451 872 Pls
3452 988 Pls
3453 963 Pls
3453 1051 Pls
3454 963 Pls
3455 906 Pls
3456 988 Pls
3456 1032 Pls
3457 936 Pls
3458 936 Pls
3458 834 Pls
3459 906 Pls
3460 906 Pls
3461 1011 Pls
3461 988 Pls
3462 1070 Pls
3463 1032 Pls
3463 790 Pls
3464 1087 Pls
3465 988 Pls
3465 906 Pls
3466 1032 Pls
3467 872 Pls
3468 834 Pls
3468 1032 Pls
3469 1011 Pls
3470 1032 Pls
3470 1051 Pls
3471 906 Pls
3472 834 Pls
3472 906 Pls
3473 963 Pls
3474 906 Pls
3474 790 Pls
3475 1011 Pls
3476 963 Pls
3477 963 Pls
3477 1051 Pls
3478 1011 Pls
3479 1011 Pls
3479 906 Pls
3480 963 Pls
3481 906 Pls
3481 906 Pls
3482 936 Pls
3483 738 Pls
3483 1011 Pls
3484 738 Pls
3485 988 Pls
3485 1011 Pls
3486 906 Pls
3487 790 Pls
3487 872 Pls
3488 906 Pls
3489 790 Pls
3489 963 Pls
3490 1032 Pls
3491 963 Pls
3491 906 Pls
3492 906 Pls
3493 936 Pls
3493 872 Pls
3494 906 Pls
3494 834 Pls
3495 906 Pls
3496 834 Pls
3496 834 Pls
3497 872 Pls
3498 936 Pls
3498 963 Pls
3499 936 Pls
3500 1011 Pls
3500 936 Pls
3501 834 Pls
3502 872 Pls
3502 963 Pls
3503 906 Pls
3503 790 Pls
3504 1011 Pls
3505 738 Pls
3505 936 Pls
3506 872 Pls
3507 1032 Pls
3507 963 Pls
3508 790 Pls
3509 906 Pls
3509 936 Pls
3510 790 Pls
3510 790 Pls
3511 790 Pls
3512 834 Pls
3512 872 Pls
3513 872 Pls
3513 906 Pls
3514 936 Pls
3515 872 Pls
3515 988 Pls
3516 834 Pls
3517 1032 Pls
3517 906 Pls
3518 906 Pls
3518 936 Pls
3519 906 Pls
3520 1051 Pls
3520 1119 Pls
3521 1070 Pls
3521 1011 Pls
3522 790 Pls
3523 1051 Pls
3523 1051 Pls
3524 1011 Pls
3524 1032 Pls
3525 906 Pls
3526 988 Pls
3526 1087 Pls
3527 1185 Pls
3527 1087 Pls
3528 1051 Pls
3529 1032 Pls
3529 988 Pls
3530 1051 Pls
3530 1197 Pls
3531 963 Pls
3532 1051 Pls
3532 1032 Pls
3533 1070 Pls
3533 1011 Pls
3534 1011 Pls
3535 1070 Pls
3535 1011 Pls
3536 1051 Pls
3536 1173 Pls
3537 1051 Pls
3537 1070 Pls
3538 1087 Pls
3539 1070 Pls
3539 1032 Pls
3540 1119 Pls
3540 1070 Pls
3541 1087 Pls
3542 988 Pls
3542 1070 Pls
3543 936 Pls
3543 1103 Pls
3544 1103 Pls
3544 963 Pls
3545 963 Pls
3546 1051 Pls
3546 963 Pls
3547 936 Pls
3547 1032 Pls
3548 1011 Pls
3548 1032 Pls
3549 1070 Pls
3549 1051 Pls
3550 988 Pls
3551 1032 Pls
3551 1011 Pls
3552 675 Pls
3552 1032 Pls
3553 963 Pls
3553 1087 Pls
3554 675 Pls
3554 1032 Pls
3555 988 Pls
3556 963 Pls
3556 872 Pls
3557 906 Pls
3557 963 Pls
3558 1070 Pls
3558 936 Pls
3559 1087 Pls
3559 1070 Pls
3560 906 Pls
3561 1011 Pls
3561 834 Pls
3562 1103 Pls
3562 963 Pls
3563 988 Pls
3563 936 Pls
3564 1032 Pls
3564 988 Pls
3565 872 Pls
3565 834 Pls
3566 963 Pls
3567 936 Pls
3567 906 Pls
3568 834 Pls
3568 675 Pls
3569 988 Pls
3569 1011 Pls
3570 1103 Pls
3570 936 Pls
3571 834 Pls
3571 963 Pls
3572 1011 Pls
3572 988 Pls
3573 1011 Pls
3573 906 Pls
3574 936 Pls
3575 963 Pls
3575 872 Pls
3576 834 Pls
3576 988 Pls
3577 988 Pls
3577 936 Pls
3578 675 Pls
3578 675 Pls
3579 872 Pls
3579 906 Pls
3580 963 Pls
3580 1011 Pls
3581 988 Pls
3581 936 Pls
3582 872 Pls
3582 834 Pls
3583 834 Pls
3583 738 Pls
3584 906 Pls
3584 963 Pls
3585 477 Pls
3585 834 Pls
3586 834 Pls
3586 790 Pls
3587 834 Pls
3587 988 Pls
3588 738 Pls
3588 738 Pls
3589 834 Pls
3589 872 Pls
3590 906 Pls
3591 790 Pls
3591 790 Pls
3592 906 Pls
3592 872 Pls
3593 936 Pls
3593 834 Pls
3594 834 Pls
3594 834 Pls
3595 872 Pls
3595 906 Pls
3596 872 Pls
3596 738 Pls
3597 906 Pls
3597 675 Pls
3598 790 Pls
3598 790 Pls
3599 936 Pls
3599 738 Pls
3599 936 Pls
3600 593 Pls
3600 963 Pls
3601 936 Pls
3601 675 Pls
3602 834 Pls
3602 738 Pls
3603 872 Pls
3603 963 Pls
3604 834 Pls
3604 936 Pls
3605 738 Pls
3605 790 Pls
3606 872 Pls
3606 906 Pls
3607 790 Pls
3607 593 Pls
3608 1011 Pls
3608 988 Pls
3609 906 Pls
3609 1032 Pls
3610 593 Pls
3610 906 Pls
3611 1011 Pls
3611 906 Pls
3612 834 Pls
3612 872 Pls
3613 790 Pls
3613 790 Pls
3614 790 Pls
3614 790 Pls
3614 834 Pls
3615 738 Pls
3615 477 Pls
3616 790 Pls
3616 834 Pls
3617 738 Pls
3617 834 Pls
3618 906 Pls
3618 834 Pls
3619 963 Pls
3619 834 Pls
3620 906 Pls
3620 738 Pls
3621 906 Pls
3621 477 Pls
3622 936 Pls
3622 738 Pls
3622 790 Pls
3623 593 Pls
3623 738 Pls
3624 477 Pls
3624 675 Pls
3625 906 Pls
3625 834 Pls
3626 593 Pls
3626 834 Pls
3627 477 Pls
3627 593 Pls
3628 593 Pls
3628 738 Pls
3628 790 Pls
3629 738 Pls
3629 834 Pls
3630 738 Pls
3630 675 Pls
3631 593 Pls
3631 738 Pls
3632 477 Pls
3632 675 Pls
3633 477 Pls
3633 936 Pls
3633 790 Pls
3634 834 Pls
3634 834 Pls
3635 675 Pls
3635 593 Pls
3636 593 Pls
3636 675 Pls
3637 477 Pls
3637 790 Pls
3638 738 Pls
3638 593 Pls
3638 872 Pls
3639 790 Pls
3639 790 Pls
3640 280 Pls
3640 834 Pls
3641 834 Pls
3641 477 Pls
3642 593 Pls
3642 477 Pls
3642 872 Pls
3643 593 Pls
3644 738 Pls
3644 593 Pls
3645 477 Pls
3645 280 Pls
3645 834 Pls
3646 593 Pls
3646 593 Pls
3647 477 Pls
3648 593 Pls
3648 834 Pls
3649 790 Pls
3649 872 Pls
3649 477 Pls
3650 593 Pls
3650 593 Pls
3651 477 Pls
3651 790 Pls
3652 675 Pls
3652 675 Pls
3652 738 Pls
3653 834 Pls
3653 738 Pls
3654 738 Pls
3654 790 Pls
3655 834 Pls
3655 675 Pls
3655 738 Pls
3656 738 Pls
3656 593 Pls
3657 675 Pls
3657 675 Pls
3658 477 Pls
3658 280 Pls
3658 936 Pls
3659 790 Pls
3659 477 Pls
3660 790 Pls
3660 675 Pls
3660 834 Pls
3661 790 Pls
3661 477 Pls
3662 280 Pls
3662 675 Pls
3663 593 Pls
3663 738 Pls
3663 593 Pls
3664 280 Pls
3664 593 Pls
3665 738 Pls
3665 593 Pls
3665 738 Pls
3666 477 Pls
3666 790 Pls
3667 675 Pls
3667 675 Pls
3668 593 Pls
3668 280 Pls
3668 675 Pls
3669 477 Pls
3669 477 Pls
3670 593 Pls
3670 738 Pls
3670 675 Pls
3671 280 Pls
3671 593 Pls
3672 477 Pls
3672 872 Pls
3672 477 Pls
3673 738 Pls
3673 738 Pls
3674 872 Pls
3674 738 Pls
3675 280 Pls
3675 675 Pls
3675 790 Pls
3676 593 Pls
3676 790 Pls
3677 593 Pls
3677 593 Pls
3677 675 Pls
3678 593 Pls
3678 790 Pls
3679 477 Pls
3679 790 Pls
3679 477 Pls
3680 738 Pls
3680 477 Pls
3681 738 Pls
3681 593 Pls
3681 738 Pls
3682 675 Pls
3682 280 Pls
3683 906 Pls
3683 738 Pls
3683 834 Pls
3684 790 Pls
3684 834 Pls
3685 834 Pls
3685 477 Pls
3685 593 Pls
3686 790 Pls
3686 280 Pls
3686 593 Pls
3687 675 Pls
3687 477 Pls
3688 593 Pls
3688 477 Pls
3688 593 Pls
3689 477 Pls
3689 593 Pls
3690 675 Pls
3690 790 Pls
3690 593 Pls
3691 675 Pls
3691 675 Pls
3692 790 Pls
3692 790 Pls
3692 477 Pls
3693 872 Pls
3693 675 Pls
3693 738 Pls
3694 675 Pls
3694 593 Pls
3695 790 Pls
3695 738 Pls
3695 738 Pls
3696 280 Pls
3696 738 Pls
3697 675 Pls
3697 790 Pls
3697 280 Pls
3698 675 Pls
3698 738 Pls
3698 477 Pls
3699 834 Pls
3699 477 Pls
3700 675 Pls
3700 906 Pls
3700 738 Pls
3701 477 Pls
3701 477 Pls
3702 675 Pls
3702 675 Pls
3702 675 Pls
3703 675 Pls
3703 738 Pls
3703 280 Pls
3704 675 Pls
3704 477 Pls
3705 675 Pls
3705 477 Pls
3705 593 Pls
3706 477 Pls
3706 280 Pls
3706 790 Pls
3707 593 Pls
3707 790 Pls
3708 936 Pls
3708 936 Pls
3708 477 Pls
3709 280 Pls
3709 834 Pls
3709 593 Pls
3710 593 Pls
3710 593 Pls
3710 790 Pls
3711 593 Pls
3711 477 Pls
3712 280 Pls
3712 593 Pls
3712 477 Pls
3713 593 Pls
3713 593 Pls
3713 675 Pls
3714 280 Pls
3714 477 Pls
3715 593 Pls
3715 593 Pls
3715 675 Pls
3716 675 Pls
3716 477 Pls
3716 675 Pls
3717 477 Pls
3717 675 Pls
3717 738 Pls
3718 675 Pls
3718 738 Pls
3719 280 Pls
3719 675 Pls
3719 738 Pls
3720 593 Pls
3720 280 Pls
3721 477 Pls
3721 593 Pls
3721 280 Pls
3722 738 Pls
3722 280 Pls
3722 738 Pls
3723 280 Pls
3724 675 Pls
3724 675 Pls
3725 280 Pls
3725 477 Pls
3725 593 Pls
3726 280 Pls
3726 593 Pls
3726 477 Pls
3727 280 Pls
3727 593 Pls
3727 675 Pls
3728 738 Pls
3728 477 Pls
3728 593 Pls
3729 477 Pls
3729 593 Pls
3730 675 Pls
3730 675 Pls
3730 593 Pls
3731 477 Pls
3731 675 Pls
3731 477 Pls
3732 738 Pls
3732 280 Pls
3732 936 Pls
3733 675 Pls
3733 738 Pls
3733 675 Pls
3734 280 Pls
3734 280 Pls
3734 477 Pls
3735 280 Pls
3735 477 Pls
3735 477 Pls
3736 593 Pls
3736 477 Pls
3736 280 Pls
3737 872 Pls
3737 872 Pls
3738 593 Pls
3738 593 Pls
3739 477 Pls
3739 675 Pls
3739 738 Pls
3740 477 Pls
3740 477 Pls
3741 477 Pls
3741 477 Pls
3742 593 Pls
3742 280 Pls
3743 593 Pls
3743 280 Pls
3744 593 Pls
3744 593 Pls
3744 675 Pls
3745 593 Pls
3745 477 Pls
3746 280 Pls
3746 675 Pls
3746 675 Pls
3747 593 Pls
3747 675 Pls
3747 593 Pls
3748 593 Pls
3749 790 Pls
3749 790 Pls
3749 477 Pls
3750 477 Pls
3750 593 Pls
3750 675 Pls
3751 280 Pls
3751 834 Pls
3751 936 Pls
3752 872 Pls
3752 675 Pls
3752 280 Pls
3753 477 Pls
3753 675 Pls
3753 675 Pls
3754 280 Pls
3754 477 Pls
3755 280 Pls
3755 280 Pls
3755 280 Pls
3756 280 Pls
3756 593 Pls
3756 593 Pls
3757 477 Pls
3757 738 Pls
3757 593 Pls
3758 477 Pls
3758 477 Pls
3759 675 Pls
3759 675 Pls
3759 477 Pls
3760 675 Pls
3760 477 Pls
3760 280 Pls
3761 593 Pls
3761 280 Pls
3761 477 Pls
3762 477 Pls
3762 477 Pls
3762 477 Pls
3762 477 Pls
3763 675 Pls
3763 477 Pls
3763 477 Pls
3764 738 Pls
3764 477 Pls
3764 593 Pls
3765 675 Pls
3765 280 Pls
3765 593 Pls
3766 593 Pls
3766 280 Pls
3767 593 Pls
3767 477 Pls
3767 872 Pls
3768 593 Pls
3768 280 Pls
3768 477 Pls
3769 593 Pls
3769 593 Pls
3769 738 Pls
3769 477 Pls
3770 280 Pls
3770 280 Pls
3770 280 Pls
3771 593 Pls
3771 790 Pls
3772 675 Pls
3772 593 Pls
3773 280 Pls
3773 738 Pls
3773 477 Pls
3774 477 Pls
3774 280 Pls
3774 477 Pls
3775 477 Pls
3775 593 Pls
3775 477 Pls
3775 593 Pls
3776 280 Pls
3777 675 Pls
3777 477 Pls
3778 477 Pls
3778 593 Pls
3779 280 Pls
3779 477 Pls
3779 280 Pls
3779 477 Pls
3780 280 Pls
3780 477 Pls
3781 477 Pls
3781 477 Pls
3782 738 Pls
3782 477 Pls
3782 593 Pls
3783 280 Pls
3783 280 Pls
3783 477 Pls
3783 738 Pls
3784 280 Pls
3784 280 Pls
3785 280 Pls
3785 593 Pls
3785 477 Pls
3786 675 Pls
3786 280 Pls
3786 593 Pls
3787 477 Pls
3787 477 Pls
3787 477 Pls
3788 593 Pls
3788 675 Pls
3788 790 Pls
3789 477 Pls
3789 477 Pls
3789 738 Pls
3790 477 Pls
3790 477 Pls
3790 790 Pls
3790 477 Pls
3791 280 Pls
3791 280 Pls
3791 280 Pls
3792 477 Pls
3792 738 Pls
3793 280 Pls
3793 593 Pls
3793 280 Pls
3794 477 Pls
3794 477 Pls
3795 477 Pls
3795 477 Pls
3795 280 Pls
3796 477 Pls
3796 593 Pls
3796 675 Pls
3797 477 Pls
3797 477 Pls
3797 280 Pls
3798 477 Pls
3798 790 Pls
3798 477 Pls
3799 280 Pls
3799 593 Pls
3799 477 Pls
3800 280 Pls
3800 675 Pls
3800 280 Pls
3801 280 Pls
3801 593 Pls
3801 790 Pls
3802 280 Pls
3802 477 Pls
3802 593 Pls
3802 790 Pls
3803 280 Pls
3803 280 Pls
3803 790 Pls
3804 477 Pls
3804 280 Pls
3805 593 Pls
3805 593 Pls
3805 477 Pls
3806 593 Pls
3806 280 Pls
3806 280 Pls
3807 477 Pls
3807 593 Pls
3808 280 Pls
3808 675 Pls
3808 280 Pls
3809 477 Pls
3809 675 Pls
3809 675 Pls
3810 280 Pls
3810 280 Pls
3810 477 Pls
3811 593 Pls
3811 593 Pls
3811 593 Pls
3812 280 Pls
3812 477 Pls
3812 477 Pls
3812 280 Pls
3813 477 Pls
3813 280 Pls
3813 738 Pls
3814 280 Pls
3814 280 Pls
3814 675 Pls
3814 738 Pls
3815 593 Pls
3815 477 Pls
3815 477 Pls
3816 738 Pls
3816 593 Pls
3816 280 Pls
3816 738 Pls
3817 280 Pls
3817 593 Pls
3818 593 Pls
3818 280 Pls
3818 738 Pls
3818 593 Pls
3819 477 Pls
3819 280 Pls
3819 280 Pls
3819 280 Pls
3820 675 Pls
3820 593 Pls
3821 790 Pls
3821 477 Pls
3821 280 Pls
3821 675 Pls
3822 675 Pls
3822 477 Pls
3822 593 Pls
3823 593 Pls
3823 593 Pls
3823 738 Pls
3824 477 Pls
3824 280 Pls
3824 593 Pls
3824 477 Pls
3825 280 Pls
3825 477 Pls
3825 477 Pls
3826 280 Pls
3826 593 Pls
3826 280 Pls
3827 477 Pls
3827 280 Pls
3827 593 Pls
3827 477 Pls
3828 280 Pls
3828 280 Pls
3829 593 Pls
3829 477 Pls
3830 593 Pls
3831 280 Pls
3831 477 Pls
3831 477 Pls
3831 477 Pls
3832 593 Pls
3832 477 Pls
3832 280 Pls
3833 477 Pls
3833 593 Pls
3833 477 Pls
3834 675 Pls
3834 477 Pls
3834 593 Pls
3835 280 Pls
3835 280 Pls
3835 477 Pls
3836 593 Pls
3836 906 Pls
3836 280 Pls
3836 790 Pls
3837 593 Pls
3837 593 Pls
3837 675 Pls
3837 280 Pls
3838 738 Pls
3838 593 Pls
3838 593 Pls
3839 280 Pls
3839 280 Pls
3840 477 Pls
3840 593 Pls
3841 477 Pls
3841 280 Pls
3841 280 Pls
3841 675 Pls
3842 477 Pls
3842 477 Pls
3842 593 Pls
3842 593 Pls
3843 280 Pls
3843 280 Pls
3843 593 Pls
3844 477 Pls
3844 477 Pls
3844 477 Pls
3844 477 Pls
3845 280 Pls
3845 280 Pls
3845 675 Pls
3845 477 Pls
3846 593 Pls
3847 593 Pls
3847 477 Pls
3847 280 Pls
3848 477 Pls
3848 477 Pls
3849 675 Pls
3849 477 Pls
3849 477 Pls
3850 477 Pls
3850 675 Pls
3850 477 Pls
3850 675 Pls
3851 593 Pls
3851 477 Pls
3851 477 Pls
3852 593 Pls
3852 477 Pls
3853 738 Pls
3853 738 Pls
3853 593 Pls
3854 477 Pls
3854 280 Pls
3854 280 Pls
3854 477 Pls
3855 477 Pls
3855 280 Pls
3855 477 Pls
3856 477 Pls
3856 280 Pls
3856 593 Pls
3857 477 Pls
3857 280 Pls
3857 280 Pls
3858 477 Pls
3858 477 Pls
3859 280 Pls
3859 477 Pls
3859 593 Pls
3860 593 Pls
3860 675 Pls
3860 675 Pls
3861 593 Pls
3861 280 Pls
3862 593 Pls
3862 477 Pls
3862 280 Pls
3862 477 Pls
3863 477 Pls
3863 280 Pls
3864 477 Pls
3864 280 Pls
3864 477 Pls
3864 593 Pls
3865 280 Pls
3865 477 Pls
3865 280 Pls
3866 280 Pls
3866 593 Pls
3866 280 Pls
3867 593 Pls
3867 593 Pls
3867 280 Pls
3868 834 Pls
3868 593 Pls
3868 280 Pls
3868 280 Pls
3869 280 Pls
3869 280 Pls
3870 477 Pls
3870 280 Pls
3870 477 Pls
3870 477 Pls
3871 675 Pls
3871 280 Pls
3872 477 Pls
3872 477 Pls
3872 477 Pls
3872 477 Pls
3872 280 Pls
3873 280 Pls
3873 280 Pls
3873 477 Pls
3874 477 Pls
3874 280 Pls
3874 593 Pls
3875 280 Pls
3875 477 Pls
3876 738 Pls
3876 280 Pls
3876 280 Pls
3876 280 Pls
3877 477 Pls
3878 477 Pls
3878 280 Pls
3878 675 Pls
3878 675 Pls
3879 280 Pls
3879 477 Pls
3879 593 Pls
3880 593 Pls
3880 477 Pls
3880 593 Pls
3881 477 Pls
3881 477 Pls
3881 675 Pls
3882 280 Pls
3882 477 Pls
3882 593 Pls
3882 280 Pls
3883 280 Pls
3883 593 Pls
3884 280 Pls
3884 280 Pls
3884 280 Pls
3884 477 Pls
3885 593 Pls
3885 280 Pls
3885 280 Pls
3886 280 Pls
3886 280 Pls
3886 280 Pls
3886 477 Pls
3887 280 Pls
3887 280 Pls
3887 280 Pls
3887 593 Pls
3888 477 Pls
3889 280 Pls
3889 477 Pls
3889 280 Pls
3889 280 Pls
3889 280 Pls
3890 477 Pls
3890 477 Pls
3890 280 Pls
3891 280 Pls
3891 477 Pls
3891 280 Pls
3891 280 Pls
3892 675 Pls
3892 477 Pls
3893 593 Pls
3893 593 Pls
3893 593 Pls
3894 280 Pls
3894 280 Pls
3894 477 Pls
3895 593 Pls
3895 280 Pls
3896 477 Pls
3896 280 Pls
3896 477 Pls
3897 593 Pls
3897 477 Pls
3897 280 Pls
3897 477 Pls
3897 593 Pls
3898 280 Pls
3898 280 Pls
3899 477 Pls
3899 280 Pls
3899 280 Pls
3899 477 Pls
3900 280 Pls
3900 477 Pls
3900 675 Pls
3900 280 Pls
3901 593 Pls
3901 280 Pls
3901 593 Pls
3901 280 Pls
3902 280 Pls
3902 280 Pls
3902 593 Pls
3902 477 Pls
3903 280 Pls
3903 280 Pls
3903 280 Pls
3904 280 Pls
3904 280 Pls
3904 280 Pls
3905 280 Pls
3905 477 Pls
3905 280 Pls
3905 280 Pls
3906 280 Pls
3906 477 Pls
3906 477 Pls
3906 477 Pls
3907 280 Pls
3907 280 Pls
3907 477 Pls
3907 477 Pls
3908 593 Pls
3908 280 Pls
3908 477 Pls
3909 280 Pls
3909 280 Pls
3909 280 Pls
3909 280 Pls
3910 280 Pls
3910 477 Pls
3910 477 Pls
3910 280 Pls
3911 593 Pls
3911 477 Pls
3911 675 Pls
3912 280 Pls
3912 477 Pls
3913 280 Pls
3913 280 Pls
3913 593 Pls
3913 280 Pls
3914 280 Pls
3914 675 Pls
3914 280 Pls
3915 280 Pls
3915 675 Pls
3915 477 Pls
3915 280 Pls
3916 593 Pls
3917 280 Pls
3917 477 Pls
3917 280 Pls
3918 280 Pls
3918 280 Pls
3919 477 Pls
3919 280 Pls
3919 477 Pls
3919 477 Pls
3919 477 Pls
3920 280 Pls
3920 477 Pls
3920 280 Pls
3921 593 Pls
3921 477 Pls
3922 593 Pls
3922 280 Pls
3922 280 Pls
3922 280 Pls
3922 280 Pls
3923 593 Pls
3923 477 Pls
3923 280 Pls
3923 280 Pls
3924 280 Pls
3924 675 Pls
3924 477 Pls
3924 280 Pls
3925 280 Pls
3925 280 Pls
3925 593 Pls
3926 593 Pls
3926 477 Pls
3926 675 Pls
3927 593 Pls
3927 675 Pls
3927 477 Pls
3927 675 Pls
3928 280 Pls
3928 477 Pls
3928 280 Pls
3929 280 Pls
3929 593 Pls
3929 280 Pls
3929 280 Pls
3930 280 Pls
3931 477 Pls
3932 593 Pls
3932 477 Pls
3932 280 Pls
3932 477 Pls
3933 738 Pls
3933 280 Pls
3934 280 Pls
3934 280 Pls
3934 280 Pls
3934 477 Pls
3934 280 Pls
3935 280 Pls
3935 477 Pls
3935 477 Pls
3936 280 Pls
3936 280 Pls
3937 280 Pls
3937 477 Pls
3937 280 Pls
3937 593 Pls
3937 280 Pls
3938 280 Pls
3938 280 Pls
3938 280 Pls
3939 593 Pls
3939 280 Pls
3939 280 Pls
3940 280 Pls
3940 280 Pls
3940 280 Pls
3941 280 Pls
3941 280 Pls
3942 477 Pls
3942 280 Pls
3942 280 Pls
3942 477 Pls
3942 477 Pls
3943 477 Pls
3943 477 Pls
3944 280 Pls
3944 280 Pls
3945 280 Pls
3945 280 Pls
3946 477 Pls
3947 738 Pls
3947 477 Pls
3947 280 Pls
3948 280 Pls
3948 280 Pls
3948 280 Pls
3949 280 Pls
3949 477 Pls
3949 280 Pls
3949 477 Pls
3949 280 Pls
3951 593 Pls
3951 477 Pls
3952 280 Pls
3953 280 Pls
3953 280 Pls
3954 280 Pls
3954 477 Pls
3954 280 Pls
3954 280 Pls
3955 477 Pls
3955 593 Pls
3955 593 Pls
3955 280 Pls
3956 280 Pls
3956 280 Pls
3956 280 Pls
3956 593 Pls
3956 280 Pls
3957 675 Pls
3957 280 Pls
3957 280 Pls
3958 280 Pls
3958 477 Pls
3958 280 Pls
3959 280 Pls
3960 477 Pls
3960 477 Pls
3960 280 Pls
3961 477 Pls
3961 280 Pls
3962 477 Pls
3962 280 Pls
3962 280 Pls
3962 593 Pls
3962 477 Pls
3963 280 Pls
3963 280 Pls
3964 280 Pls
3964 280 Pls
3964 280 Pls
3965 675 Pls
3965 280 Pls
3965 477 Pls
3966 477 Pls
3966 280 Pls
3966 477 Pls
3967 280 Pls
3967 280 Pls
3967 675 Pls
3967 280 Pls
3968 593 Pls
3968 280 Pls
3968 593 Pls
3968 280 Pls
3968 477 Pls
3969 280 Pls
3969 280 Pls
3969 477 Pls
3970 280 Pls
3970 280 Pls
3970 280 Pls
3970 280 Pls
3971 477 Pls
3972 477 Pls
3972 477 Pls
3972 280 Pls
3972 280 Pls
3973 477 Pls
3973 477 Pls
3973 477 Pls
3974 280 Pls
3974 280 Pls
3975 280 Pls
3975 477 Pls
3976 280 Pls
3976 280 Pls
3976 280 Pls
3976 280 Pls
3977 280 Pls
3978 280 Pls
3978 593 Pls
3979 280 Pls
3980 675 Pls
3980 477 Pls
3980 593 Pls
3980 280 Pls
3980 280 Pls
3981 280 Pls
3981 280 Pls
3981 280 Pls
3982 280 Pls
3982 477 Pls
3982 280 Pls
3983 477 Pls
3983 280 Pls
3983 280 Pls
3984 477 Pls
3984 675 Pls
3984 280 Pls
3985 593 Pls
3985 280 Pls
3985 280 Pls
3985 477 Pls
3986 280 Pls
3986 280 Pls
3986 477 Pls
3986 477 Pls
3987 280 Pls
3987 477 Pls
3987 477 Pls
3988 477 Pls
3988 593 Pls
3988 280 Pls
3988 280 Pls
3989 477 Pls
3989 593 Pls
3990 280 Pls
3990 280 Pls
3990 280 Pls
3990 280 Pls
3990 280 Pls
3991 280 Pls
3991 280 Pls
3991 280 Pls
3992 593 Pls
3992 280 Pls
3992 593 Pls
3993 280 Pls
3993 280 Pls
3993 593 Pls
3993 280 Pls
3993 593 Pls
3994 280 Pls
3994 280 Pls
3994 477 Pls
3994 280 Pls
3995 280 Pls
3996 280 Pls
3996 280 Pls
3996 477 Pls
3996 280 Pls
3996 593 Pls
3997 280 Pls
3997 477 Pls
3997 280 Pls
3998 280 Pls
3999 477 Pls
3999 280 Pls
3999 280 Pls
3999 280 Pls
4000 280 Pls
4000 477 Pls
4000 280 Pls
4000 280 Pls
4001 593 Pls
4001 477 Pls
4001 738 Pls
4001 280 Pls
4002 477 Pls
4002 477 Pls
4002 477 Pls
4002 477 Pls
4003 280 Pls
4003 477 Pls
4003 280 Pls
4004 477 Pls
4004 477 Pls
4004 477 Pls
4004 280 Pls
4005 280 Pls
4005 280 Pls
4005 280 Pls
4005 280 Pls
4005 280 Pls
4006 280 Pls
4007 477 Pls
4007 280 Pls
4007 280 Pls
4007 280 Pls
4007 280 Pls
4008 280 Pls
4008 280 Pls
4008 280 Pls
4008 280 Pls
4008 280 Pls
4009 280 Pls
4009 280 Pls
4009 477 Pls
4009 280 Pls
4010 593 Pls
4010 280 Pls
4010 675 Pls
4010 477 Pls
4011 477 Pls
4011 280 Pls
4011 477 Pls
4011 593 Pls
4012 280 Pls
4012 280 Pls
4012 280 Pls
4013 593 Pls
4013 477 Pls
4013 477 Pls
4014 477 Pls
4014 477 Pls
4014 280 Pls
4015 477 Pls
4015 477 Pls
4015 280 Pls
4016 280 Pls
4016 280 Pls
4016 280 Pls
4017 477 Pls
4017 280 Pls
4018 280 Pls
4018 593 Pls
4018 280 Pls
4019 477 Pls
4019 593 Pls
4020 280 Pls
4020 477 Pls
4020 477 Pls
4021 477 Pls
4021 280 Pls
4021 477 Pls
4022 280 Pls
4022 280 Pls
4023 280 Pls
4023 280 Pls
4023 280 Pls
4024 280 Pls
4024 280 Pls
4024 477 Pls
4025 280 Pls
4025 280 Pls
4025 593 Pls
4026 477 Pls
4026 593 Pls
4027 280 Pls
4027 280 Pls
4027 280 Pls
4027 280 Pls
4028 280 Pls
4028 280 Pls
4029 593 Pls
4029 280 Pls
4029 280 Pls
4029 280 Pls
4029 280 Pls
4030 280 Pls
4030 280 Pls
4031 477 Pls
4031 280 Pls
4031 280 Pls
4031 280 Pls
4031 477 Pls
4032 280 Pls
4032 280 Pls
4032 280 Pls
4033 280 Pls
4033 280 Pls
4033 280 Pls
4033 280 Pls
4033 280 Pls
4034 280 Pls
4035 280 Pls
4036 477 Pls
4036 280 Pls
4037 280 Pls
4037 280 Pls
4037 280 Pls
4038 280 Pls
4038 280 Pls
4038 280 Pls
4038 280 Pls
4038 477 Pls
4039 280 Pls
4039 477 Pls
4039 280 Pls
4039 280 Pls
4039 280 Pls
4040 280 Pls
4040 477 Pls
4040 280 Pls
4040 280 Pls
4040 280 Pls
4041 280 Pls
4041 477 Pls
4041 280 Pls
4041 280 Pls
4042 280 Pls
4042 280 Pls
4043 280 Pls
4043 280 Pls
4043 280 Pls
4044 280 Pls
4044 280 Pls
4046 280 Pls
4046 280 Pls
4047 280 Pls
4047 280 Pls
4048 280 Pls
4048 280 Pls
4048 280 Pls
4049 280 Pls
4049 280 Pls
4050 280 Pls
4050 280 Pls
4050 477 Pls
4051 280 Pls
4051 477 Pls
4052 477 Pls
4052 477 Pls
4052 280 Pls
4052 280 Pls
4053 477 Pls
4053 280 Pls
4053 280 Pls
4053 280 Pls
4053 477 Pls
4054 280 Pls
4054 280 Pls
4054 280 Pls
4055 280 Pls
4055 280 Pls
4056 280 Pls
4056 280 Pls
4056 280 Pls
4056 280 Pls
4056 280 Pls
4057 280 Pls
4057 280 Pls
4058 280 Pls
4058 280 Pls
4058 280 Pls
4059 280 Pls
4059 477 Pls
4059 280 Pls
4059 280 Pls
4060 280 Pls
4060 280 Pls
4060 477 Pls
4061 280 Pls
4061 280 Pls
4061 280 Pls
4062 280 Pls
4062 280 Pls
4062 477 Pls
4063 280 Pls
4063 280 Pls
4063 477 Pls
4064 593 Pls
4064 477 Pls
4064 280 Pls
4064 280 Pls
4065 280 Pls
4065 477 Pls
4066 593 Pls
4066 280 Pls
4066 280 Pls
4066 280 Pls
4067 280 Pls
4067 280 Pls
4068 280 Pls
4069 280 Pls
4069 280 Pls
4069 280 Pls
4070 280 Pls
4071 477 Pls
4071 280 Pls
4071 280 Pls
4071 280 Pls
4072 280 Pls
4072 280 Pls
4073 280 Pls
4073 280 Pls
4073 280 Pls
4074 280 Pls
4074 280 Pls
4074 280 Pls
4074 477 Pls
4075 280 Pls
4075 280 Pls
4075 280 Pls
4075 477 Pls
4076 280 Pls
4076 280 Pls
4076 280 Pls
4076 280 Pls
4077 477 Pls
4077 280 Pls
4077 280 Pls
4077 477 Pls
4078 477 Pls
4078 477 Pls
4078 477 Pls
4078 280 Pls
4078 280 Pls
4078 593 Pls
4079 280 Pls
4079 280 Pls
4079 280 Pls
4080 477 Pls
4080 280 Pls
4081 280 Pls
4081 280 Pls
4081 280 Pls
4082 280 Pls
4082 280 Pls
4083 280 Pls
4083 280 Pls
4083 280 Pls
4083 280 Pls
4083 280 Pls
4085 280 Pls
4085 280 Pls
4086 280 Pls
4086 477 Pls
4087 477 Pls
4087 280 Pls
4087 280 Pls
4087 280 Pls
4087 280 Pls
4087 280 Pls
4088 280 Pls
4088 280 Pls
4088 280 Pls
4088 477 Pls
4089 477 Pls
4089 675 Pls
4089 280 Pls
4090 280 Pls
4090 477 Pls
4090 280 Pls
4091 593 Pls
4092 280 Pls
4092 280 Pls
4093 477 Pls
4093 280 Pls
4094 280 Pls
4094 280 Pls
4094 280 Pls
4094 280 Pls
4095 280 Pls
4095 280 Pls
4096 280 Pls
4096 280 Pls
4096 280 Pls
4097 280 Pls
4097 280 Pls
4097 477 Pls
4098 280 Pls
4098 280 Pls
4099 280 Pls
4099 280 Pls
4100 280 Pls
4100 280 Pls
4101 280 Pls
4101 593 Pls
4101 477 Pls
4102 477 Pls
4102 280 Pls
4102 280 Pls
4103 477 Pls
4103 280 Pls
4103 280 Pls
4104 280 Pls
4104 280 Pls
4104 280 Pls
4104 280 Pls
4105 280 Pls
4105 280 Pls
4105 280 Pls
4106 477 Pls
4106 280 Pls
4106 280 Pls
4107 477 Pls
4107 280 Pls
4107 280 Pls
4108 477 Pls
4108 477 Pls
4108 280 Pls
4108 280 Pls
4109 280 Pls
4109 280 Pls
4109 280 Pls
4110 280 Pls
4110 280 Pls
4110 477 Pls
4110 280 Pls
4110 280 Pls
4111 280 Pls
4111 280 Pls
4111 280 Pls
4111 280 Pls
4111 280 Pls
4112 280 Pls
4113 477 Pls
4113 280 Pls
4114 280 Pls
4114 280 Pls
4114 280 Pls
4115 280 Pls
4115 280 Pls
4115 280 Pls
4116 477 Pls
4116 280 Pls
4117 280 Pls
4117 280 Pls
4117 477 Pls
4118 477 Pls
4118 675 Pls
4118 280 Pls
4118 280 Pls
4118 593 Pls
4118 280 Pls
4119 280 Pls
4119 675 Pls
4119 477 Pls
4119 280 Pls
4119 675 Pls
4119 834 Pls
4120 1416 Pls
4120 280 Pls
4120 280 Pls
4121 280 Pls
4122 477 Pls
4122 280 Pls
4123 280 Pls
4123 477 Pls
4123 280 Pls
4123 280 Pls
4124 280 Pls
4125 280 Pls
4125 280 Pls
4125 280 Pls
4126 477 Pls
4126 280 Pls
4126 477 Pls
4127 280 Pls
4127 280 Pls
4127 280 Pls
4127 280 Pls
4127 280 Pls
4129 280 Pls
4129 477 Pls
4129 280 Pls
4129 280 Pls
4130 280 Pls
4130 280 Pls
4131 280 Pls
4131 477 Pls
4131 280 Pls
4132 280 Pls
4132 280 Pls
4133 280 Pls
4133 280 Pls
4133 280 Pls
4133 280 Pls
4134 477 Pls
4134 280 Pls
4134 280 Pls
4135 280 Pls
4135 593 Pls
4135 280 Pls
4135 280 Pls
4136 280 Pls
4136 280 Pls
4136 280 Pls
4136 477 Pls
4137 280 Pls
4137 280 Pls
4137 280 Pls
4138 280 Pls
4138 477 Pls
4138 280 Pls
4139 280 Pls
4139 280 Pls
4139 280 Pls
4140 280 Pls
4140 280 Pls
4140 280 Pls
4141 280 Pls
4141 280 Pls
4141 280 Pls
4141 280 Pls
4142 280 Pls
4142 280 Pls
4143 477 Pls
4143 280 Pls
4145 280 Pls
4145 280 Pls
4145 280 Pls
4146 280 Pls
4146 280 Pls
4147 280 Pls
4147 477 Pls
4147 280 Pls
4148 280 Pls
4148 280 Pls
4149 477 Pls
4149 280 Pls
4149 280 Pls
4150 477 Pls
4150 280 Pls
4150 280 Pls
4151 280 Pls
4151 280 Pls
4151 280 Pls
4152 738 Pls
4152 280 Pls
4152 280 Pls
4152 280 Pls
4153 280 Pls
4153 280 Pls
4153 280 Pls
4154 280 Pls
4155 280 Pls
4156 280 Pls
4156 280 Pls
4156 280 Pls
4156 280 Pls
4156 280 Pls
4157 280 Pls
4157 280 Pls
4157 477 Pls
4158 280 Pls
4158 280 Pls
4158 280 Pls
4159 280 Pls
4159 280 Pls
4159 280 Pls
4159 477 Pls
4160 593 Pls
4160 280 Pls
4160 477 Pls
4161 280 Pls
4162 280 Pls
4163 280 Pls
4164 280 Pls
4164 477 Pls
4165 280 Pls
4166 280 Pls
4167 280 Pls
4167 280 Pls
4167 477 Pls
4167 280 Pls
4168 280 Pls
4169 280 Pls
4169 280 Pls
4170 280 Pls
4170 280 Pls
4170 593 Pls
4171 280 Pls
4171 477 Pls
4171 280 Pls
4172 280 Pls
4172 280 Pls
4172 280 Pls
4173 280 Pls
4173 280 Pls
4174 280 Pls
4175 280 Pls
4175 280 Pls
4176 280 Pls
4176 280 Pls
4176 280 Pls
4176 477 Pls
4177 280 Pls
4177 280 Pls
4177 280 Pls
4177 280 Pls
4179 280 Pls
4179 280 Pls
4180 593 Pls
4181 280 Pls
4181 280 Pls
4181 280 Pls
4181 280 Pls
4182 280 Pls
4182 477 Pls
4182 280 Pls
4183 280 Pls
4184 280 Pls
4184 280 Pls
4184 280 Pls
4185 280 Pls
4185 477 Pls
4185 280 Pls
4186 280 Pls
4186 280 Pls
4186 280 Pls
4186 593 Pls
4186 593 Pls
4186 593 Pls
4186 280 Pls
4188 477 Pls
4188 280 Pls
4189 280 Pls
4189 280 Pls
4189 280 Pls
4190 280 Pls
4190 280 Pls
4190 280 Pls
4191 280 Pls
4191 280 Pls
4191 280 Pls
4192 280 Pls
4192 280 Pls
4193 280 Pls
4193 280 Pls
4193 280 Pls
4193 280 Pls
4195 280 Pls
4195 280 Pls
4196 280 Pls
4196 477 Pls
4196 280 Pls
4197 280 Pls
4197 280 Pls
4197 280 Pls
4198 477 Pls
4198 280 Pls
4199 280 Pls
4200 280 Pls
4200 477 Pls
4200 280 Pls
4200 280 Pls
4201 280 Pls
4201 477 Pls
4202 280 Pls
4202 280 Pls
4202 280 Pls
4202 280 Pls
4203 280 Pls
4203 280 Pls
4204 280 Pls
4204 280 Pls
4204 280 Pls
4205 280 Pls
4205 280 Pls
4205 280 Pls
4206 280 Pls
4206 280 Pls
4206 593 Pls
4206 280 Pls
4206 280 Pls
4206 280 Pls
4207 280 Pls
4207 280 Pls
4207 280 Pls
4207 280 Pls
4207 280 Pls
4207 477 Pls
4208 477 Pls
4208 280 Pls
4208 593 Pls
4208 280 Pls
4208 280 Pls
4210 280 Pls
4210 477 Pls
4210 280 Pls
4211 280 Pls
4211 280 Pls
4211 280 Pls
4211 280 Pls
4211 280 Pls
4212 280 Pls
4212 280 Pls
4212 280 Pls
4213 477 Pls
4213 280 Pls
4213 280 Pls
4213 280 Pls
4214 280 Pls
4214 477 Pls
4215 280 Pls
4215 280 Pls
4215 280 Pls
4215 280 Pls
4215 280 Pls
4216 280 Pls
4216 280 Pls
4216 280 Pls
4216 280 Pls
4217 280 Pls
4217 280 Pls
4217 280 Pls
4217 477 Pls
4217 280 Pls
4218 280 Pls
4218 280 Pls
4218 280 Pls
4219 280 Pls
4219 280 Pls
4219 280 Pls
4220 280 Pls
4220 280 Pls
4221 280 Pls
4221 280 Pls
4221 280 Pls
4222 280 Pls
4222 280 Pls
4223 280 Pls
4223 280 Pls
4224 280 Pls
4225 280 Pls
4225 280 Pls
4226 280 Pls
4226 477 Pls
4227 280 Pls
4227 280 Pls
4228 280 Pls
4228 280 Pls
4229 280 Pls
4230 280 Pls
4230 477 Pls
4230 280 Pls
4230 280 Pls
4230 280 Pls
4231 280 Pls
4231 280 Pls
4232 280 Pls
4232 280 Pls
4232 280 Pls
4233 280 Pls
4233 280 Pls
4233 280 Pls
4234 280 Pls
4235 280 Pls
4235 280 Pls
4236 280 Pls
4236 280 Pls
4237 280 Pls
4237 280 Pls
4238 280 Pls
4238 280 Pls
4239 280 Pls
4239 280 Pls
4239 280 Pls
4240 280 Pls
4240 280 Pls
4240 280 Pls
4240 477 Pls
4240 280 Pls
4240 280 Pls
4241 280 Pls
4241 280 Pls
4242 280 Pls
4242 280 Pls
4242 477 Pls
4242 280 Pls
4243 280 Pls
4243 280 Pls
4244 280 Pls
4245 280 Pls
4245 280 Pls
4246 280 Pls
4246 280 Pls
4247 280 Pls
4247 477 Pls
4247 280 Pls
4249 280 Pls
4249 280 Pls
4249 280 Pls
4250 280 Pls
4250 280 Pls
4251 280 Pls
4251 280 Pls
4252 280 Pls
4252 280 Pls
4252 280 Pls
4252 280 Pls
4252 280 Pls
4252 280 Pls
4252 280 Pls
4253 477 Pls
4253 280 Pls
4254 280 Pls
4254 280 Pls
4254 280 Pls
4255 280 Pls
4255 477 Pls
4255 477 Pls
4256 280 Pls
4256 280 Pls
4257 280 Pls
4258 280 Pls
4258 280 Pls
4258 280 Pls
4260 280 Pls
4260 280 Pls
4262 280 Pls
4262 280 Pls
4262 593 Pls
4262 280 Pls
4263 280 Pls
4263 280 Pls
4263 280 Pls
4264 593 Pls
4264 280 Pls
4265 477 Pls
4265 280 Pls
4265 477 Pls
4266 280 Pls
4266 477 Pls
4267 280 Pls
4267 280 Pls
4267 280 Pls
4269 280 Pls
4269 280 Pls
4269 280 Pls
4269 280 Pls
4270 280 Pls
4270 280 Pls
4271 280 Pls
4271 280 Pls
4271 280 Pls
4272 280 Pls
4272 280 Pls
4272 280 Pls
4272 280 Pls
4273 477 Pls
4273 280 Pls
4273 280 Pls
4273 280 Pls
4273 280 Pls
4275 280 Pls
4275 280 Pls
4275 280 Pls
4275 477 Pls
4275 280 Pls
4276 280 Pls
4276 280 Pls
4277 280 Pls
4277 280 Pls
4278 280 Pls
4278 280 Pls
4279 477 Pls
4279 477 Pls
4280 280 Pls
4280 280 Pls
4280 280 Pls
4281 280 Pls
4281 477 Pls
4281 280 Pls
4282 280 Pls
4282 477 Pls
4282 280 Pls
4283 280 Pls
4283 280 Pls
4284 280 Pls
4284 280 Pls
4285 280 Pls
4285 280 Pls
4285 280 Pls
4285 280 Pls
4286 280 Pls
4287 280 Pls
4287 280 Pls
4288 280 Pls
4289 280 Pls
4289 280 Pls
4290 477 Pls
4292 593 Pls
4292 280 Pls
4293 280 Pls
4294 280 Pls
4294 477 Pls
4295 280 Pls
4295 280 Pls
4295 280 Pls
4295 280 Pls
4295 280 Pls
4296 477 Pls
4296 477 Pls
4297 280 Pls
4297 280 Pls
4297 280 Pls
4297 280 Pls
4298 280 Pls
4298 280 Pls
4298 280 Pls
4298 280 Pls
4299 280 Pls
4299 280 Pls
4300 280 Pls
4300 280 Pls
4301 280 Pls
4301 280 Pls
4301 280 Pls
4301 280 Pls
4302 280 Pls
4302 280 Pls
4304 477 Pls
4304 477 Pls
4304 280 Pls
4304 280 Pls
4305 477 Pls
4306 477 Pls
4306 280 Pls
4307 280 Pls
4307 280 Pls
4308 280 Pls
4308 280 Pls
4308 280 Pls
4308 280 Pls
4308 280 Pls
4309 280 Pls
4309 593 Pls
4309 280 Pls
4310 280 Pls
4310 280 Pls
4310 477 Pls
4311 280 Pls
4311 280 Pls
4312 280 Pls
4312 477 Pls
4313 280 Pls
4313 280 Pls
4315 280 Pls
4315 280 Pls
4315 280 Pls
4316 280 Pls
4316 280 Pls
4317 280 Pls
4317 477 Pls
4318 280 Pls
4318 280 Pls
4318 280 Pls
4319 280 Pls
4319 280 Pls
4319 280 Pls
4319 280 Pls
4319 280 Pls
4319 280 Pls
4320 477 Pls
4321 280 Pls
4321 280 Pls
4321 280 Pls
4322 477 Pls
4322 477 Pls
4322 675 Pls
4323 477 Pls
4323 280 Pls
4323 280 Pls
4323 280 Pls
4324 280 Pls
4324 280 Pls
4324 280 Pls
4325 280 Pls
4325 280 Pls
4325 280 Pls
4325 477 Pls
4325 280 Pls
4325 280 Pls
4325 280 Pls
4325 280 Pls
4326 280 Pls
4326 280 Pls
4326 477 Pls
4328 280 Pls
4328 280 Pls
4328 280 Pls
4328 280 Pls
4329 280 Pls
4330 280 Pls
4330 280 Pls
4330 477 Pls
4331 280 Pls
4332 280 Pls
4332 280 Pls
4332 280 Pls
4332 280 Pls
4333 477 Pls
4334 280 Pls
4334 280 Pls
4334 280 Pls
4335 280 Pls
4337 280 Pls
4337 280 Pls
4337 280 Pls
4338 280 Pls
4338 280 Pls
4338 280 Pls
4338 280 Pls
4339 280 Pls
4339 280 Pls
4339 280 Pls
4340 280 Pls
4340 280 Pls
4341 280 Pls
4341 280 Pls
4342 280 Pls
4343 280 Pls
4345 280 Pls
4345 280 Pls
4345 280 Pls
4346 280 Pls
4346 280 Pls
4346 477 Pls
4347 280 Pls
4347 280 Pls
4347 280 Pls
4347 280 Pls
4348 280 Pls
4349 280 Pls
4350 280 Pls
4351 280 Pls
4351 280 Pls
4351 280 Pls
4352 280 Pls
4352 280 Pls
4353 280 Pls
4353 280 Pls
4353 280 Pls
4354 280 Pls
4354 477 Pls
4355 280 Pls
4355 280 Pls
4355 477 Pls
4356 477 Pls
4357 280 Pls
4357 280 Pls
4357 280 Pls
4358 280 Pls
4359 477 Pls
4360 280 Pls
4361 280 Pls
4361 280 Pls
4361 477 Pls
4362 280 Pls
4364 280 Pls
4364 280 Pls
4364 280 Pls
4365 280 Pls
4365 280 Pls
4365 280 Pls
4366 280 Pls
4366 280 Pls
4366 477 Pls
4367 280 Pls
4367 280 Pls
4367 280 Pls
4369 280 Pls
4369 280 Pls
4370 280 Pls
4370 280 Pls
4371 280 Pls
4372 280 Pls
4373 280 Pls
4373 280 Pls
4373 280 Pls
4373 280 Pls
4375 280 Pls
4376 280 Pls
4376 280 Pls
4377 280 Pls
4377 593 Pls
4377 280 Pls
4378 280 Pls
4378 280 Pls
4380 280 Pls
4380 280 Pls
4380 280 Pls
4381 280 Pls
4381 280 Pls
4381 280 Pls
4382 280 Pls
4382 477 Pls
4383 280 Pls
4383 280 Pls
4384 280 Pls
4384 280 Pls
4384 280 Pls
4384 280 Pls
4384 280 Pls
4385 280 Pls
4385 280 Pls
4388 280 Pls
4388 280 Pls
4388 280 Pls
4388 280 Pls
4388 280 Pls
4388 280 Pls
4389 280 Pls
4389 280 Pls
4389 280 Pls
4389 280 Pls
4389 280 Pls
4390 280 Pls
4390 280 Pls
4390 280 Pls
4390 280 Pls
4390 280 Pls
4391 280 Pls
4392 280 Pls
4392 280 Pls
4392 280 Pls
4393 280 Pls
4393 280 Pls
4393 280 Pls
4394 280 Pls
4394 280 Pls
4395 280 Pls
4396 280 Pls
4397 280 Pls
4397 280 Pls
4399 280 Pls
4400 280 Pls
4400 280 Pls
4401 280 Pls
4401 280 Pls
4402 280 Pls
4402 280 Pls
4403 280 Pls
4403 280 Pls
4403 280 Pls
4403 280 Pls
4404 280 Pls
4405 280 Pls
4405 280 Pls
4405 280 Pls
4405 280 Pls
4406 280 Pls
4407 280 Pls
4407 593 Pls
4408 280 Pls
4408 280 Pls
4408 477 Pls
4408 280 Pls
4409 280 Pls
4410 280 Pls
4410 280 Pls
4411 280 Pls
4411 280 Pls
4411 280 Pls
4411 280 Pls
4411 280 Pls
4412 280 Pls
4412 280 Pls
4413 477 Pls
4415 280 Pls
4415 280 Pls
4415 280 Pls
4416 280 Pls
4416 280 Pls
4417 280 Pls
4418 280 Pls
4418 280 Pls
4418 280 Pls
4419 280 Pls
4419 280 Pls
4420 280 Pls
4420 280 Pls
4422 280 Pls
4422 280 Pls
4423 280 Pls
4423 280 Pls
4423 280 Pls
4423 280 Pls
4424 280 Pls
4425 477 Pls
4425 280 Pls
4425 280 Pls
4426 280 Pls
4427 280 Pls
4427 280 Pls
4427 280 Pls
4427 280 Pls
4428 280 Pls
4428 280 Pls
4428 280 Pls
4428 280 Pls
4428 280 Pls
4428 280 Pls
4429 280 Pls
4429 280 Pls
4430 280 Pls
4430 280 Pls
4430 280 Pls
4432 280 Pls
4432 280 Pls
4433 280 Pls
4433 280 Pls
4434 280 Pls
4435 280 Pls
4436 280 Pls
4436 280 Pls
4437 477 Pls
4437 280 Pls
4437 280 Pls
4437 280 Pls
4438 280 Pls
4438 280 Pls
4441 280 Pls
4442 280 Pls
4444 280 Pls
4444 280 Pls
4447 280 Pls
4448 280 Pls
4448 280 Pls
4449 280 Pls
4450 280 Pls
4450 280 Pls
4451 280 Pls
4451 280 Pls
4451 280 Pls
4452 280 Pls
4452 280 Pls
4453 280 Pls
4453 280 Pls
4453 280 Pls
4453 280 Pls
4454 280 Pls
4454 280 Pls
4454 280 Pls
4454 280 Pls
4455 280 Pls
4455 280 Pls
4455 280 Pls
4456 280 Pls
4456 280 Pls
4456 280 Pls
4456 280 Pls
4457 280 Pls
4457 280 Pls
4457 280 Pls
4458 477 Pls
4458 280 Pls
4458 280 Pls
4458 280 Pls
4459 593 Pls
4459 280 Pls
4459 280 Pls
4459 280 Pls
4460 280 Pls
4461 280 Pls
4461 280 Pls
4461 280 Pls
4461 280 Pls
4462 280 Pls
4462 280 Pls
4462 280 Pls
4462 280 Pls
4462 280 Pls
4463 477 Pls
4463 280 Pls
4464 280 Pls
4464 280 Pls
4464 280 Pls
4465 477 Pls
4465 280 Pls
4465 280 Pls
4466 280 Pls
4466 280 Pls
4466 280 Pls
4466 280 Pls
4467 280 Pls
4467 280 Pls
4467 280 Pls
4468 280 Pls
4469 280 Pls
4469 280 Pls
4470 280 Pls
4470 280 Pls
4471 280 Pls
4471 477 Pls
4472 280 Pls
4472 280 Pls
4472 280 Pls
4472 280 Pls
4472 280 Pls
4472 280 Pls
4472 280 Pls
4473 280 Pls
4473 280 Pls
4474 280 Pls
4474 280 Pls
4475 280 Pls
4475 280 Pls
4475 280 Pls
4476 280 Pls
4477 280 Pls
4477 280 Pls
4478 280 Pls
4479 280 Pls
4479 280 Pls
4480 280 Pls
4480 280 Pls
4480 280 Pls
4481 280 Pls
4482 280 Pls
4483 280 Pls
4484 280 Pls
4484 280 Pls
4485 280 Pls
4485 280 Pls
4487 280 Pls
4487 280 Pls
4489 280 Pls
4489 280 Pls
4490 280 Pls
4490 280 Pls
4490 280 Pls
4491 280 Pls
4492 280 Pls
4492 280 Pls
4492 280 Pls
4493 280 Pls
4494 280 Pls
4495 280 Pls
4500 280 Pls
4501 593 Pls
4501 280 Pls
4501 477 Pls
4502 280 Pls
4502 280 Pls
4502 280 Pls
4502 280 Pls
4502 280 Pls
4503 280 Pls
4503 280 Pls
4503 280 Pls
4504 280 Pls
4504 593 Pls
4504 280 Pls
4505 280 Pls
4505 280 Pls
4505 280 Pls
4506 280 Pls
4506 280 Pls
4507 280 Pls
4507 280 Pls
4508 280 Pls
4509 280 Pls
4509 280 Pls
4509 280 Pls
4509 280 Pls
4509 477 Pls
4510 280 Pls
4510 280 Pls
4510 280 Pls
4511 280 Pls
4511 280 Pls
4511 280 Pls
4511 280 Pls
4512 280 Pls
4512 477 Pls
4513 280 Pls
4514 280 Pls
4514 280 Pls
4516 280 Pls
4516 280 Pls
4516 280 Pls
4516 280 Pls
4517 280 Pls
4517 280 Pls
4517 280 Pls
4517 280 Pls
4517 280 Pls
4517 280 Pls
4518 280 Pls
4519 280 Pls
4519 280 Pls
4520 280 Pls
4521 280 Pls
4522 280 Pls
4523 280 Pls
4523 280 Pls
4525 280 Pls
4525 280 Pls
4526 280 Pls
4526 280 Pls
4527 280 Pls
4527 280 Pls
4527 280 Pls
4528 280 Pls
4529 280 Pls
4529 280 Pls
4529 280 Pls
4529 280 Pls
4530 280 Pls
4530 280 Pls
4531 280 Pls
4532 280 Pls
4532 280 Pls
4533 280 Pls
4533 477 Pls
4534 280 Pls
4534 280 Pls
4534 280 Pls
4534 280 Pls
4534 280 Pls
4535 280 Pls
4535 280 Pls
4535 280 Pls
4537 280 Pls
4538 280 Pls
4539 280 Pls
4539 280 Pls
4540 280 Pls
4540 280 Pls
4541 280 Pls
4545 280 Pls
4545 280 Pls
4545 280 Pls
4545 280 Pls
4546 477 Pls
4546 280 Pls
4546 280 Pls
4546 280 Pls
4547 280 Pls
4547 280 Pls
4548 280 Pls
4549 280 Pls
4549 280 Pls
4549 280 Pls
4550 280 Pls
4552 280 Pls
4553 280 Pls
4553 280 Pls
4555 280 Pls
4555 280 Pls
4556 280 Pls
4556 280 Pls
4556 280 Pls
4558 280 Pls
4559 280 Pls
4560 280 Pls
4560 477 Pls
4560 280 Pls
4560 477 Pls
4560 477 Pls
4560 477 Pls
4561 280 Pls
4561 280 Pls
4561 280 Pls
4561 280 Pls
4562 280 Pls
4562 280 Pls
4563 280 Pls
4563 280 Pls
4563 280 Pls
4564 280 Pls
4565 280 Pls
4566 280 Pls
4567 280 Pls
4568 280 Pls
4569 280 Pls
4569 280 Pls
4570 280 Pls
4570 280 Pls
4570 280 Pls
4571 280 Pls
4572 280 Pls
4572 280 Pls
4572 280 Pls
4573 280 Pls
4573 280 Pls
4575 280 Pls
4575 280 Pls
4576 280 Pls
4577 280 Pls
4577 280 Pls
4577 280 Pls
4579 477 Pls
4579 280 Pls
4579 280 Pls
4580 280 Pls
4580 280 Pls
4581 280 Pls
4581 280 Pls
4582 280 Pls
4582 280 Pls
4583 280 Pls
4583 280 Pls
4583 280 Pls
4584 280 Pls
4585 280 Pls
4585 280 Pls
4586 477 Pls
4586 280 Pls
4586 280 Pls
4586 280 Pls
4587 280 Pls
4588 280 Pls
4589 280 Pls
4590 280 Pls
4591 280 Pls
4592 280 Pls
4594 280 Pls
4594 280 Pls
4595 280 Pls
4596 280 Pls
4596 280 Pls
4596 280 Pls
4597 280 Pls
4598 280 Pls
4598 280 Pls
4599 280 Pls
4599 280 Pls
4600 280 Pls
4601 280 Pls
4602 280 Pls
4603 280 Pls
4603 280 Pls
4604 280 Pls
4604 280 Pls
4605 280 Pls
4605 280 Pls
4605 280 Pls
4605 280 Pls
4606 477 Pls
4606 280 Pls
4606 280 Pls
4606 280 Pls
4607 280 Pls
4607 280 Pls
4608 280 Pls
4609 280 Pls
4609 280 Pls
4609 280 Pls
4609 280 Pls
4610 280 Pls
4611 280 Pls
4612 280 Pls
4612 280 Pls
4612 280 Pls
4613 280 Pls
4614 280 Pls
4614 280 Pls
4614 280 Pls
4614 280 Pls
4615 280 Pls
4615 280 Pls
4615 280 Pls
4615 280 Pls
4616 280 Pls
4617 477 Pls
4618 477 Pls
4618 280 Pls
4618 280 Pls
4618 280 Pls
4619 280 Pls
4620 280 Pls
4622 280 Pls
4622 280 Pls
4623 280 Pls
4623 280 Pls
4623 280 Pls
4624 280 Pls
4624 280 Pls
4625 280 Pls
4626 280 Pls
4626 280 Pls
4627 280 Pls
4628 280 Pls
4628 280 Pls
4629 280 Pls
4630 280 Pls
4631 280 Pls
4631 280 Pls
4631 280 Pls
4631 280 Pls
4632 280 Pls
4632 280 Pls
4633 280 Pls
4634 280 Pls
4634 280 Pls
4636 280 Pls
4637 280 Pls
4637 280 Pls
4638 280 Pls
4638 280 Pls
4639 280 Pls
4639 280 Pls
4640 280 Pls
4641 280 Pls
4642 280 Pls
4642 280 Pls
4643 280 Pls
4644 280 Pls
4644 280 Pls
4644 477 Pls
4645 280 Pls
4645 477 Pls
4645 477 Pls
4645 280 Pls
4647 280 Pls
4647 280 Pls
4648 280 Pls
4648 280 Pls
4648 280 Pls
4649 280 Pls
4650 280 Pls
4650 280 Pls
4650 280 Pls
4650 280 Pls
4652 280 Pls
4652 280 Pls
4652 280 Pls
4652 280 Pls
4654 280 Pls
4655 280 Pls
4655 280 Pls
4655 280 Pls
4655 280 Pls
4656 280 Pls
4656 280 Pls
4656 280 Pls
4657 280 Pls
4657 280 Pls
4657 280 Pls
4658 280 Pls
4659 280 Pls
4659 280 Pls
4660 280 Pls
4661 280 Pls
4662 280 Pls
4662 280 Pls
4662 280 Pls
4662 280 Pls
4663 280 Pls
4663 280 Pls
4663 280 Pls
4664 280 Pls
4665 280 Pls
4666 280 Pls
4666 280 Pls
4667 280 Pls
4668 280 Pls
4668 280 Pls
4668 280 Pls
4668 280 Pls
4668 280 Pls
4669 280 Pls
4670 280 Pls
4670 280 Pls
4671 280 Pls
4671 280 Pls
4671 280 Pls
4671 280 Pls
4672 280 Pls
4673 280 Pls
4673 280 Pls
4673 280 Pls
4673 280 Pls
4673 280 Pls
4674 280 Pls
4674 280 Pls
4674 280 Pls
4674 280 Pls
4675 280 Pls
4676 280 Pls
4677 280 Pls
4677 280 Pls
4677 280 Pls
4677 280 Pls
4677 280 Pls
4678 280 Pls
4679 280 Pls
4679 280 Pls
4680 280 Pls
4680 280 Pls
4680 477 Pls
4681 280 Pls
4681 280 Pls
4681 280 Pls
4682 477 Pls
4682 280 Pls
4683 280 Pls
4683 280 Pls
4684 280 Pls
4684 280 Pls
4684 280 Pls
4685 280 Pls
4685 280 Pls
4685 280 Pls
4685 280 Pls
4686 280 Pls
4686 280 Pls
4687 280 Pls
4687 280 Pls
4688 280 Pls
4688 280 Pls
4688 280 Pls
4688 280 Pls
4689 477 Pls
4689 280 Pls
4689 280 Pls
4689 280 Pls
4690 280 Pls
4691 280 Pls
4692 280 Pls
4692 280 Pls
4692 280 Pls
4693 280 Pls
4693 280 Pls
4694 280 Pls
4694 280 Pls
4694 280 Pls
4694 280 Pls
4696 280 Pls
4696 280 Pls
4696 280 Pls
4697 280 Pls
4697 280 Pls
4697 280 Pls
4697 280 Pls
4697 280 Pls
4698 280 Pls
4699 280 Pls
4699 280 Pls
4699 280 Pls
4699 280 Pls
4699 280 Pls
4700 280 Pls
4700 280 Pls
4701 280 Pls
4701 280 Pls
4702 280 Pls
4703 280 Pls
4703 280 Pls
4705 280 Pls
4705 280 Pls
4705 280 Pls
4706 280 Pls
4706 477 Pls
4707 280 Pls
4708 280 Pls
4708 280 Pls
4708 280 Pls
4709 280 Pls
4709 280 Pls
4710 280 Pls
4710 280 Pls
4711 280 Pls
4712 280 Pls
4713 280 Pls
4713 280 Pls
4714 280 Pls
4714 280 Pls
4714 280 Pls
4718 280 Pls
4719 280 Pls
4720 280 Pls
4720 280 Pls
4721 280 Pls
4721 280 Pls
4722 280 Pls
4723 280 Pls
4724 280 Pls
4724 280 Pls
4724 280 Pls
4724 280 Pls
4725 280 Pls
4726 280 Pls
4726 280 Pls
4726 280 Pls
4726 280 Pls
4727 280 Pls
4727 280 Pls
4727 280 Pls
4727 280 Pls
4728 280 Pls
4728 280 Pls
4729 280 Pls
4729 280 Pls
4729 280 Pls
4730 280 Pls
4730 280 Pls
4731 280 Pls
4731 280 Pls
4732 280 Pls
4732 280 Pls
4732 280 Pls
4733 280 Pls
4734 280 Pls
4735 280 Pls
4736 280 Pls
4736 280 Pls
4736 280 Pls
4737 280 Pls
4737 280 Pls
4738 280 Pls
4738 280 Pls
4739 280 Pls
4739 280 Pls
4741 280 Pls
4742 280 Pls
4742 280 Pls
4746 280 Pls
4748 280 Pls
4748 280 Pls
4749 280 Pls
4749 280 Pls
4750 280 Pls
4751 280 Pls
4751 280 Pls
4753 280 Pls
4755 280 Pls
4758 280 Pls
4759 280 Pls
4759 280 Pls
4759 280 Pls
4760 280 Pls
4761 280 Pls
4762 280 Pls
4762 280 Pls
4762 280 Pls
4764 280 Pls
4765 280 Pls
4765 280 Pls
4766 280 Pls
4766 280 Pls
4767 280 Pls
4767 280 Pls
4767 280 Pls
4767 280 Pls
4767 280 Pls
4768 280 Pls
4770 280 Pls
4771 280 Pls
4771 280 Pls
4772 280 Pls
4775 280 Pls
4776 280 Pls
4776 280 Pls
4777 280 Pls
4778 280 Pls
4778 280 Pls
4779 280 Pls
4779 280 Pls
4780 280 Pls
4780 280 Pls
4781 280 Pls
4781 280 Pls
4781 280 Pls
4781 280 Pls
4781 280 Pls
4781 280 Pls
4782 280 Pls
4782 280 Pls
4782 280 Pls
4782 280 Pls
4783 280 Pls
4784 280 Pls
4784 280 Pls
4786 280 Pls
4786 280 Pls
4786 280 Pls
4787 280 Pls
4787 280 Pls
4789 280 Pls
4789 280 Pls
4790 280 Pls
4790 280 Pls
4791 280 Pls
4793 280 Pls
4794 280 Pls
4794 280 Pls
4794 280 Pls
4794 280 Pls
4794 280 Pls
4794 280 Pls
4795 280 Pls
4796 280 Pls
4796 280 Pls
4797 280 Pls
4798 280 Pls
4798 280 Pls
4799 280 Pls
4800 280 Pls
4802 280 Pls
4802 280 Pls
4803 280 Pls
4803 280 Pls
4806 280 Pls
4806 280 Pls
4808 280 Pls
4808 280 Pls
4810 280 Pls
4811 280 Pls
4812 280 Pls
4813 280 Pls
4814 280 Pls
4814 280 Pls
4814 280 Pls
4814 280 Pls
4815 280 Pls
4816 280 Pls
4816 280 Pls
4816 280 Pls
4816 280 Pls
4816 280 Pls
4817 280 Pls
4817 280 Pls
4818 280 Pls
4819 280 Pls
4819 280 Pls
4820 280 Pls
4820 280 Pls
4821 280 Pls
4821 280 Pls
4822 280 Pls
4822 280 Pls
4822 280 Pls
4822 280 Pls
4823 280 Pls
4824 280 Pls
4824 280 Pls
4824 280 Pls
4825 280 Pls
4825 280 Pls
4825 280 Pls
4825 280 Pls
4825 280 Pls
4826 280 Pls
4826 280 Pls
4827 280 Pls
4829 280 Pls
4829 280 Pls
4829 280 Pls
4830 280 Pls
4831 280 Pls
4831 280 Pls
4831 280 Pls
4833 280 Pls
4834 280 Pls
4834 280 Pls
4835 280 Pls
4835 280 Pls
4836 280 Pls
4836 280 Pls
4836 280 Pls
4836 280 Pls
4837 280 Pls
4837 280 Pls
4837 280 Pls
4838 280 Pls
4838 280 Pls
4839 280 Pls
4840 280 Pls
4840 280 Pls
4840 280 Pls
4841 280 Pls
4843 280 Pls
4843 280 Pls
4845 280 Pls
4845 280 Pls
4846 280 Pls
4848 280 Pls
4850 280 Pls
4852 280 Pls
4853 280 Pls
4853 280 Pls
4853 280 Pls
4854 280 Pls
4855 280 Pls
4855 280 Pls
4855 280 Pls
4856 280 Pls
4857 280 Pls
4859 280 Pls
4860 280 Pls
4862 280 Pls
4863 280 Pls
4863 280 Pls
4864 280 Pls
4865 280 Pls
4865 280 Pls
4866 280 Pls
4866 280 Pls
4866 280 Pls
4866 280 Pls
4868 280 Pls
4868 280 Pls
4869 280 Pls
4870 280 Pls
4872 280 Pls
4873 280 Pls
4874 280 Pls
4874 280 Pls
4875 280 Pls
4875 280 Pls
4875 280 Pls
4876 280 Pls
4876 280 Pls
4877 477 Pls
4878 280 Pls
4882 280 Pls
4884 280 Pls
4884 280 Pls
4884 280 Pls
4884 280 Pls
4885 280 Pls
4886 280 Pls
4886 280 Pls
4887 280 Pls
4887 280 Pls
4887 280 Pls
4888 280 Pls
4888 280 Pls
4888 280 Pls
4889 280 Pls
4890 477 Pls
4890 280 Pls
4892 280 Pls
4893 280 Pls
4895 280 Pls
4896 280 Pls
4897 280 Pls
4898 280 Pls
4901 280 Pls
4901 280 Pls
4901 280 Pls
4901 280 Pls
4901 280 Pls
4901 280 Pls
4902 280 Pls
4902 280 Pls
4902 280 Pls
4902 280 Pls
4903 280 Pls
4903 280 Pls
4903 280 Pls
4903 280 Pls
4903 280 Pls
4903 280 Pls
4904 280 Pls
4904 280 Pls
4904 280 Pls
4904 280 Pls
4904 280 Pls
4905 280 Pls
4905 280 Pls
4905 280 Pls
4906 280 Pls
4906 280 Pls
4906 280 Pls
4906 477 Pls
4906 280 Pls
4906 280 Pls
4906 280 Pls
4907 280 Pls
4907 280 Pls
4907 280 Pls
4907 280 Pls
4907 280 Pls
4907 280 Pls
4907 280 Pls
4908 280 Pls
4908 280 Pls
4908 280 Pls
4908 280 Pls
4909 280 Pls
4909 280 Pls
4909 280 Pls
4909 280 Pls
4909 280 Pls
4909 280 Pls
4910 280 Pls
4910 280 Pls
4910 280 Pls
4910 280 Pls
4910 280 Pls
4910 280 Pls
4911 280 Pls
4911 280 Pls
4911 280 Pls
4911 280 Pls
4911 280 Pls
4911 280 Pls
4911 280 Pls
4911 280 Pls
4912 280 Pls
4912 280 Pls
4912 280 Pls
4912 280 Pls
4912 280 Pls
4912 280 Pls
4913 280 Pls
4913 280 Pls
4913 280 Pls
4913 280 Pls
4913 280 Pls
4913 280 Pls
4913 280 Pls
4913 280 Pls
4913 477 Pls
4914 280 Pls
4914 280 Pls
4914 280 Pls
4914 280 Pls
4914 280 Pls
4914 280 Pls
4914 280 Pls
4914 280 Pls
4914 280 Pls
4914 280 Pls
4914 280 Pls
4914 280 Pls
4915 280 Pls
4915 280 Pls
4915 280 Pls
4915 477 Pls
4915 280 Pls
4915 280 Pls
4915 280 Pls
4916 280 Pls
4916 280 Pls
4916 280 Pls
4916 280 Pls
4916 280 Pls
4916 280 Pls
4916 280 Pls
4917 280 Pls
4917 280 Pls
4917 280 Pls
4917 280 Pls
4917 280 Pls
4918 280 Pls
4918 280 Pls
4918 280 Pls
4918 280 Pls
4918 280 Pls
4918 280 Pls
4919 280 Pls
4919 280 Pls
4919 280 Pls
4919 280 Pls
4919 280 Pls
4919 280 Pls
4920 280 Pls
4920 280 Pls
4920 280 Pls
4920 280 Pls
4921 280 Pls
4921 280 Pls
4921 477 Pls
4922 280 Pls
4922 280 Pls
4922 280 Pls
4922 280 Pls
4922 280 Pls
4922 280 Pls
4922 280 Pls
4923 280 Pls
4923 280 Pls
4923 280 Pls
4924 280 Pls
4924 280 Pls
4925 280 Pls
4925 280 Pls
4925 280 Pls
4925 280 Pls
4925 280 Pls
4925 280 Pls
4926 280 Pls
4926 280 Pls
4926 280 Pls
4926 280 Pls
4926 280 Pls
4926 280 Pls
4927 280 Pls
4927 280 Pls
4927 280 Pls
4927 280 Pls
4927 280 Pls
4927 280 Pls
4927 280 Pls
4928 280 Pls
4928 280 Pls
4928 280 Pls
4928 280 Pls
4930 280 Pls
4930 280 Pls
4930 280 Pls
4930 593 Pls
4930 477 Pls
4930 280 Pls
4930 280 Pls
4930 280 Pls
4930 280 Pls
4930 280 Pls
4930 280 Pls
4930 280 Pls
4931 280 Pls
4931 280 Pls
4931 280 Pls
4931 280 Pls
4932 280 Pls
4932 280 Pls
4933 280 Pls
4933 280 Pls
4934 280 Pls
4935 280 Pls
4935 280 Pls
4936 280 Pls
4937 280 Pls
4938 280 Pls
4939 280 Pls
4939 280 Pls
4939 280 Pls
4940 280 Pls
4941 280 Pls
4942 280 Pls
4943 280 Pls
4943 280 Pls
4944 280 Pls
4944 280 Pls
4945 280 Pls
4945 280 Pls
4945 280 Pls
4945 280 Pls
4946 280 Pls
4947 280 Pls
4950 280 Pls
4950 280 Pls
4950 280 Pls
4951 280 Pls
4951 280 Pls
4952 280 Pls
4952 280 Pls
4953 280 Pls
4953 280 Pls
4953 280 Pls
4954 280 Pls
4955 280 Pls
4958 280 Pls
4958 280 Pls
4960 280 Pls
4960 280 Pls
4961 280 Pls
4961 280 Pls
4962 280 Pls
4962 280 Pls
4962 280 Pls
4962 280 Pls
4962 280 Pls
4963 280 Pls
4965 280 Pls
4966 280 Pls
4967 280 Pls
4968 280 Pls
4968 280 Pls
4968 280 Pls
4968 280 Pls
4970 280 Pls
4970 280 Pls
4973 280 Pls
4973 280 Pls
4975 280 Pls
4978 280 Pls
4979 280 Pls
4981 280 Pls
4982 280 Pls
4983 280 Pls
4983 280 Pls
4984 280 Pls
4985 280 Pls
4986 280 Pls
4987 280 Pls
4987 280 Pls
4988 280 Pls
4988 280 Pls
4992 280 Pls
4993 280 Pls
4994 280 Pls
4994 280 Pls
4998 280 Pls
4999 280 Pls
5000 280 Pls
5000 280 Pls
5000 280 Pls
5002 280 Pls
5003 280 Pls
5004 280 Pls
5004 280 Pls
5004 280 Pls
5008 280 Pls
5008 280 Pls
5009 280 Pls
5010 280 Pls
5013 280 Pls
5015 280 Pls
5015 280 Pls
5015 280 Pls
5016 280 Pls
5016 280 Pls
5016 280 Pls
5016 280 Pls
5017 280 Pls
5018 280 Pls
5023 280 Pls
5027 280 Pls
5029 280 Pls
5032 280 Pls
5034 280 Pls
5037 280 Pls
5038 280 Pls
5038 280 Pls
5040 280 Pls
5042 280 Pls
5042 280 Pls
5042 280 Pls
5043 280 Pls
5044 280 Pls
5044 280 Pls
5045 280 Pls
5047 280 Pls
5048 280 Pls
5050 280 Pls
5051 477 Pls
5053 280 Pls
5054 280 Pls
5054 280 Pls
5055 280 Pls
5056 280 Pls
5058 280 Pls
5059 280 Pls
5061 280 Pls
5063 280 Pls
5065 280 Pls
5066 280 Pls
5066 280 Pls
5066 280 Pls
5072 280 Pls
5072 280 Pls
5073 280 Pls
5073 280 Pls
5074 280 Pls
5075 280 Pls
5075 280 Pls
5075 280 Pls
5077 280 Pls
5079 280 Pls
5086 280 Pls
5086 280 Pls
5087 280 Pls
5088 280 Pls
5090 280 Pls
5092 280 Pls
5092 280 Pls
5095 280 Pls
5097 280 Pls
5102 280 Pls
5103 280 Pls
5104 280 Pls
5107 280 Pls
5107 280 Pls
5108 280 Pls
5113 280 Pls
5114 280 Pls
5114 280 Pls
5116 280 Pls
5116 280 Pls
5118 280 Pls
5119 280 Pls
5119 280 Pls
5120 280 Pls
5124 280 Pls
5124 280 Pls
5127 280 Pls
5128 280 Pls
5131 280 Pls
5132 280 Pls
5134 280 Pls
5136 280 Pls
5137 280 Pls
5137 280 Pls
5138 280 Pls
5138 280 Pls
5139 280 Pls
5141 280 Pls
5143 280 Pls
5143 280 Pls
5144 280 Pls
5145 280 Pls
5146 280 Pls
5147 280 Pls
5149 280 Pls
5149 280 Pls
5149 280 Pls
5150 280 Pls
5151 280 Pls
5151 280 Pls
5154 280 Pls
5157 280 Pls
5157 280 Pls
5158 280 Pls
5159 280 Pls
5162 280 Pls
5166 280 Pls
5168 280 Pls
5171 280 Pls
5171 280 Pls
5171 280 Pls
5172 280 Pls
5173 280 Pls
5178 280 Pls
5180 280 Pls
5181 280 Pls
5182 280 Pls
5182 280 Pls
5184 280 Pls
5186 280 Pls
5186 280 Pls
5187 280 Pls
5188 280 Pls
5190 280 Pls
5191 280 Pls
5197 280 Pls
5200 280 Pls
5202 280 Pls
5202 280 Pls
5206 280 Pls
5206 280 Pls
5206 280 Pls
5207 280 Pls
5210 280 Pls
5211 280 Pls
5214 280 Pls
5216 280 Pls
5220 280 Pls
5221 280 Pls
5221 280 Pls
5222 280 Pls
5222 280 Pls
5222 280 Pls
5223 280 Pls
5225 280 Pls
5225 280 Pls
5227 280 Pls
5227 280 Pls
5228 280 Pls
5229 280 Pls
5230 280 Pls
5236 280 Pls
5237 280 Pls
5242 280 Pls
5242 280 Pls
5246 280 Pls
5248 280 Pls
5249 280 Pls
5250 280 Pls
5252 280 Pls
5255 280 Pls
5256 280 Pls
5257 280 Pls
5259 280 Pls
5260 280 Pls
5261 280 Pls
5261 280 Pls
5263 280 Pls
5263 280 Pls
5265 280 Pls
5271 280 Pls
5271 280 Pls
5277 280 Pls
5280 280 Pls
5281 280 Pls
5282 280 Pls
5282 280 Pls
5283 280 Pls
5290 280 Pls
5296 280 Pls
5299 280 Pls
5303 280 Pls
5309 280 Pls
5316 280 Pls
5317 280 Pls
5319 280 Pls
5320 280 Pls
5327 280 Pls
5329 280 Pls
5330 280 Pls
5331 280 Pls
5340 280 Pls
5341 280 Pls
5341 280 Pls
5341 280 Pls
5343 280 Pls
5347 280 Pls
5348 280 Pls
5353 280 Pls
5357 280 Pls
5359 280 Pls
5364 280 Pls
5370 280 Pls
5373 280 Pls
5375 280 Pls
5378 280 Pls
5379 280 Pls
5382 280 Pls
5383 280 Pls
5385 280 Pls
5386 280 Pls
5389 280 Pls
5390 280 Pls
5391 280 Pls
5397 280 Pls
5405 280 Pls
5406 280 Pls
5406 280 Pls
5406 280 Pls
5409 280 Pls
5412 280 Pls
5412 280 Pls
5413 280 Pls
5413 280 Pls
5420 280 Pls
5421 280 Pls
5423 280 Pls
5428 280 Pls
5432 280 Pls
5437 280 Pls
5439 280 Pls
5450 280 Pls
5450 280 Pls
5451 280 Pls
5452 280 Pls
5464 280 Pls
5466 280 Pls
5470 280 Pls
5481 280 Pls
5486 280 Pls
5489 280 Pls
5492 280 Pls
5493 280 Pls
5496 280 Pls
5499 280 Pls
5502 280 Pls
5504 280 Pls
5504 280 Pls
5510 280 Pls
5511 280 Pls
5517 280 Pls
5517 280 Pls
5525 280 Pls
5532 280 Pls
5532 280 Pls
5540 280 Pls
5543 280 Pls
5543 280 Pls
5545 280 Pls
5545 280 Pls
5549 280 Pls
5550 280 Pls
5550 280 Pls
5552 280 Pls
5556 280 Pls
5558 280 Pls
5560 280 Pls
5561 280 Pls
5563 280 Pls
5570 280 Pls
5583 280 Pls
5585 280 Pls
5597 280 Pls
5599 280 Pls
5600 280 Pls
5604 280 Pls
5627 280 Pls
5638 280 Pls
5661 280 Pls
5662 280 Pls
5665 280 Pls
5667 280 Pls
5668 280 Pls
5681 280 Pls
5689 280 Pls
5692 280 Pls
5694 280 Pls
5698 280 Pls
5698 280 Pls
5706 280 Pls
5719 280 Pls
5719 280 Pls
5729 280 Pls
5737 280 Pls
5742 280 Pls
5750 280 Pls
5755 280 Pls
5756 280 Pls
5757 280 Pls
5767 280 Pls
5774 280 Pls
5778 280 Pls
5791 280 Pls
5792 280 Pls
5795 280 Pls
5813 280 Pls
5818 280 Pls
5819 280 Pls
5820 280 Pls
5826 280 Pls
5827 280 Pls
5846 280 Pls
5942 280 Pls
5957 280 Pls
5959 280 Pls
5984 280 Pls
6014 280 Pls
6045 280 Pls
6049 280 Pls
6090 280 Pls
6180 280 Pls
6192 280 Pls
6215 280 Pls
6238 280 Pls
6253 280 Pls
6261 280 Pls
6316 280 Pls
6317 280 Pls
6327 280 Pls
6402 280 Pls
6433 280 Pls
6494 280 Pls
6517 280 Pls
6656 280 Pls
6776 280 Pls
% End plot #1
2.000 UL
LTb
LCb setrgbcolor
1.000 UL
LTB
LCb setrgbcolor
798 4871 N
798 280 L
6149 0 V
0 4591 V
-6149 0 V
Z stroke
1.000 UP
1.000 UL
LTb
LCb setrgbcolor
stroke
grestore
end
showpage
%%Trailer
%%DocumentFonts: Helvetica
%%Pages: 1
