%!PS-Adobe-2.0
%%Title: packets-uv-s-ccdf-loglog.eps
%%Creator: gnuplot 5.0 patchlevel 3
%%CreationDate: Mon May 29 11:09:39 2017
%%DocumentFonts: (atend)
%%BoundingBox: 50 50 554 770
%%Orientation: Landscape
%%Pages: (atend)
%%EndComments
%%BeginProlog
/gnudict 256 dict def
gnudict begin
%
% The following true/false flags may be edited by hand if desired.
% The unit line width and grayscale image gamma correction may also be changed.
%
/Color true def
/Blacktext false def
/Solid false def
/Dashlength 1 def
/Landscape true def
/Level1 false def
/Level3 false def
/Rounded false def
/ClipToBoundingBox false def
/SuppressPDFMark false def
/TransparentPatterns false def
/gnulinewidth 5.000 def
/userlinewidth gnulinewidth def
/Gamma 1.0 def
/BackgroundColor {-1.000 -1.000 -1.000} def
%
/vshift -46 def
/dl1 {
  10.0 Dashlength userlinewidth gnulinewidth div mul mul mul
  Rounded { currentlinewidth 0.75 mul sub dup 0 le { pop 0.01 } if } if
} def
/dl2 {
  10.0 Dashlength userlinewidth gnulinewidth div mul mul mul
  Rounded { currentlinewidth 0.75 mul add } if
} def
/hpt_ 31.5 def
/vpt_ 31.5 def
/hpt hpt_ def
/vpt vpt_ def
/doclip {
  ClipToBoundingBox {
    newpath 50 50 moveto 554 50 lineto 554 770 lineto 50 770 lineto closepath
    clip
  } if
} def
%
% Gnuplot Prolog Version 5.1 (Oct 2015)
%
%/SuppressPDFMark true def
%
/M {moveto} bind def
/L {lineto} bind def
/R {rmoveto} bind def
/V {rlineto} bind def
/N {newpath moveto} bind def
/Z {closepath} bind def
/C {setrgbcolor} bind def
/f {rlineto fill} bind def
/g {setgray} bind def
/Gshow {show} def   % May be redefined later in the file to support UTF-8
/vpt2 vpt 2 mul def
/hpt2 hpt 2 mul def
/Lshow {currentpoint stroke M 0 vshift R 
	Blacktext {gsave 0 setgray textshow grestore} {textshow} ifelse} def
/Rshow {currentpoint stroke M dup stringwidth pop neg vshift R
	Blacktext {gsave 0 setgray textshow grestore} {textshow} ifelse} def
/Cshow {currentpoint stroke M dup stringwidth pop -2 div vshift R 
	Blacktext {gsave 0 setgray textshow grestore} {textshow} ifelse} def
/UP {dup vpt_ mul /vpt exch def hpt_ mul /hpt exch def
  /hpt2 hpt 2 mul def /vpt2 vpt 2 mul def} def
/DL {Color {setrgbcolor Solid {pop []} if 0 setdash}
 {pop pop pop 0 setgray Solid {pop []} if 0 setdash} ifelse} def
/BL {stroke userlinewidth 2 mul setlinewidth
	Rounded {1 setlinejoin 1 setlinecap} if} def
/AL {stroke userlinewidth 2 div setlinewidth
	Rounded {1 setlinejoin 1 setlinecap} if} def
/UL {dup gnulinewidth mul /userlinewidth exch def
	dup 1 lt {pop 1} if 10 mul /udl exch def} def
/PL {stroke userlinewidth setlinewidth
	Rounded {1 setlinejoin 1 setlinecap} if} def
3.8 setmiterlimit
% Classic Line colors (version 5.0)
/LCw {1 1 1} def
/LCb {0 0 0} def
/LCa {0 0 0} def
/LC0 {1 0 0} def
/LC1 {0 1 0} def
/LC2 {0 0 1} def
/LC3 {1 0 1} def
/LC4 {0 1 1} def
/LC5 {1 1 0} def
/LC6 {0 0 0} def
/LC7 {1 0.3 0} def
/LC8 {0.5 0.5 0.5} def
% Default dash patterns (version 5.0)
/LTB {BL [] LCb DL} def
/LTw {PL [] 1 setgray} def
/LTb {PL [] LCb DL} def
/LTa {AL [1 udl mul 2 udl mul] 0 setdash LCa setrgbcolor} def
/LT0 {PL [] LC0 DL} def
/LT1 {PL [2 dl1 3 dl2] LC1 DL} def
/LT2 {PL [1 dl1 1.5 dl2] LC2 DL} def
/LT3 {PL [6 dl1 2 dl2 1 dl1 2 dl2] LC3 DL} def
/LT4 {PL [1 dl1 2 dl2 6 dl1 2 dl2 1 dl1 2 dl2] LC4 DL} def
/LT5 {PL [4 dl1 2 dl2] LC5 DL} def
/LT6 {PL [1.5 dl1 1.5 dl2 1.5 dl1 1.5 dl2 1.5 dl1 6 dl2] LC6 DL} def
/LT7 {PL [3 dl1 3 dl2 1 dl1 3 dl2] LC7 DL} def
/LT8 {PL [2 dl1 2 dl2 2 dl1 6 dl2] LC8 DL} def
/SL {[] 0 setdash} def
/Pnt {stroke [] 0 setdash gsave 1 setlinecap M 0 0 V stroke grestore} def
/Dia {stroke [] 0 setdash 2 copy vpt add M
  hpt neg vpt neg V hpt vpt neg V
  hpt vpt V hpt neg vpt V closepath stroke
  Pnt} def
/Pls {stroke [] 0 setdash vpt sub M 0 vpt2 V
  currentpoint stroke M
  hpt neg vpt neg R hpt2 0 V stroke
 } def
/Box {stroke [] 0 setdash 2 copy exch hpt sub exch vpt add M
  0 vpt2 neg V hpt2 0 V 0 vpt2 V
  hpt2 neg 0 V closepath stroke
  Pnt} def
/Crs {stroke [] 0 setdash exch hpt sub exch vpt add M
  hpt2 vpt2 neg V currentpoint stroke M
  hpt2 neg 0 R hpt2 vpt2 V stroke} def
/TriU {stroke [] 0 setdash 2 copy vpt 1.12 mul add M
  hpt neg vpt -1.62 mul V
  hpt 2 mul 0 V
  hpt neg vpt 1.62 mul V closepath stroke
  Pnt} def
/Star {2 copy Pls Crs} def
/BoxF {stroke [] 0 setdash exch hpt sub exch vpt add M
  0 vpt2 neg V hpt2 0 V 0 vpt2 V
  hpt2 neg 0 V closepath fill} def
/TriUF {stroke [] 0 setdash vpt 1.12 mul add M
  hpt neg vpt -1.62 mul V
  hpt 2 mul 0 V
  hpt neg vpt 1.62 mul V closepath fill} def
/TriD {stroke [] 0 setdash 2 copy vpt 1.12 mul sub M
  hpt neg vpt 1.62 mul V
  hpt 2 mul 0 V
  hpt neg vpt -1.62 mul V closepath stroke
  Pnt} def
/TriDF {stroke [] 0 setdash vpt 1.12 mul sub M
  hpt neg vpt 1.62 mul V
  hpt 2 mul 0 V
  hpt neg vpt -1.62 mul V closepath fill} def
/DiaF {stroke [] 0 setdash vpt add M
  hpt neg vpt neg V hpt vpt neg V
  hpt vpt V hpt neg vpt V closepath fill} def
/Pent {stroke [] 0 setdash 2 copy gsave
  translate 0 hpt M 4 {72 rotate 0 hpt L} repeat
  closepath stroke grestore Pnt} def
/PentF {stroke [] 0 setdash gsave
  translate 0 hpt M 4 {72 rotate 0 hpt L} repeat
  closepath fill grestore} def
/Circle {stroke [] 0 setdash 2 copy
  hpt 0 360 arc stroke Pnt} def
/CircleF {stroke [] 0 setdash hpt 0 360 arc fill} def
/C0 {BL [] 0 setdash 2 copy moveto vpt 90 450 arc} bind def
/C1 {BL [] 0 setdash 2 copy moveto
	2 copy vpt 0 90 arc closepath fill
	vpt 0 360 arc closepath} bind def
/C2 {BL [] 0 setdash 2 copy moveto
	2 copy vpt 90 180 arc closepath fill
	vpt 0 360 arc closepath} bind def
/C3 {BL [] 0 setdash 2 copy moveto
	2 copy vpt 0 180 arc closepath fill
	vpt 0 360 arc closepath} bind def
/C4 {BL [] 0 setdash 2 copy moveto
	2 copy vpt 180 270 arc closepath fill
	vpt 0 360 arc closepath} bind def
/C5 {BL [] 0 setdash 2 copy moveto
	2 copy vpt 0 90 arc
	2 copy moveto
	2 copy vpt 180 270 arc closepath fill
	vpt 0 360 arc} bind def
/C6 {BL [] 0 setdash 2 copy moveto
	2 copy vpt 90 270 arc closepath fill
	vpt 0 360 arc closepath} bind def
/C7 {BL [] 0 setdash 2 copy moveto
	2 copy vpt 0 270 arc closepath fill
	vpt 0 360 arc closepath} bind def
/C8 {BL [] 0 setdash 2 copy moveto
	2 copy vpt 270 360 arc closepath fill
	vpt 0 360 arc closepath} bind def
/C9 {BL [] 0 setdash 2 copy moveto
	2 copy vpt 270 450 arc closepath fill
	vpt 0 360 arc closepath} bind def
/C10 {BL [] 0 setdash 2 copy 2 copy moveto vpt 270 360 arc closepath fill
	2 copy moveto
	2 copy vpt 90 180 arc closepath fill
	vpt 0 360 arc closepath} bind def
/C11 {BL [] 0 setdash 2 copy moveto
	2 copy vpt 0 180 arc closepath fill
	2 copy moveto
	2 copy vpt 270 360 arc closepath fill
	vpt 0 360 arc closepath} bind def
/C12 {BL [] 0 setdash 2 copy moveto
	2 copy vpt 180 360 arc closepath fill
	vpt 0 360 arc closepath} bind def
/C13 {BL [] 0 setdash 2 copy moveto
	2 copy vpt 0 90 arc closepath fill
	2 copy moveto
	2 copy vpt 180 360 arc closepath fill
	vpt 0 360 arc closepath} bind def
/C14 {BL [] 0 setdash 2 copy moveto
	2 copy vpt 90 360 arc closepath fill
	vpt 0 360 arc} bind def
/C15 {BL [] 0 setdash 2 copy vpt 0 360 arc closepath fill
	vpt 0 360 arc closepath} bind def
/Rec {newpath 4 2 roll moveto 1 index 0 rlineto 0 exch rlineto
	neg 0 rlineto closepath} bind def
/Square {dup Rec} bind def
/Bsquare {vpt sub exch vpt sub exch vpt2 Square} bind def
/S0 {BL [] 0 setdash 2 copy moveto 0 vpt rlineto BL Bsquare} bind def
/S1 {BL [] 0 setdash 2 copy vpt Square fill Bsquare} bind def
/S2 {BL [] 0 setdash 2 copy exch vpt sub exch vpt Square fill Bsquare} bind def
/S3 {BL [] 0 setdash 2 copy exch vpt sub exch vpt2 vpt Rec fill Bsquare} bind def
/S4 {BL [] 0 setdash 2 copy exch vpt sub exch vpt sub vpt Square fill Bsquare} bind def
/S5 {BL [] 0 setdash 2 copy 2 copy vpt Square fill
	exch vpt sub exch vpt sub vpt Square fill Bsquare} bind def
/S6 {BL [] 0 setdash 2 copy exch vpt sub exch vpt sub vpt vpt2 Rec fill Bsquare} bind def
/S7 {BL [] 0 setdash 2 copy exch vpt sub exch vpt sub vpt vpt2 Rec fill
	2 copy vpt Square fill Bsquare} bind def
/S8 {BL [] 0 setdash 2 copy vpt sub vpt Square fill Bsquare} bind def
/S9 {BL [] 0 setdash 2 copy vpt sub vpt vpt2 Rec fill Bsquare} bind def
/S10 {BL [] 0 setdash 2 copy vpt sub vpt Square fill 2 copy exch vpt sub exch vpt Square fill
	Bsquare} bind def
/S11 {BL [] 0 setdash 2 copy vpt sub vpt Square fill 2 copy exch vpt sub exch vpt2 vpt Rec fill
	Bsquare} bind def
/S12 {BL [] 0 setdash 2 copy exch vpt sub exch vpt sub vpt2 vpt Rec fill Bsquare} bind def
/S13 {BL [] 0 setdash 2 copy exch vpt sub exch vpt sub vpt2 vpt Rec fill
	2 copy vpt Square fill Bsquare} bind def
/S14 {BL [] 0 setdash 2 copy exch vpt sub exch vpt sub vpt2 vpt Rec fill
	2 copy exch vpt sub exch vpt Square fill Bsquare} bind def
/S15 {BL [] 0 setdash 2 copy Bsquare fill Bsquare} bind def
/D0 {gsave translate 45 rotate 0 0 S0 stroke grestore} bind def
/D1 {gsave translate 45 rotate 0 0 S1 stroke grestore} bind def
/D2 {gsave translate 45 rotate 0 0 S2 stroke grestore} bind def
/D3 {gsave translate 45 rotate 0 0 S3 stroke grestore} bind def
/D4 {gsave translate 45 rotate 0 0 S4 stroke grestore} bind def
/D5 {gsave translate 45 rotate 0 0 S5 stroke grestore} bind def
/D6 {gsave translate 45 rotate 0 0 S6 stroke grestore} bind def
/D7 {gsave translate 45 rotate 0 0 S7 stroke grestore} bind def
/D8 {gsave translate 45 rotate 0 0 S8 stroke grestore} bind def
/D9 {gsave translate 45 rotate 0 0 S9 stroke grestore} bind def
/D10 {gsave translate 45 rotate 0 0 S10 stroke grestore} bind def
/D11 {gsave translate 45 rotate 0 0 S11 stroke grestore} bind def
/D12 {gsave translate 45 rotate 0 0 S12 stroke grestore} bind def
/D13 {gsave translate 45 rotate 0 0 S13 stroke grestore} bind def
/D14 {gsave translate 45 rotate 0 0 S14 stroke grestore} bind def
/D15 {gsave translate 45 rotate 0 0 S15 stroke grestore} bind def
/DiaE {stroke [] 0 setdash vpt add M
  hpt neg vpt neg V hpt vpt neg V
  hpt vpt V hpt neg vpt V closepath stroke} def
/BoxE {stroke [] 0 setdash exch hpt sub exch vpt add M
  0 vpt2 neg V hpt2 0 V 0 vpt2 V
  hpt2 neg 0 V closepath stroke} def
/TriUE {stroke [] 0 setdash vpt 1.12 mul add M
  hpt neg vpt -1.62 mul V
  hpt 2 mul 0 V
  hpt neg vpt 1.62 mul V closepath stroke} def
/TriDE {stroke [] 0 setdash vpt 1.12 mul sub M
  hpt neg vpt 1.62 mul V
  hpt 2 mul 0 V
  hpt neg vpt -1.62 mul V closepath stroke} def
/PentE {stroke [] 0 setdash gsave
  translate 0 hpt M 4 {72 rotate 0 hpt L} repeat
  closepath stroke grestore} def
/CircE {stroke [] 0 setdash 
  hpt 0 360 arc stroke} def
/Opaque {gsave closepath 1 setgray fill grestore 0 setgray closepath} def
/DiaW {stroke [] 0 setdash vpt add M
  hpt neg vpt neg V hpt vpt neg V
  hpt vpt V hpt neg vpt V Opaque stroke} def
/BoxW {stroke [] 0 setdash exch hpt sub exch vpt add M
  0 vpt2 neg V hpt2 0 V 0 vpt2 V
  hpt2 neg 0 V Opaque stroke} def
/TriUW {stroke [] 0 setdash vpt 1.12 mul add M
  hpt neg vpt -1.62 mul V
  hpt 2 mul 0 V
  hpt neg vpt 1.62 mul V Opaque stroke} def
/TriDW {stroke [] 0 setdash vpt 1.12 mul sub M
  hpt neg vpt 1.62 mul V
  hpt 2 mul 0 V
  hpt neg vpt -1.62 mul V Opaque stroke} def
/PentW {stroke [] 0 setdash gsave
  translate 0 hpt M 4 {72 rotate 0 hpt L} repeat
  Opaque stroke grestore} def
/CircW {stroke [] 0 setdash 
  hpt 0 360 arc Opaque stroke} def
/BoxFill {gsave Rec 1 setgray fill grestore} def
/Density {
  /Fillden exch def
  currentrgbcolor
  /ColB exch def /ColG exch def /ColR exch def
  /ColR ColR Fillden mul Fillden sub 1 add def
  /ColG ColG Fillden mul Fillden sub 1 add def
  /ColB ColB Fillden mul Fillden sub 1 add def
  ColR ColG ColB setrgbcolor} def
/BoxColFill {gsave Rec PolyFill} def
/PolyFill {gsave Density fill grestore grestore} def
/h {rlineto rlineto rlineto gsave closepath fill grestore} bind def
%
% PostScript Level 1 Pattern Fill routine for rectangles
% Usage: x y w h s a XX PatternFill
%	x,y = lower left corner of box to be filled
%	w,h = width and height of box
%	  a = angle in degrees between lines and x-axis
%	 XX = 0/1 for no/yes cross-hatch
%
/PatternFill {gsave /PFa [ 9 2 roll ] def
  PFa 0 get PFa 2 get 2 div add PFa 1 get PFa 3 get 2 div add translate
  PFa 2 get -2 div PFa 3 get -2 div PFa 2 get PFa 3 get Rec
  TransparentPatterns {} {gsave 1 setgray fill grestore} ifelse
  clip
  currentlinewidth 0.5 mul setlinewidth
  /PFs PFa 2 get dup mul PFa 3 get dup mul add sqrt def
  0 0 M PFa 5 get rotate PFs -2 div dup translate
  0 1 PFs PFa 4 get div 1 add floor cvi
	{PFa 4 get mul 0 M 0 PFs V} for
  0 PFa 6 get ne {
	0 1 PFs PFa 4 get div 1 add floor cvi
	{PFa 4 get mul 0 2 1 roll M PFs 0 V} for
 } if
  stroke grestore} def
%
/languagelevel where
 {pop languagelevel} {1} ifelse
dup 2 lt
	{/InterpretLevel1 true def
	 /InterpretLevel3 false def}
	{/InterpretLevel1 Level1 def
	 2 gt
	    {/InterpretLevel3 Level3 def}
	    {/InterpretLevel3 false def}
	 ifelse }
 ifelse
%
% PostScript level 2 pattern fill definitions
%
/Level2PatternFill {
/Tile8x8 {/PaintType 2 /PatternType 1 /TilingType 1 /BBox [0 0 8 8] /XStep 8 /YStep 8}
	bind def
/KeepColor {currentrgbcolor [/Pattern /DeviceRGB] setcolorspace} bind def
<< Tile8x8
 /PaintProc {0.5 setlinewidth pop 0 0 M 8 8 L 0 8 M 8 0 L stroke} 
>> matrix makepattern
/Pat1 exch def
<< Tile8x8
 /PaintProc {0.5 setlinewidth pop 0 0 M 8 8 L 0 8 M 8 0 L stroke
	0 4 M 4 8 L 8 4 L 4 0 L 0 4 L stroke}
>> matrix makepattern
/Pat2 exch def
<< Tile8x8
 /PaintProc {0.5 setlinewidth pop 0 0 M 0 8 L
	8 8 L 8 0 L 0 0 L fill}
>> matrix makepattern
/Pat3 exch def
<< Tile8x8
 /PaintProc {0.5 setlinewidth pop -4 8 M 8 -4 L
	0 12 M 12 0 L stroke}
>> matrix makepattern
/Pat4 exch def
<< Tile8x8
 /PaintProc {0.5 setlinewidth pop -4 0 M 8 12 L
	0 -4 M 12 8 L stroke}
>> matrix makepattern
/Pat5 exch def
<< Tile8x8
 /PaintProc {0.5 setlinewidth pop -2 8 M 4 -4 L
	0 12 M 8 -4 L 4 12 M 10 0 L stroke}
>> matrix makepattern
/Pat6 exch def
<< Tile8x8
 /PaintProc {0.5 setlinewidth pop -2 0 M 4 12 L
	0 -4 M 8 12 L 4 -4 M 10 8 L stroke}
>> matrix makepattern
/Pat7 exch def
<< Tile8x8
 /PaintProc {0.5 setlinewidth pop 8 -2 M -4 4 L
	12 0 M -4 8 L 12 4 M 0 10 L stroke}
>> matrix makepattern
/Pat8 exch def
<< Tile8x8
 /PaintProc {0.5 setlinewidth pop 0 -2 M 12 4 L
	-4 0 M 12 8 L -4 4 M 8 10 L stroke}
>> matrix makepattern
/Pat9 exch def
/Pattern1 {PatternBgnd KeepColor Pat1 setpattern} bind def
/Pattern2 {PatternBgnd KeepColor Pat2 setpattern} bind def
/Pattern3 {PatternBgnd KeepColor Pat3 setpattern} bind def
/Pattern4 {PatternBgnd KeepColor Landscape {Pat5} {Pat4} ifelse setpattern} bind def
/Pattern5 {PatternBgnd KeepColor Landscape {Pat4} {Pat5} ifelse setpattern} bind def
/Pattern6 {PatternBgnd KeepColor Landscape {Pat9} {Pat6} ifelse setpattern} bind def
/Pattern7 {PatternBgnd KeepColor Landscape {Pat8} {Pat7} ifelse setpattern} bind def
} def
%
%
%End of PostScript Level 2 code
%
/PatternBgnd {
  TransparentPatterns {} {gsave 1 setgray fill grestore} ifelse
} def
%
% Substitute for Level 2 pattern fill codes with
% grayscale if Level 2 support is not selected.
%
/Level1PatternFill {
/Pattern1 {0.250 Density} bind def
/Pattern2 {0.500 Density} bind def
/Pattern3 {0.750 Density} bind def
/Pattern4 {0.125 Density} bind def
/Pattern5 {0.375 Density} bind def
/Pattern6 {0.625 Density} bind def
/Pattern7 {0.875 Density} bind def
} def
%
% Now test for support of Level 2 code
%
Level1 {Level1PatternFill} {Level2PatternFill} ifelse
%
/Symbol-Oblique /Symbol findfont [1 0 .167 1 0 0] makefont
dup length dict begin {1 index /FID eq {pop pop} {def} ifelse} forall
currentdict end definefont pop
%
/MFshow {
   { dup 5 get 3 ge
     { 5 get 3 eq {gsave} {grestore} ifelse }
     {dup dup 0 get findfont exch 1 get scalefont setfont
     [ currentpoint ] exch dup 2 get 0 exch R dup 5 get 2 ne {dup dup 6
     get exch 4 get {textshow} {stringwidth pop 0 R} ifelse }if dup 5 get 0 eq
     {dup 3 get {2 get neg 0 exch R pop} {pop aload pop M} ifelse} {dup 5
     get 1 eq {dup 2 get exch dup 3 get exch 6 get stringwidth pop -2 div
     dup 0 R} {dup 6 get stringwidth pop -2 div 0 R 6 get
     textshow 2 index {aload pop M neg 3 -1 roll neg R pop pop} {pop pop pop
     pop aload pop M} ifelse }ifelse }ifelse }
     ifelse }
   forall} def
/Gswidth {dup type /stringtype eq {stringwidth} {pop (n) stringwidth} ifelse} def
/MFwidth {0 exch { dup 5 get 3 ge { 5 get 3 eq { 0 } { pop } ifelse }
 {dup 3 get{dup dup 0 get findfont exch 1 get scalefont setfont
     6 get Gswidth pop add} {pop} ifelse} ifelse} forall} def
/MLshow { currentpoint stroke M
  0 exch R
  Blacktext {gsave 0 setgray MFshow grestore} {MFshow} ifelse } bind def
/MRshow { currentpoint stroke M
  exch dup MFwidth neg 3 -1 roll R
  Blacktext {gsave 0 setgray MFshow grestore} {MFshow} ifelse } bind def
/MCshow { currentpoint stroke M
  exch dup MFwidth -2 div 3 -1 roll R
  Blacktext {gsave 0 setgray MFshow grestore} {MFshow} ifelse } bind def
/XYsave    { [( ) 1 2 true false 3 ()] } bind def
/XYrestore { [( ) 1 2 true false 4 ()] } bind def
Level1 SuppressPDFMark or 
{} {
/SDict 10 dict def
systemdict /pdfmark known not {
  userdict /pdfmark systemdict /cleartomark get put
} if
SDict begin [
  /Title (packets-uv-s-ccdf-loglog.eps)
  /Subject (gnuplot plot)
  /Creator (gnuplot 5.0 patchlevel 3)
  /Author (tiphaine)
%  /Producer (gnuplot)
%  /Keywords ()
  /CreationDate (Mon May 29 11:09:39 2017)
  /DOCINFO pdfmark
end
} ifelse
%
% Support for boxed text - Ethan A Merritt May 2005
%
/InitTextBox { userdict /TBy2 3 -1 roll put userdict /TBx2 3 -1 roll put
           userdict /TBy1 3 -1 roll put userdict /TBx1 3 -1 roll put
	   /Boxing true def } def
/ExtendTextBox { Boxing
    { gsave dup false charpath pathbbox
      dup TBy2 gt {userdict /TBy2 3 -1 roll put} {pop} ifelse
      dup TBx2 gt {userdict /TBx2 3 -1 roll put} {pop} ifelse
      dup TBy1 lt {userdict /TBy1 3 -1 roll put} {pop} ifelse
      dup TBx1 lt {userdict /TBx1 3 -1 roll put} {pop} ifelse
      grestore } if } def
/PopTextBox { newpath TBx1 TBxmargin sub TBy1 TBymargin sub M
               TBx1 TBxmargin sub TBy2 TBymargin add L
	       TBx2 TBxmargin add TBy2 TBymargin add L
	       TBx2 TBxmargin add TBy1 TBymargin sub L closepath } def
/DrawTextBox { PopTextBox stroke /Boxing false def} def
/FillTextBox { gsave PopTextBox 1 1 1 setrgbcolor fill grestore /Boxing false def} def
0 0 0 0 InitTextBox
/TBxmargin 20 def
/TBymargin 20 def
/Boxing false def
/textshow { ExtendTextBox Gshow } def
%
% redundant definitions for compatibility with prologue.ps older than 5.0.2
/LTB {BL [] LCb DL} def
/LTb {PL [] LCb DL} def
end
%%EndProlog
%%Page: 1 1
gnudict begin
gsave
doclip
50 50 translate
0.100 0.100 scale
90 rotate
0 -5040 translate
0 setgray
newpath
(Helvetica) findfont 140 scalefont setfont
BackgroundColor 0 lt 3 1 roll 0 lt exch 0 lt or or not {gsave BackgroundColor C clippath fill grestore} if
1.000 UL
LTb
LCb setrgbcolor
966 280 M
63 0 V
5918 0 R
-63 0 V
stroke
882 280 M
[ [(Helvetica) 140.0 0.0 true true 0 (0.0000001)]
] -46.7 MRshow
1.000 UL
LTb
LCb setrgbcolor
966 477 M
31 0 V
5950 0 R
-31 0 V
966 738 M
31 0 V
5950 0 R
-31 0 V
966 872 M
31 0 V
5950 0 R
-31 0 V
966 936 M
63 0 V
5918 0 R
-63 0 V
stroke
882 936 M
[ [(Helvetica) 140.0 0.0 true true 0 (0.0000010)]
] -46.7 MRshow
1.000 UL
LTb
LCb setrgbcolor
966 1133 M
31 0 V
5950 0 R
-31 0 V
966 1394 M
31 0 V
5950 0 R
-31 0 V
966 1528 M
31 0 V
5950 0 R
-31 0 V
966 1592 M
63 0 V
5918 0 R
-63 0 V
stroke
882 1592 M
[ [(Helvetica) 140.0 0.0 true true 0 (0.0000100)]
] -46.7 MRshow
1.000 UL
LTb
LCb setrgbcolor
966 1789 M
31 0 V
5950 0 R
-31 0 V
966 2050 M
31 0 V
5950 0 R
-31 0 V
966 2184 M
31 0 V
5950 0 R
-31 0 V
966 2248 M
63 0 V
5918 0 R
-63 0 V
stroke
882 2248 M
[ [(Helvetica) 140.0 0.0 true true 0 (0.0001000)]
] -46.7 MRshow
1.000 UL
LTb
LCb setrgbcolor
966 2445 M
31 0 V
5950 0 R
-31 0 V
966 2706 M
31 0 V
5950 0 R
-31 0 V
966 2840 M
31 0 V
5950 0 R
-31 0 V
966 2903 M
63 0 V
5918 0 R
-63 0 V
stroke
882 2903 M
[ [(Helvetica) 140.0 0.0 true true 0 (0.0010000)]
] -46.7 MRshow
1.000 UL
LTb
LCb setrgbcolor
966 3101 M
31 0 V
5950 0 R
-31 0 V
966 3362 M
31 0 V
5950 0 R
-31 0 V
966 3496 M
31 0 V
5950 0 R
-31 0 V
966 3559 M
63 0 V
5918 0 R
-63 0 V
stroke
882 3559 M
[ [(Helvetica) 140.0 0.0 true true 0 (0.0100000)]
] -46.7 MRshow
1.000 UL
LTb
LCb setrgbcolor
966 3757 M
31 0 V
5950 0 R
-31 0 V
966 4018 M
31 0 V
5950 0 R
-31 0 V
966 4152 M
31 0 V
5950 0 R
-31 0 V
966 4215 M
63 0 V
5918 0 R
-63 0 V
stroke
882 4215 M
[ [(Helvetica) 140.0 0.0 true true 0 (0.1000000)]
] -46.7 MRshow
1.000 UL
LTb
LCb setrgbcolor
966 4413 M
31 0 V
5950 0 R
-31 0 V
966 4674 M
31 0 V
5950 0 R
-31 0 V
966 4807 M
31 0 V
5950 0 R
-31 0 V
966 4871 M
63 0 V
5918 0 R
-63 0 V
stroke
882 4871 M
[ [(Helvetica) 140.0 0.0 true true 0 (1.0000000)]
] -46.7 MRshow
1.000 UL
LTb
LCb setrgbcolor
966 280 M
0 63 V
0 4528 R
0 -63 V
stroke
966 140 M
[ [(Helvetica) 140.0 0.0 true true 0 ( 1)]
] -46.7 MCshow
1.000 UL
LTb
LCb setrgbcolor
1223 280 M
0 31 V
0 4560 R
0 -31 V
1563 280 M
0 31 V
0 4560 R
0 -31 V
1738 280 M
0 31 V
0 4560 R
0 -31 V
1820 280 M
0 63 V
0 4528 R
0 -63 V
stroke
1820 140 M
[ [(Helvetica) 140.0 0.0 true true 0 ( 10)]
] -46.7 MCshow
1.000 UL
LTb
LCb setrgbcolor
2078 280 M
0 31 V
0 4560 R
0 -31 V
2418 280 M
0 31 V
0 4560 R
0 -31 V
2592 280 M
0 31 V
0 4560 R
0 -31 V
2675 280 M
0 63 V
0 4528 R
0 -63 V
stroke
2675 140 M
[ [(Helvetica) 140.0 0.0 true true 0 ( 100)]
] -46.7 MCshow
1.000 UL
LTb
LCb setrgbcolor
2932 280 M
0 31 V
0 4560 R
0 -31 V
3272 280 M
0 31 V
0 4560 R
0 -31 V
3446 280 M
0 31 V
0 4560 R
0 -31 V
3529 280 M
0 63 V
0 4528 R
0 -63 V
stroke
3529 140 M
[ [(Helvetica) 140.0 0.0 true true 0 ( 1000)]
] -46.7 MCshow
1.000 UL
LTb
LCb setrgbcolor
3786 280 M
0 31 V
0 4560 R
0 -31 V
4127 280 M
0 31 V
0 4560 R
0 -31 V
4301 280 M
0 31 V
0 4560 R
0 -31 V
4384 280 M
0 63 V
0 4528 R
0 -63 V
stroke
4384 140 M
[ [(Helvetica) 140.0 0.0 true true 0 ( 10000)]
] -46.7 MCshow
1.000 UL
LTb
LCb setrgbcolor
4641 280 M
0 31 V
0 4560 R
0 -31 V
4981 280 M
0 31 V
0 4560 R
0 -31 V
5155 280 M
0 31 V
0 4560 R
0 -31 V
5238 280 M
0 63 V
0 4528 R
0 -63 V
stroke
5238 140 M
[ [(Helvetica) 140.0 0.0 true true 0 ( 100000)]
] -46.7 MCshow
1.000 UL
LTb
LCb setrgbcolor
5495 280 M
0 31 V
0 4560 R
0 -31 V
5835 280 M
0 31 V
0 4560 R
0 -31 V
6010 280 M
0 31 V
0 4560 R
0 -31 V
6093 280 M
0 63 V
0 4528 R
0 -63 V
stroke
6093 140 M
[ [(Helvetica) 140.0 0.0 true true 0 ( 1x10)]
[(Helvetica) 112.0 70.0 true true 0 (6)]
] -60.7 MCshow
1.000 UL
LTb
LCb setrgbcolor
6350 280 M
0 31 V
0 4560 R
0 -31 V
6690 280 M
0 31 V
0 4560 R
0 -31 V
6864 280 M
0 31 V
0 4560 R
0 -31 V
6947 280 M
0 63 V
0 4528 R
0 -63 V
stroke
6947 140 M
[ [(Helvetica) 140.0 0.0 true true 0 ( 1x10)]
[(Helvetica) 112.0 70.0 true true 0 (7)]
] -60.7 MCshow
1.000 UL
LTb
LCb setrgbcolor
1.000 UL
LTB
LCb setrgbcolor
966 4871 N
966 280 L
5981 0 V
0 4591 V
-5981 0 V
Z stroke
1.000 UP
1.000 UL
LTb
LCb setrgbcolor
% Begin plot #1
1.000 UP
1.000 UL
LTb
0.58 0.00 0.83 C 966 4871 Pls
1223 4645 Pls
1374 4418 Pls
1480 4361 Pls
1563 4311 Pls
1631 4277 Pls
1688 4243 Pls
1738 4223 Pls
1781 4195 Pls
1820 4178 Pls
1856 4145 Pls
1888 4129 Pls
1918 4106 Pls
1945 4091 Pls
1971 4073 Pls
1995 4057 Pls
2017 4038 Pls
2039 4025 Pls
2059 4008 Pls
2078 3995 Pls
2096 3977 Pls
2113 3966 Pls
2129 3953 Pls
2145 3944 Pls
2160 3932 Pls
2175 3924 Pls
2189 3915 Pls
2202 3907 Pls
2216 3898 Pls
2228 3893 Pls
2240 3882 Pls
2252 3877 Pls
2263 3870 Pls
2275 3864 Pls
2285 3857 Pls
2296 3852 Pls
2306 3845 Pls
2316 3840 Pls
2325 3835 Pls
2335 3830 Pls
2344 3825 Pls
2353 3820 Pls
2362 3816 Pls
2370 3812 Pls
2379 3807 Pls
2387 3803 Pls
2395 3798 Pls
2403 3792 Pls
2410 3786 Pls
2418 3780 Pls
2425 3775 Pls
2432 3770 Pls
2439 3766 Pls
2446 3763 Pls
2453 3759 Pls
2460 3755 Pls
2466 3751 Pls
2473 3748 Pls
2479 3744 Pls
2485 3741 Pls
2491 3734 Pls
2497 3731 Pls
2503 3728 Pls
2509 3725 Pls
2515 3722 Pls
2521 3719 Pls
2526 3716 Pls
2532 3714 Pls
2537 3711 Pls
2543 3708 Pls
2548 3705 Pls
2553 3703 Pls
2558 3700 Pls
2563 3697 Pls
2568 3695 Pls
2573 3693 Pls
2578 3690 Pls
2583 3688 Pls
2587 3685 Pls
2592 3682 Pls
2597 3679 Pls
2601 3677 Pls
2606 3675 Pls
2610 3673 Pls
2615 3671 Pls
2619 3668 Pls
2623 3666 Pls
2627 3665 Pls
2632 3663 Pls
2636 3661 Pls
2640 3658 Pls
2644 3656 Pls
2648 3654 Pls
2652 3652 Pls
2656 3650 Pls
2660 3648 Pls
2664 3645 Pls
2667 3643 Pls
2671 3642 Pls
2675 3639 Pls
2679 3632 Pls
2682 3630 Pls
2686 3628 Pls
2689 3627 Pls
2693 3625 Pls
2696 3623 Pls
2700 3621 Pls
2703 3619 Pls
2707 3617 Pls
2710 3616 Pls
2714 3614 Pls
2717 3612 Pls
2720 3610 Pls
2723 3608 Pls
2727 3606 Pls
2730 3605 Pls
2733 3603 Pls
2736 3601 Pls
2739 3600 Pls
2743 3598 Pls
2746 3595 Pls
2749 3593 Pls
2752 3592 Pls
2755 3590 Pls
2758 3589 Pls
2761 3587 Pls
2764 3586 Pls
2766 3584 Pls
2769 3582 Pls
2772 3581 Pls
2775 3577 Pls
2778 3576 Pls
2781 3573 Pls
2783 3572 Pls
2786 3571 Pls
2789 3569 Pls
2792 3567 Pls
2794 3566 Pls
2797 3564 Pls
2800 3562 Pls
2802 3561 Pls
2805 3559 Pls
2808 3558 Pls
2810 3556 Pls
2813 3555 Pls
2815 3554 Pls
2818 3553 Pls
2820 3551 Pls
2823 3550 Pls
2825 3549 Pls
2828 3548 Pls
2830 3546 Pls
2833 3545 Pls
2835 3544 Pls
2837 3543 Pls
2840 3542 Pls
2842 3541 Pls
2845 3539 Pls
2847 3538 Pls
2849 3537 Pls
2852 3536 Pls
2854 3534 Pls
2856 3533 Pls
2858 3532 Pls
2861 3531 Pls
2863 3530 Pls
2865 3529 Pls
2867 3528 Pls
2870 3527 Pls
2872 3526 Pls
2874 3524 Pls
2876 3523 Pls
2878 3522 Pls
2880 3521 Pls
2883 3520 Pls
2885 3519 Pls
2887 3518 Pls
2889 3516 Pls
2891 3515 Pls
2893 3514 Pls
2895 3512 Pls
2897 3510 Pls
2899 3509 Pls
2901 3508 Pls
2903 3507 Pls
2905 3506 Pls
2907 3505 Pls
2909 3504 Pls
2911 3503 Pls
2913 3502 Pls
2915 3501 Pls
2917 3500 Pls
2919 3499 Pls
2921 3498 Pls
2923 3497 Pls
2925 3496 Pls
2926 3495 Pls
2928 3494 Pls
2930 3493 Pls
2932 3493 Pls
2934 3492 Pls
2936 3491 Pls
2938 3490 Pls
2939 3488 Pls
2941 3487 Pls
2943 3487 Pls
2945 3486 Pls
2947 3485 Pls
2948 3484 Pls
2950 3483 Pls
2952 3481 Pls
2954 3480 Pls
2955 3479 Pls
2957 3478 Pls
2959 3477 Pls
2961 3476 Pls
2962 3475 Pls
2964 3474 Pls
2966 3473 Pls
2967 3473 Pls
2969 3472 Pls
2971 3471 Pls
2972 3470 Pls
2974 3469 Pls
2976 3468 Pls
2977 3467 Pls
2979 3467 Pls
2981 3466 Pls
2982 3465 Pls
2984 3465 Pls
2986 3464 Pls
2987 3463 Pls
2989 3462 Pls
2990 3461 Pls
2992 3460 Pls
2993 3460 Pls
2995 3459 Pls
2997 3458 Pls
2998 3457 Pls
3000 3456 Pls
3001 3454 Pls
3003 3454 Pls
3004 3453 Pls
3006 3452 Pls
3007 3451 Pls
3009 3451 Pls
3010 3450 Pls
3012 3449 Pls
3013 3448 Pls
3015 3448 Pls
3016 3447 Pls
3018 3446 Pls
3019 3445 Pls
3021 3444 Pls
3022 3444 Pls
3024 3443 Pls
3025 3442 Pls
3027 3442 Pls
3028 3441 Pls
3029 3440 Pls
3031 3440 Pls
3032 3439 Pls
3034 3438 Pls
3035 3437 Pls
3036 3437 Pls
3038 3436 Pls
3039 3436 Pls
3041 3435 Pls
3042 3434 Pls
3043 3433 Pls
3045 3433 Pls
3046 3432 Pls
3048 3431 Pls
3049 3431 Pls
3050 3430 Pls
3052 3429 Pls
3053 3429 Pls
3054 3428 Pls
3056 3427 Pls
3057 3426 Pls
3058 3426 Pls
3060 3425 Pls
3061 3424 Pls
3062 3424 Pls
3063 3423 Pls
3065 3422 Pls
3066 3422 Pls
3067 3421 Pls
3069 3420 Pls
3070 3420 Pls
3071 3419 Pls
3072 3419 Pls
3074 3418 Pls
3075 3417 Pls
3076 3417 Pls
3078 3416 Pls
3079 3415 Pls
3080 3415 Pls
3081 3414 Pls
3083 3413 Pls
3084 3413 Pls
3085 3412 Pls
3086 3411 Pls
3087 3411 Pls
3089 3410 Pls
3090 3409 Pls
3091 3409 Pls
3092 3408 Pls
3093 3407 Pls
3095 3407 Pls
3096 3406 Pls
3097 3405 Pls
3098 3405 Pls
3099 3404 Pls
3101 3403 Pls
3102 3402 Pls
3103 3402 Pls
3104 3401 Pls
3105 3401 Pls
3106 3400 Pls
3108 3399 Pls
3109 3399 Pls
3110 3398 Pls
3111 3398 Pls
3112 3397 Pls
3113 3397 Pls
3115 3396 Pls
3116 3396 Pls
3117 3395 Pls
3118 3394 Pls
3119 3394 Pls
3120 3393 Pls
3121 3393 Pls
3122 3392 Pls
3123 3392 Pls
3125 3391 Pls
3126 3391 Pls
3127 3390 Pls
3128 3390 Pls
3129 3389 Pls
3130 3389 Pls
3131 3388 Pls
3132 3388 Pls
3133 3387 Pls
3134 3387 Pls
3135 3386 Pls
3137 3385 Pls
3138 3385 Pls
3139 3384 Pls
3140 3384 Pls
3141 3383 Pls
3142 3383 Pls
3143 3382 Pls
3144 3382 Pls
3145 3381 Pls
3146 3380 Pls
3147 3380 Pls
3148 3379 Pls
3149 3379 Pls
3150 3378 Pls
3151 3377 Pls
3152 3377 Pls
3153 3376 Pls
3154 3376 Pls
3155 3375 Pls
3156 3375 Pls
3157 3374 Pls
3158 3374 Pls
3159 3373 Pls
3160 3373 Pls
3161 3373 Pls
3162 3372 Pls
3163 3371 Pls
3164 3371 Pls
3165 3370 Pls
3166 3370 Pls
3167 3370 Pls
3168 3369 Pls
3169 3369 Pls
3170 3368 Pls
3171 3368 Pls
3172 3367 Pls
3173 3367 Pls
3174 3366 Pls
3175 3366 Pls
3176 3365 Pls
3177 3365 Pls
3178 3364 Pls
3179 3364 Pls
3180 3364 Pls
3181 3363 Pls
3182 3363 Pls
3183 3362 Pls
3184 3362 Pls
3185 3361 Pls
3186 3361 Pls
3186 3361 Pls
3187 3360 Pls
3188 3360 Pls
3189 3359 Pls
3190 3359 Pls
3191 3358 Pls
3192 3358 Pls
3193 3357 Pls
3194 3357 Pls
3195 3356 Pls
3196 3356 Pls
3197 3355 Pls
3198 3355 Pls
3198 3354 Pls
3199 3354 Pls
3200 3353 Pls
3201 3353 Pls
3202 3352 Pls
3203 3352 Pls
3204 3352 Pls
3205 3351 Pls
3206 3351 Pls
3206 3350 Pls
3207 3350 Pls
3208 3349 Pls
3209 3348 Pls
3210 3348 Pls
3211 3347 Pls
3212 3347 Pls
3213 3346 Pls
3214 3346 Pls
3214 3346 Pls
3215 3345 Pls
3216 3344 Pls
3217 3344 Pls
3218 3344 Pls
3219 3343 Pls
3220 3343 Pls
3220 3342 Pls
3221 3342 Pls
3222 3342 Pls
3223 3341 Pls
3224 3341 Pls
3225 3340 Pls
3225 3340 Pls
3226 3339 Pls
3227 3339 Pls
3228 3338 Pls
3229 3338 Pls
3230 3337 Pls
3230 3337 Pls
3231 3336 Pls
3232 3336 Pls
3233 3336 Pls
3234 3335 Pls
3235 3335 Pls
3235 3334 Pls
3236 3334 Pls
3237 3333 Pls
3238 3333 Pls
3239 3333 Pls
3240 3332 Pls
3240 3332 Pls
3241 3331 Pls
3242 3331 Pls
3243 3330 Pls
3244 3330 Pls
3244 3329 Pls
3245 3329 Pls
3246 3329 Pls
3247 3328 Pls
3248 3328 Pls
3248 3328 Pls
3249 3327 Pls
3250 3327 Pls
3251 3326 Pls
3251 3326 Pls
3252 3325 Pls
3253 3324 Pls
3254 3324 Pls
3255 3324 Pls
3255 3323 Pls
3256 3322 Pls
3257 3322 Pls
3258 3321 Pls
3258 3321 Pls
3259 3320 Pls
3260 3320 Pls
3261 3320 Pls
3262 3319 Pls
3262 3319 Pls
3263 3319 Pls
3264 3318 Pls
3265 3318 Pls
3265 3318 Pls
3266 3317 Pls
3267 3317 Pls
3268 3316 Pls
3268 3316 Pls
3269 3316 Pls
3270 3315 Pls
3271 3315 Pls
3271 3315 Pls
3272 3314 Pls
3273 3314 Pls
3274 3314 Pls
3274 3313 Pls
3275 3313 Pls
3276 3312 Pls
3277 3312 Pls
3277 3312 Pls
3278 3311 Pls
3279 3311 Pls
3279 3311 Pls
3280 3310 Pls
3281 3310 Pls
3282 3309 Pls
3282 3309 Pls
3283 3308 Pls
3284 3308 Pls
3284 3308 Pls
3285 3307 Pls
3286 3307 Pls
3287 3306 Pls
3287 3306 Pls
3288 3305 Pls
3289 3305 Pls
3289 3304 Pls
3290 3304 Pls
3291 3304 Pls
3292 3303 Pls
3292 3303 Pls
3293 3303 Pls
3294 3302 Pls
3294 3302 Pls
3295 3301 Pls
3296 3301 Pls
3296 3301 Pls
3297 3300 Pls
3298 3300 Pls
3299 3300 Pls
3299 3299 Pls
3300 3299 Pls
3301 3298 Pls
3301 3298 Pls
3302 3298 Pls
3303 3297 Pls
3303 3297 Pls
3304 3297 Pls
3305 3296 Pls
3305 3296 Pls
3306 3296 Pls
3307 3295 Pls
3307 3295 Pls
3308 3294 Pls
3309 3294 Pls
3309 3293 Pls
3310 3293 Pls
3311 3293 Pls
3311 3292 Pls
3312 3292 Pls
3313 3292 Pls
3313 3291 Pls
3314 3291 Pls
3315 3291 Pls
3315 3290 Pls
3316 3290 Pls
3317 3289 Pls
3317 3289 Pls
3318 3289 Pls
3319 3288 Pls
3319 3288 Pls
3320 3288 Pls
3321 3287 Pls
3321 3287 Pls
3322 3287 Pls
3323 3286 Pls
3323 3286 Pls
3324 3286 Pls
3325 3285 Pls
3325 3285 Pls
3326 3285 Pls
3327 3285 Pls
3327 3284 Pls
3328 3284 Pls
3328 3283 Pls
3329 3283 Pls
3330 3283 Pls
3330 3282 Pls
3331 3282 Pls
3332 3282 Pls
3332 3282 Pls
3333 3281 Pls
3333 3281 Pls
3334 3281 Pls
3335 3280 Pls
3335 3280 Pls
3336 3280 Pls
3337 3279 Pls
3337 3279 Pls
3338 3278 Pls
3338 3278 Pls
3339 3278 Pls
3340 3278 Pls
3340 3277 Pls
3341 3277 Pls
3342 3277 Pls
3342 3276 Pls
3343 3276 Pls
3343 3276 Pls
3344 3275 Pls
3345 3275 Pls
3345 3275 Pls
3346 3274 Pls
3346 3274 Pls
3347 3274 Pls
3348 3273 Pls
3348 3273 Pls
3349 3273 Pls
3349 3273 Pls
3350 3272 Pls
3351 3272 Pls
3351 3272 Pls
3352 3271 Pls
3352 3271 Pls
3353 3271 Pls
3354 3270 Pls
3354 3270 Pls
3355 3270 Pls
3355 3269 Pls
3356 3269 Pls
3357 3268 Pls
3357 3268 Pls
3358 3267 Pls
3358 3266 Pls
3359 3266 Pls
3360 3266 Pls
3360 3265 Pls
3361 3265 Pls
3361 3264 Pls
3362 3264 Pls
3363 3263 Pls
3363 3263 Pls
3364 3262 Pls
3364 3261 Pls
3365 3261 Pls
3365 3260 Pls
3366 3260 Pls
3367 3259 Pls
3367 3258 Pls
3368 3258 Pls
3368 3257 Pls
3369 3256 Pls
3369 3256 Pls
3370 3255 Pls
3371 3255 Pls
3371 3254 Pls
3372 3254 Pls
3372 3253 Pls
3373 3252 Pls
3373 3252 Pls
3374 3251 Pls
3375 3250 Pls
3375 3250 Pls
3376 3249 Pls
3376 3248 Pls
3377 3248 Pls
3377 3247 Pls
3378 3247 Pls
3378 3246 Pls
3379 3245 Pls
3380 3245 Pls
3380 3244 Pls
3381 3244 Pls
3381 3243 Pls
3382 3243 Pls
3382 3242 Pls
3383 3242 Pls
3383 3241 Pls
3384 3241 Pls
3385 3240 Pls
3385 3239 Pls
3386 3239 Pls
3386 3238 Pls
3387 3238 Pls
3387 3237 Pls
3388 3237 Pls
3388 3236 Pls
3389 3236 Pls
3389 3235 Pls
3390 3235 Pls
3391 3234 Pls
3391 3234 Pls
3392 3233 Pls
3392 3233 Pls
3393 3233 Pls
3393 3232 Pls
3394 3232 Pls
3394 3231 Pls
3395 3230 Pls
3395 3230 Pls
3396 3229 Pls
3396 3229 Pls
3397 3229 Pls
3397 3228 Pls
3398 3227 Pls
3399 3227 Pls
3399 3226 Pls
3400 3226 Pls
3400 3225 Pls
3401 3225 Pls
3401 3225 Pls
3402 3224 Pls
3402 3224 Pls
3403 3223 Pls
3403 3223 Pls
3404 3223 Pls
3404 3222 Pls
3405 3222 Pls
3405 3221 Pls
3406 3220 Pls
3406 3220 Pls
3407 3220 Pls
3407 3219 Pls
3408 3219 Pls
3408 3218 Pls
3409 3218 Pls
3409 3217 Pls
3410 3217 Pls
3410 3216 Pls
3411 3216 Pls
3411 3215 Pls
3412 3215 Pls
3413 3214 Pls
3413 3214 Pls
3414 3214 Pls
3414 3214 Pls
3415 3213 Pls
3415 3213 Pls
3416 3212 Pls
3416 3212 Pls
3417 3211 Pls
3417 3211 Pls
3418 3211 Pls
3418 3210 Pls
3419 3210 Pls
3419 3210 Pls
3420 3209 Pls
3420 3209 Pls
3421 3209 Pls
3421 3208 Pls
3422 3208 Pls
3422 3208 Pls
3423 3207 Pls
3423 3207 Pls
3424 3207 Pls
3424 3206 Pls
3425 3206 Pls
3425 3206 Pls
3425 3205 Pls
3426 3205 Pls
3426 3205 Pls
3427 3204 Pls
3427 3204 Pls
3428 3203 Pls
3428 3203 Pls
3429 3203 Pls
3429 3202 Pls
3430 3202 Pls
3430 3202 Pls
3431 3201 Pls
3431 3201 Pls
3432 3201 Pls
3432 3201 Pls
3433 3200 Pls
3433 3200 Pls
3434 3200 Pls
3434 3199 Pls
3435 3199 Pls
3435 3198 Pls
3436 3198 Pls
3436 3198 Pls
3437 3197 Pls
3437 3197 Pls
3438 3197 Pls
3438 3196 Pls
3439 3196 Pls
3439 3195 Pls
3439 3195 Pls
3440 3195 Pls
3440 3195 Pls
3441 3194 Pls
3441 3194 Pls
3442 3194 Pls
3442 3193 Pls
3443 3192 Pls
3443 3192 Pls
3444 3191 Pls
3444 3191 Pls
3445 3191 Pls
3445 3190 Pls
3446 3190 Pls
3446 3189 Pls
3446 3189 Pls
3447 3189 Pls
3447 3188 Pls
3448 3188 Pls
3448 3188 Pls
3449 3187 Pls
3449 3187 Pls
3450 3187 Pls
3450 3187 Pls
3451 3186 Pls
3451 3186 Pls
3452 3186 Pls
3452 3185 Pls
3452 3185 Pls
3453 3184 Pls
3453 3184 Pls
3454 3184 Pls
3454 3183 Pls
3455 3183 Pls
3455 3183 Pls
3456 3182 Pls
3456 3182 Pls
3457 3182 Pls
3457 3182 Pls
3457 3181 Pls
3458 3181 Pls
3458 3181 Pls
3459 3181 Pls
3459 3180 Pls
3460 3180 Pls
3460 3180 Pls
3461 3180 Pls
3461 3180 Pls
3461 3179 Pls
3462 3179 Pls
3462 3179 Pls
3463 3179 Pls
3463 3178 Pls
3464 3178 Pls
3464 3178 Pls
3465 3178 Pls
3465 3177 Pls
3465 3177 Pls
3466 3177 Pls
3466 3177 Pls
3467 3176 Pls
3467 3176 Pls
3468 3176 Pls
3468 3175 Pls
3469 3175 Pls
3469 3175 Pls
3469 3175 Pls
3470 3175 Pls
3470 3175 Pls
3471 3174 Pls
3471 3174 Pls
3472 3174 Pls
3472 3173 Pls
3472 3173 Pls
3473 3173 Pls
3473 3173 Pls
3474 3172 Pls
3474 3172 Pls
3475 3172 Pls
3475 3172 Pls
3475 3172 Pls
3476 3171 Pls
3477 3171 Pls
3477 3171 Pls
3478 3171 Pls
3478 3171 Pls
3478 3170 Pls
3479 3170 Pls
3479 3170 Pls
3480 3170 Pls
3481 3170 Pls
3481 3170 Pls
3481 3169 Pls
3482 3169 Pls
3482 3168 Pls
3483 3168 Pls
3483 3168 Pls
3484 3168 Pls
3484 3168 Pls
3484 3168 Pls
3485 3167 Pls
3485 3167 Pls
3486 3167 Pls
3486 3167 Pls
3486 3166 Pls
3487 3166 Pls
3487 3166 Pls
3488 3165 Pls
3488 3165 Pls
3489 3165 Pls
3489 3165 Pls
3489 3164 Pls
3490 3164 Pls
3490 3164 Pls
3491 3164 Pls
3491 3164 Pls
3491 3163 Pls
3492 3163 Pls
3492 3163 Pls
3493 3162 Pls
3493 3162 Pls
3493 3162 Pls
3494 3162 Pls
3494 3161 Pls
3495 3161 Pls
3495 3161 Pls
3496 3161 Pls
3496 3161 Pls
3496 3161 Pls
3497 3161 Pls
3497 3160 Pls
3498 3160 Pls
3498 3160 Pls
3498 3160 Pls
3499 3160 Pls
3499 3159 Pls
3500 3159 Pls
3500 3159 Pls
3500 3159 Pls
3501 3159 Pls
3501 3158 Pls
3502 3158 Pls
3502 3158 Pls
3502 3158 Pls
3503 3158 Pls
3503 3157 Pls
3504 3157 Pls
3504 3157 Pls
3504 3157 Pls
3505 3157 Pls
3505 3157 Pls
3506 3156 Pls
3506 3156 Pls
3506 3156 Pls
3507 3155 Pls
3507 3155 Pls
3508 3155 Pls
3508 3155 Pls
3508 3155 Pls
3509 3154 Pls
3509 3154 Pls
3509 3154 Pls
3510 3154 Pls
3510 3153 Pls
3511 3153 Pls
3511 3153 Pls
3511 3153 Pls
3512 3153 Pls
3512 3152 Pls
3513 3152 Pls
3513 3152 Pls
3513 3152 Pls
3514 3151 Pls
3514 3151 Pls
3515 3151 Pls
3515 3151 Pls
3515 3150 Pls
3516 3150 Pls
3516 3150 Pls
3516 3149 Pls
3517 3149 Pls
3517 3149 Pls
3518 3149 Pls
3518 3148 Pls
3518 3148 Pls
3519 3148 Pls
3519 3148 Pls
3520 3148 Pls
3520 3148 Pls
3520 3147 Pls
3521 3147 Pls
3521 3147 Pls
3521 3147 Pls
3522 3147 Pls
3522 3146 Pls
3523 3146 Pls
3523 3146 Pls
3523 3146 Pls
3524 3145 Pls
3524 3145 Pls
3524 3145 Pls
3525 3145 Pls
3525 3144 Pls
3526 3144 Pls
3526 3144 Pls
3526 3144 Pls
3527 3143 Pls
3527 3143 Pls
3527 3143 Pls
3528 3143 Pls
3528 3142 Pls
3529 3142 Pls
3529 3142 Pls
3529 3142 Pls
3530 3141 Pls
3530 3141 Pls
3530 3141 Pls
3531 3141 Pls
3531 3141 Pls
3532 3140 Pls
3532 3140 Pls
3532 3139 Pls
3533 3139 Pls
3533 3139 Pls
3533 3139 Pls
3534 3139 Pls
3534 3139 Pls
3534 3138 Pls
3535 3138 Pls
3535 3138 Pls
3536 3138 Pls
3536 3138 Pls
3536 3137 Pls
3537 3137 Pls
3537 3137 Pls
3537 3137 Pls
3538 3137 Pls
3538 3137 Pls
3538 3136 Pls
3539 3136 Pls
3539 3135 Pls
3540 3135 Pls
3540 3135 Pls
3540 3135 Pls
3541 3134 Pls
3541 3134 Pls
3541 3134 Pls
3542 3134 Pls
3542 3133 Pls
3542 3133 Pls
3543 3133 Pls
3543 3133 Pls
3543 3133 Pls
3544 3133 Pls
3544 3132 Pls
3545 3132 Pls
3545 3132 Pls
3545 3132 Pls
3546 3132 Pls
3546 3132 Pls
3546 3132 Pls
3547 3131 Pls
3547 3131 Pls
3547 3131 Pls
3548 3131 Pls
3548 3131 Pls
3548 3130 Pls
3549 3130 Pls
3549 3130 Pls
3550 3129 Pls
3550 3129 Pls
3550 3129 Pls
3551 3129 Pls
3551 3129 Pls
3552 3129 Pls
3552 3128 Pls
3552 3128 Pls
3553 3128 Pls
3553 3128 Pls
3553 3128 Pls
3554 3128 Pls
3554 3128 Pls
3555 3127 Pls
3555 3127 Pls
3556 3127 Pls
3556 3127 Pls
3556 3127 Pls
3557 3127 Pls
3557 3126 Pls
3558 3126 Pls
3558 3126 Pls
3558 3126 Pls
3559 3126 Pls
3559 3125 Pls
3559 3125 Pls
3560 3125 Pls
3560 3125 Pls
3560 3125 Pls
3561 3125 Pls
3561 3124 Pls
3561 3124 Pls
3562 3124 Pls
3562 3124 Pls
3562 3124 Pls
3563 3123 Pls
3563 3123 Pls
3563 3123 Pls
3564 3122 Pls
3564 3122 Pls
3564 3122 Pls
3565 3122 Pls
3565 3122 Pls
3565 3122 Pls
3566 3122 Pls
3566 3121 Pls
3566 3121 Pls
3567 3121 Pls
3567 3121 Pls
3567 3121 Pls
3568 3120 Pls
3568 3120 Pls
3569 3120 Pls
3569 3120 Pls
3569 3119 Pls
3570 3119 Pls
3570 3119 Pls
3571 3119 Pls
3571 3119 Pls
3571 3119 Pls
3572 3118 Pls
3572 3118 Pls
3573 3118 Pls
3573 3118 Pls
3574 3118 Pls
3574 3118 Pls
3575 3118 Pls
3575 3117 Pls
3576 3117 Pls
3576 3117 Pls
3576 3117 Pls
3577 3117 Pls
3577 3116 Pls
3577 3116 Pls
3578 3116 Pls
3579 3116 Pls
3579 3116 Pls
3579 3115 Pls
3580 3115 Pls
3580 3115 Pls
3580 3115 Pls
3581 3114 Pls
3581 3114 Pls
3581 3114 Pls
3581 3114 Pls
3582 3113 Pls
3582 3112 Pls
3582 3112 Pls
3583 3112 Pls
3583 3112 Pls
3583 3112 Pls
3584 3111 Pls
3584 3111 Pls
3585 3111 Pls
3585 3111 Pls
3585 3111 Pls
3586 3111 Pls
3586 3111 Pls
3586 3111 Pls
3587 3111 Pls
3587 3110 Pls
3587 3110 Pls
3588 3110 Pls
3588 3110 Pls
3588 3110 Pls
3589 3109 Pls
3589 3109 Pls
3589 3109 Pls
3590 3109 Pls
3590 3109 Pls
3590 3109 Pls
3591 3108 Pls
3591 3108 Pls
3591 3108 Pls
3592 3108 Pls
3592 3108 Pls
3592 3108 Pls
3593 3108 Pls
3593 3107 Pls
3593 3107 Pls
3594 3107 Pls
3594 3107 Pls
3594 3107 Pls
3594 3106 Pls
3595 3106 Pls
3595 3106 Pls
3595 3106 Pls
3596 3106 Pls
3596 3106 Pls
3597 3106 Pls
3597 3105 Pls
3597 3105 Pls
3598 3105 Pls
3598 3105 Pls
3598 3104 Pls
3598 3104 Pls
3599 3104 Pls
3599 3104 Pls
3599 3104 Pls
3600 3104 Pls
3600 3103 Pls
3601 3103 Pls
3601 3103 Pls
3601 3103 Pls
3602 3103 Pls
3602 3102 Pls
3602 3102 Pls
3603 3102 Pls
3603 3102 Pls
3603 3102 Pls
3604 3102 Pls
3604 3101 Pls
3604 3101 Pls
3605 3101 Pls
3605 3101 Pls
3605 3101 Pls
3606 3101 Pls
3606 3100 Pls
3607 3100 Pls
3607 3100 Pls
3608 3100 Pls
3608 3100 Pls
3609 3100 Pls
3609 3100 Pls
3609 3100 Pls
3610 3100 Pls
3610 3099 Pls
3611 3099 Pls
3611 3099 Pls
3611 3099 Pls
3611 3099 Pls
3612 3098 Pls
3612 3098 Pls
3612 3098 Pls
3613 3098 Pls
3613 3098 Pls
3613 3098 Pls
3614 3098 Pls
3614 3098 Pls
3614 3097 Pls
3615 3097 Pls
3615 3097 Pls
3616 3097 Pls
3616 3097 Pls
3616 3097 Pls
3617 3096 Pls
3617 3096 Pls
3617 3096 Pls
3617 3096 Pls
3618 3095 Pls
3618 3095 Pls
3618 3095 Pls
3619 3095 Pls
3619 3095 Pls
3619 3095 Pls
3619 3094 Pls
3620 3094 Pls
3620 3094 Pls
3620 3094 Pls
3621 3094 Pls
3621 3094 Pls
3622 3093 Pls
3622 3093 Pls
3622 3093 Pls
3623 3093 Pls
3623 3093 Pls
3624 3093 Pls
3624 3093 Pls
3624 3092 Pls
3625 3092 Pls
3625 3092 Pls
3625 3092 Pls
3625 3092 Pls
3626 3092 Pls
3626 3091 Pls
3626 3091 Pls
3627 3091 Pls
3627 3091 Pls
3627 3091 Pls
3628 3091 Pls
3628 3090 Pls
3628 3090 Pls
3629 3090 Pls
3629 3090 Pls
3629 3090 Pls
3630 3090 Pls
3630 3090 Pls
3630 3089 Pls
3631 3089 Pls
3631 3089 Pls
3631 3089 Pls
3631 3088 Pls
3632 3088 Pls
3632 3088 Pls
3633 3088 Pls
3633 3088 Pls
3633 3088 Pls
3634 3087 Pls
3634 3087 Pls
3634 3087 Pls
3635 3087 Pls
3635 3087 Pls
3635 3087 Pls
3636 3086 Pls
3636 3086 Pls
3637 3086 Pls
3637 3086 Pls
3637 3086 Pls
3638 3086 Pls
3638 3085 Pls
3638 3085 Pls
3638 3085 Pls
3639 3085 Pls
3639 3085 Pls
3639 3085 Pls
3640 3084 Pls
3640 3084 Pls
3640 3084 Pls
3641 3084 Pls
3641 3084 Pls
3641 3084 Pls
3641 3084 Pls
3642 3084 Pls
3642 3083 Pls
3642 3083 Pls
3643 3083 Pls
3643 3083 Pls
3643 3082 Pls
3643 3082 Pls
3644 3082 Pls
3644 3082 Pls
3644 3082 Pls
3644 3081 Pls
3645 3081 Pls
3645 3081 Pls
3646 3081 Pls
3646 3081 Pls
3646 3080 Pls
3646 3080 Pls
3647 3080 Pls
3647 3080 Pls
3647 3080 Pls
3647 3080 Pls
3648 3080 Pls
3648 3079 Pls
3649 3079 Pls
3649 3079 Pls
3649 3078 Pls
3649 3078 Pls
3650 3078 Pls
3650 3078 Pls
3650 3078 Pls
3650 3078 Pls
3651 3077 Pls
3651 3077 Pls
3651 3077 Pls
3652 3077 Pls
3652 3076 Pls
3652 3076 Pls
3653 3076 Pls
3653 3076 Pls
3653 3076 Pls
3653 3076 Pls
3654 3076 Pls
3654 3076 Pls
3654 3075 Pls
3655 3075 Pls
3655 3075 Pls
3655 3075 Pls
3655 3075 Pls
3656 3075 Pls
3656 3075 Pls
3657 3074 Pls
3657 3074 Pls
3658 3074 Pls
3659 3074 Pls
3659 3074 Pls
3659 3074 Pls
3659 3074 Pls
3660 3073 Pls
3660 3073 Pls
3660 3073 Pls
3660 3073 Pls
3661 3073 Pls
3661 3073 Pls
3661 3072 Pls
3662 3072 Pls
3662 3072 Pls
3663 3072 Pls
3663 3072 Pls
3663 3072 Pls
3663 3071 Pls
3664 3071 Pls
3664 3071 Pls
3664 3070 Pls
3664 3070 Pls
3665 3070 Pls
3665 3070 Pls
3665 3069 Pls
3665 3069 Pls
3666 3069 Pls
3666 3069 Pls
3666 3068 Pls
3667 3068 Pls
3667 3068 Pls
3668 3068 Pls
3668 3068 Pls
3668 3068 Pls
3669 3068 Pls
3669 3068 Pls
3669 3067 Pls
3669 3067 Pls
3670 3067 Pls
3670 3067 Pls
3670 3066 Pls
3670 3066 Pls
3671 3066 Pls
3671 3066 Pls
3671 3066 Pls
3672 3066 Pls
3672 3066 Pls
3672 3066 Pls
3672 3065 Pls
3673 3065 Pls
3673 3065 Pls
3673 3065 Pls
3674 3065 Pls
3674 3064 Pls
3675 3064 Pls
3676 3064 Pls
3676 3064 Pls
3676 3064 Pls
3676 3064 Pls
3677 3063 Pls
3677 3063 Pls
3677 3063 Pls
3678 3063 Pls
3678 3063 Pls
3678 3062 Pls
3678 3062 Pls
3679 3062 Pls
3679 3062 Pls
3680 3062 Pls
3680 3061 Pls
3680 3061 Pls
3680 3061 Pls
3681 3060 Pls
3681 3060 Pls
3681 3060 Pls
3682 3060 Pls
3682 3060 Pls
3682 3060 Pls
3683 3060 Pls
3683 3060 Pls
3683 3059 Pls
3684 3059 Pls
3684 3059 Pls
3684 3059 Pls
3684 3059 Pls
3685 3059 Pls
3685 3059 Pls
3686 3059 Pls
3686 3058 Pls
3687 3058 Pls
3687 3058 Pls
3687 3058 Pls
3688 3058 Pls
3688 3057 Pls
3688 3057 Pls
3689 3057 Pls
3689 3057 Pls
3689 3056 Pls
3690 3056 Pls
3690 3056 Pls
3690 3056 Pls
3691 3056 Pls
3691 3056 Pls
3691 3056 Pls
3691 3056 Pls
3692 3055 Pls
3692 3055 Pls
3692 3055 Pls
3693 3055 Pls
3693 3055 Pls
3693 3055 Pls
3694 3055 Pls
3694 3054 Pls
3694 3054 Pls
3695 3054 Pls
3695 3054 Pls
3695 3053 Pls
3695 3053 Pls
3695 3053 Pls
3696 3053 Pls
3696 3053 Pls
3697 3053 Pls
3697 3053 Pls
3697 3053 Pls
3698 3052 Pls
3698 3052 Pls
3698 3052 Pls
3699 3052 Pls
3699 3052 Pls
3699 3052 Pls
3699 3051 Pls
3699 3051 Pls
3700 3051 Pls
3700 3051 Pls
3701 3051 Pls
3701 3051 Pls
3701 3051 Pls
3701 3051 Pls
3702 3050 Pls
3702 3050 Pls
3703 3050 Pls
3703 3050 Pls
3703 3050 Pls
3704 3050 Pls
3704 3050 Pls
3704 3049 Pls
3705 3049 Pls
3705 3049 Pls
3705 3049 Pls
3706 3049 Pls
3706 3048 Pls
3706 3048 Pls
3707 3048 Pls
3707 3048 Pls
3707 3048 Pls
3707 3047 Pls
3708 3047 Pls
3708 3047 Pls
3708 3047 Pls
3709 3047 Pls
3709 3046 Pls
3709 3046 Pls
3709 3046 Pls
3710 3046 Pls
3710 3046 Pls
3711 3046 Pls
3711 3046 Pls
3711 3046 Pls
3711 3045 Pls
3712 3045 Pls
3712 3045 Pls
3712 3045 Pls
3712 3045 Pls
3713 3045 Pls
3713 3045 Pls
3713 3045 Pls
3714 3045 Pls
3714 3045 Pls
3714 3044 Pls
3715 3044 Pls
3715 3044 Pls
3715 3044 Pls
3716 3044 Pls
3716 3044 Pls
3716 3044 Pls
3716 3043 Pls
3717 3043 Pls
3717 3043 Pls
3717 3043 Pls
3717 3043 Pls
3718 3043 Pls
3718 3043 Pls
3718 3042 Pls
3719 3042 Pls
3719 3042 Pls
3720 3042 Pls
3720 3042 Pls
3720 3041 Pls
3720 3041 Pls
3721 3041 Pls
3721 3041 Pls
3722 3041 Pls
3722 3041 Pls
3722 3041 Pls
3723 3040 Pls
3723 3040 Pls
3723 3040 Pls
3723 3040 Pls
3724 3040 Pls
3724 3040 Pls
3724 3039 Pls
3725 3039 Pls
3725 3039 Pls
3725 3039 Pls
3725 3039 Pls
3726 3039 Pls
3726 3039 Pls
3726 3039 Pls
3726 3038 Pls
3727 3038 Pls
3727 3038 Pls
3727 3038 Pls
3727 3038 Pls
3728 3038 Pls
3728 3037 Pls
3728 3037 Pls
3728 3037 Pls
3729 3037 Pls
3729 3037 Pls
3729 3037 Pls
3729 3037 Pls
3730 3037 Pls
3730 3037 Pls
3731 3036 Pls
3731 3036 Pls
3731 3036 Pls
3731 3036 Pls
3731 3036 Pls
3732 3036 Pls
3732 3036 Pls
3732 3036 Pls
3732 3035 Pls
3733 3035 Pls
3733 3035 Pls
3733 3035 Pls
3734 3035 Pls
3734 3035 Pls
3734 3035 Pls
3734 3034 Pls
3735 3034 Pls
3735 3034 Pls
3735 3034 Pls
3735 3034 Pls
3736 3034 Pls
3736 3034 Pls
3736 3034 Pls
3737 3034 Pls
3737 3033 Pls
3737 3033 Pls
3738 3033 Pls
3738 3033 Pls
3738 3033 Pls
3738 3032 Pls
3739 3032 Pls
3739 3032 Pls
3740 3032 Pls
3740 3032 Pls
3740 3032 Pls
3740 3032 Pls
3741 3031 Pls
3741 3031 Pls
3741 3031 Pls
3742 3031 Pls
3742 3031 Pls
3743 3031 Pls
3743 3030 Pls
3743 3030 Pls
3744 3030 Pls
3744 3030 Pls
3744 3030 Pls
3745 3030 Pls
3745 3030 Pls
3745 3030 Pls
3745 3029 Pls
3746 3029 Pls
3746 3029 Pls
3746 3029 Pls
3747 3029 Pls
3747 3029 Pls
3747 3028 Pls
3747 3028 Pls
3748 3028 Pls
3748 3028 Pls
3748 3028 Pls
3748 3028 Pls
3749 3028 Pls
3749 3027 Pls
3749 3027 Pls
3749 3027 Pls
3749 3027 Pls
3750 3027 Pls
3750 3027 Pls
3750 3027 Pls
3751 3026 Pls
3751 3026 Pls
3751 3026 Pls
3751 3026 Pls
3752 3025 Pls
3752 3025 Pls
3752 3025 Pls
3753 3025 Pls
3753 3024 Pls
3753 3024 Pls
3754 3024 Pls
3754 3024 Pls
3754 3024 Pls
3754 3024 Pls
3755 3023 Pls
3756 3023 Pls
3757 3023 Pls
3757 3023 Pls
3757 3023 Pls
3757 3023 Pls
3758 3023 Pls
3758 3022 Pls
3758 3022 Pls
3759 3022 Pls
3759 3022 Pls
3759 3022 Pls
3759 3022 Pls
3760 3021 Pls
3760 3021 Pls
3760 3021 Pls
3761 3021 Pls
3761 3021 Pls
3761 3021 Pls
3762 3021 Pls
3762 3021 Pls
3762 3020 Pls
3762 3020 Pls
3762 3020 Pls
3763 3020 Pls
3763 3020 Pls
3763 3020 Pls
3764 3020 Pls
3764 3020 Pls
3764 3019 Pls
3765 3019 Pls
3765 3019 Pls
3765 3019 Pls
3766 3019 Pls
3766 3019 Pls
3766 3019 Pls
3767 3019 Pls
3767 3019 Pls
3767 3019 Pls
3767 3018 Pls
3768 3018 Pls
3768 3018 Pls
3769 3018 Pls
3769 3018 Pls
3769 3018 Pls
3770 3018 Pls
3770 3017 Pls
3771 3017 Pls
3772 3017 Pls
3772 3017 Pls
3773 3017 Pls
3773 3016 Pls
3773 3016 Pls
3773 3016 Pls
3773 3016 Pls
3774 3016 Pls
3774 3016 Pls
3774 3016 Pls
3776 3016 Pls
3776 3015 Pls
3777 3015 Pls
3777 3015 Pls
3777 3015 Pls
3778 3015 Pls
3779 3015 Pls
3779 3015 Pls
3779 3015 Pls
3779 3014 Pls
3779 3014 Pls
3780 3014 Pls
3780 3014 Pls
3780 3014 Pls
3780 3014 Pls
3781 3013 Pls
3781 3013 Pls
3781 3013 Pls
3781 3013 Pls
3781 3013 Pls
3782 3013 Pls
3782 3012 Pls
3782 3012 Pls
3783 3012 Pls
3783 3012 Pls
3784 3012 Pls
3784 3012 Pls
3785 3012 Pls
3785 3012 Pls
3786 3011 Pls
3786 3011 Pls
3786 3011 Pls
3786 3011 Pls
3786 3011 Pls
3787 3011 Pls
3787 3010 Pls
3787 3010 Pls
3788 3010 Pls
3788 3010 Pls
3789 3010 Pls
3789 3010 Pls
3789 3010 Pls
3790 3010 Pls
3790 3009 Pls
3790 3009 Pls
3791 3009 Pls
3791 3009 Pls
3791 3009 Pls
3791 3009 Pls
3792 3008 Pls
3792 3008 Pls
3792 3008 Pls
3792 3008 Pls
3792 3008 Pls
3793 3007 Pls
3793 3007 Pls
3793 3007 Pls
3793 3007 Pls
3794 3007 Pls
3794 3007 Pls
3794 3007 Pls
3795 3007 Pls
3795 3007 Pls
3796 3006 Pls
3796 3006 Pls
3796 3006 Pls
3796 3006 Pls
3797 3006 Pls
3797 3006 Pls
3797 3005 Pls
3798 3005 Pls
3798 3005 Pls
3799 3005 Pls
3799 3005 Pls
3800 3005 Pls
3800 3005 Pls
3800 3005 Pls
3800 3005 Pls
3801 3004 Pls
3802 3004 Pls
3802 3004 Pls
3803 3004 Pls
3804 3004 Pls
3804 3003 Pls
3804 3003 Pls
3804 3003 Pls
3804 3003 Pls
3805 3003 Pls
3805 3003 Pls
3805 3003 Pls
3805 3003 Pls
3806 3002 Pls
3806 3002 Pls
3807 3002 Pls
3807 3002 Pls
3807 3002 Pls
3807 3002 Pls
3808 3002 Pls
3808 3001 Pls
3808 3001 Pls
3809 3001 Pls
3809 3001 Pls
3809 3001 Pls
3810 3000 Pls
3810 3000 Pls
3810 3000 Pls
3810 3000 Pls
3810 3000 Pls
3811 3000 Pls
3811 3000 Pls
3811 2999 Pls
3811 2999 Pls
3812 2999 Pls
3812 2999 Pls
3813 2999 Pls
3813 2999 Pls
3813 2998 Pls
3813 2998 Pls
3814 2998 Pls
3814 2998 Pls
3814 2998 Pls
3814 2998 Pls
3815 2998 Pls
3815 2998 Pls
3815 2997 Pls
3816 2997 Pls
3816 2997 Pls
3816 2997 Pls
3816 2997 Pls
3817 2997 Pls
3817 2996 Pls
3817 2996 Pls
3817 2996 Pls
3817 2996 Pls
3818 2996 Pls
3818 2996 Pls
3818 2995 Pls
3819 2995 Pls
3819 2995 Pls
3819 2995 Pls
3819 2995 Pls
3820 2995 Pls
3820 2995 Pls
3821 2994 Pls
3821 2994 Pls
3822 2994 Pls
3822 2994 Pls
3822 2994 Pls
3822 2994 Pls
3823 2994 Pls
3823 2994 Pls
3823 2993 Pls
3823 2993 Pls
3824 2993 Pls
3824 2993 Pls
3824 2993 Pls
3824 2993 Pls
3825 2992 Pls
3825 2992 Pls
3825 2992 Pls
3826 2992 Pls
3826 2991 Pls
3826 2991 Pls
3826 2991 Pls
3827 2991 Pls
3827 2991 Pls
3827 2991 Pls
3827 2990 Pls
3828 2990 Pls
3828 2990 Pls
3828 2990 Pls
3828 2990 Pls
3828 2990 Pls
3829 2990 Pls
3829 2990 Pls
3830 2990 Pls
3830 2989 Pls
3830 2989 Pls
3830 2989 Pls
3831 2989 Pls
3831 2989 Pls
3831 2989 Pls
3831 2989 Pls
3831 2989 Pls
3832 2989 Pls
3832 2988 Pls
3832 2988 Pls
3832 2988 Pls
3832 2988 Pls
3833 2988 Pls
3833 2988 Pls
3833 2988 Pls
3833 2987 Pls
3834 2987 Pls
3834 2987 Pls
3834 2987 Pls
3834 2986 Pls
3835 2986 Pls
3835 2986 Pls
3835 2986 Pls
3836 2986 Pls
3836 2986 Pls
3836 2985 Pls
3837 2985 Pls
3837 2985 Pls
3837 2985 Pls
3838 2985 Pls
3838 2984 Pls
3838 2984 Pls
3839 2984 Pls
3839 2984 Pls
3839 2984 Pls
3839 2984 Pls
3840 2984 Pls
3840 2984 Pls
3841 2983 Pls
3841 2983 Pls
3842 2983 Pls
3842 2983 Pls
3842 2983 Pls
3843 2982 Pls
3843 2982 Pls
3843 2982 Pls
3844 2982 Pls
3844 2982 Pls
3845 2982 Pls
3845 2981 Pls
3846 2981 Pls
3846 2981 Pls
3846 2981 Pls
3846 2981 Pls
3847 2981 Pls
3847 2981 Pls
3847 2981 Pls
3847 2980 Pls
3848 2980 Pls
3848 2980 Pls
3849 2980 Pls
3849 2980 Pls
3849 2979 Pls
3850 2979 Pls
3850 2979 Pls
3850 2979 Pls
3851 2979 Pls
3851 2979 Pls
3851 2979 Pls
3851 2979 Pls
3852 2978 Pls
3852 2978 Pls
3852 2978 Pls
3853 2978 Pls
3853 2978 Pls
3853 2978 Pls
3854 2978 Pls
3854 2978 Pls
3854 2978 Pls
3854 2977 Pls
3854 2977 Pls
3854 2977 Pls
3855 2977 Pls
3855 2977 Pls
3855 2977 Pls
3856 2977 Pls
3856 2977 Pls
3857 2976 Pls
3857 2976 Pls
3858 2976 Pls
3859 2976 Pls
3859 2976 Pls
3859 2976 Pls
3860 2976 Pls
3860 2976 Pls
3860 2976 Pls
3860 2975 Pls
3861 2975 Pls
3861 2975 Pls
3861 2975 Pls
3861 2975 Pls
3861 2975 Pls
3861 2975 Pls
3861 2975 Pls
3862 2974 Pls
3862 2974 Pls
3862 2974 Pls
3862 2974 Pls
3863 2974 Pls
3863 2974 Pls
3863 2974 Pls
3863 2973 Pls
3863 2973 Pls
3864 2973 Pls
3864 2973 Pls
3865 2973 Pls
3865 2973 Pls
3865 2973 Pls
3866 2973 Pls
3866 2973 Pls
3868 2973 Pls
3868 2972 Pls
3869 2972 Pls
3869 2972 Pls
3870 2972 Pls
3870 2972 Pls
3870 2972 Pls
3871 2972 Pls
3871 2972 Pls
3872 2972 Pls
3872 2971 Pls
3872 2971 Pls
3873 2971 Pls
3873 2971 Pls
3874 2971 Pls
3874 2971 Pls
3874 2970 Pls
3874 2970 Pls
3874 2970 Pls
3875 2970 Pls
3875 2970 Pls
3875 2970 Pls
3875 2970 Pls
3875 2969 Pls
3876 2969 Pls
3876 2969 Pls
3876 2969 Pls
3877 2969 Pls
3877 2969 Pls
3878 2969 Pls
3878 2969 Pls
3878 2969 Pls
3878 2968 Pls
3879 2968 Pls
3879 2968 Pls
3879 2968 Pls
3879 2968 Pls
3880 2968 Pls
3880 2968 Pls
3881 2968 Pls
3881 2968 Pls
3881 2967 Pls
3881 2967 Pls
3882 2967 Pls
3882 2967 Pls
3882 2967 Pls
3883 2967 Pls
3883 2967 Pls
3884 2967 Pls
3884 2966 Pls
3884 2966 Pls
3884 2966 Pls
3884 2966 Pls
3885 2966 Pls
3885 2966 Pls
3885 2965 Pls
3886 2965 Pls
3886 2965 Pls
3886 2965 Pls
3887 2965 Pls
3887 2965 Pls
3888 2964 Pls
3888 2964 Pls
3888 2964 Pls
3888 2964 Pls
3889 2964 Pls
3890 2964 Pls
3890 2964 Pls
3890 2964 Pls
3891 2963 Pls
3891 2963 Pls
3892 2963 Pls
3892 2963 Pls
3893 2963 Pls
3893 2963 Pls
3893 2963 Pls
3893 2963 Pls
3894 2962 Pls
3895 2962 Pls
3895 2962 Pls
3895 2962 Pls
3895 2962 Pls
3896 2962 Pls
3896 2962 Pls
3896 2962 Pls
3896 2961 Pls
3896 2961 Pls
3897 2961 Pls
3897 2961 Pls
3897 2961 Pls
3897 2961 Pls
3897 2961 Pls
3898 2961 Pls
3898 2960 Pls
3898 2960 Pls
3899 2960 Pls
3899 2960 Pls
3899 2960 Pls
3899 2959 Pls
3899 2959 Pls
3900 2959 Pls
3900 2959 Pls
3900 2959 Pls
3900 2959 Pls
3900 2959 Pls
3901 2958 Pls
3901 2958 Pls
3902 2958 Pls
3902 2958 Pls
3902 2958 Pls
3903 2958 Pls
3903 2958 Pls
3904 2958 Pls
3904 2957 Pls
3904 2957 Pls
3904 2957 Pls
3904 2957 Pls
3906 2957 Pls
3906 2957 Pls
3907 2957 Pls
3907 2957 Pls
3907 2956 Pls
3908 2956 Pls
3908 2956 Pls
3908 2956 Pls
3908 2956 Pls
3908 2956 Pls
3908 2956 Pls
3909 2956 Pls
3909 2955 Pls
3909 2955 Pls
3909 2955 Pls
3910 2955 Pls
3910 2954 Pls
3910 2954 Pls
3911 2954 Pls
3911 2954 Pls
3911 2954 Pls
3912 2953 Pls
3913 2953 Pls
3914 2953 Pls
3914 2953 Pls
3914 2953 Pls
3914 2953 Pls
3915 2953 Pls
3915 2953 Pls
3916 2952 Pls
3916 2952 Pls
3916 2952 Pls
3917 2952 Pls
3917 2952 Pls
3918 2952 Pls
3918 2952 Pls
3918 2952 Pls
3919 2951 Pls
3919 2951 Pls
3919 2951 Pls
3920 2951 Pls
3921 2951 Pls
3921 2951 Pls
3921 2951 Pls
3922 2951 Pls
3922 2950 Pls
3922 2950 Pls
3922 2950 Pls
3923 2950 Pls
3923 2950 Pls
3923 2949 Pls
3924 2949 Pls
3924 2949 Pls
3925 2949 Pls
3925 2949 Pls
3925 2949 Pls
3926 2949 Pls
3926 2949 Pls
3926 2949 Pls
3926 2948 Pls
3926 2948 Pls
3926 2948 Pls
3928 2948 Pls
3928 2948 Pls
3928 2948 Pls
3928 2947 Pls
3928 2947 Pls
3929 2947 Pls
3929 2947 Pls
3929 2947 Pls
3929 2947 Pls
3930 2947 Pls
3930 2946 Pls
3930 2946 Pls
3930 2946 Pls
3931 2946 Pls
3931 2946 Pls
3931 2946 Pls
3931 2946 Pls
3931 2946 Pls
3931 2945 Pls
3932 2945 Pls
3932 2945 Pls
3933 2945 Pls
3934 2945 Pls
3934 2945 Pls
3934 2945 Pls
3935 2944 Pls
3935 2944 Pls
3935 2944 Pls
3935 2944 Pls
3936 2944 Pls
3936 2944 Pls
3937 2944 Pls
3937 2944 Pls
3938 2943 Pls
3938 2943 Pls
3938 2943 Pls
3938 2942 Pls
3938 2942 Pls
3938 2942 Pls
3939 2942 Pls
3939 2942 Pls
3939 2942 Pls
3939 2941 Pls
3939 2941 Pls
3939 2941 Pls
3940 2940 Pls
3940 2940 Pls
3940 2933 Pls
3940 2933 Pls
3941 2933 Pls
3942 2933 Pls
3942 2933 Pls
3942 2932 Pls
3943 2932 Pls
3943 2932 Pls
3943 2932 Pls
3943 2932 Pls
3945 2932 Pls
3945 2932 Pls
3945 2931 Pls
3945 2931 Pls
3946 2931 Pls
3946 2931 Pls
3946 2931 Pls
3947 2931 Pls
3947 2930 Pls
3947 2930 Pls
3947 2930 Pls
3949 2930 Pls
3949 2930 Pls
3949 2930 Pls
3949 2930 Pls
3950 2929 Pls
3950 2929 Pls
3950 2929 Pls
3951 2929 Pls
3951 2929 Pls
3951 2929 Pls
3952 2929 Pls
3952 2928 Pls
3952 2928 Pls
3953 2928 Pls
3953 2928 Pls
3953 2928 Pls
3953 2928 Pls
3953 2928 Pls
3954 2928 Pls
3955 2927 Pls
3955 2927 Pls
3955 2927 Pls
3955 2927 Pls
3956 2927 Pls
3956 2927 Pls
3956 2926 Pls
3956 2926 Pls
3956 2926 Pls
3957 2926 Pls
3957 2926 Pls
3957 2926 Pls
3958 2925 Pls
3958 2925 Pls
3959 2925 Pls
3959 2925 Pls
3959 2925 Pls
3960 2925 Pls
3960 2925 Pls
3960 2925 Pls
3960 2924 Pls
3960 2924 Pls
3961 2924 Pls
3962 2924 Pls
3962 2924 Pls
3962 2924 Pls
3963 2924 Pls
3964 2923 Pls
3965 2923 Pls
3965 2923 Pls
3965 2923 Pls
3966 2923 Pls
3966 2923 Pls
3966 2923 Pls
3967 2922 Pls
3967 2922 Pls
3967 2922 Pls
3968 2922 Pls
3968 2922 Pls
3969 2922 Pls
3969 2922 Pls
3969 2921 Pls
3970 2921 Pls
3970 2921 Pls
3970 2921 Pls
3971 2921 Pls
3971 2921 Pls
3971 2920 Pls
3971 2920 Pls
3971 2920 Pls
3972 2920 Pls
3972 2920 Pls
3972 2919 Pls
3973 2919 Pls
3974 2919 Pls
3975 2919 Pls
3975 2919 Pls
3975 2919 Pls
3975 2919 Pls
3975 2918 Pls
3976 2918 Pls
3976 2918 Pls
3976 2918 Pls
3977 2918 Pls
3977 2918 Pls
3977 2918 Pls
3978 2917 Pls
3978 2917 Pls
3978 2917 Pls
3978 2917 Pls
3979 2917 Pls
3979 2916 Pls
3979 2916 Pls
3980 2916 Pls
3980 2916 Pls
3982 2916 Pls
3983 2916 Pls
3983 2916 Pls
3984 2915 Pls
3985 2915 Pls
3985 2915 Pls
3986 2915 Pls
3986 2915 Pls
3986 2915 Pls
3987 2914 Pls
3988 2914 Pls
3988 2914 Pls
3988 2914 Pls
3989 2914 Pls
3989 2914 Pls
3990 2913 Pls
3990 2913 Pls
3990 2913 Pls
3990 2913 Pls
3991 2913 Pls
3991 2913 Pls
3992 2912 Pls
3992 2912 Pls
3992 2912 Pls
3993 2912 Pls
3994 2912 Pls
3994 2912 Pls
3994 2912 Pls
3994 2912 Pls
3995 2911 Pls
3995 2911 Pls
3995 2911 Pls
3996 2911 Pls
3996 2911 Pls
3997 2911 Pls
3998 2911 Pls
3999 2910 Pls
3999 2910 Pls
3999 2910 Pls
4000 2910 Pls
4000 2910 Pls
4000 2909 Pls
4000 2909 Pls
4001 2909 Pls
4002 2909 Pls
4002 2909 Pls
4002 2909 Pls
4003 2909 Pls
4003 2908 Pls
4003 2908 Pls
4003 2908 Pls
4004 2908 Pls
4004 2908 Pls
4004 2908 Pls
4004 2907 Pls
4005 2907 Pls
4005 2907 Pls
4005 2906 Pls
4006 2906 Pls
4006 2906 Pls
4007 2906 Pls
4007 2906 Pls
4007 2905 Pls
4008 2905 Pls
4008 2905 Pls
4008 2905 Pls
4009 2905 Pls
4009 2905 Pls
4009 2905 Pls
4010 2905 Pls
4010 2904 Pls
4011 2904 Pls
4011 2904 Pls
4011 2904 Pls
4011 2904 Pls
4013 2904 Pls
4013 2904 Pls
4013 2903 Pls
4014 2903 Pls
4014 2903 Pls
4014 2903 Pls
4015 2903 Pls
4015 2903 Pls
4016 2903 Pls
4016 2902 Pls
4017 2902 Pls
4018 2902 Pls
4018 2902 Pls
4018 2902 Pls
4018 2901 Pls
4019 2901 Pls
4019 2901 Pls
4019 2901 Pls
4019 2901 Pls
4020 2901 Pls
4020 2901 Pls
4020 2900 Pls
4021 2900 Pls
4022 2900 Pls
4022 2900 Pls
4022 2900 Pls
4022 2900 Pls
4023 2900 Pls
4023 2899 Pls
4023 2899 Pls
4023 2899 Pls
4024 2899 Pls
4024 2899 Pls
4024 2898 Pls
4024 2898 Pls
4024 2898 Pls
4024 2898 Pls
4024 2898 Pls
4025 2898 Pls
4025 2898 Pls
4025 2898 Pls
4025 2897 Pls
4025 2897 Pls
4025 2897 Pls
4026 2896 Pls
4026 2896 Pls
4028 2896 Pls
4028 2896 Pls
4028 2896 Pls
4028 2896 Pls
4028 2895 Pls
4029 2895 Pls
4029 2895 Pls
4029 2895 Pls
4029 2895 Pls
4030 2895 Pls
4030 2895 Pls
4030 2895 Pls
4030 2894 Pls
4031 2894 Pls
4031 2894 Pls
4032 2894 Pls
4032 2894 Pls
4032 2893 Pls
4032 2893 Pls
4032 2893 Pls
4033 2893 Pls
4033 2893 Pls
4033 2893 Pls
4034 2893 Pls
4034 2892 Pls
4034 2892 Pls
4034 2892 Pls
4034 2892 Pls
4034 2892 Pls
4035 2892 Pls
4035 2891 Pls
4035 2891 Pls
4035 2891 Pls
4035 2891 Pls
4036 2891 Pls
4037 2891 Pls
4037 2891 Pls
4037 2890 Pls
4037 2890 Pls
4038 2890 Pls
4038 2890 Pls
4038 2890 Pls
4039 2890 Pls
4039 2890 Pls
4040 2889 Pls
4041 2889 Pls
4042 2889 Pls
4042 2889 Pls
4042 2889 Pls
4043 2889 Pls
4044 2889 Pls
4044 2888 Pls
4044 2888 Pls
4045 2888 Pls
4046 2888 Pls
4046 2888 Pls
4047 2888 Pls
4047 2888 Pls
4047 2887 Pls
4047 2887 Pls
4047 2887 Pls
4048 2887 Pls
4048 2887 Pls
4048 2887 Pls
4049 2886 Pls
4049 2886 Pls
4050 2886 Pls
4050 2886 Pls
4050 2886 Pls
4051 2886 Pls
4052 2886 Pls
4052 2885 Pls
4053 2885 Pls
4053 2885 Pls
4054 2885 Pls
4054 2885 Pls
4054 2885 Pls
4055 2885 Pls
4055 2884 Pls
4055 2884 Pls
4056 2884 Pls
4056 2884 Pls
4057 2884 Pls
4057 2884 Pls
4057 2884 Pls
4057 2883 Pls
4057 2883 Pls
4058 2883 Pls
4058 2883 Pls
4058 2883 Pls
4058 2883 Pls
4059 2882 Pls
4059 2882 Pls
4059 2882 Pls
4060 2882 Pls
4061 2882 Pls
4061 2881 Pls
4062 2881 Pls
4063 2881 Pls
4063 2881 Pls
4063 2881 Pls
4063 2881 Pls
4064 2880 Pls
4066 2880 Pls
4066 2880 Pls
4066 2880 Pls
4066 2880 Pls
4067 2880 Pls
4067 2880 Pls
4068 2879 Pls
4068 2879 Pls
4068 2879 Pls
4068 2879 Pls
4069 2879 Pls
4069 2879 Pls
4069 2879 Pls
4069 2878 Pls
4069 2878 Pls
4069 2878 Pls
4070 2878 Pls
4070 2878 Pls
4071 2878 Pls
4071 2877 Pls
4072 2877 Pls
4072 2877 Pls
4072 2877 Pls
4072 2877 Pls
4074 2876 Pls
4074 2876 Pls
4074 2876 Pls
4074 2876 Pls
4076 2876 Pls
4076 2876 Pls
4078 2875 Pls
4078 2875 Pls
4078 2875 Pls
4078 2875 Pls
4079 2875 Pls
4079 2874 Pls
4080 2874 Pls
4080 2874 Pls
4080 2874 Pls
4081 2874 Pls
4081 2873 Pls
4082 2873 Pls
4082 2873 Pls
4082 2873 Pls
4083 2872 Pls
4083 2872 Pls
4083 2872 Pls
4085 2872 Pls
4085 2872 Pls
4085 2872 Pls
4085 2871 Pls
4086 2871 Pls
4086 2871 Pls
4087 2871 Pls
4087 2871 Pls
4087 2871 Pls
4087 2871 Pls
4088 2870 Pls
4088 2870 Pls
4088 2870 Pls
4089 2870 Pls
4089 2870 Pls
4089 2870 Pls
4089 2869 Pls
4089 2869 Pls
4090 2869 Pls
4090 2869 Pls
4091 2869 Pls
4091 2869 Pls
4091 2868 Pls
4092 2868 Pls
4092 2868 Pls
4093 2868 Pls
4093 2868 Pls
4094 2868 Pls
4094 2867 Pls
4095 2867 Pls
4095 2867 Pls
4095 2867 Pls
4096 2866 Pls
4096 2866 Pls
4096 2866 Pls
4097 2866 Pls
4097 2866 Pls
4097 2866 Pls
4098 2865 Pls
4098 2865 Pls
4098 2865 Pls
4099 2865 Pls
4099 2865 Pls
4100 2864 Pls
4100 2864 Pls
4100 2864 Pls
4101 2864 Pls
4101 2864 Pls
4101 2864 Pls
4102 2864 Pls
4103 2863 Pls
4103 2863 Pls
4104 2863 Pls
4105 2863 Pls
4105 2863 Pls
4108 2862 Pls
4108 2862 Pls
4108 2862 Pls
4109 2862 Pls
4109 2862 Pls
4110 2861 Pls
4110 2861 Pls
4110 2861 Pls
4110 2861 Pls
4111 2861 Pls
4111 2860 Pls
4111 2860 Pls
4112 2860 Pls
4112 2860 Pls
4112 2860 Pls
4112 2859 Pls
4113 2859 Pls
4113 2859 Pls
4113 2859 Pls
4114 2859 Pls
4114 2859 Pls
4115 2858 Pls
4115 2858 Pls
4115 2858 Pls
4116 2858 Pls
4116 2858 Pls
4116 2858 Pls
4116 2857 Pls
4117 2857 Pls
4117 2857 Pls
4119 2857 Pls
4119 2857 Pls
4119 2856 Pls
4119 2856 Pls
4120 2856 Pls
4121 2856 Pls
4121 2855 Pls
4122 2855 Pls
4122 2855 Pls
4123 2855 Pls
4123 2855 Pls
4123 2855 Pls
4123 2854 Pls
4123 2854 Pls
4123 2854 Pls
4124 2854 Pls
4124 2854 Pls
4125 2853 Pls
4125 2853 Pls
4125 2853 Pls
4126 2853 Pls
4126 2853 Pls
4127 2852 Pls
4127 2852 Pls
4128 2852 Pls
4128 2852 Pls
4129 2852 Pls
4130 2851 Pls
4130 2851 Pls
4131 2851 Pls
4131 2851 Pls
4131 2851 Pls
4132 2851 Pls
4132 2850 Pls
4132 2850 Pls
4133 2850 Pls
4133 2850 Pls
4133 2850 Pls
4134 2850 Pls
4134 2849 Pls
4134 2849 Pls
4134 2849 Pls
4135 2849 Pls
4135 2849 Pls
4136 2848 Pls
4136 2848 Pls
4136 2848 Pls
4137 2848 Pls
4137 2847 Pls
4137 2847 Pls
4137 2846 Pls
4138 2846 Pls
4138 2846 Pls
4138 2846 Pls
4139 2846 Pls
4139 2846 Pls
4139 2845 Pls
4139 2845 Pls
4139 2845 Pls
4139 2845 Pls
4139 2845 Pls
4140 2844 Pls
4140 2844 Pls
4140 2844 Pls
4140 2844 Pls
4140 2844 Pls
4140 2844 Pls
4142 2843 Pls
4142 2843 Pls
4143 2843 Pls
4143 2843 Pls
4143 2843 Pls
4144 2842 Pls
4144 2842 Pls
4145 2842 Pls
4145 2842 Pls
4146 2842 Pls
4146 2841 Pls
4146 2841 Pls
4147 2841 Pls
4147 2841 Pls
4148 2841 Pls
4148 2840 Pls
4148 2840 Pls
4149 2840 Pls
4151 2840 Pls
4151 2840 Pls
4151 2840 Pls
4152 2839 Pls
4152 2839 Pls
4152 2839 Pls
4153 2839 Pls
4153 2839 Pls
4153 2839 Pls
4153 2838 Pls
4154 2838 Pls
4154 2838 Pls
4155 2838 Pls
4155 2838 Pls
4156 2838 Pls
4157 2837 Pls
4158 2837 Pls
4159 2837 Pls
4159 2837 Pls
4160 2837 Pls
4160 2837 Pls
4160 2836 Pls
4161 2836 Pls
4161 2836 Pls
4161 2836 Pls
4161 2836 Pls
4162 2835 Pls
4163 2835 Pls
4164 2835 Pls
4164 2835 Pls
4165 2835 Pls
4165 2835 Pls
4165 2834 Pls
4166 2834 Pls
4166 2834 Pls
4167 2834 Pls
4167 2834 Pls
4167 2834 Pls
4168 2833 Pls
4168 2833 Pls
4169 2833 Pls
4169 2833 Pls
4170 2832 Pls
4171 2832 Pls
4171 2832 Pls
4171 2832 Pls
4172 2831 Pls
4172 2831 Pls
4173 2831 Pls
4174 2831 Pls
4175 2831 Pls
4175 2830 Pls
4176 2830 Pls
4177 2830 Pls
4177 2830 Pls
4178 2830 Pls
4178 2829 Pls
4178 2829 Pls
4179 2829 Pls
4179 2829 Pls
4179 2829 Pls
4180 2829 Pls
4180 2828 Pls
4180 2828 Pls
4181 2828 Pls
4182 2828 Pls
4182 2827 Pls
4183 2827 Pls
4183 2827 Pls
4184 2827 Pls
4185 2827 Pls
4186 2827 Pls
4186 2826 Pls
4186 2826 Pls
4186 2826 Pls
4188 2826 Pls
4189 2826 Pls
4189 2826 Pls
4190 2825 Pls
4190 2825 Pls
4190 2825 Pls
4191 2824 Pls
4191 2824 Pls
4193 2824 Pls
4193 2824 Pls
4193 2824 Pls
4194 2824 Pls
4194 2823 Pls
4194 2823 Pls
4195 2823 Pls
4195 2823 Pls
4195 2823 Pls
4196 2822 Pls
4196 2822 Pls
4196 2822 Pls
4197 2822 Pls
4197 2822 Pls
4197 2821 Pls
4198 2821 Pls
4198 2821 Pls
4200 2821 Pls
4200 2821 Pls
4200 2821 Pls
4201 2820 Pls
4201 2820 Pls
4201 2820 Pls
4201 2820 Pls
4202 2820 Pls
4202 2819 Pls
4202 2819 Pls
4202 2819 Pls
4202 2819 Pls
4202 2819 Pls
4203 2819 Pls
4203 2818 Pls
4203 2818 Pls
4204 2818 Pls
4204 2818 Pls
4204 2818 Pls
4205 2817 Pls
4205 2817 Pls
4205 2817 Pls
4205 2817 Pls
4207 2817 Pls
4207 2817 Pls
4208 2816 Pls
4209 2816 Pls
4209 2816 Pls
4210 2816 Pls
4211 2816 Pls
4212 2815 Pls
4213 2815 Pls
4213 2815 Pls
4213 2815 Pls
4214 2815 Pls
4215 2815 Pls
4215 2814 Pls
4215 2814 Pls
4215 2814 Pls
4215 2814 Pls
4216 2814 Pls
4217 2813 Pls
4217 2813 Pls
4217 2813 Pls
4217 2813 Pls
4218 2813 Pls
4219 2813 Pls
4220 2812 Pls
4220 2812 Pls
4220 2812 Pls
4220 2811 Pls
4221 2811 Pls
4221 2811 Pls
4222 2811 Pls
4222 2811 Pls
4223 2810 Pls
4223 2810 Pls
4223 2810 Pls
4223 2810 Pls
4224 2810 Pls
4224 2809 Pls
4224 2809 Pls
4225 2809 Pls
4227 2809 Pls
4227 2808 Pls
4227 2808 Pls
4228 2808 Pls
4228 2808 Pls
4229 2808 Pls
4230 2808 Pls
4230 2807 Pls
4230 2807 Pls
4231 2807 Pls
4231 2807 Pls
4232 2807 Pls
4232 2806 Pls
4233 2806 Pls
4233 2806 Pls
4234 2806 Pls
4235 2806 Pls
4235 2805 Pls
4235 2805 Pls
4236 2805 Pls
4236 2805 Pls
4237 2805 Pls
4237 2804 Pls
4238 2804 Pls
4238 2804 Pls
4239 2804 Pls
4239 2804 Pls
4239 2803 Pls
4239 2803 Pls
4239 2803 Pls
4239 2803 Pls
4240 2803 Pls
4240 2802 Pls
4240 2802 Pls
4241 2802 Pls
4241 2802 Pls
4241 2802 Pls
4242 2801 Pls
4242 2801 Pls
4243 2801 Pls
4244 2801 Pls
4244 2801 Pls
4245 2801 Pls
4245 2800 Pls
4247 2800 Pls
4247 2800 Pls
4247 2800 Pls
4248 2800 Pls
4248 2799 Pls
4248 2799 Pls
4248 2799 Pls
4249 2799 Pls
4250 2798 Pls
4252 2798 Pls
4254 2798 Pls
4255 2798 Pls
4255 2798 Pls
4258 2797 Pls
4259 2797 Pls
4259 2797 Pls
4260 2797 Pls
4261 2797 Pls
4261 2796 Pls
4262 2796 Pls
4262 2796 Pls
4262 2796 Pls
4262 2796 Pls
4263 2795 Pls
4264 2795 Pls
4264 2795 Pls
4264 2795 Pls
4264 2795 Pls
4265 2794 Pls
4265 2794 Pls
4265 2794 Pls
4265 2794 Pls
4265 2794 Pls
4265 2794 Pls
4266 2793 Pls
4267 2793 Pls
4267 2793 Pls
4267 2793 Pls
4267 2793 Pls
4268 2792 Pls
4268 2792 Pls
4268 2792 Pls
4268 2792 Pls
4268 2791 Pls
4269 2791 Pls
4269 2791 Pls
4270 2791 Pls
4270 2790 Pls
4270 2790 Pls
4270 2790 Pls
4271 2790 Pls
4272 2789 Pls
4272 2789 Pls
4272 2789 Pls
4272 2789 Pls
4272 2789 Pls
4272 2788 Pls
4272 2788 Pls
4273 2788 Pls
4273 2788 Pls
4274 2788 Pls
4274 2787 Pls
4275 2787 Pls
4275 2787 Pls
4275 2787 Pls
4275 2786 Pls
4276 2786 Pls
4276 2786 Pls
4277 2786 Pls
4277 2785 Pls
4277 2785 Pls
4277 2785 Pls
4277 2785 Pls
4278 2784 Pls
4278 2784 Pls
4279 2784 Pls
4280 2784 Pls
4280 2784 Pls
4280 2783 Pls
4281 2783 Pls
4281 2783 Pls
4282 2783 Pls
4282 2782 Pls
4282 2782 Pls
4282 2782 Pls
4283 2782 Pls
4283 2782 Pls
4283 2781 Pls
4283 2781 Pls
4283 2781 Pls
4284 2781 Pls
4284 2781 Pls
4285 2780 Pls
4285 2780 Pls
4285 2780 Pls
4285 2780 Pls
4286 2780 Pls
4288 2779 Pls
4288 2779 Pls
4288 2779 Pls
4289 2779 Pls
4290 2779 Pls
4290 2778 Pls
4290 2778 Pls
4291 2778 Pls
4291 2778 Pls
4292 2777 Pls
4293 2777 Pls
4294 2777 Pls
4294 2777 Pls
4295 2777 Pls
4295 2776 Pls
4297 2776 Pls
4297 2776 Pls
4299 2776 Pls
4299 2776 Pls
4299 2775 Pls
4300 2775 Pls
4300 2775 Pls
4301 2775 Pls
4302 2775 Pls
4302 2774 Pls
4302 2774 Pls
4303 2774 Pls
4304 2774 Pls
4304 2773 Pls
4309 2773 Pls
4310 2773 Pls
4311 2772 Pls
4311 2772 Pls
4311 2772 Pls
4312 2772 Pls
4312 2771 Pls
4312 2771 Pls
4312 2771 Pls
4312 2771 Pls
4313 2771 Pls
4313 2770 Pls
4313 2770 Pls
4314 2770 Pls
4314 2769 Pls
4314 2769 Pls
4314 2769 Pls
4315 2769 Pls
4316 2768 Pls
4316 2768 Pls
4316 2768 Pls
4316 2768 Pls
4318 2768 Pls
4318 2767 Pls
4318 2767 Pls
4319 2767 Pls
4319 2767 Pls
4319 2766 Pls
4319 2766 Pls
4319 2766 Pls
4320 2766 Pls
4320 2765 Pls
4320 2765 Pls
4320 2765 Pls
4321 2765 Pls
4321 2764 Pls
4322 2764 Pls
4322 2764 Pls
4323 2764 Pls
4324 2763 Pls
4325 2763 Pls
4325 2763 Pls
4325 2763 Pls
4326 2763 Pls
4326 2762 Pls
4326 2762 Pls
4326 2762 Pls
4326 2762 Pls
4326 2761 Pls
4327 2761 Pls
4327 2761 Pls
4328 2761 Pls
4328 2761 Pls
4329 2760 Pls
4330 2760 Pls
4331 2760 Pls
4332 2760 Pls
4332 2759 Pls
4334 2759 Pls
4334 2759 Pls
4335 2759 Pls
4335 2759 Pls
4336 2758 Pls
4336 2758 Pls
4336 2758 Pls
4337 2758 Pls
4337 2757 Pls
4338 2757 Pls
4338 2757 Pls
4338 2757 Pls
4338 2757 Pls
4339 2756 Pls
4340 2756 Pls
4340 2756 Pls
4341 2756 Pls
4341 2755 Pls
4342 2755 Pls
4343 2755 Pls
4343 2754 Pls
4343 2754 Pls
4343 2754 Pls
4343 2754 Pls
4343 2754 Pls
4344 2753 Pls
4344 2753 Pls
4346 2753 Pls
4346 2753 Pls
4347 2752 Pls
4348 2752 Pls
4348 2752 Pls
4349 2752 Pls
4350 2752 Pls
4353 2751 Pls
4353 2751 Pls
4353 2751 Pls
4353 2751 Pls
4354 2750 Pls
4354 2750 Pls
4354 2750 Pls
4355 2749 Pls
4356 2749 Pls
4356 2749 Pls
4356 2749 Pls
4357 2749 Pls
4357 2748 Pls
4358 2748 Pls
4358 2748 Pls
4360 2748 Pls
4361 2747 Pls
4361 2747 Pls
4363 2747 Pls
4363 2747 Pls
4364 2746 Pls
4364 2746 Pls
4364 2746 Pls
4366 2746 Pls
4367 2746 Pls
4368 2745 Pls
4368 2745 Pls
4368 2745 Pls
4368 2744 Pls
4368 2744 Pls
4368 2743 Pls
4369 2743 Pls
4369 2743 Pls
4369 2742 Pls
4369 2742 Pls
4370 2742 Pls
4370 2742 Pls
4371 2742 Pls
4371 2741 Pls
4371 2741 Pls
4372 2741 Pls
4373 2741 Pls
4374 2740 Pls
4375 2740 Pls
4376 2740 Pls
4377 2740 Pls
4377 2739 Pls
4378 2739 Pls
4378 2739 Pls
4378 2739 Pls
4379 2738 Pls
4379 2738 Pls
4379 2738 Pls
4379 2738 Pls
4380 2737 Pls
4381 2737 Pls
4382 2737 Pls
4383 2737 Pls
4384 2737 Pls
4384 2736 Pls
4385 2736 Pls
4385 2736 Pls
4386 2736 Pls
4386 2735 Pls
4386 2735 Pls
4388 2735 Pls
4388 2734 Pls
4388 2734 Pls
4389 2734 Pls
4389 2734 Pls
4390 2733 Pls
4390 2733 Pls
4390 2733 Pls
4391 2733 Pls
4391 2732 Pls
4392 2732 Pls
4393 2732 Pls
4393 2732 Pls
4393 2731 Pls
4394 2731 Pls
4394 2731 Pls
4395 2730 Pls
4395 2730 Pls
4396 2730 Pls
4398 2730 Pls
4399 2729 Pls
4399 2729 Pls
4401 2729 Pls
4401 2729 Pls
4402 2728 Pls
4403 2728 Pls
4403 2728 Pls
4403 2728 Pls
4404 2727 Pls
4405 2727 Pls
4405 2727 Pls
4406 2727 Pls
4406 2726 Pls
4407 2726 Pls
4408 2726 Pls
4409 2726 Pls
4410 2725 Pls
4410 2725 Pls
4411 2725 Pls
4411 2725 Pls
4411 2724 Pls
4412 2724 Pls
4412 2724 Pls
4412 2724 Pls
4412 2723 Pls
4412 2723 Pls
4413 2723 Pls
4413 2722 Pls
4413 2722 Pls
4414 2722 Pls
4415 2722 Pls
4415 2721 Pls
4416 2721 Pls
4416 2721 Pls
4416 2721 Pls
4417 2720 Pls
4418 2720 Pls
4418 2720 Pls
4419 2720 Pls
4419 2719 Pls
4419 2719 Pls
4420 2719 Pls
4420 2719 Pls
4420 2718 Pls
4421 2718 Pls
4421 2718 Pls
4421 2718 Pls
4421 2717 Pls
4421 2717 Pls
4422 2717 Pls
4423 2717 Pls
4424 2716 Pls
4424 2716 Pls
4425 2715 Pls
4425 2715 Pls
4426 2715 Pls
4426 2715 Pls
4428 2714 Pls
4428 2714 Pls
4429 2714 Pls
4429 2713 Pls
4430 2713 Pls
4430 2713 Pls
4430 2713 Pls
4432 2712 Pls
4432 2712 Pls
4432 2712 Pls
4433 2712 Pls
4434 2711 Pls
4435 2711 Pls
4435 2711 Pls
4436 2711 Pls
4437 2710 Pls
4437 2710 Pls
4437 2710 Pls
4437 2710 Pls
4438 2709 Pls
4438 2709 Pls
4439 2709 Pls
4440 2708 Pls
4440 2708 Pls
4442 2708 Pls
4443 2708 Pls
4443 2707 Pls
4443 2707 Pls
4444 2707 Pls
4445 2707 Pls
4445 2706 Pls
4446 2706 Pls
4447 2706 Pls
4448 2706 Pls
4448 2705 Pls
4449 2705 Pls
4450 2705 Pls
4450 2704 Pls
4450 2704 Pls
4451 2704 Pls
4451 2703 Pls
4451 2703 Pls
4451 2702 Pls
4453 2702 Pls
4453 2702 Pls
4454 2701 Pls
4454 2701 Pls
4454 2701 Pls
4454 2701 Pls
4455 2700 Pls
4455 2700 Pls
4456 2700 Pls
4456 2700 Pls
4457 2699 Pls
4457 2699 Pls
4457 2699 Pls
4458 2698 Pls
4460 2698 Pls
4460 2698 Pls
4460 2698 Pls
4461 2697 Pls
4461 2697 Pls
4461 2697 Pls
4461 2697 Pls
4462 2696 Pls
4462 2696 Pls
4462 2696 Pls
4462 2695 Pls
4463 2695 Pls
4464 2695 Pls
4464 2695 Pls
4466 2694 Pls
4466 2694 Pls
4467 2694 Pls
4467 2693 Pls
4467 2693 Pls
4468 2693 Pls
4468 2693 Pls
4469 2692 Pls
4469 2692 Pls
4469 2692 Pls
4471 2691 Pls
4471 2691 Pls
4471 2691 Pls
4472 2691 Pls
4473 2690 Pls
4473 2690 Pls
4473 2690 Pls
4473 2690 Pls
4473 2689 Pls
4474 2689 Pls
4475 2689 Pls
4475 2688 Pls
4475 2688 Pls
4476 2688 Pls
4476 2688 Pls
4476 2687 Pls
4477 2687 Pls
4478 2687 Pls
4478 2686 Pls
4478 2686 Pls
4478 2686 Pls
4478 2686 Pls
4478 2685 Pls
4479 2685 Pls
4479 2685 Pls
4479 2684 Pls
4480 2684 Pls
4481 2684 Pls
4481 2683 Pls
4482 2683 Pls
4482 2683 Pls
4482 2683 Pls
4482 2682 Pls
4483 2682 Pls
4484 2682 Pls
4484 2681 Pls
4484 2681 Pls
4485 2681 Pls
4485 2681 Pls
4485 2680 Pls
4486 2680 Pls
4486 2679 Pls
4486 2679 Pls
4487 2679 Pls
4487 2678 Pls
4487 2678 Pls
4488 2678 Pls
4489 2677 Pls
4489 2677 Pls
4489 2677 Pls
4489 2676 Pls
4489 2676 Pls
4490 2676 Pls
4490 2676 Pls
4491 2675 Pls
4491 2675 Pls
4491 2675 Pls
4493 2674 Pls
4493 2674 Pls
4493 2674 Pls
4493 2673 Pls
4493 2673 Pls
4493 2673 Pls
4493 2672 Pls
4494 2672 Pls
4494 2672 Pls
4496 2671 Pls
4496 2671 Pls
4497 2671 Pls
4497 2670 Pls
4497 2670 Pls
4498 2670 Pls
4498 2670 Pls
4498 2669 Pls
4498 2669 Pls
4499 2669 Pls
4500 2668 Pls
4500 2668 Pls
4500 2668 Pls
4501 2667 Pls
4501 2667 Pls
4501 2667 Pls
4501 2666 Pls
4502 2666 Pls
4502 2666 Pls
4503 2666 Pls
4503 2665 Pls
4503 2665 Pls
4503 2665 Pls
4504 2664 Pls
4504 2664 Pls
4505 2664 Pls
4505 2663 Pls
4505 2663 Pls
4506 2663 Pls
4507 2662 Pls
4507 2662 Pls
4509 2662 Pls
4509 2661 Pls
4509 2661 Pls
4510 2661 Pls
4511 2661 Pls
4511 2660 Pls
4512 2660 Pls
4512 2659 Pls
4512 2659 Pls
4513 2659 Pls
4513 2658 Pls
4514 2658 Pls
4514 2658 Pls
4515 2657 Pls
4516 2657 Pls
4517 2657 Pls
4517 2656 Pls
4518 2656 Pls
4518 2656 Pls
4518 2655 Pls
4521 2655 Pls
4523 2655 Pls
4524 2654 Pls
4524 2654 Pls
4524 2654 Pls
4525 2654 Pls
4525 2653 Pls
4526 2653 Pls
4527 2653 Pls
4528 2652 Pls
4528 2652 Pls
4528 2652 Pls
4529 2651 Pls
4529 2651 Pls
4529 2651 Pls
4530 2650 Pls
4530 2650 Pls
4530 2650 Pls
4530 2649 Pls
4530 2649 Pls
4530 2649 Pls
4531 2648 Pls
4531 2648 Pls
4532 2648 Pls
4532 2647 Pls
4533 2647 Pls
4533 2647 Pls
4533 2646 Pls
4534 2646 Pls
4534 2646 Pls
4535 2645 Pls
4535 2645 Pls
4536 2645 Pls
4537 2644 Pls
4537 2644 Pls
4539 2644 Pls
4539 2643 Pls
4539 2643 Pls
4539 2643 Pls
4540 2642 Pls
4541 2642 Pls
4541 2642 Pls
4541 2641 Pls
4542 2641 Pls
4542 2641 Pls
4544 2640 Pls
4545 2640 Pls
4545 2640 Pls
4549 2639 Pls
4551 2639 Pls
4551 2639 Pls
4552 2638 Pls
4552 2638 Pls
4553 2638 Pls
4553 2637 Pls
4554 2637 Pls
4556 2637 Pls
4557 2636 Pls
4560 2636 Pls
4561 2636 Pls
4561 2635 Pls
4562 2635 Pls
4562 2635 Pls
4563 2634 Pls
4564 2634 Pls
4564 2634 Pls
4565 2633 Pls
4566 2633 Pls
4567 2632 Pls
4568 2632 Pls
4568 2632 Pls
4569 2631 Pls
4569 2631 Pls
4569 2631 Pls
4569 2630 Pls
4570 2630 Pls
4570 2630 Pls
4570 2629 Pls
4573 2629 Pls
4573 2629 Pls
4573 2628 Pls
4574 2628 Pls
4577 2628 Pls
4578 2627 Pls
4578 2627 Pls
4580 2627 Pls
4580 2626 Pls
4580 2626 Pls
4581 2625 Pls
4581 2625 Pls
4582 2625 Pls
4582 2624 Pls
4583 2624 Pls
4583 2624 Pls
4583 2623 Pls
4583 2623 Pls
4583 2623 Pls
4583 2622 Pls
4584 2622 Pls
4584 2622 Pls
4584 2621 Pls
4584 2621 Pls
4585 2620 Pls
4586 2620 Pls
4586 2620 Pls
4587 2619 Pls
4588 2619 Pls
4588 2619 Pls
4588 2618 Pls
4589 2618 Pls
4590 2618 Pls
4591 2617 Pls
4592 2617 Pls
4592 2616 Pls
4592 2616 Pls
4594 2616 Pls
4596 2615 Pls
4596 2615 Pls
4596 2615 Pls
4596 2614 Pls
4596 2614 Pls
4596 2613 Pls
4596 2613 Pls
4597 2613 Pls
4598 2612 Pls
4599 2612 Pls
4599 2612 Pls
4599 2611 Pls
4601 2611 Pls
4601 2610 Pls
4603 2610 Pls
4604 2610 Pls
4604 2609 Pls
4605 2609 Pls
4608 2609 Pls
4608 2608 Pls
4609 2608 Pls
4610 2607 Pls
4611 2607 Pls
4612 2607 Pls
4613 2606 Pls
4614 2606 Pls
4615 2606 Pls
4615 2605 Pls
4615 2605 Pls
4616 2604 Pls
4616 2604 Pls
4617 2604 Pls
4617 2603 Pls
4617 2603 Pls
4617 2603 Pls
4617 2602 Pls
4618 2602 Pls
4618 2601 Pls
4619 2601 Pls
4620 2601 Pls
4620 2600 Pls
4621 2600 Pls
4621 2599 Pls
4622 2599 Pls
4622 2599 Pls
4623 2598 Pls
4623 2598 Pls
4623 2597 Pls
4623 2597 Pls
4624 2597 Pls
4624 2596 Pls
4625 2596 Pls
4625 2595 Pls
4625 2595 Pls
4626 2595 Pls
4626 2594 Pls
4626 2594 Pls
4626 2593 Pls
4626 2593 Pls
4627 2593 Pls
4628 2592 Pls
4629 2592 Pls
4629 2592 Pls
4630 2591 Pls
4631 2591 Pls
4631 2590 Pls
4631 2590 Pls
4632 2589 Pls
4633 2589 Pls
4634 2589 Pls
4635 2588 Pls
4635 2588 Pls
4636 2587 Pls
4636 2587 Pls
4636 2587 Pls
4636 2586 Pls
4637 2586 Pls
4637 2585 Pls
4638 2585 Pls
4638 2585 Pls
4638 2584 Pls
4638 2584 Pls
4639 2583 Pls
4640 2583 Pls
4640 2583 Pls
4641 2582 Pls
4641 2582 Pls
4643 2581 Pls
4643 2581 Pls
4645 2580 Pls
4646 2580 Pls
4646 2580 Pls
4648 2579 Pls
4650 2579 Pls
4652 2578 Pls
4653 2578 Pls
4653 2578 Pls
4653 2577 Pls
4654 2577 Pls
4655 2576 Pls
4655 2576 Pls
4655 2575 Pls
4656 2575 Pls
4657 2575 Pls
4659 2574 Pls
4659 2574 Pls
4662 2573 Pls
4662 2573 Pls
4663 2572 Pls
4664 2572 Pls
4664 2572 Pls
4665 2571 Pls
4666 2571 Pls
4666 2570 Pls
4666 2570 Pls
4666 2569 Pls
4667 2569 Pls
4668 2569 Pls
4669 2568 Pls
4670 2568 Pls
4672 2567 Pls
4672 2567 Pls
4673 2566 Pls
4674 2566 Pls
4674 2566 Pls
4674 2565 Pls
4675 2565 Pls
4675 2564 Pls
4676 2564 Pls
4676 2563 Pls
4678 2562 Pls
4681 2562 Pls
4683 2562 Pls
4683 2561 Pls
4683 2561 Pls
4684 2560 Pls
4684 2560 Pls
4685 2559 Pls
4685 2559 Pls
4686 2558 Pls
4686 2558 Pls
4686 2558 Pls
4687 2557 Pls
4687 2557 Pls
4687 2556 Pls
4688 2556 Pls
4689 2555 Pls
4689 2554 Pls
4691 2554 Pls
4692 2553 Pls
4694 2553 Pls
4695 2552 Pls
4696 2552 Pls
4696 2552 Pls
4699 2551 Pls
4699 2551 Pls
4700 2550 Pls
4700 2550 Pls
4700 2549 Pls
4700 2549 Pls
4700 2548 Pls
4701 2548 Pls
4701 2547 Pls
4701 2547 Pls
4701 2546 Pls
4701 2546 Pls
4702 2546 Pls
4702 2545 Pls
4702 2545 Pls
4702 2544 Pls
4702 2544 Pls
4702 2543 Pls
4702 2543 Pls
4702 2542 Pls
4703 2542 Pls
4703 2541 Pls
4703 2541 Pls
4704 2540 Pls
4704 2540 Pls
4704 2539 Pls
4705 2539 Pls
4705 2538 Pls
4705 2537 Pls
4705 2537 Pls
4705 2536 Pls
4705 2536 Pls
4705 2535 Pls
4705 2535 Pls
4706 2534 Pls
4706 2534 Pls
4706 2533 Pls
4706 2533 Pls
4706 2533 Pls
4707 2532 Pls
4707 2532 Pls
4707 2531 Pls
4707 2531 Pls
4707 2530 Pls
4707 2530 Pls
4708 2529 Pls
4708 2529 Pls
4708 2528 Pls
4708 2528 Pls
4708 2527 Pls
4708 2527 Pls
4709 2526 Pls
4709 2526 Pls
4709 2525 Pls
4709 2525 Pls
4709 2524 Pls
4709 2524 Pls
4709 2523 Pls
4709 2522 Pls
4710 2522 Pls
4710 2521 Pls
4710 2521 Pls
4710 2520 Pls
4710 2520 Pls
4711 2519 Pls
4711 2519 Pls
4711 2518 Pls
4711 2518 Pls
4711 2517 Pls
4711 2517 Pls
4711 2516 Pls
4711 2516 Pls
4712 2515 Pls
4712 2515 Pls
4712 2514 Pls
4712 2514 Pls
4712 2513 Pls
4712 2512 Pls
4712 2512 Pls
4712 2511 Pls
4712 2510 Pls
4712 2510 Pls
4712 2509 Pls
4713 2509 Pls
4713 2508 Pls
4713 2508 Pls
4713 2507 Pls
4713 2507 Pls
4713 2506 Pls
4713 2506 Pls
4713 2505 Pls
4713 2505 Pls
4713 2504 Pls
4713 2503 Pls
4714 2502 Pls
4714 2502 Pls
4714 2501 Pls
4714 2501 Pls
4714 2500 Pls
4714 2500 Pls
4715 2499 Pls
4715 2499 Pls
4715 2498 Pls
4715 2497 Pls
4715 2497 Pls
4715 2496 Pls
4715 2496 Pls
4716 2495 Pls
4716 2495 Pls
4716 2494 Pls
4716 2493 Pls
4716 2493 Pls
4716 2492 Pls
4717 2492 Pls
4717 2491 Pls
4717 2491 Pls
4717 2490 Pls
4718 2490 Pls
4718 2489 Pls
4718 2488 Pls
4718 2488 Pls
4718 2487 Pls
4718 2487 Pls
4719 2486 Pls
4719 2485 Pls
4719 2485 Pls
4719 2484 Pls
4720 2483 Pls
4720 2483 Pls
4720 2482 Pls
4720 2481 Pls
4720 2481 Pls
4720 2480 Pls
4720 2480 Pls
4721 2479 Pls
4721 2478 Pls
4721 2478 Pls
4722 2477 Pls
4722 2477 Pls
4723 2476 Pls
4723 2475 Pls
4723 2475 Pls
4723 2474 Pls
4723 2474 Pls
4723 2473 Pls
4724 2472 Pls
4724 2472 Pls
4724 2471 Pls
4724 2471 Pls
4724 2470 Pls
4724 2469 Pls
4724 2469 Pls
4725 2468 Pls
4725 2467 Pls
4725 2467 Pls
4725 2466 Pls
4725 2466 Pls
4725 2465 Pls
4726 2464 Pls
4726 2464 Pls
4726 2463 Pls
4726 2462 Pls
4728 2462 Pls
4728 2461 Pls
4728 2461 Pls
4728 2460 Pls
4728 2458 Pls
4728 2457 Pls
4728 2456 Pls
4728 2455 Pls
4728 2455 Pls
4728 2454 Pls
4728 2454 Pls
4728 2453 Pls
4728 2452 Pls
4729 2452 Pls
4729 2451 Pls
4729 2450 Pls
4730 2450 Pls
4730 2449 Pls
4731 2448 Pls
4731 2448 Pls
4732 2447 Pls
4733 2446 Pls
4733 2446 Pls
4733 2445 Pls
4735 2444 Pls
4736 2444 Pls
4736 2443 Pls
4737 2442 Pls
4737 2442 Pls
4738 2441 Pls
4738 2440 Pls
4740 2440 Pls
4741 2439 Pls
4741 2438 Pls
4741 2437 Pls
4741 2437 Pls
4743 2436 Pls
4743 2435 Pls
4743 2435 Pls
4743 2434 Pls
4744 2433 Pls
4744 2433 Pls
4748 2432 Pls
4748 2431 Pls
4748 2430 Pls
4749 2430 Pls
4749 2429 Pls
4750 2428 Pls
4750 2428 Pls
4750 2427 Pls
4750 2426 Pls
4751 2426 Pls
4751 2425 Pls
4752 2424 Pls
4755 2423 Pls
4755 2423 Pls
4757 2422 Pls
4757 2421 Pls
4758 2420 Pls
4758 2420 Pls
4759 2419 Pls
4759 2418 Pls
4759 2418 Pls
4759 2417 Pls
4759 2416 Pls
4760 2415 Pls
4762 2415 Pls
4763 2414 Pls
4764 2413 Pls
4765 2412 Pls
4765 2412 Pls
4765 2411 Pls
4765 2410 Pls
4766 2409 Pls
4767 2409 Pls
4770 2408 Pls
4770 2407 Pls
4772 2406 Pls
4774 2405 Pls
4775 2405 Pls
4778 2404 Pls
4778 2403 Pls
4780 2402 Pls
4780 2402 Pls
4780 2401 Pls
4781 2400 Pls
4782 2399 Pls
4783 2398 Pls
4784 2398 Pls
4785 2397 Pls
4785 2396 Pls
4788 2395 Pls
4789 2394 Pls
4790 2394 Pls
4790 2393 Pls
4794 2392 Pls
4795 2391 Pls
4796 2390 Pls
4796 2390 Pls
4796 2389 Pls
4798 2388 Pls
4799 2387 Pls
4799 2386 Pls
4800 2386 Pls
4800 2385 Pls
4803 2384 Pls
4804 2383 Pls
4805 2382 Pls
4806 2381 Pls
4809 2381 Pls
4810 2380 Pls
4811 2379 Pls
4811 2378 Pls
4811 2377 Pls
4811 2376 Pls
4812 2375 Pls
4812 2375 Pls
4812 2374 Pls
4813 2373 Pls
4818 2372 Pls
4823 2371 Pls
4824 2370 Pls
4827 2369 Pls
4829 2369 Pls
4832 2368 Pls
4833 2367 Pls
4833 2366 Pls
4835 2365 Pls
4837 2364 Pls
4837 2363 Pls
4837 2362 Pls
4837 2361 Pls
4839 2361 Pls
4839 2360 Pls
4839 2359 Pls
4842 2358 Pls
4842 2357 Pls
4844 2356 Pls
4846 2355 Pls
4848 2353 Pls
4849 2352 Pls
4849 2351 Pls
4850 2350 Pls
4850 2349 Pls
4852 2349 Pls
4854 2348 Pls
4856 2347 Pls
4857 2346 Pls
4859 2345 Pls
4860 2344 Pls
4860 2343 Pls
4860 2342 Pls
4866 2341 Pls
4866 2340 Pls
4867 2339 Pls
4867 2338 Pls
4868 2337 Pls
4869 2336 Pls
4869 2335 Pls
4869 2334 Pls
4871 2333 Pls
4873 2332 Pls
4879 2331 Pls
4880 2330 Pls
4881 2329 Pls
4881 2328 Pls
4884 2327 Pls
4885 2326 Pls
4886 2325 Pls
4888 2324 Pls
4890 2323 Pls
4895 2322 Pls
4897 2321 Pls
4897 2320 Pls
4900 2319 Pls
4900 2318 Pls
4901 2317 Pls
4906 2316 Pls
4907 2315 Pls
4907 2314 Pls
4909 2313 Pls
4909 2311 Pls
4911 2310 Pls
4912 2309 Pls
4912 2308 Pls
4913 2307 Pls
4917 2306 Pls
4917 2305 Pls
4920 2304 Pls
4921 2303 Pls
4923 2302 Pls
4924 2301 Pls
4926 2299 Pls
4928 2298 Pls
4929 2297 Pls
4929 2296 Pls
4930 2295 Pls
4930 2294 Pls
4931 2293 Pls
4933 2291 Pls
4935 2290 Pls
4936 2289 Pls
4936 2288 Pls
4937 2287 Pls
4938 2286 Pls
4939 2285 Pls
4940 2283 Pls
4941 2282 Pls
4941 2281 Pls
4941 2280 Pls
4943 2279 Pls
4943 2277 Pls
4945 2276 Pls
4949 2275 Pls
4949 2274 Pls
4950 2273 Pls
4950 2271 Pls
4954 2270 Pls
4958 2269 Pls
4960 2268 Pls
4962 2266 Pls
4963 2265 Pls
4963 2264 Pls
4963 2263 Pls
4964 2261 Pls
4969 2260 Pls
4971 2259 Pls
4972 2257 Pls
4973 2256 Pls
4973 2255 Pls
4975 2253 Pls
4976 2252 Pls
4977 2251 Pls
4978 2249 Pls
4979 2248 Pls
4980 2247 Pls
4982 2245 Pls
4988 2244 Pls
4991 2243 Pls
4992 2241 Pls
4993 2240 Pls
4996 2239 Pls
4996 2237 Pls
4997 2236 Pls
4997 2234 Pls
5000 2233 Pls
5002 2232 Pls
5004 2230 Pls
5006 2229 Pls
5010 2227 Pls
5011 2226 Pls
5011 2224 Pls
5012 2223 Pls
5012 2222 Pls
5012 2220 Pls
5013 2219 Pls
5014 2217 Pls
5015 2216 Pls
5017 2214 Pls
5017 2213 Pls
5018 2211 Pls
5019 2210 Pls
5020 2208 Pls
5026 2206 Pls
5026 2205 Pls
5031 2203 Pls
5031 2202 Pls
5036 2200 Pls
5038 2199 Pls
5038 2197 Pls
5039 2195 Pls
5041 2194 Pls
5044 2192 Pls
5045 2191 Pls
5046 2189 Pls
5048 2187 Pls
5049 2186 Pls
5050 2184 Pls
5050 2182 Pls
5052 2181 Pls
5052 2179 Pls
5054 2177 Pls
5059 2175 Pls
5060 2174 Pls
5065 2172 Pls
5068 2170 Pls
5069 2168 Pls
5070 2167 Pls
5070 2165 Pls
5071 2163 Pls
5078 2161 Pls
5084 2159 Pls
5087 2158 Pls
5090 2156 Pls
5097 2154 Pls
5103 2152 Pls
5104 2150 Pls
5106 2148 Pls
5107 2146 Pls
5114 2144 Pls
5116 2143 Pls
5117 2141 Pls
5118 2139 Pls
5127 2137 Pls
5127 2135 Pls
5128 2133 Pls
5128 2131 Pls
5130 2129 Pls
5134 2127 Pls
5134 2125 Pls
5140 2122 Pls
5143 2120 Pls
5145 2118 Pls
5150 2116 Pls
5156 2114 Pls
5159 2112 Pls
5160 2110 Pls
5164 2108 Pls
5165 2105 Pls
5168 2103 Pls
5168 2101 Pls
5171 2099 Pls
5171 2096 Pls
5174 2094 Pls
5176 2092 Pls
5176 2089 Pls
5182 2087 Pls
5190 2085 Pls
5191 2082 Pls
5191 2080 Pls
5191 2078 Pls
5194 2075 Pls
5196 2073 Pls
5196 2070 Pls
5197 2068 Pls
5198 2065 Pls
5205 2063 Pls
5205 2060 Pls
5207 2057 Pls
5212 2055 Pls
5216 2052 Pls
5221 2049 Pls
5223 2047 Pls
5233 2044 Pls
5234 2041 Pls
5235 2038 Pls
5235 2036 Pls
5247 2033 Pls
5249 2030 Pls
5253 2027 Pls
5264 2024 Pls
5269 2021 Pls
5272 2018 Pls
5274 2015 Pls
5276 2012 Pls
5279 2009 Pls
5282 2006 Pls
5284 2003 Pls
5286 2000 Pls
5286 1996 Pls
5292 1993 Pls
5293 1990 Pls
5299 1987 Pls
5299 1983 Pls
5306 1980 Pls
5314 1976 Pls
5314 1973 Pls
5321 1969 Pls
5324 1966 Pls
5324 1962 Pls
5326 1958 Pls
5326 1955 Pls
5330 1951 Pls
5331 1947 Pls
5331 1943 Pls
5333 1939 Pls
5336 1935 Pls
5339 1931 Pls
5341 1927 Pls
5342 1923 Pls
5344 1919 Pls
5350 1914 Pls
5363 1910 Pls
5365 1906 Pls
5377 1901 Pls
5379 1897 Pls
5379 1892 Pls
5383 1887 Pls
5406 1883 Pls
5416 1878 Pls
5439 1873 Pls
5440 1868 Pls
5443 1863 Pls
5445 1857 Pls
5446 1852 Pls
5459 1847 Pls
5466 1841 Pls
5469 1835 Pls
5471 1830 Pls
5475 1824 Pls
5475 1818 Pls
5483 1812 Pls
5495 1805 Pls
5496 1799 Pls
5505 1792 Pls
5513 1786 Pls
5518 1779 Pls
5526 1772 Pls
5531 1765 Pls
5532 1757 Pls
5532 1750 Pls
5542 1742 Pls
5548 1734 Pls
5553 1726 Pls
5565 1717 Pls
5566 1708 Pls
5569 1699 Pls
5586 1690 Pls
5591 1680 Pls
5593 1670 Pls
5593 1660 Pls
5599 1649 Pls
5600 1638 Pls
5619 1626 Pls
5712 1614 Pls
5727 1602 Pls
5729 1588 Pls
5754 1574 Pls
5782 1560 Pls
5813 1544 Pls
5816 1528 Pls
5856 1511 Pls
5944 1492 Pls
5956 1473 Pls
5978 1452 Pls
6000 1429 Pls
6015 1404 Pls
6023 1377 Pls
6076 1347 Pls
6077 1313 Pls
6087 1275 Pls
6160 1231 Pls
6190 1180 Pls
6249 1116 Pls
6272 1034 Pls
6407 919 Pls
6524 721 Pls
% End plot #1
2.000 UL
LTb
LCb setrgbcolor
1.000 UL
LTB
LCb setrgbcolor
966 4871 N
966 280 L
5981 0 V
0 4591 V
-5981 0 V
Z stroke
1.000 UP
1.000 UL
LTb
LCb setrgbcolor
stroke
grestore
end
showpage
%%Trailer
%%DocumentFonts: Helvetica
%%Pages: 1
