%!PS-Adobe-2.0
%%Title: packets-uv-s-ccdf-loglin.eps
%%Creator: gnuplot 5.0 patchlevel 3
%%CreationDate: Mon May 29 11:09:39 2017
%%DocumentFonts: (atend)
%%BoundingBox: 50 50 554 770
%%Orientation: Landscape
%%Pages: (atend)
%%EndComments
%%BeginProlog
/gnudict 256 dict def
gnudict begin
%
% The following true/false flags may be edited by hand if desired.
% The unit line width and grayscale image gamma correction may also be changed.
%
/Color true def
/Blacktext false def
/Solid false def
/Dashlength 1 def
/Landscape true def
/Level1 false def
/Level3 false def
/Rounded false def
/ClipToBoundingBox false def
/SuppressPDFMark false def
/TransparentPatterns false def
/gnulinewidth 5.000 def
/userlinewidth gnulinewidth def
/Gamma 1.0 def
/BackgroundColor {-1.000 -1.000 -1.000} def
%
/vshift -46 def
/dl1 {
  10.0 Dashlength userlinewidth gnulinewidth div mul mul mul
  Rounded { currentlinewidth 0.75 mul sub dup 0 le { pop 0.01 } if } if
} def
/dl2 {
  10.0 Dashlength userlinewidth gnulinewidth div mul mul mul
  Rounded { currentlinewidth 0.75 mul add } if
} def
/hpt_ 31.5 def
/vpt_ 31.5 def
/hpt hpt_ def
/vpt vpt_ def
/doclip {
  ClipToBoundingBox {
    newpath 50 50 moveto 554 50 lineto 554 770 lineto 50 770 lineto closepath
    clip
  } if
} def
%
% Gnuplot Prolog Version 5.1 (Oct 2015)
%
%/SuppressPDFMark true def
%
/M {moveto} bind def
/L {lineto} bind def
/R {rmoveto} bind def
/V {rlineto} bind def
/N {newpath moveto} bind def
/Z {closepath} bind def
/C {setrgbcolor} bind def
/f {rlineto fill} bind def
/g {setgray} bind def
/Gshow {show} def   % May be redefined later in the file to support UTF-8
/vpt2 vpt 2 mul def
/hpt2 hpt 2 mul def
/Lshow {currentpoint stroke M 0 vshift R 
	Blacktext {gsave 0 setgray textshow grestore} {textshow} ifelse} def
/Rshow {currentpoint stroke M dup stringwidth pop neg vshift R
	Blacktext {gsave 0 setgray textshow grestore} {textshow} ifelse} def
/Cshow {currentpoint stroke M dup stringwidth pop -2 div vshift R 
	Blacktext {gsave 0 setgray textshow grestore} {textshow} ifelse} def
/UP {dup vpt_ mul /vpt exch def hpt_ mul /hpt exch def
  /hpt2 hpt 2 mul def /vpt2 vpt 2 mul def} def
/DL {Color {setrgbcolor Solid {pop []} if 0 setdash}
 {pop pop pop 0 setgray Solid {pop []} if 0 setdash} ifelse} def
/BL {stroke userlinewidth 2 mul setlinewidth
	Rounded {1 setlinejoin 1 setlinecap} if} def
/AL {stroke userlinewidth 2 div setlinewidth
	Rounded {1 setlinejoin 1 setlinecap} if} def
/UL {dup gnulinewidth mul /userlinewidth exch def
	dup 1 lt {pop 1} if 10 mul /udl exch def} def
/PL {stroke userlinewidth setlinewidth
	Rounded {1 setlinejoin 1 setlinecap} if} def
3.8 setmiterlimit
% Classic Line colors (version 5.0)
/LCw {1 1 1} def
/LCb {0 0 0} def
/LCa {0 0 0} def
/LC0 {1 0 0} def
/LC1 {0 1 0} def
/LC2 {0 0 1} def
/LC3 {1 0 1} def
/LC4 {0 1 1} def
/LC5 {1 1 0} def
/LC6 {0 0 0} def
/LC7 {1 0.3 0} def
/LC8 {0.5 0.5 0.5} def
% Default dash patterns (version 5.0)
/LTB {BL [] LCb DL} def
/LTw {PL [] 1 setgray} def
/LTb {PL [] LCb DL} def
/LTa {AL [1 udl mul 2 udl mul] 0 setdash LCa setrgbcolor} def
/LT0 {PL [] LC0 DL} def
/LT1 {PL [2 dl1 3 dl2] LC1 DL} def
/LT2 {PL [1 dl1 1.5 dl2] LC2 DL} def
/LT3 {PL [6 dl1 2 dl2 1 dl1 2 dl2] LC3 DL} def
/LT4 {PL [1 dl1 2 dl2 6 dl1 2 dl2 1 dl1 2 dl2] LC4 DL} def
/LT5 {PL [4 dl1 2 dl2] LC5 DL} def
/LT6 {PL [1.5 dl1 1.5 dl2 1.5 dl1 1.5 dl2 1.5 dl1 6 dl2] LC6 DL} def
/LT7 {PL [3 dl1 3 dl2 1 dl1 3 dl2] LC7 DL} def
/LT8 {PL [2 dl1 2 dl2 2 dl1 6 dl2] LC8 DL} def
/SL {[] 0 setdash} def
/Pnt {stroke [] 0 setdash gsave 1 setlinecap M 0 0 V stroke grestore} def
/Dia {stroke [] 0 setdash 2 copy vpt add M
  hpt neg vpt neg V hpt vpt neg V
  hpt vpt V hpt neg vpt V closepath stroke
  Pnt} def
/Pls {stroke [] 0 setdash vpt sub M 0 vpt2 V
  currentpoint stroke M
  hpt neg vpt neg R hpt2 0 V stroke
 } def
/Box {stroke [] 0 setdash 2 copy exch hpt sub exch vpt add M
  0 vpt2 neg V hpt2 0 V 0 vpt2 V
  hpt2 neg 0 V closepath stroke
  Pnt} def
/Crs {stroke [] 0 setdash exch hpt sub exch vpt add M
  hpt2 vpt2 neg V currentpoint stroke M
  hpt2 neg 0 R hpt2 vpt2 V stroke} def
/TriU {stroke [] 0 setdash 2 copy vpt 1.12 mul add M
  hpt neg vpt -1.62 mul V
  hpt 2 mul 0 V
  hpt neg vpt 1.62 mul V closepath stroke
  Pnt} def
/Star {2 copy Pls Crs} def
/BoxF {stroke [] 0 setdash exch hpt sub exch vpt add M
  0 vpt2 neg V hpt2 0 V 0 vpt2 V
  hpt2 neg 0 V closepath fill} def
/TriUF {stroke [] 0 setdash vpt 1.12 mul add M
  hpt neg vpt -1.62 mul V
  hpt 2 mul 0 V
  hpt neg vpt 1.62 mul V closepath fill} def
/TriD {stroke [] 0 setdash 2 copy vpt 1.12 mul sub M
  hpt neg vpt 1.62 mul V
  hpt 2 mul 0 V
  hpt neg vpt -1.62 mul V closepath stroke
  Pnt} def
/TriDF {stroke [] 0 setdash vpt 1.12 mul sub M
  hpt neg vpt 1.62 mul V
  hpt 2 mul 0 V
  hpt neg vpt -1.62 mul V closepath fill} def
/DiaF {stroke [] 0 setdash vpt add M
  hpt neg vpt neg V hpt vpt neg V
  hpt vpt V hpt neg vpt V closepath fill} def
/Pent {stroke [] 0 setdash 2 copy gsave
  translate 0 hpt M 4 {72 rotate 0 hpt L} repeat
  closepath stroke grestore Pnt} def
/PentF {stroke [] 0 setdash gsave
  translate 0 hpt M 4 {72 rotate 0 hpt L} repeat
  closepath fill grestore} def
/Circle {stroke [] 0 setdash 2 copy
  hpt 0 360 arc stroke Pnt} def
/CircleF {stroke [] 0 setdash hpt 0 360 arc fill} def
/C0 {BL [] 0 setdash 2 copy moveto vpt 90 450 arc} bind def
/C1 {BL [] 0 setdash 2 copy moveto
	2 copy vpt 0 90 arc closepath fill
	vpt 0 360 arc closepath} bind def
/C2 {BL [] 0 setdash 2 copy moveto
	2 copy vpt 90 180 arc closepath fill
	vpt 0 360 arc closepath} bind def
/C3 {BL [] 0 setdash 2 copy moveto
	2 copy vpt 0 180 arc closepath fill
	vpt 0 360 arc closepath} bind def
/C4 {BL [] 0 setdash 2 copy moveto
	2 copy vpt 180 270 arc closepath fill
	vpt 0 360 arc closepath} bind def
/C5 {BL [] 0 setdash 2 copy moveto
	2 copy vpt 0 90 arc
	2 copy moveto
	2 copy vpt 180 270 arc closepath fill
	vpt 0 360 arc} bind def
/C6 {BL [] 0 setdash 2 copy moveto
	2 copy vpt 90 270 arc closepath fill
	vpt 0 360 arc closepath} bind def
/C7 {BL [] 0 setdash 2 copy moveto
	2 copy vpt 0 270 arc closepath fill
	vpt 0 360 arc closepath} bind def
/C8 {BL [] 0 setdash 2 copy moveto
	2 copy vpt 270 360 arc closepath fill
	vpt 0 360 arc closepath} bind def
/C9 {BL [] 0 setdash 2 copy moveto
	2 copy vpt 270 450 arc closepath fill
	vpt 0 360 arc closepath} bind def
/C10 {BL [] 0 setdash 2 copy 2 copy moveto vpt 270 360 arc closepath fill
	2 copy moveto
	2 copy vpt 90 180 arc closepath fill
	vpt 0 360 arc closepath} bind def
/C11 {BL [] 0 setdash 2 copy moveto
	2 copy vpt 0 180 arc closepath fill
	2 copy moveto
	2 copy vpt 270 360 arc closepath fill
	vpt 0 360 arc closepath} bind def
/C12 {BL [] 0 setdash 2 copy moveto
	2 copy vpt 180 360 arc closepath fill
	vpt 0 360 arc closepath} bind def
/C13 {BL [] 0 setdash 2 copy moveto
	2 copy vpt 0 90 arc closepath fill
	2 copy moveto
	2 copy vpt 180 360 arc closepath fill
	vpt 0 360 arc closepath} bind def
/C14 {BL [] 0 setdash 2 copy moveto
	2 copy vpt 90 360 arc closepath fill
	vpt 0 360 arc} bind def
/C15 {BL [] 0 setdash 2 copy vpt 0 360 arc closepath fill
	vpt 0 360 arc closepath} bind def
/Rec {newpath 4 2 roll moveto 1 index 0 rlineto 0 exch rlineto
	neg 0 rlineto closepath} bind def
/Square {dup Rec} bind def
/Bsquare {vpt sub exch vpt sub exch vpt2 Square} bind def
/S0 {BL [] 0 setdash 2 copy moveto 0 vpt rlineto BL Bsquare} bind def
/S1 {BL [] 0 setdash 2 copy vpt Square fill Bsquare} bind def
/S2 {BL [] 0 setdash 2 copy exch vpt sub exch vpt Square fill Bsquare} bind def
/S3 {BL [] 0 setdash 2 copy exch vpt sub exch vpt2 vpt Rec fill Bsquare} bind def
/S4 {BL [] 0 setdash 2 copy exch vpt sub exch vpt sub vpt Square fill Bsquare} bind def
/S5 {BL [] 0 setdash 2 copy 2 copy vpt Square fill
	exch vpt sub exch vpt sub vpt Square fill Bsquare} bind def
/S6 {BL [] 0 setdash 2 copy exch vpt sub exch vpt sub vpt vpt2 Rec fill Bsquare} bind def
/S7 {BL [] 0 setdash 2 copy exch vpt sub exch vpt sub vpt vpt2 Rec fill
	2 copy vpt Square fill Bsquare} bind def
/S8 {BL [] 0 setdash 2 copy vpt sub vpt Square fill Bsquare} bind def
/S9 {BL [] 0 setdash 2 copy vpt sub vpt vpt2 Rec fill Bsquare} bind def
/S10 {BL [] 0 setdash 2 copy vpt sub vpt Square fill 2 copy exch vpt sub exch vpt Square fill
	Bsquare} bind def
/S11 {BL [] 0 setdash 2 copy vpt sub vpt Square fill 2 copy exch vpt sub exch vpt2 vpt Rec fill
	Bsquare} bind def
/S12 {BL [] 0 setdash 2 copy exch vpt sub exch vpt sub vpt2 vpt Rec fill Bsquare} bind def
/S13 {BL [] 0 setdash 2 copy exch vpt sub exch vpt sub vpt2 vpt Rec fill
	2 copy vpt Square fill Bsquare} bind def
/S14 {BL [] 0 setdash 2 copy exch vpt sub exch vpt sub vpt2 vpt Rec fill
	2 copy exch vpt sub exch vpt Square fill Bsquare} bind def
/S15 {BL [] 0 setdash 2 copy Bsquare fill Bsquare} bind def
/D0 {gsave translate 45 rotate 0 0 S0 stroke grestore} bind def
/D1 {gsave translate 45 rotate 0 0 S1 stroke grestore} bind def
/D2 {gsave translate 45 rotate 0 0 S2 stroke grestore} bind def
/D3 {gsave translate 45 rotate 0 0 S3 stroke grestore} bind def
/D4 {gsave translate 45 rotate 0 0 S4 stroke grestore} bind def
/D5 {gsave translate 45 rotate 0 0 S5 stroke grestore} bind def
/D6 {gsave translate 45 rotate 0 0 S6 stroke grestore} bind def
/D7 {gsave translate 45 rotate 0 0 S7 stroke grestore} bind def
/D8 {gsave translate 45 rotate 0 0 S8 stroke grestore} bind def
/D9 {gsave translate 45 rotate 0 0 S9 stroke grestore} bind def
/D10 {gsave translate 45 rotate 0 0 S10 stroke grestore} bind def
/D11 {gsave translate 45 rotate 0 0 S11 stroke grestore} bind def
/D12 {gsave translate 45 rotate 0 0 S12 stroke grestore} bind def
/D13 {gsave translate 45 rotate 0 0 S13 stroke grestore} bind def
/D14 {gsave translate 45 rotate 0 0 S14 stroke grestore} bind def
/D15 {gsave translate 45 rotate 0 0 S15 stroke grestore} bind def
/DiaE {stroke [] 0 setdash vpt add M
  hpt neg vpt neg V hpt vpt neg V
  hpt vpt V hpt neg vpt V closepath stroke} def
/BoxE {stroke [] 0 setdash exch hpt sub exch vpt add M
  0 vpt2 neg V hpt2 0 V 0 vpt2 V
  hpt2 neg 0 V closepath stroke} def
/TriUE {stroke [] 0 setdash vpt 1.12 mul add M
  hpt neg vpt -1.62 mul V
  hpt 2 mul 0 V
  hpt neg vpt 1.62 mul V closepath stroke} def
/TriDE {stroke [] 0 setdash vpt 1.12 mul sub M
  hpt neg vpt 1.62 mul V
  hpt 2 mul 0 V
  hpt neg vpt -1.62 mul V closepath stroke} def
/PentE {stroke [] 0 setdash gsave
  translate 0 hpt M 4 {72 rotate 0 hpt L} repeat
  closepath stroke grestore} def
/CircE {stroke [] 0 setdash 
  hpt 0 360 arc stroke} def
/Opaque {gsave closepath 1 setgray fill grestore 0 setgray closepath} def
/DiaW {stroke [] 0 setdash vpt add M
  hpt neg vpt neg V hpt vpt neg V
  hpt vpt V hpt neg vpt V Opaque stroke} def
/BoxW {stroke [] 0 setdash exch hpt sub exch vpt add M
  0 vpt2 neg V hpt2 0 V 0 vpt2 V
  hpt2 neg 0 V Opaque stroke} def
/TriUW {stroke [] 0 setdash vpt 1.12 mul add M
  hpt neg vpt -1.62 mul V
  hpt 2 mul 0 V
  hpt neg vpt 1.62 mul V Opaque stroke} def
/TriDW {stroke [] 0 setdash vpt 1.12 mul sub M
  hpt neg vpt 1.62 mul V
  hpt 2 mul 0 V
  hpt neg vpt -1.62 mul V Opaque stroke} def
/PentW {stroke [] 0 setdash gsave
  translate 0 hpt M 4 {72 rotate 0 hpt L} repeat
  Opaque stroke grestore} def
/CircW {stroke [] 0 setdash 
  hpt 0 360 arc Opaque stroke} def
/BoxFill {gsave Rec 1 setgray fill grestore} def
/Density {
  /Fillden exch def
  currentrgbcolor
  /ColB exch def /ColG exch def /ColR exch def
  /ColR ColR Fillden mul Fillden sub 1 add def
  /ColG ColG Fillden mul Fillden sub 1 add def
  /ColB ColB Fillden mul Fillden sub 1 add def
  ColR ColG ColB setrgbcolor} def
/BoxColFill {gsave Rec PolyFill} def
/PolyFill {gsave Density fill grestore grestore} def
/h {rlineto rlineto rlineto gsave closepath fill grestore} bind def
%
% PostScript Level 1 Pattern Fill routine for rectangles
% Usage: x y w h s a XX PatternFill
%	x,y = lower left corner of box to be filled
%	w,h = width and height of box
%	  a = angle in degrees between lines and x-axis
%	 XX = 0/1 for no/yes cross-hatch
%
/PatternFill {gsave /PFa [ 9 2 roll ] def
  PFa 0 get PFa 2 get 2 div add PFa 1 get PFa 3 get 2 div add translate
  PFa 2 get -2 div PFa 3 get -2 div PFa 2 get PFa 3 get Rec
  TransparentPatterns {} {gsave 1 setgray fill grestore} ifelse
  clip
  currentlinewidth 0.5 mul setlinewidth
  /PFs PFa 2 get dup mul PFa 3 get dup mul add sqrt def
  0 0 M PFa 5 get rotate PFs -2 div dup translate
  0 1 PFs PFa 4 get div 1 add floor cvi
	{PFa 4 get mul 0 M 0 PFs V} for
  0 PFa 6 get ne {
	0 1 PFs PFa 4 get div 1 add floor cvi
	{PFa 4 get mul 0 2 1 roll M PFs 0 V} for
 } if
  stroke grestore} def
%
/languagelevel where
 {pop languagelevel} {1} ifelse
dup 2 lt
	{/InterpretLevel1 true def
	 /InterpretLevel3 false def}
	{/InterpretLevel1 Level1 def
	 2 gt
	    {/InterpretLevel3 Level3 def}
	    {/InterpretLevel3 false def}
	 ifelse }
 ifelse
%
% PostScript level 2 pattern fill definitions
%
/Level2PatternFill {
/Tile8x8 {/PaintType 2 /PatternType 1 /TilingType 1 /BBox [0 0 8 8] /XStep 8 /YStep 8}
	bind def
/KeepColor {currentrgbcolor [/Pattern /DeviceRGB] setcolorspace} bind def
<< Tile8x8
 /PaintProc {0.5 setlinewidth pop 0 0 M 8 8 L 0 8 M 8 0 L stroke} 
>> matrix makepattern
/Pat1 exch def
<< Tile8x8
 /PaintProc {0.5 setlinewidth pop 0 0 M 8 8 L 0 8 M 8 0 L stroke
	0 4 M 4 8 L 8 4 L 4 0 L 0 4 L stroke}
>> matrix makepattern
/Pat2 exch def
<< Tile8x8
 /PaintProc {0.5 setlinewidth pop 0 0 M 0 8 L
	8 8 L 8 0 L 0 0 L fill}
>> matrix makepattern
/Pat3 exch def
<< Tile8x8
 /PaintProc {0.5 setlinewidth pop -4 8 M 8 -4 L
	0 12 M 12 0 L stroke}
>> matrix makepattern
/Pat4 exch def
<< Tile8x8
 /PaintProc {0.5 setlinewidth pop -4 0 M 8 12 L
	0 -4 M 12 8 L stroke}
>> matrix makepattern
/Pat5 exch def
<< Tile8x8
 /PaintProc {0.5 setlinewidth pop -2 8 M 4 -4 L
	0 12 M 8 -4 L 4 12 M 10 0 L stroke}
>> matrix makepattern
/Pat6 exch def
<< Tile8x8
 /PaintProc {0.5 setlinewidth pop -2 0 M 4 12 L
	0 -4 M 8 12 L 4 -4 M 10 8 L stroke}
>> matrix makepattern
/Pat7 exch def
<< Tile8x8
 /PaintProc {0.5 setlinewidth pop 8 -2 M -4 4 L
	12 0 M -4 8 L 12 4 M 0 10 L stroke}
>> matrix makepattern
/Pat8 exch def
<< Tile8x8
 /PaintProc {0.5 setlinewidth pop 0 -2 M 12 4 L
	-4 0 M 12 8 L -4 4 M 8 10 L stroke}
>> matrix makepattern
/Pat9 exch def
/Pattern1 {PatternBgnd KeepColor Pat1 setpattern} bind def
/Pattern2 {PatternBgnd KeepColor Pat2 setpattern} bind def
/Pattern3 {PatternBgnd KeepColor Pat3 setpattern} bind def
/Pattern4 {PatternBgnd KeepColor Landscape {Pat5} {Pat4} ifelse setpattern} bind def
/Pattern5 {PatternBgnd KeepColor Landscape {Pat4} {Pat5} ifelse setpattern} bind def
/Pattern6 {PatternBgnd KeepColor Landscape {Pat9} {Pat6} ifelse setpattern} bind def
/Pattern7 {PatternBgnd KeepColor Landscape {Pat8} {Pat7} ifelse setpattern} bind def
} def
%
%
%End of PostScript Level 2 code
%
/PatternBgnd {
  TransparentPatterns {} {gsave 1 setgray fill grestore} ifelse
} def
%
% Substitute for Level 2 pattern fill codes with
% grayscale if Level 2 support is not selected.
%
/Level1PatternFill {
/Pattern1 {0.250 Density} bind def
/Pattern2 {0.500 Density} bind def
/Pattern3 {0.750 Density} bind def
/Pattern4 {0.125 Density} bind def
/Pattern5 {0.375 Density} bind def
/Pattern6 {0.625 Density} bind def
/Pattern7 {0.875 Density} bind def
} def
%
% Now test for support of Level 2 code
%
Level1 {Level1PatternFill} {Level2PatternFill} ifelse
%
/Symbol-Oblique /Symbol findfont [1 0 .167 1 0 0] makefont
dup length dict begin {1 index /FID eq {pop pop} {def} ifelse} forall
currentdict end definefont pop
%
/MFshow {
   { dup 5 get 3 ge
     { 5 get 3 eq {gsave} {grestore} ifelse }
     {dup dup 0 get findfont exch 1 get scalefont setfont
     [ currentpoint ] exch dup 2 get 0 exch R dup 5 get 2 ne {dup dup 6
     get exch 4 get {textshow} {stringwidth pop 0 R} ifelse }if dup 5 get 0 eq
     {dup 3 get {2 get neg 0 exch R pop} {pop aload pop M} ifelse} {dup 5
     get 1 eq {dup 2 get exch dup 3 get exch 6 get stringwidth pop -2 div
     dup 0 R} {dup 6 get stringwidth pop -2 div 0 R 6 get
     textshow 2 index {aload pop M neg 3 -1 roll neg R pop pop} {pop pop pop
     pop aload pop M} ifelse }ifelse }ifelse }
     ifelse }
   forall} def
/Gswidth {dup type /stringtype eq {stringwidth} {pop (n) stringwidth} ifelse} def
/MFwidth {0 exch { dup 5 get 3 ge { 5 get 3 eq { 0 } { pop } ifelse }
 {dup 3 get{dup dup 0 get findfont exch 1 get scalefont setfont
     6 get Gswidth pop add} {pop} ifelse} ifelse} forall} def
/MLshow { currentpoint stroke M
  0 exch R
  Blacktext {gsave 0 setgray MFshow grestore} {MFshow} ifelse } bind def
/MRshow { currentpoint stroke M
  exch dup MFwidth neg 3 -1 roll R
  Blacktext {gsave 0 setgray MFshow grestore} {MFshow} ifelse } bind def
/MCshow { currentpoint stroke M
  exch dup MFwidth -2 div 3 -1 roll R
  Blacktext {gsave 0 setgray MFshow grestore} {MFshow} ifelse } bind def
/XYsave    { [( ) 1 2 true false 3 ()] } bind def
/XYrestore { [( ) 1 2 true false 4 ()] } bind def
Level1 SuppressPDFMark or 
{} {
/SDict 10 dict def
systemdict /pdfmark known not {
  userdict /pdfmark systemdict /cleartomark get put
} if
SDict begin [
  /Title (packets-uv-s-ccdf-loglin.eps)
  /Subject (gnuplot plot)
  /Creator (gnuplot 5.0 patchlevel 3)
  /Author (tiphaine)
%  /Producer (gnuplot)
%  /Keywords ()
  /CreationDate (Mon May 29 11:09:39 2017)
  /DOCINFO pdfmark
end
} ifelse
%
% Support for boxed text - Ethan A Merritt May 2005
%
/InitTextBox { userdict /TBy2 3 -1 roll put userdict /TBx2 3 -1 roll put
           userdict /TBy1 3 -1 roll put userdict /TBx1 3 -1 roll put
	   /Boxing true def } def
/ExtendTextBox { Boxing
    { gsave dup false charpath pathbbox
      dup TBy2 gt {userdict /TBy2 3 -1 roll put} {pop} ifelse
      dup TBx2 gt {userdict /TBx2 3 -1 roll put} {pop} ifelse
      dup TBy1 lt {userdict /TBy1 3 -1 roll put} {pop} ifelse
      dup TBx1 lt {userdict /TBx1 3 -1 roll put} {pop} ifelse
      grestore } if } def
/PopTextBox { newpath TBx1 TBxmargin sub TBy1 TBymargin sub M
               TBx1 TBxmargin sub TBy2 TBymargin add L
	       TBx2 TBxmargin add TBy2 TBymargin add L
	       TBx2 TBxmargin add TBy1 TBymargin sub L closepath } def
/DrawTextBox { PopTextBox stroke /Boxing false def} def
/FillTextBox { gsave PopTextBox 1 1 1 setrgbcolor fill grestore /Boxing false def} def
0 0 0 0 InitTextBox
/TBxmargin 20 def
/TBymargin 20 def
/Boxing false def
/textshow { ExtendTextBox Gshow } def
%
% redundant definitions for compatibility with prologue.ps older than 5.0.2
/LTB {BL [] LCb DL} def
/LTb {PL [] LCb DL} def
end
%%EndProlog
%%Page: 1 1
gnudict begin
gsave
doclip
50 50 translate
0.100 0.100 scale
90 rotate
0 -5040 translate
0 setgray
newpath
(Helvetica) findfont 140 scalefont setfont
BackgroundColor 0 lt 3 1 roll 0 lt exch 0 lt or or not {gsave BackgroundColor C clippath fill grestore} if
1.000 UL
LTb
LCb setrgbcolor
546 280 M
63 0 V
6338 0 R
-63 0 V
stroke
462 280 M
[ [(Helvetica) 140.0 0.0 true true 0 ( 0)]
] -46.7 MRshow
1.000 UL
LTb
LCb setrgbcolor
546 739 M
63 0 V
6338 0 R
-63 0 V
stroke
462 739 M
[ [(Helvetica) 140.0 0.0 true true 0 ( 0.1)]
] -46.7 MRshow
1.000 UL
LTb
LCb setrgbcolor
546 1198 M
63 0 V
6338 0 R
-63 0 V
stroke
462 1198 M
[ [(Helvetica) 140.0 0.0 true true 0 ( 0.2)]
] -46.7 MRshow
1.000 UL
LTb
LCb setrgbcolor
546 1657 M
63 0 V
6338 0 R
-63 0 V
stroke
462 1657 M
[ [(Helvetica) 140.0 0.0 true true 0 ( 0.3)]
] -46.7 MRshow
1.000 UL
LTb
LCb setrgbcolor
546 2116 M
63 0 V
6338 0 R
-63 0 V
stroke
462 2116 M
[ [(Helvetica) 140.0 0.0 true true 0 ( 0.4)]
] -46.7 MRshow
1.000 UL
LTb
LCb setrgbcolor
546 2576 M
63 0 V
6338 0 R
-63 0 V
stroke
462 2576 M
[ [(Helvetica) 140.0 0.0 true true 0 ( 0.5)]
] -46.7 MRshow
1.000 UL
LTb
LCb setrgbcolor
546 3035 M
63 0 V
6338 0 R
-63 0 V
stroke
462 3035 M
[ [(Helvetica) 140.0 0.0 true true 0 ( 0.6)]
] -46.7 MRshow
1.000 UL
LTb
LCb setrgbcolor
546 3494 M
63 0 V
6338 0 R
-63 0 V
stroke
462 3494 M
[ [(Helvetica) 140.0 0.0 true true 0 ( 0.7)]
] -46.7 MRshow
1.000 UL
LTb
LCb setrgbcolor
546 3953 M
63 0 V
6338 0 R
-63 0 V
stroke
462 3953 M
[ [(Helvetica) 140.0 0.0 true true 0 ( 0.8)]
] -46.7 MRshow
1.000 UL
LTb
LCb setrgbcolor
546 4412 M
63 0 V
6338 0 R
-63 0 V
stroke
462 4412 M
[ [(Helvetica) 140.0 0.0 true true 0 ( 0.9)]
] -46.7 MRshow
1.000 UL
LTb
LCb setrgbcolor
546 4871 M
63 0 V
6338 0 R
-63 0 V
stroke
462 4871 M
[ [(Helvetica) 140.0 0.0 true true 0 ( 1)]
] -46.7 MRshow
1.000 UL
LTb
LCb setrgbcolor
546 280 M
0 63 V
0 4528 R
0 -63 V
stroke
546 140 M
[ [(Helvetica) 140.0 0.0 true true 0 ( 1)]
] -46.7 MCshow
1.000 UL
LTb
LCb setrgbcolor
821 280 M
0 31 V
0 4560 R
0 -31 V
1185 280 M
0 31 V
0 4560 R
0 -31 V
1372 280 M
0 31 V
0 4560 R
0 -31 V
1460 280 M
0 63 V
0 4528 R
0 -63 V
stroke
1460 140 M
[ [(Helvetica) 140.0 0.0 true true 0 ( 10)]
] -46.7 MCshow
1.000 UL
LTb
LCb setrgbcolor
1736 280 M
0 31 V
0 4560 R
0 -31 V
2100 280 M
0 31 V
0 4560 R
0 -31 V
2286 280 M
0 31 V
0 4560 R
0 -31 V
2375 280 M
0 63 V
0 4528 R
0 -63 V
stroke
2375 140 M
[ [(Helvetica) 140.0 0.0 true true 0 ( 100)]
] -46.7 MCshow
1.000 UL
LTb
LCb setrgbcolor
2650 280 M
0 31 V
0 4560 R
0 -31 V
3014 280 M
0 31 V
0 4560 R
0 -31 V
3201 280 M
0 31 V
0 4560 R
0 -31 V
3289 280 M
0 63 V
0 4528 R
0 -63 V
stroke
3289 140 M
[ [(Helvetica) 140.0 0.0 true true 0 ( 1000)]
] -46.7 MCshow
1.000 UL
LTb
LCb setrgbcolor
3565 280 M
0 31 V
0 4560 R
0 -31 V
3928 280 M
0 31 V
0 4560 R
0 -31 V
4115 280 M
0 31 V
0 4560 R
0 -31 V
4204 280 M
0 63 V
0 4528 R
0 -63 V
stroke
4204 140 M
[ [(Helvetica) 140.0 0.0 true true 0 ( 10000)]
] -46.7 MCshow
1.000 UL
LTb
LCb setrgbcolor
4479 280 M
0 31 V
0 4560 R
0 -31 V
4843 280 M
0 31 V
0 4560 R
0 -31 V
5030 280 M
0 31 V
0 4560 R
0 -31 V
5118 280 M
0 63 V
0 4528 R
0 -63 V
stroke
5118 140 M
[ [(Helvetica) 140.0 0.0 true true 0 ( 100000)]
] -46.7 MCshow
1.000 UL
LTb
LCb setrgbcolor
5393 280 M
0 31 V
0 4560 R
0 -31 V
5757 280 M
0 31 V
0 4560 R
0 -31 V
5944 280 M
0 31 V
0 4560 R
0 -31 V
6033 280 M
0 63 V
0 4528 R
0 -63 V
stroke
6033 140 M
[ [(Helvetica) 140.0 0.0 true true 0 ( 1x10)]
[(Helvetica) 112.0 70.0 true true 0 (6)]
] -60.7 MCshow
1.000 UL
LTb
LCb setrgbcolor
6308 280 M
0 31 V
0 4560 R
0 -31 V
6672 280 M
0 31 V
0 4560 R
0 -31 V
6858 280 M
0 31 V
0 4560 R
0 -31 V
6947 280 M
0 63 V
0 4528 R
0 -63 V
stroke
6947 140 M
[ [(Helvetica) 140.0 0.0 true true 0 ( 1x10)]
[(Helvetica) 112.0 70.0 true true 0 (7)]
] -60.7 MCshow
1.000 UL
LTb
LCb setrgbcolor
1.000 UL
LTB
LCb setrgbcolor
546 4871 N
546 280 L
6401 0 V
0 4591 V
-6401 0 V
Z stroke
1.000 UP
1.000 UL
LTb
LCb setrgbcolor
% Begin plot #1
1.000 UP
1.000 UL
LTb
0.58 0.00 0.83 C 546 4871 Pls
821 2354 Pls
982 1215 Pls
1097 1047 Pls
1185 923 Pls
1258 851 Pls
1319 786 Pls
1372 751 Pls
1419 708 Pls
1460 683 Pls
1498 640 Pls
1533 619 Pls
1565 592 Pls
1594 577 Pls
1621 559 Pls
1647 543 Pls
1671 526 Pls
1694 515 Pls
1715 502 Pls
1736 492 Pls
1755 479 Pls
1774 471 Pls
1791 463 Pls
1808 457 Pls
1824 450 Pls
1840 445 Pls
1855 440 Pls
1869 436 Pls
1883 431 Pls
1897 428 Pls
1910 423 Pls
1922 420 Pls
1935 417 Pls
1946 414 Pls
1958 411 Pls
1969 408 Pls
1980 405 Pls
1991 403 Pls
2001 401 Pls
2011 399 Pls
2021 397 Pls
2030 395 Pls
2040 393 Pls
2049 391 Pls
2058 390 Pls
2066 388 Pls
2075 386 Pls
2083 384 Pls
2092 382 Pls
2100 380 Pls
2107 378 Pls
2115 376 Pls
2123 375 Pls
2130 374 Pls
2137 372 Pls
2145 371 Pls
2152 370 Pls
2159 369 Pls
2165 368 Pls
2172 367 Pls
2179 365 Pls
2185 364 Pls
2191 363 Pls
2198 362 Pls
2204 361 Pls
2210 360 Pls
2216 360 Pls
2222 359 Pls
2227 358 Pls
2233 357 Pls
2239 357 Pls
2244 356 Pls
2250 355 Pls
2255 355 Pls
2261 354 Pls
2266 353 Pls
2271 353 Pls
2276 352 Pls
2281 351 Pls
2286 351 Pls
2291 350 Pls
2296 349 Pls
2301 349 Pls
2306 348 Pls
2310 348 Pls
2315 347 Pls
2320 347 Pls
2324 346 Pls
2329 346 Pls
2333 346 Pls
2337 345 Pls
2342 345 Pls
2346 344 Pls
2350 344 Pls
2354 343 Pls
2359 343 Pls
2363 342 Pls
2367 342 Pls
2371 341 Pls
2375 341 Pls
2379 339 Pls
2383 339 Pls
2387 338 Pls
2390 338 Pls
2394 338 Pls
2398 337 Pls
2402 337 Pls
2405 337 Pls
2409 336 Pls
2413 336 Pls
2416 336 Pls
2420 335 Pls
2423 335 Pls
2427 335 Pls
2430 334 Pls
2434 334 Pls
2437 334 Pls
2441 333 Pls
2444 333 Pls
2447 333 Pls
2451 332 Pls
2454 332 Pls
2457 331 Pls
2460 331 Pls
2463 331 Pls
2467 331 Pls
2470 330 Pls
2473 330 Pls
2476 330 Pls
2479 329 Pls
2482 329 Pls
2485 329 Pls
2488 328 Pls
2491 328 Pls
2494 328 Pls
2497 328 Pls
2500 327 Pls
2503 327 Pls
2506 327 Pls
2508 326 Pls
2511 326 Pls
2514 326 Pls
2517 326 Pls
2520 325 Pls
2522 325 Pls
2525 325 Pls
2528 325 Pls
2531 325 Pls
2533 324 Pls
2536 324 Pls
2539 324 Pls
2541 324 Pls
2544 324 Pls
2546 324 Pls
2549 323 Pls
2551 323 Pls
2554 323 Pls
2557 323 Pls
2559 323 Pls
2562 322 Pls
2564 322 Pls
2566 322 Pls
2569 322 Pls
2571 322 Pls
2574 322 Pls
2576 321 Pls
2579 321 Pls
2581 321 Pls
2583 321 Pls
2586 321 Pls
2588 321 Pls
2590 320 Pls
2593 320 Pls
2595 320 Pls
2597 320 Pls
2599 320 Pls
2602 320 Pls
2604 319 Pls
2606 319 Pls
2608 319 Pls
2610 319 Pls
2613 319 Pls
2615 318 Pls
2617 318 Pls
2619 318 Pls
2621 318 Pls
2623 318 Pls
2626 318 Pls
2628 318 Pls
2630 318 Pls
2632 317 Pls
2634 317 Pls
2636 317 Pls
2638 317 Pls
2640 317 Pls
2642 317 Pls
2644 317 Pls
2646 317 Pls
2648 316 Pls
2650 316 Pls
2652 316 Pls
2654 316 Pls
2656 316 Pls
2658 316 Pls
2660 316 Pls
2662 316 Pls
2664 315 Pls
2666 315 Pls
2668 315 Pls
2670 315 Pls
2671 315 Pls
2673 315 Pls
2675 315 Pls
2677 315 Pls
2679 314 Pls
2681 314 Pls
2683 314 Pls
2684 314 Pls
2686 314 Pls
2688 314 Pls
2690 314 Pls
2692 314 Pls
2693 314 Pls
2695 313 Pls
2697 313 Pls
2699 313 Pls
2700 313 Pls
2702 313 Pls
2704 313 Pls
2706 313 Pls
2707 313 Pls
2709 313 Pls
2711 313 Pls
2712 313 Pls
2714 312 Pls
2716 312 Pls
2718 312 Pls
2719 312 Pls
2721 312 Pls
2723 312 Pls
2724 312 Pls
2726 312 Pls
2727 312 Pls
2729 312 Pls
2731 311 Pls
2732 311 Pls
2734 311 Pls
2736 311 Pls
2737 311 Pls
2739 311 Pls
2740 311 Pls
2742 311 Pls
2743 311 Pls
2745 311 Pls
2747 311 Pls
2748 311 Pls
2750 310 Pls
2751 310 Pls
2753 310 Pls
2754 310 Pls
2756 310 Pls
2757 310 Pls
2759 310 Pls
2760 310 Pls
2762 310 Pls
2763 310 Pls
2765 310 Pls
2766 310 Pls
2768 310 Pls
2769 310 Pls
2771 309 Pls
2772 309 Pls
2774 309 Pls
2775 309 Pls
2777 309 Pls
2778 309 Pls
2779 309 Pls
2781 309 Pls
2782 309 Pls
2784 309 Pls
2785 309 Pls
2787 309 Pls
2788 309 Pls
2789 309 Pls
2791 308 Pls
2792 308 Pls
2794 308 Pls
2795 308 Pls
2796 308 Pls
2798 308 Pls
2799 308 Pls
2800 308 Pls
2802 308 Pls
2803 308 Pls
2804 308 Pls
2806 308 Pls
2807 308 Pls
2808 308 Pls
2810 308 Pls
2811 307 Pls
2812 307 Pls
2814 307 Pls
2815 307 Pls
2816 307 Pls
2818 307 Pls
2819 307 Pls
2820 307 Pls
2822 307 Pls
2823 307 Pls
2824 307 Pls
2825 307 Pls
2827 307 Pls
2828 307 Pls
2829 307 Pls
2831 307 Pls
2832 306 Pls
2833 306 Pls
2834 306 Pls
2836 306 Pls
2837 306 Pls
2838 306 Pls
2839 306 Pls
2840 306 Pls
2842 306 Pls
2843 306 Pls
2844 306 Pls
2845 306 Pls
2847 306 Pls
2848 306 Pls
2849 306 Pls
2850 306 Pls
2851 306 Pls
2853 306 Pls
2854 306 Pls
2855 305 Pls
2856 305 Pls
2857 305 Pls
2859 305 Pls
2860 305 Pls
2861 305 Pls
2862 305 Pls
2863 305 Pls
2864 305 Pls
2866 305 Pls
2867 305 Pls
2868 305 Pls
2869 305 Pls
2870 305 Pls
2871 305 Pls
2872 305 Pls
2874 305 Pls
2875 305 Pls
2876 305 Pls
2877 305 Pls
2878 305 Pls
2879 305 Pls
2880 304 Pls
2881 304 Pls
2882 304 Pls
2884 304 Pls
2885 304 Pls
2886 304 Pls
2887 304 Pls
2888 304 Pls
2889 304 Pls
2890 304 Pls
2891 304 Pls
2892 304 Pls
2893 304 Pls
2894 304 Pls
2896 304 Pls
2897 304 Pls
2898 304 Pls
2899 304 Pls
2900 304 Pls
2901 304 Pls
2902 304 Pls
2903 304 Pls
2904 304 Pls
2905 303 Pls
2906 303 Pls
2907 303 Pls
2908 303 Pls
2909 303 Pls
2910 303 Pls
2911 303 Pls
2912 303 Pls
2913 303 Pls
2914 303 Pls
2915 303 Pls
2916 303 Pls
2917 303 Pls
2918 303 Pls
2919 303 Pls
2920 303 Pls
2921 303 Pls
2922 303 Pls
2923 303 Pls
2924 303 Pls
2925 303 Pls
2926 303 Pls
2927 303 Pls
2928 303 Pls
2929 303 Pls
2930 303 Pls
2931 302 Pls
2932 302 Pls
2933 302 Pls
2934 302 Pls
2935 302 Pls
2936 302 Pls
2937 302 Pls
2938 302 Pls
2939 302 Pls
2940 302 Pls
2941 302 Pls
2942 302 Pls
2943 302 Pls
2944 302 Pls
2945 302 Pls
2946 302 Pls
2947 302 Pls
2948 302 Pls
2949 302 Pls
2949 302 Pls
2950 302 Pls
2951 302 Pls
2952 302 Pls
2953 302 Pls
2954 302 Pls
2955 302 Pls
2956 302 Pls
2957 302 Pls
2958 301 Pls
2959 301 Pls
2960 301 Pls
2961 301 Pls
2961 301 Pls
2962 301 Pls
2963 301 Pls
2964 301 Pls
2965 301 Pls
2966 301 Pls
2967 301 Pls
2968 301 Pls
2969 301 Pls
2970 301 Pls
2970 301 Pls
2971 301 Pls
2972 301 Pls
2973 301 Pls
2974 301 Pls
2975 301 Pls
2976 301 Pls
2977 301 Pls
2977 301 Pls
2978 301 Pls
2979 301 Pls
2980 301 Pls
2981 301 Pls
2982 301 Pls
2983 301 Pls
2983 301 Pls
2984 300 Pls
2985 300 Pls
2986 300 Pls
2987 300 Pls
2988 300 Pls
2989 300 Pls
2989 300 Pls
2990 300 Pls
2991 300 Pls
2992 300 Pls
2993 300 Pls
2994 300 Pls
2994 300 Pls
2995 300 Pls
2996 300 Pls
2997 300 Pls
2998 300 Pls
2999 300 Pls
2999 300 Pls
3000 300 Pls
3001 300 Pls
3002 300 Pls
3003 300 Pls
3004 300 Pls
3004 300 Pls
3005 300 Pls
3006 300 Pls
3007 300 Pls
3008 300 Pls
3008 300 Pls
3009 300 Pls
3010 300 Pls
3011 300 Pls
3012 299 Pls
3012 299 Pls
3013 299 Pls
3014 299 Pls
3015 299 Pls
3016 299 Pls
3016 299 Pls
3017 299 Pls
3018 299 Pls
3019 299 Pls
3020 299 Pls
3020 299 Pls
3021 299 Pls
3022 299 Pls
3023 299 Pls
3023 299 Pls
3024 299 Pls
3025 299 Pls
3026 299 Pls
3027 299 Pls
3027 299 Pls
3028 299 Pls
3029 299 Pls
3030 299 Pls
3030 299 Pls
3031 299 Pls
3032 299 Pls
3033 299 Pls
3033 299 Pls
3034 299 Pls
3035 299 Pls
3036 299 Pls
3036 299 Pls
3037 299 Pls
3038 299 Pls
3039 299 Pls
3039 299 Pls
3040 299 Pls
3041 299 Pls
3042 298 Pls
3042 298 Pls
3043 298 Pls
3044 298 Pls
3045 298 Pls
3045 298 Pls
3046 298 Pls
3047 298 Pls
3048 298 Pls
3048 298 Pls
3049 298 Pls
3050 298 Pls
3050 298 Pls
3051 298 Pls
3052 298 Pls
3053 298 Pls
3053 298 Pls
3054 298 Pls
3055 298 Pls
3055 298 Pls
3056 298 Pls
3057 298 Pls
3058 298 Pls
3058 298 Pls
3059 298 Pls
3060 298 Pls
3060 298 Pls
3061 298 Pls
3062 298 Pls
3063 298 Pls
3063 298 Pls
3064 298 Pls
3065 298 Pls
3065 298 Pls
3066 298 Pls
3067 298 Pls
3067 298 Pls
3068 298 Pls
3069 298 Pls
3070 298 Pls
3070 298 Pls
3071 298 Pls
3072 298 Pls
3072 298 Pls
3073 297 Pls
3074 297 Pls
3074 297 Pls
3075 297 Pls
3076 297 Pls
3076 297 Pls
3077 297 Pls
3078 297 Pls
3078 297 Pls
3079 297 Pls
3080 297 Pls
3080 297 Pls
3081 297 Pls
3082 297 Pls
3082 297 Pls
3083 297 Pls
3084 297 Pls
3084 297 Pls
3085 297 Pls
3086 297 Pls
3086 297 Pls
3087 297 Pls
3088 297 Pls
3088 297 Pls
3089 297 Pls
3090 297 Pls
3090 297 Pls
3091 297 Pls
3092 297 Pls
3092 297 Pls
3093 297 Pls
3094 297 Pls
3094 297 Pls
3095 297 Pls
3096 297 Pls
3096 297 Pls
3097 297 Pls
3098 297 Pls
3098 297 Pls
3099 297 Pls
3099 297 Pls
3100 297 Pls
3101 297 Pls
3101 297 Pls
3102 297 Pls
3103 297 Pls
3103 297 Pls
3104 297 Pls
3105 297 Pls
3105 296 Pls
3106 296 Pls
3106 296 Pls
3107 296 Pls
3108 296 Pls
3108 296 Pls
3109 296 Pls
3110 296 Pls
3110 296 Pls
3111 296 Pls
3111 296 Pls
3112 296 Pls
3113 296 Pls
3113 296 Pls
3114 296 Pls
3115 296 Pls
3115 296 Pls
3116 296 Pls
3116 296 Pls
3117 296 Pls
3118 296 Pls
3118 296 Pls
3119 296 Pls
3119 296 Pls
3120 296 Pls
3121 296 Pls
3121 296 Pls
3122 296 Pls
3122 296 Pls
3123 296 Pls
3124 296 Pls
3124 295 Pls
3125 295 Pls
3125 295 Pls
3126 295 Pls
3127 295 Pls
3127 295 Pls
3128 295 Pls
3128 295 Pls
3129 295 Pls
3130 295 Pls
3130 295 Pls
3131 295 Pls
3131 295 Pls
3132 295 Pls
3133 295 Pls
3133 295 Pls
3134 295 Pls
3134 295 Pls
3135 295 Pls
3136 295 Pls
3136 295 Pls
3137 295 Pls
3137 295 Pls
3138 295 Pls
3138 295 Pls
3139 295 Pls
3140 295 Pls
3140 295 Pls
3141 295 Pls
3141 295 Pls
3142 295 Pls
3142 295 Pls
3143 295 Pls
3144 295 Pls
3144 295 Pls
3145 295 Pls
3145 294 Pls
3146 294 Pls
3147 294 Pls
3147 294 Pls
3148 294 Pls
3148 294 Pls
3149 294 Pls
3149 294 Pls
3150 294 Pls
3150 294 Pls
3151 294 Pls
3152 294 Pls
3152 294 Pls
3153 294 Pls
3153 294 Pls
3154 294 Pls
3154 294 Pls
3155 294 Pls
3156 294 Pls
3156 294 Pls
3157 294 Pls
3157 294 Pls
3158 294 Pls
3158 294 Pls
3159 294 Pls
3159 294 Pls
3160 294 Pls
3160 294 Pls
3161 294 Pls
3162 294 Pls
3162 294 Pls
3163 294 Pls
3163 294 Pls
3164 294 Pls
3164 294 Pls
3165 294 Pls
3165 294 Pls
3166 294 Pls
3166 294 Pls
3167 294 Pls
3168 294 Pls
3168 294 Pls
3169 294 Pls
3169 294 Pls
3170 293 Pls
3170 293 Pls
3171 293 Pls
3171 293 Pls
3172 293 Pls
3172 293 Pls
3173 293 Pls
3173 293 Pls
3174 293 Pls
3175 293 Pls
3175 293 Pls
3176 293 Pls
3176 293 Pls
3177 293 Pls
3177 293 Pls
3178 293 Pls
3178 293 Pls
3179 293 Pls
3179 293 Pls
3180 293 Pls
3180 293 Pls
3181 293 Pls
3181 293 Pls
3182 293 Pls
3182 293 Pls
3183 293 Pls
3183 293 Pls
3184 293 Pls
3184 293 Pls
3185 293 Pls
3185 293 Pls
3186 293 Pls
3187 293 Pls
3187 293 Pls
3188 293 Pls
3188 293 Pls
3189 293 Pls
3189 293 Pls
3190 293 Pls
3190 293 Pls
3191 293 Pls
3191 293 Pls
3192 293 Pls
3192 293 Pls
3193 293 Pls
3193 293 Pls
3194 293 Pls
3194 293 Pls
3195 293 Pls
3195 293 Pls
3196 293 Pls
3196 293 Pls
3197 293 Pls
3197 293 Pls
3198 293 Pls
3198 293 Pls
3199 293 Pls
3199 293 Pls
3200 293 Pls
3200 293 Pls
3201 293 Pls
3201 292 Pls
3202 292 Pls
3202 292 Pls
3203 292 Pls
3203 292 Pls
3204 292 Pls
3204 292 Pls
3205 292 Pls
3205 292 Pls
3206 292 Pls
3206 292 Pls
3207 292 Pls
3207 292 Pls
3208 292 Pls
3208 292 Pls
3209 292 Pls
3209 292 Pls
3210 292 Pls
3210 292 Pls
3210 292 Pls
3211 292 Pls
3211 292 Pls
3212 292 Pls
3212 292 Pls
3213 292 Pls
3213 292 Pls
3214 292 Pls
3214 292 Pls
3215 292 Pls
3215 292 Pls
3216 292 Pls
3216 292 Pls
3217 292 Pls
3217 292 Pls
3218 292 Pls
3218 292 Pls
3219 292 Pls
3219 292 Pls
3220 292 Pls
3220 292 Pls
3221 292 Pls
3221 292 Pls
3221 292 Pls
3222 292 Pls
3222 292 Pls
3223 292 Pls
3223 292 Pls
3224 292 Pls
3224 292 Pls
3225 292 Pls
3225 292 Pls
3226 292 Pls
3226 292 Pls
3227 292 Pls
3227 292 Pls
3228 292 Pls
3228 292 Pls
3228 292 Pls
3229 292 Pls
3229 292 Pls
3230 292 Pls
3230 292 Pls
3231 292 Pls
3231 292 Pls
3232 292 Pls
3233 292 Pls
3233 292 Pls
3234 292 Pls
3234 292 Pls
3234 292 Pls
3235 292 Pls
3235 292 Pls
3236 292 Pls
3236 292 Pls
3237 292 Pls
3238 292 Pls
3238 292 Pls
3239 292 Pls
3239 292 Pls
3239 292 Pls
3240 292 Pls
3240 292 Pls
3241 292 Pls
3241 292 Pls
3242 292 Pls
3242 292 Pls
3243 292 Pls
3243 292 Pls
3243 292 Pls
3244 292 Pls
3244 292 Pls
3245 292 Pls
3245 292 Pls
3246 291 Pls
3246 291 Pls
3247 291 Pls
3247 291 Pls
3247 291 Pls
3248 291 Pls
3248 291 Pls
3249 291 Pls
3249 291 Pls
3250 291 Pls
3250 291 Pls
3251 291 Pls
3251 291 Pls
3251 291 Pls
3252 291 Pls
3252 291 Pls
3253 291 Pls
3253 291 Pls
3254 291 Pls
3254 291 Pls
3254 291 Pls
3255 291 Pls
3255 291 Pls
3256 291 Pls
3256 291 Pls
3257 291 Pls
3257 291 Pls
3257 291 Pls
3258 291 Pls
3258 291 Pls
3259 291 Pls
3259 291 Pls
3260 291 Pls
3260 291 Pls
3260 291 Pls
3261 291 Pls
3261 291 Pls
3262 291 Pls
3262 291 Pls
3263 291 Pls
3263 291 Pls
3263 291 Pls
3264 291 Pls
3264 291 Pls
3265 291 Pls
3265 291 Pls
3266 291 Pls
3266 291 Pls
3266 291 Pls
3267 291 Pls
3267 291 Pls
3268 291 Pls
3268 291 Pls
3268 291 Pls
3269 291 Pls
3269 291 Pls
3270 291 Pls
3270 291 Pls
3271 291 Pls
3271 291 Pls
3271 291 Pls
3272 291 Pls
3272 291 Pls
3273 291 Pls
3273 291 Pls
3273 291 Pls
3274 291 Pls
3274 291 Pls
3275 291 Pls
3275 291 Pls
3276 291 Pls
3276 291 Pls
3276 291 Pls
3277 291 Pls
3277 291 Pls
3278 291 Pls
3278 291 Pls
3278 291 Pls
3279 291 Pls
3279 291 Pls
3280 291 Pls
3280 291 Pls
3280 291 Pls
3281 291 Pls
3281 291 Pls
3282 291 Pls
3282 291 Pls
3282 291 Pls
3283 291 Pls
3283 291 Pls
3284 291 Pls
3284 291 Pls
3284 291 Pls
3285 291 Pls
3285 291 Pls
3286 291 Pls
3286 291 Pls
3286 291 Pls
3287 291 Pls
3287 291 Pls
3288 291 Pls
3288 291 Pls
3288 291 Pls
3289 291 Pls
3289 291 Pls
3290 291 Pls
3290 291 Pls
3290 291 Pls
3291 291 Pls
3291 291 Pls
3292 291 Pls
3292 291 Pls
3292 291 Pls
3293 291 Pls
3293 291 Pls
3294 290 Pls
3294 290 Pls
3294 290 Pls
3295 290 Pls
3295 290 Pls
3296 290 Pls
3296 290 Pls
3296 290 Pls
3297 290 Pls
3297 290 Pls
3298 290 Pls
3298 290 Pls
3298 290 Pls
3299 290 Pls
3299 290 Pls
3299 290 Pls
3300 290 Pls
3300 290 Pls
3301 290 Pls
3301 290 Pls
3301 290 Pls
3302 290 Pls
3302 290 Pls
3303 290 Pls
3303 290 Pls
3303 290 Pls
3304 290 Pls
3304 290 Pls
3304 290 Pls
3305 290 Pls
3305 290 Pls
3306 290 Pls
3306 290 Pls
3306 290 Pls
3307 290 Pls
3307 290 Pls
3308 290 Pls
3308 290 Pls
3308 290 Pls
3309 290 Pls
3309 290 Pls
3309 290 Pls
3310 290 Pls
3310 290 Pls
3311 290 Pls
3311 290 Pls
3311 290 Pls
3312 290 Pls
3312 290 Pls
3312 290 Pls
3313 290 Pls
3314 290 Pls
3314 290 Pls
3314 290 Pls
3315 290 Pls
3315 290 Pls
3316 290 Pls
3316 290 Pls
3317 290 Pls
3317 290 Pls
3318 290 Pls
3318 290 Pls
3318 290 Pls
3319 290 Pls
3319 290 Pls
3319 290 Pls
3320 290 Pls
3320 290 Pls
3321 290 Pls
3321 290 Pls
3321 290 Pls
3322 290 Pls
3322 290 Pls
3322 290 Pls
3323 290 Pls
3323 290 Pls
3324 290 Pls
3324 290 Pls
3324 290 Pls
3325 290 Pls
3325 290 Pls
3325 290 Pls
3326 290 Pls
3326 290 Pls
3326 290 Pls
3327 290 Pls
3327 290 Pls
3327 290 Pls
3328 290 Pls
3328 290 Pls
3329 290 Pls
3329 290 Pls
3329 290 Pls
3330 290 Pls
3330 290 Pls
3330 290 Pls
3331 290 Pls
3331 290 Pls
3332 290 Pls
3332 290 Pls
3333 290 Pls
3333 290 Pls
3334 290 Pls
3334 290 Pls
3334 290 Pls
3335 290 Pls
3335 290 Pls
3336 290 Pls
3336 290 Pls
3337 290 Pls
3337 290 Pls
3338 290 Pls
3338 290 Pls
3339 290 Pls
3339 290 Pls
3340 290 Pls
3340 290 Pls
3340 290 Pls
3341 290 Pls
3341 290 Pls
3342 290 Pls
3342 290 Pls
3343 290 Pls
3343 290 Pls
3343 290 Pls
3344 290 Pls
3344 290 Pls
3344 290 Pls
3345 290 Pls
3345 290 Pls
3345 290 Pls
3346 290 Pls
3346 290 Pls
3347 290 Pls
3347 290 Pls
3347 290 Pls
3348 290 Pls
3348 290 Pls
3349 290 Pls
3349 290 Pls
3349 290 Pls
3350 290 Pls
3350 290 Pls
3350 290 Pls
3351 290 Pls
3351 289 Pls
3351 289 Pls
3352 289 Pls
3352 289 Pls
3353 289 Pls
3353 289 Pls
3353 289 Pls
3354 289 Pls
3354 289 Pls
3354 289 Pls
3355 289 Pls
3355 289 Pls
3355 289 Pls
3356 289 Pls
3356 289 Pls
3356 289 Pls
3357 289 Pls
3357 289 Pls
3357 289 Pls
3358 289 Pls
3358 289 Pls
3358 289 Pls
3359 289 Pls
3359 289 Pls
3359 289 Pls
3360 289 Pls
3360 289 Pls
3361 289 Pls
3361 289 Pls
3361 289 Pls
3362 289 Pls
3362 289 Pls
3362 289 Pls
3363 289 Pls
3363 289 Pls
3363 289 Pls
3364 289 Pls
3364 289 Pls
3364 289 Pls
3365 289 Pls
3365 289 Pls
3366 289 Pls
3366 289 Pls
3366 289 Pls
3367 289 Pls
3367 289 Pls
3368 289 Pls
3368 289 Pls
3368 289 Pls
3369 289 Pls
3369 289 Pls
3369 289 Pls
3370 289 Pls
3370 289 Pls
3370 289 Pls
3371 289 Pls
3371 289 Pls
3372 289 Pls
3372 289 Pls
3373 289 Pls
3373 289 Pls
3374 289 Pls
3374 289 Pls
3374 289 Pls
3375 289 Pls
3375 289 Pls
3376 289 Pls
3376 289 Pls
3377 289 Pls
3377 289 Pls
3377 289 Pls
3378 289 Pls
3378 289 Pls
3378 289 Pls
3379 289 Pls
3379 289 Pls
3379 289 Pls
3380 289 Pls
3380 289 Pls
3380 289 Pls
3381 289 Pls
3381 289 Pls
3382 289 Pls
3382 289 Pls
3382 289 Pls
3383 289 Pls
3383 289 Pls
3383 289 Pls
3384 289 Pls
3384 289 Pls
3384 289 Pls
3385 289 Pls
3385 289 Pls
3385 289 Pls
3385 289 Pls
3386 289 Pls
3386 289 Pls
3386 289 Pls
3387 289 Pls
3387 289 Pls
3388 289 Pls
3388 289 Pls
3389 289 Pls
3389 289 Pls
3389 289 Pls
3390 289 Pls
3390 289 Pls
3391 289 Pls
3391 289 Pls
3391 289 Pls
3392 289 Pls
3392 289 Pls
3392 289 Pls
3393 289 Pls
3393 289 Pls
3393 289 Pls
3394 289 Pls
3394 289 Pls
3394 289 Pls
3395 289 Pls
3395 289 Pls
3395 289 Pls
3396 289 Pls
3396 289 Pls
3397 289 Pls
3397 289 Pls
3397 289 Pls
3397 289 Pls
3398 289 Pls
3398 289 Pls
3398 289 Pls
3399 289 Pls
3399 289 Pls
3399 289 Pls
3400 289 Pls
3400 289 Pls
3400 289 Pls
3401 289 Pls
3401 289 Pls
3402 289 Pls
3402 289 Pls
3402 289 Pls
3403 289 Pls
3403 289 Pls
3404 289 Pls
3404 289 Pls
3404 289 Pls
3405 289 Pls
3405 289 Pls
3406 289 Pls
3406 289 Pls
3406 289 Pls
3406 289 Pls
3407 289 Pls
3407 289 Pls
3407 289 Pls
3408 289 Pls
3408 289 Pls
3408 289 Pls
3409 289 Pls
3409 289 Pls
3409 289 Pls
3410 289 Pls
3410 289 Pls
3410 289 Pls
3411 289 Pls
3411 289 Pls
3411 289 Pls
3411 289 Pls
3412 289 Pls
3412 289 Pls
3412 289 Pls
3413 289 Pls
3413 289 Pls
3413 289 Pls
3414 289 Pls
3414 289 Pls
3414 289 Pls
3415 289 Pls
3415 289 Pls
3415 289 Pls
3415 289 Pls
3416 289 Pls
3416 289 Pls
3416 289 Pls
3417 289 Pls
3417 289 Pls
3417 288 Pls
3418 288 Pls
3418 288 Pls
3418 288 Pls
3419 288 Pls
3419 288 Pls
3419 288 Pls
3419 288 Pls
3420 288 Pls
3420 288 Pls
3421 288 Pls
3421 288 Pls
3421 288 Pls
3421 288 Pls
3422 288 Pls
3422 288 Pls
3422 288 Pls
3423 288 Pls
3423 288 Pls
3423 288 Pls
3424 288 Pls
3424 288 Pls
3424 288 Pls
3425 288 Pls
3425 288 Pls
3425 288 Pls
3426 288 Pls
3427 288 Pls
3428 288 Pls
3428 288 Pls
3428 288 Pls
3429 288 Pls
3429 288 Pls
3429 288 Pls
3429 288 Pls
3430 288 Pls
3430 288 Pls
3430 288 Pls
3431 288 Pls
3431 288 Pls
3431 288 Pls
3432 288 Pls
3432 288 Pls
3432 288 Pls
3433 288 Pls
3433 288 Pls
3433 288 Pls
3434 288 Pls
3434 288 Pls
3434 288 Pls
3434 288 Pls
3435 288 Pls
3435 288 Pls
3435 288 Pls
3436 288 Pls
3436 288 Pls
3436 288 Pls
3437 288 Pls
3437 288 Pls
3438 288 Pls
3438 288 Pls
3438 288 Pls
3439 288 Pls
3439 288 Pls
3439 288 Pls
3440 288 Pls
3440 288 Pls
3440 288 Pls
3440 288 Pls
3441 288 Pls
3441 288 Pls
3441 288 Pls
3442 288 Pls
3442 288 Pls
3442 288 Pls
3443 288 Pls
3443 288 Pls
3443 288 Pls
3443 288 Pls
3444 288 Pls
3444 288 Pls
3445 288 Pls
3446 288 Pls
3446 288 Pls
3446 288 Pls
3447 288 Pls
3447 288 Pls
3447 288 Pls
3448 288 Pls
3448 288 Pls
3448 288 Pls
3448 288 Pls
3449 288 Pls
3449 288 Pls
3450 288 Pls
3450 288 Pls
3451 288 Pls
3451 288 Pls
3451 288 Pls
3452 288 Pls
3452 288 Pls
3452 288 Pls
3452 288 Pls
3453 288 Pls
3453 288 Pls
3453 288 Pls
3454 288 Pls
3454 288 Pls
3455 288 Pls
3455 288 Pls
3455 288 Pls
3455 288 Pls
3456 288 Pls
3456 288 Pls
3457 288 Pls
3457 288 Pls
3458 288 Pls
3458 288 Pls
3458 288 Pls
3459 288 Pls
3459 288 Pls
3459 288 Pls
3460 288 Pls
3460 288 Pls
3461 288 Pls
3461 288 Pls
3461 288 Pls
3462 288 Pls
3462 288 Pls
3462 288 Pls
3463 288 Pls
3463 288 Pls
3463 288 Pls
3463 288 Pls
3464 288 Pls
3464 288 Pls
3464 288 Pls
3465 288 Pls
3465 288 Pls
3465 288 Pls
3466 288 Pls
3466 288 Pls
3466 288 Pls
3467 288 Pls
3467 288 Pls
3467 288 Pls
3468 288 Pls
3468 288 Pls
3468 288 Pls
3469 288 Pls
3469 288 Pls
3469 288 Pls
3470 288 Pls
3470 288 Pls
3470 288 Pls
3471 288 Pls
3471 288 Pls
3471 288 Pls
3471 288 Pls
3472 288 Pls
3472 288 Pls
3473 288 Pls
3473 288 Pls
3473 288 Pls
3473 288 Pls
3474 288 Pls
3474 288 Pls
3475 288 Pls
3475 288 Pls
3475 288 Pls
3476 288 Pls
3476 288 Pls
3477 288 Pls
3477 288 Pls
3477 288 Pls
3478 288 Pls
3478 288 Pls
3478 288 Pls
3479 288 Pls
3479 288 Pls
3479 288 Pls
3480 288 Pls
3480 288 Pls
3480 288 Pls
3481 288 Pls
3481 288 Pls
3481 288 Pls
3482 288 Pls
3482 288 Pls
3482 288 Pls
3483 288 Pls
3483 288 Pls
3483 288 Pls
3484 288 Pls
3484 288 Pls
3484 288 Pls
3485 288 Pls
3485 288 Pls
3485 288 Pls
3485 288 Pls
3486 288 Pls
3486 288 Pls
3486 288 Pls
3486 288 Pls
3487 288 Pls
3487 288 Pls
3488 288 Pls
3488 288 Pls
3488 288 Pls
3489 288 Pls
3489 288 Pls
3489 288 Pls
3490 288 Pls
3490 288 Pls
3490 287 Pls
3490 287 Pls
3491 287 Pls
3491 287 Pls
3491 287 Pls
3492 287 Pls
3492 287 Pls
3493 287 Pls
3493 287 Pls
3493 287 Pls
3494 287 Pls
3494 287 Pls
3494 287 Pls
3495 287 Pls
3495 287 Pls
3496 287 Pls
3496 287 Pls
3496 287 Pls
3496 287 Pls
3497 287 Pls
3497 287 Pls
3497 287 Pls
3497 287 Pls
3498 287 Pls
3498 287 Pls
3499 287 Pls
3499 287 Pls
3499 287 Pls
3500 287 Pls
3500 287 Pls
3500 287 Pls
3500 287 Pls
3500 287 Pls
3501 287 Pls
3501 287 Pls
3501 287 Pls
3502 287 Pls
3502 287 Pls
3502 287 Pls
3502 287 Pls
3503 287 Pls
3503 287 Pls
3503 287 Pls
3504 287 Pls
3504 287 Pls
3504 287 Pls
3505 287 Pls
3505 287 Pls
3505 287 Pls
3505 287 Pls
3506 287 Pls
3506 287 Pls
3506 287 Pls
3507 287 Pls
3507 287 Pls
3507 287 Pls
3507 287 Pls
3507 287 Pls
3508 287 Pls
3508 287 Pls
3509 287 Pls
3509 287 Pls
3509 287 Pls
3509 287 Pls
3510 287 Pls
3510 287 Pls
3510 287 Pls
3510 287 Pls
3511 287 Pls
3511 287 Pls
3512 287 Pls
3512 287 Pls
3512 287 Pls
3513 287 Pls
3513 287 Pls
3513 287 Pls
3513 287 Pls
3514 287 Pls
3514 287 Pls
3515 287 Pls
3515 287 Pls
3515 287 Pls
3515 287 Pls
3516 287 Pls
3516 287 Pls
3517 287 Pls
3517 287 Pls
3518 287 Pls
3518 287 Pls
3518 287 Pls
3519 287 Pls
3519 287 Pls
3519 287 Pls
3520 287 Pls
3520 287 Pls
3520 287 Pls
3521 287 Pls
3521 287 Pls
3521 287 Pls
3521 287 Pls
3522 287 Pls
3522 287 Pls
3522 287 Pls
3523 287 Pls
3523 287 Pls
3523 287 Pls
3523 287 Pls
3524 287 Pls
3524 287 Pls
3524 287 Pls
3524 287 Pls
3525 287 Pls
3525 287 Pls
3525 287 Pls
3526 287 Pls
3526 287 Pls
3526 287 Pls
3526 287 Pls
3527 287 Pls
3527 287 Pls
3528 287 Pls
3528 287 Pls
3528 287 Pls
3528 287 Pls
3529 287 Pls
3529 287 Pls
3529 287 Pls
3530 287 Pls
3530 287 Pls
3530 287 Pls
3530 287 Pls
3531 287 Pls
3533 287 Pls
3533 287 Pls
3533 287 Pls
3533 287 Pls
3534 287 Pls
3534 287 Pls
3534 287 Pls
3535 287 Pls
3535 287 Pls
3535 287 Pls
3536 287 Pls
3536 287 Pls
3536 287 Pls
3537 287 Pls
3537 287 Pls
3537 287 Pls
3538 287 Pls
3538 287 Pls
3538 287 Pls
3538 287 Pls
3539 287 Pls
3539 287 Pls
3539 287 Pls
3539 287 Pls
3540 287 Pls
3540 287 Pls
3540 287 Pls
3541 287 Pls
3541 287 Pls
3541 287 Pls
3542 287 Pls
3542 287 Pls
3543 287 Pls
3543 287 Pls
3543 287 Pls
3544 287 Pls
3544 287 Pls
3544 287 Pls
3544 287 Pls
3545 287 Pls
3545 287 Pls
3546 287 Pls
3546 287 Pls
3547 287 Pls
3547 287 Pls
3548 287 Pls
3549 287 Pls
3549 287 Pls
3550 287 Pls
3550 287 Pls
3550 287 Pls
3550 287 Pls
3551 287 Pls
3551 287 Pls
3551 287 Pls
3551 287 Pls
3553 287 Pls
3553 287 Pls
3554 287 Pls
3555 287 Pls
3555 287 Pls
3556 287 Pls
3556 287 Pls
3556 287 Pls
3557 287 Pls
3557 287 Pls
3557 287 Pls
3557 287 Pls
3557 287 Pls
3558 287 Pls
3558 287 Pls
3558 287 Pls
3558 287 Pls
3559 287 Pls
3559 287 Pls
3559 287 Pls
3559 287 Pls
3560 287 Pls
3560 287 Pls
3560 287 Pls
3561 287 Pls
3562 287 Pls
3562 287 Pls
3563 287 Pls
3563 287 Pls
3564 287 Pls
3564 287 Pls
3564 287 Pls
3564 287 Pls
3565 287 Pls
3565 287 Pls
3565 287 Pls
3566 287 Pls
3566 287 Pls
3567 287 Pls
3567 287 Pls
3568 287 Pls
3568 287 Pls
3568 287 Pls
3569 287 Pls
3569 287 Pls
3569 287 Pls
3569 287 Pls
3569 287 Pls
3569 287 Pls
3570 287 Pls
3570 287 Pls
3570 287 Pls
3571 287 Pls
3571 287 Pls
3571 287 Pls
3571 287 Pls
3572 287 Pls
3572 287 Pls
3573 287 Pls
3573 287 Pls
3573 287 Pls
3573 287 Pls
3574 287 Pls
3574 287 Pls
3575 287 Pls
3575 287 Pls
3575 287 Pls
3576 287 Pls
3576 287 Pls
3576 287 Pls
3577 287 Pls
3577 287 Pls
3577 287 Pls
3578 287 Pls
3579 287 Pls
3579 287 Pls
3579 287 Pls
3579 287 Pls
3580 287 Pls
3581 287 Pls
3581 287 Pls
3582 287 Pls
3583 287 Pls
3583 287 Pls
3583 287 Pls
3583 287 Pls
3584 287 Pls
3584 287 Pls
3584 287 Pls
3585 287 Pls
3585 287 Pls
3585 286 Pls
3585 286 Pls
3586 286 Pls
3586 286 Pls
3586 286 Pls
3587 286 Pls
3588 286 Pls
3588 286 Pls
3588 286 Pls
3588 286 Pls
3589 286 Pls
3589 286 Pls
3589 286 Pls
3589 286 Pls
3590 286 Pls
3590 286 Pls
3590 286 Pls
3590 286 Pls
3591 286 Pls
3591 286 Pls
3591 286 Pls
3591 286 Pls
3592 286 Pls
3593 286 Pls
3593 286 Pls
3593 286 Pls
3593 286 Pls
3594 286 Pls
3594 286 Pls
3594 286 Pls
3594 286 Pls
3595 286 Pls
3595 286 Pls
3595 286 Pls
3596 286 Pls
3596 286 Pls
3596 286 Pls
3597 286 Pls
3597 286 Pls
3597 286 Pls
3597 286 Pls
3598 286 Pls
3598 286 Pls
3598 286 Pls
3598 286 Pls
3599 286 Pls
3599 286 Pls
3600 286 Pls
3600 286 Pls
3600 286 Pls
3600 286 Pls
3601 286 Pls
3601 286 Pls
3601 286 Pls
3602 286 Pls
3602 286 Pls
3603 286 Pls
3603 286 Pls
3603 286 Pls
3603 286 Pls
3604 286 Pls
3604 286 Pls
3604 286 Pls
3605 286 Pls
3605 286 Pls
3605 286 Pls
3605 286 Pls
3606 286 Pls
3606 286 Pls
3606 286 Pls
3607 286 Pls
3607 286 Pls
3607 286 Pls
3607 286 Pls
3608 286 Pls
3608 286 Pls
3608 286 Pls
3608 286 Pls
3609 286 Pls
3609 286 Pls
3609 286 Pls
3609 286 Pls
3610 286 Pls
3610 286 Pls
3611 286 Pls
3611 286 Pls
3611 286 Pls
3612 286 Pls
3612 286 Pls
3612 286 Pls
3612 286 Pls
3612 286 Pls
3613 286 Pls
3613 286 Pls
3613 286 Pls
3613 286 Pls
3613 286 Pls
3614 286 Pls
3614 286 Pls
3614 286 Pls
3614 286 Pls
3614 286 Pls
3615 286 Pls
3616 286 Pls
3616 286 Pls
3616 286 Pls
3616 286 Pls
3617 286 Pls
3617 286 Pls
3617 286 Pls
3618 286 Pls
3618 286 Pls
3618 286 Pls
3619 286 Pls
3619 286 Pls
3619 286 Pls
3619 286 Pls
3620 286 Pls
3620 286 Pls
3621 286 Pls
3621 286 Pls
3621 286 Pls
3622 286 Pls
3622 286 Pls
3623 286 Pls
3623 286 Pls
3624 286 Pls
3624 286 Pls
3624 286 Pls
3625 286 Pls
3625 286 Pls
3626 286 Pls
3626 286 Pls
3626 286 Pls
3627 286 Pls
3627 286 Pls
3628 286 Pls
3628 286 Pls
3628 286 Pls
3628 286 Pls
3629 286 Pls
3629 286 Pls
3630 286 Pls
3630 286 Pls
3630 286 Pls
3631 286 Pls
3631 286 Pls
3632 286 Pls
3632 286 Pls
3632 286 Pls
3632 286 Pls
3633 286 Pls
3633 286 Pls
3634 286 Pls
3634 286 Pls
3634 286 Pls
3634 286 Pls
3634 286 Pls
3635 286 Pls
3635 286 Pls
3636 286 Pls
3636 286 Pls
3636 286 Pls
3636 286 Pls
3637 286 Pls
3637 286 Pls
3637 286 Pls
3637 286 Pls
3638 286 Pls
3638 286 Pls
3638 286 Pls
3638 286 Pls
3639 286 Pls
3640 286 Pls
3640 286 Pls
3641 286 Pls
3642 286 Pls
3642 286 Pls
3643 286 Pls
3643 286 Pls
3643 286 Pls
3644 286 Pls
3644 286 Pls
3644 286 Pls
3644 286 Pls
3644 286 Pls
3644 286 Pls
3645 286 Pls
3645 286 Pls
3645 286 Pls
3645 286 Pls
3645 286 Pls
3646 286 Pls
3646 286 Pls
3646 286 Pls
3646 286 Pls
3646 286 Pls
3647 286 Pls
3647 286 Pls
3647 286 Pls
3648 286 Pls
3648 286 Pls
3648 286 Pls
3649 286 Pls
3650 286 Pls
3650 286 Pls
3652 286 Pls
3652 286 Pls
3652 286 Pls
3653 286 Pls
3654 286 Pls
3654 286 Pls
3654 286 Pls
3655 286 Pls
3655 286 Pls
3656 286 Pls
3656 286 Pls
3656 286 Pls
3657 286 Pls
3657 286 Pls
3658 286 Pls
3658 286 Pls
3658 286 Pls
3659 286 Pls
3659 286 Pls
3659 286 Pls
3659 286 Pls
3659 286 Pls
3659 286 Pls
3660 286 Pls
3660 286 Pls
3660 286 Pls
3661 286 Pls
3661 286 Pls
3662 286 Pls
3662 286 Pls
3662 286 Pls
3663 286 Pls
3663 286 Pls
3663 286 Pls
3663 286 Pls
3664 286 Pls
3664 286 Pls
3664 286 Pls
3665 286 Pls
3665 286 Pls
3665 286 Pls
3666 286 Pls
3666 286 Pls
3666 286 Pls
3667 286 Pls
3667 286 Pls
3668 286 Pls
3668 286 Pls
3668 286 Pls
3669 286 Pls
3669 286 Pls
3669 286 Pls
3669 286 Pls
3670 286 Pls
3670 286 Pls
3670 286 Pls
3671 286 Pls
3671 286 Pls
3671 286 Pls
3672 286 Pls
3672 286 Pls
3673 286 Pls
3673 286 Pls
3673 286 Pls
3674 286 Pls
3674 286 Pls
3675 286 Pls
3676 286 Pls
3676 286 Pls
3676 286 Pls
3677 286 Pls
3678 286 Pls
3678 286 Pls
3678 286 Pls
3678 286 Pls
3679 286 Pls
3679 286 Pls
3680 286 Pls
3680 286 Pls
3680 286 Pls
3681 286 Pls
3681 286 Pls
3681 286 Pls
3681 286 Pls
3682 286 Pls
3682 286 Pls
3682 286 Pls
3682 286 Pls
3683 286 Pls
3683 286 Pls
3683 286 Pls
3683 286 Pls
3684 286 Pls
3684 286 Pls
3684 286 Pls
3684 286 Pls
3685 286 Pls
3685 286 Pls
3685 286 Pls
3685 286 Pls
3685 286 Pls
3686 286 Pls
3686 286 Pls
3686 286 Pls
3686 286 Pls
3687 286 Pls
3687 286 Pls
3688 286 Pls
3688 286 Pls
3688 286 Pls
3689 286 Pls
3690 286 Pls
3690 286 Pls
3690 286 Pls
3690 286 Pls
3690 286 Pls
3691 286 Pls
3692 286 Pls
3692 286 Pls
3694 286 Pls
3694 286 Pls
3694 286 Pls
3694 286 Pls
3694 286 Pls
3695 286 Pls
3695 286 Pls
3695 286 Pls
3695 286 Pls
3695 286 Pls
3695 286 Pls
3696 286 Pls
3696 286 Pls
3696 285 Pls
3697 285 Pls
3697 285 Pls
3697 285 Pls
3698 285 Pls
3698 285 Pls
3699 285 Pls
3699 285 Pls
3701 285 Pls
3701 285 Pls
3701 285 Pls
3701 285 Pls
3702 285 Pls
3702 285 Pls
3703 285 Pls
3703 285 Pls
3703 285 Pls
3704 285 Pls
3704 285 Pls
3705 285 Pls
3705 285 Pls
3705 285 Pls
3706 285 Pls
3706 285 Pls
3707 285 Pls
3707 285 Pls
3708 285 Pls
3708 285 Pls
3709 285 Pls
3709 285 Pls
3710 285 Pls
3710 285 Pls
3710 285 Pls
3710 285 Pls
3711 285 Pls
3711 285 Pls
3712 285 Pls
3712 285 Pls
3712 285 Pls
3713 285 Pls
3713 285 Pls
3713 285 Pls
3714 285 Pls
3714 285 Pls
3714 285 Pls
3714 285 Pls
3714 285 Pls
3716 285 Pls
3716 285 Pls
3716 285 Pls
3716 285 Pls
3716 285 Pls
3717 285 Pls
3717 285 Pls
3717 285 Pls
3718 285 Pls
3718 285 Pls
3718 285 Pls
3718 285 Pls
3719 285 Pls
3719 285 Pls
3719 285 Pls
3719 285 Pls
3719 285 Pls
3719 285 Pls
3720 285 Pls
3720 285 Pls
3721 285 Pls
3721 285 Pls
3722 285 Pls
3722 285 Pls
3723 285 Pls
3723 285 Pls
3723 285 Pls
3724 285 Pls
3724 285 Pls
3724 285 Pls
3725 285 Pls
3725 285 Pls
3726 285 Pls
3726 285 Pls
3726 285 Pls
3727 285 Pls
3727 285 Pls
3727 285 Pls
3727 285 Pls
3727 285 Pls
3727 285 Pls
3728 285 Pls
3728 285 Pls
3728 285 Pls
3728 285 Pls
3728 285 Pls
3728 285 Pls
3729 285 Pls
3729 285 Pls
3730 285 Pls
3731 285 Pls
3731 285 Pls
3731 285 Pls
3732 285 Pls
3732 285 Pls
3732 285 Pls
3733 285 Pls
3734 285 Pls
3734 285 Pls
3734 285 Pls
3735 285 Pls
3735 285 Pls
3735 285 Pls
3736 285 Pls
3736 285 Pls
3736 285 Pls
3737 285 Pls
3737 285 Pls
3738 285 Pls
3738 285 Pls
3738 285 Pls
3739 285 Pls
3739 285 Pls
3739 285 Pls
3740 285 Pls
3740 285 Pls
3741 285 Pls
3741 285 Pls
3742 285 Pls
3742 285 Pls
3742 285 Pls
3742 285 Pls
3743 285 Pls
3743 285 Pls
3743 285 Pls
3743 285 Pls
3744 285 Pls
3744 285 Pls
3745 285 Pls
3745 285 Pls
3745 285 Pls
3745 285 Pls
3746 285 Pls
3746 285 Pls
3746 285 Pls
3746 285 Pls
3747 285 Pls
3747 285 Pls
3747 285 Pls
3748 285 Pls
3748 285 Pls
3749 285 Pls
3749 285 Pls
3749 285 Pls
3750 285 Pls
3750 285 Pls
3750 285 Pls
3750 285 Pls
3751 285 Pls
3751 285 Pls
3752 285 Pls
3752 285 Pls
3752 285 Pls
3753 285 Pls
3755 285 Pls
3755 285 Pls
3755 285 Pls
3756 285 Pls
3756 285 Pls
3757 285 Pls
3757 285 Pls
3757 285 Pls
3758 285 Pls
3758 285 Pls
3759 285 Pls
3759 285 Pls
3759 285 Pls
3760 285 Pls
3760 285 Pls
3761 285 Pls
3761 285 Pls
3761 285 Pls
3762 285 Pls
3762 285 Pls
3762 285 Pls
3762 285 Pls
3762 285 Pls
3763 285 Pls
3763 285 Pls
3763 285 Pls
3764 285 Pls
3765 285 Pls
3766 285 Pls
3766 285 Pls
3767 285 Pls
3767 285 Pls
3767 285 Pls
3768 285 Pls
3768 285 Pls
3768 285 Pls
3769 285 Pls
3769 285 Pls
3769 285 Pls
3769 285 Pls
3769 285 Pls
3770 285 Pls
3770 285 Pls
3770 285 Pls
3771 285 Pls
3771 285 Pls
3772 285 Pls
3772 285 Pls
3774 285 Pls
3774 285 Pls
3775 285 Pls
3776 285 Pls
3777 285 Pls
3777 285 Pls
3778 285 Pls
3778 285 Pls
3778 285 Pls
3779 285 Pls
3780 285 Pls
3780 285 Pls
3781 285 Pls
3781 285 Pls
3781 285 Pls
3782 285 Pls
3782 285 Pls
3782 285 Pls
3783 285 Pls
3783 285 Pls
3783 285 Pls
3784 285 Pls
3785 285 Pls
3785 285 Pls
3786 285 Pls
3787 285 Pls
3787 285 Pls
3787 285 Pls
3787 285 Pls
3787 285 Pls
3788 285 Pls
3788 285 Pls
3788 285 Pls
3788 285 Pls
3790 285 Pls
3791 285 Pls
3792 285 Pls
3792 285 Pls
3792 285 Pls
3793 285 Pls
3793 285 Pls
3793 285 Pls
3794 285 Pls
3794 285 Pls
3795 285 Pls
3795 285 Pls
3796 285 Pls
3796 285 Pls
3796 285 Pls
3796 285 Pls
3797 285 Pls
3797 285 Pls
3797 285 Pls
3798 285 Pls
3798 285 Pls
3798 285 Pls
3798 285 Pls
3798 285 Pls
3799 285 Pls
3800 285 Pls
3800 285 Pls
3800 285 Pls
3801 285 Pls
3801 285 Pls
3802 285 Pls
3802 285 Pls
3802 285 Pls
3802 285 Pls
3803 285 Pls
3804 285 Pls
3804 285 Pls
3804 285 Pls
3805 285 Pls
3805 285 Pls
3805 285 Pls
3807 285 Pls
3807 285 Pls
3807 285 Pls
3808 285 Pls
3808 285 Pls
3809 285 Pls
3809 285 Pls
3809 285 Pls
3810 285 Pls
3810 285 Pls
3812 285 Pls
3812 285 Pls
3812 285 Pls
3812 285 Pls
3813 285 Pls
3813 285 Pls
3813 285 Pls
3814 285 Pls
3814 285 Pls
3814 285 Pls
3814 285 Pls
3815 285 Pls
3815 285 Pls
3816 285 Pls
3816 285 Pls
3817 285 Pls
3817 285 Pls
3817 285 Pls
3817 285 Pls
3818 285 Pls
3818 285 Pls
3818 285 Pls
3819 285 Pls
3819 285 Pls
3819 285 Pls
3819 285 Pls
3819 285 Pls
3819 285 Pls
3820 285 Pls
3820 284 Pls
3820 284 Pls
3820 284 Pls
3820 284 Pls
3820 284 Pls
3820 284 Pls
3821 284 Pls
3823 284 Pls
3823 284 Pls
3823 284 Pls
3823 284 Pls
3824 284 Pls
3824 284 Pls
3824 284 Pls
3824 284 Pls
3824 284 Pls
3825 284 Pls
3825 284 Pls
3825 284 Pls
3826 284 Pls
3826 284 Pls
3826 284 Pls
3827 284 Pls
3827 284 Pls
3827 284 Pls
3828 284 Pls
3828 284 Pls
3828 284 Pls
3828 284 Pls
3828 284 Pls
3829 284 Pls
3829 284 Pls
3829 284 Pls
3829 284 Pls
3830 284 Pls
3830 284 Pls
3830 284 Pls
3830 284 Pls
3831 284 Pls
3831 284 Pls
3831 284 Pls
3832 284 Pls
3832 284 Pls
3832 284 Pls
3833 284 Pls
3833 284 Pls
3834 284 Pls
3834 284 Pls
3834 284 Pls
3835 284 Pls
3835 284 Pls
3836 284 Pls
3837 284 Pls
3838 284 Pls
3838 284 Pls
3838 284 Pls
3839 284 Pls
3840 284 Pls
3840 284 Pls
3841 284 Pls
3841 284 Pls
3842 284 Pls
3842 284 Pls
3843 284 Pls
3843 284 Pls
3843 284 Pls
3844 284 Pls
3844 284 Pls
3844 284 Pls
3844 284 Pls
3845 284 Pls
3845 284 Pls
3845 284 Pls
3846 284 Pls
3846 284 Pls
3847 284 Pls
3847 284 Pls
3848 284 Pls
3849 284 Pls
3849 284 Pls
3850 284 Pls
3851 284 Pls
3851 284 Pls
3851 284 Pls
3852 284 Pls
3852 284 Pls
3852 284 Pls
3853 284 Pls
3853 284 Pls
3854 284 Pls
3854 284 Pls
3854 284 Pls
3854 284 Pls
3854 284 Pls
3855 284 Pls
3855 284 Pls
3855 284 Pls
3855 284 Pls
3856 284 Pls
3856 284 Pls
3856 284 Pls
3857 284 Pls
3858 284 Pls
3859 284 Pls
3859 284 Pls
3860 284 Pls
3860 284 Pls
3861 284 Pls
3861 284 Pls
3861 284 Pls
3863 284 Pls
3863 284 Pls
3864 284 Pls
3864 284 Pls
3864 284 Pls
3865 284 Pls
3865 284 Pls
3866 284 Pls
3866 284 Pls
3866 284 Pls
3866 284 Pls
3867 284 Pls
3867 284 Pls
3867 284 Pls
3867 284 Pls
3867 284 Pls
3868 284 Pls
3868 284 Pls
3869 284 Pls
3869 284 Pls
3870 284 Pls
3870 284 Pls
3870 284 Pls
3871 284 Pls
3872 284 Pls
3872 284 Pls
3872 284 Pls
3872 284 Pls
3874 284 Pls
3875 284 Pls
3876 284 Pls
3877 284 Pls
3877 284 Pls
3877 284 Pls
3878 284 Pls
3878 284 Pls
3878 284 Pls
3879 284 Pls
3879 284 Pls
3879 284 Pls
3880 284 Pls
3880 284 Pls
3881 284 Pls
3881 284 Pls
3881 284 Pls
3882 284 Pls
3882 284 Pls
3884 284 Pls
3884 284 Pls
3884 284 Pls
3884 284 Pls
3885 284 Pls
3885 284 Pls
3886 284 Pls
3886 284 Pls
3887 284 Pls
3887 284 Pls
3887 284 Pls
3887 284 Pls
3888 284 Pls
3888 284 Pls
3888 284 Pls
3888 284 Pls
3889 284 Pls
3889 284 Pls
3890 284 Pls
3890 284 Pls
3890 284 Pls
3890 284 Pls
3890 284 Pls
3891 284 Pls
3891 284 Pls
3892 284 Pls
3892 284 Pls
3893 284 Pls
3894 284 Pls
3894 284 Pls
3895 284 Pls
3895 284 Pls
3895 284 Pls
3896 284 Pls
3896 284 Pls
3896 284 Pls
3897 284 Pls
3897 284 Pls
3898 284 Pls
3898 284 Pls
3898 284 Pls
3899 284 Pls
3899 284 Pls
3900 284 Pls
3900 284 Pls
3901 284 Pls
3901 284 Pls
3901 284 Pls
3901 284 Pls
3903 284 Pls
3903 284 Pls
3903 284 Pls
3905 284 Pls
3905 284 Pls
3906 284 Pls
3908 284 Pls
3908 284 Pls
3909 284 Pls
3910 284 Pls
3910 284 Pls
3911 284 Pls
3911 284 Pls
3911 284 Pls
3911 284 Pls
3911 284 Pls
3912 284 Pls
3912 284 Pls
3913 284 Pls
3913 284 Pls
3913 284 Pls
3913 284 Pls
3914 284 Pls
3914 284 Pls
3914 284 Pls
3915 284 Pls
3916 284 Pls
3916 284 Pls
3916 284 Pls
3916 284 Pls
3917 284 Pls
3917 284 Pls
3917 284 Pls
3918 284 Pls
3918 284 Pls
3918 284 Pls
3920 284 Pls
3920 284 Pls
3921 284 Pls
3921 284 Pls
3921 284 Pls
3923 284 Pls
3923 284 Pls
3924 284 Pls
3924 284 Pls
3924 284 Pls
3925 284 Pls
3925 284 Pls
3925 284 Pls
3925 284 Pls
3925 284 Pls
3925 284 Pls
3926 284 Pls
3926 284 Pls
3927 284 Pls
3927 284 Pls
3927 284 Pls
3928 284 Pls
3928 284 Pls
3929 284 Pls
3930 284 Pls
3930 284 Pls
3931 284 Pls
3932 284 Pls
3932 284 Pls
3933 284 Pls
3933 284 Pls
3934 284 Pls
3934 284 Pls
3935 284 Pls
3935 284 Pls
3935 284 Pls
3936 284 Pls
3936 284 Pls
3936 284 Pls
3936 284 Pls
3936 284 Pls
3936 284 Pls
3937 284 Pls
3938 284 Pls
3938 284 Pls
3938 284 Pls
3939 284 Pls
3939 284 Pls
3939 284 Pls
3940 284 Pls
3940 284 Pls
3940 284 Pls
3941 284 Pls
3941 284 Pls
3942 284 Pls
3942 284 Pls
3942 284 Pls
3942 284 Pls
3942 284 Pls
3942 284 Pls
3942 284 Pls
3942 284 Pls
3943 284 Pls
3943 284 Pls
3943 284 Pls
3943 284 Pls
3943 284 Pls
3945 284 Pls
3946 284 Pls
3946 284 Pls
3946 284 Pls
3946 284 Pls
3947 284 Pls
3947 284 Pls
3948 284 Pls
3948 284 Pls
3949 284 Pls
3949 284 Pls
3950 284 Pls
3950 284 Pls
3951 284 Pls
3951 284 Pls
3951 284 Pls
3952 284 Pls
3952 284 Pls
3954 284 Pls
3954 284 Pls
3955 284 Pls
3956 284 Pls
3956 284 Pls
3956 284 Pls
3956 284 Pls
3957 284 Pls
3957 284 Pls
3957 284 Pls
3957 284 Pls
3958 284 Pls
3958 284 Pls
3959 284 Pls
3960 284 Pls
3961 284 Pls
3963 284 Pls
3963 284 Pls
3963 284 Pls
3964 284 Pls
3964 284 Pls
3964 284 Pls
3965 284 Pls
3965 284 Pls
3965 284 Pls
3966 284 Pls
3966 284 Pls
3968 284 Pls
3969 284 Pls
3969 284 Pls
3969 284 Pls
3969 284 Pls
3970 284 Pls
3971 284 Pls
3971 284 Pls
3971 284 Pls
3972 284 Pls
3972 284 Pls
3973 284 Pls
3973 284 Pls
3974 284 Pls
3974 284 Pls
3975 284 Pls
3976 284 Pls
3976 284 Pls
3976 284 Pls
3977 284 Pls
3977 284 Pls
3978 284 Pls
3980 284 Pls
3980 284 Pls
3980 284 Pls
3981 284 Pls
3983 284 Pls
3983 284 Pls
3983 284 Pls
3984 284 Pls
3984 284 Pls
3984 284 Pls
3985 284 Pls
3985 284 Pls
3985 284 Pls
3986 284 Pls
3986 284 Pls
3986 284 Pls
3988 284 Pls
3988 284 Pls
3989 284 Pls
3989 284 Pls
3990 284 Pls
3991 284 Pls
3992 284 Pls
3992 284 Pls
3992 284 Pls
3992 283 Pls
3994 283 Pls
3995 283 Pls
3996 283 Pls
3996 283 Pls
3996 283 Pls
3997 283 Pls
3997 283 Pls
3997 283 Pls
3999 283 Pls
4000 283 Pls
4000 283 Pls
4001 283 Pls
4001 283 Pls
4001 283 Pls
4002 283 Pls
4002 283 Pls
4002 283 Pls
4003 283 Pls
4003 283 Pls
4003 283 Pls
4003 283 Pls
4004 283 Pls
4004 283 Pls
4005 283 Pls
4005 283 Pls
4007 283 Pls
4008 283 Pls
4008 283 Pls
4008 283 Pls
4008 283 Pls
4008 283 Pls
4009 283 Pls
4009 283 Pls
4009 283 Pls
4009 283 Pls
4009 283 Pls
4010 283 Pls
4010 283 Pls
4010 283 Pls
4010 283 Pls
4010 283 Pls
4011 283 Pls
4012 283 Pls
4012 283 Pls
4012 283 Pls
4013 283 Pls
4013 283 Pls
4013 283 Pls
4014 283 Pls
4014 283 Pls
4015 283 Pls
4017 283 Pls
4017 283 Pls
4018 283 Pls
4019 283 Pls
4020 283 Pls
4021 283 Pls
4021 283 Pls
4021 283 Pls
4022 283 Pls
4023 283 Pls
4023 283 Pls
4023 283 Pls
4024 283 Pls
4024 283 Pls
4025 283 Pls
4025 283 Pls
4025 283 Pls
4026 283 Pls
4026 283 Pls
4026 283 Pls
4028 283 Pls
4028 283 Pls
4029 283 Pls
4029 283 Pls
4029 283 Pls
4029 283 Pls
4030 283 Pls
4031 283 Pls
4031 283 Pls
4031 283 Pls
4031 283 Pls
4032 283 Pls
4032 283 Pls
4032 283 Pls
4032 283 Pls
4033 283 Pls
4033 283 Pls
4036 283 Pls
4036 283 Pls
4036 283 Pls
4037 283 Pls
4037 283 Pls
4038 283 Pls
4039 283 Pls
4039 283 Pls
4040 283 Pls
4040 283 Pls
4040 283 Pls
4041 283 Pls
4042 283 Pls
4043 283 Pls
4043 283 Pls
4044 283 Pls
4044 283 Pls
4044 283 Pls
4045 283 Pls
4045 283 Pls
4046 283 Pls
4047 283 Pls
4047 283 Pls
4047 283 Pls
4048 283 Pls
4048 283 Pls
4048 283 Pls
4049 283 Pls
4049 283 Pls
4049 283 Pls
4049 283 Pls
4050 283 Pls
4050 283 Pls
4050 283 Pls
4051 283 Pls
4051 283 Pls
4051 283 Pls
4052 283 Pls
4052 283 Pls
4053 283 Pls
4054 283 Pls
4054 283 Pls
4055 283 Pls
4056 283 Pls
4057 283 Pls
4057 283 Pls
4058 283 Pls
4059 283 Pls
4059 283 Pls
4059 283 Pls
4059 283 Pls
4060 283 Pls
4060 283 Pls
4063 283 Pls
4064 283 Pls
4066 283 Pls
4066 283 Pls
4069 283 Pls
4070 283 Pls
4071 283 Pls
4071 283 Pls
4072 283 Pls
4073 283 Pls
4073 283 Pls
4073 283 Pls
4074 283 Pls
4074 283 Pls
4074 283 Pls
4075 283 Pls
4076 283 Pls
4076 283 Pls
4076 283 Pls
4076 283 Pls
4077 283 Pls
4077 283 Pls
4077 283 Pls
4077 283 Pls
4077 283 Pls
4077 283 Pls
4078 283 Pls
4079 283 Pls
4079 283 Pls
4079 283 Pls
4080 283 Pls
4080 283 Pls
4080 283 Pls
4080 283 Pls
4080 283 Pls
4080 283 Pls
4081 283 Pls
4082 283 Pls
4082 283 Pls
4082 283 Pls
4082 283 Pls
4083 283 Pls
4084 283 Pls
4084 283 Pls
4084 283 Pls
4084 283 Pls
4084 283 Pls
4085 283 Pls
4085 283 Pls
4085 283 Pls
4085 283 Pls
4086 283 Pls
4086 283 Pls
4087 283 Pls
4087 283 Pls
4087 283 Pls
4088 283 Pls
4088 283 Pls
4088 283 Pls
4089 283 Pls
4089 283 Pls
4089 283 Pls
4089 283 Pls
4090 283 Pls
4090 283 Pls
4091 283 Pls
4092 283 Pls
4092 283 Pls
4092 283 Pls
4093 283 Pls
4094 283 Pls
4094 283 Pls
4094 283 Pls
4095 283 Pls
4095 283 Pls
4095 283 Pls
4095 283 Pls
4096 283 Pls
4096 283 Pls
4096 283 Pls
4096 283 Pls
4097 283 Pls
4097 283 Pls
4098 283 Pls
4098 283 Pls
4098 283 Pls
4098 283 Pls
4099 283 Pls
4101 283 Pls
4101 283 Pls
4101 283 Pls
4103 283 Pls
4103 283 Pls
4103 283 Pls
4104 283 Pls
4104 283 Pls
4104 283 Pls
4105 283 Pls
4106 283 Pls
4108 283 Pls
4108 283 Pls
4109 283 Pls
4109 283 Pls
4111 283 Pls
4111 283 Pls
4113 283 Pls
4113 283 Pls
4114 283 Pls
4114 283 Pls
4114 283 Pls
4115 283 Pls
4116 283 Pls
4116 283 Pls
4116 283 Pls
4117 283 Pls
4118 283 Pls
4119 283 Pls
4124 283 Pls
4125 283 Pls
4126 283 Pls
4126 283 Pls
4126 283 Pls
4126 283 Pls
4127 283 Pls
4127 283 Pls
4127 283 Pls
4127 283 Pls
4128 283 Pls
4128 283 Pls
4128 283 Pls
4129 283 Pls
4129 283 Pls
4129 283 Pls
4129 283 Pls
4130 283 Pls
4131 283 Pls
4131 283 Pls
4131 283 Pls
4131 283 Pls
4133 283 Pls
4133 283 Pls
4134 283 Pls
4134 283 Pls
4134 283 Pls
4134 283 Pls
4135 283 Pls
4135 283 Pls
4135 283 Pls
4136 283 Pls
4136 283 Pls
4136 283 Pls
4136 283 Pls
4137 283 Pls
4137 283 Pls
4138 283 Pls
4139 283 Pls
4139 283 Pls
4141 283 Pls
4141 283 Pls
4141 283 Pls
4141 283 Pls
4142 283 Pls
4142 283 Pls
4142 283 Pls
4142 283 Pls
4142 283 Pls
4143 283 Pls
4143 283 Pls
4144 283 Pls
4144 283 Pls
4145 283 Pls
4146 283 Pls
4148 283 Pls
4148 283 Pls
4149 283 Pls
4151 283 Pls
4151 283 Pls
4151 283 Pls
4151 283 Pls
4153 283 Pls
4153 283 Pls
4153 283 Pls
4153 283 Pls
4154 283 Pls
4154 283 Pls
4155 283 Pls
4155 283 Pls
4155 283 Pls
4156 283 Pls
4157 283 Pls
4157 283 Pls
4158 283 Pls
4158 283 Pls
4159 283 Pls
4160 283 Pls
4160 283 Pls
4160 283 Pls
4160 283 Pls
4160 283 Pls
4160 283 Pls
4161 283 Pls
4161 283 Pls
4163 283 Pls
4164 283 Pls
4165 283 Pls
4166 283 Pls
4166 283 Pls
4166 283 Pls
4167 283 Pls
4171 283 Pls
4171 283 Pls
4171 283 Pls
4171 283 Pls
4172 283 Pls
4172 283 Pls
4172 283 Pls
4172 283 Pls
4174 283 Pls
4174 283 Pls
4174 283 Pls
4175 283 Pls
4176 283 Pls
4176 283 Pls
4177 283 Pls
4179 283 Pls
4179 283 Pls
4180 283 Pls
4182 283 Pls
4182 283 Pls
4182 283 Pls
4182 283 Pls
4183 283 Pls
4184 283 Pls
4185 283 Pls
4187 283 Pls
4187 283 Pls
4187 283 Pls
4187 283 Pls
4187 283 Pls
4187 283 Pls
4188 283 Pls
4188 283 Pls
4188 283 Pls
4188 283 Pls
4189 283 Pls
4189 283 Pls
4190 283 Pls
4190 283 Pls
4190 283 Pls
4191 283 Pls
4192 283 Pls
4193 283 Pls
4194 283 Pls
4195 283 Pls
4196 283 Pls
4196 283 Pls
4197 283 Pls
4198 283 Pls
4198 283 Pls
4198 283 Pls
4199 283 Pls
4199 283 Pls
4199 283 Pls
4200 283 Pls
4200 283 Pls
4202 283 Pls
4203 283 Pls
4204 283 Pls
4204 283 Pls
4205 283 Pls
4205 283 Pls
4206 283 Pls
4206 283 Pls
4207 283 Pls
4208 283 Pls
4208 283 Pls
4208 283 Pls
4209 283 Pls
4210 283 Pls
4210 283 Pls
4211 283 Pls
4211 283 Pls
4211 283 Pls
4212 283 Pls
4213 283 Pls
4213 283 Pls
4214 283 Pls
4214 283 Pls
4214 283 Pls
4214 283 Pls
4215 283 Pls
4216 282 Pls
4217 282 Pls
4218 282 Pls
4220 282 Pls
4220 282 Pls
4222 282 Pls
4223 282 Pls
4223 282 Pls
4225 282 Pls
4225 282 Pls
4225 282 Pls
4225 282 Pls
4226 282 Pls
4227 282 Pls
4228 282 Pls
4228 282 Pls
4228 282 Pls
4230 282 Pls
4231 282 Pls
4232 282 Pls
4232 282 Pls
4233 282 Pls
4233 282 Pls
4233 282 Pls
4234 282 Pls
4234 282 Pls
4234 282 Pls
4234 282 Pls
4234 282 Pls
4235 282 Pls
4235 282 Pls
4235 282 Pls
4236 282 Pls
4237 282 Pls
4238 282 Pls
4238 282 Pls
4238 282 Pls
4238 282 Pls
4239 282 Pls
4240 282 Pls
4241 282 Pls
4241 282 Pls
4242 282 Pls
4242 282 Pls
4243 282 Pls
4243 282 Pls
4243 282 Pls
4243 282 Pls
4244 282 Pls
4244 282 Pls
4244 282 Pls
4244 282 Pls
4245 282 Pls
4246 282 Pls
4247 282 Pls
4247 282 Pls
4247 282 Pls
4247 282 Pls
4249 282 Pls
4249 282 Pls
4251 282 Pls
4252 282 Pls
4252 282 Pls
4252 282 Pls
4253 282 Pls
4253 282 Pls
4253 282 Pls
4255 282 Pls
4255 282 Pls
4256 282 Pls
4257 282 Pls
4258 282 Pls
4258 282 Pls
4259 282 Pls
4260 282 Pls
4260 282 Pls
4260 282 Pls
4261 282 Pls
4261 282 Pls
4262 282 Pls
4262 282 Pls
4262 282 Pls
4264 282 Pls
4264 282 Pls
4266 282 Pls
4267 282 Pls
4267 282 Pls
4268 282 Pls
4268 282 Pls
4269 282 Pls
4269 282 Pls
4270 282 Pls
4271 282 Pls
4272 282 Pls
4272 282 Pls
4273 282 Pls
4274 282 Pls
4274 282 Pls
4275 282 Pls
4275 282 Pls
4276 282 Pls
4276 282 Pls
4276 282 Pls
4278 282 Pls
4278 282 Pls
4278 282 Pls
4279 282 Pls
4279 282 Pls
4279 282 Pls
4280 282 Pls
4280 282 Pls
4281 282 Pls
4281 282 Pls
4282 282 Pls
4283 282 Pls
4283 282 Pls
4283 282 Pls
4285 282 Pls
4286 282 Pls
4286 282 Pls
4286 282 Pls
4286 282 Pls
4286 282 Pls
4287 282 Pls
4287 282 Pls
4287 282 Pls
4288 282 Pls
4288 282 Pls
4288 282 Pls
4290 282 Pls
4290 282 Pls
4292 282 Pls
4292 282 Pls
4293 282 Pls
4293 282 Pls
4293 282 Pls
4293 282 Pls
4294 282 Pls
4294 282 Pls
4295 282 Pls
4295 282 Pls
4297 282 Pls
4297 282 Pls
4297 282 Pls
4298 282 Pls
4299 282 Pls
4299 282 Pls
4299 282 Pls
4299 282 Pls
4300 282 Pls
4300 282 Pls
4301 282 Pls
4302 282 Pls
4302 282 Pls
4302 282 Pls
4302 282 Pls
4303 282 Pls
4303 282 Pls
4304 282 Pls
4305 282 Pls
4305 282 Pls
4305 282 Pls
4305 282 Pls
4305 282 Pls
4305 282 Pls
4305 282 Pls
4306 282 Pls
4306 282 Pls
4308 282 Pls
4308 282 Pls
4309 282 Pls
4309 282 Pls
4309 282 Pls
4309 282 Pls
4310 282 Pls
4311 282 Pls
4311 282 Pls
4312 282 Pls
4312 282 Pls
4312 282 Pls
4312 282 Pls
4313 282 Pls
4313 282 Pls
4313 282 Pls
4314 282 Pls
4315 282 Pls
4315 282 Pls
4316 282 Pls
4316 282 Pls
4316 282 Pls
4317 282 Pls
4317 282 Pls
4317 282 Pls
4317 282 Pls
4318 282 Pls
4318 282 Pls
4319 282 Pls
4319 282 Pls
4320 282 Pls
4320 282 Pls
4321 282 Pls
4321 282 Pls
4321 282 Pls
4321 282 Pls
4321 282 Pls
4322 282 Pls
4322 282 Pls
4324 282 Pls
4324 282 Pls
4324 282 Pls
4325 282 Pls
4325 282 Pls
4326 282 Pls
4326 282 Pls
4326 282 Pls
4326 282 Pls
4327 282 Pls
4328 282 Pls
4328 282 Pls
4328 282 Pls
4329 282 Pls
4329 282 Pls
4330 282 Pls
4330 282 Pls
4330 282 Pls
4330 282 Pls
4331 282 Pls
4332 282 Pls
4332 282 Pls
4332 282 Pls
4332 282 Pls
4332 282 Pls
4333 282 Pls
4333 282 Pls
4334 282 Pls
4334 282 Pls
4335 282 Pls
4335 282 Pls
4338 282 Pls
4338 282 Pls
4338 282 Pls
4339 282 Pls
4339 282 Pls
4340 282 Pls
4341 282 Pls
4341 282 Pls
4341 282 Pls
4342 282 Pls
4342 282 Pls
4343 282 Pls
4343 282 Pls
4344 282 Pls
4345 282 Pls
4346 282 Pls
4347 282 Pls
4347 282 Pls
4347 282 Pls
4348 282 Pls
4351 282 Pls
4352 282 Pls
4354 282 Pls
4354 282 Pls
4354 282 Pls
4355 282 Pls
4355 282 Pls
4356 282 Pls
4357 282 Pls
4358 282 Pls
4358 282 Pls
4358 282 Pls
4359 282 Pls
4359 282 Pls
4360 282 Pls
4360 282 Pls
4360 282 Pls
4360 282 Pls
4361 282 Pls
4361 282 Pls
4361 282 Pls
4362 282 Pls
4362 282 Pls
4362 282 Pls
4363 282 Pls
4363 282 Pls
4364 282 Pls
4364 282 Pls
4365 282 Pls
4365 282 Pls
4366 282 Pls
4366 282 Pls
4366 282 Pls
4367 282 Pls
4368 282 Pls
4369 282 Pls
4370 282 Pls
4370 282 Pls
4370 282 Pls
4371 282 Pls
4372 282 Pls
4372 282 Pls
4372 282 Pls
4373 282 Pls
4373 282 Pls
4375 282 Pls
4376 282 Pls
4377 282 Pls
4380 282 Pls
4383 282 Pls
4383 282 Pls
4384 282 Pls
4384 282 Pls
4384 282 Pls
4385 282 Pls
4386 282 Pls
4388 282 Pls
4389 282 Pls
4393 282 Pls
4394 282 Pls
4394 282 Pls
4395 282 Pls
4395 282 Pls
4396 282 Pls
4397 282 Pls
4397 282 Pls
4397 282 Pls
4399 282 Pls
4400 282 Pls
4401 282 Pls
4401 282 Pls
4402 282 Pls
4402 282 Pls
4402 282 Pls
4402 282 Pls
4403 282 Pls
4403 282 Pls
4403 282 Pls
4406 282 Pls
4406 282 Pls
4407 282 Pls
4407 282 Pls
4411 282 Pls
4412 282 Pls
4412 282 Pls
4413 282 Pls
4414 282 Pls
4414 282 Pls
4414 282 Pls
4415 282 Pls
4416 282 Pls
4416 282 Pls
4417 282 Pls
4417 282 Pls
4417 282 Pls
4417 282 Pls
4417 282 Pls
4417 282 Pls
4418 282 Pls
4418 282 Pls
4418 282 Pls
4418 282 Pls
4419 282 Pls
4420 282 Pls
4421 282 Pls
4422 282 Pls
4422 282 Pls
4423 282 Pls
4423 282 Pls
4424 282 Pls
4425 282 Pls
4426 282 Pls
4427 282 Pls
4427 282 Pls
4427 282 Pls
4429 282 Pls
4430 282 Pls
4431 282 Pls
4431 282 Pls
4431 282 Pls
4431 282 Pls
4431 282 Pls
4431 282 Pls
4432 282 Pls
4433 282 Pls
4434 282 Pls
4434 282 Pls
4435 282 Pls
4436 282 Pls
4437 282 Pls
4439 282 Pls
4439 282 Pls
4440 282 Pls
4440 282 Pls
4443 282 Pls
4443 282 Pls
4445 282 Pls
4445 282 Pls
4447 282 Pls
4448 282 Pls
4449 282 Pls
4451 282 Pls
4451 282 Pls
4451 282 Pls
4452 282 Pls
4452 282 Pls
4452 282 Pls
4453 282 Pls
4453 282 Pls
4453 282 Pls
4453 282 Pls
4453 282 Pls
4454 282 Pls
4455 282 Pls
4455 282 Pls
4457 282 Pls
4457 282 Pls
4458 282 Pls
4458 282 Pls
4459 282 Pls
4459 282 Pls
4459 282 Pls
4460 282 Pls
4460 282 Pls
4460 282 Pls
4461 282 Pls
4461 282 Pls
4462 282 Pls
4462 282 Pls
4462 282 Pls
4463 282 Pls
4463 282 Pls
4463 282 Pls
4463 282 Pls
4463 282 Pls
4464 282 Pls
4465 282 Pls
4466 282 Pls
4467 282 Pls
4467 282 Pls
4468 282 Pls
4469 282 Pls
4469 282 Pls
4469 282 Pls
4471 282 Pls
4472 282 Pls
4472 282 Pls
4473 282 Pls
4473 282 Pls
4474 282 Pls
4474 282 Pls
4474 282 Pls
4474 282 Pls
4475 282 Pls
4475 282 Pls
4475 281 Pls
4476 281 Pls
4476 281 Pls
4477 281 Pls
4478 281 Pls
4478 281 Pls
4479 281 Pls
4479 281 Pls
4481 281 Pls
4482 281 Pls
4484 281 Pls
4484 281 Pls
4485 281 Pls
4487 281 Pls
4489 281 Pls
4491 281 Pls
4491 281 Pls
4492 281 Pls
4492 281 Pls
4493 281 Pls
4494 281 Pls
4494 281 Pls
4494 281 Pls
4495 281 Pls
4496 281 Pls
4498 281 Pls
4499 281 Pls
4502 281 Pls
4502 281 Pls
4502 281 Pls
4503 281 Pls
4504 281 Pls
4505 281 Pls
4506 281 Pls
4506 281 Pls
4506 281 Pls
4506 281 Pls
4507 281 Pls
4508 281 Pls
4509 281 Pls
4510 281 Pls
4512 281 Pls
4513 281 Pls
4513 281 Pls
4514 281 Pls
4514 281 Pls
4515 281 Pls
4515 281 Pls
4515 281 Pls
4516 281 Pls
4517 281 Pls
4518 281 Pls
4522 281 Pls
4524 281 Pls
4524 281 Pls
4524 281 Pls
4525 281 Pls
4525 281 Pls
4526 281 Pls
4526 281 Pls
4527 281 Pls
4527 281 Pls
4527 281 Pls
4528 281 Pls
4529 281 Pls
4529 281 Pls
4530 281 Pls
4530 281 Pls
4531 281 Pls
4532 281 Pls
4534 281 Pls
4536 281 Pls
4537 281 Pls
4538 281 Pls
4538 281 Pls
4541 281 Pls
4542 281 Pls
4542 281 Pls
4542 281 Pls
4542 281 Pls
4542 281 Pls
4543 281 Pls
4543 281 Pls
4543 281 Pls
4543 281 Pls
4544 281 Pls
4544 281 Pls
4544 281 Pls
4544 281 Pls
4544 281 Pls
4544 281 Pls
4545 281 Pls
4545 281 Pls
4545 281 Pls
4545 281 Pls
4545 281 Pls
4546 281 Pls
4546 281 Pls
4546 281 Pls
4547 281 Pls
4547 281 Pls
4547 281 Pls
4547 281 Pls
4547 281 Pls
4547 281 Pls
4547 281 Pls
4548 281 Pls
4548 281 Pls
4548 281 Pls
4548 281 Pls
4548 281 Pls
4548 281 Pls
4548 281 Pls
4549 281 Pls
4549 281 Pls
4549 281 Pls
4549 281 Pls
4550 281 Pls
4550 281 Pls
4550 281 Pls
4550 281 Pls
4551 281 Pls
4551 281 Pls
4551 281 Pls
4551 281 Pls
4551 281 Pls
4552 281 Pls
4552 281 Pls
4552 281 Pls
4552 281 Pls
4552 281 Pls
4552 281 Pls
4552 281 Pls
4552 281 Pls
4552 281 Pls
4553 281 Pls
4553 281 Pls
4553 281 Pls
4553 281 Pls
4553 281 Pls
4553 281 Pls
4554 281 Pls
4554 281 Pls
4554 281 Pls
4554 281 Pls
4554 281 Pls
4554 281 Pls
4555 281 Pls
4555 281 Pls
4555 281 Pls
4555 281 Pls
4555 281 Pls
4555 281 Pls
4555 281 Pls
4555 281 Pls
4555 281 Pls
4555 281 Pls
4555 281 Pls
4556 281 Pls
4556 281 Pls
4556 281 Pls
4556 281 Pls
4556 281 Pls
4556 281 Pls
4556 281 Pls
4556 281 Pls
4557 281 Pls
4557 281 Pls
4557 281 Pls
4557 281 Pls
4557 281 Pls
4557 281 Pls
4557 281 Pls
4557 281 Pls
4558 281 Pls
4558 281 Pls
4558 281 Pls
4558 281 Pls
4558 281 Pls
4558 281 Pls
4558 281 Pls
4559 281 Pls
4559 281 Pls
4559 281 Pls
4560 281 Pls
4560 281 Pls
4560 281 Pls
4560 281 Pls
4560 281 Pls
4561 281 Pls
4561 281 Pls
4561 281 Pls
4561 281 Pls
4561 281 Pls
4561 281 Pls
4561 281 Pls
4561 281 Pls
4562 281 Pls
4562 281 Pls
4562 281 Pls
4563 281 Pls
4563 281 Pls
4563 281 Pls
4564 281 Pls
4564 281 Pls
4564 281 Pls
4564 281 Pls
4564 281 Pls
4564 281 Pls
4564 281 Pls
4565 281 Pls
4565 281 Pls
4565 281 Pls
4566 281 Pls
4566 281 Pls
4567 281 Pls
4567 281 Pls
4567 281 Pls
4567 281 Pls
4567 281 Pls
4567 281 Pls
4568 281 Pls
4568 281 Pls
4568 281 Pls
4568 281 Pls
4568 281 Pls
4568 281 Pls
4569 281 Pls
4569 281 Pls
4569 281 Pls
4569 281 Pls
4569 281 Pls
4569 281 Pls
4570 281 Pls
4570 281 Pls
4570 281 Pls
4570 281 Pls
4572 281 Pls
4572 281 Pls
4572 281 Pls
4572 281 Pls
4572 281 Pls
4572 281 Pls
4572 281 Pls
4572 281 Pls
4572 281 Pls
4572 281 Pls
4572 281 Pls
4573 281 Pls
4573 281 Pls
4573 281 Pls
4573 281 Pls
4574 281 Pls
4574 281 Pls
4574 281 Pls
4575 281 Pls
4576 281 Pls
4576 281 Pls
4577 281 Pls
4578 281 Pls
4578 281 Pls
4579 281 Pls
4581 281 Pls
4581 281 Pls
4582 281 Pls
4582 281 Pls
4583 281 Pls
4583 281 Pls
4585 281 Pls
4586 281 Pls
4586 281 Pls
4586 281 Pls
4586 281 Pls
4588 281 Pls
4588 281 Pls
4588 281 Pls
4588 281 Pls
4589 281 Pls
4590 281 Pls
4593 281 Pls
4593 281 Pls
4593 281 Pls
4594 281 Pls
4594 281 Pls
4595 281 Pls
4595 281 Pls
4596 281 Pls
4596 281 Pls
4596 281 Pls
4597 281 Pls
4598 281 Pls
4601 281 Pls
4601 281 Pls
4603 281 Pls
4603 281 Pls
4604 281 Pls
4604 281 Pls
4605 281 Pls
4605 281 Pls
4605 281 Pls
4605 281 Pls
4606 281 Pls
4606 281 Pls
4609 281 Pls
4610 281 Pls
4611 281 Pls
4611 281 Pls
4612 281 Pls
4612 281 Pls
4612 281 Pls
4613 281 Pls
4614 281 Pls
4617 281 Pls
4617 281 Pls
4619 281 Pls
4622 281 Pls
4623 281 Pls
4625 281 Pls
4626 281 Pls
4628 281 Pls
4628 281 Pls
4628 281 Pls
4629 281 Pls
4630 281 Pls
4631 281 Pls
4632 281 Pls
4633 281 Pls
4633 281 Pls
4637 281 Pls
4638 281 Pls
4638 281 Pls
4639 281 Pls
4642 281 Pls
4644 281 Pls
4645 281 Pls
4645 281 Pls
4645 281 Pls
4647 281 Pls
4648 281 Pls
4649 281 Pls
4649 281 Pls
4649 281 Pls
4653 281 Pls
4653 281 Pls
4654 281 Pls
4656 281 Pls
4659 281 Pls
4660 281 Pls
4660 281 Pls
4661 281 Pls
4661 281 Pls
4661 281 Pls
4662 281 Pls
4662 281 Pls
4663 281 Pls
4664 281 Pls
4669 281 Pls
4673 281 Pls
4675 281 Pls
4678 281 Pls
4680 281 Pls
4684 281 Pls
4685 281 Pls
4685 281 Pls
4687 281 Pls
4689 281 Pls
4689 281 Pls
4689 281 Pls
4689 281 Pls
4690 281 Pls
4691 281 Pls
4691 281 Pls
4694 281 Pls
4695 281 Pls
4697 281 Pls
4698 281 Pls
4700 281 Pls
4701 281 Pls
4702 281 Pls
4702 281 Pls
4703 281 Pls
4705 281 Pls
4707 281 Pls
4709 281 Pls
4710 281 Pls
4712 281 Pls
4713 281 Pls
4714 281 Pls
4714 281 Pls
4720 281 Pls
4720 281 Pls
4721 281 Pls
4721 281 Pls
4722 281 Pls
4723 281 Pls
4723 281 Pls
4723 281 Pls
4725 281 Pls
4727 281 Pls
4734 281 Pls
4735 281 Pls
4736 281 Pls
4736 281 Pls
4739 281 Pls
4740 281 Pls
4741 281 Pls
4743 281 Pls
4746 281 Pls
4751 281 Pls
4753 281 Pls
4753 281 Pls
4756 281 Pls
4756 281 Pls
4757 281 Pls
4763 281 Pls
4763 281 Pls
4764 281 Pls
4765 281 Pls
4766 281 Pls
4768 281 Pls
4769 281 Pls
4769 281 Pls
4770 281 Pls
4774 281 Pls
4774 281 Pls
4777 281 Pls
4778 281 Pls
4781 281 Pls
4782 281 Pls
4784 281 Pls
4786 281 Pls
4788 281 Pls
4788 281 Pls
4788 281 Pls
4789 281 Pls
4789 281 Pls
4792 281 Pls
4794 281 Pls
4794 281 Pls
4795 281 Pls
4796 281 Pls
4797 281 Pls
4798 281 Pls
4800 281 Pls
4800 281 Pls
4800 281 Pls
4801 281 Pls
4802 281 Pls
4803 281 Pls
4805 281 Pls
4808 281 Pls
4809 281 Pls
4810 281 Pls
4810 280 Pls
4814 280 Pls
4818 280 Pls
4820 280 Pls
4823 280 Pls
4823 280 Pls
4823 280 Pls
4824 280 Pls
4825 280 Pls
4830 280 Pls
4833 280 Pls
4834 280 Pls
4834 280 Pls
4834 280 Pls
4837 280 Pls
4838 280 Pls
4839 280 Pls
4840 280 Pls
4840 280 Pls
4842 280 Pls
4844 280 Pls
4850 280 Pls
4853 280 Pls
4855 280 Pls
4855 280 Pls
4859 280 Pls
4859 280 Pls
4860 280 Pls
4861 280 Pls
4863 280 Pls
4865 280 Pls
4868 280 Pls
4870 280 Pls
4874 280 Pls
4875 280 Pls
4875 280 Pls
4876 280 Pls
4876 280 Pls
4876 280 Pls
4878 280 Pls
4879 280 Pls
4879 280 Pls
4881 280 Pls
4881 280 Pls
4882 280 Pls
4883 280 Pls
4885 280 Pls
4891 280 Pls
4892 280 Pls
4896 280 Pls
4897 280 Pls
4901 280 Pls
4904 280 Pls
4904 280 Pls
4905 280 Pls
4907 280 Pls
4910 280 Pls
4911 280 Pls
4912 280 Pls
4915 280 Pls
4916 280 Pls
4917 280 Pls
4917 280 Pls
4919 280 Pls
4919 280 Pls
4921 280 Pls
4927 280 Pls
4927 280 Pls
4933 280 Pls
4936 280 Pls
4937 280 Pls
4938 280 Pls
4939 280 Pls
4940 280 Pls
4946 280 Pls
4954 280 Pls
4957 280 Pls
4960 280 Pls
4967 280 Pls
4974 280 Pls
4975 280 Pls
4977 280 Pls
4978 280 Pls
4985 280 Pls
4988 280 Pls
4988 280 Pls
4990 280 Pls
4999 280 Pls
5000 280 Pls
5000 280 Pls
5000 280 Pls
5002 280 Pls
5006 280 Pls
5007 280 Pls
5013 280 Pls
5017 280 Pls
5019 280 Pls
5024 280 Pls
5030 280 Pls
5033 280 Pls
5035 280 Pls
5039 280 Pls
5039 280 Pls
5043 280 Pls
5044 280 Pls
5046 280 Pls
5046 280 Pls
5049 280 Pls
5051 280 Pls
5051 280 Pls
5058 280 Pls
5067 280 Pls
5067 280 Pls
5068 280 Pls
5068 280 Pls
5070 280 Pls
5073 280 Pls
5074 280 Pls
5074 280 Pls
5075 280 Pls
5082 280 Pls
5083 280 Pls
5085 280 Pls
5091 280 Pls
5095 280 Pls
5100 280 Pls
5102 280 Pls
5113 280 Pls
5113 280 Pls
5114 280 Pls
5115 280 Pls
5128 280 Pls
5130 280 Pls
5135 280 Pls
5145 280 Pls
5151 280 Pls
5154 280 Pls
5157 280 Pls
5159 280 Pls
5162 280 Pls
5165 280 Pls
5168 280 Pls
5170 280 Pls
5170 280 Pls
5176 280 Pls
5177 280 Pls
5183 280 Pls
5183 280 Pls
5191 280 Pls
5199 280 Pls
5199 280 Pls
5207 280 Pls
5210 280 Pls
5210 280 Pls
5212 280 Pls
5212 280 Pls
5216 280 Pls
5217 280 Pls
5218 280 Pls
5220 280 Pls
5223 280 Pls
5226 280 Pls
5228 280 Pls
5229 280 Pls
5231 280 Pls
5238 280 Pls
5252 280 Pls
5254 280 Pls
5267 280 Pls
5269 280 Pls
5269 280 Pls
5273 280 Pls
5297 280 Pls
5309 280 Pls
5333 280 Pls
5334 280 Pls
5338 280 Pls
5339 280 Pls
5341 280 Pls
5354 280 Pls
5362 280 Pls
5365 280 Pls
5368 280 Pls
5371 280 Pls
5372 280 Pls
5380 280 Pls
5393 280 Pls
5394 280 Pls
5404 280 Pls
5412 280 Pls
5417 280 Pls
5426 280 Pls
5431 280 Pls
5432 280 Pls
5433 280 Pls
5443 280 Pls
5450 280 Pls
5455 280 Pls
5468 280 Pls
5470 280 Pls
5472 280 Pls
5491 280 Pls
5496 280 Pls
5497 280 Pls
5498 280 Pls
5505 280 Pls
5506 280 Pls
5525 280 Pls
5626 280 Pls
5642 280 Pls
5644 280 Pls
5670 280 Pls
5700 280 Pls
5733 280 Pls
5737 280 Pls
5779 280 Pls
5873 280 Pls
5886 280 Pls
5910 280 Pls
5934 280 Pls
5949 280 Pls
5958 280 Pls
6015 280 Pls
6016 280 Pls
6026 280 Pls
6105 280 Pls
6137 280 Pls
6200 280 Pls
6224 280 Pls
6369 280 Pls
6494 280 Pls
% End plot #1
2.000 UL
LTb
LCb setrgbcolor
1.000 UL
LTB
LCb setrgbcolor
546 4871 N
546 280 L
6401 0 V
0 4591 V
-6401 0 V
Z stroke
1.000 UP
1.000 UL
LTb
LCb setrgbcolor
stroke
grestore
end
showpage
%%Trailer
%%DocumentFonts: Helvetica
%%Pages: 1
