%!PS-Adobe-2.0
%%Title: packets-uv-s-dist-linlin.eps
%%Creator: gnuplot 5.0 patchlevel 3
%%CreationDate: Mon May 29 11:09:39 2017
%%DocumentFonts: (atend)
%%BoundingBox: 50 50 554 770
%%Orientation: Landscape
%%Pages: (atend)
%%EndComments
%%BeginProlog
/gnudict 256 dict def
gnudict begin
%
% The following true/false flags may be edited by hand if desired.
% The unit line width and grayscale image gamma correction may also be changed.
%
/Color true def
/Blacktext false def
/Solid false def
/Dashlength 1 def
/Landscape true def
/Level1 false def
/Level3 false def
/Rounded false def
/ClipToBoundingBox false def
/SuppressPDFMark false def
/TransparentPatterns false def
/gnulinewidth 5.000 def
/userlinewidth gnulinewidth def
/Gamma 1.0 def
/BackgroundColor {-1.000 -1.000 -1.000} def
%
/vshift -46 def
/dl1 {
  10.0 Dashlength userlinewidth gnulinewidth div mul mul mul
  Rounded { currentlinewidth 0.75 mul sub dup 0 le { pop 0.01 } if } if
} def
/dl2 {
  10.0 Dashlength userlinewidth gnulinewidth div mul mul mul
  Rounded { currentlinewidth 0.75 mul add } if
} def
/hpt_ 31.5 def
/vpt_ 31.5 def
/hpt hpt_ def
/vpt vpt_ def
/doclip {
  ClipToBoundingBox {
    newpath 50 50 moveto 554 50 lineto 554 770 lineto 50 770 lineto closepath
    clip
  } if
} def
%
% Gnuplot Prolog Version 5.1 (Oct 2015)
%
%/SuppressPDFMark true def
%
/M {moveto} bind def
/L {lineto} bind def
/R {rmoveto} bind def
/V {rlineto} bind def
/N {newpath moveto} bind def
/Z {closepath} bind def
/C {setrgbcolor} bind def
/f {rlineto fill} bind def
/g {setgray} bind def
/Gshow {show} def   % May be redefined later in the file to support UTF-8
/vpt2 vpt 2 mul def
/hpt2 hpt 2 mul def
/Lshow {currentpoint stroke M 0 vshift R 
	Blacktext {gsave 0 setgray textshow grestore} {textshow} ifelse} def
/Rshow {currentpoint stroke M dup stringwidth pop neg vshift R
	Blacktext {gsave 0 setgray textshow grestore} {textshow} ifelse} def
/Cshow {currentpoint stroke M dup stringwidth pop -2 div vshift R 
	Blacktext {gsave 0 setgray textshow grestore} {textshow} ifelse} def
/UP {dup vpt_ mul /vpt exch def hpt_ mul /hpt exch def
  /hpt2 hpt 2 mul def /vpt2 vpt 2 mul def} def
/DL {Color {setrgbcolor Solid {pop []} if 0 setdash}
 {pop pop pop 0 setgray Solid {pop []} if 0 setdash} ifelse} def
/BL {stroke userlinewidth 2 mul setlinewidth
	Rounded {1 setlinejoin 1 setlinecap} if} def
/AL {stroke userlinewidth 2 div setlinewidth
	Rounded {1 setlinejoin 1 setlinecap} if} def
/UL {dup gnulinewidth mul /userlinewidth exch def
	dup 1 lt {pop 1} if 10 mul /udl exch def} def
/PL {stroke userlinewidth setlinewidth
	Rounded {1 setlinejoin 1 setlinecap} if} def
3.8 setmiterlimit
% Classic Line colors (version 5.0)
/LCw {1 1 1} def
/LCb {0 0 0} def
/LCa {0 0 0} def
/LC0 {1 0 0} def
/LC1 {0 1 0} def
/LC2 {0 0 1} def
/LC3 {1 0 1} def
/LC4 {0 1 1} def
/LC5 {1 1 0} def
/LC6 {0 0 0} def
/LC7 {1 0.3 0} def
/LC8 {0.5 0.5 0.5} def
% Default dash patterns (version 5.0)
/LTB {BL [] LCb DL} def
/LTw {PL [] 1 setgray} def
/LTb {PL [] LCb DL} def
/LTa {AL [1 udl mul 2 udl mul] 0 setdash LCa setrgbcolor} def
/LT0 {PL [] LC0 DL} def
/LT1 {PL [2 dl1 3 dl2] LC1 DL} def
/LT2 {PL [1 dl1 1.5 dl2] LC2 DL} def
/LT3 {PL [6 dl1 2 dl2 1 dl1 2 dl2] LC3 DL} def
/LT4 {PL [1 dl1 2 dl2 6 dl1 2 dl2 1 dl1 2 dl2] LC4 DL} def
/LT5 {PL [4 dl1 2 dl2] LC5 DL} def
/LT6 {PL [1.5 dl1 1.5 dl2 1.5 dl1 1.5 dl2 1.5 dl1 6 dl2] LC6 DL} def
/LT7 {PL [3 dl1 3 dl2 1 dl1 3 dl2] LC7 DL} def
/LT8 {PL [2 dl1 2 dl2 2 dl1 6 dl2] LC8 DL} def
/SL {[] 0 setdash} def
/Pnt {stroke [] 0 setdash gsave 1 setlinecap M 0 0 V stroke grestore} def
/Dia {stroke [] 0 setdash 2 copy vpt add M
  hpt neg vpt neg V hpt vpt neg V
  hpt vpt V hpt neg vpt V closepath stroke
  Pnt} def
/Pls {stroke [] 0 setdash vpt sub M 0 vpt2 V
  currentpoint stroke M
  hpt neg vpt neg R hpt2 0 V stroke
 } def
/Box {stroke [] 0 setdash 2 copy exch hpt sub exch vpt add M
  0 vpt2 neg V hpt2 0 V 0 vpt2 V
  hpt2 neg 0 V closepath stroke
  Pnt} def
/Crs {stroke [] 0 setdash exch hpt sub exch vpt add M
  hpt2 vpt2 neg V currentpoint stroke M
  hpt2 neg 0 R hpt2 vpt2 V stroke} def
/TriU {stroke [] 0 setdash 2 copy vpt 1.12 mul add M
  hpt neg vpt -1.62 mul V
  hpt 2 mul 0 V
  hpt neg vpt 1.62 mul V closepath stroke
  Pnt} def
/Star {2 copy Pls Crs} def
/BoxF {stroke [] 0 setdash exch hpt sub exch vpt add M
  0 vpt2 neg V hpt2 0 V 0 vpt2 V
  hpt2 neg 0 V closepath fill} def
/TriUF {stroke [] 0 setdash vpt 1.12 mul add M
  hpt neg vpt -1.62 mul V
  hpt 2 mul 0 V
  hpt neg vpt 1.62 mul V closepath fill} def
/TriD {stroke [] 0 setdash 2 copy vpt 1.12 mul sub M
  hpt neg vpt 1.62 mul V
  hpt 2 mul 0 V
  hpt neg vpt -1.62 mul V closepath stroke
  Pnt} def
/TriDF {stroke [] 0 setdash vpt 1.12 mul sub M
  hpt neg vpt 1.62 mul V
  hpt 2 mul 0 V
  hpt neg vpt -1.62 mul V closepath fill} def
/DiaF {stroke [] 0 setdash vpt add M
  hpt neg vpt neg V hpt vpt neg V
  hpt vpt V hpt neg vpt V closepath fill} def
/Pent {stroke [] 0 setdash 2 copy gsave
  translate 0 hpt M 4 {72 rotate 0 hpt L} repeat
  closepath stroke grestore Pnt} def
/PentF {stroke [] 0 setdash gsave
  translate 0 hpt M 4 {72 rotate 0 hpt L} repeat
  closepath fill grestore} def
/Circle {stroke [] 0 setdash 2 copy
  hpt 0 360 arc stroke Pnt} def
/CircleF {stroke [] 0 setdash hpt 0 360 arc fill} def
/C0 {BL [] 0 setdash 2 copy moveto vpt 90 450 arc} bind def
/C1 {BL [] 0 setdash 2 copy moveto
	2 copy vpt 0 90 arc closepath fill
	vpt 0 360 arc closepath} bind def
/C2 {BL [] 0 setdash 2 copy moveto
	2 copy vpt 90 180 arc closepath fill
	vpt 0 360 arc closepath} bind def
/C3 {BL [] 0 setdash 2 copy moveto
	2 copy vpt 0 180 arc closepath fill
	vpt 0 360 arc closepath} bind def
/C4 {BL [] 0 setdash 2 copy moveto
	2 copy vpt 180 270 arc closepath fill
	vpt 0 360 arc closepath} bind def
/C5 {BL [] 0 setdash 2 copy moveto
	2 copy vpt 0 90 arc
	2 copy moveto
	2 copy vpt 180 270 arc closepath fill
	vpt 0 360 arc} bind def
/C6 {BL [] 0 setdash 2 copy moveto
	2 copy vpt 90 270 arc closepath fill
	vpt 0 360 arc closepath} bind def
/C7 {BL [] 0 setdash 2 copy moveto
	2 copy vpt 0 270 arc closepath fill
	vpt 0 360 arc closepath} bind def
/C8 {BL [] 0 setdash 2 copy moveto
	2 copy vpt 270 360 arc closepath fill
	vpt 0 360 arc closepath} bind def
/C9 {BL [] 0 setdash 2 copy moveto
	2 copy vpt 270 450 arc closepath fill
	vpt 0 360 arc closepath} bind def
/C10 {BL [] 0 setdash 2 copy 2 copy moveto vpt 270 360 arc closepath fill
	2 copy moveto
	2 copy vpt 90 180 arc closepath fill
	vpt 0 360 arc closepath} bind def
/C11 {BL [] 0 setdash 2 copy moveto
	2 copy vpt 0 180 arc closepath fill
	2 copy moveto
	2 copy vpt 270 360 arc closepath fill
	vpt 0 360 arc closepath} bind def
/C12 {BL [] 0 setdash 2 copy moveto
	2 copy vpt 180 360 arc closepath fill
	vpt 0 360 arc closepath} bind def
/C13 {BL [] 0 setdash 2 copy moveto
	2 copy vpt 0 90 arc closepath fill
	2 copy moveto
	2 copy vpt 180 360 arc closepath fill
	vpt 0 360 arc closepath} bind def
/C14 {BL [] 0 setdash 2 copy moveto
	2 copy vpt 90 360 arc closepath fill
	vpt 0 360 arc} bind def
/C15 {BL [] 0 setdash 2 copy vpt 0 360 arc closepath fill
	vpt 0 360 arc closepath} bind def
/Rec {newpath 4 2 roll moveto 1 index 0 rlineto 0 exch rlineto
	neg 0 rlineto closepath} bind def
/Square {dup Rec} bind def
/Bsquare {vpt sub exch vpt sub exch vpt2 Square} bind def
/S0 {BL [] 0 setdash 2 copy moveto 0 vpt rlineto BL Bsquare} bind def
/S1 {BL [] 0 setdash 2 copy vpt Square fill Bsquare} bind def
/S2 {BL [] 0 setdash 2 copy exch vpt sub exch vpt Square fill Bsquare} bind def
/S3 {BL [] 0 setdash 2 copy exch vpt sub exch vpt2 vpt Rec fill Bsquare} bind def
/S4 {BL [] 0 setdash 2 copy exch vpt sub exch vpt sub vpt Square fill Bsquare} bind def
/S5 {BL [] 0 setdash 2 copy 2 copy vpt Square fill
	exch vpt sub exch vpt sub vpt Square fill Bsquare} bind def
/S6 {BL [] 0 setdash 2 copy exch vpt sub exch vpt sub vpt vpt2 Rec fill Bsquare} bind def
/S7 {BL [] 0 setdash 2 copy exch vpt sub exch vpt sub vpt vpt2 Rec fill
	2 copy vpt Square fill Bsquare} bind def
/S8 {BL [] 0 setdash 2 copy vpt sub vpt Square fill Bsquare} bind def
/S9 {BL [] 0 setdash 2 copy vpt sub vpt vpt2 Rec fill Bsquare} bind def
/S10 {BL [] 0 setdash 2 copy vpt sub vpt Square fill 2 copy exch vpt sub exch vpt Square fill
	Bsquare} bind def
/S11 {BL [] 0 setdash 2 copy vpt sub vpt Square fill 2 copy exch vpt sub exch vpt2 vpt Rec fill
	Bsquare} bind def
/S12 {BL [] 0 setdash 2 copy exch vpt sub exch vpt sub vpt2 vpt Rec fill Bsquare} bind def
/S13 {BL [] 0 setdash 2 copy exch vpt sub exch vpt sub vpt2 vpt Rec fill
	2 copy vpt Square fill Bsquare} bind def
/S14 {BL [] 0 setdash 2 copy exch vpt sub exch vpt sub vpt2 vpt Rec fill
	2 copy exch vpt sub exch vpt Square fill Bsquare} bind def
/S15 {BL [] 0 setdash 2 copy Bsquare fill Bsquare} bind def
/D0 {gsave translate 45 rotate 0 0 S0 stroke grestore} bind def
/D1 {gsave translate 45 rotate 0 0 S1 stroke grestore} bind def
/D2 {gsave translate 45 rotate 0 0 S2 stroke grestore} bind def
/D3 {gsave translate 45 rotate 0 0 S3 stroke grestore} bind def
/D4 {gsave translate 45 rotate 0 0 S4 stroke grestore} bind def
/D5 {gsave translate 45 rotate 0 0 S5 stroke grestore} bind def
/D6 {gsave translate 45 rotate 0 0 S6 stroke grestore} bind def
/D7 {gsave translate 45 rotate 0 0 S7 stroke grestore} bind def
/D8 {gsave translate 45 rotate 0 0 S8 stroke grestore} bind def
/D9 {gsave translate 45 rotate 0 0 S9 stroke grestore} bind def
/D10 {gsave translate 45 rotate 0 0 S10 stroke grestore} bind def
/D11 {gsave translate 45 rotate 0 0 S11 stroke grestore} bind def
/D12 {gsave translate 45 rotate 0 0 S12 stroke grestore} bind def
/D13 {gsave translate 45 rotate 0 0 S13 stroke grestore} bind def
/D14 {gsave translate 45 rotate 0 0 S14 stroke grestore} bind def
/D15 {gsave translate 45 rotate 0 0 S15 stroke grestore} bind def
/DiaE {stroke [] 0 setdash vpt add M
  hpt neg vpt neg V hpt vpt neg V
  hpt vpt V hpt neg vpt V closepath stroke} def
/BoxE {stroke [] 0 setdash exch hpt sub exch vpt add M
  0 vpt2 neg V hpt2 0 V 0 vpt2 V
  hpt2 neg 0 V closepath stroke} def
/TriUE {stroke [] 0 setdash vpt 1.12 mul add M
  hpt neg vpt -1.62 mul V
  hpt 2 mul 0 V
  hpt neg vpt 1.62 mul V closepath stroke} def
/TriDE {stroke [] 0 setdash vpt 1.12 mul sub M
  hpt neg vpt 1.62 mul V
  hpt 2 mul 0 V
  hpt neg vpt -1.62 mul V closepath stroke} def
/PentE {stroke [] 0 setdash gsave
  translate 0 hpt M 4 {72 rotate 0 hpt L} repeat
  closepath stroke grestore} def
/CircE {stroke [] 0 setdash 
  hpt 0 360 arc stroke} def
/Opaque {gsave closepath 1 setgray fill grestore 0 setgray closepath} def
/DiaW {stroke [] 0 setdash vpt add M
  hpt neg vpt neg V hpt vpt neg V
  hpt vpt V hpt neg vpt V Opaque stroke} def
/BoxW {stroke [] 0 setdash exch hpt sub exch vpt add M
  0 vpt2 neg V hpt2 0 V 0 vpt2 V
  hpt2 neg 0 V Opaque stroke} def
/TriUW {stroke [] 0 setdash vpt 1.12 mul add M
  hpt neg vpt -1.62 mul V
  hpt 2 mul 0 V
  hpt neg vpt 1.62 mul V Opaque stroke} def
/TriDW {stroke [] 0 setdash vpt 1.12 mul sub M
  hpt neg vpt 1.62 mul V
  hpt 2 mul 0 V
  hpt neg vpt -1.62 mul V Opaque stroke} def
/PentW {stroke [] 0 setdash gsave
  translate 0 hpt M 4 {72 rotate 0 hpt L} repeat
  Opaque stroke grestore} def
/CircW {stroke [] 0 setdash 
  hpt 0 360 arc Opaque stroke} def
/BoxFill {gsave Rec 1 setgray fill grestore} def
/Density {
  /Fillden exch def
  currentrgbcolor
  /ColB exch def /ColG exch def /ColR exch def
  /ColR ColR Fillden mul Fillden sub 1 add def
  /ColG ColG Fillden mul Fillden sub 1 add def
  /ColB ColB Fillden mul Fillden sub 1 add def
  ColR ColG ColB setrgbcolor} def
/BoxColFill {gsave Rec PolyFill} def
/PolyFill {gsave Density fill grestore grestore} def
/h {rlineto rlineto rlineto gsave closepath fill grestore} bind def
%
% PostScript Level 1 Pattern Fill routine for rectangles
% Usage: x y w h s a XX PatternFill
%	x,y = lower left corner of box to be filled
%	w,h = width and height of box
%	  a = angle in degrees between lines and x-axis
%	 XX = 0/1 for no/yes cross-hatch
%
/PatternFill {gsave /PFa [ 9 2 roll ] def
  PFa 0 get PFa 2 get 2 div add PFa 1 get PFa 3 get 2 div add translate
  PFa 2 get -2 div PFa 3 get -2 div PFa 2 get PFa 3 get Rec
  TransparentPatterns {} {gsave 1 setgray fill grestore} ifelse
  clip
  currentlinewidth 0.5 mul setlinewidth
  /PFs PFa 2 get dup mul PFa 3 get dup mul add sqrt def
  0 0 M PFa 5 get rotate PFs -2 div dup translate
  0 1 PFs PFa 4 get div 1 add floor cvi
	{PFa 4 get mul 0 M 0 PFs V} for
  0 PFa 6 get ne {
	0 1 PFs PFa 4 get div 1 add floor cvi
	{PFa 4 get mul 0 2 1 roll M PFs 0 V} for
 } if
  stroke grestore} def
%
/languagelevel where
 {pop languagelevel} {1} ifelse
dup 2 lt
	{/InterpretLevel1 true def
	 /InterpretLevel3 false def}
	{/InterpretLevel1 Level1 def
	 2 gt
	    {/InterpretLevel3 Level3 def}
	    {/InterpretLevel3 false def}
	 ifelse }
 ifelse
%
% PostScript level 2 pattern fill definitions
%
/Level2PatternFill {
/Tile8x8 {/PaintType 2 /PatternType 1 /TilingType 1 /BBox [0 0 8 8] /XStep 8 /YStep 8}
	bind def
/KeepColor {currentrgbcolor [/Pattern /DeviceRGB] setcolorspace} bind def
<< Tile8x8
 /PaintProc {0.5 setlinewidth pop 0 0 M 8 8 L 0 8 M 8 0 L stroke} 
>> matrix makepattern
/Pat1 exch def
<< Tile8x8
 /PaintProc {0.5 setlinewidth pop 0 0 M 8 8 L 0 8 M 8 0 L stroke
	0 4 M 4 8 L 8 4 L 4 0 L 0 4 L stroke}
>> matrix makepattern
/Pat2 exch def
<< Tile8x8
 /PaintProc {0.5 setlinewidth pop 0 0 M 0 8 L
	8 8 L 8 0 L 0 0 L fill}
>> matrix makepattern
/Pat3 exch def
<< Tile8x8
 /PaintProc {0.5 setlinewidth pop -4 8 M 8 -4 L
	0 12 M 12 0 L stroke}
>> matrix makepattern
/Pat4 exch def
<< Tile8x8
 /PaintProc {0.5 setlinewidth pop -4 0 M 8 12 L
	0 -4 M 12 8 L stroke}
>> matrix makepattern
/Pat5 exch def
<< Tile8x8
 /PaintProc {0.5 setlinewidth pop -2 8 M 4 -4 L
	0 12 M 8 -4 L 4 12 M 10 0 L stroke}
>> matrix makepattern
/Pat6 exch def
<< Tile8x8
 /PaintProc {0.5 setlinewidth pop -2 0 M 4 12 L
	0 -4 M 8 12 L 4 -4 M 10 8 L stroke}
>> matrix makepattern
/Pat7 exch def
<< Tile8x8
 /PaintProc {0.5 setlinewidth pop 8 -2 M -4 4 L
	12 0 M -4 8 L 12 4 M 0 10 L stroke}
>> matrix makepattern
/Pat8 exch def
<< Tile8x8
 /PaintProc {0.5 setlinewidth pop 0 -2 M 12 4 L
	-4 0 M 12 8 L -4 4 M 8 10 L stroke}
>> matrix makepattern
/Pat9 exch def
/Pattern1 {PatternBgnd KeepColor Pat1 setpattern} bind def
/Pattern2 {PatternBgnd KeepColor Pat2 setpattern} bind def
/Pattern3 {PatternBgnd KeepColor Pat3 setpattern} bind def
/Pattern4 {PatternBgnd KeepColor Landscape {Pat5} {Pat4} ifelse setpattern} bind def
/Pattern5 {PatternBgnd KeepColor Landscape {Pat4} {Pat5} ifelse setpattern} bind def
/Pattern6 {PatternBgnd KeepColor Landscape {Pat9} {Pat6} ifelse setpattern} bind def
/Pattern7 {PatternBgnd KeepColor Landscape {Pat8} {Pat7} ifelse setpattern} bind def
} def
%
%
%End of PostScript Level 2 code
%
/PatternBgnd {
  TransparentPatterns {} {gsave 1 setgray fill grestore} ifelse
} def
%
% Substitute for Level 2 pattern fill codes with
% grayscale if Level 2 support is not selected.
%
/Level1PatternFill {
/Pattern1 {0.250 Density} bind def
/Pattern2 {0.500 Density} bind def
/Pattern3 {0.750 Density} bind def
/Pattern4 {0.125 Density} bind def
/Pattern5 {0.375 Density} bind def
/Pattern6 {0.625 Density} bind def
/Pattern7 {0.875 Density} bind def
} def
%
% Now test for support of Level 2 code
%
Level1 {Level1PatternFill} {Level2PatternFill} ifelse
%
/Symbol-Oblique /Symbol findfont [1 0 .167 1 0 0] makefont
dup length dict begin {1 index /FID eq {pop pop} {def} ifelse} forall
currentdict end definefont pop
%
/MFshow {
   { dup 5 get 3 ge
     { 5 get 3 eq {gsave} {grestore} ifelse }
     {dup dup 0 get findfont exch 1 get scalefont setfont
     [ currentpoint ] exch dup 2 get 0 exch R dup 5 get 2 ne {dup dup 6
     get exch 4 get {textshow} {stringwidth pop 0 R} ifelse }if dup 5 get 0 eq
     {dup 3 get {2 get neg 0 exch R pop} {pop aload pop M} ifelse} {dup 5
     get 1 eq {dup 2 get exch dup 3 get exch 6 get stringwidth pop -2 div
     dup 0 R} {dup 6 get stringwidth pop -2 div 0 R 6 get
     textshow 2 index {aload pop M neg 3 -1 roll neg R pop pop} {pop pop pop
     pop aload pop M} ifelse }ifelse }ifelse }
     ifelse }
   forall} def
/Gswidth {dup type /stringtype eq {stringwidth} {pop (n) stringwidth} ifelse} def
/MFwidth {0 exch { dup 5 get 3 ge { 5 get 3 eq { 0 } { pop } ifelse }
 {dup 3 get{dup dup 0 get findfont exch 1 get scalefont setfont
     6 get Gswidth pop add} {pop} ifelse} ifelse} forall} def
/MLshow { currentpoint stroke M
  0 exch R
  Blacktext {gsave 0 setgray MFshow grestore} {MFshow} ifelse } bind def
/MRshow { currentpoint stroke M
  exch dup MFwidth neg 3 -1 roll R
  Blacktext {gsave 0 setgray MFshow grestore} {MFshow} ifelse } bind def
/MCshow { currentpoint stroke M
  exch dup MFwidth -2 div 3 -1 roll R
  Blacktext {gsave 0 setgray MFshow grestore} {MFshow} ifelse } bind def
/XYsave    { [( ) 1 2 true false 3 ()] } bind def
/XYrestore { [( ) 1 2 true false 4 ()] } bind def
Level1 SuppressPDFMark or 
{} {
/SDict 10 dict def
systemdict /pdfmark known not {
  userdict /pdfmark systemdict /cleartomark get put
} if
SDict begin [
  /Title (packets-uv-s-dist-linlin.eps)
  /Subject (gnuplot plot)
  /Creator (gnuplot 5.0 patchlevel 3)
  /Author (tiphaine)
%  /Producer (gnuplot)
%  /Keywords ()
  /CreationDate (Mon May 29 11:09:39 2017)
  /DOCINFO pdfmark
end
} ifelse
%
% Support for boxed text - Ethan A Merritt May 2005
%
/InitTextBox { userdict /TBy2 3 -1 roll put userdict /TBx2 3 -1 roll put
           userdict /TBy1 3 -1 roll put userdict /TBx1 3 -1 roll put
	   /Boxing true def } def
/ExtendTextBox { Boxing
    { gsave dup false charpath pathbbox
      dup TBy2 gt {userdict /TBy2 3 -1 roll put} {pop} ifelse
      dup TBx2 gt {userdict /TBx2 3 -1 roll put} {pop} ifelse
      dup TBy1 lt {userdict /TBy1 3 -1 roll put} {pop} ifelse
      dup TBx1 lt {userdict /TBx1 3 -1 roll put} {pop} ifelse
      grestore } if } def
/PopTextBox { newpath TBx1 TBxmargin sub TBy1 TBymargin sub M
               TBx1 TBxmargin sub TBy2 TBymargin add L
	       TBx2 TBxmargin add TBy2 TBymargin add L
	       TBx2 TBxmargin add TBy1 TBymargin sub L closepath } def
/DrawTextBox { PopTextBox stroke /Boxing false def} def
/FillTextBox { gsave PopTextBox 1 1 1 setrgbcolor fill grestore /Boxing false def} def
0 0 0 0 InitTextBox
/TBxmargin 20 def
/TBymargin 20 def
/Boxing false def
/textshow { ExtendTextBox Gshow } def
%
% redundant definitions for compatibility with prologue.ps older than 5.0.2
/LTB {BL [] LCb DL} def
/LTb {PL [] LCb DL} def
end
%%EndProlog
%%Page: 1 1
gnudict begin
gsave
doclip
50 50 translate
0.100 0.100 scale
90 rotate
0 -5040 translate
0 setgray
newpath
(Helvetica) findfont 140 scalefont setfont
BackgroundColor 0 lt 3 1 roll 0 lt exch 0 lt or or not {gsave BackgroundColor C clippath fill grestore} if
1.000 UL
LTb
LCb setrgbcolor
798 280 M
63 0 V
6086 0 R
-63 0 V
stroke
714 280 M
[ [(Helvetica) 140.0 0.0 true true 0 ( 0)]
] -46.7 MRshow
1.000 UL
LTb
LCb setrgbcolor
798 1045 M
63 0 V
6086 0 R
-63 0 V
stroke
714 1045 M
[ [(Helvetica) 140.0 0.0 true true 0 ( 200000)]
] -46.7 MRshow
1.000 UL
LTb
LCb setrgbcolor
798 1810 M
63 0 V
6086 0 R
-63 0 V
stroke
714 1810 M
[ [(Helvetica) 140.0 0.0 true true 0 ( 400000)]
] -46.7 MRshow
1.000 UL
LTb
LCb setrgbcolor
798 2576 M
63 0 V
6086 0 R
-63 0 V
stroke
714 2576 M
[ [(Helvetica) 140.0 0.0 true true 0 ( 600000)]
] -46.7 MRshow
1.000 UL
LTb
LCb setrgbcolor
798 3341 M
63 0 V
6086 0 R
-63 0 V
stroke
714 3341 M
[ [(Helvetica) 140.0 0.0 true true 0 ( 800000)]
] -46.7 MRshow
1.000 UL
LTb
LCb setrgbcolor
798 4106 M
63 0 V
6086 0 R
-63 0 V
stroke
714 4106 M
[ [(Helvetica) 140.0 0.0 true true 0 ( 1x10)]
[(Helvetica) 112.0 70.0 true true 0 (6)]
] -60.7 MRshow
1.000 UL
LTb
LCb setrgbcolor
798 4871 M
63 0 V
6086 0 R
-63 0 V
stroke
714 4871 M
[ [(Helvetica) 140.0 0.0 true true 0 ( 1.2x10)]
[(Helvetica) 112.0 70.0 true true 0 (6)]
] -60.7 MRshow
1.000 UL
LTb
LCb setrgbcolor
798 280 M
0 63 V
0 4528 R
0 -63 V
stroke
798 140 M
[ [(Helvetica) 140.0 0.0 true true 0 ( 0)]
] -46.7 MCshow
1.000 UL
LTb
LCb setrgbcolor
1676 280 M
0 63 V
0 4528 R
0 -63 V
stroke
1676 140 M
[ [(Helvetica) 140.0 0.0 true true 0 ( 500000)]
] -46.7 MCshow
1.000 UL
LTb
LCb setrgbcolor
2555 280 M
0 63 V
0 4528 R
0 -63 V
stroke
2555 140 M
[ [(Helvetica) 140.0 0.0 true true 0 ( 1x10)]
[(Helvetica) 112.0 70.0 true true 0 (6)]
] -60.7 MCshow
1.000 UL
LTb
LCb setrgbcolor
3433 280 M
0 63 V
0 4528 R
0 -63 V
stroke
3433 140 M
[ [(Helvetica) 140.0 0.0 true true 0 ( 1.5x10)]
[(Helvetica) 112.0 70.0 true true 0 (6)]
] -60.7 MCshow
1.000 UL
LTb
LCb setrgbcolor
4312 280 M
0 63 V
0 4528 R
0 -63 V
stroke
4312 140 M
[ [(Helvetica) 140.0 0.0 true true 0 ( 2x10)]
[(Helvetica) 112.0 70.0 true true 0 (6)]
] -60.7 MCshow
1.000 UL
LTb
LCb setrgbcolor
5190 280 M
0 63 V
0 4528 R
0 -63 V
stroke
5190 140 M
[ [(Helvetica) 140.0 0.0 true true 0 ( 2.5x10)]
[(Helvetica) 112.0 70.0 true true 0 (6)]
] -60.7 MCshow
1.000 UL
LTb
LCb setrgbcolor
6069 280 M
0 63 V
0 4528 R
0 -63 V
stroke
6069 140 M
[ [(Helvetica) 140.0 0.0 true true 0 ( 3x10)]
[(Helvetica) 112.0 70.0 true true 0 (6)]
] -60.7 MCshow
1.000 UL
LTb
LCb setrgbcolor
6947 280 M
0 63 V
0 4528 R
0 -63 V
stroke
6947 140 M
[ [(Helvetica) 140.0 0.0 true true 0 ( 3.5x10)]
[(Helvetica) 112.0 70.0 true true 0 (6)]
] -60.7 MCshow
1.000 UL
LTb
LCb setrgbcolor
1.000 UL
LTB
LCb setrgbcolor
798 4871 N
798 280 L
6149 0 V
0 4591 V
-6149 0 V
Z stroke
1.000 UP
1.000 UL
LTb
LCb setrgbcolor
% Begin plot #1
1.000 UP
1.000 UL
LTb
0.58 0.00 0.83 C 798 4739 Pls
798 2297 Pls
798 578 Pls
798 498 Pls
798 408 Pls
798 395 Pls
798 342 Pls
798 356 Pls
798 325 Pls
798 357 Pls
798 316 Pls
798 327 Pls
798 308 Pls
798 312 Pls
798 307 Pls
798 310 Pls
798 300 Pls
798 304 Pls
798 297 Pls
798 303 Pls
798 294 Pls
798 295 Pls
798 290 Pls
798 293 Pls
798 288 Pls
798 289 Pls
798 287 Pls
798 289 Pls
798 285 Pls
798 289 Pls
798 285 Pls
798 286 Pls
798 285 Pls
798 286 Pls
798 284 Pls
798 286 Pls
798 284 Pls
798 284 Pls
798 283 Pls
798 284 Pls
798 283 Pls
798 283 Pls
798 283 Pls
798 283 Pls
798 283 Pls
798 283 Pls
798 284 Pls
798 284 Pls
798 284 Pls
798 283 Pls
798 283 Pls
798 282 Pls
798 282 Pls
798 282 Pls
798 282 Pls
798 282 Pls
798 282 Pls
798 282 Pls
798 282 Pls
798 283 Pls
798 282 Pls
798 282 Pls
798 282 Pls
798 282 Pls
798 282 Pls
798 281 Pls
798 281 Pls
798 281 Pls
798 281 Pls
798 281 Pls
798 281 Pls
798 281 Pls
798 281 Pls
798 281 Pls
798 281 Pls
798 281 Pls
798 281 Pls
798 281 Pls
798 281 Pls
798 281 Pls
798 281 Pls
798 281 Pls
798 281 Pls
798 281 Pls
798 281 Pls
798 281 Pls
798 281 Pls
798 281 Pls
798 281 Pls
798 281 Pls
798 281 Pls
798 281 Pls
798 281 Pls
798 281 Pls
798 281 Pls
798 281 Pls
798 281 Pls
798 281 Pls
798 281 Pls
798 283 Pls
798 281 Pls
798 281 Pls
798 281 Pls
798 281 Pls
798 281 Pls
798 281 Pls
798 281 Pls
798 281 Pls
798 281 Pls
798 281 Pls
798 281 Pls
798 281 Pls
798 281 Pls
798 281 Pls
798 281 Pls
798 281 Pls
798 281 Pls
798 280 Pls
798 281 Pls
798 281 Pls
798 281 Pls
798 281 Pls
798 280 Pls
798 280 Pls
798 280 Pls
798 280 Pls
798 280 Pls
798 281 Pls
798 281 Pls
798 281 Pls
798 280 Pls
798 281 Pls
798 280 Pls
798 280 Pls
798 280 Pls
798 280 Pls
798 280 Pls
798 281 Pls
798 281 Pls
798 280 Pls
798 280 Pls
798 280 Pls
798 280 Pls
798 280 Pls
798 280 Pls
798 280 Pls
798 280 Pls
798 280 Pls
798 280 Pls
798 280 Pls
798 280 Pls
798 280 Pls
798 280 Pls
798 280 Pls
798 280 Pls
798 280 Pls
798 280 Pls
798 280 Pls
798 280 Pls
798 280 Pls
798 280 Pls
798 280 Pls
798 280 Pls
798 280 Pls
798 280 Pls
798 280 Pls
798 280 Pls
798 280 Pls
798 280 Pls
798 280 Pls
798 280 Pls
798 280 Pls
798 280 Pls
798 280 Pls
798 280 Pls
798 280 Pls
798 280 Pls
798 280 Pls
798 280 Pls
798 280 Pls
798 280 Pls
798 280 Pls
798 280 Pls
798 280 Pls
798 280 Pls
798 280 Pls
798 280 Pls
798 280 Pls
798 280 Pls
798 280 Pls
798 280 Pls
798 280 Pls
798 280 Pls
798 280 Pls
798 280 Pls
798 280 Pls
798 280 Pls
798 280 Pls
798 280 Pls
798 280 Pls
798 280 Pls
798 280 Pls
798 280 Pls
798 280 Pls
798 280 Pls
798 280 Pls
798 280 Pls
798 280 Pls
798 280 Pls
798 280 Pls
798 280 Pls
798 280 Pls
798 280 Pls
798 280 Pls
798 280 Pls
798 280 Pls
798 280 Pls
798 280 Pls
798 280 Pls
798 280 Pls
798 280 Pls
798 280 Pls
798 280 Pls
798 280 Pls
798 280 Pls
798 280 Pls
798 280 Pls
798 280 Pls
798 280 Pls
798 280 Pls
798 280 Pls
798 280 Pls
798 280 Pls
798 280 Pls
798 280 Pls
798 280 Pls
798 280 Pls
798 280 Pls
798 280 Pls
798 280 Pls
798 280 Pls
798 280 Pls
798 280 Pls
798 280 Pls
798 280 Pls
798 280 Pls
798 280 Pls
798 280 Pls
798 280 Pls
798 280 Pls
798 280 Pls
798 280 Pls
798 280 Pls
798 280 Pls
798 280 Pls
798 280 Pls
798 280 Pls
798 280 Pls
798 280 Pls
798 280 Pls
798 280 Pls
798 280 Pls
798 280 Pls
798 280 Pls
798 280 Pls
798 280 Pls
798 280 Pls
798 280 Pls
798 280 Pls
798 280 Pls
798 280 Pls
798 280 Pls
798 280 Pls
798 280 Pls
798 280 Pls
798 280 Pls
798 280 Pls
798 280 Pls
798 280 Pls
798 280 Pls
798 280 Pls
798 280 Pls
798 280 Pls
798 280 Pls
799 280 Pls
799 280 Pls
799 280 Pls
799 280 Pls
799 280 Pls
799 280 Pls
799 280 Pls
799 280 Pls
799 280 Pls
799 280 Pls
799 280 Pls
799 280 Pls
799 280 Pls
799 280 Pls
799 280 Pls
799 280 Pls
799 280 Pls
799 280 Pls
799 280 Pls
799 280 Pls
799 280 Pls
799 280 Pls
799 280 Pls
799 280 Pls
799 280 Pls
799 280 Pls
799 280 Pls
799 280 Pls
799 280 Pls
799 280 Pls
799 280 Pls
799 280 Pls
799 280 Pls
799 280 Pls
799 280 Pls
799 280 Pls
799 280 Pls
799 280 Pls
799 280 Pls
799 280 Pls
799 280 Pls
799 280 Pls
799 280 Pls
799 280 Pls
799 280 Pls
799 280 Pls
799 280 Pls
799 280 Pls
799 280 Pls
799 280 Pls
799 280 Pls
799 280 Pls
799 280 Pls
799 280 Pls
799 280 Pls
799 280 Pls
799 280 Pls
799 280 Pls
799 280 Pls
799 280 Pls
799 280 Pls
799 280 Pls
799 280 Pls
799 280 Pls
799 280 Pls
799 280 Pls
799 280 Pls
799 280 Pls
799 280 Pls
799 280 Pls
799 280 Pls
799 280 Pls
799 280 Pls
799 280 Pls
799 280 Pls
799 280 Pls
799 280 Pls
799 280 Pls
799 280 Pls
799 280 Pls
799 280 Pls
799 280 Pls
799 280 Pls
799 280 Pls
799 280 Pls
799 280 Pls
799 280 Pls
799 280 Pls
799 280 Pls
799 280 Pls
799 280 Pls
799 280 Pls
799 280 Pls
799 280 Pls
799 280 Pls
799 280 Pls
799 280 Pls
799 280 Pls
799 280 Pls
799 280 Pls
799 280 Pls
799 280 Pls
799 280 Pls
799 280 Pls
799 280 Pls
799 280 Pls
799 280 Pls
799 280 Pls
799 280 Pls
799 280 Pls
799 280 Pls
799 280 Pls
799 280 Pls
799 280 Pls
799 280 Pls
799 280 Pls
799 280 Pls
799 280 Pls
799 280 Pls
799 280 Pls
799 280 Pls
799 280 Pls
799 280 Pls
799 280 Pls
799 280 Pls
799 280 Pls
799 280 Pls
799 280 Pls
799 280 Pls
799 280 Pls
799 280 Pls
799 280 Pls
799 280 Pls
799 280 Pls
799 280 Pls
799 280 Pls
799 280 Pls
799 280 Pls
799 280 Pls
799 280 Pls
799 280 Pls
799 280 Pls
799 280 Pls
799 280 Pls
799 280 Pls
799 280 Pls
799 280 Pls
799 280 Pls
799 280 Pls
799 280 Pls
799 280 Pls
799 280 Pls
799 280 Pls
799 280 Pls
799 280 Pls
799 280 Pls
799 280 Pls
799 280 Pls
799 280 Pls
799 280 Pls
799 280 Pls
799 280 Pls
799 280 Pls
799 280 Pls
799 280 Pls
799 280 Pls
799 280 Pls
799 280 Pls
799 280 Pls
799 280 Pls
799 280 Pls
799 280 Pls
799 280 Pls
799 280 Pls
799 280 Pls
799 280 Pls
799 280 Pls
799 280 Pls
799 280 Pls
799 280 Pls
799 280 Pls
799 280 Pls
799 280 Pls
799 280 Pls
799 280 Pls
799 280 Pls
799 280 Pls
799 280 Pls
799 280 Pls
799 280 Pls
799 280 Pls
799 280 Pls
799 280 Pls
799 280 Pls
799 280 Pls
799 280 Pls
799 280 Pls
799 280 Pls
799 280 Pls
799 280 Pls
799 280 Pls
799 280 Pls
799 280 Pls
799 280 Pls
799 280 Pls
799 280 Pls
799 280 Pls
799 280 Pls
799 280 Pls
799 280 Pls
799 280 Pls
799 280 Pls
799 280 Pls
799 280 Pls
799 280 Pls
799 280 Pls
799 280 Pls
799 280 Pls
799 280 Pls
799 280 Pls
799 280 Pls
799 280 Pls
799 280 Pls
799 280 Pls
799 280 Pls
799 280 Pls
799 280 Pls
799 280 Pls
799 280 Pls
799 280 Pls
799 280 Pls
799 280 Pls
799 280 Pls
799 280 Pls
799 280 Pls
799 280 Pls
799 280 Pls
799 280 Pls
799 280 Pls
799 280 Pls
799 280 Pls
799 280 Pls
799 280 Pls
799 280 Pls
799 280 Pls
799 280 Pls
799 280 Pls
799 280 Pls
799 280 Pls
799 280 Pls
799 280 Pls
799 280 Pls
799 280 Pls
799 280 Pls
799 280 Pls
799 280 Pls
799 280 Pls
799 280 Pls
799 280 Pls
799 280 Pls
799 280 Pls
799 280 Pls
799 280 Pls
799 280 Pls
799 280 Pls
799 280 Pls
799 280 Pls
799 280 Pls
799 280 Pls
799 280 Pls
799 280 Pls
799 280 Pls
799 280 Pls
799 280 Pls
799 280 Pls
799 280 Pls
799 280 Pls
799 280 Pls
799 280 Pls
799 280 Pls
799 280 Pls
799 280 Pls
799 280 Pls
799 280 Pls
799 280 Pls
799 280 Pls
799 280 Pls
799 280 Pls
799 280 Pls
799 280 Pls
799 280 Pls
799 280 Pls
799 280 Pls
799 280 Pls
799 280 Pls
799 280 Pls
799 280 Pls
799 280 Pls
799 280 Pls
799 280 Pls
799 280 Pls
799 280 Pls
799 280 Pls
799 280 Pls
799 280 Pls
799 280 Pls
799 280 Pls
799 280 Pls
799 280 Pls
799 280 Pls
799 280 Pls
799 280 Pls
799 280 Pls
799 280 Pls
799 280 Pls
799 280 Pls
799 280 Pls
799 280 Pls
799 280 Pls
799 280 Pls
799 280 Pls
799 280 Pls
799 280 Pls
799 280 Pls
799 280 Pls
799 280 Pls
799 280 Pls
799 280 Pls
799 280 Pls
799 280 Pls
799 280 Pls
799 280 Pls
799 280 Pls
799 280 Pls
799 280 Pls
799 280 Pls
799 280 Pls
799 280 Pls
799 280 Pls
799 280 Pls
799 280 Pls
799 280 Pls
799 280 Pls
799 280 Pls
799 280 Pls
799 280 Pls
799 280 Pls
799 280 Pls
799 280 Pls
799 280 Pls
799 280 Pls
799 280 Pls
799 280 Pls
799 280 Pls
799 280 Pls
799 280 Pls
799 280 Pls
799 280 Pls
799 280 Pls
799 280 Pls
799 280 Pls
799 280 Pls
799 280 Pls
799 280 Pls
799 280 Pls
799 280 Pls
799 280 Pls
799 280 Pls
799 280 Pls
799 280 Pls
799 280 Pls
799 280 Pls
799 280 Pls
799 280 Pls
799 280 Pls
799 280 Pls
799 280 Pls
799 280 Pls
799 280 Pls
799 280 Pls
799 280 Pls
799 280 Pls
799 280 Pls
799 280 Pls
799 280 Pls
799 280 Pls
799 280 Pls
799 280 Pls
799 280 Pls
799 280 Pls
799 280 Pls
799 280 Pls
799 280 Pls
799 280 Pls
799 280 Pls
799 280 Pls
799 280 Pls
799 280 Pls
799 280 Pls
799 280 Pls
799 280 Pls
799 280 Pls
799 280 Pls
799 280 Pls
799 280 Pls
799 280 Pls
799 280 Pls
799 280 Pls
799 280 Pls
799 280 Pls
799 280 Pls
799 280 Pls
799 280 Pls
799 280 Pls
799 280 Pls
799 280 Pls
799 280 Pls
799 280 Pls
799 280 Pls
799 280 Pls
799 280 Pls
799 280 Pls
799 280 Pls
799 280 Pls
799 280 Pls
799 280 Pls
799 280 Pls
799 280 Pls
799 280 Pls
799 280 Pls
799 280 Pls
799 280 Pls
799 280 Pls
799 280 Pls
799 280 Pls
799 280 Pls
799 280 Pls
799 280 Pls
799 280 Pls
799 280 Pls
799 280 Pls
799 280 Pls
799 280 Pls
799 280 Pls
799 280 Pls
799 280 Pls
799 280 Pls
799 280 Pls
799 280 Pls
799 280 Pls
799 280 Pls
799 280 Pls
799 280 Pls
799 280 Pls
799 280 Pls
799 280 Pls
799 280 Pls
799 280 Pls
799 280 Pls
799 280 Pls
799 280 Pls
799 280 Pls
799 280 Pls
799 280 Pls
799 280 Pls
799 280 Pls
799 280 Pls
799 280 Pls
799 280 Pls
799 280 Pls
799 280 Pls
799 280 Pls
799 280 Pls
799 280 Pls
799 280 Pls
799 280 Pls
799 280 Pls
799 280 Pls
799 280 Pls
799 280 Pls
799 280 Pls
799 280 Pls
799 280 Pls
799 280 Pls
799 280 Pls
799 280 Pls
799 280 Pls
799 280 Pls
799 280 Pls
799 280 Pls
799 280 Pls
799 280 Pls
799 280 Pls
799 280 Pls
799 280 Pls
799 280 Pls
799 280 Pls
799 280 Pls
799 280 Pls
799 280 Pls
799 280 Pls
799 280 Pls
799 280 Pls
799 280 Pls
799 280 Pls
799 280 Pls
799 280 Pls
799 280 Pls
799 280 Pls
799 280 Pls
799 280 Pls
799 280 Pls
799 280 Pls
799 280 Pls
799 280 Pls
799 280 Pls
799 280 Pls
799 280 Pls
799 280 Pls
799 280 Pls
799 280 Pls
799 280 Pls
799 280 Pls
799 280 Pls
799 280 Pls
799 280 Pls
799 280 Pls
799 280 Pls
799 280 Pls
799 280 Pls
799 280 Pls
799 280 Pls
799 280 Pls
799 280 Pls
799 280 Pls
799 280 Pls
799 280 Pls
799 280 Pls
799 280 Pls
799 280 Pls
799 280 Pls
799 280 Pls
799 280 Pls
799 280 Pls
799 280 Pls
799 280 Pls
799 280 Pls
799 280 Pls
799 280 Pls
799 280 Pls
799 280 Pls
799 280 Pls
799 280 Pls
799 280 Pls
799 280 Pls
799 280 Pls
799 280 Pls
799 280 Pls
799 280 Pls
799 280 Pls
799 280 Pls
799 280 Pls
799 280 Pls
799 280 Pls
799 280 Pls
799 280 Pls
799 280 Pls
799 280 Pls
799 280 Pls
800 280 Pls
800 280 Pls
800 280 Pls
800 280 Pls
800 280 Pls
800 280 Pls
800 280 Pls
800 280 Pls
800 280 Pls
800 280 Pls
800 280 Pls
800 280 Pls
800 280 Pls
800 280 Pls
800 280 Pls
800 280 Pls
800 280 Pls
800 280 Pls
800 280 Pls
800 280 Pls
800 280 Pls
800 280 Pls
800 280 Pls
800 280 Pls
800 280 Pls
800 280 Pls
800 280 Pls
800 280 Pls
800 280 Pls
800 280 Pls
800 280 Pls
800 280 Pls
800 280 Pls
800 280 Pls
800 280 Pls
800 280 Pls
800 280 Pls
800 280 Pls
800 280 Pls
800 280 Pls
800 280 Pls
800 280 Pls
800 280 Pls
800 280 Pls
800 280 Pls
800 280 Pls
800 280 Pls
800 280 Pls
800 280 Pls
800 280 Pls
800 280 Pls
800 280 Pls
800 280 Pls
800 280 Pls
800 280 Pls
800 280 Pls
800 280 Pls
800 280 Pls
800 280 Pls
800 280 Pls
800 280 Pls
800 280 Pls
800 280 Pls
800 280 Pls
800 280 Pls
800 280 Pls
800 280 Pls
800 280 Pls
800 280 Pls
800 280 Pls
800 280 Pls
800 280 Pls
800 280 Pls
800 280 Pls
800 280 Pls
800 280 Pls
800 280 Pls
800 280 Pls
800 280 Pls
800 280 Pls
800 280 Pls
800 280 Pls
800 280 Pls
800 280 Pls
800 280 Pls
800 280 Pls
800 280 Pls
800 280 Pls
800 280 Pls
800 280 Pls
800 280 Pls
800 280 Pls
800 280 Pls
800 280 Pls
800 280 Pls
800 280 Pls
800 280 Pls
800 280 Pls
800 280 Pls
800 280 Pls
800 280 Pls
800 280 Pls
800 280 Pls
800 280 Pls
800 280 Pls
800 280 Pls
800 280 Pls
800 280 Pls
800 280 Pls
800 280 Pls
800 280 Pls
800 280 Pls
800 280 Pls
800 280 Pls
800 280 Pls
800 280 Pls
800 280 Pls
800 280 Pls
800 280 Pls
800 280 Pls
800 280 Pls
800 280 Pls
800 280 Pls
800 280 Pls
800 280 Pls
800 280 Pls
800 280 Pls
800 280 Pls
800 280 Pls
800 280 Pls
800 280 Pls
800 280 Pls
800 280 Pls
800 280 Pls
800 280 Pls
800 280 Pls
800 280 Pls
800 280 Pls
800 280 Pls
800 280 Pls
800 280 Pls
800 280 Pls
800 280 Pls
800 280 Pls
800 280 Pls
800 280 Pls
800 280 Pls
800 280 Pls
800 280 Pls
800 280 Pls
800 280 Pls
800 280 Pls
800 280 Pls
800 280 Pls
800 280 Pls
800 280 Pls
800 280 Pls
800 280 Pls
800 280 Pls
800 280 Pls
800 280 Pls
800 280 Pls
800 280 Pls
800 280 Pls
800 280 Pls
800 280 Pls
800 280 Pls
800 280 Pls
800 280 Pls
800 280 Pls
800 280 Pls
800 280 Pls
800 280 Pls
800 280 Pls
800 280 Pls
800 280 Pls
800 280 Pls
800 280 Pls
800 280 Pls
800 280 Pls
800 280 Pls
800 280 Pls
800 280 Pls
800 280 Pls
800 280 Pls
800 280 Pls
800 280 Pls
800 280 Pls
800 280 Pls
800 280 Pls
800 280 Pls
800 280 Pls
800 280 Pls
800 280 Pls
800 280 Pls
800 280 Pls
800 280 Pls
800 280 Pls
800 280 Pls
800 280 Pls
800 280 Pls
800 280 Pls
800 280 Pls
800 280 Pls
800 280 Pls
800 280 Pls
800 280 Pls
800 280 Pls
800 280 Pls
800 280 Pls
800 280 Pls
800 280 Pls
800 280 Pls
800 280 Pls
800 280 Pls
800 280 Pls
800 280 Pls
800 280 Pls
800 280 Pls
800 280 Pls
800 280 Pls
800 280 Pls
800 280 Pls
800 280 Pls
800 280 Pls
800 280 Pls
800 280 Pls
800 280 Pls
800 280 Pls
800 280 Pls
800 280 Pls
800 280 Pls
800 280 Pls
800 280 Pls
800 280 Pls
800 280 Pls
800 280 Pls
800 280 Pls
800 280 Pls
800 280 Pls
800 280 Pls
800 280 Pls
800 280 Pls
800 280 Pls
800 280 Pls
800 280 Pls
800 280 Pls
800 280 Pls
800 280 Pls
800 280 Pls
800 280 Pls
800 280 Pls
800 280 Pls
800 280 Pls
800 280 Pls
800 280 Pls
800 280 Pls
800 280 Pls
800 280 Pls
800 280 Pls
800 280 Pls
800 280 Pls
800 280 Pls
800 280 Pls
800 280 Pls
800 280 Pls
800 280 Pls
800 280 Pls
800 280 Pls
800 280 Pls
800 280 Pls
800 280 Pls
800 280 Pls
800 280 Pls
800 280 Pls
800 280 Pls
800 280 Pls
800 280 Pls
800 280 Pls
800 280 Pls
800 280 Pls
800 280 Pls
800 280 Pls
800 280 Pls
800 280 Pls
800 280 Pls
800 280 Pls
800 280 Pls
800 280 Pls
800 280 Pls
800 280 Pls
800 280 Pls
800 280 Pls
800 280 Pls
800 280 Pls
800 280 Pls
800 280 Pls
800 280 Pls
800 280 Pls
800 280 Pls
800 280 Pls
800 280 Pls
800 280 Pls
800 280 Pls
800 280 Pls
800 280 Pls
800 280 Pls
800 280 Pls
800 280 Pls
800 280 Pls
800 280 Pls
800 280 Pls
800 280 Pls
800 280 Pls
800 280 Pls
800 280 Pls
800 280 Pls
800 280 Pls
800 280 Pls
800 280 Pls
800 280 Pls
800 280 Pls
800 280 Pls
800 280 Pls
800 280 Pls
800 280 Pls
800 280 Pls
800 280 Pls
800 280 Pls
800 280 Pls
800 280 Pls
800 280 Pls
800 280 Pls
800 280 Pls
800 280 Pls
800 280 Pls
800 280 Pls
800 280 Pls
800 280 Pls
800 280 Pls
800 280 Pls
800 280 Pls
800 280 Pls
800 280 Pls
800 280 Pls
800 280 Pls
800 280 Pls
800 280 Pls
800 280 Pls
800 280 Pls
800 280 Pls
800 280 Pls
800 280 Pls
800 280 Pls
800 280 Pls
800 280 Pls
800 280 Pls
800 280 Pls
800 280 Pls
800 280 Pls
800 280 Pls
800 280 Pls
800 280 Pls
800 280 Pls
800 280 Pls
800 280 Pls
800 280 Pls
800 280 Pls
800 280 Pls
800 280 Pls
800 280 Pls
800 280 Pls
800 280 Pls
800 280 Pls
800 280 Pls
800 280 Pls
800 280 Pls
800 280 Pls
800 280 Pls
800 280 Pls
800 280 Pls
800 280 Pls
800 280 Pls
800 280 Pls
800 280 Pls
800 280 Pls
800 280 Pls
800 280 Pls
800 280 Pls
800 280 Pls
800 280 Pls
800 280 Pls
800 280 Pls
800 280 Pls
800 280 Pls
800 280 Pls
800 280 Pls
800 280 Pls
800 280 Pls
800 280 Pls
800 280 Pls
800 280 Pls
800 280 Pls
800 280 Pls
800 280 Pls
800 280 Pls
800 280 Pls
800 280 Pls
800 280 Pls
800 280 Pls
800 280 Pls
800 280 Pls
800 280 Pls
800 280 Pls
800 280 Pls
800 280 Pls
800 280 Pls
800 280 Pls
800 280 Pls
800 280 Pls
800 280 Pls
800 280 Pls
800 280 Pls
800 280 Pls
800 280 Pls
800 280 Pls
800 280 Pls
800 280 Pls
800 280 Pls
800 280 Pls
800 280 Pls
800 280 Pls
800 280 Pls
800 280 Pls
800 280 Pls
800 280 Pls
800 280 Pls
800 280 Pls
800 280 Pls
800 280 Pls
800 280 Pls
800 280 Pls
800 280 Pls
800 280 Pls
800 280 Pls
800 280 Pls
800 280 Pls
800 280 Pls
800 280 Pls
800 280 Pls
800 280 Pls
800 280 Pls
800 280 Pls
800 280 Pls
800 280 Pls
800 280 Pls
800 280 Pls
800 280 Pls
800 280 Pls
800 280 Pls
800 280 Pls
800 280 Pls
800 280 Pls
800 280 Pls
800 280 Pls
800 280 Pls
800 280 Pls
800 280 Pls
800 280 Pls
800 280 Pls
800 280 Pls
800 280 Pls
800 280 Pls
800 280 Pls
800 280 Pls
800 280 Pls
800 280 Pls
800 280 Pls
800 280 Pls
800 280 Pls
800 280 Pls
800 280 Pls
800 280 Pls
800 280 Pls
800 280 Pls
800 280 Pls
800 280 Pls
800 280 Pls
800 280 Pls
800 280 Pls
800 280 Pls
800 280 Pls
800 280 Pls
800 280 Pls
800 280 Pls
800 280 Pls
800 280 Pls
800 280 Pls
800 280 Pls
800 280 Pls
800 280 Pls
800 280 Pls
800 280 Pls
800 280 Pls
800 280 Pls
800 280 Pls
800 280 Pls
800 280 Pls
800 280 Pls
800 280 Pls
800 280 Pls
800 280 Pls
800 280 Pls
800 280 Pls
800 280 Pls
800 280 Pls
800 280 Pls
800 280 Pls
800 280 Pls
800 280 Pls
800 280 Pls
801 280 Pls
801 280 Pls
801 280 Pls
801 280 Pls
801 280 Pls
801 280 Pls
801 280 Pls
801 280 Pls
801 280 Pls
801 280 Pls
801 280 Pls
801 280 Pls
801 280 Pls
801 280 Pls
801 280 Pls
801 280 Pls
801 280 Pls
801 280 Pls
801 280 Pls
801 280 Pls
801 280 Pls
801 280 Pls
801 280 Pls
801 280 Pls
801 280 Pls
801 280 Pls
801 280 Pls
801 280 Pls
801 280 Pls
801 280 Pls
801 280 Pls
801 280 Pls
801 280 Pls
801 280 Pls
801 280 Pls
801 280 Pls
801 280 Pls
801 280 Pls
801 280 Pls
801 280 Pls
801 280 Pls
801 280 Pls
801 280 Pls
801 280 Pls
801 280 Pls
801 280 Pls
801 280 Pls
801 280 Pls
801 280 Pls
801 280 Pls
801 280 Pls
801 280 Pls
801 280 Pls
801 280 Pls
801 280 Pls
801 280 Pls
801 280 Pls
801 280 Pls
801 280 Pls
801 280 Pls
801 280 Pls
801 280 Pls
801 280 Pls
801 280 Pls
801 280 Pls
801 280 Pls
801 280 Pls
801 280 Pls
801 280 Pls
801 280 Pls
801 280 Pls
801 280 Pls
801 280 Pls
801 280 Pls
801 280 Pls
801 280 Pls
801 280 Pls
801 280 Pls
801 280 Pls
801 280 Pls
801 280 Pls
801 280 Pls
801 280 Pls
801 280 Pls
801 280 Pls
801 280 Pls
801 280 Pls
801 280 Pls
801 280 Pls
801 280 Pls
801 280 Pls
801 280 Pls
801 280 Pls
801 280 Pls
801 280 Pls
801 280 Pls
801 280 Pls
801 280 Pls
801 280 Pls
801 280 Pls
801 280 Pls
801 280 Pls
801 280 Pls
801 280 Pls
801 280 Pls
801 280 Pls
801 280 Pls
801 280 Pls
801 280 Pls
801 280 Pls
801 280 Pls
801 280 Pls
801 280 Pls
801 280 Pls
801 280 Pls
801 280 Pls
801 280 Pls
801 280 Pls
801 280 Pls
801 280 Pls
801 280 Pls
801 280 Pls
801 280 Pls
801 280 Pls
801 280 Pls
801 280 Pls
801 280 Pls
801 280 Pls
801 280 Pls
801 280 Pls
801 280 Pls
801 280 Pls
801 280 Pls
801 280 Pls
801 280 Pls
801 280 Pls
801 280 Pls
801 280 Pls
801 280 Pls
801 280 Pls
801 280 Pls
801 280 Pls
801 280 Pls
801 280 Pls
801 280 Pls
801 280 Pls
801 280 Pls
801 280 Pls
801 280 Pls
801 280 Pls
801 280 Pls
801 280 Pls
801 280 Pls
801 280 Pls
801 280 Pls
801 280 Pls
801 280 Pls
801 280 Pls
801 280 Pls
801 280 Pls
801 280 Pls
801 280 Pls
801 280 Pls
801 280 Pls
801 280 Pls
801 280 Pls
801 280 Pls
801 280 Pls
801 280 Pls
801 280 Pls
801 280 Pls
801 280 Pls
801 280 Pls
801 280 Pls
801 280 Pls
801 280 Pls
801 280 Pls
801 280 Pls
801 280 Pls
801 280 Pls
801 280 Pls
801 280 Pls
801 280 Pls
801 280 Pls
801 280 Pls
801 280 Pls
801 280 Pls
801 280 Pls
801 280 Pls
801 280 Pls
801 280 Pls
801 280 Pls
801 280 Pls
801 280 Pls
801 280 Pls
801 280 Pls
801 280 Pls
801 280 Pls
801 280 Pls
801 280 Pls
801 280 Pls
801 280 Pls
801 280 Pls
801 280 Pls
801 280 Pls
801 280 Pls
801 280 Pls
801 280 Pls
801 280 Pls
801 280 Pls
801 280 Pls
801 280 Pls
801 280 Pls
801 280 Pls
801 280 Pls
801 280 Pls
801 280 Pls
801 280 Pls
801 280 Pls
801 280 Pls
801 280 Pls
801 280 Pls
801 280 Pls
801 280 Pls
801 280 Pls
801 280 Pls
801 280 Pls
801 280 Pls
801 280 Pls
801 280 Pls
801 280 Pls
801 280 Pls
801 280 Pls
801 280 Pls
801 280 Pls
801 280 Pls
801 280 Pls
801 280 Pls
801 280 Pls
801 280 Pls
801 280 Pls
801 280 Pls
801 280 Pls
801 280 Pls
801 280 Pls
801 280 Pls
801 280 Pls
801 280 Pls
801 280 Pls
801 280 Pls
801 280 Pls
801 280 Pls
801 280 Pls
801 280 Pls
801 280 Pls
801 280 Pls
801 280 Pls
801 280 Pls
801 280 Pls
801 280 Pls
801 280 Pls
801 280 Pls
801 280 Pls
801 280 Pls
801 280 Pls
801 280 Pls
801 280 Pls
801 280 Pls
801 280 Pls
801 280 Pls
801 280 Pls
801 280 Pls
801 280 Pls
801 280 Pls
801 280 Pls
801 280 Pls
801 280 Pls
801 280 Pls
801 280 Pls
801 280 Pls
801 280 Pls
801 280 Pls
801 280 Pls
801 280 Pls
801 280 Pls
801 280 Pls
801 280 Pls
801 280 Pls
801 280 Pls
801 280 Pls
801 280 Pls
801 280 Pls
801 280 Pls
801 280 Pls
801 280 Pls
801 280 Pls
801 280 Pls
801 280 Pls
801 280 Pls
801 280 Pls
801 280 Pls
801 280 Pls
801 280 Pls
801 280 Pls
801 280 Pls
801 280 Pls
801 280 Pls
801 280 Pls
801 280 Pls
801 280 Pls
801 280 Pls
801 280 Pls
801 280 Pls
801 280 Pls
801 280 Pls
801 280 Pls
801 280 Pls
801 280 Pls
801 280 Pls
801 280 Pls
801 280 Pls
801 280 Pls
801 280 Pls
801 280 Pls
801 280 Pls
801 280 Pls
801 280 Pls
801 280 Pls
801 280 Pls
801 280 Pls
801 280 Pls
801 280 Pls
801 280 Pls
801 280 Pls
801 280 Pls
801 280 Pls
801 280 Pls
801 280 Pls
801 280 Pls
801 280 Pls
801 280 Pls
801 280 Pls
801 280 Pls
801 280 Pls
801 280 Pls
801 280 Pls
801 280 Pls
801 280 Pls
801 280 Pls
801 280 Pls
801 280 Pls
801 280 Pls
801 280 Pls
801 280 Pls
801 280 Pls
801 280 Pls
801 280 Pls
801 280 Pls
801 280 Pls
801 280 Pls
801 280 Pls
801 280 Pls
801 280 Pls
801 280 Pls
801 280 Pls
801 280 Pls
801 280 Pls
801 280 Pls
801 280 Pls
801 280 Pls
801 280 Pls
801 280 Pls
801 280 Pls
801 280 Pls
801 280 Pls
801 280 Pls
801 280 Pls
801 280 Pls
801 280 Pls
801 280 Pls
801 280 Pls
801 280 Pls
801 280 Pls
801 280 Pls
801 280 Pls
801 280 Pls
801 280 Pls
801 280 Pls
801 280 Pls
801 280 Pls
801 280 Pls
801 280 Pls
801 280 Pls
801 280 Pls
801 280 Pls
801 280 Pls
802 280 Pls
802 280 Pls
802 280 Pls
802 280 Pls
802 280 Pls
802 280 Pls
802 280 Pls
802 280 Pls
802 280 Pls
802 280 Pls
802 280 Pls
802 280 Pls
802 280 Pls
802 280 Pls
802 280 Pls
802 280 Pls
802 280 Pls
802 280 Pls
802 280 Pls
802 280 Pls
802 280 Pls
802 280 Pls
802 280 Pls
802 280 Pls
802 280 Pls
802 280 Pls
802 280 Pls
802 280 Pls
802 280 Pls
802 280 Pls
802 280 Pls
802 280 Pls
802 280 Pls
802 280 Pls
802 280 Pls
802 280 Pls
802 280 Pls
802 280 Pls
802 280 Pls
802 280 Pls
802 280 Pls
802 280 Pls
802 280 Pls
802 280 Pls
802 280 Pls
802 280 Pls
802 280 Pls
802 280 Pls
802 280 Pls
802 280 Pls
802 280 Pls
802 280 Pls
802 280 Pls
802 280 Pls
802 280 Pls
802 280 Pls
802 280 Pls
802 280 Pls
802 280 Pls
802 280 Pls
802 280 Pls
802 280 Pls
802 280 Pls
802 280 Pls
802 280 Pls
802 280 Pls
802 280 Pls
802 280 Pls
802 280 Pls
802 280 Pls
802 280 Pls
802 280 Pls
802 280 Pls
802 280 Pls
802 280 Pls
802 280 Pls
802 280 Pls
802 280 Pls
802 280 Pls
802 280 Pls
802 280 Pls
802 280 Pls
802 280 Pls
802 280 Pls
802 280 Pls
802 280 Pls
802 280 Pls
802 280 Pls
802 280 Pls
802 280 Pls
802 280 Pls
802 280 Pls
802 280 Pls
802 280 Pls
802 280 Pls
802 280 Pls
802 280 Pls
802 280 Pls
802 280 Pls
802 280 Pls
802 280 Pls
802 280 Pls
802 280 Pls
802 280 Pls
802 280 Pls
802 280 Pls
802 280 Pls
802 280 Pls
802 280 Pls
802 280 Pls
802 280 Pls
802 280 Pls
802 280 Pls
802 280 Pls
802 280 Pls
802 280 Pls
802 280 Pls
802 280 Pls
802 280 Pls
802 280 Pls
802 280 Pls
802 280 Pls
802 280 Pls
802 280 Pls
802 280 Pls
802 280 Pls
802 280 Pls
802 280 Pls
802 280 Pls
802 280 Pls
802 280 Pls
802 280 Pls
802 280 Pls
802 280 Pls
802 280 Pls
802 280 Pls
802 280 Pls
802 280 Pls
802 280 Pls
802 280 Pls
802 280 Pls
802 280 Pls
802 280 Pls
802 280 Pls
802 280 Pls
802 280 Pls
802 280 Pls
802 280 Pls
802 280 Pls
802 280 Pls
802 280 Pls
802 280 Pls
802 280 Pls
802 280 Pls
802 280 Pls
802 280 Pls
802 280 Pls
802 280 Pls
802 280 Pls
802 280 Pls
802 280 Pls
802 280 Pls
802 280 Pls
802 280 Pls
802 280 Pls
802 280 Pls
802 280 Pls
802 280 Pls
802 280 Pls
802 280 Pls
802 280 Pls
802 280 Pls
802 280 Pls
802 280 Pls
802 280 Pls
802 280 Pls
802 280 Pls
802 280 Pls
802 280 Pls
802 280 Pls
802 280 Pls
802 280 Pls
802 280 Pls
802 280 Pls
802 280 Pls
802 280 Pls
802 280 Pls
802 280 Pls
802 280 Pls
802 280 Pls
802 280 Pls
802 280 Pls
802 280 Pls
802 280 Pls
802 280 Pls
802 280 Pls
802 280 Pls
802 280 Pls
802 280 Pls
802 280 Pls
802 280 Pls
802 280 Pls
802 280 Pls
802 280 Pls
802 280 Pls
802 280 Pls
802 280 Pls
802 280 Pls
802 280 Pls
802 280 Pls
802 280 Pls
802 280 Pls
802 280 Pls
802 280 Pls
802 280 Pls
802 280 Pls
802 280 Pls
802 280 Pls
802 280 Pls
802 280 Pls
802 280 Pls
802 280 Pls
802 280 Pls
802 280 Pls
802 280 Pls
802 280 Pls
802 280 Pls
802 280 Pls
802 280 Pls
802 280 Pls
802 280 Pls
802 280 Pls
802 280 Pls
802 280 Pls
802 280 Pls
802 280 Pls
802 280 Pls
802 280 Pls
802 280 Pls
802 280 Pls
802 280 Pls
802 280 Pls
802 280 Pls
802 280 Pls
802 280 Pls
802 280 Pls
802 280 Pls
802 280 Pls
802 280 Pls
802 280 Pls
802 280 Pls
802 280 Pls
802 280 Pls
802 280 Pls
802 280 Pls
802 280 Pls
802 280 Pls
802 280 Pls
802 280 Pls
802 280 Pls
802 280 Pls
802 280 Pls
802 280 Pls
802 280 Pls
802 280 Pls
802 280 Pls
802 280 Pls
802 280 Pls
802 280 Pls
802 280 Pls
802 280 Pls
802 280 Pls
802 280 Pls
802 280 Pls
802 280 Pls
802 280 Pls
802 280 Pls
802 280 Pls
802 280 Pls
802 280 Pls
802 280 Pls
802 280 Pls
802 280 Pls
802 280 Pls
802 280 Pls
802 280 Pls
802 280 Pls
802 280 Pls
802 280 Pls
802 280 Pls
802 280 Pls
802 280 Pls
802 280 Pls
802 280 Pls
802 280 Pls
802 280 Pls
802 280 Pls
802 280 Pls
802 280 Pls
802 280 Pls
802 280 Pls
802 280 Pls
803 280 Pls
803 280 Pls
803 280 Pls
803 280 Pls
803 280 Pls
803 280 Pls
803 280 Pls
803 280 Pls
803 280 Pls
803 280 Pls
803 280 Pls
803 280 Pls
803 280 Pls
803 280 Pls
803 280 Pls
803 280 Pls
803 280 Pls
803 280 Pls
803 280 Pls
803 280 Pls
803 280 Pls
803 280 Pls
803 280 Pls
803 280 Pls
803 280 Pls
803 280 Pls
803 280 Pls
803 280 Pls
803 280 Pls
803 280 Pls
803 280 Pls
803 280 Pls
803 280 Pls
803 280 Pls
803 280 Pls
803 280 Pls
803 280 Pls
803 280 Pls
803 280 Pls
803 280 Pls
803 280 Pls
803 280 Pls
803 280 Pls
803 280 Pls
803 280 Pls
803 280 Pls
803 280 Pls
803 280 Pls
803 280 Pls
803 280 Pls
803 280 Pls
803 280 Pls
803 280 Pls
803 280 Pls
803 280 Pls
803 280 Pls
803 280 Pls
803 280 Pls
803 280 Pls
803 280 Pls
803 280 Pls
803 280 Pls
803 280 Pls
803 280 Pls
803 280 Pls
803 280 Pls
803 280 Pls
803 280 Pls
803 280 Pls
803 280 Pls
803 280 Pls
803 280 Pls
803 280 Pls
803 280 Pls
803 280 Pls
803 280 Pls
803 280 Pls
803 280 Pls
803 280 Pls
803 280 Pls
803 280 Pls
803 280 Pls
803 280 Pls
803 280 Pls
803 280 Pls
803 280 Pls
803 280 Pls
803 280 Pls
803 280 Pls
803 280 Pls
803 280 Pls
803 280 Pls
803 280 Pls
803 280 Pls
803 280 Pls
803 280 Pls
803 280 Pls
803 280 Pls
803 280 Pls
803 280 Pls
803 280 Pls
803 280 Pls
803 280 Pls
803 280 Pls
803 280 Pls
803 280 Pls
803 280 Pls
803 280 Pls
803 280 Pls
803 280 Pls
803 280 Pls
803 280 Pls
803 280 Pls
803 280 Pls
803 280 Pls
803 280 Pls
803 280 Pls
803 280 Pls
803 280 Pls
803 280 Pls
803 280 Pls
803 280 Pls
803 280 Pls
803 280 Pls
803 280 Pls
803 280 Pls
803 280 Pls
803 280 Pls
803 280 Pls
803 280 Pls
803 280 Pls
803 280 Pls
803 280 Pls
803 280 Pls
803 280 Pls
803 280 Pls
803 280 Pls
803 280 Pls
803 280 Pls
803 280 Pls
803 280 Pls
803 280 Pls
803 280 Pls
803 280 Pls
803 280 Pls
803 280 Pls
803 280 Pls
803 280 Pls
803 280 Pls
803 280 Pls
803 280 Pls
803 280 Pls
803 280 Pls
803 280 Pls
803 280 Pls
803 280 Pls
803 280 Pls
803 280 Pls
803 280 Pls
803 280 Pls
803 280 Pls
803 280 Pls
803 280 Pls
803 280 Pls
803 280 Pls
803 280 Pls
803 280 Pls
803 280 Pls
803 280 Pls
803 280 Pls
803 280 Pls
803 280 Pls
803 280 Pls
803 280 Pls
803 280 Pls
803 280 Pls
803 280 Pls
803 280 Pls
803 280 Pls
803 280 Pls
803 280 Pls
803 280 Pls
803 280 Pls
803 280 Pls
803 280 Pls
803 280 Pls
803 280 Pls
803 280 Pls
803 280 Pls
803 280 Pls
803 280 Pls
803 280 Pls
803 280 Pls
803 280 Pls
803 280 Pls
803 280 Pls
803 280 Pls
803 280 Pls
803 280 Pls
803 280 Pls
803 280 Pls
803 280 Pls
803 280 Pls
803 280 Pls
803 280 Pls
803 280 Pls
803 280 Pls
803 280 Pls
803 280 Pls
803 280 Pls
803 280 Pls
803 280 Pls
803 280 Pls
803 280 Pls
803 280 Pls
803 280 Pls
803 280 Pls
803 280 Pls
803 280 Pls
803 280 Pls
803 280 Pls
803 280 Pls
803 280 Pls
803 280 Pls
803 280 Pls
803 280 Pls
803 280 Pls
803 280 Pls
804 280 Pls
804 280 Pls
804 280 Pls
804 280 Pls
804 280 Pls
804 280 Pls
804 280 Pls
804 280 Pls
804 280 Pls
804 280 Pls
804 280 Pls
804 280 Pls
804 280 Pls
804 280 Pls
804 280 Pls
804 280 Pls
804 280 Pls
804 280 Pls
804 280 Pls
804 280 Pls
804 280 Pls
804 280 Pls
804 280 Pls
804 280 Pls
804 280 Pls
804 280 Pls
804 280 Pls
804 280 Pls
804 280 Pls
804 280 Pls
804 280 Pls
804 280 Pls
804 280 Pls
804 280 Pls
804 280 Pls
804 280 Pls
804 280 Pls
804 280 Pls
804 280 Pls
804 280 Pls
804 280 Pls
804 280 Pls
804 280 Pls
804 280 Pls
804 280 Pls
804 280 Pls
804 280 Pls
804 280 Pls
804 280 Pls
804 280 Pls
804 280 Pls
804 280 Pls
804 280 Pls
804 280 Pls
804 280 Pls
804 280 Pls
804 280 Pls
804 280 Pls
804 280 Pls
804 280 Pls
804 280 Pls
804 280 Pls
804 280 Pls
804 280 Pls
804 280 Pls
804 280 Pls
804 280 Pls
804 280 Pls
804 280 Pls
804 280 Pls
804 280 Pls
804 280 Pls
804 280 Pls
804 280 Pls
804 280 Pls
804 280 Pls
804 280 Pls
804 280 Pls
804 280 Pls
804 280 Pls
804 280 Pls
804 280 Pls
804 280 Pls
804 280 Pls
804 280 Pls
804 280 Pls
804 280 Pls
804 280 Pls
804 280 Pls
804 280 Pls
804 280 Pls
804 280 Pls
804 280 Pls
804 280 Pls
804 280 Pls
804 280 Pls
804 280 Pls
804 280 Pls
804 280 Pls
804 280 Pls
804 280 Pls
804 280 Pls
804 280 Pls
804 280 Pls
804 280 Pls
804 280 Pls
804 280 Pls
804 280 Pls
804 280 Pls
804 280 Pls
804 280 Pls
804 280 Pls
804 280 Pls
804 280 Pls
804 280 Pls
804 280 Pls
804 280 Pls
804 280 Pls
804 280 Pls
804 280 Pls
804 280 Pls
804 280 Pls
804 280 Pls
804 280 Pls
804 280 Pls
804 280 Pls
804 280 Pls
804 280 Pls
804 280 Pls
804 280 Pls
804 280 Pls
804 280 Pls
804 280 Pls
804 280 Pls
804 280 Pls
804 280 Pls
804 280 Pls
804 280 Pls
804 280 Pls
804 280 Pls
804 280 Pls
804 280 Pls
804 280 Pls
804 280 Pls
804 280 Pls
804 280 Pls
804 280 Pls
804 280 Pls
804 280 Pls
804 280 Pls
804 280 Pls
804 280 Pls
804 280 Pls
804 280 Pls
804 280 Pls
804 280 Pls
804 280 Pls
804 280 Pls
804 280 Pls
804 280 Pls
804 280 Pls
805 280 Pls
805 280 Pls
805 280 Pls
805 280 Pls
805 280 Pls
805 280 Pls
805 280 Pls
805 280 Pls
805 280 Pls
805 280 Pls
805 280 Pls
805 280 Pls
805 280 Pls
805 280 Pls
805 280 Pls
805 280 Pls
805 280 Pls
805 280 Pls
805 280 Pls
805 280 Pls
805 280 Pls
805 280 Pls
805 280 Pls
805 280 Pls
805 280 Pls
805 280 Pls
805 280 Pls
805 280 Pls
805 280 Pls
805 280 Pls
805 280 Pls
805 280 Pls
805 280 Pls
805 280 Pls
805 280 Pls
805 280 Pls
805 280 Pls
805 280 Pls
805 280 Pls
805 280 Pls
805 280 Pls
805 280 Pls
805 280 Pls
805 280 Pls
805 280 Pls
805 280 Pls
805 280 Pls
805 280 Pls
805 280 Pls
805 280 Pls
805 280 Pls
805 280 Pls
805 280 Pls
805 280 Pls
805 280 Pls
805 280 Pls
805 280 Pls
805 280 Pls
805 280 Pls
805 280 Pls
805 280 Pls
805 280 Pls
805 280 Pls
805 280 Pls
805 280 Pls
805 280 Pls
805 280 Pls
805 280 Pls
805 280 Pls
805 280 Pls
805 280 Pls
805 280 Pls
805 280 Pls
805 280 Pls
805 280 Pls
805 280 Pls
805 280 Pls
805 280 Pls
805 280 Pls
805 280 Pls
805 280 Pls
805 280 Pls
805 280 Pls
805 280 Pls
805 280 Pls
805 280 Pls
805 280 Pls
805 280 Pls
805 280 Pls
805 280 Pls
805 280 Pls
805 280 Pls
805 280 Pls
805 280 Pls
805 280 Pls
805 280 Pls
805 280 Pls
805 280 Pls
805 280 Pls
805 280 Pls
805 280 Pls
805 280 Pls
805 280 Pls
805 280 Pls
805 280 Pls
805 280 Pls
805 280 Pls
805 280 Pls
805 280 Pls
805 280 Pls
805 280 Pls
805 280 Pls
805 280 Pls
805 280 Pls
805 280 Pls
805 280 Pls
805 280 Pls
805 280 Pls
805 280 Pls
805 280 Pls
805 280 Pls
805 280 Pls
805 280 Pls
805 280 Pls
805 280 Pls
805 280 Pls
805 280 Pls
805 280 Pls
805 280 Pls
805 280 Pls
805 280 Pls
805 280 Pls
805 280 Pls
805 280 Pls
805 280 Pls
805 280 Pls
805 280 Pls
805 280 Pls
805 280 Pls
805 280 Pls
805 280 Pls
805 280 Pls
805 280 Pls
805 280 Pls
805 280 Pls
805 280 Pls
805 280 Pls
805 280 Pls
805 280 Pls
805 280 Pls
806 280 Pls
806 280 Pls
806 280 Pls
806 280 Pls
806 280 Pls
806 280 Pls
806 280 Pls
806 280 Pls
806 280 Pls
806 280 Pls
806 280 Pls
806 280 Pls
806 280 Pls
806 280 Pls
806 280 Pls
806 280 Pls
806 280 Pls
806 280 Pls
806 280 Pls
806 280 Pls
806 280 Pls
806 280 Pls
806 280 Pls
806 280 Pls
806 280 Pls
806 280 Pls
806 280 Pls
806 280 Pls
806 280 Pls
806 280 Pls
806 280 Pls
806 280 Pls
806 280 Pls
806 280 Pls
806 280 Pls
806 280 Pls
806 280 Pls
806 280 Pls
806 280 Pls
806 280 Pls
806 280 Pls
806 280 Pls
806 280 Pls
806 280 Pls
806 280 Pls
806 280 Pls
806 280 Pls
806 280 Pls
806 280 Pls
806 280 Pls
806 280 Pls
806 280 Pls
806 280 Pls
806 280 Pls
806 280 Pls
806 280 Pls
806 280 Pls
806 280 Pls
806 280 Pls
806 280 Pls
806 280 Pls
806 280 Pls
806 280 Pls
806 280 Pls
806 280 Pls
806 280 Pls
806 280 Pls
806 280 Pls
806 280 Pls
806 280 Pls
806 280 Pls
806 280 Pls
806 280 Pls
806 280 Pls
806 280 Pls
806 280 Pls
806 280 Pls
806 280 Pls
806 280 Pls
806 280 Pls
806 280 Pls
806 280 Pls
806 280 Pls
806 280 Pls
806 280 Pls
806 280 Pls
806 280 Pls
806 280 Pls
806 280 Pls
806 280 Pls
806 280 Pls
806 280 Pls
806 280 Pls
806 280 Pls
806 280 Pls
806 280 Pls
806 280 Pls
806 280 Pls
806 280 Pls
806 280 Pls
806 280 Pls
806 280 Pls
806 280 Pls
806 280 Pls
806 280 Pls
806 280 Pls
806 280 Pls
806 280 Pls
806 280 Pls
806 280 Pls
806 280 Pls
806 280 Pls
806 280 Pls
806 280 Pls
806 280 Pls
807 280 Pls
807 280 Pls
807 280 Pls
807 280 Pls
807 280 Pls
807 280 Pls
807 280 Pls
807 280 Pls
807 280 Pls
807 280 Pls
807 280 Pls
807 280 Pls
807 280 Pls
807 280 Pls
807 280 Pls
807 280 Pls
807 280 Pls
807 280 Pls
807 280 Pls
807 280 Pls
807 280 Pls
807 280 Pls
807 280 Pls
807 280 Pls
807 280 Pls
807 280 Pls
807 280 Pls
807 280 Pls
807 280 Pls
807 280 Pls
807 280 Pls
807 280 Pls
807 280 Pls
807 280 Pls
807 280 Pls
807 280 Pls
807 280 Pls
807 280 Pls
807 280 Pls
807 280 Pls
807 280 Pls
807 280 Pls
807 280 Pls
807 280 Pls
807 280 Pls
807 280 Pls
807 280 Pls
807 280 Pls
807 280 Pls
807 280 Pls
807 280 Pls
807 280 Pls
807 280 Pls
807 280 Pls
807 280 Pls
807 280 Pls
807 280 Pls
807 280 Pls
807 280 Pls
807 280 Pls
807 280 Pls
807 280 Pls
807 280 Pls
807 280 Pls
807 280 Pls
807 280 Pls
807 280 Pls
807 280 Pls
807 280 Pls
807 280 Pls
807 280 Pls
807 280 Pls
807 280 Pls
807 280 Pls
807 280 Pls
807 280 Pls
807 280 Pls
807 280 Pls
807 280 Pls
807 280 Pls
807 280 Pls
807 280 Pls
807 280 Pls
807 280 Pls
807 280 Pls
807 280 Pls
807 280 Pls
807 280 Pls
807 280 Pls
807 280 Pls
807 280 Pls
807 280 Pls
807 280 Pls
807 280 Pls
807 280 Pls
807 280 Pls
807 280 Pls
807 280 Pls
807 280 Pls
807 280 Pls
807 280 Pls
807 280 Pls
807 280 Pls
807 280 Pls
807 280 Pls
807 280 Pls
807 280 Pls
807 280 Pls
807 280 Pls
808 280 Pls
808 280 Pls
808 280 Pls
808 280 Pls
808 280 Pls
808 280 Pls
808 280 Pls
808 280 Pls
808 280 Pls
808 280 Pls
808 280 Pls
808 280 Pls
808 280 Pls
808 280 Pls
808 280 Pls
808 280 Pls
808 280 Pls
808 280 Pls
808 280 Pls
808 280 Pls
808 280 Pls
808 280 Pls
808 280 Pls
808 280 Pls
808 280 Pls
808 280 Pls
808 280 Pls
808 280 Pls
808 280 Pls
808 280 Pls
808 280 Pls
808 280 Pls
808 280 Pls
808 280 Pls
808 280 Pls
808 280 Pls
808 280 Pls
808 280 Pls
808 280 Pls
808 280 Pls
808 280 Pls
808 280 Pls
808 280 Pls
808 280 Pls
808 280 Pls
808 280 Pls
808 280 Pls
808 280 Pls
808 280 Pls
808 280 Pls
808 280 Pls
808 280 Pls
808 280 Pls
808 280 Pls
808 280 Pls
808 280 Pls
808 280 Pls
808 280 Pls
808 280 Pls
808 280 Pls
808 280 Pls
808 280 Pls
808 280 Pls
808 280 Pls
808 280 Pls
808 280 Pls
808 280 Pls
808 280 Pls
808 280 Pls
808 280 Pls
809 280 Pls
809 280 Pls
809 280 Pls
809 280 Pls
809 280 Pls
809 280 Pls
809 280 Pls
809 280 Pls
809 280 Pls
809 280 Pls
809 280 Pls
809 280 Pls
809 280 Pls
809 280 Pls
809 280 Pls
809 280 Pls
809 280 Pls
809 280 Pls
809 280 Pls
809 280 Pls
809 280 Pls
809 280 Pls
809 280 Pls
809 280 Pls
809 280 Pls
809 280 Pls
809 280 Pls
809 280 Pls
809 280 Pls
809 280 Pls
809 280 Pls
809 280 Pls
809 280 Pls
809 280 Pls
809 280 Pls
809 280 Pls
809 280 Pls
809 280 Pls
809 280 Pls
809 280 Pls
809 280 Pls
809 280 Pls
809 280 Pls
809 280 Pls
809 280 Pls
809 280 Pls
809 280 Pls
809 280 Pls
809 280 Pls
809 280 Pls
809 280 Pls
809 280 Pls
809 280 Pls
809 280 Pls
809 280 Pls
809 280 Pls
809 280 Pls
809 280 Pls
809 280 Pls
809 280 Pls
809 280 Pls
809 280 Pls
809 280 Pls
809 280 Pls
809 280 Pls
809 280 Pls
809 280 Pls
809 280 Pls
809 280 Pls
809 280 Pls
809 280 Pls
809 280 Pls
809 280 Pls
809 280 Pls
809 280 Pls
809 280 Pls
809 280 Pls
809 280 Pls
809 280 Pls
810 280 Pls
810 280 Pls
810 280 Pls
810 280 Pls
810 280 Pls
810 280 Pls
810 280 Pls
810 280 Pls
810 280 Pls
810 280 Pls
810 280 Pls
810 280 Pls
810 280 Pls
810 280 Pls
810 280 Pls
810 280 Pls
810 280 Pls
810 280 Pls
810 280 Pls
810 280 Pls
810 280 Pls
810 280 Pls
810 280 Pls
810 280 Pls
810 280 Pls
810 280 Pls
810 280 Pls
810 280 Pls
810 280 Pls
810 280 Pls
810 280 Pls
810 280 Pls
810 280 Pls
810 280 Pls
810 280 Pls
810 280 Pls
810 280 Pls
810 280 Pls
810 280 Pls
810 280 Pls
810 280 Pls
810 280 Pls
810 280 Pls
810 280 Pls
810 280 Pls
810 280 Pls
810 280 Pls
810 280 Pls
810 280 Pls
810 280 Pls
810 280 Pls
810 280 Pls
810 280 Pls
810 280 Pls
810 280 Pls
810 280 Pls
810 280 Pls
811 280 Pls
811 280 Pls
811 280 Pls
811 280 Pls
811 280 Pls
811 280 Pls
811 280 Pls
811 280 Pls
811 280 Pls
811 280 Pls
811 280 Pls
811 280 Pls
811 280 Pls
811 280 Pls
811 280 Pls
811 280 Pls
811 280 Pls
811 280 Pls
811 280 Pls
811 280 Pls
811 280 Pls
811 280 Pls
811 280 Pls
811 280 Pls
811 280 Pls
811 280 Pls
811 280 Pls
811 280 Pls
811 280 Pls
811 280 Pls
811 280 Pls
811 280 Pls
811 280 Pls
811 280 Pls
811 280 Pls
811 280 Pls
811 280 Pls
811 280 Pls
811 280 Pls
811 280 Pls
811 280 Pls
811 280 Pls
811 280 Pls
811 280 Pls
811 280 Pls
811 280 Pls
811 280 Pls
811 280 Pls
811 280 Pls
811 280 Pls
811 280 Pls
811 280 Pls
811 280 Pls
811 280 Pls
811 280 Pls
811 280 Pls
811 280 Pls
811 280 Pls
811 280 Pls
811 280 Pls
811 280 Pls
811 280 Pls
811 280 Pls
811 280 Pls
811 280 Pls
811 280 Pls
811 280 Pls
811 280 Pls
811 280 Pls
811 280 Pls
811 280 Pls
811 280 Pls
811 280 Pls
811 280 Pls
811 280 Pls
811 280 Pls
811 280 Pls
811 280 Pls
811 280 Pls
811 280 Pls
811 280 Pls
811 280 Pls
811 280 Pls
812 280 Pls
812 280 Pls
812 280 Pls
812 280 Pls
812 280 Pls
812 280 Pls
812 280 Pls
812 280 Pls
812 280 Pls
812 280 Pls
812 280 Pls
812 280 Pls
812 280 Pls
812 280 Pls
812 280 Pls
812 280 Pls
812 280 Pls
812 280 Pls
812 280 Pls
812 280 Pls
812 280 Pls
812 280 Pls
812 280 Pls
812 280 Pls
812 280 Pls
812 280 Pls
812 280 Pls
812 280 Pls
812 280 Pls
812 280 Pls
812 280 Pls
812 280 Pls
812 280 Pls
812 280 Pls
812 280 Pls
812 280 Pls
812 280 Pls
812 280 Pls
812 280 Pls
812 280 Pls
813 280 Pls
813 280 Pls
813 280 Pls
813 280 Pls
813 280 Pls
813 280 Pls
813 280 Pls
813 280 Pls
813 280 Pls
813 280 Pls
813 280 Pls
813 280 Pls
813 280 Pls
813 280 Pls
813 280 Pls
813 280 Pls
813 280 Pls
813 280 Pls
813 280 Pls
813 280 Pls
813 280 Pls
813 280 Pls
813 280 Pls
813 280 Pls
813 280 Pls
813 280 Pls
813 280 Pls
813 280 Pls
813 280 Pls
813 280 Pls
813 280 Pls
813 280 Pls
813 280 Pls
813 280 Pls
813 280 Pls
813 280 Pls
813 280 Pls
813 280 Pls
813 280 Pls
813 280 Pls
813 280 Pls
813 280 Pls
813 280 Pls
813 280 Pls
813 280 Pls
813 280 Pls
813 280 Pls
813 280 Pls
813 280 Pls
813 280 Pls
813 280 Pls
813 280 Pls
813 280 Pls
813 280 Pls
813 280 Pls
813 280 Pls
814 280 Pls
814 280 Pls
814 280 Pls
814 280 Pls
814 280 Pls
814 280 Pls
814 280 Pls
814 280 Pls
814 280 Pls
814 280 Pls
814 280 Pls
814 280 Pls
814 280 Pls
814 280 Pls
814 280 Pls
814 280 Pls
814 280 Pls
814 280 Pls
814 280 Pls
814 280 Pls
814 280 Pls
814 280 Pls
814 280 Pls
814 280 Pls
814 280 Pls
814 280 Pls
814 280 Pls
814 280 Pls
814 280 Pls
814 280 Pls
814 280 Pls
814 280 Pls
814 280 Pls
814 280 Pls
814 280 Pls
814 280 Pls
814 280 Pls
814 280 Pls
814 280 Pls
814 280 Pls
814 280 Pls
814 280 Pls
815 280 Pls
815 280 Pls
815 280 Pls
815 280 Pls
815 280 Pls
815 280 Pls
815 280 Pls
815 280 Pls
815 280 Pls
815 280 Pls
815 280 Pls
815 280 Pls
815 280 Pls
815 280 Pls
815 280 Pls
815 280 Pls
815 280 Pls
815 280 Pls
815 280 Pls
815 280 Pls
815 280 Pls
815 280 Pls
815 280 Pls
815 280 Pls
815 280 Pls
815 280 Pls
815 280 Pls
815 280 Pls
815 280 Pls
815 280 Pls
815 280 Pls
815 280 Pls
815 280 Pls
815 280 Pls
815 280 Pls
815 280 Pls
815 280 Pls
815 280 Pls
815 280 Pls
815 280 Pls
816 280 Pls
816 280 Pls
816 280 Pls
816 280 Pls
816 280 Pls
816 280 Pls
816 280 Pls
816 280 Pls
816 280 Pls
816 280 Pls
816 280 Pls
816 280 Pls
816 280 Pls
816 280 Pls
816 280 Pls
816 280 Pls
816 280 Pls
816 280 Pls
816 280 Pls
816 280 Pls
816 280 Pls
816 280 Pls
816 280 Pls
816 280 Pls
816 280 Pls
816 280 Pls
816 280 Pls
816 280 Pls
816 280 Pls
816 280 Pls
816 280 Pls
816 280 Pls
816 280 Pls
816 280 Pls
817 280 Pls
817 280 Pls
817 280 Pls
817 280 Pls
817 280 Pls
817 280 Pls
817 280 Pls
817 280 Pls
817 280 Pls
817 280 Pls
817 280 Pls
817 280 Pls
817 280 Pls
817 280 Pls
817 280 Pls
817 280 Pls
817 280 Pls
817 280 Pls
817 280 Pls
817 280 Pls
817 280 Pls
817 280 Pls
817 280 Pls
817 280 Pls
817 280 Pls
817 280 Pls
817 280 Pls
817 280 Pls
817 280 Pls
817 280 Pls
817 280 Pls
817 280 Pls
817 280 Pls
817 280 Pls
817 280 Pls
817 280 Pls
817 280 Pls
817 280 Pls
817 280 Pls
817 280 Pls
817 280 Pls
817 280 Pls
817 280 Pls
817 280 Pls
817 280 Pls
818 280 Pls
818 280 Pls
818 280 Pls
818 280 Pls
818 280 Pls
818 280 Pls
818 280 Pls
818 280 Pls
818 280 Pls
818 280 Pls
818 280 Pls
818 280 Pls
818 280 Pls
818 280 Pls
818 280 Pls
818 280 Pls
818 280 Pls
818 280 Pls
818 280 Pls
818 280 Pls
818 280 Pls
818 280 Pls
818 280 Pls
818 280 Pls
818 280 Pls
818 280 Pls
818 280 Pls
818 280 Pls
818 280 Pls
818 280 Pls
818 280 Pls
819 280 Pls
819 280 Pls
819 280 Pls
819 280 Pls
819 280 Pls
819 280 Pls
819 280 Pls
819 280 Pls
819 280 Pls
819 280 Pls
819 280 Pls
819 280 Pls
819 280 Pls
819 280 Pls
819 280 Pls
819 280 Pls
819 280 Pls
819 280 Pls
819 280 Pls
819 280 Pls
819 280 Pls
819 280 Pls
819 280 Pls
819 280 Pls
819 280 Pls
819 280 Pls
819 280 Pls
819 280 Pls
819 280 Pls
819 280 Pls
819 280 Pls
819 280 Pls
819 280 Pls
820 280 Pls
820 280 Pls
820 280 Pls
820 280 Pls
820 280 Pls
820 280 Pls
820 280 Pls
820 280 Pls
820 280 Pls
820 280 Pls
820 280 Pls
820 280 Pls
820 280 Pls
820 280 Pls
820 280 Pls
820 280 Pls
820 280 Pls
820 280 Pls
820 280 Pls
820 280 Pls
820 280 Pls
820 280 Pls
820 280 Pls
820 280 Pls
820 280 Pls
820 280 Pls
820 280 Pls
820 280 Pls
820 280 Pls
820 280 Pls
820 280 Pls
820 280 Pls
820 280 Pls
820 280 Pls
820 280 Pls
820 280 Pls
820 280 Pls
821 280 Pls
821 280 Pls
821 280 Pls
821 280 Pls
821 280 Pls
821 280 Pls
821 280 Pls
821 280 Pls
821 280 Pls
821 280 Pls
821 280 Pls
821 280 Pls
821 280 Pls
821 280 Pls
821 280 Pls
821 280 Pls
821 280 Pls
821 280 Pls
821 280 Pls
821 280 Pls
821 280 Pls
821 280 Pls
821 280 Pls
821 280 Pls
821 280 Pls
821 280 Pls
821 280 Pls
821 280 Pls
821 280 Pls
821 280 Pls
821 280 Pls
821 280 Pls
821 280 Pls
821 280 Pls
821 280 Pls
821 280 Pls
821 280 Pls
821 280 Pls
821 280 Pls
821 280 Pls
821 280 Pls
821 280 Pls
821 280 Pls
821 280 Pls
822 280 Pls
822 280 Pls
822 280 Pls
822 280 Pls
822 280 Pls
822 280 Pls
822 280 Pls
822 280 Pls
822 280 Pls
822 280 Pls
822 280 Pls
822 280 Pls
822 280 Pls
822 280 Pls
822 280 Pls
822 280 Pls
822 280 Pls
822 280 Pls
822 280 Pls
822 280 Pls
822 280 Pls
822 280 Pls
822 280 Pls
822 280 Pls
822 280 Pls
822 280 Pls
822 280 Pls
822 280 Pls
822 280 Pls
822 280 Pls
822 280 Pls
822 280 Pls
822 280 Pls
822 280 Pls
822 280 Pls
822 280 Pls
822 280 Pls
822 280 Pls
822 280 Pls
822 280 Pls
823 280 Pls
823 280 Pls
823 280 Pls
823 280 Pls
823 280 Pls
823 280 Pls
823 280 Pls
823 280 Pls
823 280 Pls
823 280 Pls
823 280 Pls
823 280 Pls
823 280 Pls
823 280 Pls
823 280 Pls
823 280 Pls
823 280 Pls
823 280 Pls
823 280 Pls
823 280 Pls
823 280 Pls
824 280 Pls
824 280 Pls
824 280 Pls
824 280 Pls
824 280 Pls
824 280 Pls
824 280 Pls
824 280 Pls
824 280 Pls
824 280 Pls
824 280 Pls
824 280 Pls
824 280 Pls
824 280 Pls
824 280 Pls
824 280 Pls
824 280 Pls
824 280 Pls
824 280 Pls
824 280 Pls
824 280 Pls
824 280 Pls
824 280 Pls
824 280 Pls
824 280 Pls
824 280 Pls
824 280 Pls
824 280 Pls
824 280 Pls
824 280 Pls
824 280 Pls
824 280 Pls
825 280 Pls
825 280 Pls
825 280 Pls
825 280 Pls
825 280 Pls
825 280 Pls
825 280 Pls
825 280 Pls
825 280 Pls
825 280 Pls
825 280 Pls
825 280 Pls
825 280 Pls
825 280 Pls
825 280 Pls
825 280 Pls
826 280 Pls
826 280 Pls
826 280 Pls
826 280 Pls
826 280 Pls
826 280 Pls
826 280 Pls
826 280 Pls
826 280 Pls
826 280 Pls
826 280 Pls
826 280 Pls
826 280 Pls
826 280 Pls
827 280 Pls
827 280 Pls
827 280 Pls
827 280 Pls
827 280 Pls
827 280 Pls
827 280 Pls
827 280 Pls
827 280 Pls
827 280 Pls
827 280 Pls
827 280 Pls
827 280 Pls
827 280 Pls
827 280 Pls
827 280 Pls
827 280 Pls
827 280 Pls
827 280 Pls
828 280 Pls
828 280 Pls
828 280 Pls
828 280 Pls
828 280 Pls
828 280 Pls
828 280 Pls
828 280 Pls
828 280 Pls
828 280 Pls
828 280 Pls
828 280 Pls
828 280 Pls
828 280 Pls
828 280 Pls
828 280 Pls
828 280 Pls
828 280 Pls
828 280 Pls
828 280 Pls
828 280 Pls
828 280 Pls
828 280 Pls
828 280 Pls
828 280 Pls
828 280 Pls
828 280 Pls
829 280 Pls
829 280 Pls
829 280 Pls
829 280 Pls
829 280 Pls
829 280 Pls
829 280 Pls
829 280 Pls
829 280 Pls
829 280 Pls
829 280 Pls
829 280 Pls
829 280 Pls
829 280 Pls
829 280 Pls
829 280 Pls
829 280 Pls
829 280 Pls
829 280 Pls
830 280 Pls
830 280 Pls
830 280 Pls
830 280 Pls
830 280 Pls
830 280 Pls
830 280 Pls
830 280 Pls
830 280 Pls
830 280 Pls
830 280 Pls
830 280 Pls
831 280 Pls
831 280 Pls
831 280 Pls
831 280 Pls
831 280 Pls
831 280 Pls
831 280 Pls
831 280 Pls
831 280 Pls
831 280 Pls
831 280 Pls
831 280 Pls
831 280 Pls
831 280 Pls
831 280 Pls
831 280 Pls
831 280 Pls
831 280 Pls
831 280 Pls
831 280 Pls
831 280 Pls
831 280 Pls
831 280 Pls
831 280 Pls
831 280 Pls
832 280 Pls
832 280 Pls
832 280 Pls
832 280 Pls
832 280 Pls
832 280 Pls
832 280 Pls
832 280 Pls
832 280 Pls
832 280 Pls
832 280 Pls
832 280 Pls
832 280 Pls
832 280 Pls
832 280 Pls
832 280 Pls
832 280 Pls
832 280 Pls
832 280 Pls
832 280 Pls
833 280 Pls
833 280 Pls
833 280 Pls
833 280 Pls
833 280 Pls
833 280 Pls
833 280 Pls
833 280 Pls
833 280 Pls
833 280 Pls
833 280 Pls
833 280 Pls
833 280 Pls
833 280 Pls
833 280 Pls
833 280 Pls
833 280 Pls
833 280 Pls
833 280 Pls
833 280 Pls
834 280 Pls
834 280 Pls
834 280 Pls
834 280 Pls
834 280 Pls
834 280 Pls
834 280 Pls
834 280 Pls
834 280 Pls
834 280 Pls
834 280 Pls
834 280 Pls
835 280 Pls
835 280 Pls
835 280 Pls
835 280 Pls
835 280 Pls
835 280 Pls
835 280 Pls
835 280 Pls
835 280 Pls
835 280 Pls
835 280 Pls
836 280 Pls
836 280 Pls
836 280 Pls
836 280 Pls
836 280 Pls
836 280 Pls
836 280 Pls
836 280 Pls
836 280 Pls
836 280 Pls
836 280 Pls
836 280 Pls
836 280 Pls
836 280 Pls
836 280 Pls
837 280 Pls
837 280 Pls
837 280 Pls
837 280 Pls
837 280 Pls
837 280 Pls
837 280 Pls
837 280 Pls
837 280 Pls
837 280 Pls
838 280 Pls
838 280 Pls
838 280 Pls
838 280 Pls
838 280 Pls
838 280 Pls
838 280 Pls
838 280 Pls
838 280 Pls
838 280 Pls
838 280 Pls
838 280 Pls
838 280 Pls
839 280 Pls
839 280 Pls
839 280 Pls
839 280 Pls
839 280 Pls
839 280 Pls
839 280 Pls
839 280 Pls
839 280 Pls
839 280 Pls
839 280 Pls
839 280 Pls
839 280 Pls
839 280 Pls
839 280 Pls
839 280 Pls
839 280 Pls
839 280 Pls
839 280 Pls
839 280 Pls
839 280 Pls
839 280 Pls
839 280 Pls
839 280 Pls
840 280 Pls
840 280 Pls
840 280 Pls
840 280 Pls
840 280 Pls
840 280 Pls
840 280 Pls
840 280 Pls
840 280 Pls
840 280 Pls
840 280 Pls
840 280 Pls
840 280 Pls
840 280 Pls
840 280 Pls
840 280 Pls
840 280 Pls
840 280 Pls
840 280 Pls
840 280 Pls
840 280 Pls
840 280 Pls
840 280 Pls
840 280 Pls
840 280 Pls
840 280 Pls
840 280 Pls
840 280 Pls
840 280 Pls
840 280 Pls
840 280 Pls
840 280 Pls
840 280 Pls
840 280 Pls
840 280 Pls
840 280 Pls
840 280 Pls
840 280 Pls
840 280 Pls
840 280 Pls
840 280 Pls
840 280 Pls
840 280 Pls
840 280 Pls
840 280 Pls
840 280 Pls
840 280 Pls
840 280 Pls
840 280 Pls
840 280 Pls
840 280 Pls
840 280 Pls
841 280 Pls
841 280 Pls
841 280 Pls
841 280 Pls
841 280 Pls
841 280 Pls
841 280 Pls
841 280 Pls
841 280 Pls
841 280 Pls
841 280 Pls
841 280 Pls
841 280 Pls
841 280 Pls
841 280 Pls
841 280 Pls
841 280 Pls
841 280 Pls
841 280 Pls
841 280 Pls
841 280 Pls
841 280 Pls
841 280 Pls
841 280 Pls
841 280 Pls
841 280 Pls
841 280 Pls
841 280 Pls
841 280 Pls
841 280 Pls
841 280 Pls
841 280 Pls
841 280 Pls
841 280 Pls
841 280 Pls
841 280 Pls
841 280 Pls
841 280 Pls
841 280 Pls
841 280 Pls
841 280 Pls
841 280 Pls
841 280 Pls
841 280 Pls
841 280 Pls
841 280 Pls
841 280 Pls
841 280 Pls
841 280 Pls
841 280 Pls
841 280 Pls
841 280 Pls
841 280 Pls
841 280 Pls
841 280 Pls
841 280 Pls
841 280 Pls
842 280 Pls
842 280 Pls
842 280 Pls
842 280 Pls
842 280 Pls
842 280 Pls
842 280 Pls
842 280 Pls
842 280 Pls
842 280 Pls
842 280 Pls
842 280 Pls
842 280 Pls
842 280 Pls
842 280 Pls
842 280 Pls
842 280 Pls
842 280 Pls
842 280 Pls
842 280 Pls
842 280 Pls
842 280 Pls
842 280 Pls
842 280 Pls
842 280 Pls
842 280 Pls
842 280 Pls
842 280 Pls
842 280 Pls
842 280 Pls
842 280 Pls
842 280 Pls
842 280 Pls
842 280 Pls
842 280 Pls
842 280 Pls
842 280 Pls
842 280 Pls
842 280 Pls
842 280 Pls
842 280 Pls
842 280 Pls
842 280 Pls
842 280 Pls
842 280 Pls
842 280 Pls
842 280 Pls
843 280 Pls
843 280 Pls
843 280 Pls
843 280 Pls
843 280 Pls
843 280 Pls
843 280 Pls
843 280 Pls
843 280 Pls
843 280 Pls
843 280 Pls
843 280 Pls
843 280 Pls
843 280 Pls
844 280 Pls
844 280 Pls
844 280 Pls
844 280 Pls
844 280 Pls
844 280 Pls
844 280 Pls
844 280 Pls
844 280 Pls
844 280 Pls
844 280 Pls
844 280 Pls
844 280 Pls
844 280 Pls
845 280 Pls
845 280 Pls
845 280 Pls
845 280 Pls
845 280 Pls
845 280 Pls
845 280 Pls
845 280 Pls
845 280 Pls
845 280 Pls
845 280 Pls
845 280 Pls
846 280 Pls
846 280 Pls
846 280 Pls
846 280 Pls
846 280 Pls
846 280 Pls
846 280 Pls
846 280 Pls
846 280 Pls
846 280 Pls
846 280 Pls
846 280 Pls
847 280 Pls
847 280 Pls
847 280 Pls
847 280 Pls
847 280 Pls
847 280 Pls
847 280 Pls
847 280 Pls
847 280 Pls
848 280 Pls
848 280 Pls
848 280 Pls
848 280 Pls
848 280 Pls
849 280 Pls
849 280 Pls
849 280 Pls
849 280 Pls
849 280 Pls
849 280 Pls
849 280 Pls
850 280 Pls
850 280 Pls
850 280 Pls
850 280 Pls
850 280 Pls
850 280 Pls
850 280 Pls
851 280 Pls
851 280 Pls
851 280 Pls
851 280 Pls
851 280 Pls
851 280 Pls
852 280 Pls
852 280 Pls
852 280 Pls
852 280 Pls
852 280 Pls
852 280 Pls
852 280 Pls
853 280 Pls
853 280 Pls
853 280 Pls
853 280 Pls
853 280 Pls
854 280 Pls
854 280 Pls
854 280 Pls
854 280 Pls
854 280 Pls
854 280 Pls
854 280 Pls
855 280 Pls
855 280 Pls
856 280 Pls
856 280 Pls
856 280 Pls
857 280 Pls
857 280 Pls
857 280 Pls
857 280 Pls
858 280 Pls
858 280 Pls
858 280 Pls
858 280 Pls
858 280 Pls
858 280 Pls
858 280 Pls
858 280 Pls
858 280 Pls
859 280 Pls
859 280 Pls
859 280 Pls
860 280 Pls
860 280 Pls
860 280 Pls
860 280 Pls
860 280 Pls
860 280 Pls
861 280 Pls
861 280 Pls
861 280 Pls
861 280 Pls
861 280 Pls
861 280 Pls
862 280 Pls
863 280 Pls
863 280 Pls
863 280 Pls
863 280 Pls
863 280 Pls
863 280 Pls
863 280 Pls
863 280 Pls
864 280 Pls
865 280 Pls
865 280 Pls
865 280 Pls
865 280 Pls
866 280 Pls
866 280 Pls
866 280 Pls
866 280 Pls
867 280 Pls
868 280 Pls
868 280 Pls
868 280 Pls
869 280 Pls
869 280 Pls
869 280 Pls
870 280 Pls
870 280 Pls
870 280 Pls
870 280 Pls
870 280 Pls
871 280 Pls
871 280 Pls
871 280 Pls
871 280 Pls
872 280 Pls
872 280 Pls
872 280 Pls
873 280 Pls
873 280 Pls
873 280 Pls
874 280 Pls
874 280 Pls
874 280 Pls
874 280 Pls
875 280 Pls
875 280 Pls
875 280 Pls
875 280 Pls
876 280 Pls
876 280 Pls
876 280 Pls
876 280 Pls
876 280 Pls
876 280 Pls
877 280 Pls
877 280 Pls
877 280 Pls
877 280 Pls
877 280 Pls
877 280 Pls
878 280 Pls
879 280 Pls
879 280 Pls
879 280 Pls
879 280 Pls
880 280 Pls
881 280 Pls
881 280 Pls
882 280 Pls
882 280 Pls
882 280 Pls
882 280 Pls
882 280 Pls
883 280 Pls
884 280 Pls
884 280 Pls
884 280 Pls
884 280 Pls
884 280 Pls
885 280 Pls
885 280 Pls
885 280 Pls
885 280 Pls
886 280 Pls
886 280 Pls
887 280 Pls
888 280 Pls
889 280 Pls
889 280 Pls
890 280 Pls
890 280 Pls
890 280 Pls
890 280 Pls
890 280 Pls
891 280 Pls
892 280 Pls
892 280 Pls
893 280 Pls
893 280 Pls
893 280 Pls
893 280 Pls
893 280 Pls
893 280 Pls
894 280 Pls
894 280 Pls
894 280 Pls
895 280 Pls
895 280 Pls
895 280 Pls
895 280 Pls
896 280 Pls
897 280 Pls
897 280 Pls
899 280 Pls
899 280 Pls
900 280 Pls
900 280 Pls
900 280 Pls
901 280 Pls
901 280 Pls
902 280 Pls
902 280 Pls
903 280 Pls
903 280 Pls
904 280 Pls
904 280 Pls
904 280 Pls
904 280 Pls
904 280 Pls
905 280 Pls
907 280 Pls
907 280 Pls
908 280 Pls
909 280 Pls
909 280 Pls
910 280 Pls
910 280 Pls
910 280 Pls
912 280 Pls
914 280 Pls
915 280 Pls
916 280 Pls
918 280 Pls
920 280 Pls
920 280 Pls
921 280 Pls
922 280 Pls
924 280 Pls
925 280 Pls
925 280 Pls
925 280 Pls
928 280 Pls
928 280 Pls
928 280 Pls
929 280 Pls
929 280 Pls
931 280 Pls
931 280 Pls
933 280 Pls
934 280 Pls
935 280 Pls
937 280 Pls
939 280 Pls
940 280 Pls
940 280 Pls
942 280 Pls
942 280 Pls
943 280 Pls
944 280 Pls
945 280 Pls
945 280 Pls
946 280 Pls
946 280 Pls
947 280 Pls
949 280 Pls
952 280 Pls
953 280 Pls
953 280 Pls
953 280 Pls
954 280 Pls
955 280 Pls
955 280 Pls
955 280 Pls
956 280 Pls
959 280 Pls
959 280 Pls
960 280 Pls
962 280 Pls
964 280 Pls
966 280 Pls
967 280 Pls
971 280 Pls
972 280 Pls
972 280 Pls
972 280 Pls
978 280 Pls
979 280 Pls
981 280 Pls
986 280 Pls
989 280 Pls
990 280 Pls
992 280 Pls
993 280 Pls
994 280 Pls
996 280 Pls
997 280 Pls
998 280 Pls
998 280 Pls
1001 280 Pls
1002 280 Pls
1005 280 Pls
1005 280 Pls
1009 280 Pls
1013 280 Pls
1013 280 Pls
1018 280 Pls
1019 280 Pls
1019 280 Pls
1020 280 Pls
1021 280 Pls
1023 280 Pls
1023 280 Pls
1024 280 Pls
1025 280 Pls
1027 280 Pls
1029 280 Pls
1030 280 Pls
1030 280 Pls
1032 280 Pls
1036 280 Pls
1044 280 Pls
1045 280 Pls
1053 280 Pls
1055 280 Pls
1055 280 Pls
1058 280 Pls
1074 280 Pls
1082 280 Pls
1100 280 Pls
1101 280 Pls
1103 280 Pls
1104 280 Pls
1106 280 Pls
1116 280 Pls
1122 280 Pls
1125 280 Pls
1127 280 Pls
1131 280 Pls
1131 280 Pls
1138 280 Pls
1149 280 Pls
1150 280 Pls
1159 280 Pls
1167 280 Pls
1171 280 Pls
1179 280 Pls
1185 280 Pls
1186 280 Pls
1186 280 Pls
1196 280 Pls
1203 280 Pls
1208 280 Pls
1222 280 Pls
1224 280 Pls
1227 280 Pls
1247 280 Pls
1253 280 Pls
1255 280 Pls
1255 280 Pls
1263 280 Pls
1264 280 Pls
1288 280 Pls
1428 280 Pls
1454 280 Pls
1458 280 Pls
1503 280 Pls
1559 280 Pls
1624 280 Pls
1632 280 Pls
1726 280 Pls
1975 280 Pls
2012 280 Pls
2088 280 Pls
2167 280 Pls
2222 280 Pls
2254 280 Pls
2480 280 Pls
2483 280 Pls
2528 280 Pls
2904 280 Pls
3084 280 Pls
3479 280 Pls
3644 280 Pls
4893 280 Pls
6414 280 Pls
% End plot #1
2.000 UL
LTb
LCb setrgbcolor
1.000 UL
LTB
LCb setrgbcolor
798 4871 N
798 280 L
6149 0 V
0 4591 V
-6149 0 V
Z stroke
1.000 UP
1.000 UL
LTb
LCb setrgbcolor
stroke
grestore
end
showpage
%%Trailer
%%DocumentFonts: Helvetica
%%Pages: 1
