%!PS-Adobe-2.0
%%Title: packets-uv-s-ccdf-linlog.eps
%%Creator: gnuplot 5.0 patchlevel 3
%%CreationDate: Mon May 29 11:09:39 2017
%%DocumentFonts: (atend)
%%BoundingBox: 50 50 554 770
%%Orientation: Landscape
%%Pages: (atend)
%%EndComments
%%BeginProlog
/gnudict 256 dict def
gnudict begin
%
% The following true/false flags may be edited by hand if desired.
% The unit line width and grayscale image gamma correction may also be changed.
%
/Color true def
/Blacktext false def
/Solid false def
/Dashlength 1 def
/Landscape true def
/Level1 false def
/Level3 false def
/Rounded false def
/ClipToBoundingBox false def
/SuppressPDFMark false def
/TransparentPatterns false def
/gnulinewidth 5.000 def
/userlinewidth gnulinewidth def
/Gamma 1.0 def
/BackgroundColor {-1.000 -1.000 -1.000} def
%
/vshift -46 def
/dl1 {
  10.0 Dashlength userlinewidth gnulinewidth div mul mul mul
  Rounded { currentlinewidth 0.75 mul sub dup 0 le { pop 0.01 } if } if
} def
/dl2 {
  10.0 Dashlength userlinewidth gnulinewidth div mul mul mul
  Rounded { currentlinewidth 0.75 mul add } if
} def
/hpt_ 31.5 def
/vpt_ 31.5 def
/hpt hpt_ def
/vpt vpt_ def
/doclip {
  ClipToBoundingBox {
    newpath 50 50 moveto 554 50 lineto 554 770 lineto 50 770 lineto closepath
    clip
  } if
} def
%
% Gnuplot Prolog Version 5.1 (Oct 2015)
%
%/SuppressPDFMark true def
%
/M {moveto} bind def
/L {lineto} bind def
/R {rmoveto} bind def
/V {rlineto} bind def
/N {newpath moveto} bind def
/Z {closepath} bind def
/C {setrgbcolor} bind def
/f {rlineto fill} bind def
/g {setgray} bind def
/Gshow {show} def   % May be redefined later in the file to support UTF-8
/vpt2 vpt 2 mul def
/hpt2 hpt 2 mul def
/Lshow {currentpoint stroke M 0 vshift R 
	Blacktext {gsave 0 setgray textshow grestore} {textshow} ifelse} def
/Rshow {currentpoint stroke M dup stringwidth pop neg vshift R
	Blacktext {gsave 0 setgray textshow grestore} {textshow} ifelse} def
/Cshow {currentpoint stroke M dup stringwidth pop -2 div vshift R 
	Blacktext {gsave 0 setgray textshow grestore} {textshow} ifelse} def
/UP {dup vpt_ mul /vpt exch def hpt_ mul /hpt exch def
  /hpt2 hpt 2 mul def /vpt2 vpt 2 mul def} def
/DL {Color {setrgbcolor Solid {pop []} if 0 setdash}
 {pop pop pop 0 setgray Solid {pop []} if 0 setdash} ifelse} def
/BL {stroke userlinewidth 2 mul setlinewidth
	Rounded {1 setlinejoin 1 setlinecap} if} def
/AL {stroke userlinewidth 2 div setlinewidth
	Rounded {1 setlinejoin 1 setlinecap} if} def
/UL {dup gnulinewidth mul /userlinewidth exch def
	dup 1 lt {pop 1} if 10 mul /udl exch def} def
/PL {stroke userlinewidth setlinewidth
	Rounded {1 setlinejoin 1 setlinecap} if} def
3.8 setmiterlimit
% Classic Line colors (version 5.0)
/LCw {1 1 1} def
/LCb {0 0 0} def
/LCa {0 0 0} def
/LC0 {1 0 0} def
/LC1 {0 1 0} def
/LC2 {0 0 1} def
/LC3 {1 0 1} def
/LC4 {0 1 1} def
/LC5 {1 1 0} def
/LC6 {0 0 0} def
/LC7 {1 0.3 0} def
/LC8 {0.5 0.5 0.5} def
% Default dash patterns (version 5.0)
/LTB {BL [] LCb DL} def
/LTw {PL [] 1 setgray} def
/LTb {PL [] LCb DL} def
/LTa {AL [1 udl mul 2 udl mul] 0 setdash LCa setrgbcolor} def
/LT0 {PL [] LC0 DL} def
/LT1 {PL [2 dl1 3 dl2] LC1 DL} def
/LT2 {PL [1 dl1 1.5 dl2] LC2 DL} def
/LT3 {PL [6 dl1 2 dl2 1 dl1 2 dl2] LC3 DL} def
/LT4 {PL [1 dl1 2 dl2 6 dl1 2 dl2 1 dl1 2 dl2] LC4 DL} def
/LT5 {PL [4 dl1 2 dl2] LC5 DL} def
/LT6 {PL [1.5 dl1 1.5 dl2 1.5 dl1 1.5 dl2 1.5 dl1 6 dl2] LC6 DL} def
/LT7 {PL [3 dl1 3 dl2 1 dl1 3 dl2] LC7 DL} def
/LT8 {PL [2 dl1 2 dl2 2 dl1 6 dl2] LC8 DL} def
/SL {[] 0 setdash} def
/Pnt {stroke [] 0 setdash gsave 1 setlinecap M 0 0 V stroke grestore} def
/Dia {stroke [] 0 setdash 2 copy vpt add M
  hpt neg vpt neg V hpt vpt neg V
  hpt vpt V hpt neg vpt V closepath stroke
  Pnt} def
/Pls {stroke [] 0 setdash vpt sub M 0 vpt2 V
  currentpoint stroke M
  hpt neg vpt neg R hpt2 0 V stroke
 } def
/Box {stroke [] 0 setdash 2 copy exch hpt sub exch vpt add M
  0 vpt2 neg V hpt2 0 V 0 vpt2 V
  hpt2 neg 0 V closepath stroke
  Pnt} def
/Crs {stroke [] 0 setdash exch hpt sub exch vpt add M
  hpt2 vpt2 neg V currentpoint stroke M
  hpt2 neg 0 R hpt2 vpt2 V stroke} def
/TriU {stroke [] 0 setdash 2 copy vpt 1.12 mul add M
  hpt neg vpt -1.62 mul V
  hpt 2 mul 0 V
  hpt neg vpt 1.62 mul V closepath stroke
  Pnt} def
/Star {2 copy Pls Crs} def
/BoxF {stroke [] 0 setdash exch hpt sub exch vpt add M
  0 vpt2 neg V hpt2 0 V 0 vpt2 V
  hpt2 neg 0 V closepath fill} def
/TriUF {stroke [] 0 setdash vpt 1.12 mul add M
  hpt neg vpt -1.62 mul V
  hpt 2 mul 0 V
  hpt neg vpt 1.62 mul V closepath fill} def
/TriD {stroke [] 0 setdash 2 copy vpt 1.12 mul sub M
  hpt neg vpt 1.62 mul V
  hpt 2 mul 0 V
  hpt neg vpt -1.62 mul V closepath stroke
  Pnt} def
/TriDF {stroke [] 0 setdash vpt 1.12 mul sub M
  hpt neg vpt 1.62 mul V
  hpt 2 mul 0 V
  hpt neg vpt -1.62 mul V closepath fill} def
/DiaF {stroke [] 0 setdash vpt add M
  hpt neg vpt neg V hpt vpt neg V
  hpt vpt V hpt neg vpt V closepath fill} def
/Pent {stroke [] 0 setdash 2 copy gsave
  translate 0 hpt M 4 {72 rotate 0 hpt L} repeat
  closepath stroke grestore Pnt} def
/PentF {stroke [] 0 setdash gsave
  translate 0 hpt M 4 {72 rotate 0 hpt L} repeat
  closepath fill grestore} def
/Circle {stroke [] 0 setdash 2 copy
  hpt 0 360 arc stroke Pnt} def
/CircleF {stroke [] 0 setdash hpt 0 360 arc fill} def
/C0 {BL [] 0 setdash 2 copy moveto vpt 90 450 arc} bind def
/C1 {BL [] 0 setdash 2 copy moveto
	2 copy vpt 0 90 arc closepath fill
	vpt 0 360 arc closepath} bind def
/C2 {BL [] 0 setdash 2 copy moveto
	2 copy vpt 90 180 arc closepath fill
	vpt 0 360 arc closepath} bind def
/C3 {BL [] 0 setdash 2 copy moveto
	2 copy vpt 0 180 arc closepath fill
	vpt 0 360 arc closepath} bind def
/C4 {BL [] 0 setdash 2 copy moveto
	2 copy vpt 180 270 arc closepath fill
	vpt 0 360 arc closepath} bind def
/C5 {BL [] 0 setdash 2 copy moveto
	2 copy vpt 0 90 arc
	2 copy moveto
	2 copy vpt 180 270 arc closepath fill
	vpt 0 360 arc} bind def
/C6 {BL [] 0 setdash 2 copy moveto
	2 copy vpt 90 270 arc closepath fill
	vpt 0 360 arc closepath} bind def
/C7 {BL [] 0 setdash 2 copy moveto
	2 copy vpt 0 270 arc closepath fill
	vpt 0 360 arc closepath} bind def
/C8 {BL [] 0 setdash 2 copy moveto
	2 copy vpt 270 360 arc closepath fill
	vpt 0 360 arc closepath} bind def
/C9 {BL [] 0 setdash 2 copy moveto
	2 copy vpt 270 450 arc closepath fill
	vpt 0 360 arc closepath} bind def
/C10 {BL [] 0 setdash 2 copy 2 copy moveto vpt 270 360 arc closepath fill
	2 copy moveto
	2 copy vpt 90 180 arc closepath fill
	vpt 0 360 arc closepath} bind def
/C11 {BL [] 0 setdash 2 copy moveto
	2 copy vpt 0 180 arc closepath fill
	2 copy moveto
	2 copy vpt 270 360 arc closepath fill
	vpt 0 360 arc closepath} bind def
/C12 {BL [] 0 setdash 2 copy moveto
	2 copy vpt 180 360 arc closepath fill
	vpt 0 360 arc closepath} bind def
/C13 {BL [] 0 setdash 2 copy moveto
	2 copy vpt 0 90 arc closepath fill
	2 copy moveto
	2 copy vpt 180 360 arc closepath fill
	vpt 0 360 arc closepath} bind def
/C14 {BL [] 0 setdash 2 copy moveto
	2 copy vpt 90 360 arc closepath fill
	vpt 0 360 arc} bind def
/C15 {BL [] 0 setdash 2 copy vpt 0 360 arc closepath fill
	vpt 0 360 arc closepath} bind def
/Rec {newpath 4 2 roll moveto 1 index 0 rlineto 0 exch rlineto
	neg 0 rlineto closepath} bind def
/Square {dup Rec} bind def
/Bsquare {vpt sub exch vpt sub exch vpt2 Square} bind def
/S0 {BL [] 0 setdash 2 copy moveto 0 vpt rlineto BL Bsquare} bind def
/S1 {BL [] 0 setdash 2 copy vpt Square fill Bsquare} bind def
/S2 {BL [] 0 setdash 2 copy exch vpt sub exch vpt Square fill Bsquare} bind def
/S3 {BL [] 0 setdash 2 copy exch vpt sub exch vpt2 vpt Rec fill Bsquare} bind def
/S4 {BL [] 0 setdash 2 copy exch vpt sub exch vpt sub vpt Square fill Bsquare} bind def
/S5 {BL [] 0 setdash 2 copy 2 copy vpt Square fill
	exch vpt sub exch vpt sub vpt Square fill Bsquare} bind def
/S6 {BL [] 0 setdash 2 copy exch vpt sub exch vpt sub vpt vpt2 Rec fill Bsquare} bind def
/S7 {BL [] 0 setdash 2 copy exch vpt sub exch vpt sub vpt vpt2 Rec fill
	2 copy vpt Square fill Bsquare} bind def
/S8 {BL [] 0 setdash 2 copy vpt sub vpt Square fill Bsquare} bind def
/S9 {BL [] 0 setdash 2 copy vpt sub vpt vpt2 Rec fill Bsquare} bind def
/S10 {BL [] 0 setdash 2 copy vpt sub vpt Square fill 2 copy exch vpt sub exch vpt Square fill
	Bsquare} bind def
/S11 {BL [] 0 setdash 2 copy vpt sub vpt Square fill 2 copy exch vpt sub exch vpt2 vpt Rec fill
	Bsquare} bind def
/S12 {BL [] 0 setdash 2 copy exch vpt sub exch vpt sub vpt2 vpt Rec fill Bsquare} bind def
/S13 {BL [] 0 setdash 2 copy exch vpt sub exch vpt sub vpt2 vpt Rec fill
	2 copy vpt Square fill Bsquare} bind def
/S14 {BL [] 0 setdash 2 copy exch vpt sub exch vpt sub vpt2 vpt Rec fill
	2 copy exch vpt sub exch vpt Square fill Bsquare} bind def
/S15 {BL [] 0 setdash 2 copy Bsquare fill Bsquare} bind def
/D0 {gsave translate 45 rotate 0 0 S0 stroke grestore} bind def
/D1 {gsave translate 45 rotate 0 0 S1 stroke grestore} bind def
/D2 {gsave translate 45 rotate 0 0 S2 stroke grestore} bind def
/D3 {gsave translate 45 rotate 0 0 S3 stroke grestore} bind def
/D4 {gsave translate 45 rotate 0 0 S4 stroke grestore} bind def
/D5 {gsave translate 45 rotate 0 0 S5 stroke grestore} bind def
/D6 {gsave translate 45 rotate 0 0 S6 stroke grestore} bind def
/D7 {gsave translate 45 rotate 0 0 S7 stroke grestore} bind def
/D8 {gsave translate 45 rotate 0 0 S8 stroke grestore} bind def
/D9 {gsave translate 45 rotate 0 0 S9 stroke grestore} bind def
/D10 {gsave translate 45 rotate 0 0 S10 stroke grestore} bind def
/D11 {gsave translate 45 rotate 0 0 S11 stroke grestore} bind def
/D12 {gsave translate 45 rotate 0 0 S12 stroke grestore} bind def
/D13 {gsave translate 45 rotate 0 0 S13 stroke grestore} bind def
/D14 {gsave translate 45 rotate 0 0 S14 stroke grestore} bind def
/D15 {gsave translate 45 rotate 0 0 S15 stroke grestore} bind def
/DiaE {stroke [] 0 setdash vpt add M
  hpt neg vpt neg V hpt vpt neg V
  hpt vpt V hpt neg vpt V closepath stroke} def
/BoxE {stroke [] 0 setdash exch hpt sub exch vpt add M
  0 vpt2 neg V hpt2 0 V 0 vpt2 V
  hpt2 neg 0 V closepath stroke} def
/TriUE {stroke [] 0 setdash vpt 1.12 mul add M
  hpt neg vpt -1.62 mul V
  hpt 2 mul 0 V
  hpt neg vpt 1.62 mul V closepath stroke} def
/TriDE {stroke [] 0 setdash vpt 1.12 mul sub M
  hpt neg vpt 1.62 mul V
  hpt 2 mul 0 V
  hpt neg vpt -1.62 mul V closepath stroke} def
/PentE {stroke [] 0 setdash gsave
  translate 0 hpt M 4 {72 rotate 0 hpt L} repeat
  closepath stroke grestore} def
/CircE {stroke [] 0 setdash 
  hpt 0 360 arc stroke} def
/Opaque {gsave closepath 1 setgray fill grestore 0 setgray closepath} def
/DiaW {stroke [] 0 setdash vpt add M
  hpt neg vpt neg V hpt vpt neg V
  hpt vpt V hpt neg vpt V Opaque stroke} def
/BoxW {stroke [] 0 setdash exch hpt sub exch vpt add M
  0 vpt2 neg V hpt2 0 V 0 vpt2 V
  hpt2 neg 0 V Opaque stroke} def
/TriUW {stroke [] 0 setdash vpt 1.12 mul add M
  hpt neg vpt -1.62 mul V
  hpt 2 mul 0 V
  hpt neg vpt 1.62 mul V Opaque stroke} def
/TriDW {stroke [] 0 setdash vpt 1.12 mul sub M
  hpt neg vpt 1.62 mul V
  hpt 2 mul 0 V
  hpt neg vpt -1.62 mul V Opaque stroke} def
/PentW {stroke [] 0 setdash gsave
  translate 0 hpt M 4 {72 rotate 0 hpt L} repeat
  Opaque stroke grestore} def
/CircW {stroke [] 0 setdash 
  hpt 0 360 arc Opaque stroke} def
/BoxFill {gsave Rec 1 setgray fill grestore} def
/Density {
  /Fillden exch def
  currentrgbcolor
  /ColB exch def /ColG exch def /ColR exch def
  /ColR ColR Fillden mul Fillden sub 1 add def
  /ColG ColG Fillden mul Fillden sub 1 add def
  /ColB ColB Fillden mul Fillden sub 1 add def
  ColR ColG ColB setrgbcolor} def
/BoxColFill {gsave Rec PolyFill} def
/PolyFill {gsave Density fill grestore grestore} def
/h {rlineto rlineto rlineto gsave closepath fill grestore} bind def
%
% PostScript Level 1 Pattern Fill routine for rectangles
% Usage: x y w h s a XX PatternFill
%	x,y = lower left corner of box to be filled
%	w,h = width and height of box
%	  a = angle in degrees between lines and x-axis
%	 XX = 0/1 for no/yes cross-hatch
%
/PatternFill {gsave /PFa [ 9 2 roll ] def
  PFa 0 get PFa 2 get 2 div add PFa 1 get PFa 3 get 2 div add translate
  PFa 2 get -2 div PFa 3 get -2 div PFa 2 get PFa 3 get Rec
  TransparentPatterns {} {gsave 1 setgray fill grestore} ifelse
  clip
  currentlinewidth 0.5 mul setlinewidth
  /PFs PFa 2 get dup mul PFa 3 get dup mul add sqrt def
  0 0 M PFa 5 get rotate PFs -2 div dup translate
  0 1 PFs PFa 4 get div 1 add floor cvi
	{PFa 4 get mul 0 M 0 PFs V} for
  0 PFa 6 get ne {
	0 1 PFs PFa 4 get div 1 add floor cvi
	{PFa 4 get mul 0 2 1 roll M PFs 0 V} for
 } if
  stroke grestore} def
%
/languagelevel where
 {pop languagelevel} {1} ifelse
dup 2 lt
	{/InterpretLevel1 true def
	 /InterpretLevel3 false def}
	{/InterpretLevel1 Level1 def
	 2 gt
	    {/InterpretLevel3 Level3 def}
	    {/InterpretLevel3 false def}
	 ifelse }
 ifelse
%
% PostScript level 2 pattern fill definitions
%
/Level2PatternFill {
/Tile8x8 {/PaintType 2 /PatternType 1 /TilingType 1 /BBox [0 0 8 8] /XStep 8 /YStep 8}
	bind def
/KeepColor {currentrgbcolor [/Pattern /DeviceRGB] setcolorspace} bind def
<< Tile8x8
 /PaintProc {0.5 setlinewidth pop 0 0 M 8 8 L 0 8 M 8 0 L stroke} 
>> matrix makepattern
/Pat1 exch def
<< Tile8x8
 /PaintProc {0.5 setlinewidth pop 0 0 M 8 8 L 0 8 M 8 0 L stroke
	0 4 M 4 8 L 8 4 L 4 0 L 0 4 L stroke}
>> matrix makepattern
/Pat2 exch def
<< Tile8x8
 /PaintProc {0.5 setlinewidth pop 0 0 M 0 8 L
	8 8 L 8 0 L 0 0 L fill}
>> matrix makepattern
/Pat3 exch def
<< Tile8x8
 /PaintProc {0.5 setlinewidth pop -4 8 M 8 -4 L
	0 12 M 12 0 L stroke}
>> matrix makepattern
/Pat4 exch def
<< Tile8x8
 /PaintProc {0.5 setlinewidth pop -4 0 M 8 12 L
	0 -4 M 12 8 L stroke}
>> matrix makepattern
/Pat5 exch def
<< Tile8x8
 /PaintProc {0.5 setlinewidth pop -2 8 M 4 -4 L
	0 12 M 8 -4 L 4 12 M 10 0 L stroke}
>> matrix makepattern
/Pat6 exch def
<< Tile8x8
 /PaintProc {0.5 setlinewidth pop -2 0 M 4 12 L
	0 -4 M 8 12 L 4 -4 M 10 8 L stroke}
>> matrix makepattern
/Pat7 exch def
<< Tile8x8
 /PaintProc {0.5 setlinewidth pop 8 -2 M -4 4 L
	12 0 M -4 8 L 12 4 M 0 10 L stroke}
>> matrix makepattern
/Pat8 exch def
<< Tile8x8
 /PaintProc {0.5 setlinewidth pop 0 -2 M 12 4 L
	-4 0 M 12 8 L -4 4 M 8 10 L stroke}
>> matrix makepattern
/Pat9 exch def
/Pattern1 {PatternBgnd KeepColor Pat1 setpattern} bind def
/Pattern2 {PatternBgnd KeepColor Pat2 setpattern} bind def
/Pattern3 {PatternBgnd KeepColor Pat3 setpattern} bind def
/Pattern4 {PatternBgnd KeepColor Landscape {Pat5} {Pat4} ifelse setpattern} bind def
/Pattern5 {PatternBgnd KeepColor Landscape {Pat4} {Pat5} ifelse setpattern} bind def
/Pattern6 {PatternBgnd KeepColor Landscape {Pat9} {Pat6} ifelse setpattern} bind def
/Pattern7 {PatternBgnd KeepColor Landscape {Pat8} {Pat7} ifelse setpattern} bind def
} def
%
%
%End of PostScript Level 2 code
%
/PatternBgnd {
  TransparentPatterns {} {gsave 1 setgray fill grestore} ifelse
} def
%
% Substitute for Level 2 pattern fill codes with
% grayscale if Level 2 support is not selected.
%
/Level1PatternFill {
/Pattern1 {0.250 Density} bind def
/Pattern2 {0.500 Density} bind def
/Pattern3 {0.750 Density} bind def
/Pattern4 {0.125 Density} bind def
/Pattern5 {0.375 Density} bind def
/Pattern6 {0.625 Density} bind def
/Pattern7 {0.875 Density} bind def
} def
%
% Now test for support of Level 2 code
%
Level1 {Level1PatternFill} {Level2PatternFill} ifelse
%
/Symbol-Oblique /Symbol findfont [1 0 .167 1 0 0] makefont
dup length dict begin {1 index /FID eq {pop pop} {def} ifelse} forall
currentdict end definefont pop
%
/MFshow {
   { dup 5 get 3 ge
     { 5 get 3 eq {gsave} {grestore} ifelse }
     {dup dup 0 get findfont exch 1 get scalefont setfont
     [ currentpoint ] exch dup 2 get 0 exch R dup 5 get 2 ne {dup dup 6
     get exch 4 get {textshow} {stringwidth pop 0 R} ifelse }if dup 5 get 0 eq
     {dup 3 get {2 get neg 0 exch R pop} {pop aload pop M} ifelse} {dup 5
     get 1 eq {dup 2 get exch dup 3 get exch 6 get stringwidth pop -2 div
     dup 0 R} {dup 6 get stringwidth pop -2 div 0 R 6 get
     textshow 2 index {aload pop M neg 3 -1 roll neg R pop pop} {pop pop pop
     pop aload pop M} ifelse }ifelse }ifelse }
     ifelse }
   forall} def
/Gswidth {dup type /stringtype eq {stringwidth} {pop (n) stringwidth} ifelse} def
/MFwidth {0 exch { dup 5 get 3 ge { 5 get 3 eq { 0 } { pop } ifelse }
 {dup 3 get{dup dup 0 get findfont exch 1 get scalefont setfont
     6 get Gswidth pop add} {pop} ifelse} ifelse} forall} def
/MLshow { currentpoint stroke M
  0 exch R
  Blacktext {gsave 0 setgray MFshow grestore} {MFshow} ifelse } bind def
/MRshow { currentpoint stroke M
  exch dup MFwidth neg 3 -1 roll R
  Blacktext {gsave 0 setgray MFshow grestore} {MFshow} ifelse } bind def
/MCshow { currentpoint stroke M
  exch dup MFwidth -2 div 3 -1 roll R
  Blacktext {gsave 0 setgray MFshow grestore} {MFshow} ifelse } bind def
/XYsave    { [( ) 1 2 true false 3 ()] } bind def
/XYrestore { [( ) 1 2 true false 4 ()] } bind def
Level1 SuppressPDFMark or 
{} {
/SDict 10 dict def
systemdict /pdfmark known not {
  userdict /pdfmark systemdict /cleartomark get put
} if
SDict begin [
  /Title (packets-uv-s-ccdf-linlog.eps)
  /Subject (gnuplot plot)
  /Creator (gnuplot 5.0 patchlevel 3)
  /Author (tiphaine)
%  /Producer (gnuplot)
%  /Keywords ()
  /CreationDate (Mon May 29 11:09:39 2017)
  /DOCINFO pdfmark
end
} ifelse
%
% Support for boxed text - Ethan A Merritt May 2005
%
/InitTextBox { userdict /TBy2 3 -1 roll put userdict /TBx2 3 -1 roll put
           userdict /TBy1 3 -1 roll put userdict /TBx1 3 -1 roll put
	   /Boxing true def } def
/ExtendTextBox { Boxing
    { gsave dup false charpath pathbbox
      dup TBy2 gt {userdict /TBy2 3 -1 roll put} {pop} ifelse
      dup TBx2 gt {userdict /TBx2 3 -1 roll put} {pop} ifelse
      dup TBy1 lt {userdict /TBy1 3 -1 roll put} {pop} ifelse
      dup TBx1 lt {userdict /TBx1 3 -1 roll put} {pop} ifelse
      grestore } if } def
/PopTextBox { newpath TBx1 TBxmargin sub TBy1 TBymargin sub M
               TBx1 TBxmargin sub TBy2 TBymargin add L
	       TBx2 TBxmargin add TBy2 TBymargin add L
	       TBx2 TBxmargin add TBy1 TBymargin sub L closepath } def
/DrawTextBox { PopTextBox stroke /Boxing false def} def
/FillTextBox { gsave PopTextBox 1 1 1 setrgbcolor fill grestore /Boxing false def} def
0 0 0 0 InitTextBox
/TBxmargin 20 def
/TBymargin 20 def
/Boxing false def
/textshow { ExtendTextBox Gshow } def
%
% redundant definitions for compatibility with prologue.ps older than 5.0.2
/LTB {BL [] LCb DL} def
/LTb {PL [] LCb DL} def
end
%%EndProlog
%%Page: 1 1
gnudict begin
gsave
doclip
50 50 translate
0.100 0.100 scale
90 rotate
0 -5040 translate
0 setgray
newpath
(Helvetica) findfont 140 scalefont setfont
BackgroundColor 0 lt 3 1 roll 0 lt exch 0 lt or or not {gsave BackgroundColor C clippath fill grestore} if
1.000 UL
LTb
LCb setrgbcolor
966 280 M
63 0 V
5918 0 R
-63 0 V
stroke
882 280 M
[ [(Helvetica) 140.0 0.0 true true 0 (0.0000001)]
] -46.7 MRshow
1.000 UL
LTb
LCb setrgbcolor
966 477 M
31 0 V
5950 0 R
-31 0 V
966 738 M
31 0 V
5950 0 R
-31 0 V
966 872 M
31 0 V
5950 0 R
-31 0 V
966 936 M
63 0 V
5918 0 R
-63 0 V
stroke
882 936 M
[ [(Helvetica) 140.0 0.0 true true 0 (0.0000010)]
] -46.7 MRshow
1.000 UL
LTb
LCb setrgbcolor
966 1133 M
31 0 V
5950 0 R
-31 0 V
966 1394 M
31 0 V
5950 0 R
-31 0 V
966 1528 M
31 0 V
5950 0 R
-31 0 V
966 1592 M
63 0 V
5918 0 R
-63 0 V
stroke
882 1592 M
[ [(Helvetica) 140.0 0.0 true true 0 (0.0000100)]
] -46.7 MRshow
1.000 UL
LTb
LCb setrgbcolor
966 1789 M
31 0 V
5950 0 R
-31 0 V
966 2050 M
31 0 V
5950 0 R
-31 0 V
966 2184 M
31 0 V
5950 0 R
-31 0 V
966 2248 M
63 0 V
5918 0 R
-63 0 V
stroke
882 2248 M
[ [(Helvetica) 140.0 0.0 true true 0 (0.0001000)]
] -46.7 MRshow
1.000 UL
LTb
LCb setrgbcolor
966 2445 M
31 0 V
5950 0 R
-31 0 V
966 2706 M
31 0 V
5950 0 R
-31 0 V
966 2840 M
31 0 V
5950 0 R
-31 0 V
966 2903 M
63 0 V
5918 0 R
-63 0 V
stroke
882 2903 M
[ [(Helvetica) 140.0 0.0 true true 0 (0.0010000)]
] -46.7 MRshow
1.000 UL
LTb
LCb setrgbcolor
966 3101 M
31 0 V
5950 0 R
-31 0 V
966 3362 M
31 0 V
5950 0 R
-31 0 V
966 3496 M
31 0 V
5950 0 R
-31 0 V
966 3559 M
63 0 V
5918 0 R
-63 0 V
stroke
882 3559 M
[ [(Helvetica) 140.0 0.0 true true 0 (0.0100000)]
] -46.7 MRshow
1.000 UL
LTb
LCb setrgbcolor
966 3757 M
31 0 V
5950 0 R
-31 0 V
966 4018 M
31 0 V
5950 0 R
-31 0 V
966 4152 M
31 0 V
5950 0 R
-31 0 V
966 4215 M
63 0 V
5918 0 R
-63 0 V
stroke
882 4215 M
[ [(Helvetica) 140.0 0.0 true true 0 (0.1000000)]
] -46.7 MRshow
1.000 UL
LTb
LCb setrgbcolor
966 4413 M
31 0 V
5950 0 R
-31 0 V
966 4674 M
31 0 V
5950 0 R
-31 0 V
966 4807 M
31 0 V
5950 0 R
-31 0 V
966 4871 M
63 0 V
5918 0 R
-63 0 V
stroke
882 4871 M
[ [(Helvetica) 140.0 0.0 true true 0 (1.0000000)]
] -46.7 MRshow
1.000 UL
LTb
LCb setrgbcolor
966 280 M
0 63 V
0 4528 R
0 -63 V
stroke
966 140 M
[ [(Helvetica) 140.0 0.0 true true 0 ( 0)]
] -46.7 MCshow
1.000 UL
LTb
LCb setrgbcolor
1820 280 M
0 63 V
0 4528 R
0 -63 V
stroke
1820 140 M
[ [(Helvetica) 140.0 0.0 true true 0 ( 500000)]
] -46.7 MCshow
1.000 UL
LTb
LCb setrgbcolor
2675 280 M
0 63 V
0 4528 R
0 -63 V
stroke
2675 140 M
[ [(Helvetica) 140.0 0.0 true true 0 ( 1x10)]
[(Helvetica) 112.0 70.0 true true 0 (6)]
] -60.7 MCshow
1.000 UL
LTb
LCb setrgbcolor
3529 280 M
0 63 V
0 4528 R
0 -63 V
stroke
3529 140 M
[ [(Helvetica) 140.0 0.0 true true 0 ( 1.5x10)]
[(Helvetica) 112.0 70.0 true true 0 (6)]
] -60.7 MCshow
1.000 UL
LTb
LCb setrgbcolor
4384 280 M
0 63 V
0 4528 R
0 -63 V
stroke
4384 140 M
[ [(Helvetica) 140.0 0.0 true true 0 ( 2x10)]
[(Helvetica) 112.0 70.0 true true 0 (6)]
] -60.7 MCshow
1.000 UL
LTb
LCb setrgbcolor
5238 280 M
0 63 V
0 4528 R
0 -63 V
stroke
5238 140 M
[ [(Helvetica) 140.0 0.0 true true 0 ( 2.5x10)]
[(Helvetica) 112.0 70.0 true true 0 (6)]
] -60.7 MCshow
1.000 UL
LTb
LCb setrgbcolor
6093 280 M
0 63 V
0 4528 R
0 -63 V
stroke
6093 140 M
[ [(Helvetica) 140.0 0.0 true true 0 ( 3x10)]
[(Helvetica) 112.0 70.0 true true 0 (6)]
] -60.7 MCshow
1.000 UL
LTb
LCb setrgbcolor
6947 280 M
0 63 V
0 4528 R
0 -63 V
stroke
6947 140 M
[ [(Helvetica) 140.0 0.0 true true 0 ( 3.5x10)]
[(Helvetica) 112.0 70.0 true true 0 (6)]
] -60.7 MCshow
1.000 UL
LTb
LCb setrgbcolor
1.000 UL
LTB
LCb setrgbcolor
966 4871 N
966 280 L
5981 0 V
0 4591 V
-5981 0 V
Z stroke
1.000 UP
1.000 UL
LTb
LCb setrgbcolor
% Begin plot #1
1.000 UP
1.000 UL
LTb
0.58 0.00 0.83 C 966 4871 Pls
966 4645 Pls
966 4418 Pls
966 4361 Pls
966 4311 Pls
966 4277 Pls
966 4243 Pls
966 4223 Pls
966 4195 Pls
966 4178 Pls
966 4145 Pls
966 4129 Pls
966 4106 Pls
966 4091 Pls
966 4073 Pls
966 4057 Pls
966 4038 Pls
966 4025 Pls
966 4008 Pls
966 3995 Pls
966 3977 Pls
966 3966 Pls
966 3953 Pls
966 3944 Pls
966 3932 Pls
966 3924 Pls
966 3915 Pls
966 3907 Pls
966 3898 Pls
966 3893 Pls
966 3882 Pls
966 3877 Pls
966 3870 Pls
966 3864 Pls
966 3857 Pls
966 3852 Pls
966 3845 Pls
966 3840 Pls
966 3835 Pls
966 3830 Pls
966 3825 Pls
966 3820 Pls
966 3816 Pls
966 3812 Pls
966 3807 Pls
966 3803 Pls
966 3798 Pls
966 3792 Pls
966 3786 Pls
966 3780 Pls
966 3775 Pls
966 3770 Pls
966 3766 Pls
966 3763 Pls
966 3759 Pls
966 3755 Pls
966 3751 Pls
966 3748 Pls
966 3744 Pls
966 3741 Pls
966 3734 Pls
966 3731 Pls
966 3728 Pls
966 3725 Pls
966 3722 Pls
966 3719 Pls
966 3716 Pls
966 3714 Pls
966 3711 Pls
966 3708 Pls
966 3705 Pls
966 3703 Pls
966 3700 Pls
966 3697 Pls
966 3695 Pls
966 3693 Pls
966 3690 Pls
966 3688 Pls
966 3685 Pls
966 3682 Pls
966 3679 Pls
966 3677 Pls
966 3675 Pls
966 3673 Pls
966 3671 Pls
966 3668 Pls
966 3666 Pls
966 3665 Pls
966 3663 Pls
966 3661 Pls
966 3658 Pls
966 3656 Pls
966 3654 Pls
966 3652 Pls
966 3650 Pls
966 3648 Pls
966 3645 Pls
966 3643 Pls
966 3642 Pls
966 3639 Pls
966 3632 Pls
966 3630 Pls
966 3628 Pls
966 3627 Pls
966 3625 Pls
966 3623 Pls
966 3621 Pls
966 3619 Pls
966 3617 Pls
966 3616 Pls
966 3614 Pls
966 3612 Pls
966 3610 Pls
966 3608 Pls
966 3606 Pls
966 3605 Pls
966 3603 Pls
966 3601 Pls
966 3600 Pls
966 3598 Pls
966 3595 Pls
966 3593 Pls
966 3592 Pls
966 3590 Pls
966 3589 Pls
966 3587 Pls
966 3586 Pls
966 3584 Pls
966 3582 Pls
966 3581 Pls
966 3577 Pls
966 3576 Pls
966 3573 Pls
966 3572 Pls
966 3571 Pls
966 3569 Pls
966 3567 Pls
966 3566 Pls
966 3564 Pls
966 3562 Pls
966 3561 Pls
966 3559 Pls
966 3558 Pls
966 3556 Pls
966 3555 Pls
966 3554 Pls
966 3553 Pls
966 3551 Pls
966 3550 Pls
966 3549 Pls
966 3548 Pls
966 3546 Pls
966 3545 Pls
966 3544 Pls
966 3543 Pls
966 3542 Pls
966 3541 Pls
966 3539 Pls
966 3538 Pls
966 3537 Pls
966 3536 Pls
966 3534 Pls
966 3533 Pls
966 3532 Pls
966 3531 Pls
966 3530 Pls
966 3529 Pls
966 3528 Pls
966 3527 Pls
966 3526 Pls
966 3524 Pls
966 3523 Pls
966 3522 Pls
966 3521 Pls
966 3520 Pls
966 3519 Pls
966 3518 Pls
966 3516 Pls
966 3515 Pls
966 3514 Pls
966 3512 Pls
966 3510 Pls
966 3509 Pls
966 3508 Pls
966 3507 Pls
966 3506 Pls
966 3505 Pls
966 3504 Pls
966 3503 Pls
966 3502 Pls
966 3501 Pls
966 3500 Pls
966 3499 Pls
966 3498 Pls
966 3497 Pls
966 3496 Pls
966 3495 Pls
966 3494 Pls
966 3493 Pls
966 3493 Pls
966 3492 Pls
966 3491 Pls
966 3490 Pls
966 3488 Pls
966 3487 Pls
966 3487 Pls
966 3486 Pls
966 3485 Pls
966 3484 Pls
966 3483 Pls
966 3481 Pls
966 3480 Pls
966 3479 Pls
966 3478 Pls
966 3477 Pls
966 3476 Pls
966 3475 Pls
966 3474 Pls
966 3473 Pls
966 3473 Pls
966 3472 Pls
966 3471 Pls
966 3470 Pls
966 3469 Pls
966 3468 Pls
966 3467 Pls
966 3467 Pls
966 3466 Pls
966 3465 Pls
966 3465 Pls
966 3464 Pls
966 3463 Pls
966 3462 Pls
966 3461 Pls
966 3460 Pls
966 3460 Pls
966 3459 Pls
966 3458 Pls
966 3457 Pls
966 3456 Pls
966 3454 Pls
966 3454 Pls
966 3453 Pls
966 3452 Pls
966 3451 Pls
966 3451 Pls
966 3450 Pls
966 3449 Pls
966 3448 Pls
966 3448 Pls
966 3447 Pls
966 3446 Pls
966 3445 Pls
966 3444 Pls
966 3444 Pls
966 3443 Pls
966 3442 Pls
966 3442 Pls
966 3441 Pls
966 3440 Pls
966 3440 Pls
966 3439 Pls
966 3438 Pls
966 3437 Pls
966 3437 Pls
966 3436 Pls
966 3436 Pls
966 3435 Pls
966 3434 Pls
966 3433 Pls
966 3433 Pls
966 3432 Pls
966 3431 Pls
966 3431 Pls
966 3430 Pls
966 3429 Pls
966 3429 Pls
966 3428 Pls
966 3427 Pls
966 3426 Pls
966 3426 Pls
966 3425 Pls
966 3424 Pls
966 3424 Pls
966 3423 Pls
966 3422 Pls
966 3422 Pls
966 3421 Pls
966 3420 Pls
966 3420 Pls
966 3419 Pls
966 3419 Pls
967 3418 Pls
967 3417 Pls
967 3417 Pls
967 3416 Pls
967 3415 Pls
967 3415 Pls
967 3414 Pls
967 3413 Pls
967 3413 Pls
967 3412 Pls
967 3411 Pls
967 3411 Pls
967 3410 Pls
967 3409 Pls
967 3409 Pls
967 3408 Pls
967 3407 Pls
967 3407 Pls
967 3406 Pls
967 3405 Pls
967 3405 Pls
967 3404 Pls
967 3403 Pls
967 3402 Pls
967 3402 Pls
967 3401 Pls
967 3401 Pls
967 3400 Pls
967 3399 Pls
967 3399 Pls
967 3398 Pls
967 3398 Pls
967 3397 Pls
967 3397 Pls
967 3396 Pls
967 3396 Pls
967 3395 Pls
967 3394 Pls
967 3394 Pls
967 3393 Pls
967 3393 Pls
967 3392 Pls
967 3392 Pls
967 3391 Pls
967 3391 Pls
967 3390 Pls
967 3390 Pls
967 3389 Pls
967 3389 Pls
967 3388 Pls
967 3388 Pls
967 3387 Pls
967 3387 Pls
967 3386 Pls
967 3385 Pls
967 3385 Pls
967 3384 Pls
967 3384 Pls
967 3383 Pls
967 3383 Pls
967 3382 Pls
967 3382 Pls
967 3381 Pls
967 3380 Pls
967 3380 Pls
967 3379 Pls
967 3379 Pls
967 3378 Pls
967 3377 Pls
967 3377 Pls
967 3376 Pls
967 3376 Pls
967 3375 Pls
967 3375 Pls
967 3374 Pls
967 3374 Pls
967 3373 Pls
967 3373 Pls
967 3373 Pls
967 3372 Pls
967 3371 Pls
967 3371 Pls
967 3370 Pls
967 3370 Pls
967 3370 Pls
967 3369 Pls
967 3369 Pls
967 3368 Pls
967 3368 Pls
967 3367 Pls
967 3367 Pls
967 3366 Pls
967 3366 Pls
967 3365 Pls
967 3365 Pls
967 3364 Pls
967 3364 Pls
967 3364 Pls
967 3363 Pls
967 3363 Pls
967 3362 Pls
967 3362 Pls
967 3361 Pls
967 3361 Pls
967 3361 Pls
967 3360 Pls
967 3360 Pls
967 3359 Pls
967 3359 Pls
967 3358 Pls
967 3358 Pls
967 3357 Pls
967 3357 Pls
967 3356 Pls
967 3356 Pls
967 3355 Pls
967 3355 Pls
967 3354 Pls
967 3354 Pls
967 3353 Pls
967 3353 Pls
967 3352 Pls
967 3352 Pls
967 3352 Pls
967 3351 Pls
967 3351 Pls
967 3350 Pls
967 3350 Pls
967 3349 Pls
967 3348 Pls
967 3348 Pls
967 3347 Pls
967 3347 Pls
967 3346 Pls
967 3346 Pls
967 3346 Pls
967 3345 Pls
967 3344 Pls
967 3344 Pls
967 3344 Pls
967 3343 Pls
967 3343 Pls
967 3342 Pls
967 3342 Pls
967 3342 Pls
967 3341 Pls
967 3341 Pls
967 3340 Pls
967 3340 Pls
967 3339 Pls
967 3339 Pls
967 3338 Pls
967 3338 Pls
967 3337 Pls
967 3337 Pls
967 3336 Pls
967 3336 Pls
967 3336 Pls
967 3335 Pls
967 3335 Pls
967 3334 Pls
967 3334 Pls
967 3333 Pls
967 3333 Pls
967 3333 Pls
967 3332 Pls
967 3332 Pls
967 3331 Pls
967 3331 Pls
967 3330 Pls
967 3330 Pls
967 3329 Pls
967 3329 Pls
967 3329 Pls
967 3328 Pls
967 3328 Pls
967 3328 Pls
967 3327 Pls
967 3327 Pls
967 3326 Pls
967 3326 Pls
967 3325 Pls
967 3324 Pls
967 3324 Pls
967 3324 Pls
967 3323 Pls
967 3322 Pls
967 3322 Pls
967 3321 Pls
967 3321 Pls
967 3320 Pls
967 3320 Pls
967 3320 Pls
967 3319 Pls
967 3319 Pls
967 3319 Pls
967 3318 Pls
967 3318 Pls
967 3318 Pls
967 3317 Pls
967 3317 Pls
967 3316 Pls
967 3316 Pls
967 3316 Pls
967 3315 Pls
967 3315 Pls
967 3315 Pls
967 3314 Pls
967 3314 Pls
967 3314 Pls
967 3313 Pls
967 3313 Pls
967 3312 Pls
967 3312 Pls
967 3312 Pls
967 3311 Pls
967 3311 Pls
967 3311 Pls
967 3310 Pls
967 3310 Pls
967 3309 Pls
967 3309 Pls
967 3308 Pls
967 3308 Pls
967 3308 Pls
967 3307 Pls
967 3307 Pls
967 3306 Pls
967 3306 Pls
967 3305 Pls
967 3305 Pls
967 3304 Pls
967 3304 Pls
967 3304 Pls
967 3303 Pls
967 3303 Pls
967 3303 Pls
967 3302 Pls
967 3302 Pls
967 3301 Pls
967 3301 Pls
967 3301 Pls
967 3300 Pls
967 3300 Pls
967 3300 Pls
967 3299 Pls
967 3299 Pls
967 3298 Pls
967 3298 Pls
967 3298 Pls
967 3297 Pls
967 3297 Pls
967 3297 Pls
967 3296 Pls
967 3296 Pls
967 3296 Pls
967 3295 Pls
967 3295 Pls
967 3294 Pls
967 3294 Pls
967 3293 Pls
967 3293 Pls
967 3293 Pls
967 3292 Pls
967 3292 Pls
967 3292 Pls
967 3291 Pls
967 3291 Pls
967 3291 Pls
967 3290 Pls
967 3290 Pls
967 3289 Pls
967 3289 Pls
967 3289 Pls
967 3288 Pls
967 3288 Pls
967 3288 Pls
967 3287 Pls
967 3287 Pls
967 3287 Pls
967 3286 Pls
967 3286 Pls
967 3286 Pls
967 3285 Pls
967 3285 Pls
967 3285 Pls
967 3285 Pls
967 3284 Pls
967 3284 Pls
967 3283 Pls
967 3283 Pls
967 3283 Pls
967 3282 Pls
967 3282 Pls
967 3282 Pls
967 3282 Pls
967 3281 Pls
967 3281 Pls
967 3281 Pls
967 3280 Pls
967 3280 Pls
967 3280 Pls
967 3279 Pls
967 3279 Pls
967 3278 Pls
967 3278 Pls
967 3278 Pls
967 3278 Pls
967 3277 Pls
967 3277 Pls
967 3277 Pls
967 3276 Pls
967 3276 Pls
967 3276 Pls
967 3275 Pls
967 3275 Pls
967 3275 Pls
967 3274 Pls
967 3274 Pls
967 3274 Pls
967 3273 Pls
967 3273 Pls
967 3273 Pls
967 3273 Pls
967 3272 Pls
967 3272 Pls
967 3272 Pls
967 3271 Pls
967 3271 Pls
967 3271 Pls
967 3270 Pls
967 3270 Pls
967 3270 Pls
967 3269 Pls
967 3269 Pls
967 3268 Pls
967 3268 Pls
967 3267 Pls
967 3266 Pls
967 3266 Pls
967 3266 Pls
967 3265 Pls
967 3265 Pls
967 3264 Pls
967 3264 Pls
967 3263 Pls
967 3263 Pls
967 3262 Pls
967 3261 Pls
967 3261 Pls
967 3260 Pls
967 3260 Pls
967 3259 Pls
967 3258 Pls
967 3258 Pls
967 3257 Pls
967 3256 Pls
967 3256 Pls
967 3255 Pls
967 3255 Pls
967 3254 Pls
967 3254 Pls
967 3253 Pls
967 3252 Pls
967 3252 Pls
967 3251 Pls
967 3250 Pls
967 3250 Pls
967 3249 Pls
967 3248 Pls
967 3248 Pls
967 3247 Pls
967 3247 Pls
967 3246 Pls
967 3245 Pls
967 3245 Pls
967 3244 Pls
967 3244 Pls
967 3243 Pls
967 3243 Pls
967 3242 Pls
967 3242 Pls
967 3241 Pls
967 3241 Pls
967 3240 Pls
967 3239 Pls
967 3239 Pls
967 3238 Pls
967 3238 Pls
967 3237 Pls
967 3237 Pls
967 3236 Pls
967 3236 Pls
967 3235 Pls
967 3235 Pls
967 3234 Pls
967 3234 Pls
967 3233 Pls
967 3233 Pls
967 3233 Pls
967 3232 Pls
967 3232 Pls
967 3231 Pls
967 3230 Pls
967 3230 Pls
967 3229 Pls
967 3229 Pls
967 3229 Pls
967 3228 Pls
967 3227 Pls
967 3227 Pls
967 3226 Pls
967 3226 Pls
967 3225 Pls
967 3225 Pls
967 3225 Pls
967 3224 Pls
967 3224 Pls
967 3223 Pls
967 3223 Pls
967 3223 Pls
967 3222 Pls
967 3222 Pls
967 3221 Pls
967 3220 Pls
967 3220 Pls
967 3220 Pls
967 3219 Pls
967 3219 Pls
967 3218 Pls
967 3218 Pls
967 3217 Pls
967 3217 Pls
967 3216 Pls
967 3216 Pls
967 3215 Pls
967 3215 Pls
967 3214 Pls
967 3214 Pls
967 3214 Pls
967 3214 Pls
967 3213 Pls
967 3213 Pls
967 3212 Pls
967 3212 Pls
967 3211 Pls
967 3211 Pls
967 3211 Pls
967 3210 Pls
967 3210 Pls
967 3210 Pls
967 3209 Pls
967 3209 Pls
967 3209 Pls
967 3208 Pls
967 3208 Pls
967 3208 Pls
967 3207 Pls
967 3207 Pls
967 3207 Pls
967 3206 Pls
967 3206 Pls
967 3206 Pls
967 3205 Pls
967 3205 Pls
967 3205 Pls
967 3204 Pls
967 3204 Pls
967 3203 Pls
967 3203 Pls
967 3203 Pls
967 3202 Pls
967 3202 Pls
967 3202 Pls
967 3201 Pls
967 3201 Pls
967 3201 Pls
967 3201 Pls
967 3200 Pls
967 3200 Pls
967 3200 Pls
967 3199 Pls
967 3199 Pls
967 3198 Pls
967 3198 Pls
967 3198 Pls
967 3197 Pls
967 3197 Pls
967 3197 Pls
967 3196 Pls
967 3196 Pls
967 3195 Pls
967 3195 Pls
967 3195 Pls
967 3195 Pls
967 3194 Pls
967 3194 Pls
967 3194 Pls
967 3193 Pls
967 3192 Pls
967 3192 Pls
967 3191 Pls
967 3191 Pls
967 3191 Pls
967 3190 Pls
967 3190 Pls
967 3189 Pls
967 3189 Pls
967 3189 Pls
967 3188 Pls
967 3188 Pls
967 3188 Pls
967 3187 Pls
967 3187 Pls
967 3187 Pls
967 3187 Pls
967 3186 Pls
967 3186 Pls
967 3186 Pls
967 3185 Pls
967 3185 Pls
967 3184 Pls
967 3184 Pls
967 3184 Pls
967 3183 Pls
967 3183 Pls
967 3183 Pls
967 3182 Pls
967 3182 Pls
967 3182 Pls
967 3182 Pls
967 3181 Pls
967 3181 Pls
967 3181 Pls
967 3181 Pls
967 3180 Pls
967 3180 Pls
967 3180 Pls
967 3180 Pls
967 3180 Pls
967 3179 Pls
967 3179 Pls
967 3179 Pls
967 3179 Pls
967 3178 Pls
967 3178 Pls
967 3178 Pls
967 3178 Pls
967 3177 Pls
967 3177 Pls
967 3177 Pls
967 3177 Pls
967 3176 Pls
967 3176 Pls
967 3176 Pls
967 3175 Pls
967 3175 Pls
967 3175 Pls
967 3175 Pls
967 3175 Pls
967 3175 Pls
967 3174 Pls
967 3174 Pls
967 3174 Pls
967 3173 Pls
967 3173 Pls
967 3173 Pls
967 3173 Pls
967 3172 Pls
967 3172 Pls
967 3172 Pls
967 3172 Pls
967 3172 Pls
967 3171 Pls
967 3171 Pls
967 3171 Pls
967 3171 Pls
967 3171 Pls
967 3170 Pls
967 3170 Pls
967 3170 Pls
967 3170 Pls
967 3170 Pls
968 3170 Pls
968 3169 Pls
968 3169 Pls
968 3168 Pls
968 3168 Pls
968 3168 Pls
968 3168 Pls
968 3168 Pls
968 3168 Pls
968 3167 Pls
968 3167 Pls
968 3167 Pls
968 3167 Pls
968 3166 Pls
968 3166 Pls
968 3166 Pls
968 3165 Pls
968 3165 Pls
968 3165 Pls
968 3165 Pls
968 3164 Pls
968 3164 Pls
968 3164 Pls
968 3164 Pls
968 3164 Pls
968 3163 Pls
968 3163 Pls
968 3163 Pls
968 3162 Pls
968 3162 Pls
968 3162 Pls
968 3162 Pls
968 3161 Pls
968 3161 Pls
968 3161 Pls
968 3161 Pls
968 3161 Pls
968 3161 Pls
968 3161 Pls
968 3160 Pls
968 3160 Pls
968 3160 Pls
968 3160 Pls
968 3160 Pls
968 3159 Pls
968 3159 Pls
968 3159 Pls
968 3159 Pls
968 3159 Pls
968 3158 Pls
968 3158 Pls
968 3158 Pls
968 3158 Pls
968 3158 Pls
968 3157 Pls
968 3157 Pls
968 3157 Pls
968 3157 Pls
968 3157 Pls
968 3157 Pls
968 3156 Pls
968 3156 Pls
968 3156 Pls
968 3155 Pls
968 3155 Pls
968 3155 Pls
968 3155 Pls
968 3155 Pls
968 3154 Pls
968 3154 Pls
968 3154 Pls
968 3154 Pls
968 3153 Pls
968 3153 Pls
968 3153 Pls
968 3153 Pls
968 3153 Pls
968 3152 Pls
968 3152 Pls
968 3152 Pls
968 3152 Pls
968 3151 Pls
968 3151 Pls
968 3151 Pls
968 3151 Pls
968 3150 Pls
968 3150 Pls
968 3150 Pls
968 3149 Pls
968 3149 Pls
968 3149 Pls
968 3149 Pls
968 3148 Pls
968 3148 Pls
968 3148 Pls
968 3148 Pls
968 3148 Pls
968 3148 Pls
968 3147 Pls
968 3147 Pls
968 3147 Pls
968 3147 Pls
968 3147 Pls
968 3146 Pls
968 3146 Pls
968 3146 Pls
968 3146 Pls
968 3145 Pls
968 3145 Pls
968 3145 Pls
968 3145 Pls
968 3144 Pls
968 3144 Pls
968 3144 Pls
968 3144 Pls
968 3143 Pls
968 3143 Pls
968 3143 Pls
968 3143 Pls
968 3142 Pls
968 3142 Pls
968 3142 Pls
968 3142 Pls
968 3141 Pls
968 3141 Pls
968 3141 Pls
968 3141 Pls
968 3141 Pls
968 3140 Pls
968 3140 Pls
968 3139 Pls
968 3139 Pls
968 3139 Pls
968 3139 Pls
968 3139 Pls
968 3139 Pls
968 3138 Pls
968 3138 Pls
968 3138 Pls
968 3138 Pls
968 3138 Pls
968 3137 Pls
968 3137 Pls
968 3137 Pls
968 3137 Pls
968 3137 Pls
968 3137 Pls
968 3136 Pls
968 3136 Pls
968 3135 Pls
968 3135 Pls
968 3135 Pls
968 3135 Pls
968 3134 Pls
968 3134 Pls
968 3134 Pls
968 3134 Pls
968 3133 Pls
968 3133 Pls
968 3133 Pls
968 3133 Pls
968 3133 Pls
968 3133 Pls
968 3132 Pls
968 3132 Pls
968 3132 Pls
968 3132 Pls
968 3132 Pls
968 3132 Pls
968 3132 Pls
968 3131 Pls
968 3131 Pls
968 3131 Pls
968 3131 Pls
968 3131 Pls
968 3130 Pls
968 3130 Pls
968 3130 Pls
968 3129 Pls
968 3129 Pls
968 3129 Pls
968 3129 Pls
968 3129 Pls
968 3129 Pls
968 3128 Pls
968 3128 Pls
968 3128 Pls
968 3128 Pls
968 3128 Pls
968 3128 Pls
968 3128 Pls
968 3127 Pls
968 3127 Pls
968 3127 Pls
968 3127 Pls
968 3127 Pls
968 3127 Pls
968 3126 Pls
968 3126 Pls
968 3126 Pls
968 3126 Pls
968 3126 Pls
968 3125 Pls
968 3125 Pls
968 3125 Pls
968 3125 Pls
968 3125 Pls
968 3125 Pls
968 3124 Pls
968 3124 Pls
968 3124 Pls
968 3124 Pls
968 3124 Pls
968 3123 Pls
968 3123 Pls
968 3123 Pls
968 3122 Pls
968 3122 Pls
968 3122 Pls
968 3122 Pls
968 3122 Pls
968 3122 Pls
968 3122 Pls
968 3121 Pls
968 3121 Pls
968 3121 Pls
968 3121 Pls
968 3121 Pls
968 3120 Pls
968 3120 Pls
968 3120 Pls
968 3120 Pls
968 3119 Pls
968 3119 Pls
968 3119 Pls
968 3119 Pls
968 3119 Pls
968 3119 Pls
968 3118 Pls
968 3118 Pls
968 3118 Pls
968 3118 Pls
968 3118 Pls
968 3118 Pls
968 3118 Pls
968 3117 Pls
968 3117 Pls
968 3117 Pls
968 3117 Pls
968 3117 Pls
968 3116 Pls
968 3116 Pls
968 3116 Pls
968 3116 Pls
968 3116 Pls
968 3115 Pls
968 3115 Pls
968 3115 Pls
968 3115 Pls
968 3114 Pls
968 3114 Pls
968 3114 Pls
968 3114 Pls
968 3113 Pls
968 3112 Pls
968 3112 Pls
968 3112 Pls
968 3112 Pls
968 3112 Pls
968 3111 Pls
968 3111 Pls
968 3111 Pls
968 3111 Pls
968 3111 Pls
968 3111 Pls
968 3111 Pls
968 3111 Pls
968 3111 Pls
968 3110 Pls
968 3110 Pls
968 3110 Pls
968 3110 Pls
968 3110 Pls
968 3109 Pls
968 3109 Pls
968 3109 Pls
968 3109 Pls
968 3109 Pls
968 3109 Pls
968 3108 Pls
968 3108 Pls
968 3108 Pls
968 3108 Pls
968 3108 Pls
968 3108 Pls
968 3108 Pls
968 3107 Pls
968 3107 Pls
968 3107 Pls
968 3107 Pls
968 3107 Pls
968 3106 Pls
968 3106 Pls
968 3106 Pls
968 3106 Pls
968 3106 Pls
968 3106 Pls
968 3106 Pls
968 3105 Pls
968 3105 Pls
968 3105 Pls
968 3105 Pls
968 3104 Pls
968 3104 Pls
968 3104 Pls
968 3104 Pls
968 3104 Pls
968 3104 Pls
968 3103 Pls
968 3103 Pls
968 3103 Pls
968 3103 Pls
968 3103 Pls
968 3102 Pls
968 3102 Pls
968 3102 Pls
968 3102 Pls
968 3102 Pls
968 3102 Pls
968 3101 Pls
968 3101 Pls
968 3101 Pls
968 3101 Pls
968 3101 Pls
968 3101 Pls
968 3100 Pls
968 3100 Pls
968 3100 Pls
968 3100 Pls
968 3100 Pls
968 3100 Pls
968 3100 Pls
968 3100 Pls
968 3100 Pls
968 3099 Pls
968 3099 Pls
968 3099 Pls
968 3099 Pls
968 3099 Pls
968 3098 Pls
968 3098 Pls
968 3098 Pls
968 3098 Pls
968 3098 Pls
968 3098 Pls
968 3098 Pls
968 3098 Pls
968 3097 Pls
968 3097 Pls
968 3097 Pls
968 3097 Pls
968 3097 Pls
968 3097 Pls
968 3096 Pls
968 3096 Pls
968 3096 Pls
968 3096 Pls
968 3095 Pls
968 3095 Pls
968 3095 Pls
968 3095 Pls
968 3095 Pls
968 3095 Pls
968 3094 Pls
968 3094 Pls
968 3094 Pls
968 3094 Pls
968 3094 Pls
968 3094 Pls
968 3093 Pls
968 3093 Pls
968 3093 Pls
968 3093 Pls
968 3093 Pls
968 3093 Pls
968 3093 Pls
968 3092 Pls
968 3092 Pls
968 3092 Pls
968 3092 Pls
968 3092 Pls
968 3092 Pls
968 3091 Pls
968 3091 Pls
968 3091 Pls
968 3091 Pls
968 3091 Pls
968 3091 Pls
968 3090 Pls
968 3090 Pls
968 3090 Pls
968 3090 Pls
968 3090 Pls
968 3090 Pls
968 3090 Pls
968 3089 Pls
968 3089 Pls
968 3089 Pls
968 3089 Pls
968 3088 Pls
968 3088 Pls
968 3088 Pls
968 3088 Pls
968 3088 Pls
968 3088 Pls
968 3087 Pls
968 3087 Pls
968 3087 Pls
968 3087 Pls
968 3087 Pls
968 3087 Pls
968 3086 Pls
968 3086 Pls
968 3086 Pls
968 3086 Pls
968 3086 Pls
968 3086 Pls
968 3085 Pls
968 3085 Pls
968 3085 Pls
968 3085 Pls
968 3085 Pls
968 3085 Pls
968 3084 Pls
968 3084 Pls
968 3084 Pls
968 3084 Pls
968 3084 Pls
968 3084 Pls
968 3084 Pls
968 3084 Pls
968 3083 Pls
968 3083 Pls
968 3083 Pls
968 3083 Pls
968 3082 Pls
968 3082 Pls
968 3082 Pls
968 3082 Pls
968 3082 Pls
968 3081 Pls
968 3081 Pls
968 3081 Pls
968 3081 Pls
968 3081 Pls
968 3080 Pls
968 3080 Pls
968 3080 Pls
968 3080 Pls
968 3080 Pls
968 3080 Pls
968 3080 Pls
968 3079 Pls
968 3079 Pls
968 3079 Pls
968 3078 Pls
968 3078 Pls
968 3078 Pls
968 3078 Pls
968 3078 Pls
968 3078 Pls
968 3077 Pls
968 3077 Pls
968 3077 Pls
968 3077 Pls
968 3076 Pls
968 3076 Pls
968 3076 Pls
968 3076 Pls
968 3076 Pls
968 3076 Pls
968 3076 Pls
968 3076 Pls
968 3075 Pls
968 3075 Pls
968 3075 Pls
968 3075 Pls
968 3075 Pls
968 3075 Pls
968 3075 Pls
968 3074 Pls
968 3074 Pls
968 3074 Pls
968 3074 Pls
968 3074 Pls
968 3074 Pls
968 3074 Pls
968 3073 Pls
968 3073 Pls
968 3073 Pls
968 3073 Pls
968 3073 Pls
968 3073 Pls
968 3072 Pls
968 3072 Pls
968 3072 Pls
968 3072 Pls
968 3072 Pls
968 3072 Pls
968 3071 Pls
968 3071 Pls
968 3071 Pls
968 3070 Pls
968 3070 Pls
968 3070 Pls
968 3070 Pls
968 3069 Pls
968 3069 Pls
968 3069 Pls
968 3069 Pls
968 3068 Pls
968 3068 Pls
968 3068 Pls
968 3068 Pls
968 3068 Pls
968 3068 Pls
968 3068 Pls
968 3068 Pls
968 3067 Pls
968 3067 Pls
968 3067 Pls
968 3067 Pls
968 3066 Pls
969 3066 Pls
969 3066 Pls
969 3066 Pls
969 3066 Pls
969 3066 Pls
969 3066 Pls
969 3066 Pls
969 3065 Pls
969 3065 Pls
969 3065 Pls
969 3065 Pls
969 3065 Pls
969 3064 Pls
969 3064 Pls
969 3064 Pls
969 3064 Pls
969 3064 Pls
969 3064 Pls
969 3063 Pls
969 3063 Pls
969 3063 Pls
969 3063 Pls
969 3063 Pls
969 3062 Pls
969 3062 Pls
969 3062 Pls
969 3062 Pls
969 3062 Pls
969 3061 Pls
969 3061 Pls
969 3061 Pls
969 3060 Pls
969 3060 Pls
969 3060 Pls
969 3060 Pls
969 3060 Pls
969 3060 Pls
969 3060 Pls
969 3060 Pls
969 3059 Pls
969 3059 Pls
969 3059 Pls
969 3059 Pls
969 3059 Pls
969 3059 Pls
969 3059 Pls
969 3059 Pls
969 3058 Pls
969 3058 Pls
969 3058 Pls
969 3058 Pls
969 3058 Pls
969 3057 Pls
969 3057 Pls
969 3057 Pls
969 3057 Pls
969 3056 Pls
969 3056 Pls
969 3056 Pls
969 3056 Pls
969 3056 Pls
969 3056 Pls
969 3056 Pls
969 3056 Pls
969 3055 Pls
969 3055 Pls
969 3055 Pls
969 3055 Pls
969 3055 Pls
969 3055 Pls
969 3055 Pls
969 3054 Pls
969 3054 Pls
969 3054 Pls
969 3054 Pls
969 3053 Pls
969 3053 Pls
969 3053 Pls
969 3053 Pls
969 3053 Pls
969 3053 Pls
969 3053 Pls
969 3053 Pls
969 3052 Pls
969 3052 Pls
969 3052 Pls
969 3052 Pls
969 3052 Pls
969 3052 Pls
969 3051 Pls
969 3051 Pls
969 3051 Pls
969 3051 Pls
969 3051 Pls
969 3051 Pls
969 3051 Pls
969 3051 Pls
969 3050 Pls
969 3050 Pls
969 3050 Pls
969 3050 Pls
969 3050 Pls
969 3050 Pls
969 3050 Pls
969 3049 Pls
969 3049 Pls
969 3049 Pls
969 3049 Pls
969 3049 Pls
969 3048 Pls
969 3048 Pls
969 3048 Pls
969 3048 Pls
969 3048 Pls
969 3047 Pls
969 3047 Pls
969 3047 Pls
969 3047 Pls
969 3047 Pls
969 3046 Pls
969 3046 Pls
969 3046 Pls
969 3046 Pls
969 3046 Pls
969 3046 Pls
969 3046 Pls
969 3046 Pls
969 3045 Pls
969 3045 Pls
969 3045 Pls
969 3045 Pls
969 3045 Pls
969 3045 Pls
969 3045 Pls
969 3045 Pls
969 3045 Pls
969 3045 Pls
969 3044 Pls
969 3044 Pls
969 3044 Pls
969 3044 Pls
969 3044 Pls
969 3044 Pls
969 3044 Pls
969 3043 Pls
969 3043 Pls
969 3043 Pls
969 3043 Pls
969 3043 Pls
969 3043 Pls
969 3043 Pls
969 3042 Pls
969 3042 Pls
969 3042 Pls
969 3042 Pls
969 3042 Pls
969 3041 Pls
969 3041 Pls
969 3041 Pls
969 3041 Pls
969 3041 Pls
969 3041 Pls
969 3041 Pls
969 3040 Pls
969 3040 Pls
969 3040 Pls
969 3040 Pls
969 3040 Pls
969 3040 Pls
969 3039 Pls
969 3039 Pls
969 3039 Pls
969 3039 Pls
969 3039 Pls
969 3039 Pls
969 3039 Pls
969 3039 Pls
969 3038 Pls
969 3038 Pls
969 3038 Pls
969 3038 Pls
969 3038 Pls
969 3038 Pls
969 3037 Pls
969 3037 Pls
969 3037 Pls
969 3037 Pls
969 3037 Pls
969 3037 Pls
969 3037 Pls
969 3037 Pls
969 3037 Pls
969 3036 Pls
969 3036 Pls
969 3036 Pls
969 3036 Pls
969 3036 Pls
969 3036 Pls
969 3036 Pls
969 3036 Pls
969 3035 Pls
969 3035 Pls
969 3035 Pls
969 3035 Pls
969 3035 Pls
969 3035 Pls
969 3035 Pls
969 3034 Pls
969 3034 Pls
969 3034 Pls
969 3034 Pls
969 3034 Pls
969 3034 Pls
969 3034 Pls
969 3034 Pls
969 3034 Pls
969 3033 Pls
969 3033 Pls
969 3033 Pls
969 3033 Pls
969 3033 Pls
969 3032 Pls
969 3032 Pls
969 3032 Pls
969 3032 Pls
969 3032 Pls
969 3032 Pls
969 3032 Pls
969 3031 Pls
969 3031 Pls
969 3031 Pls
969 3031 Pls
969 3031 Pls
969 3031 Pls
969 3030 Pls
969 3030 Pls
969 3030 Pls
969 3030 Pls
969 3030 Pls
969 3030 Pls
969 3030 Pls
969 3030 Pls
969 3029 Pls
969 3029 Pls
969 3029 Pls
969 3029 Pls
969 3029 Pls
969 3029 Pls
969 3028 Pls
969 3028 Pls
969 3028 Pls
969 3028 Pls
969 3028 Pls
969 3028 Pls
969 3028 Pls
969 3027 Pls
969 3027 Pls
969 3027 Pls
969 3027 Pls
969 3027 Pls
969 3027 Pls
969 3027 Pls
969 3026 Pls
969 3026 Pls
969 3026 Pls
969 3026 Pls
969 3025 Pls
969 3025 Pls
969 3025 Pls
969 3025 Pls
969 3024 Pls
969 3024 Pls
969 3024 Pls
969 3024 Pls
969 3024 Pls
969 3024 Pls
969 3023 Pls
969 3023 Pls
969 3023 Pls
969 3023 Pls
969 3023 Pls
969 3023 Pls
969 3023 Pls
969 3022 Pls
969 3022 Pls
969 3022 Pls
969 3022 Pls
969 3022 Pls
969 3022 Pls
969 3021 Pls
969 3021 Pls
969 3021 Pls
969 3021 Pls
969 3021 Pls
969 3021 Pls
969 3021 Pls
969 3021 Pls
969 3020 Pls
969 3020 Pls
969 3020 Pls
969 3020 Pls
969 3020 Pls
969 3020 Pls
969 3020 Pls
969 3020 Pls
969 3019 Pls
969 3019 Pls
969 3019 Pls
969 3019 Pls
969 3019 Pls
969 3019 Pls
969 3019 Pls
969 3019 Pls
969 3019 Pls
969 3019 Pls
969 3018 Pls
969 3018 Pls
969 3018 Pls
969 3018 Pls
969 3018 Pls
969 3018 Pls
969 3018 Pls
969 3017 Pls
969 3017 Pls
969 3017 Pls
969 3017 Pls
969 3017 Pls
969 3016 Pls
969 3016 Pls
969 3016 Pls
969 3016 Pls
969 3016 Pls
969 3016 Pls
969 3016 Pls
969 3016 Pls
969 3015 Pls
969 3015 Pls
969 3015 Pls
969 3015 Pls
969 3015 Pls
969 3015 Pls
969 3015 Pls
969 3015 Pls
969 3014 Pls
969 3014 Pls
969 3014 Pls
969 3014 Pls
969 3014 Pls
969 3014 Pls
969 3013 Pls
969 3013 Pls
969 3013 Pls
969 3013 Pls
969 3013 Pls
969 3013 Pls
969 3012 Pls
969 3012 Pls
969 3012 Pls
969 3012 Pls
969 3012 Pls
969 3012 Pls
969 3012 Pls
969 3012 Pls
969 3011 Pls
969 3011 Pls
969 3011 Pls
969 3011 Pls
969 3011 Pls
969 3011 Pls
969 3010 Pls
969 3010 Pls
969 3010 Pls
969 3010 Pls
969 3010 Pls
969 3010 Pls
969 3010 Pls
969 3010 Pls
969 3009 Pls
969 3009 Pls
969 3009 Pls
969 3009 Pls
969 3009 Pls
969 3009 Pls
969 3008 Pls
969 3008 Pls
969 3008 Pls
969 3008 Pls
969 3008 Pls
969 3007 Pls
969 3007 Pls
969 3007 Pls
969 3007 Pls
969 3007 Pls
969 3007 Pls
969 3007 Pls
969 3007 Pls
969 3007 Pls
970 3006 Pls
970 3006 Pls
970 3006 Pls
970 3006 Pls
970 3006 Pls
970 3006 Pls
970 3005 Pls
970 3005 Pls
970 3005 Pls
970 3005 Pls
970 3005 Pls
970 3005 Pls
970 3005 Pls
970 3005 Pls
970 3005 Pls
970 3004 Pls
970 3004 Pls
970 3004 Pls
970 3004 Pls
970 3004 Pls
970 3003 Pls
970 3003 Pls
970 3003 Pls
970 3003 Pls
970 3003 Pls
970 3003 Pls
970 3003 Pls
970 3003 Pls
970 3002 Pls
970 3002 Pls
970 3002 Pls
970 3002 Pls
970 3002 Pls
970 3002 Pls
970 3002 Pls
970 3001 Pls
970 3001 Pls
970 3001 Pls
970 3001 Pls
970 3001 Pls
970 3000 Pls
970 3000 Pls
970 3000 Pls
970 3000 Pls
970 3000 Pls
970 3000 Pls
970 3000 Pls
970 2999 Pls
970 2999 Pls
970 2999 Pls
970 2999 Pls
970 2999 Pls
970 2999 Pls
970 2998 Pls
970 2998 Pls
970 2998 Pls
970 2998 Pls
970 2998 Pls
970 2998 Pls
970 2998 Pls
970 2998 Pls
970 2997 Pls
970 2997 Pls
970 2997 Pls
970 2997 Pls
970 2997 Pls
970 2997 Pls
970 2996 Pls
970 2996 Pls
970 2996 Pls
970 2996 Pls
970 2996 Pls
970 2996 Pls
970 2995 Pls
970 2995 Pls
970 2995 Pls
970 2995 Pls
970 2995 Pls
970 2995 Pls
970 2995 Pls
970 2994 Pls
970 2994 Pls
970 2994 Pls
970 2994 Pls
970 2994 Pls
970 2994 Pls
970 2994 Pls
970 2994 Pls
970 2993 Pls
970 2993 Pls
970 2993 Pls
970 2993 Pls
970 2993 Pls
970 2993 Pls
970 2992 Pls
970 2992 Pls
970 2992 Pls
970 2992 Pls
970 2991 Pls
970 2991 Pls
970 2991 Pls
970 2991 Pls
970 2991 Pls
970 2991 Pls
970 2990 Pls
970 2990 Pls
970 2990 Pls
970 2990 Pls
970 2990 Pls
970 2990 Pls
970 2990 Pls
970 2990 Pls
970 2990 Pls
970 2989 Pls
970 2989 Pls
970 2989 Pls
970 2989 Pls
970 2989 Pls
970 2989 Pls
970 2989 Pls
970 2989 Pls
970 2989 Pls
970 2988 Pls
970 2988 Pls
970 2988 Pls
970 2988 Pls
970 2988 Pls
970 2988 Pls
970 2988 Pls
970 2987 Pls
970 2987 Pls
970 2987 Pls
970 2987 Pls
970 2986 Pls
970 2986 Pls
970 2986 Pls
970 2986 Pls
970 2986 Pls
970 2986 Pls
970 2985 Pls
970 2985 Pls
970 2985 Pls
970 2985 Pls
970 2985 Pls
970 2984 Pls
970 2984 Pls
970 2984 Pls
970 2984 Pls
970 2984 Pls
970 2984 Pls
970 2984 Pls
970 2984 Pls
970 2983 Pls
970 2983 Pls
970 2983 Pls
970 2983 Pls
970 2983 Pls
970 2982 Pls
970 2982 Pls
970 2982 Pls
970 2982 Pls
970 2982 Pls
970 2982 Pls
970 2981 Pls
970 2981 Pls
970 2981 Pls
970 2981 Pls
970 2981 Pls
970 2981 Pls
970 2981 Pls
970 2981 Pls
970 2980 Pls
970 2980 Pls
970 2980 Pls
970 2980 Pls
970 2980 Pls
970 2979 Pls
970 2979 Pls
970 2979 Pls
970 2979 Pls
970 2979 Pls
970 2979 Pls
970 2979 Pls
970 2979 Pls
970 2978 Pls
970 2978 Pls
970 2978 Pls
970 2978 Pls
970 2978 Pls
970 2978 Pls
970 2978 Pls
970 2978 Pls
970 2978 Pls
970 2977 Pls
970 2977 Pls
970 2977 Pls
970 2977 Pls
970 2977 Pls
970 2977 Pls
970 2977 Pls
970 2977 Pls
970 2976 Pls
970 2976 Pls
970 2976 Pls
970 2976 Pls
970 2976 Pls
970 2976 Pls
970 2976 Pls
970 2976 Pls
970 2976 Pls
970 2975 Pls
970 2975 Pls
970 2975 Pls
970 2975 Pls
970 2975 Pls
970 2975 Pls
970 2975 Pls
970 2975 Pls
970 2974 Pls
970 2974 Pls
970 2974 Pls
970 2974 Pls
970 2974 Pls
970 2974 Pls
970 2974 Pls
970 2973 Pls
970 2973 Pls
970 2973 Pls
970 2973 Pls
970 2973 Pls
970 2973 Pls
970 2973 Pls
970 2973 Pls
970 2973 Pls
970 2973 Pls
970 2972 Pls
970 2972 Pls
970 2972 Pls
970 2972 Pls
970 2972 Pls
970 2972 Pls
970 2972 Pls
970 2972 Pls
970 2972 Pls
970 2971 Pls
970 2971 Pls
970 2971 Pls
970 2971 Pls
970 2971 Pls
970 2971 Pls
970 2970 Pls
970 2970 Pls
970 2970 Pls
970 2970 Pls
970 2970 Pls
970 2970 Pls
970 2970 Pls
970 2969 Pls
970 2969 Pls
970 2969 Pls
970 2969 Pls
970 2969 Pls
970 2969 Pls
970 2969 Pls
970 2969 Pls
970 2969 Pls
970 2968 Pls
970 2968 Pls
970 2968 Pls
970 2968 Pls
970 2968 Pls
970 2968 Pls
970 2968 Pls
970 2968 Pls
970 2968 Pls
970 2967 Pls
970 2967 Pls
970 2967 Pls
970 2967 Pls
970 2967 Pls
970 2967 Pls
970 2967 Pls
970 2967 Pls
970 2966 Pls
970 2966 Pls
970 2966 Pls
970 2966 Pls
970 2966 Pls
970 2966 Pls
970 2965 Pls
970 2965 Pls
970 2965 Pls
970 2965 Pls
970 2965 Pls
970 2965 Pls
970 2964 Pls
970 2964 Pls
970 2964 Pls
970 2964 Pls
971 2964 Pls
971 2964 Pls
971 2964 Pls
971 2964 Pls
971 2963 Pls
971 2963 Pls
971 2963 Pls
971 2963 Pls
971 2963 Pls
971 2963 Pls
971 2963 Pls
971 2963 Pls
971 2962 Pls
971 2962 Pls
971 2962 Pls
971 2962 Pls
971 2962 Pls
971 2962 Pls
971 2962 Pls
971 2962 Pls
971 2961 Pls
971 2961 Pls
971 2961 Pls
971 2961 Pls
971 2961 Pls
971 2961 Pls
971 2961 Pls
971 2961 Pls
971 2960 Pls
971 2960 Pls
971 2960 Pls
971 2960 Pls
971 2960 Pls
971 2959 Pls
971 2959 Pls
971 2959 Pls
971 2959 Pls
971 2959 Pls
971 2959 Pls
971 2959 Pls
971 2958 Pls
971 2958 Pls
971 2958 Pls
971 2958 Pls
971 2958 Pls
971 2958 Pls
971 2958 Pls
971 2958 Pls
971 2957 Pls
971 2957 Pls
971 2957 Pls
971 2957 Pls
971 2957 Pls
971 2957 Pls
971 2957 Pls
971 2957 Pls
971 2956 Pls
971 2956 Pls
971 2956 Pls
971 2956 Pls
971 2956 Pls
971 2956 Pls
971 2956 Pls
971 2956 Pls
971 2955 Pls
971 2955 Pls
971 2955 Pls
971 2955 Pls
971 2954 Pls
971 2954 Pls
971 2954 Pls
971 2954 Pls
971 2954 Pls
971 2953 Pls
971 2953 Pls
971 2953 Pls
971 2953 Pls
971 2953 Pls
971 2953 Pls
971 2953 Pls
971 2953 Pls
971 2952 Pls
971 2952 Pls
971 2952 Pls
971 2952 Pls
971 2952 Pls
971 2952 Pls
971 2952 Pls
971 2952 Pls
971 2951 Pls
971 2951 Pls
971 2951 Pls
971 2951 Pls
971 2951 Pls
971 2951 Pls
971 2951 Pls
971 2951 Pls
971 2950 Pls
971 2950 Pls
971 2950 Pls
971 2950 Pls
971 2950 Pls
971 2949 Pls
971 2949 Pls
971 2949 Pls
971 2949 Pls
971 2949 Pls
971 2949 Pls
971 2949 Pls
971 2949 Pls
971 2949 Pls
971 2948 Pls
971 2948 Pls
971 2948 Pls
971 2948 Pls
971 2948 Pls
971 2948 Pls
971 2947 Pls
971 2947 Pls
971 2947 Pls
971 2947 Pls
971 2947 Pls
971 2947 Pls
971 2947 Pls
971 2946 Pls
971 2946 Pls
971 2946 Pls
971 2946 Pls
971 2946 Pls
971 2946 Pls
971 2946 Pls
971 2946 Pls
971 2945 Pls
971 2945 Pls
971 2945 Pls
971 2945 Pls
971 2945 Pls
971 2945 Pls
971 2945 Pls
971 2944 Pls
971 2944 Pls
971 2944 Pls
971 2944 Pls
971 2944 Pls
971 2944 Pls
971 2944 Pls
971 2944 Pls
971 2943 Pls
971 2943 Pls
971 2943 Pls
971 2942 Pls
971 2942 Pls
971 2942 Pls
971 2942 Pls
971 2942 Pls
971 2942 Pls
971 2941 Pls
971 2941 Pls
971 2941 Pls
971 2940 Pls
971 2940 Pls
971 2933 Pls
971 2933 Pls
971 2933 Pls
971 2933 Pls
971 2933 Pls
971 2932 Pls
971 2932 Pls
971 2932 Pls
971 2932 Pls
971 2932 Pls
971 2932 Pls
971 2932 Pls
971 2931 Pls
971 2931 Pls
971 2931 Pls
971 2931 Pls
971 2931 Pls
971 2931 Pls
971 2930 Pls
971 2930 Pls
971 2930 Pls
971 2930 Pls
971 2930 Pls
971 2930 Pls
971 2930 Pls
971 2929 Pls
971 2929 Pls
971 2929 Pls
971 2929 Pls
971 2929 Pls
971 2929 Pls
971 2929 Pls
971 2928 Pls
971 2928 Pls
971 2928 Pls
971 2928 Pls
971 2928 Pls
971 2928 Pls
971 2928 Pls
971 2928 Pls
971 2927 Pls
971 2927 Pls
971 2927 Pls
971 2927 Pls
971 2927 Pls
971 2927 Pls
971 2926 Pls
971 2926 Pls
971 2926 Pls
971 2926 Pls
971 2926 Pls
971 2926 Pls
971 2925 Pls
971 2925 Pls
971 2925 Pls
971 2925 Pls
971 2925 Pls
971 2925 Pls
971 2925 Pls
971 2925 Pls
971 2924 Pls
971 2924 Pls
971 2924 Pls
971 2924 Pls
971 2924 Pls
971 2924 Pls
971 2924 Pls
972 2923 Pls
972 2923 Pls
972 2923 Pls
972 2923 Pls
972 2923 Pls
972 2923 Pls
972 2923 Pls
972 2922 Pls
972 2922 Pls
972 2922 Pls
972 2922 Pls
972 2922 Pls
972 2922 Pls
972 2922 Pls
972 2921 Pls
972 2921 Pls
972 2921 Pls
972 2921 Pls
972 2921 Pls
972 2921 Pls
972 2920 Pls
972 2920 Pls
972 2920 Pls
972 2920 Pls
972 2920 Pls
972 2919 Pls
972 2919 Pls
972 2919 Pls
972 2919 Pls
972 2919 Pls
972 2919 Pls
972 2919 Pls
972 2918 Pls
972 2918 Pls
972 2918 Pls
972 2918 Pls
972 2918 Pls
972 2918 Pls
972 2918 Pls
972 2917 Pls
972 2917 Pls
972 2917 Pls
972 2917 Pls
972 2917 Pls
972 2916 Pls
972 2916 Pls
972 2916 Pls
972 2916 Pls
972 2916 Pls
972 2916 Pls
972 2916 Pls
972 2915 Pls
972 2915 Pls
972 2915 Pls
972 2915 Pls
972 2915 Pls
972 2915 Pls
972 2914 Pls
972 2914 Pls
972 2914 Pls
972 2914 Pls
972 2914 Pls
972 2914 Pls
972 2913 Pls
972 2913 Pls
972 2913 Pls
972 2913 Pls
972 2913 Pls
972 2913 Pls
972 2912 Pls
972 2912 Pls
972 2912 Pls
972 2912 Pls
972 2912 Pls
972 2912 Pls
972 2912 Pls
972 2912 Pls
972 2911 Pls
972 2911 Pls
972 2911 Pls
972 2911 Pls
972 2911 Pls
972 2911 Pls
972 2911 Pls
972 2910 Pls
972 2910 Pls
972 2910 Pls
972 2910 Pls
972 2910 Pls
972 2909 Pls
972 2909 Pls
972 2909 Pls
972 2909 Pls
972 2909 Pls
972 2909 Pls
972 2909 Pls
972 2908 Pls
972 2908 Pls
972 2908 Pls
972 2908 Pls
972 2908 Pls
972 2908 Pls
972 2907 Pls
972 2907 Pls
972 2907 Pls
972 2906 Pls
972 2906 Pls
972 2906 Pls
972 2906 Pls
972 2906 Pls
972 2905 Pls
972 2905 Pls
972 2905 Pls
972 2905 Pls
972 2905 Pls
972 2905 Pls
972 2905 Pls
972 2905 Pls
972 2904 Pls
972 2904 Pls
972 2904 Pls
972 2904 Pls
972 2904 Pls
972 2904 Pls
972 2904 Pls
972 2903 Pls
972 2903 Pls
972 2903 Pls
972 2903 Pls
972 2903 Pls
972 2903 Pls
972 2903 Pls
972 2902 Pls
972 2902 Pls
972 2902 Pls
972 2902 Pls
972 2902 Pls
972 2901 Pls
972 2901 Pls
972 2901 Pls
972 2901 Pls
972 2901 Pls
972 2901 Pls
972 2901 Pls
972 2900 Pls
972 2900 Pls
972 2900 Pls
972 2900 Pls
972 2900 Pls
972 2900 Pls
972 2900 Pls
972 2899 Pls
972 2899 Pls
972 2899 Pls
972 2899 Pls
972 2899 Pls
972 2898 Pls
972 2898 Pls
972 2898 Pls
972 2898 Pls
972 2898 Pls
972 2898 Pls
972 2898 Pls
972 2898 Pls
973 2897 Pls
973 2897 Pls
973 2897 Pls
973 2896 Pls
973 2896 Pls
973 2896 Pls
973 2896 Pls
973 2896 Pls
973 2896 Pls
973 2895 Pls
973 2895 Pls
973 2895 Pls
973 2895 Pls
973 2895 Pls
973 2895 Pls
973 2895 Pls
973 2895 Pls
973 2894 Pls
973 2894 Pls
973 2894 Pls
973 2894 Pls
973 2894 Pls
973 2893 Pls
973 2893 Pls
973 2893 Pls
973 2893 Pls
973 2893 Pls
973 2893 Pls
973 2893 Pls
973 2892 Pls
973 2892 Pls
973 2892 Pls
973 2892 Pls
973 2892 Pls
973 2892 Pls
973 2891 Pls
973 2891 Pls
973 2891 Pls
973 2891 Pls
973 2891 Pls
973 2891 Pls
973 2891 Pls
973 2890 Pls
973 2890 Pls
973 2890 Pls
973 2890 Pls
973 2890 Pls
973 2890 Pls
973 2890 Pls
973 2889 Pls
973 2889 Pls
973 2889 Pls
973 2889 Pls
973 2889 Pls
973 2889 Pls
973 2889 Pls
973 2888 Pls
973 2888 Pls
973 2888 Pls
973 2888 Pls
973 2888 Pls
973 2888 Pls
973 2888 Pls
973 2887 Pls
973 2887 Pls
973 2887 Pls
973 2887 Pls
973 2887 Pls
973 2887 Pls
973 2886 Pls
973 2886 Pls
973 2886 Pls
973 2886 Pls
973 2886 Pls
973 2886 Pls
973 2886 Pls
973 2885 Pls
973 2885 Pls
973 2885 Pls
973 2885 Pls
973 2885 Pls
973 2885 Pls
973 2885 Pls
973 2884 Pls
973 2884 Pls
973 2884 Pls
973 2884 Pls
973 2884 Pls
973 2884 Pls
973 2884 Pls
973 2883 Pls
973 2883 Pls
973 2883 Pls
973 2883 Pls
973 2883 Pls
973 2883 Pls
973 2882 Pls
973 2882 Pls
973 2882 Pls
973 2882 Pls
973 2882 Pls
973 2881 Pls
973 2881 Pls
973 2881 Pls
973 2881 Pls
973 2881 Pls
973 2881 Pls
973 2880 Pls
973 2880 Pls
973 2880 Pls
973 2880 Pls
973 2880 Pls
973 2880 Pls
973 2880 Pls
973 2879 Pls
973 2879 Pls
973 2879 Pls
973 2879 Pls
973 2879 Pls
973 2879 Pls
973 2879 Pls
973 2878 Pls
973 2878 Pls
973 2878 Pls
973 2878 Pls
973 2878 Pls
973 2878 Pls
973 2877 Pls
973 2877 Pls
973 2877 Pls
973 2877 Pls
973 2877 Pls
973 2876 Pls
973 2876 Pls
973 2876 Pls
973 2876 Pls
973 2876 Pls
973 2876 Pls
973 2875 Pls
973 2875 Pls
973 2875 Pls
974 2875 Pls
974 2875 Pls
974 2874 Pls
974 2874 Pls
974 2874 Pls
974 2874 Pls
974 2874 Pls
974 2873 Pls
974 2873 Pls
974 2873 Pls
974 2873 Pls
974 2872 Pls
974 2872 Pls
974 2872 Pls
974 2872 Pls
974 2872 Pls
974 2872 Pls
974 2871 Pls
974 2871 Pls
974 2871 Pls
974 2871 Pls
974 2871 Pls
974 2871 Pls
974 2871 Pls
974 2870 Pls
974 2870 Pls
974 2870 Pls
974 2870 Pls
974 2870 Pls
974 2870 Pls
974 2869 Pls
974 2869 Pls
974 2869 Pls
974 2869 Pls
974 2869 Pls
974 2869 Pls
974 2868 Pls
974 2868 Pls
974 2868 Pls
974 2868 Pls
974 2868 Pls
974 2868 Pls
974 2867 Pls
974 2867 Pls
974 2867 Pls
974 2867 Pls
974 2866 Pls
974 2866 Pls
974 2866 Pls
974 2866 Pls
974 2866 Pls
974 2866 Pls
974 2865 Pls
974 2865 Pls
974 2865 Pls
974 2865 Pls
974 2865 Pls
974 2864 Pls
974 2864 Pls
974 2864 Pls
974 2864 Pls
974 2864 Pls
974 2864 Pls
974 2864 Pls
974 2863 Pls
974 2863 Pls
974 2863 Pls
974 2863 Pls
974 2863 Pls
974 2862 Pls
974 2862 Pls
974 2862 Pls
974 2862 Pls
974 2862 Pls
974 2861 Pls
974 2861 Pls
974 2861 Pls
974 2861 Pls
974 2861 Pls
974 2860 Pls
974 2860 Pls
974 2860 Pls
974 2860 Pls
974 2860 Pls
974 2859 Pls
974 2859 Pls
974 2859 Pls
974 2859 Pls
974 2859 Pls
974 2859 Pls
974 2858 Pls
974 2858 Pls
974 2858 Pls
974 2858 Pls
974 2858 Pls
974 2858 Pls
974 2857 Pls
974 2857 Pls
974 2857 Pls
974 2857 Pls
974 2857 Pls
974 2856 Pls
974 2856 Pls
974 2856 Pls
974 2856 Pls
974 2855 Pls
974 2855 Pls
974 2855 Pls
974 2855 Pls
974 2855 Pls
974 2855 Pls
974 2854 Pls
974 2854 Pls
974 2854 Pls
974 2854 Pls
974 2854 Pls
975 2853 Pls
975 2853 Pls
975 2853 Pls
975 2853 Pls
975 2853 Pls
975 2852 Pls
975 2852 Pls
975 2852 Pls
975 2852 Pls
975 2852 Pls
975 2851 Pls
975 2851 Pls
975 2851 Pls
975 2851 Pls
975 2851 Pls
975 2851 Pls
975 2850 Pls
975 2850 Pls
975 2850 Pls
975 2850 Pls
975 2850 Pls
975 2850 Pls
975 2849 Pls
975 2849 Pls
975 2849 Pls
975 2849 Pls
975 2849 Pls
975 2848 Pls
975 2848 Pls
975 2848 Pls
975 2848 Pls
975 2847 Pls
975 2847 Pls
975 2846 Pls
975 2846 Pls
975 2846 Pls
975 2846 Pls
975 2846 Pls
975 2846 Pls
975 2845 Pls
975 2845 Pls
975 2845 Pls
975 2845 Pls
975 2845 Pls
975 2844 Pls
975 2844 Pls
975 2844 Pls
975 2844 Pls
975 2844 Pls
975 2844 Pls
975 2843 Pls
975 2843 Pls
975 2843 Pls
975 2843 Pls
975 2843 Pls
975 2842 Pls
975 2842 Pls
975 2842 Pls
975 2842 Pls
975 2842 Pls
975 2841 Pls
975 2841 Pls
975 2841 Pls
975 2841 Pls
975 2841 Pls
975 2840 Pls
975 2840 Pls
975 2840 Pls
975 2840 Pls
975 2840 Pls
975 2840 Pls
975 2839 Pls
975 2839 Pls
975 2839 Pls
975 2839 Pls
975 2839 Pls
975 2839 Pls
975 2838 Pls
975 2838 Pls
975 2838 Pls
975 2838 Pls
975 2838 Pls
975 2838 Pls
975 2837 Pls
975 2837 Pls
975 2837 Pls
975 2837 Pls
975 2837 Pls
975 2837 Pls
975 2836 Pls
975 2836 Pls
975 2836 Pls
975 2836 Pls
975 2836 Pls
975 2835 Pls
975 2835 Pls
975 2835 Pls
975 2835 Pls
975 2835 Pls
975 2835 Pls
975 2834 Pls
976 2834 Pls
976 2834 Pls
976 2834 Pls
976 2834 Pls
976 2834 Pls
976 2833 Pls
976 2833 Pls
976 2833 Pls
976 2833 Pls
976 2832 Pls
976 2832 Pls
976 2832 Pls
976 2832 Pls
976 2831 Pls
976 2831 Pls
976 2831 Pls
976 2831 Pls
976 2831 Pls
976 2830 Pls
976 2830 Pls
976 2830 Pls
976 2830 Pls
976 2830 Pls
976 2829 Pls
976 2829 Pls
976 2829 Pls
976 2829 Pls
976 2829 Pls
976 2829 Pls
976 2828 Pls
976 2828 Pls
976 2828 Pls
976 2828 Pls
976 2827 Pls
976 2827 Pls
976 2827 Pls
976 2827 Pls
976 2827 Pls
976 2827 Pls
976 2826 Pls
976 2826 Pls
976 2826 Pls
976 2826 Pls
976 2826 Pls
976 2826 Pls
976 2825 Pls
976 2825 Pls
976 2825 Pls
976 2824 Pls
976 2824 Pls
976 2824 Pls
976 2824 Pls
976 2824 Pls
976 2824 Pls
976 2823 Pls
976 2823 Pls
976 2823 Pls
976 2823 Pls
976 2823 Pls
976 2822 Pls
976 2822 Pls
976 2822 Pls
976 2822 Pls
976 2822 Pls
976 2821 Pls
976 2821 Pls
976 2821 Pls
976 2821 Pls
976 2821 Pls
976 2821 Pls
976 2820 Pls
976 2820 Pls
976 2820 Pls
976 2820 Pls
976 2820 Pls
976 2819 Pls
976 2819 Pls
976 2819 Pls
976 2819 Pls
976 2819 Pls
976 2819 Pls
976 2818 Pls
977 2818 Pls
977 2818 Pls
977 2818 Pls
977 2818 Pls
977 2817 Pls
977 2817 Pls
977 2817 Pls
977 2817 Pls
977 2817 Pls
977 2817 Pls
977 2816 Pls
977 2816 Pls
977 2816 Pls
977 2816 Pls
977 2816 Pls
977 2815 Pls
977 2815 Pls
977 2815 Pls
977 2815 Pls
977 2815 Pls
977 2815 Pls
977 2814 Pls
977 2814 Pls
977 2814 Pls
977 2814 Pls
977 2814 Pls
977 2813 Pls
977 2813 Pls
977 2813 Pls
977 2813 Pls
977 2813 Pls
977 2813 Pls
977 2812 Pls
977 2812 Pls
977 2812 Pls
977 2811 Pls
977 2811 Pls
977 2811 Pls
977 2811 Pls
977 2811 Pls
977 2810 Pls
977 2810 Pls
977 2810 Pls
977 2810 Pls
977 2810 Pls
977 2809 Pls
977 2809 Pls
977 2809 Pls
977 2809 Pls
977 2808 Pls
977 2808 Pls
977 2808 Pls
977 2808 Pls
977 2808 Pls
977 2808 Pls
977 2807 Pls
977 2807 Pls
977 2807 Pls
977 2807 Pls
977 2807 Pls
977 2806 Pls
977 2806 Pls
977 2806 Pls
977 2806 Pls
977 2806 Pls
977 2805 Pls
977 2805 Pls
977 2805 Pls
977 2805 Pls
978 2805 Pls
978 2804 Pls
978 2804 Pls
978 2804 Pls
978 2804 Pls
978 2804 Pls
978 2803 Pls
978 2803 Pls
978 2803 Pls
978 2803 Pls
978 2803 Pls
978 2802 Pls
978 2802 Pls
978 2802 Pls
978 2802 Pls
978 2802 Pls
978 2801 Pls
978 2801 Pls
978 2801 Pls
978 2801 Pls
978 2801 Pls
978 2801 Pls
978 2800 Pls
978 2800 Pls
978 2800 Pls
978 2800 Pls
978 2800 Pls
978 2799 Pls
978 2799 Pls
978 2799 Pls
978 2799 Pls
978 2798 Pls
978 2798 Pls
978 2798 Pls
978 2798 Pls
978 2798 Pls
978 2797 Pls
978 2797 Pls
978 2797 Pls
978 2797 Pls
978 2797 Pls
978 2796 Pls
978 2796 Pls
978 2796 Pls
978 2796 Pls
978 2796 Pls
978 2795 Pls
978 2795 Pls
978 2795 Pls
978 2795 Pls
978 2795 Pls
978 2794 Pls
978 2794 Pls
978 2794 Pls
978 2794 Pls
978 2794 Pls
978 2794 Pls
978 2793 Pls
978 2793 Pls
978 2793 Pls
978 2793 Pls
978 2793 Pls
979 2792 Pls
979 2792 Pls
979 2792 Pls
979 2792 Pls
979 2791 Pls
979 2791 Pls
979 2791 Pls
979 2791 Pls
979 2790 Pls
979 2790 Pls
979 2790 Pls
979 2790 Pls
979 2789 Pls
979 2789 Pls
979 2789 Pls
979 2789 Pls
979 2789 Pls
979 2788 Pls
979 2788 Pls
979 2788 Pls
979 2788 Pls
979 2788 Pls
979 2787 Pls
979 2787 Pls
979 2787 Pls
979 2787 Pls
979 2786 Pls
979 2786 Pls
979 2786 Pls
979 2786 Pls
979 2785 Pls
979 2785 Pls
979 2785 Pls
979 2785 Pls
979 2784 Pls
979 2784 Pls
979 2784 Pls
979 2784 Pls
979 2784 Pls
979 2783 Pls
979 2783 Pls
979 2783 Pls
979 2783 Pls
979 2782 Pls
979 2782 Pls
979 2782 Pls
979 2782 Pls
979 2782 Pls
979 2781 Pls
979 2781 Pls
979 2781 Pls
979 2781 Pls
979 2781 Pls
979 2780 Pls
979 2780 Pls
979 2780 Pls
979 2780 Pls
979 2780 Pls
979 2779 Pls
979 2779 Pls
979 2779 Pls
979 2779 Pls
979 2779 Pls
979 2778 Pls
979 2778 Pls
979 2778 Pls
979 2778 Pls
979 2777 Pls
979 2777 Pls
979 2777 Pls
979 2777 Pls
979 2777 Pls
979 2776 Pls
980 2776 Pls
980 2776 Pls
980 2776 Pls
980 2776 Pls
980 2775 Pls
980 2775 Pls
980 2775 Pls
980 2775 Pls
980 2775 Pls
980 2774 Pls
980 2774 Pls
980 2774 Pls
980 2774 Pls
980 2773 Pls
980 2773 Pls
980 2773 Pls
980 2772 Pls
980 2772 Pls
980 2772 Pls
980 2772 Pls
980 2771 Pls
980 2771 Pls
980 2771 Pls
980 2771 Pls
980 2771 Pls
980 2770 Pls
980 2770 Pls
980 2770 Pls
980 2769 Pls
980 2769 Pls
980 2769 Pls
980 2769 Pls
980 2768 Pls
980 2768 Pls
980 2768 Pls
980 2768 Pls
980 2768 Pls
980 2767 Pls
980 2767 Pls
980 2767 Pls
980 2767 Pls
980 2766 Pls
980 2766 Pls
980 2766 Pls
980 2766 Pls
980 2765 Pls
980 2765 Pls
980 2765 Pls
980 2765 Pls
980 2764 Pls
980 2764 Pls
980 2764 Pls
981 2764 Pls
981 2763 Pls
981 2763 Pls
981 2763 Pls
981 2763 Pls
981 2763 Pls
981 2762 Pls
981 2762 Pls
981 2762 Pls
981 2762 Pls
981 2761 Pls
981 2761 Pls
981 2761 Pls
981 2761 Pls
981 2761 Pls
981 2760 Pls
981 2760 Pls
981 2760 Pls
981 2760 Pls
981 2759 Pls
981 2759 Pls
981 2759 Pls
981 2759 Pls
981 2759 Pls
981 2758 Pls
981 2758 Pls
981 2758 Pls
981 2758 Pls
981 2757 Pls
981 2757 Pls
981 2757 Pls
981 2757 Pls
981 2757 Pls
981 2756 Pls
981 2756 Pls
981 2756 Pls
981 2756 Pls
981 2755 Pls
981 2755 Pls
981 2755 Pls
981 2754 Pls
981 2754 Pls
981 2754 Pls
981 2754 Pls
981 2754 Pls
981 2753 Pls
981 2753 Pls
981 2753 Pls
981 2753 Pls
981 2752 Pls
982 2752 Pls
982 2752 Pls
982 2752 Pls
982 2752 Pls
982 2751 Pls
982 2751 Pls
982 2751 Pls
982 2751 Pls
982 2750 Pls
982 2750 Pls
982 2750 Pls
982 2749 Pls
982 2749 Pls
982 2749 Pls
982 2749 Pls
982 2749 Pls
982 2748 Pls
982 2748 Pls
982 2748 Pls
982 2748 Pls
982 2747 Pls
982 2747 Pls
982 2747 Pls
982 2747 Pls
982 2746 Pls
982 2746 Pls
982 2746 Pls
982 2746 Pls
982 2746 Pls
982 2745 Pls
982 2745 Pls
982 2745 Pls
982 2744 Pls
982 2744 Pls
982 2743 Pls
982 2743 Pls
982 2743 Pls
982 2742 Pls
982 2742 Pls
982 2742 Pls
982 2742 Pls
983 2742 Pls
983 2741 Pls
983 2741 Pls
983 2741 Pls
983 2741 Pls
983 2740 Pls
983 2740 Pls
983 2740 Pls
983 2740 Pls
983 2739 Pls
983 2739 Pls
983 2739 Pls
983 2739 Pls
983 2738 Pls
983 2738 Pls
983 2738 Pls
983 2738 Pls
983 2737 Pls
983 2737 Pls
983 2737 Pls
983 2737 Pls
983 2737 Pls
983 2736 Pls
983 2736 Pls
983 2736 Pls
983 2736 Pls
983 2735 Pls
983 2735 Pls
983 2735 Pls
983 2734 Pls
983 2734 Pls
983 2734 Pls
983 2734 Pls
983 2733 Pls
983 2733 Pls
983 2733 Pls
983 2733 Pls
983 2732 Pls
983 2732 Pls
983 2732 Pls
984 2732 Pls
984 2731 Pls
984 2731 Pls
984 2731 Pls
984 2730 Pls
984 2730 Pls
984 2730 Pls
984 2730 Pls
984 2729 Pls
984 2729 Pls
984 2729 Pls
984 2729 Pls
984 2728 Pls
984 2728 Pls
984 2728 Pls
984 2728 Pls
984 2727 Pls
984 2727 Pls
984 2727 Pls
984 2727 Pls
984 2726 Pls
984 2726 Pls
984 2726 Pls
984 2726 Pls
984 2725 Pls
984 2725 Pls
984 2725 Pls
984 2725 Pls
984 2724 Pls
984 2724 Pls
984 2724 Pls
984 2724 Pls
984 2723 Pls
984 2723 Pls
984 2723 Pls
984 2722 Pls
985 2722 Pls
985 2722 Pls
985 2722 Pls
985 2721 Pls
985 2721 Pls
985 2721 Pls
985 2721 Pls
985 2720 Pls
985 2720 Pls
985 2720 Pls
985 2720 Pls
985 2719 Pls
985 2719 Pls
985 2719 Pls
985 2719 Pls
985 2718 Pls
985 2718 Pls
985 2718 Pls
985 2718 Pls
985 2717 Pls
985 2717 Pls
985 2717 Pls
985 2717 Pls
985 2716 Pls
985 2716 Pls
985 2715 Pls
985 2715 Pls
985 2715 Pls
985 2715 Pls
985 2714 Pls
985 2714 Pls
985 2714 Pls
985 2713 Pls
985 2713 Pls
985 2713 Pls
985 2713 Pls
985 2712 Pls
985 2712 Pls
985 2712 Pls
986 2712 Pls
986 2711 Pls
986 2711 Pls
986 2711 Pls
986 2711 Pls
986 2710 Pls
986 2710 Pls
986 2710 Pls
986 2710 Pls
986 2709 Pls
986 2709 Pls
986 2709 Pls
986 2708 Pls
986 2708 Pls
986 2708 Pls
986 2708 Pls
986 2707 Pls
986 2707 Pls
986 2707 Pls
986 2707 Pls
986 2706 Pls
986 2706 Pls
986 2706 Pls
986 2706 Pls
986 2705 Pls
986 2705 Pls
986 2705 Pls
986 2704 Pls
986 2704 Pls
986 2704 Pls
986 2703 Pls
986 2703 Pls
986 2702 Pls
987 2702 Pls
987 2702 Pls
987 2701 Pls
987 2701 Pls
987 2701 Pls
987 2701 Pls
987 2700 Pls
987 2700 Pls
987 2700 Pls
987 2700 Pls
987 2699 Pls
987 2699 Pls
987 2699 Pls
987 2698 Pls
987 2698 Pls
987 2698 Pls
987 2698 Pls
987 2697 Pls
987 2697 Pls
987 2697 Pls
987 2697 Pls
987 2696 Pls
987 2696 Pls
987 2696 Pls
987 2695 Pls
987 2695 Pls
987 2695 Pls
987 2695 Pls
987 2694 Pls
987 2694 Pls
987 2694 Pls
987 2693 Pls
987 2693 Pls
987 2693 Pls
987 2693 Pls
987 2692 Pls
987 2692 Pls
988 2692 Pls
988 2691 Pls
988 2691 Pls
988 2691 Pls
988 2691 Pls
988 2690 Pls
988 2690 Pls
988 2690 Pls
988 2690 Pls
988 2689 Pls
988 2689 Pls
988 2689 Pls
988 2688 Pls
988 2688 Pls
988 2688 Pls
988 2688 Pls
988 2687 Pls
988 2687 Pls
988 2687 Pls
988 2686 Pls
988 2686 Pls
988 2686 Pls
988 2686 Pls
988 2685 Pls
988 2685 Pls
988 2685 Pls
988 2684 Pls
988 2684 Pls
988 2684 Pls
988 2683 Pls
988 2683 Pls
988 2683 Pls
988 2683 Pls
988 2682 Pls
988 2682 Pls
988 2682 Pls
988 2681 Pls
988 2681 Pls
988 2681 Pls
988 2681 Pls
988 2680 Pls
988 2680 Pls
989 2679 Pls
989 2679 Pls
989 2679 Pls
989 2678 Pls
989 2678 Pls
989 2678 Pls
989 2677 Pls
989 2677 Pls
989 2677 Pls
989 2676 Pls
989 2676 Pls
989 2676 Pls
989 2676 Pls
989 2675 Pls
989 2675 Pls
989 2675 Pls
989 2674 Pls
989 2674 Pls
989 2674 Pls
989 2673 Pls
989 2673 Pls
989 2673 Pls
989 2672 Pls
989 2672 Pls
989 2672 Pls
989 2671 Pls
989 2671 Pls
989 2671 Pls
989 2670 Pls
989 2670 Pls
989 2670 Pls
989 2670 Pls
989 2669 Pls
989 2669 Pls
989 2669 Pls
989 2668 Pls
989 2668 Pls
989 2668 Pls
989 2667 Pls
989 2667 Pls
989 2667 Pls
989 2666 Pls
989 2666 Pls
990 2666 Pls
990 2666 Pls
990 2665 Pls
990 2665 Pls
990 2665 Pls
990 2664 Pls
990 2664 Pls
990 2664 Pls
990 2663 Pls
990 2663 Pls
990 2663 Pls
990 2662 Pls
990 2662 Pls
990 2662 Pls
990 2661 Pls
990 2661 Pls
990 2661 Pls
990 2661 Pls
990 2660 Pls
990 2660 Pls
990 2659 Pls
990 2659 Pls
990 2659 Pls
990 2658 Pls
990 2658 Pls
990 2658 Pls
990 2657 Pls
990 2657 Pls
990 2657 Pls
990 2656 Pls
991 2656 Pls
991 2656 Pls
991 2655 Pls
991 2655 Pls
991 2655 Pls
991 2654 Pls
991 2654 Pls
991 2654 Pls
991 2654 Pls
991 2653 Pls
991 2653 Pls
991 2653 Pls
991 2652 Pls
991 2652 Pls
991 2652 Pls
991 2651 Pls
991 2651 Pls
991 2651 Pls
991 2650 Pls
991 2650 Pls
991 2650 Pls
991 2649 Pls
991 2649 Pls
991 2649 Pls
991 2648 Pls
991 2648 Pls
991 2648 Pls
992 2647 Pls
992 2647 Pls
992 2647 Pls
992 2646 Pls
992 2646 Pls
992 2646 Pls
992 2645 Pls
992 2645 Pls
992 2645 Pls
992 2644 Pls
992 2644 Pls
992 2644 Pls
992 2643 Pls
992 2643 Pls
992 2643 Pls
992 2642 Pls
992 2642 Pls
992 2642 Pls
992 2641 Pls
992 2641 Pls
992 2641 Pls
992 2640 Pls
992 2640 Pls
992 2640 Pls
993 2639 Pls
993 2639 Pls
993 2639 Pls
993 2638 Pls
993 2638 Pls
993 2638 Pls
993 2637 Pls
993 2637 Pls
993 2637 Pls
993 2636 Pls
994 2636 Pls
994 2636 Pls
994 2635 Pls
994 2635 Pls
994 2635 Pls
994 2634 Pls
994 2634 Pls
994 2634 Pls
994 2633 Pls
994 2633 Pls
994 2632 Pls
994 2632 Pls
994 2632 Pls
994 2631 Pls
994 2631 Pls
994 2631 Pls
994 2630 Pls
994 2630 Pls
994 2630 Pls
994 2629 Pls
994 2629 Pls
994 2629 Pls
994 2628 Pls
995 2628 Pls
995 2628 Pls
995 2627 Pls
995 2627 Pls
995 2627 Pls
995 2626 Pls
995 2626 Pls
995 2625 Pls
995 2625 Pls
995 2625 Pls
995 2624 Pls
995 2624 Pls
995 2624 Pls
995 2623 Pls
995 2623 Pls
995 2623 Pls
995 2622 Pls
995 2622 Pls
995 2622 Pls
995 2621 Pls
995 2621 Pls
995 2620 Pls
995 2620 Pls
996 2620 Pls
996 2619 Pls
996 2619 Pls
996 2619 Pls
996 2618 Pls
996 2618 Pls
996 2618 Pls
996 2617 Pls
996 2617 Pls
996 2616 Pls
996 2616 Pls
996 2616 Pls
996 2615 Pls
996 2615 Pls
996 2615 Pls
996 2614 Pls
996 2614 Pls
996 2613 Pls
996 2613 Pls
996 2613 Pls
996 2612 Pls
997 2612 Pls
997 2612 Pls
997 2611 Pls
997 2611 Pls
997 2610 Pls
997 2610 Pls
997 2610 Pls
997 2609 Pls
997 2609 Pls
997 2609 Pls
997 2608 Pls
997 2608 Pls
997 2607 Pls
998 2607 Pls
998 2607 Pls
998 2606 Pls
998 2606 Pls
998 2606 Pls
998 2605 Pls
998 2605 Pls
998 2604 Pls
998 2604 Pls
998 2604 Pls
998 2603 Pls
998 2603 Pls
998 2603 Pls
998 2602 Pls
998 2602 Pls
998 2601 Pls
998 2601 Pls
998 2601 Pls
998 2600 Pls
998 2600 Pls
998 2599 Pls
998 2599 Pls
998 2599 Pls
999 2598 Pls
999 2598 Pls
999 2597 Pls
999 2597 Pls
999 2597 Pls
999 2596 Pls
999 2596 Pls
999 2595 Pls
999 2595 Pls
999 2595 Pls
999 2594 Pls
999 2594 Pls
999 2593 Pls
999 2593 Pls
999 2593 Pls
999 2592 Pls
999 2592 Pls
999 2592 Pls
999 2591 Pls
999 2591 Pls
999 2590 Pls
999 2590 Pls
999 2589 Pls
999 2589 Pls
1000 2589 Pls
1000 2588 Pls
1000 2588 Pls
1000 2587 Pls
1000 2587 Pls
1000 2587 Pls
1000 2586 Pls
1000 2586 Pls
1000 2585 Pls
1000 2585 Pls
1000 2585 Pls
1000 2584 Pls
1000 2584 Pls
1000 2583 Pls
1000 2583 Pls
1000 2583 Pls
1000 2582 Pls
1000 2582 Pls
1000 2581 Pls
1000 2581 Pls
1001 2580 Pls
1001 2580 Pls
1001 2580 Pls
1001 2579 Pls
1001 2579 Pls
1001 2578 Pls
1001 2578 Pls
1001 2578 Pls
1001 2577 Pls
1001 2577 Pls
1001 2576 Pls
1001 2576 Pls
1002 2575 Pls
1002 2575 Pls
1002 2575 Pls
1002 2574 Pls
1002 2574 Pls
1002 2573 Pls
1002 2573 Pls
1002 2572 Pls
1002 2572 Pls
1002 2572 Pls
1002 2571 Pls
1003 2571 Pls
1003 2570 Pls
1003 2570 Pls
1003 2569 Pls
1003 2569 Pls
1003 2569 Pls
1003 2568 Pls
1003 2568 Pls
1003 2567 Pls
1003 2567 Pls
1003 2566 Pls
1003 2566 Pls
1003 2566 Pls
1003 2565 Pls
1003 2565 Pls
1003 2564 Pls
1004 2564 Pls
1004 2563 Pls
1004 2562 Pls
1004 2562 Pls
1004 2562 Pls
1004 2561 Pls
1004 2561 Pls
1004 2560 Pls
1004 2560 Pls
1004 2559 Pls
1004 2559 Pls
1005 2558 Pls
1005 2558 Pls
1005 2558 Pls
1005 2557 Pls
1005 2557 Pls
1005 2556 Pls
1005 2556 Pls
1005 2555 Pls
1005 2554 Pls
1005 2554 Pls
1005 2553 Pls
1005 2553 Pls
1006 2552 Pls
1006 2552 Pls
1006 2552 Pls
1006 2551 Pls
1006 2551 Pls
1006 2550 Pls
1006 2550 Pls
1006 2549 Pls
1006 2549 Pls
1006 2548 Pls
1006 2548 Pls
1006 2547 Pls
1006 2547 Pls
1006 2546 Pls
1006 2546 Pls
1006 2546 Pls
1006 2545 Pls
1006 2545 Pls
1006 2544 Pls
1006 2544 Pls
1006 2543 Pls
1006 2543 Pls
1006 2542 Pls
1006 2542 Pls
1006 2541 Pls
1006 2541 Pls
1006 2540 Pls
1007 2540 Pls
1007 2539 Pls
1007 2539 Pls
1007 2538 Pls
1007 2537 Pls
1007 2537 Pls
1007 2536 Pls
1007 2536 Pls
1007 2535 Pls
1007 2535 Pls
1007 2534 Pls
1007 2534 Pls
1007 2533 Pls
1007 2533 Pls
1007 2533 Pls
1007 2532 Pls
1007 2532 Pls
1007 2531 Pls
1007 2531 Pls
1007 2530 Pls
1007 2530 Pls
1007 2529 Pls
1007 2529 Pls
1007 2528 Pls
1007 2528 Pls
1007 2527 Pls
1007 2527 Pls
1007 2526 Pls
1007 2526 Pls
1007 2525 Pls
1007 2525 Pls
1007 2524 Pls
1007 2524 Pls
1007 2523 Pls
1007 2522 Pls
1007 2522 Pls
1007 2521 Pls
1007 2521 Pls
1007 2520 Pls
1007 2520 Pls
1007 2519 Pls
1007 2519 Pls
1007 2518 Pls
1007 2518 Pls
1007 2517 Pls
1007 2517 Pls
1007 2516 Pls
1007 2516 Pls
1007 2515 Pls
1007 2515 Pls
1007 2514 Pls
1007 2514 Pls
1007 2513 Pls
1007 2512 Pls
1007 2512 Pls
1007 2511 Pls
1007 2510 Pls
1007 2510 Pls
1007 2509 Pls
1007 2509 Pls
1007 2508 Pls
1007 2508 Pls
1007 2507 Pls
1007 2507 Pls
1007 2506 Pls
1008 2506 Pls
1008 2505 Pls
1008 2505 Pls
1008 2504 Pls
1008 2503 Pls
1008 2502 Pls
1008 2502 Pls
1008 2501 Pls
1008 2501 Pls
1008 2500 Pls
1008 2500 Pls
1008 2499 Pls
1008 2499 Pls
1008 2498 Pls
1008 2497 Pls
1008 2497 Pls
1008 2496 Pls
1008 2496 Pls
1008 2495 Pls
1008 2495 Pls
1008 2494 Pls
1008 2493 Pls
1008 2493 Pls
1008 2492 Pls
1008 2492 Pls
1008 2491 Pls
1008 2491 Pls
1008 2490 Pls
1008 2490 Pls
1008 2489 Pls
1008 2488 Pls
1008 2488 Pls
1008 2487 Pls
1008 2487 Pls
1008 2486 Pls
1008 2485 Pls
1008 2485 Pls
1008 2484 Pls
1008 2483 Pls
1008 2483 Pls
1008 2482 Pls
1008 2481 Pls
1008 2481 Pls
1008 2480 Pls
1008 2480 Pls
1008 2479 Pls
1008 2478 Pls
1008 2478 Pls
1008 2477 Pls
1009 2477 Pls
1009 2476 Pls
1009 2475 Pls
1009 2475 Pls
1009 2474 Pls
1009 2474 Pls
1009 2473 Pls
1009 2472 Pls
1009 2472 Pls
1009 2471 Pls
1009 2471 Pls
1009 2470 Pls
1009 2469 Pls
1009 2469 Pls
1009 2468 Pls
1009 2467 Pls
1009 2467 Pls
1009 2466 Pls
1009 2466 Pls
1009 2465 Pls
1009 2464 Pls
1009 2464 Pls
1009 2463 Pls
1009 2462 Pls
1009 2462 Pls
1009 2461 Pls
1009 2461 Pls
1009 2460 Pls
1009 2458 Pls
1009 2457 Pls
1009 2456 Pls
1009 2455 Pls
1009 2455 Pls
1009 2454 Pls
1009 2454 Pls
1009 2453 Pls
1009 2452 Pls
1009 2452 Pls
1009 2451 Pls
1009 2450 Pls
1009 2450 Pls
1009 2449 Pls
1010 2448 Pls
1010 2448 Pls
1010 2447 Pls
1010 2446 Pls
1010 2446 Pls
1010 2445 Pls
1010 2444 Pls
1010 2444 Pls
1010 2443 Pls
1010 2442 Pls
1010 2442 Pls
1010 2441 Pls
1010 2440 Pls
1011 2440 Pls
1011 2439 Pls
1011 2438 Pls
1011 2437 Pls
1011 2437 Pls
1011 2436 Pls
1011 2435 Pls
1011 2435 Pls
1011 2434 Pls
1011 2433 Pls
1011 2433 Pls
1012 2432 Pls
1012 2431 Pls
1012 2430 Pls
1012 2430 Pls
1012 2429 Pls
1012 2428 Pls
1012 2428 Pls
1012 2427 Pls
1012 2426 Pls
1012 2426 Pls
1012 2425 Pls
1012 2424 Pls
1012 2423 Pls
1012 2423 Pls
1013 2422 Pls
1013 2421 Pls
1013 2420 Pls
1013 2420 Pls
1013 2419 Pls
1013 2418 Pls
1013 2418 Pls
1013 2417 Pls
1013 2416 Pls
1013 2415 Pls
1013 2415 Pls
1014 2414 Pls
1014 2413 Pls
1014 2412 Pls
1014 2412 Pls
1014 2411 Pls
1014 2410 Pls
1014 2409 Pls
1014 2409 Pls
1014 2408 Pls
1014 2407 Pls
1015 2406 Pls
1015 2405 Pls
1015 2405 Pls
1015 2404 Pls
1015 2403 Pls
1016 2402 Pls
1016 2402 Pls
1016 2401 Pls
1016 2400 Pls
1016 2399 Pls
1016 2398 Pls
1016 2398 Pls
1016 2397 Pls
1016 2396 Pls
1017 2395 Pls
1017 2394 Pls
1017 2394 Pls
1017 2393 Pls
1018 2392 Pls
1018 2391 Pls
1018 2390 Pls
1018 2390 Pls
1018 2389 Pls
1018 2388 Pls
1018 2387 Pls
1018 2386 Pls
1018 2386 Pls
1018 2385 Pls
1019 2384 Pls
1019 2383 Pls
1019 2382 Pls
1019 2381 Pls
1020 2381 Pls
1020 2380 Pls
1020 2379 Pls
1020 2378 Pls
1020 2377 Pls
1020 2376 Pls
1020 2375 Pls
1020 2375 Pls
1020 2374 Pls
1020 2373 Pls
1021 2372 Pls
1022 2371 Pls
1022 2370 Pls
1022 2369 Pls
1023 2369 Pls
1023 2368 Pls
1023 2367 Pls
1023 2366 Pls
1024 2365 Pls
1024 2364 Pls
1024 2363 Pls
1024 2362 Pls
1024 2361 Pls
1024 2361 Pls
1024 2360 Pls
1024 2359 Pls
1025 2358 Pls
1025 2357 Pls
1025 2356 Pls
1025 2355 Pls
1026 2353 Pls
1026 2352 Pls
1026 2351 Pls
1026 2350 Pls
1026 2349 Pls
1026 2349 Pls
1027 2348 Pls
1027 2347 Pls
1027 2346 Pls
1028 2345 Pls
1028 2344 Pls
1028 2343 Pls
1028 2342 Pls
1029 2341 Pls
1029 2340 Pls
1029 2339 Pls
1029 2338 Pls
1029 2337 Pls
1029 2336 Pls
1029 2335 Pls
1029 2334 Pls
1030 2333 Pls
1030 2332 Pls
1031 2331 Pls
1031 2330 Pls
1031 2329 Pls
1031 2328 Pls
1032 2327 Pls
1032 2326 Pls
1032 2325 Pls
1033 2324 Pls
1033 2323 Pls
1034 2322 Pls
1034 2321 Pls
1034 2320 Pls
1035 2319 Pls
1035 2318 Pls
1035 2317 Pls
1036 2316 Pls
1036 2315 Pls
1036 2314 Pls
1036 2313 Pls
1036 2311 Pls
1037 2310 Pls
1037 2309 Pls
1037 2308 Pls
1037 2307 Pls
1038 2306 Pls
1038 2305 Pls
1038 2304 Pls
1039 2303 Pls
1039 2302 Pls
1039 2301 Pls
1040 2299 Pls
1040 2298 Pls
1040 2297 Pls
1040 2296 Pls
1040 2295 Pls
1041 2294 Pls
1041 2293 Pls
1041 2291 Pls
1041 2290 Pls
1042 2289 Pls
1042 2288 Pls
1042 2287 Pls
1042 2286 Pls
1042 2285 Pls
1043 2283 Pls
1043 2282 Pls
1043 2281 Pls
1043 2280 Pls
1043 2279 Pls
1043 2277 Pls
1044 2276 Pls
1044 2275 Pls
1044 2274 Pls
1045 2273 Pls
1045 2271 Pls
1045 2270 Pls
1046 2269 Pls
1047 2268 Pls
1047 2266 Pls
1047 2265 Pls
1047 2264 Pls
1047 2263 Pls
1048 2261 Pls
1049 2260 Pls
1049 2259 Pls
1049 2257 Pls
1050 2256 Pls
1050 2255 Pls
1050 2253 Pls
1050 2252 Pls
1051 2251 Pls
1051 2249 Pls
1051 2248 Pls
1051 2247 Pls
1052 2245 Pls
1053 2244 Pls
1054 2243 Pls
1054 2241 Pls
1054 2240 Pls
1055 2239 Pls
1055 2237 Pls
1055 2236 Pls
1055 2234 Pls
1056 2233 Pls
1056 2232 Pls
1057 2230 Pls
1057 2229 Pls
1058 2227 Pls
1059 2226 Pls
1059 2224 Pls
1059 2223 Pls
1059 2222 Pls
1059 2220 Pls
1059 2219 Pls
1060 2217 Pls
1060 2216 Pls
1060 2214 Pls
1060 2213 Pls
1060 2211 Pls
1061 2210 Pls
1061 2208 Pls
1062 2206 Pls
1063 2205 Pls
1064 2203 Pls
1064 2202 Pls
1065 2200 Pls
1066 2199 Pls
1066 2197 Pls
1066 2195 Pls
1066 2194 Pls
1067 2192 Pls
1067 2191 Pls
1068 2189 Pls
1068 2187 Pls
1069 2186 Pls
1069 2184 Pls
1069 2182 Pls
1069 2181 Pls
1070 2179 Pls
1070 2177 Pls
1072 2175 Pls
1072 2174 Pls
1073 2172 Pls
1074 2170 Pls
1074 2168 Pls
1075 2167 Pls
1075 2165 Pls
1075 2163 Pls
1077 2161 Pls
1079 2159 Pls
1080 2158 Pls
1081 2156 Pls
1083 2154 Pls
1085 2152 Pls
1085 2150 Pls
1086 2148 Pls
1086 2146 Pls
1088 2144 Pls
1089 2143 Pls
1089 2141 Pls
1090 2139 Pls
1093 2137 Pls
1093 2135 Pls
1093 2133 Pls
1093 2131 Pls
1094 2129 Pls
1095 2127 Pls
1095 2125 Pls
1097 2122 Pls
1098 2120 Pls
1099 2118 Pls
1101 2116 Pls
1103 2114 Pls
1104 2112 Pls
1105 2110 Pls
1106 2108 Pls
1106 2105 Pls
1107 2103 Pls
1108 2101 Pls
1109 2099 Pls
1109 2096 Pls
1110 2094 Pls
1110 2092 Pls
1110 2089 Pls
1113 2087 Pls
1116 2085 Pls
1116 2082 Pls
1117 2080 Pls
1117 2078 Pls
1118 2075 Pls
1119 2073 Pls
1119 2070 Pls
1119 2068 Pls
1119 2065 Pls
1122 2063 Pls
1122 2060 Pls
1123 2057 Pls
1125 2055 Pls
1127 2052 Pls
1129 2049 Pls
1130 2047 Pls
1135 2044 Pls
1135 2041 Pls
1135 2038 Pls
1136 2036 Pls
1141 2033 Pls
1142 2030 Pls
1144 2027 Pls
1149 2024 Pls
1152 2021 Pls
1153 2018 Pls
1154 2015 Pls
1155 2012 Pls
1157 2009 Pls
1158 2006 Pls
1160 2003 Pls
1161 2000 Pls
1161 1996 Pls
1164 1993 Pls
1164 1990 Pls
1167 1987 Pls
1167 1983 Pls
1171 1980 Pls
1175 1976 Pls
1176 1973 Pls
1180 1969 Pls
1181 1966 Pls
1181 1962 Pls
1182 1958 Pls
1183 1955 Pls
1185 1951 Pls
1185 1947 Pls
1186 1943 Pls
1187 1939 Pls
1189 1935 Pls
1190 1931 Pls
1191 1927 Pls
1192 1923 Pls
1193 1919 Pls
1197 1914 Pls
1205 1910 Pls
1207 1906 Pls
1215 1901 Pls
1216 1897 Pls
1216 1892 Pls
1219 1887 Pls
1234 1883 Pls
1242 1878 Pls
1260 1873 Pls
1260 1868 Pls
1263 1863 Pls
1264 1857 Pls
1265 1852 Pls
1276 1847 Pls
1282 1841 Pls
1284 1835 Pls
1286 1830 Pls
1289 1824 Pls
1290 1818 Pls
1297 1812 Pls
1308 1805 Pls
1308 1799 Pls
1317 1792 Pls
1325 1786 Pls
1329 1779 Pls
1337 1772 Pls
1342 1765 Pls
1343 1757 Pls
1344 1750 Pls
1353 1742 Pls
1360 1734 Pls
1365 1726 Pls
1378 1717 Pls
1380 1708 Pls
1383 1699 Pls
1403 1690 Pls
1409 1680 Pls
1410 1670 Pls
1411 1660 Pls
1418 1649 Pls
1420 1638 Pls
1442 1626 Pls
1579 1614 Pls
1604 1602 Pls
1608 1588 Pls
1651 1574 Pls
1706 1560 Pls
1770 1544 Pls
1777 1528 Pls
1869 1511 Pls
2110 1492 Pls
2147 1473 Pls
2221 1452 Pls
2298 1429 Pls
2351 1404 Pls
2382 1377 Pls
2602 1347 Pls
2605 1313 Pls
2649 1275 Pls
3014 1231 Pls
3189 1180 Pls
3573 1116 Pls
3734 1034 Pls
4949 919 Pls
6429 721 Pls
% End plot #1
2.000 UL
LTb
LCb setrgbcolor
1.000 UL
LTB
LCb setrgbcolor
966 4871 N
966 280 L
5981 0 V
0 4591 V
-5981 0 V
Z stroke
1.000 UP
1.000 UL
LTb
LCb setrgbcolor
stroke
grestore
end
showpage
%%Trailer
%%DocumentFonts: Helvetica
%%Pages: 1
