%!PS-Adobe-2.0
%%Title: packets-s-minus-packets-uv-s-dist-loglin.eps
%%Creator: gnuplot 5.0 patchlevel 3
%%CreationDate: Mon May 29 11:06:12 2017
%%DocumentFonts: (atend)
%%BoundingBox: 50 50 554 770
%%Orientation: Landscape
%%Pages: (atend)
%%EndComments
%%BeginProlog
/gnudict 256 dict def
gnudict begin
%
% The following true/false flags may be edited by hand if desired.
% The unit line width and grayscale image gamma correction may also be changed.
%
/Color true def
/Blacktext false def
/Solid false def
/Dashlength 1 def
/Landscape true def
/Level1 false def
/Level3 false def
/Rounded false def
/ClipToBoundingBox false def
/SuppressPDFMark false def
/TransparentPatterns false def
/gnulinewidth 5.000 def
/userlinewidth gnulinewidth def
/Gamma 1.0 def
/BackgroundColor {-1.000 -1.000 -1.000} def
%
/vshift -46 def
/dl1 {
  10.0 Dashlength userlinewidth gnulinewidth div mul mul mul
  Rounded { currentlinewidth 0.75 mul sub dup 0 le { pop 0.01 } if } if
} def
/dl2 {
  10.0 Dashlength userlinewidth gnulinewidth div mul mul mul
  Rounded { currentlinewidth 0.75 mul add } if
} def
/hpt_ 31.5 def
/vpt_ 31.5 def
/hpt hpt_ def
/vpt vpt_ def
/doclip {
  ClipToBoundingBox {
    newpath 50 50 moveto 554 50 lineto 554 770 lineto 50 770 lineto closepath
    clip
  } if
} def
%
% Gnuplot Prolog Version 5.1 (Oct 2015)
%
%/SuppressPDFMark true def
%
/M {moveto} bind def
/L {lineto} bind def
/R {rmoveto} bind def
/V {rlineto} bind def
/N {newpath moveto} bind def
/Z {closepath} bind def
/C {setrgbcolor} bind def
/f {rlineto fill} bind def
/g {setgray} bind def
/Gshow {show} def   % May be redefined later in the file to support UTF-8
/vpt2 vpt 2 mul def
/hpt2 hpt 2 mul def
/Lshow {currentpoint stroke M 0 vshift R 
	Blacktext {gsave 0 setgray textshow grestore} {textshow} ifelse} def
/Rshow {currentpoint stroke M dup stringwidth pop neg vshift R
	Blacktext {gsave 0 setgray textshow grestore} {textshow} ifelse} def
/Cshow {currentpoint stroke M dup stringwidth pop -2 div vshift R 
	Blacktext {gsave 0 setgray textshow grestore} {textshow} ifelse} def
/UP {dup vpt_ mul /vpt exch def hpt_ mul /hpt exch def
  /hpt2 hpt 2 mul def /vpt2 vpt 2 mul def} def
/DL {Color {setrgbcolor Solid {pop []} if 0 setdash}
 {pop pop pop 0 setgray Solid {pop []} if 0 setdash} ifelse} def
/BL {stroke userlinewidth 2 mul setlinewidth
	Rounded {1 setlinejoin 1 setlinecap} if} def
/AL {stroke userlinewidth 2 div setlinewidth
	Rounded {1 setlinejoin 1 setlinecap} if} def
/UL {dup gnulinewidth mul /userlinewidth exch def
	dup 1 lt {pop 1} if 10 mul /udl exch def} def
/PL {stroke userlinewidth setlinewidth
	Rounded {1 setlinejoin 1 setlinecap} if} def
3.8 setmiterlimit
% Classic Line colors (version 5.0)
/LCw {1 1 1} def
/LCb {0 0 0} def
/LCa {0 0 0} def
/LC0 {1 0 0} def
/LC1 {0 1 0} def
/LC2 {0 0 1} def
/LC3 {1 0 1} def
/LC4 {0 1 1} def
/LC5 {1 1 0} def
/LC6 {0 0 0} def
/LC7 {1 0.3 0} def
/LC8 {0.5 0.5 0.5} def
% Default dash patterns (version 5.0)
/LTB {BL [] LCb DL} def
/LTw {PL [] 1 setgray} def
/LTb {PL [] LCb DL} def
/LTa {AL [1 udl mul 2 udl mul] 0 setdash LCa setrgbcolor} def
/LT0 {PL [] LC0 DL} def
/LT1 {PL [2 dl1 3 dl2] LC1 DL} def
/LT2 {PL [1 dl1 1.5 dl2] LC2 DL} def
/LT3 {PL [6 dl1 2 dl2 1 dl1 2 dl2] LC3 DL} def
/LT4 {PL [1 dl1 2 dl2 6 dl1 2 dl2 1 dl1 2 dl2] LC4 DL} def
/LT5 {PL [4 dl1 2 dl2] LC5 DL} def
/LT6 {PL [1.5 dl1 1.5 dl2 1.5 dl1 1.5 dl2 1.5 dl1 6 dl2] LC6 DL} def
/LT7 {PL [3 dl1 3 dl2 1 dl1 3 dl2] LC7 DL} def
/LT8 {PL [2 dl1 2 dl2 2 dl1 6 dl2] LC8 DL} def
/SL {[] 0 setdash} def
/Pnt {stroke [] 0 setdash gsave 1 setlinecap M 0 0 V stroke grestore} def
/Dia {stroke [] 0 setdash 2 copy vpt add M
  hpt neg vpt neg V hpt vpt neg V
  hpt vpt V hpt neg vpt V closepath stroke
  Pnt} def
/Pls {stroke [] 0 setdash vpt sub M 0 vpt2 V
  currentpoint stroke M
  hpt neg vpt neg R hpt2 0 V stroke
 } def
/Box {stroke [] 0 setdash 2 copy exch hpt sub exch vpt add M
  0 vpt2 neg V hpt2 0 V 0 vpt2 V
  hpt2 neg 0 V closepath stroke
  Pnt} def
/Crs {stroke [] 0 setdash exch hpt sub exch vpt add M
  hpt2 vpt2 neg V currentpoint stroke M
  hpt2 neg 0 R hpt2 vpt2 V stroke} def
/TriU {stroke [] 0 setdash 2 copy vpt 1.12 mul add M
  hpt neg vpt -1.62 mul V
  hpt 2 mul 0 V
  hpt neg vpt 1.62 mul V closepath stroke
  Pnt} def
/Star {2 copy Pls Crs} def
/BoxF {stroke [] 0 setdash exch hpt sub exch vpt add M
  0 vpt2 neg V hpt2 0 V 0 vpt2 V
  hpt2 neg 0 V closepath fill} def
/TriUF {stroke [] 0 setdash vpt 1.12 mul add M
  hpt neg vpt -1.62 mul V
  hpt 2 mul 0 V
  hpt neg vpt 1.62 mul V closepath fill} def
/TriD {stroke [] 0 setdash 2 copy vpt 1.12 mul sub M
  hpt neg vpt 1.62 mul V
  hpt 2 mul 0 V
  hpt neg vpt -1.62 mul V closepath stroke
  Pnt} def
/TriDF {stroke [] 0 setdash vpt 1.12 mul sub M
  hpt neg vpt 1.62 mul V
  hpt 2 mul 0 V
  hpt neg vpt -1.62 mul V closepath fill} def
/DiaF {stroke [] 0 setdash vpt add M
  hpt neg vpt neg V hpt vpt neg V
  hpt vpt V hpt neg vpt V closepath fill} def
/Pent {stroke [] 0 setdash 2 copy gsave
  translate 0 hpt M 4 {72 rotate 0 hpt L} repeat
  closepath stroke grestore Pnt} def
/PentF {stroke [] 0 setdash gsave
  translate 0 hpt M 4 {72 rotate 0 hpt L} repeat
  closepath fill grestore} def
/Circle {stroke [] 0 setdash 2 copy
  hpt 0 360 arc stroke Pnt} def
/CircleF {stroke [] 0 setdash hpt 0 360 arc fill} def
/C0 {BL [] 0 setdash 2 copy moveto vpt 90 450 arc} bind def
/C1 {BL [] 0 setdash 2 copy moveto
	2 copy vpt 0 90 arc closepath fill
	vpt 0 360 arc closepath} bind def
/C2 {BL [] 0 setdash 2 copy moveto
	2 copy vpt 90 180 arc closepath fill
	vpt 0 360 arc closepath} bind def
/C3 {BL [] 0 setdash 2 copy moveto
	2 copy vpt 0 180 arc closepath fill
	vpt 0 360 arc closepath} bind def
/C4 {BL [] 0 setdash 2 copy moveto
	2 copy vpt 180 270 arc closepath fill
	vpt 0 360 arc closepath} bind def
/C5 {BL [] 0 setdash 2 copy moveto
	2 copy vpt 0 90 arc
	2 copy moveto
	2 copy vpt 180 270 arc closepath fill
	vpt 0 360 arc} bind def
/C6 {BL [] 0 setdash 2 copy moveto
	2 copy vpt 90 270 arc closepath fill
	vpt 0 360 arc closepath} bind def
/C7 {BL [] 0 setdash 2 copy moveto
	2 copy vpt 0 270 arc closepath fill
	vpt 0 360 arc closepath} bind def
/C8 {BL [] 0 setdash 2 copy moveto
	2 copy vpt 270 360 arc closepath fill
	vpt 0 360 arc closepath} bind def
/C9 {BL [] 0 setdash 2 copy moveto
	2 copy vpt 270 450 arc closepath fill
	vpt 0 360 arc closepath} bind def
/C10 {BL [] 0 setdash 2 copy 2 copy moveto vpt 270 360 arc closepath fill
	2 copy moveto
	2 copy vpt 90 180 arc closepath fill
	vpt 0 360 arc closepath} bind def
/C11 {BL [] 0 setdash 2 copy moveto
	2 copy vpt 0 180 arc closepath fill
	2 copy moveto
	2 copy vpt 270 360 arc closepath fill
	vpt 0 360 arc closepath} bind def
/C12 {BL [] 0 setdash 2 copy moveto
	2 copy vpt 180 360 arc closepath fill
	vpt 0 360 arc closepath} bind def
/C13 {BL [] 0 setdash 2 copy moveto
	2 copy vpt 0 90 arc closepath fill
	2 copy moveto
	2 copy vpt 180 360 arc closepath fill
	vpt 0 360 arc closepath} bind def
/C14 {BL [] 0 setdash 2 copy moveto
	2 copy vpt 90 360 arc closepath fill
	vpt 0 360 arc} bind def
/C15 {BL [] 0 setdash 2 copy vpt 0 360 arc closepath fill
	vpt 0 360 arc closepath} bind def
/Rec {newpath 4 2 roll moveto 1 index 0 rlineto 0 exch rlineto
	neg 0 rlineto closepath} bind def
/Square {dup Rec} bind def
/Bsquare {vpt sub exch vpt sub exch vpt2 Square} bind def
/S0 {BL [] 0 setdash 2 copy moveto 0 vpt rlineto BL Bsquare} bind def
/S1 {BL [] 0 setdash 2 copy vpt Square fill Bsquare} bind def
/S2 {BL [] 0 setdash 2 copy exch vpt sub exch vpt Square fill Bsquare} bind def
/S3 {BL [] 0 setdash 2 copy exch vpt sub exch vpt2 vpt Rec fill Bsquare} bind def
/S4 {BL [] 0 setdash 2 copy exch vpt sub exch vpt sub vpt Square fill Bsquare} bind def
/S5 {BL [] 0 setdash 2 copy 2 copy vpt Square fill
	exch vpt sub exch vpt sub vpt Square fill Bsquare} bind def
/S6 {BL [] 0 setdash 2 copy exch vpt sub exch vpt sub vpt vpt2 Rec fill Bsquare} bind def
/S7 {BL [] 0 setdash 2 copy exch vpt sub exch vpt sub vpt vpt2 Rec fill
	2 copy vpt Square fill Bsquare} bind def
/S8 {BL [] 0 setdash 2 copy vpt sub vpt Square fill Bsquare} bind def
/S9 {BL [] 0 setdash 2 copy vpt sub vpt vpt2 Rec fill Bsquare} bind def
/S10 {BL [] 0 setdash 2 copy vpt sub vpt Square fill 2 copy exch vpt sub exch vpt Square fill
	Bsquare} bind def
/S11 {BL [] 0 setdash 2 copy vpt sub vpt Square fill 2 copy exch vpt sub exch vpt2 vpt Rec fill
	Bsquare} bind def
/S12 {BL [] 0 setdash 2 copy exch vpt sub exch vpt sub vpt2 vpt Rec fill Bsquare} bind def
/S13 {BL [] 0 setdash 2 copy exch vpt sub exch vpt sub vpt2 vpt Rec fill
	2 copy vpt Square fill Bsquare} bind def
/S14 {BL [] 0 setdash 2 copy exch vpt sub exch vpt sub vpt2 vpt Rec fill
	2 copy exch vpt sub exch vpt Square fill Bsquare} bind def
/S15 {BL [] 0 setdash 2 copy Bsquare fill Bsquare} bind def
/D0 {gsave translate 45 rotate 0 0 S0 stroke grestore} bind def
/D1 {gsave translate 45 rotate 0 0 S1 stroke grestore} bind def
/D2 {gsave translate 45 rotate 0 0 S2 stroke grestore} bind def
/D3 {gsave translate 45 rotate 0 0 S3 stroke grestore} bind def
/D4 {gsave translate 45 rotate 0 0 S4 stroke grestore} bind def
/D5 {gsave translate 45 rotate 0 0 S5 stroke grestore} bind def
/D6 {gsave translate 45 rotate 0 0 S6 stroke grestore} bind def
/D7 {gsave translate 45 rotate 0 0 S7 stroke grestore} bind def
/D8 {gsave translate 45 rotate 0 0 S8 stroke grestore} bind def
/D9 {gsave translate 45 rotate 0 0 S9 stroke grestore} bind def
/D10 {gsave translate 45 rotate 0 0 S10 stroke grestore} bind def
/D11 {gsave translate 45 rotate 0 0 S11 stroke grestore} bind def
/D12 {gsave translate 45 rotate 0 0 S12 stroke grestore} bind def
/D13 {gsave translate 45 rotate 0 0 S13 stroke grestore} bind def
/D14 {gsave translate 45 rotate 0 0 S14 stroke grestore} bind def
/D15 {gsave translate 45 rotate 0 0 S15 stroke grestore} bind def
/DiaE {stroke [] 0 setdash vpt add M
  hpt neg vpt neg V hpt vpt neg V
  hpt vpt V hpt neg vpt V closepath stroke} def
/BoxE {stroke [] 0 setdash exch hpt sub exch vpt add M
  0 vpt2 neg V hpt2 0 V 0 vpt2 V
  hpt2 neg 0 V closepath stroke} def
/TriUE {stroke [] 0 setdash vpt 1.12 mul add M
  hpt neg vpt -1.62 mul V
  hpt 2 mul 0 V
  hpt neg vpt 1.62 mul V closepath stroke} def
/TriDE {stroke [] 0 setdash vpt 1.12 mul sub M
  hpt neg vpt 1.62 mul V
  hpt 2 mul 0 V
  hpt neg vpt -1.62 mul V closepath stroke} def
/PentE {stroke [] 0 setdash gsave
  translate 0 hpt M 4 {72 rotate 0 hpt L} repeat
  closepath stroke grestore} def
/CircE {stroke [] 0 setdash 
  hpt 0 360 arc stroke} def
/Opaque {gsave closepath 1 setgray fill grestore 0 setgray closepath} def
/DiaW {stroke [] 0 setdash vpt add M
  hpt neg vpt neg V hpt vpt neg V
  hpt vpt V hpt neg vpt V Opaque stroke} def
/BoxW {stroke [] 0 setdash exch hpt sub exch vpt add M
  0 vpt2 neg V hpt2 0 V 0 vpt2 V
  hpt2 neg 0 V Opaque stroke} def
/TriUW {stroke [] 0 setdash vpt 1.12 mul add M
  hpt neg vpt -1.62 mul V
  hpt 2 mul 0 V
  hpt neg vpt 1.62 mul V Opaque stroke} def
/TriDW {stroke [] 0 setdash vpt 1.12 mul sub M
  hpt neg vpt 1.62 mul V
  hpt 2 mul 0 V
  hpt neg vpt -1.62 mul V Opaque stroke} def
/PentW {stroke [] 0 setdash gsave
  translate 0 hpt M 4 {72 rotate 0 hpt L} repeat
  Opaque stroke grestore} def
/CircW {stroke [] 0 setdash 
  hpt 0 360 arc Opaque stroke} def
/BoxFill {gsave Rec 1 setgray fill grestore} def
/Density {
  /Fillden exch def
  currentrgbcolor
  /ColB exch def /ColG exch def /ColR exch def
  /ColR ColR Fillden mul Fillden sub 1 add def
  /ColG ColG Fillden mul Fillden sub 1 add def
  /ColB ColB Fillden mul Fillden sub 1 add def
  ColR ColG ColB setrgbcolor} def
/BoxColFill {gsave Rec PolyFill} def
/PolyFill {gsave Density fill grestore grestore} def
/h {rlineto rlineto rlineto gsave closepath fill grestore} bind def
%
% PostScript Level 1 Pattern Fill routine for rectangles
% Usage: x y w h s a XX PatternFill
%	x,y = lower left corner of box to be filled
%	w,h = width and height of box
%	  a = angle in degrees between lines and x-axis
%	 XX = 0/1 for no/yes cross-hatch
%
/PatternFill {gsave /PFa [ 9 2 roll ] def
  PFa 0 get PFa 2 get 2 div add PFa 1 get PFa 3 get 2 div add translate
  PFa 2 get -2 div PFa 3 get -2 div PFa 2 get PFa 3 get Rec
  TransparentPatterns {} {gsave 1 setgray fill grestore} ifelse
  clip
  currentlinewidth 0.5 mul setlinewidth
  /PFs PFa 2 get dup mul PFa 3 get dup mul add sqrt def
  0 0 M PFa 5 get rotate PFs -2 div dup translate
  0 1 PFs PFa 4 get div 1 add floor cvi
	{PFa 4 get mul 0 M 0 PFs V} for
  0 PFa 6 get ne {
	0 1 PFs PFa 4 get div 1 add floor cvi
	{PFa 4 get mul 0 2 1 roll M PFs 0 V} for
 } if
  stroke grestore} def
%
/languagelevel where
 {pop languagelevel} {1} ifelse
dup 2 lt
	{/InterpretLevel1 true def
	 /InterpretLevel3 false def}
	{/InterpretLevel1 Level1 def
	 2 gt
	    {/InterpretLevel3 Level3 def}
	    {/InterpretLevel3 false def}
	 ifelse }
 ifelse
%
% PostScript level 2 pattern fill definitions
%
/Level2PatternFill {
/Tile8x8 {/PaintType 2 /PatternType 1 /TilingType 1 /BBox [0 0 8 8] /XStep 8 /YStep 8}
	bind def
/KeepColor {currentrgbcolor [/Pattern /DeviceRGB] setcolorspace} bind def
<< Tile8x8
 /PaintProc {0.5 setlinewidth pop 0 0 M 8 8 L 0 8 M 8 0 L stroke} 
>> matrix makepattern
/Pat1 exch def
<< Tile8x8
 /PaintProc {0.5 setlinewidth pop 0 0 M 8 8 L 0 8 M 8 0 L stroke
	0 4 M 4 8 L 8 4 L 4 0 L 0 4 L stroke}
>> matrix makepattern
/Pat2 exch def
<< Tile8x8
 /PaintProc {0.5 setlinewidth pop 0 0 M 0 8 L
	8 8 L 8 0 L 0 0 L fill}
>> matrix makepattern
/Pat3 exch def
<< Tile8x8
 /PaintProc {0.5 setlinewidth pop -4 8 M 8 -4 L
	0 12 M 12 0 L stroke}
>> matrix makepattern
/Pat4 exch def
<< Tile8x8
 /PaintProc {0.5 setlinewidth pop -4 0 M 8 12 L
	0 -4 M 12 8 L stroke}
>> matrix makepattern
/Pat5 exch def
<< Tile8x8
 /PaintProc {0.5 setlinewidth pop -2 8 M 4 -4 L
	0 12 M 8 -4 L 4 12 M 10 0 L stroke}
>> matrix makepattern
/Pat6 exch def
<< Tile8x8
 /PaintProc {0.5 setlinewidth pop -2 0 M 4 12 L
	0 -4 M 8 12 L 4 -4 M 10 8 L stroke}
>> matrix makepattern
/Pat7 exch def
<< Tile8x8
 /PaintProc {0.5 setlinewidth pop 8 -2 M -4 4 L
	12 0 M -4 8 L 12 4 M 0 10 L stroke}
>> matrix makepattern
/Pat8 exch def
<< Tile8x8
 /PaintProc {0.5 setlinewidth pop 0 -2 M 12 4 L
	-4 0 M 12 8 L -4 4 M 8 10 L stroke}
>> matrix makepattern
/Pat9 exch def
/Pattern1 {PatternBgnd KeepColor Pat1 setpattern} bind def
/Pattern2 {PatternBgnd KeepColor Pat2 setpattern} bind def
/Pattern3 {PatternBgnd KeepColor Pat3 setpattern} bind def
/Pattern4 {PatternBgnd KeepColor Landscape {Pat5} {Pat4} ifelse setpattern} bind def
/Pattern5 {PatternBgnd KeepColor Landscape {Pat4} {Pat5} ifelse setpattern} bind def
/Pattern6 {PatternBgnd KeepColor Landscape {Pat9} {Pat6} ifelse setpattern} bind def
/Pattern7 {PatternBgnd KeepColor Landscape {Pat8} {Pat7} ifelse setpattern} bind def
} def
%
%
%End of PostScript Level 2 code
%
/PatternBgnd {
  TransparentPatterns {} {gsave 1 setgray fill grestore} ifelse
} def
%
% Substitute for Level 2 pattern fill codes with
% grayscale if Level 2 support is not selected.
%
/Level1PatternFill {
/Pattern1 {0.250 Density} bind def
/Pattern2 {0.500 Density} bind def
/Pattern3 {0.750 Density} bind def
/Pattern4 {0.125 Density} bind def
/Pattern5 {0.375 Density} bind def
/Pattern6 {0.625 Density} bind def
/Pattern7 {0.875 Density} bind def
} def
%
% Now test for support of Level 2 code
%
Level1 {Level1PatternFill} {Level2PatternFill} ifelse
%
/Symbol-Oblique /Symbol findfont [1 0 .167 1 0 0] makefont
dup length dict begin {1 index /FID eq {pop pop} {def} ifelse} forall
currentdict end definefont pop
%
/MFshow {
   { dup 5 get 3 ge
     { 5 get 3 eq {gsave} {grestore} ifelse }
     {dup dup 0 get findfont exch 1 get scalefont setfont
     [ currentpoint ] exch dup 2 get 0 exch R dup 5 get 2 ne {dup dup 6
     get exch 4 get {textshow} {stringwidth pop 0 R} ifelse }if dup 5 get 0 eq
     {dup 3 get {2 get neg 0 exch R pop} {pop aload pop M} ifelse} {dup 5
     get 1 eq {dup 2 get exch dup 3 get exch 6 get stringwidth pop -2 div
     dup 0 R} {dup 6 get stringwidth pop -2 div 0 R 6 get
     textshow 2 index {aload pop M neg 3 -1 roll neg R pop pop} {pop pop pop
     pop aload pop M} ifelse }ifelse }ifelse }
     ifelse }
   forall} def
/Gswidth {dup type /stringtype eq {stringwidth} {pop (n) stringwidth} ifelse} def
/MFwidth {0 exch { dup 5 get 3 ge { 5 get 3 eq { 0 } { pop } ifelse }
 {dup 3 get{dup dup 0 get findfont exch 1 get scalefont setfont
     6 get Gswidth pop add} {pop} ifelse} ifelse} forall} def
/MLshow { currentpoint stroke M
  0 exch R
  Blacktext {gsave 0 setgray MFshow grestore} {MFshow} ifelse } bind def
/MRshow { currentpoint stroke M
  exch dup MFwidth neg 3 -1 roll R
  Blacktext {gsave 0 setgray MFshow grestore} {MFshow} ifelse } bind def
/MCshow { currentpoint stroke M
  exch dup MFwidth -2 div 3 -1 roll R
  Blacktext {gsave 0 setgray MFshow grestore} {MFshow} ifelse } bind def
/XYsave    { [( ) 1 2 true false 3 ()] } bind def
/XYrestore { [( ) 1 2 true false 4 ()] } bind def
Level1 SuppressPDFMark or 
{} {
/SDict 10 dict def
systemdict /pdfmark known not {
  userdict /pdfmark systemdict /cleartomark get put
} if
SDict begin [
  /Title (packets-s-minus-packets-uv-s-dist-loglin.eps)
  /Subject (gnuplot plot)
  /Creator (gnuplot 5.0 patchlevel 3)
  /Author (tiphaine)
%  /Producer (gnuplot)
%  /Keywords ()
  /CreationDate (Mon May 29 11:06:12 2017)
  /DOCINFO pdfmark
end
} ifelse
%
% Support for boxed text - Ethan A Merritt May 2005
%
/InitTextBox { userdict /TBy2 3 -1 roll put userdict /TBx2 3 -1 roll put
           userdict /TBy1 3 -1 roll put userdict /TBx1 3 -1 roll put
	   /Boxing true def } def
/ExtendTextBox { Boxing
    { gsave dup false charpath pathbbox
      dup TBy2 gt {userdict /TBy2 3 -1 roll put} {pop} ifelse
      dup TBx2 gt {userdict /TBx2 3 -1 roll put} {pop} ifelse
      dup TBy1 lt {userdict /TBy1 3 -1 roll put} {pop} ifelse
      dup TBx1 lt {userdict /TBx1 3 -1 roll put} {pop} ifelse
      grestore } if } def
/PopTextBox { newpath TBx1 TBxmargin sub TBy1 TBymargin sub M
               TBx1 TBxmargin sub TBy2 TBymargin add L
	       TBx2 TBxmargin add TBy2 TBymargin add L
	       TBx2 TBxmargin add TBy1 TBymargin sub L closepath } def
/DrawTextBox { PopTextBox stroke /Boxing false def} def
/FillTextBox { gsave PopTextBox 1 1 1 setrgbcolor fill grestore /Boxing false def} def
0 0 0 0 InitTextBox
/TBxmargin 20 def
/TBymargin 20 def
/Boxing false def
/textshow { ExtendTextBox Gshow } def
%
% redundant definitions for compatibility with prologue.ps older than 5.0.2
/LTB {BL [] LCb DL} def
/LTb {PL [] LCb DL} def
end
%%EndProlog
%%Page: 1 1
gnudict begin
gsave
doclip
50 50 translate
0.100 0.100 scale
90 rotate
0 -5040 translate
0 setgray
newpath
(Helvetica) findfont 140 scalefont setfont
BackgroundColor 0 lt 3 1 roll 0 lt exch 0 lt or or not {gsave BackgroundColor C clippath fill grestore} if
1.000 UL
LTb
LCb setrgbcolor
546 280 M
63 0 V
6338 0 R
-63 0 V
stroke
462 280 M
[ [(Helvetica) 140.0 0.0 true true 0 ( 1)]
] -46.7 MRshow
1.000 UL
LTb
LCb setrgbcolor
546 1198 M
63 0 V
6338 0 R
-63 0 V
stroke
462 1198 M
[ [(Helvetica) 140.0 0.0 true true 0 ( 1.2)]
] -46.7 MRshow
1.000 UL
LTb
LCb setrgbcolor
546 2116 M
63 0 V
6338 0 R
-63 0 V
stroke
462 2116 M
[ [(Helvetica) 140.0 0.0 true true 0 ( 1.4)]
] -46.7 MRshow
1.000 UL
LTb
LCb setrgbcolor
546 3035 M
63 0 V
6338 0 R
-63 0 V
stroke
462 3035 M
[ [(Helvetica) 140.0 0.0 true true 0 ( 1.6)]
] -46.7 MRshow
1.000 UL
LTb
LCb setrgbcolor
546 3953 M
63 0 V
6338 0 R
-63 0 V
stroke
462 3953 M
[ [(Helvetica) 140.0 0.0 true true 0 ( 1.8)]
] -46.7 MRshow
1.000 UL
LTb
LCb setrgbcolor
546 4871 M
63 0 V
6338 0 R
-63 0 V
stroke
462 4871 M
[ [(Helvetica) 140.0 0.0 true true 0 ( 2)]
] -46.7 MRshow
1.000 UL
LTb
LCb setrgbcolor
546 280 M
0 63 V
0 4528 R
0 -63 V
stroke
546 140 M
[ [(Helvetica) 140.0 0.0 true true 0 ( 1)]
] -46.7 MCshow
1.000 UL
LTb
LCb setrgbcolor
821 280 M
0 31 V
0 4560 R
0 -31 V
1185 280 M
0 31 V
0 4560 R
0 -31 V
1372 280 M
0 31 V
0 4560 R
0 -31 V
1460 280 M
0 63 V
0 4528 R
0 -63 V
stroke
1460 140 M
[ [(Helvetica) 140.0 0.0 true true 0 ( 10)]
] -46.7 MCshow
1.000 UL
LTb
LCb setrgbcolor
1736 280 M
0 31 V
0 4560 R
0 -31 V
2100 280 M
0 31 V
0 4560 R
0 -31 V
2286 280 M
0 31 V
0 4560 R
0 -31 V
2375 280 M
0 63 V
0 4528 R
0 -63 V
stroke
2375 140 M
[ [(Helvetica) 140.0 0.0 true true 0 ( 100)]
] -46.7 MCshow
1.000 UL
LTb
LCb setrgbcolor
2650 280 M
0 31 V
0 4560 R
0 -31 V
3014 280 M
0 31 V
0 4560 R
0 -31 V
3201 280 M
0 31 V
0 4560 R
0 -31 V
3289 280 M
0 63 V
0 4528 R
0 -63 V
stroke
3289 140 M
[ [(Helvetica) 140.0 0.0 true true 0 ( 1000)]
] -46.7 MCshow
1.000 UL
LTb
LCb setrgbcolor
3565 280 M
0 31 V
0 4560 R
0 -31 V
3928 280 M
0 31 V
0 4560 R
0 -31 V
4115 280 M
0 31 V
0 4560 R
0 -31 V
4204 280 M
0 63 V
0 4528 R
0 -63 V
stroke
4204 140 M
[ [(Helvetica) 140.0 0.0 true true 0 ( 10000)]
] -46.7 MCshow
1.000 UL
LTb
LCb setrgbcolor
4479 280 M
0 31 V
0 4560 R
0 -31 V
4843 280 M
0 31 V
0 4560 R
0 -31 V
5030 280 M
0 31 V
0 4560 R
0 -31 V
5118 280 M
0 63 V
0 4528 R
0 -63 V
stroke
5118 140 M
[ [(Helvetica) 140.0 0.0 true true 0 ( 100000)]
] -46.7 MCshow
1.000 UL
LTb
LCb setrgbcolor
5393 280 M
0 31 V
0 4560 R
0 -31 V
5757 280 M
0 31 V
0 4560 R
0 -31 V
5944 280 M
0 31 V
0 4560 R
0 -31 V
6033 280 M
0 63 V
0 4528 R
0 -63 V
stroke
6033 140 M
[ [(Helvetica) 140.0 0.0 true true 0 ( 1x10)]
[(Helvetica) 112.0 70.0 true true 0 (6)]
] -60.7 MCshow
1.000 UL
LTb
LCb setrgbcolor
6308 280 M
0 31 V
0 4560 R
0 -31 V
6672 280 M
0 31 V
0 4560 R
0 -31 V
6858 280 M
0 31 V
0 4560 R
0 -31 V
6947 280 M
0 63 V
0 4528 R
0 -63 V
stroke
6947 140 M
[ [(Helvetica) 140.0 0.0 true true 0 ( 1x10)]
[(Helvetica) 112.0 70.0 true true 0 (7)]
] -60.7 MCshow
1.000 UL
LTb
LCb setrgbcolor
1.000 UL
LTB
LCb setrgbcolor
546 4871 N
546 280 L
6401 0 V
0 4591 V
-6401 0 V
Z stroke
1.000 UP
1.000 UL
LTb
LCb setrgbcolor
% Begin plot #1
1.000 UP
1.000 UL
LTb
0.58 0.00 0.83 C 546 280 Pls
1185 280 Pls
2172 280 Pls
2204 280 Pls
2250 280 Pls
2409 280 Pls
2525 280 Pls
2583 280 Pls
2670 280 Pls
2700 280 Pls
2798 280 Pls
2804 280 Pls
2810 280 Pls
2868 280 Pls
2887 280 Pls
2888 280 Pls
2899 280 Pls
2900 280 Pls
2906 280 Pls
2931 280 Pls
2935 280 Pls
3031 280 Pls
3065 280 Pls
3072 280 Pls
3083 280 Pls
3094 280 Pls
3113 280 Pls
3125 280 Pls
3143 280 Pls
3152 280 Pls
3183 280 Pls
3190 280 Pls
3208 280 Pls
3245 280 Pls
3278 280 Pls
3285 280 Pls
3308 280 Pls
3344 280 Pls
3348 280 Pls
3348 280 Pls
3366 280 Pls
3368 280 Pls
3372 280 Pls
3383 280 Pls
3385 280 Pls
3405 280 Pls
3407 280 Pls
3418 280 Pls
3426 280 Pls
3439 280 Pls
3449 280 Pls
3453 280 Pls
3456 280 Pls
3459 280 Pls
3465 280 Pls
3473 280 Pls
3476 280 Pls
3481 280 Pls
3492 280 Pls
3499 280 Pls
3501 280 Pls
3502 280 Pls
3522 280 Pls
3524 280 Pls
3532 280 Pls
3542 280 Pls
3544 280 Pls
3549 280 Pls
3549 280 Pls
3556 280 Pls
3557 280 Pls
3558 280 Pls
3568 280 Pls
3569 280 Pls
3573 280 Pls
3576 280 Pls
3578 280 Pls
3579 280 Pls
3579 280 Pls
3579 280 Pls
3580 280 Pls
3585 280 Pls
3586 280 Pls
3588 280 Pls
3611 280 Pls
3614 280 Pls
3621 280 Pls
3622 280 Pls
3627 280 Pls
3628 280 Pls
3633 280 Pls
3633 4871 Pls
3634 280 Pls
3634 4871 Pls
3635 280 Pls
3635 280 Pls
3636 280 Pls
3637 280 Pls
3638 280 Pls
3639 280 Pls
3639 280 Pls
3640 280 Pls
3643 280 Pls
3645 280 Pls
3646 280 Pls
3647 280 Pls
3649 280 Pls
3666 280 Pls
3673 280 Pls
3674 280 Pls
3682 280 Pls
3685 280 Pls
3686 280 Pls
3692 280 Pls
3709 280 Pls
3709 280 Pls
3711 280 Pls
3712 280 Pls
3717 4871 Pls
3717 280 Pls
3718 280 Pls
3734 280 Pls
3754 280 Pls
3765 280 Pls
3767 280 Pls
3769 280 Pls
3773 280 Pls
3774 280 Pls
3779 280 Pls
3788 280 Pls
3788 280 Pls
3789 280 Pls
3790 280 Pls
3790 280 Pls
3795 280 Pls
3797 280 Pls
3797 280 Pls
3797 280 Pls
3797 280 Pls
3809 280 Pls
3825 280 Pls
3827 280 Pls
3827 280 Pls
3828 280 Pls
3829 280 Pls
3831 280 Pls
3843 280 Pls
3846 280 Pls
3850 280 Pls
3854 280 Pls
3863 280 Pls
3870 280 Pls
3875 280 Pls
3875 280 Pls
3878 280 Pls
3884 280 Pls
3885 280 Pls
3885 280 Pls
3890 280 Pls
3895 280 Pls
3895 280 Pls
3898 280 Pls
3907 280 Pls
3909 280 Pls
3910 280 Pls
3910 280 Pls
3912 280 Pls
3916 280 Pls
3922 280 Pls
3922 280 Pls
3928 280 Pls
3929 280 Pls
3936 280 Pls
3937 280 Pls
3937 280 Pls
3939 280 Pls
3941 280 Pls
3950 280 Pls
3952 280 Pls
3956 280 Pls
3964 280 Pls
3969 280 Pls
3973 280 Pls
3976 280 Pls
3982 280 Pls
3983 280 Pls
3985 280 Pls
3992 280 Pls
3995 280 Pls
3995 280 Pls
4005 280 Pls
4019 280 Pls
4024 280 Pls
4025 280 Pls
4026 280 Pls
4036 280 Pls
4037 280 Pls
4038 280 Pls
4040 280 Pls
4046 280 Pls
4051 280 Pls
4065 280 Pls
4069 280 Pls
4069 280 Pls
4070 280 Pls
4077 280 Pls
4079 280 Pls
4080 280 Pls
4084 280 Pls
4087 280 Pls
4087 280 Pls
4090 280 Pls
4092 280 Pls
4096 280 Pls
4096 280 Pls
4097 280 Pls
4099 280 Pls
4099 280 Pls
4101 280 Pls
4101 280 Pls
4105 280 Pls
4116 280 Pls
4118 280 Pls
4118 280 Pls
4119 280 Pls
4120 280 Pls
4127 280 Pls
4128 280 Pls
4137 280 Pls
4139 280 Pls
4142 280 Pls
4147 280 Pls
4147 280 Pls
4147 280 Pls
4150 280 Pls
4152 280 Pls
4155 280 Pls
4157 280 Pls
4159 280 Pls
4168 280 Pls
4172 280 Pls
4175 280 Pls
4177 280 Pls
4178 280 Pls
4179 280 Pls
4180 280 Pls
4183 280 Pls
4189 280 Pls
4191 280 Pls
4195 280 Pls
4197 280 Pls
4198 280 Pls
4203 280 Pls
4211 280 Pls
4214 280 Pls
4214 280 Pls
4215 280 Pls
4222 280 Pls
4224 280 Pls
4224 280 Pls
4225 280 Pls
4229 280 Pls
4229 280 Pls
4238 280 Pls
4244 280 Pls
4252 280 Pls
4260 280 Pls
4261 280 Pls
4261 280 Pls
4269 280 Pls
4269 280 Pls
4271 280 Pls
4276 280 Pls
4276 280 Pls
4277 280 Pls
4291 280 Pls
4295 280 Pls
4296 280 Pls
4297 280 Pls
4301 280 Pls
4309 280 Pls
4310 280 Pls
4316 280 Pls
4317 280 Pls
4325 280 Pls
4327 280 Pls
4336 280 Pls
4340 280 Pls
4341 280 Pls
4343 280 Pls
4345 280 Pls
4347 280 Pls
4358 280 Pls
4360 280 Pls
4362 280 Pls
4365 280 Pls
4365 280 Pls
4366 280 Pls
4370 280 Pls
4372 280 Pls
4373 280 Pls
4373 280 Pls
4381 280 Pls
4384 280 Pls
4388 280 Pls
4389 280 Pls
4391 280 Pls
4396 280 Pls
4398 280 Pls
4401 280 Pls
4405 280 Pls
4410 280 Pls
4415 280 Pls
4417 280 Pls
4419 280 Pls
4420 280 Pls
4423 280 Pls
4425 280 Pls
4427 280 Pls
4428 280 Pls
4432 280 Pls
4435 280 Pls
4438 280 Pls
4439 280 Pls
4442 280 Pls
4452 280 Pls
4458 280 Pls
4459 280 Pls
4460 280 Pls
4461 280 Pls
4466 280 Pls
4466 280 Pls
4473 280 Pls
4476 280 Pls
4478 280 Pls
4481 280 Pls
4486 280 Pls
4487 280 Pls
4503 280 Pls
4504 280 Pls
4504 280 Pls
4506 280 Pls
4509 280 Pls
4511 280 Pls
4512 280 Pls
4514 280 Pls
4514 280 Pls
4524 280 Pls
4524 280 Pls
4525 280 Pls
4527 280 Pls
4527 280 Pls
4533 280 Pls
4540 280 Pls
4543 280 Pls
4544 280 Pls
4548 280 Pls
4553 280 Pls
4556 280 Pls
4559 280 Pls
4559 280 Pls
4560 280 Pls
4563 280 Pls
4573 280 Pls
4575 280 Pls
4578 280 Pls
4580 280 Pls
4581 280 Pls
4585 280 Pls
4596 280 Pls
4601 280 Pls
4601 280 Pls
4604 280 Pls
4610 280 Pls
4613 280 Pls
4624 280 Pls
4624 280 Pls
4626 280 Pls
4626 280 Pls
4635 280 Pls
4635 280 Pls
4639 280 Pls
4639 280 Pls
4641 280 Pls
4643 280 Pls
4648 280 Pls
4652 280 Pls
4652 280 Pls
4654 280 Pls
4663 280 Pls
4667 280 Pls
4668 280 Pls
4668 280 Pls
4670 280 Pls
4670 280 Pls
4671 280 Pls
4678 280 Pls
4681 280 Pls
4685 280 Pls
4688 280 Pls
4690 280 Pls
4690 280 Pls
4692 280 Pls
4693 280 Pls
4695 280 Pls
4698 280 Pls
4699 280 Pls
4704 280 Pls
4708 280 Pls
4716 280 Pls
4718 280 Pls
4719 280 Pls
4721 280 Pls
4724 280 Pls
4733 280 Pls
4738 280 Pls
4740 280 Pls
4741 280 Pls
4747 280 Pls
4749 280 Pls
4755 280 Pls
4756 280 Pls
4763 280 Pls
4767 280 Pls
4769 280 Pls
4771 280 Pls
4773 280 Pls
4774 280 Pls
4774 280 Pls
4775 280 Pls
4788 280 Pls
4790 280 Pls
4795 280 Pls
4812 280 Pls
4817 280 Pls
4817 280 Pls
4823 280 Pls
4825 280 Pls
4826 280 Pls
4829 280 Pls
4835 280 Pls
4843 280 Pls
4850 280 Pls
4851 280 Pls
4854 280 Pls
4856 280 Pls
4858 280 Pls
4860 280 Pls
4861 280 Pls
4863 280 Pls
4864 280 Pls
4874 280 Pls
4876 280 Pls
4883 280 Pls
4885 280 Pls
4890 280 Pls
4892 280 Pls
4897 280 Pls
4898 280 Pls
4908 280 Pls
4908 280 Pls
4908 280 Pls
4910 280 Pls
4911 280 Pls
4914 280 Pls
4917 280 Pls
4922 280 Pls
4922 280 Pls
4923 280 Pls
4925 280 Pls
4930 280 Pls
4932 280 Pls
4934 280 Pls
4938 280 Pls
4939 280 Pls
4943 280 Pls
4949 280 Pls
4950 280 Pls
4952 280 Pls
4952 280 Pls
4958 280 Pls
4964 280 Pls
4969 280 Pls
4979 280 Pls
4991 280 Pls
4999 280 Pls
5001 280 Pls
5011 280 Pls
5012 280 Pls
5018 280 Pls
5029 280 Pls
5038 280 Pls
5050 280 Pls
5064 280 Pls
5066 280 Pls
5070 280 Pls
5070 280 Pls
5071 280 Pls
5075 280 Pls
5076 280 Pls
5084 280 Pls
5087 280 Pls
5093 280 Pls
5096 280 Pls
5100 280 Pls
5106 280 Pls
5106 280 Pls
5113 280 Pls
5113 280 Pls
5115 280 Pls
5116 280 Pls
5121 280 Pls
5125 280 Pls
5131 280 Pls
5131 280 Pls
5133 280 Pls
5134 280 Pls
5137 280 Pls
5139 280 Pls
5146 280 Pls
5149 280 Pls
5151 280 Pls
5152 280 Pls
5164 280 Pls
5181 280 Pls
5186 280 Pls
5190 280 Pls
5203 280 Pls
5204 280 Pls
5212 280 Pls
5234 280 Pls
5245 280 Pls
5249 280 Pls
5253 280 Pls
5268 280 Pls
5286 280 Pls
5307 280 Pls
5311 280 Pls
5312 280 Pls
5316 280 Pls
5317 280 Pls
5322 280 Pls
5327 280 Pls
5329 280 Pls
5347 280 Pls
5349 280 Pls
5355 280 Pls
5356 280 Pls
5365 280 Pls
5372 280 Pls
5377 280 Pls
5382 280 Pls
5383 280 Pls
5388 280 Pls
5389 280 Pls
5407 280 Pls
5412 280 Pls
5425 280 Pls
5427 280 Pls
5428 280 Pls
5433 280 Pls
5458 280 Pls
5463 280 Pls
5466 280 Pls
5468 280 Pls
5486 280 Pls
5491 280 Pls
5596 280 Pls
5607 280 Pls
5618 280 Pls
5642 280 Pls
5694 280 Pls
5715 280 Pls
5718 280 Pls
5754 280 Pls
5869 280 Pls
5873 280 Pls
5895 280 Pls
5920 280 Pls
5936 280 Pls
5945 280 Pls
6006 280 Pls
6006 280 Pls
6018 280 Pls
6102 280 Pls
6135 280 Pls
6195 280 Pls
6216 280 Pls
6365 280 Pls
6492 280 Pls
% End plot #1
2.000 UL
LTb
LCb setrgbcolor
1.000 UL
LTB
LCb setrgbcolor
546 4871 N
546 280 L
6401 0 V
0 4591 V
-6401 0 V
Z stroke
1.000 UP
1.000 UL
LTb
LCb setrgbcolor
stroke
grestore
end
showpage
%%Trailer
%%DocumentFonts: Helvetica
%%Pages: 1
