%!PS-Adobe-2.0
%%Title: packets-s-minus-packets-uv-s-ccdf-loglin.eps
%%Creator: gnuplot 5.0 patchlevel 3
%%CreationDate: Mon May 29 11:06:12 2017
%%DocumentFonts: (atend)
%%BoundingBox: 50 50 554 770
%%Orientation: Landscape
%%Pages: (atend)
%%EndComments
%%BeginProlog
/gnudict 256 dict def
gnudict begin
%
% The following true/false flags may be edited by hand if desired.
% The unit line width and grayscale image gamma correction may also be changed.
%
/Color true def
/Blacktext false def
/Solid false def
/Dashlength 1 def
/Landscape true def
/Level1 false def
/Level3 false def
/Rounded false def
/ClipToBoundingBox false def
/SuppressPDFMark false def
/TransparentPatterns false def
/gnulinewidth 5.000 def
/userlinewidth gnulinewidth def
/Gamma 1.0 def
/BackgroundColor {-1.000 -1.000 -1.000} def
%
/vshift -46 def
/dl1 {
  10.0 Dashlength userlinewidth gnulinewidth div mul mul mul
  Rounded { currentlinewidth 0.75 mul sub dup 0 le { pop 0.01 } if } if
} def
/dl2 {
  10.0 Dashlength userlinewidth gnulinewidth div mul mul mul
  Rounded { currentlinewidth 0.75 mul add } if
} def
/hpt_ 31.5 def
/vpt_ 31.5 def
/hpt hpt_ def
/vpt vpt_ def
/doclip {
  ClipToBoundingBox {
    newpath 50 50 moveto 554 50 lineto 554 770 lineto 50 770 lineto closepath
    clip
  } if
} def
%
% Gnuplot Prolog Version 5.1 (Oct 2015)
%
%/SuppressPDFMark true def
%
/M {moveto} bind def
/L {lineto} bind def
/R {rmoveto} bind def
/V {rlineto} bind def
/N {newpath moveto} bind def
/Z {closepath} bind def
/C {setrgbcolor} bind def
/f {rlineto fill} bind def
/g {setgray} bind def
/Gshow {show} def   % May be redefined later in the file to support UTF-8
/vpt2 vpt 2 mul def
/hpt2 hpt 2 mul def
/Lshow {currentpoint stroke M 0 vshift R 
	Blacktext {gsave 0 setgray textshow grestore} {textshow} ifelse} def
/Rshow {currentpoint stroke M dup stringwidth pop neg vshift R
	Blacktext {gsave 0 setgray textshow grestore} {textshow} ifelse} def
/Cshow {currentpoint stroke M dup stringwidth pop -2 div vshift R 
	Blacktext {gsave 0 setgray textshow grestore} {textshow} ifelse} def
/UP {dup vpt_ mul /vpt exch def hpt_ mul /hpt exch def
  /hpt2 hpt 2 mul def /vpt2 vpt 2 mul def} def
/DL {Color {setrgbcolor Solid {pop []} if 0 setdash}
 {pop pop pop 0 setgray Solid {pop []} if 0 setdash} ifelse} def
/BL {stroke userlinewidth 2 mul setlinewidth
	Rounded {1 setlinejoin 1 setlinecap} if} def
/AL {stroke userlinewidth 2 div setlinewidth
	Rounded {1 setlinejoin 1 setlinecap} if} def
/UL {dup gnulinewidth mul /userlinewidth exch def
	dup 1 lt {pop 1} if 10 mul /udl exch def} def
/PL {stroke userlinewidth setlinewidth
	Rounded {1 setlinejoin 1 setlinecap} if} def
3.8 setmiterlimit
% Classic Line colors (version 5.0)
/LCw {1 1 1} def
/LCb {0 0 0} def
/LCa {0 0 0} def
/LC0 {1 0 0} def
/LC1 {0 1 0} def
/LC2 {0 0 1} def
/LC3 {1 0 1} def
/LC4 {0 1 1} def
/LC5 {1 1 0} def
/LC6 {0 0 0} def
/LC7 {1 0.3 0} def
/LC8 {0.5 0.5 0.5} def
% Default dash patterns (version 5.0)
/LTB {BL [] LCb DL} def
/LTw {PL [] 1 setgray} def
/LTb {PL [] LCb DL} def
/LTa {AL [1 udl mul 2 udl mul] 0 setdash LCa setrgbcolor} def
/LT0 {PL [] LC0 DL} def
/LT1 {PL [2 dl1 3 dl2] LC1 DL} def
/LT2 {PL [1 dl1 1.5 dl2] LC2 DL} def
/LT3 {PL [6 dl1 2 dl2 1 dl1 2 dl2] LC3 DL} def
/LT4 {PL [1 dl1 2 dl2 6 dl1 2 dl2 1 dl1 2 dl2] LC4 DL} def
/LT5 {PL [4 dl1 2 dl2] LC5 DL} def
/LT6 {PL [1.5 dl1 1.5 dl2 1.5 dl1 1.5 dl2 1.5 dl1 6 dl2] LC6 DL} def
/LT7 {PL [3 dl1 3 dl2 1 dl1 3 dl2] LC7 DL} def
/LT8 {PL [2 dl1 2 dl2 2 dl1 6 dl2] LC8 DL} def
/SL {[] 0 setdash} def
/Pnt {stroke [] 0 setdash gsave 1 setlinecap M 0 0 V stroke grestore} def
/Dia {stroke [] 0 setdash 2 copy vpt add M
  hpt neg vpt neg V hpt vpt neg V
  hpt vpt V hpt neg vpt V closepath stroke
  Pnt} def
/Pls {stroke [] 0 setdash vpt sub M 0 vpt2 V
  currentpoint stroke M
  hpt neg vpt neg R hpt2 0 V stroke
 } def
/Box {stroke [] 0 setdash 2 copy exch hpt sub exch vpt add M
  0 vpt2 neg V hpt2 0 V 0 vpt2 V
  hpt2 neg 0 V closepath stroke
  Pnt} def
/Crs {stroke [] 0 setdash exch hpt sub exch vpt add M
  hpt2 vpt2 neg V currentpoint stroke M
  hpt2 neg 0 R hpt2 vpt2 V stroke} def
/TriU {stroke [] 0 setdash 2 copy vpt 1.12 mul add M
  hpt neg vpt -1.62 mul V
  hpt 2 mul 0 V
  hpt neg vpt 1.62 mul V closepath stroke
  Pnt} def
/Star {2 copy Pls Crs} def
/BoxF {stroke [] 0 setdash exch hpt sub exch vpt add M
  0 vpt2 neg V hpt2 0 V 0 vpt2 V
  hpt2 neg 0 V closepath fill} def
/TriUF {stroke [] 0 setdash vpt 1.12 mul add M
  hpt neg vpt -1.62 mul V
  hpt 2 mul 0 V
  hpt neg vpt 1.62 mul V closepath fill} def
/TriD {stroke [] 0 setdash 2 copy vpt 1.12 mul sub M
  hpt neg vpt 1.62 mul V
  hpt 2 mul 0 V
  hpt neg vpt -1.62 mul V closepath stroke
  Pnt} def
/TriDF {stroke [] 0 setdash vpt 1.12 mul sub M
  hpt neg vpt 1.62 mul V
  hpt 2 mul 0 V
  hpt neg vpt -1.62 mul V closepath fill} def
/DiaF {stroke [] 0 setdash vpt add M
  hpt neg vpt neg V hpt vpt neg V
  hpt vpt V hpt neg vpt V closepath fill} def
/Pent {stroke [] 0 setdash 2 copy gsave
  translate 0 hpt M 4 {72 rotate 0 hpt L} repeat
  closepath stroke grestore Pnt} def
/PentF {stroke [] 0 setdash gsave
  translate 0 hpt M 4 {72 rotate 0 hpt L} repeat
  closepath fill grestore} def
/Circle {stroke [] 0 setdash 2 copy
  hpt 0 360 arc stroke Pnt} def
/CircleF {stroke [] 0 setdash hpt 0 360 arc fill} def
/C0 {BL [] 0 setdash 2 copy moveto vpt 90 450 arc} bind def
/C1 {BL [] 0 setdash 2 copy moveto
	2 copy vpt 0 90 arc closepath fill
	vpt 0 360 arc closepath} bind def
/C2 {BL [] 0 setdash 2 copy moveto
	2 copy vpt 90 180 arc closepath fill
	vpt 0 360 arc closepath} bind def
/C3 {BL [] 0 setdash 2 copy moveto
	2 copy vpt 0 180 arc closepath fill
	vpt 0 360 arc closepath} bind def
/C4 {BL [] 0 setdash 2 copy moveto
	2 copy vpt 180 270 arc closepath fill
	vpt 0 360 arc closepath} bind def
/C5 {BL [] 0 setdash 2 copy moveto
	2 copy vpt 0 90 arc
	2 copy moveto
	2 copy vpt 180 270 arc closepath fill
	vpt 0 360 arc} bind def
/C6 {BL [] 0 setdash 2 copy moveto
	2 copy vpt 90 270 arc closepath fill
	vpt 0 360 arc closepath} bind def
/C7 {BL [] 0 setdash 2 copy moveto
	2 copy vpt 0 270 arc closepath fill
	vpt 0 360 arc closepath} bind def
/C8 {BL [] 0 setdash 2 copy moveto
	2 copy vpt 270 360 arc closepath fill
	vpt 0 360 arc closepath} bind def
/C9 {BL [] 0 setdash 2 copy moveto
	2 copy vpt 270 450 arc closepath fill
	vpt 0 360 arc closepath} bind def
/C10 {BL [] 0 setdash 2 copy 2 copy moveto vpt 270 360 arc closepath fill
	2 copy moveto
	2 copy vpt 90 180 arc closepath fill
	vpt 0 360 arc closepath} bind def
/C11 {BL [] 0 setdash 2 copy moveto
	2 copy vpt 0 180 arc closepath fill
	2 copy moveto
	2 copy vpt 270 360 arc closepath fill
	vpt 0 360 arc closepath} bind def
/C12 {BL [] 0 setdash 2 copy moveto
	2 copy vpt 180 360 arc closepath fill
	vpt 0 360 arc closepath} bind def
/C13 {BL [] 0 setdash 2 copy moveto
	2 copy vpt 0 90 arc closepath fill
	2 copy moveto
	2 copy vpt 180 360 arc closepath fill
	vpt 0 360 arc closepath} bind def
/C14 {BL [] 0 setdash 2 copy moveto
	2 copy vpt 90 360 arc closepath fill
	vpt 0 360 arc} bind def
/C15 {BL [] 0 setdash 2 copy vpt 0 360 arc closepath fill
	vpt 0 360 arc closepath} bind def
/Rec {newpath 4 2 roll moveto 1 index 0 rlineto 0 exch rlineto
	neg 0 rlineto closepath} bind def
/Square {dup Rec} bind def
/Bsquare {vpt sub exch vpt sub exch vpt2 Square} bind def
/S0 {BL [] 0 setdash 2 copy moveto 0 vpt rlineto BL Bsquare} bind def
/S1 {BL [] 0 setdash 2 copy vpt Square fill Bsquare} bind def
/S2 {BL [] 0 setdash 2 copy exch vpt sub exch vpt Square fill Bsquare} bind def
/S3 {BL [] 0 setdash 2 copy exch vpt sub exch vpt2 vpt Rec fill Bsquare} bind def
/S4 {BL [] 0 setdash 2 copy exch vpt sub exch vpt sub vpt Square fill Bsquare} bind def
/S5 {BL [] 0 setdash 2 copy 2 copy vpt Square fill
	exch vpt sub exch vpt sub vpt Square fill Bsquare} bind def
/S6 {BL [] 0 setdash 2 copy exch vpt sub exch vpt sub vpt vpt2 Rec fill Bsquare} bind def
/S7 {BL [] 0 setdash 2 copy exch vpt sub exch vpt sub vpt vpt2 Rec fill
	2 copy vpt Square fill Bsquare} bind def
/S8 {BL [] 0 setdash 2 copy vpt sub vpt Square fill Bsquare} bind def
/S9 {BL [] 0 setdash 2 copy vpt sub vpt vpt2 Rec fill Bsquare} bind def
/S10 {BL [] 0 setdash 2 copy vpt sub vpt Square fill 2 copy exch vpt sub exch vpt Square fill
	Bsquare} bind def
/S11 {BL [] 0 setdash 2 copy vpt sub vpt Square fill 2 copy exch vpt sub exch vpt2 vpt Rec fill
	Bsquare} bind def
/S12 {BL [] 0 setdash 2 copy exch vpt sub exch vpt sub vpt2 vpt Rec fill Bsquare} bind def
/S13 {BL [] 0 setdash 2 copy exch vpt sub exch vpt sub vpt2 vpt Rec fill
	2 copy vpt Square fill Bsquare} bind def
/S14 {BL [] 0 setdash 2 copy exch vpt sub exch vpt sub vpt2 vpt Rec fill
	2 copy exch vpt sub exch vpt Square fill Bsquare} bind def
/S15 {BL [] 0 setdash 2 copy Bsquare fill Bsquare} bind def
/D0 {gsave translate 45 rotate 0 0 S0 stroke grestore} bind def
/D1 {gsave translate 45 rotate 0 0 S1 stroke grestore} bind def
/D2 {gsave translate 45 rotate 0 0 S2 stroke grestore} bind def
/D3 {gsave translate 45 rotate 0 0 S3 stroke grestore} bind def
/D4 {gsave translate 45 rotate 0 0 S4 stroke grestore} bind def
/D5 {gsave translate 45 rotate 0 0 S5 stroke grestore} bind def
/D6 {gsave translate 45 rotate 0 0 S6 stroke grestore} bind def
/D7 {gsave translate 45 rotate 0 0 S7 stroke grestore} bind def
/D8 {gsave translate 45 rotate 0 0 S8 stroke grestore} bind def
/D9 {gsave translate 45 rotate 0 0 S9 stroke grestore} bind def
/D10 {gsave translate 45 rotate 0 0 S10 stroke grestore} bind def
/D11 {gsave translate 45 rotate 0 0 S11 stroke grestore} bind def
/D12 {gsave translate 45 rotate 0 0 S12 stroke grestore} bind def
/D13 {gsave translate 45 rotate 0 0 S13 stroke grestore} bind def
/D14 {gsave translate 45 rotate 0 0 S14 stroke grestore} bind def
/D15 {gsave translate 45 rotate 0 0 S15 stroke grestore} bind def
/DiaE {stroke [] 0 setdash vpt add M
  hpt neg vpt neg V hpt vpt neg V
  hpt vpt V hpt neg vpt V closepath stroke} def
/BoxE {stroke [] 0 setdash exch hpt sub exch vpt add M
  0 vpt2 neg V hpt2 0 V 0 vpt2 V
  hpt2 neg 0 V closepath stroke} def
/TriUE {stroke [] 0 setdash vpt 1.12 mul add M
  hpt neg vpt -1.62 mul V
  hpt 2 mul 0 V
  hpt neg vpt 1.62 mul V closepath stroke} def
/TriDE {stroke [] 0 setdash vpt 1.12 mul sub M
  hpt neg vpt 1.62 mul V
  hpt 2 mul 0 V
  hpt neg vpt -1.62 mul V closepath stroke} def
/PentE {stroke [] 0 setdash gsave
  translate 0 hpt M 4 {72 rotate 0 hpt L} repeat
  closepath stroke grestore} def
/CircE {stroke [] 0 setdash 
  hpt 0 360 arc stroke} def
/Opaque {gsave closepath 1 setgray fill grestore 0 setgray closepath} def
/DiaW {stroke [] 0 setdash vpt add M
  hpt neg vpt neg V hpt vpt neg V
  hpt vpt V hpt neg vpt V Opaque stroke} def
/BoxW {stroke [] 0 setdash exch hpt sub exch vpt add M
  0 vpt2 neg V hpt2 0 V 0 vpt2 V
  hpt2 neg 0 V Opaque stroke} def
/TriUW {stroke [] 0 setdash vpt 1.12 mul add M
  hpt neg vpt -1.62 mul V
  hpt 2 mul 0 V
  hpt neg vpt 1.62 mul V Opaque stroke} def
/TriDW {stroke [] 0 setdash vpt 1.12 mul sub M
  hpt neg vpt 1.62 mul V
  hpt 2 mul 0 V
  hpt neg vpt -1.62 mul V Opaque stroke} def
/PentW {stroke [] 0 setdash gsave
  translate 0 hpt M 4 {72 rotate 0 hpt L} repeat
  Opaque stroke grestore} def
/CircW {stroke [] 0 setdash 
  hpt 0 360 arc Opaque stroke} def
/BoxFill {gsave Rec 1 setgray fill grestore} def
/Density {
  /Fillden exch def
  currentrgbcolor
  /ColB exch def /ColG exch def /ColR exch def
  /ColR ColR Fillden mul Fillden sub 1 add def
  /ColG ColG Fillden mul Fillden sub 1 add def
  /ColB ColB Fillden mul Fillden sub 1 add def
  ColR ColG ColB setrgbcolor} def
/BoxColFill {gsave Rec PolyFill} def
/PolyFill {gsave Density fill grestore grestore} def
/h {rlineto rlineto rlineto gsave closepath fill grestore} bind def
%
% PostScript Level 1 Pattern Fill routine for rectangles
% Usage: x y w h s a XX PatternFill
%	x,y = lower left corner of box to be filled
%	w,h = width and height of box
%	  a = angle in degrees between lines and x-axis
%	 XX = 0/1 for no/yes cross-hatch
%
/PatternFill {gsave /PFa [ 9 2 roll ] def
  PFa 0 get PFa 2 get 2 div add PFa 1 get PFa 3 get 2 div add translate
  PFa 2 get -2 div PFa 3 get -2 div PFa 2 get PFa 3 get Rec
  TransparentPatterns {} {gsave 1 setgray fill grestore} ifelse
  clip
  currentlinewidth 0.5 mul setlinewidth
  /PFs PFa 2 get dup mul PFa 3 get dup mul add sqrt def
  0 0 M PFa 5 get rotate PFs -2 div dup translate
  0 1 PFs PFa 4 get div 1 add floor cvi
	{PFa 4 get mul 0 M 0 PFs V} for
  0 PFa 6 get ne {
	0 1 PFs PFa 4 get div 1 add floor cvi
	{PFa 4 get mul 0 2 1 roll M PFs 0 V} for
 } if
  stroke grestore} def
%
/languagelevel where
 {pop languagelevel} {1} ifelse
dup 2 lt
	{/InterpretLevel1 true def
	 /InterpretLevel3 false def}
	{/InterpretLevel1 Level1 def
	 2 gt
	    {/InterpretLevel3 Level3 def}
	    {/InterpretLevel3 false def}
	 ifelse }
 ifelse
%
% PostScript level 2 pattern fill definitions
%
/Level2PatternFill {
/Tile8x8 {/PaintType 2 /PatternType 1 /TilingType 1 /BBox [0 0 8 8] /XStep 8 /YStep 8}
	bind def
/KeepColor {currentrgbcolor [/Pattern /DeviceRGB] setcolorspace} bind def
<< Tile8x8
 /PaintProc {0.5 setlinewidth pop 0 0 M 8 8 L 0 8 M 8 0 L stroke} 
>> matrix makepattern
/Pat1 exch def
<< Tile8x8
 /PaintProc {0.5 setlinewidth pop 0 0 M 8 8 L 0 8 M 8 0 L stroke
	0 4 M 4 8 L 8 4 L 4 0 L 0 4 L stroke}
>> matrix makepattern
/Pat2 exch def
<< Tile8x8
 /PaintProc {0.5 setlinewidth pop 0 0 M 0 8 L
	8 8 L 8 0 L 0 0 L fill}
>> matrix makepattern
/Pat3 exch def
<< Tile8x8
 /PaintProc {0.5 setlinewidth pop -4 8 M 8 -4 L
	0 12 M 12 0 L stroke}
>> matrix makepattern
/Pat4 exch def
<< Tile8x8
 /PaintProc {0.5 setlinewidth pop -4 0 M 8 12 L
	0 -4 M 12 8 L stroke}
>> matrix makepattern
/Pat5 exch def
<< Tile8x8
 /PaintProc {0.5 setlinewidth pop -2 8 M 4 -4 L
	0 12 M 8 -4 L 4 12 M 10 0 L stroke}
>> matrix makepattern
/Pat6 exch def
<< Tile8x8
 /PaintProc {0.5 setlinewidth pop -2 0 M 4 12 L
	0 -4 M 8 12 L 4 -4 M 10 8 L stroke}
>> matrix makepattern
/Pat7 exch def
<< Tile8x8
 /PaintProc {0.5 setlinewidth pop 8 -2 M -4 4 L
	12 0 M -4 8 L 12 4 M 0 10 L stroke}
>> matrix makepattern
/Pat8 exch def
<< Tile8x8
 /PaintProc {0.5 setlinewidth pop 0 -2 M 12 4 L
	-4 0 M 12 8 L -4 4 M 8 10 L stroke}
>> matrix makepattern
/Pat9 exch def
/Pattern1 {PatternBgnd KeepColor Pat1 setpattern} bind def
/Pattern2 {PatternBgnd KeepColor Pat2 setpattern} bind def
/Pattern3 {PatternBgnd KeepColor Pat3 setpattern} bind def
/Pattern4 {PatternBgnd KeepColor Landscape {Pat5} {Pat4} ifelse setpattern} bind def
/Pattern5 {PatternBgnd KeepColor Landscape {Pat4} {Pat5} ifelse setpattern} bind def
/Pattern6 {PatternBgnd KeepColor Landscape {Pat9} {Pat6} ifelse setpattern} bind def
/Pattern7 {PatternBgnd KeepColor Landscape {Pat8} {Pat7} ifelse setpattern} bind def
} def
%
%
%End of PostScript Level 2 code
%
/PatternBgnd {
  TransparentPatterns {} {gsave 1 setgray fill grestore} ifelse
} def
%
% Substitute for Level 2 pattern fill codes with
% grayscale if Level 2 support is not selected.
%
/Level1PatternFill {
/Pattern1 {0.250 Density} bind def
/Pattern2 {0.500 Density} bind def
/Pattern3 {0.750 Density} bind def
/Pattern4 {0.125 Density} bind def
/Pattern5 {0.375 Density} bind def
/Pattern6 {0.625 Density} bind def
/Pattern7 {0.875 Density} bind def
} def
%
% Now test for support of Level 2 code
%
Level1 {Level1PatternFill} {Level2PatternFill} ifelse
%
/Symbol-Oblique /Symbol findfont [1 0 .167 1 0 0] makefont
dup length dict begin {1 index /FID eq {pop pop} {def} ifelse} forall
currentdict end definefont pop
%
/MFshow {
   { dup 5 get 3 ge
     { 5 get 3 eq {gsave} {grestore} ifelse }
     {dup dup 0 get findfont exch 1 get scalefont setfont
     [ currentpoint ] exch dup 2 get 0 exch R dup 5 get 2 ne {dup dup 6
     get exch 4 get {textshow} {stringwidth pop 0 R} ifelse }if dup 5 get 0 eq
     {dup 3 get {2 get neg 0 exch R pop} {pop aload pop M} ifelse} {dup 5
     get 1 eq {dup 2 get exch dup 3 get exch 6 get stringwidth pop -2 div
     dup 0 R} {dup 6 get stringwidth pop -2 div 0 R 6 get
     textshow 2 index {aload pop M neg 3 -1 roll neg R pop pop} {pop pop pop
     pop aload pop M} ifelse }ifelse }ifelse }
     ifelse }
   forall} def
/Gswidth {dup type /stringtype eq {stringwidth} {pop (n) stringwidth} ifelse} def
/MFwidth {0 exch { dup 5 get 3 ge { 5 get 3 eq { 0 } { pop } ifelse }
 {dup 3 get{dup dup 0 get findfont exch 1 get scalefont setfont
     6 get Gswidth pop add} {pop} ifelse} ifelse} forall} def
/MLshow { currentpoint stroke M
  0 exch R
  Blacktext {gsave 0 setgray MFshow grestore} {MFshow} ifelse } bind def
/MRshow { currentpoint stroke M
  exch dup MFwidth neg 3 -1 roll R
  Blacktext {gsave 0 setgray MFshow grestore} {MFshow} ifelse } bind def
/MCshow { currentpoint stroke M
  exch dup MFwidth -2 div 3 -1 roll R
  Blacktext {gsave 0 setgray MFshow grestore} {MFshow} ifelse } bind def
/XYsave    { [( ) 1 2 true false 3 ()] } bind def
/XYrestore { [( ) 1 2 true false 4 ()] } bind def
Level1 SuppressPDFMark or 
{} {
/SDict 10 dict def
systemdict /pdfmark known not {
  userdict /pdfmark systemdict /cleartomark get put
} if
SDict begin [
  /Title (packets-s-minus-packets-uv-s-ccdf-loglin.eps)
  /Subject (gnuplot plot)
  /Creator (gnuplot 5.0 patchlevel 3)
  /Author (tiphaine)
%  /Producer (gnuplot)
%  /Keywords ()
  /CreationDate (Mon May 29 11:06:12 2017)
  /DOCINFO pdfmark
end
} ifelse
%
% Support for boxed text - Ethan A Merritt May 2005
%
/InitTextBox { userdict /TBy2 3 -1 roll put userdict /TBx2 3 -1 roll put
           userdict /TBy1 3 -1 roll put userdict /TBx1 3 -1 roll put
	   /Boxing true def } def
/ExtendTextBox { Boxing
    { gsave dup false charpath pathbbox
      dup TBy2 gt {userdict /TBy2 3 -1 roll put} {pop} ifelse
      dup TBx2 gt {userdict /TBx2 3 -1 roll put} {pop} ifelse
      dup TBy1 lt {userdict /TBy1 3 -1 roll put} {pop} ifelse
      dup TBx1 lt {userdict /TBx1 3 -1 roll put} {pop} ifelse
      grestore } if } def
/PopTextBox { newpath TBx1 TBxmargin sub TBy1 TBymargin sub M
               TBx1 TBxmargin sub TBy2 TBymargin add L
	       TBx2 TBxmargin add TBy2 TBymargin add L
	       TBx2 TBxmargin add TBy1 TBymargin sub L closepath } def
/DrawTextBox { PopTextBox stroke /Boxing false def} def
/FillTextBox { gsave PopTextBox 1 1 1 setrgbcolor fill grestore /Boxing false def} def
0 0 0 0 InitTextBox
/TBxmargin 20 def
/TBymargin 20 def
/Boxing false def
/textshow { ExtendTextBox Gshow } def
%
% redundant definitions for compatibility with prologue.ps older than 5.0.2
/LTB {BL [] LCb DL} def
/LTb {PL [] LCb DL} def
end
%%EndProlog
%%Page: 1 1
gnudict begin
gsave
doclip
50 50 translate
0.100 0.100 scale
90 rotate
0 -5040 translate
0 setgray
newpath
(Helvetica) findfont 140 scalefont setfont
BackgroundColor 0 lt 3 1 roll 0 lt exch 0 lt or or not {gsave BackgroundColor C clippath fill grestore} if
1.000 UL
LTb
LCb setrgbcolor
882 280 M
63 0 V
6002 0 R
-63 0 V
stroke
798 280 M
[ [(Helvetica) 140.0 0.0 true true 0 ( 0)]
] -46.7 MRshow
1.000 UL
LTb
LCb setrgbcolor
882 1045 M
63 0 V
6002 0 R
-63 0 V
stroke
798 1045 M
[ [(Helvetica) 140.0 0.0 true true 0 ( 5x10)]
[(Helvetica) 112.0 70.0 true true 0 (-5)]
] -60.7 MRshow
1.000 UL
LTb
LCb setrgbcolor
882 1810 M
63 0 V
6002 0 R
-63 0 V
stroke
798 1810 M
[ [(Helvetica) 140.0 0.0 true true 0 ( 0.0001)]
] -46.7 MRshow
1.000 UL
LTb
LCb setrgbcolor
882 2576 M
63 0 V
6002 0 R
-63 0 V
stroke
798 2576 M
[ [(Helvetica) 140.0 0.0 true true 0 ( 0.00015)]
] -46.7 MRshow
1.000 UL
LTb
LCb setrgbcolor
882 3341 M
63 0 V
6002 0 R
-63 0 V
stroke
798 3341 M
[ [(Helvetica) 140.0 0.0 true true 0 ( 0.0002)]
] -46.7 MRshow
1.000 UL
LTb
LCb setrgbcolor
882 4106 M
63 0 V
6002 0 R
-63 0 V
stroke
798 4106 M
[ [(Helvetica) 140.0 0.0 true true 0 ( 0.00025)]
] -46.7 MRshow
1.000 UL
LTb
LCb setrgbcolor
882 4871 M
63 0 V
6002 0 R
-63 0 V
stroke
798 4871 M
[ [(Helvetica) 140.0 0.0 true true 0 ( 0.0003)]
] -46.7 MRshow
1.000 UL
LTb
LCb setrgbcolor
882 280 M
0 63 V
0 4528 R
0 -63 V
stroke
882 140 M
[ [(Helvetica) 140.0 0.0 true true 0 ( 1)]
] -46.7 MCshow
1.000 UL
LTb
LCb setrgbcolor
1143 280 M
0 31 V
0 4560 R
0 -31 V
1488 280 M
0 31 V
0 4560 R
0 -31 V
1664 280 M
0 31 V
0 4560 R
0 -31 V
1748 280 M
0 63 V
0 4528 R
0 -63 V
stroke
1748 140 M
[ [(Helvetica) 140.0 0.0 true true 0 ( 10)]
] -46.7 MCshow
1.000 UL
LTb
LCb setrgbcolor
2009 280 M
0 31 V
0 4560 R
0 -31 V
2354 280 M
0 31 V
0 4560 R
0 -31 V
2531 280 M
0 31 V
0 4560 R
0 -31 V
2615 280 M
0 63 V
0 4528 R
0 -63 V
stroke
2615 140 M
[ [(Helvetica) 140.0 0.0 true true 0 ( 100)]
] -46.7 MCshow
1.000 UL
LTb
LCb setrgbcolor
2876 280 M
0 31 V
0 4560 R
0 -31 V
3220 280 M
0 31 V
0 4560 R
0 -31 V
3397 280 M
0 31 V
0 4560 R
0 -31 V
3481 280 M
0 63 V
0 4528 R
0 -63 V
stroke
3481 140 M
[ [(Helvetica) 140.0 0.0 true true 0 ( 1000)]
] -46.7 MCshow
1.000 UL
LTb
LCb setrgbcolor
3742 280 M
0 31 V
0 4560 R
0 -31 V
4087 280 M
0 31 V
0 4560 R
0 -31 V
4264 280 M
0 31 V
0 4560 R
0 -31 V
4348 280 M
0 63 V
0 4528 R
0 -63 V
stroke
4348 140 M
[ [(Helvetica) 140.0 0.0 true true 0 ( 10000)]
] -46.7 MCshow
1.000 UL
LTb
LCb setrgbcolor
4609 280 M
0 31 V
0 4560 R
0 -31 V
4953 280 M
0 31 V
0 4560 R
0 -31 V
5130 280 M
0 31 V
0 4560 R
0 -31 V
5214 280 M
0 63 V
0 4528 R
0 -63 V
stroke
5214 140 M
[ [(Helvetica) 140.0 0.0 true true 0 ( 100000)]
] -46.7 MCshow
1.000 UL
LTb
LCb setrgbcolor
5475 280 M
0 31 V
0 4560 R
0 -31 V
5820 280 M
0 31 V
0 4560 R
0 -31 V
5997 280 M
0 31 V
0 4560 R
0 -31 V
6081 280 M
0 63 V
0 4528 R
0 -63 V
stroke
6081 140 M
[ [(Helvetica) 140.0 0.0 true true 0 ( 1x10)]
[(Helvetica) 112.0 70.0 true true 0 (6)]
] -60.7 MCshow
1.000 UL
LTb
LCb setrgbcolor
6341 280 M
0 31 V
0 4560 R
0 -31 V
6686 280 M
0 31 V
0 4560 R
0 -31 V
6863 280 M
0 31 V
0 4560 R
0 -31 V
6947 280 M
0 63 V
0 4528 R
0 -63 V
stroke
6947 140 M
[ [(Helvetica) 140.0 0.0 true true 0 ( 1x10)]
[(Helvetica) 112.0 70.0 true true 0 (7)]
] -60.7 MCshow
1.000 UL
LTb
LCb setrgbcolor
1.000 UL
LTB
LCb setrgbcolor
882 4871 N
882 280 L
6065 0 V
0 4591 V
-6065 0 V
Z stroke
1.000 UP
1.000 UL
LTb
LCb setrgbcolor
% Begin plot #1
1.000 UP
1.000 UL
LTb
0.58 0.00 0.83 C 882 4549 Pls
1488 4542 Pls
2423 4535 Pls
2453 4528 Pls
2496 4521 Pls
2647 4513 Pls
2757 4506 Pls
2812 4499 Pls
2894 4492 Pls
2923 4485 Pls
3015 4477 Pls
3022 4470 Pls
3027 4463 Pls
3082 4456 Pls
3100 4449 Pls
3101 4441 Pls
3111 4434 Pls
3112 4427 Pls
3118 4420 Pls
3142 4413 Pls
3146 4405 Pls
3237 4398 Pls
3269 4391 Pls
3276 4384 Pls
3286 4377 Pls
3297 4369 Pls
3315 4362 Pls
3326 4355 Pls
3343 4348 Pls
3351 4341 Pls
3380 4333 Pls
3387 4326 Pls
3404 4319 Pls
3439 4312 Pls
3470 4305 Pls
3478 4297 Pls
3499 4290 Pls
3533 4283 Pls
3536 4276 Pls
3537 4269 Pls
3554 4261 Pls
3556 4254 Pls
3560 4247 Pls
3570 4240 Pls
3572 4233 Pls
3591 4225 Pls
3593 4218 Pls
3604 4211 Pls
3611 4204 Pls
3623 4197 Pls
3633 4189 Pls
3637 4182 Pls
3639 4175 Pls
3642 4168 Pls
3647 4161 Pls
3656 4153 Pls
3659 4146 Pls
3663 4139 Pls
3673 4132 Pls
3680 4125 Pls
3682 4117 Pls
3683 4110 Pls
3702 4103 Pls
3703 4096 Pls
3712 4089 Pls
3721 4081 Pls
3722 4074 Pls
3727 4067 Pls
3727 4060 Pls
3734 4053 Pls
3735 4045 Pls
3736 4038 Pls
3746 4031 Pls
3747 4024 Pls
3750 4017 Pls
3752 4009 Pls
3755 4002 Pls
3756 3995 Pls
3756 3988 Pls
3756 3981 Pls
3757 3973 Pls
3761 3966 Pls
3763 3959 Pls
3764 3952 Pls
3786 3945 Pls
3789 3937 Pls
3796 3930 Pls
3796 3923 Pls
3801 3916 Pls
3802 3909 Pls
3807 3901 Pls
3807 3894 Pls
3808 3880 Pls
3808 3873 Pls
3809 3858 Pls
3809 3851 Pls
3810 3844 Pls
3810 3837 Pls
3811 3829 Pls
3812 3822 Pls
3813 3815 Pls
3813 3808 Pls
3817 3801 Pls
3818 3793 Pls
3819 3786 Pls
3821 3779 Pls
3822 3772 Pls
3838 3765 Pls
3845 3757 Pls
3846 3750 Pls
3853 3743 Pls
3856 3736 Pls
3857 3729 Pls
3863 3721 Pls
3879 3714 Pls
3879 3707 Pls
3880 3700 Pls
3882 3693 Pls
3887 3685 Pls
3887 3671 Pls
3888 3664 Pls
3903 3657 Pls
3922 3649 Pls
3932 3642 Pls
3934 3635 Pls
3936 3628 Pls
3939 3621 Pls
3941 3613 Pls
3945 3606 Pls
3954 3599 Pls
3954 3592 Pls
3955 3585 Pls
3955 3577 Pls
3956 3570 Pls
3960 3563 Pls
3962 3556 Pls
3962 3549 Pls
3963 3541 Pls
3963 3534 Pls
3973 3527 Pls
3989 3520 Pls
3990 3513 Pls
3991 3505 Pls
3992 3498 Pls
3992 3491 Pls
3995 3484 Pls
4006 3477 Pls
4009 3469 Pls
4012 3462 Pls
4016 3455 Pls
4025 3448 Pls
4031 3441 Pls
4036 3433 Pls
4036 3426 Pls
4039 3419 Pls
4045 3412 Pls
4045 3405 Pls
4046 3397 Pls
4051 3390 Pls
4055 3383 Pls
4056 3376 Pls
4058 3369 Pls
4067 3361 Pls
4069 3354 Pls
4069 3347 Pls
4069 3340 Pls
4072 3333 Pls
4075 3325 Pls
4080 3318 Pls
4081 3311 Pls
4086 3304 Pls
4087 3297 Pls
4094 3289 Pls
4095 3282 Pls
4095 3275 Pls
4097 3268 Pls
4099 3261 Pls
4107 3253 Pls
4109 3246 Pls
4113 3239 Pls
4121 3232 Pls
4126 3225 Pls
4129 3217 Pls
4132 3210 Pls
4138 3203 Pls
4138 3196 Pls
4140 3189 Pls
4148 3181 Pls
4150 3174 Pls
4150 3167 Pls
4159 3160 Pls
4173 3153 Pls
4178 3145 Pls
4178 3138 Pls
4179 3131 Pls
4189 3124 Pls
4190 3117 Pls
4191 3109 Pls
4193 3102 Pls
4198 3095 Pls
4203 3088 Pls
4216 3081 Pls
4220 3073 Pls
4220 3066 Pls
4221 3059 Pls
4228 3052 Pls
4229 3045 Pls
4231 3037 Pls
4234 3030 Pls
4237 3023 Pls
4237 3016 Pls
4240 3009 Pls
4242 3001 Pls
4245 2994 Pls
4245 2987 Pls
4246 2980 Pls
4248 2973 Pls
4248 2965 Pls
4250 2958 Pls
4250 2951 Pls
4254 2944 Pls
4265 2937 Pls
4266 2929 Pls
4267 2922 Pls
4267 2915 Pls
4269 2908 Pls
4275 2901 Pls
4276 2893 Pls
4285 2886 Pls
4286 2879 Pls
4289 2872 Pls
4294 2865 Pls
4294 2857 Pls
4294 2850 Pls
4297 2843 Pls
4298 2836 Pls
4301 2829 Pls
4303 2821 Pls
4306 2814 Pls
4314 2807 Pls
4317 2800 Pls
4320 2793 Pls
4322 2785 Pls
4324 2778 Pls
4325 2771 Pls
4326 2764 Pls
4328 2757 Pls
4334 2749 Pls
4336 2742 Pls
4339 2735 Pls
4342 2728 Pls
4342 2721 Pls
4347 2713 Pls
4355 2706 Pls
4357 2699 Pls
4358 2692 Pls
4358 2685 Pls
4365 2677 Pls
4367 2670 Pls
4367 2663 Pls
4368 2656 Pls
4371 2649 Pls
4372 2641 Pls
4380 2634 Pls
4386 2627 Pls
4393 2620 Pls
4401 2613 Pls
4402 2605 Pls
4402 2598 Pls
4410 2591 Pls
4410 2584 Pls
4411 2577 Pls
4416 2570 Pls
4416 2562 Pls
4418 2555 Pls
4430 2548 Pls
4435 2541 Pls
4435 2534 Pls
4436 2526 Pls
4440 2519 Pls
4447 2512 Pls
4449 2505 Pls
4454 2497 Pls
4455 2490 Pls
4463 2483 Pls
4465 2476 Pls
4473 2469 Pls
4476 2462 Pls
4478 2454 Pls
4479 2447 Pls
4481 2440 Pls
4483 2433 Pls
4494 2426 Pls
4496 2418 Pls
4497 2411 Pls
4500 2404 Pls
4501 2397 Pls
4502 2390 Pls
4505 2382 Pls
4507 2375 Pls
4508 2368 Pls
4508 2361 Pls
4516 2354 Pls
4518 2346 Pls
4523 2339 Pls
4524 2332 Pls
4525 2325 Pls
4530 2318 Pls
4532 2310 Pls
4535 2303 Pls
4538 2296 Pls
4543 2289 Pls
4548 2282 Pls
4550 2274 Pls
4552 2267 Pls
4553 2260 Pls
4555 2253 Pls
4557 2246 Pls
4559 2238 Pls
4561 2231 Pls
4564 2224 Pls
4567 2217 Pls
4570 2210 Pls
4570 2202 Pls
4574 2195 Pls
4583 2188 Pls
4588 2181 Pls
4589 2174 Pls
4590 2166 Pls
4591 2159 Pls
4596 2152 Pls
4596 2145 Pls
4603 2138 Pls
4605 2130 Pls
4608 2123 Pls
4611 2116 Pls
4615 2109 Pls
4616 2102 Pls
4631 2094 Pls
4632 2087 Pls
4633 2080 Pls
4634 2073 Pls
4637 2066 Pls
4639 2058 Pls
4640 2051 Pls
4642 2044 Pls
4642 2037 Pls
4651 2030 Pls
4652 2022 Pls
4652 2015 Pls
4654 2008 Pls
4654 2001 Pls
4660 1994 Pls
4666 1986 Pls
4669 1979 Pls
4670 1972 Pls
4674 1965 Pls
4679 1958 Pls
4681 1950 Pls
4684 1943 Pls
4684 1936 Pls
4685 1929 Pls
4688 1922 Pls
4698 1914 Pls
4699 1907 Pls
4702 1900 Pls
4704 1893 Pls
4705 1886 Pls
4709 1878 Pls
4719 1871 Pls
4724 1864 Pls
4724 1857 Pls
4727 1850 Pls
4732 1842 Pls
4735 1835 Pls
4745 1828 Pls
4746 1821 Pls
4748 1814 Pls
4748 1806 Pls
4756 1799 Pls
4757 1792 Pls
4760 1785 Pls
4760 1778 Pls
4762 1770 Pls
4764 1763 Pls
4769 1756 Pls
4772 1749 Pls
4773 1742 Pls
4774 1734 Pls
4783 1727 Pls
4787 1720 Pls
4787 1713 Pls
4788 1706 Pls
4789 1698 Pls
4790 1691 Pls
4791 1684 Pls
4797 1677 Pls
4800 1670 Pls
4804 1662 Pls
4807 1655 Pls
4808 1648 Pls
4809 1641 Pls
4811 1634 Pls
4811 1626 Pls
4813 1619 Pls
4816 1612 Pls
4817 1605 Pls
4822 1598 Pls
4826 1590 Pls
4833 1583 Pls
4835 1576 Pls
4836 1569 Pls
4837 1562 Pls
4840 1554 Pls
4849 1547 Pls
4854 1540 Pls
4856 1533 Pls
4857 1526 Pls
4863 1518 Pls
4864 1511 Pls
4870 1504 Pls
4871 1497 Pls
4878 1490 Pls
4881 1482 Pls
4884 1475 Pls
4885 1468 Pls
4887 1461 Pls
4888 1454 Pls
4888 1446 Pls
4889 1439 Pls
4902 1432 Pls
4903 1425 Pls
4908 1418 Pls
4924 1410 Pls
4928 1403 Pls
4929 1396 Pls
4934 1389 Pls
4937 1382 Pls
4938 1374 Pls
4940 1367 Pls
4946 1360 Pls
4953 1353 Pls
4960 1346 Pls
4961 1338 Pls
4963 1331 Pls
4966 1324 Pls
4968 1317 Pls
4969 1310 Pls
4971 1302 Pls
4973 1295 Pls
4974 1288 Pls
4982 1281 Pls
4985 1274 Pls
4991 1266 Pls
4994 1259 Pls
4998 1252 Pls
5000 1245 Pls
5005 1238 Pls
5006 1230 Pls
5015 1223 Pls
5015 1216 Pls
5015 1209 Pls
5017 1202 Pls
5018 1194 Pls
5020 1187 Pls
5024 1180 Pls
5028 1173 Pls
5028 1166 Pls
5029 1158 Pls
5032 1151 Pls
5036 1144 Pls
5037 1137 Pls
5040 1130 Pls
5043 1122 Pls
5045 1115 Pls
5048 1108 Pls
5054 1101 Pls
5055 1094 Pls
5057 1086 Pls
5057 1079 Pls
5062 1072 Pls
5068 1065 Pls
5073 1058 Pls
5083 1050 Pls
5094 1043 Pls
5101 1036 Pls
5104 1029 Pls
5112 1022 Pls
5113 1014 Pls
5119 1007 Pls
5130 1000 Pls
5138 993 Pls
5149 986 Pls
5163 978 Pls
5164 971 Pls
5168 964 Pls
5169 957 Pls
5170 950 Pls
5174 942 Pls
5174 935 Pls
5182 928 Pls
5184 921 Pls
5191 914 Pls
5193 906 Pls
5197 899 Pls
5203 892 Pls
5203 885 Pls
5210 878 Pls
5210 870 Pls
5211 863 Pls
5212 856 Pls
5216 849 Pls
5220 842 Pls
5226 834 Pls
5227 827 Pls
5228 820 Pls
5229 813 Pls
5232 806 Pls
5234 798 Pls
5241 791 Pls
5243 784 Pls
5245 777 Pls
5246 770 Pls
5258 762 Pls
5273 755 Pls
5278 748 Pls
5282 741 Pls
5294 734 Pls
5295 726 Pls
5303 719 Pls
5324 712 Pls
5334 705 Pls
5339 698 Pls
5342 690 Pls
5356 683 Pls
5373 676 Pls
5393 669 Pls
5396 662 Pls
5398 654 Pls
5402 647 Pls
5402 640 Pls
5408 633 Pls
5412 626 Pls
5414 618 Pls
5431 611 Pls
5433 604 Pls
5438 597 Pls
5439 590 Pls
5448 582 Pls
5455 575 Pls
5460 568 Pls
5464 561 Pls
5465 554 Pls
5469 546 Pls
5471 539 Pls
5488 532 Pls
5492 525 Pls
5505 518 Pls
5507 510 Pls
5508 503 Pls
5513 496 Pls
5536 489 Pls
5541 482 Pls
5543 474 Pls
5546 467 Pls
5563 460 Pls
5568 453 Pls
5667 446 Pls
5677 438 Pls
5688 431 Pls
5711 424 Pls
5759 417 Pls
5779 410 Pls
5783 402 Pls
5817 395 Pls
5926 388 Pls
5929 381 Pls
5950 374 Pls
5973 366 Pls
5989 359 Pls
5997 352 Pls
6055 345 Pls
6056 338 Pls
6066 330 Pls
6146 323 Pls
6177 316 Pls
6234 309 Pls
6255 302 Pls
6395 294 Pls
6516 287 Pls
% End plot #1
2.000 UL
LTb
LCb setrgbcolor
1.000 UL
LTB
LCb setrgbcolor
882 4871 N
882 280 L
6065 0 V
0 4591 V
-6065 0 V
Z stroke
1.000 UP
1.000 UL
LTb
LCb setrgbcolor
stroke
grestore
end
showpage
%%Trailer
%%DocumentFonts: Helvetica
%%Pages: 1
