%!PS-Adobe-2.0
%%Title: packets-s-minus-packets-uv-s-ccdf-loglog.eps
%%Creator: gnuplot 5.0 patchlevel 3
%%CreationDate: Mon May 29 11:06:12 2017
%%DocumentFonts: (atend)
%%BoundingBox: 50 50 554 770
%%Orientation: Landscape
%%Pages: (atend)
%%EndComments
%%BeginProlog
/gnudict 256 dict def
gnudict begin
%
% The following true/false flags may be edited by hand if desired.
% The unit line width and grayscale image gamma correction may also be changed.
%
/Color true def
/Blacktext false def
/Solid false def
/Dashlength 1 def
/Landscape true def
/Level1 false def
/Level3 false def
/Rounded false def
/ClipToBoundingBox false def
/SuppressPDFMark false def
/TransparentPatterns false def
/gnulinewidth 5.000 def
/userlinewidth gnulinewidth def
/Gamma 1.0 def
/BackgroundColor {-1.000 -1.000 -1.000} def
%
/vshift -46 def
/dl1 {
  10.0 Dashlength userlinewidth gnulinewidth div mul mul mul
  Rounded { currentlinewidth 0.75 mul sub dup 0 le { pop 0.01 } if } if
} def
/dl2 {
  10.0 Dashlength userlinewidth gnulinewidth div mul mul mul
  Rounded { currentlinewidth 0.75 mul add } if
} def
/hpt_ 31.5 def
/vpt_ 31.5 def
/hpt hpt_ def
/vpt vpt_ def
/doclip {
  ClipToBoundingBox {
    newpath 50 50 moveto 554 50 lineto 554 770 lineto 50 770 lineto closepath
    clip
  } if
} def
%
% Gnuplot Prolog Version 5.1 (Oct 2015)
%
%/SuppressPDFMark true def
%
/M {moveto} bind def
/L {lineto} bind def
/R {rmoveto} bind def
/V {rlineto} bind def
/N {newpath moveto} bind def
/Z {closepath} bind def
/C {setrgbcolor} bind def
/f {rlineto fill} bind def
/g {setgray} bind def
/Gshow {show} def   % May be redefined later in the file to support UTF-8
/vpt2 vpt 2 mul def
/hpt2 hpt 2 mul def
/Lshow {currentpoint stroke M 0 vshift R 
	Blacktext {gsave 0 setgray textshow grestore} {textshow} ifelse} def
/Rshow {currentpoint stroke M dup stringwidth pop neg vshift R
	Blacktext {gsave 0 setgray textshow grestore} {textshow} ifelse} def
/Cshow {currentpoint stroke M dup stringwidth pop -2 div vshift R 
	Blacktext {gsave 0 setgray textshow grestore} {textshow} ifelse} def
/UP {dup vpt_ mul /vpt exch def hpt_ mul /hpt exch def
  /hpt2 hpt 2 mul def /vpt2 vpt 2 mul def} def
/DL {Color {setrgbcolor Solid {pop []} if 0 setdash}
 {pop pop pop 0 setgray Solid {pop []} if 0 setdash} ifelse} def
/BL {stroke userlinewidth 2 mul setlinewidth
	Rounded {1 setlinejoin 1 setlinecap} if} def
/AL {stroke userlinewidth 2 div setlinewidth
	Rounded {1 setlinejoin 1 setlinecap} if} def
/UL {dup gnulinewidth mul /userlinewidth exch def
	dup 1 lt {pop 1} if 10 mul /udl exch def} def
/PL {stroke userlinewidth setlinewidth
	Rounded {1 setlinejoin 1 setlinecap} if} def
3.8 setmiterlimit
% Classic Line colors (version 5.0)
/LCw {1 1 1} def
/LCb {0 0 0} def
/LCa {0 0 0} def
/LC0 {1 0 0} def
/LC1 {0 1 0} def
/LC2 {0 0 1} def
/LC3 {1 0 1} def
/LC4 {0 1 1} def
/LC5 {1 1 0} def
/LC6 {0 0 0} def
/LC7 {1 0.3 0} def
/LC8 {0.5 0.5 0.5} def
% Default dash patterns (version 5.0)
/LTB {BL [] LCb DL} def
/LTw {PL [] 1 setgray} def
/LTb {PL [] LCb DL} def
/LTa {AL [1 udl mul 2 udl mul] 0 setdash LCa setrgbcolor} def
/LT0 {PL [] LC0 DL} def
/LT1 {PL [2 dl1 3 dl2] LC1 DL} def
/LT2 {PL [1 dl1 1.5 dl2] LC2 DL} def
/LT3 {PL [6 dl1 2 dl2 1 dl1 2 dl2] LC3 DL} def
/LT4 {PL [1 dl1 2 dl2 6 dl1 2 dl2 1 dl1 2 dl2] LC4 DL} def
/LT5 {PL [4 dl1 2 dl2] LC5 DL} def
/LT6 {PL [1.5 dl1 1.5 dl2 1.5 dl1 1.5 dl2 1.5 dl1 6 dl2] LC6 DL} def
/LT7 {PL [3 dl1 3 dl2 1 dl1 3 dl2] LC7 DL} def
/LT8 {PL [2 dl1 2 dl2 2 dl1 6 dl2] LC8 DL} def
/SL {[] 0 setdash} def
/Pnt {stroke [] 0 setdash gsave 1 setlinecap M 0 0 V stroke grestore} def
/Dia {stroke [] 0 setdash 2 copy vpt add M
  hpt neg vpt neg V hpt vpt neg V
  hpt vpt V hpt neg vpt V closepath stroke
  Pnt} def
/Pls {stroke [] 0 setdash vpt sub M 0 vpt2 V
  currentpoint stroke M
  hpt neg vpt neg R hpt2 0 V stroke
 } def
/Box {stroke [] 0 setdash 2 copy exch hpt sub exch vpt add M
  0 vpt2 neg V hpt2 0 V 0 vpt2 V
  hpt2 neg 0 V closepath stroke
  Pnt} def
/Crs {stroke [] 0 setdash exch hpt sub exch vpt add M
  hpt2 vpt2 neg V currentpoint stroke M
  hpt2 neg 0 R hpt2 vpt2 V stroke} def
/TriU {stroke [] 0 setdash 2 copy vpt 1.12 mul add M
  hpt neg vpt -1.62 mul V
  hpt 2 mul 0 V
  hpt neg vpt 1.62 mul V closepath stroke
  Pnt} def
/Star {2 copy Pls Crs} def
/BoxF {stroke [] 0 setdash exch hpt sub exch vpt add M
  0 vpt2 neg V hpt2 0 V 0 vpt2 V
  hpt2 neg 0 V closepath fill} def
/TriUF {stroke [] 0 setdash vpt 1.12 mul add M
  hpt neg vpt -1.62 mul V
  hpt 2 mul 0 V
  hpt neg vpt 1.62 mul V closepath fill} def
/TriD {stroke [] 0 setdash 2 copy vpt 1.12 mul sub M
  hpt neg vpt 1.62 mul V
  hpt 2 mul 0 V
  hpt neg vpt -1.62 mul V closepath stroke
  Pnt} def
/TriDF {stroke [] 0 setdash vpt 1.12 mul sub M
  hpt neg vpt 1.62 mul V
  hpt 2 mul 0 V
  hpt neg vpt -1.62 mul V closepath fill} def
/DiaF {stroke [] 0 setdash vpt add M
  hpt neg vpt neg V hpt vpt neg V
  hpt vpt V hpt neg vpt V closepath fill} def
/Pent {stroke [] 0 setdash 2 copy gsave
  translate 0 hpt M 4 {72 rotate 0 hpt L} repeat
  closepath stroke grestore Pnt} def
/PentF {stroke [] 0 setdash gsave
  translate 0 hpt M 4 {72 rotate 0 hpt L} repeat
  closepath fill grestore} def
/Circle {stroke [] 0 setdash 2 copy
  hpt 0 360 arc stroke Pnt} def
/CircleF {stroke [] 0 setdash hpt 0 360 arc fill} def
/C0 {BL [] 0 setdash 2 copy moveto vpt 90 450 arc} bind def
/C1 {BL [] 0 setdash 2 copy moveto
	2 copy vpt 0 90 arc closepath fill
	vpt 0 360 arc closepath} bind def
/C2 {BL [] 0 setdash 2 copy moveto
	2 copy vpt 90 180 arc closepath fill
	vpt 0 360 arc closepath} bind def
/C3 {BL [] 0 setdash 2 copy moveto
	2 copy vpt 0 180 arc closepath fill
	vpt 0 360 arc closepath} bind def
/C4 {BL [] 0 setdash 2 copy moveto
	2 copy vpt 180 270 arc closepath fill
	vpt 0 360 arc closepath} bind def
/C5 {BL [] 0 setdash 2 copy moveto
	2 copy vpt 0 90 arc
	2 copy moveto
	2 copy vpt 180 270 arc closepath fill
	vpt 0 360 arc} bind def
/C6 {BL [] 0 setdash 2 copy moveto
	2 copy vpt 90 270 arc closepath fill
	vpt 0 360 arc closepath} bind def
/C7 {BL [] 0 setdash 2 copy moveto
	2 copy vpt 0 270 arc closepath fill
	vpt 0 360 arc closepath} bind def
/C8 {BL [] 0 setdash 2 copy moveto
	2 copy vpt 270 360 arc closepath fill
	vpt 0 360 arc closepath} bind def
/C9 {BL [] 0 setdash 2 copy moveto
	2 copy vpt 270 450 arc closepath fill
	vpt 0 360 arc closepath} bind def
/C10 {BL [] 0 setdash 2 copy 2 copy moveto vpt 270 360 arc closepath fill
	2 copy moveto
	2 copy vpt 90 180 arc closepath fill
	vpt 0 360 arc closepath} bind def
/C11 {BL [] 0 setdash 2 copy moveto
	2 copy vpt 0 180 arc closepath fill
	2 copy moveto
	2 copy vpt 270 360 arc closepath fill
	vpt 0 360 arc closepath} bind def
/C12 {BL [] 0 setdash 2 copy moveto
	2 copy vpt 180 360 arc closepath fill
	vpt 0 360 arc closepath} bind def
/C13 {BL [] 0 setdash 2 copy moveto
	2 copy vpt 0 90 arc closepath fill
	2 copy moveto
	2 copy vpt 180 360 arc closepath fill
	vpt 0 360 arc closepath} bind def
/C14 {BL [] 0 setdash 2 copy moveto
	2 copy vpt 90 360 arc closepath fill
	vpt 0 360 arc} bind def
/C15 {BL [] 0 setdash 2 copy vpt 0 360 arc closepath fill
	vpt 0 360 arc closepath} bind def
/Rec {newpath 4 2 roll moveto 1 index 0 rlineto 0 exch rlineto
	neg 0 rlineto closepath} bind def
/Square {dup Rec} bind def
/Bsquare {vpt sub exch vpt sub exch vpt2 Square} bind def
/S0 {BL [] 0 setdash 2 copy moveto 0 vpt rlineto BL Bsquare} bind def
/S1 {BL [] 0 setdash 2 copy vpt Square fill Bsquare} bind def
/S2 {BL [] 0 setdash 2 copy exch vpt sub exch vpt Square fill Bsquare} bind def
/S3 {BL [] 0 setdash 2 copy exch vpt sub exch vpt2 vpt Rec fill Bsquare} bind def
/S4 {BL [] 0 setdash 2 copy exch vpt sub exch vpt sub vpt Square fill Bsquare} bind def
/S5 {BL [] 0 setdash 2 copy 2 copy vpt Square fill
	exch vpt sub exch vpt sub vpt Square fill Bsquare} bind def
/S6 {BL [] 0 setdash 2 copy exch vpt sub exch vpt sub vpt vpt2 Rec fill Bsquare} bind def
/S7 {BL [] 0 setdash 2 copy exch vpt sub exch vpt sub vpt vpt2 Rec fill
	2 copy vpt Square fill Bsquare} bind def
/S8 {BL [] 0 setdash 2 copy vpt sub vpt Square fill Bsquare} bind def
/S9 {BL [] 0 setdash 2 copy vpt sub vpt vpt2 Rec fill Bsquare} bind def
/S10 {BL [] 0 setdash 2 copy vpt sub vpt Square fill 2 copy exch vpt sub exch vpt Square fill
	Bsquare} bind def
/S11 {BL [] 0 setdash 2 copy vpt sub vpt Square fill 2 copy exch vpt sub exch vpt2 vpt Rec fill
	Bsquare} bind def
/S12 {BL [] 0 setdash 2 copy exch vpt sub exch vpt sub vpt2 vpt Rec fill Bsquare} bind def
/S13 {BL [] 0 setdash 2 copy exch vpt sub exch vpt sub vpt2 vpt Rec fill
	2 copy vpt Square fill Bsquare} bind def
/S14 {BL [] 0 setdash 2 copy exch vpt sub exch vpt sub vpt2 vpt Rec fill
	2 copy exch vpt sub exch vpt Square fill Bsquare} bind def
/S15 {BL [] 0 setdash 2 copy Bsquare fill Bsquare} bind def
/D0 {gsave translate 45 rotate 0 0 S0 stroke grestore} bind def
/D1 {gsave translate 45 rotate 0 0 S1 stroke grestore} bind def
/D2 {gsave translate 45 rotate 0 0 S2 stroke grestore} bind def
/D3 {gsave translate 45 rotate 0 0 S3 stroke grestore} bind def
/D4 {gsave translate 45 rotate 0 0 S4 stroke grestore} bind def
/D5 {gsave translate 45 rotate 0 0 S5 stroke grestore} bind def
/D6 {gsave translate 45 rotate 0 0 S6 stroke grestore} bind def
/D7 {gsave translate 45 rotate 0 0 S7 stroke grestore} bind def
/D8 {gsave translate 45 rotate 0 0 S8 stroke grestore} bind def
/D9 {gsave translate 45 rotate 0 0 S9 stroke grestore} bind def
/D10 {gsave translate 45 rotate 0 0 S10 stroke grestore} bind def
/D11 {gsave translate 45 rotate 0 0 S11 stroke grestore} bind def
/D12 {gsave translate 45 rotate 0 0 S12 stroke grestore} bind def
/D13 {gsave translate 45 rotate 0 0 S13 stroke grestore} bind def
/D14 {gsave translate 45 rotate 0 0 S14 stroke grestore} bind def
/D15 {gsave translate 45 rotate 0 0 S15 stroke grestore} bind def
/DiaE {stroke [] 0 setdash vpt add M
  hpt neg vpt neg V hpt vpt neg V
  hpt vpt V hpt neg vpt V closepath stroke} def
/BoxE {stroke [] 0 setdash exch hpt sub exch vpt add M
  0 vpt2 neg V hpt2 0 V 0 vpt2 V
  hpt2 neg 0 V closepath stroke} def
/TriUE {stroke [] 0 setdash vpt 1.12 mul add M
  hpt neg vpt -1.62 mul V
  hpt 2 mul 0 V
  hpt neg vpt 1.62 mul V closepath stroke} def
/TriDE {stroke [] 0 setdash vpt 1.12 mul sub M
  hpt neg vpt 1.62 mul V
  hpt 2 mul 0 V
  hpt neg vpt -1.62 mul V closepath stroke} def
/PentE {stroke [] 0 setdash gsave
  translate 0 hpt M 4 {72 rotate 0 hpt L} repeat
  closepath stroke grestore} def
/CircE {stroke [] 0 setdash 
  hpt 0 360 arc stroke} def
/Opaque {gsave closepath 1 setgray fill grestore 0 setgray closepath} def
/DiaW {stroke [] 0 setdash vpt add M
  hpt neg vpt neg V hpt vpt neg V
  hpt vpt V hpt neg vpt V Opaque stroke} def
/BoxW {stroke [] 0 setdash exch hpt sub exch vpt add M
  0 vpt2 neg V hpt2 0 V 0 vpt2 V
  hpt2 neg 0 V Opaque stroke} def
/TriUW {stroke [] 0 setdash vpt 1.12 mul add M
  hpt neg vpt -1.62 mul V
  hpt 2 mul 0 V
  hpt neg vpt 1.62 mul V Opaque stroke} def
/TriDW {stroke [] 0 setdash vpt 1.12 mul sub M
  hpt neg vpt 1.62 mul V
  hpt 2 mul 0 V
  hpt neg vpt -1.62 mul V Opaque stroke} def
/PentW {stroke [] 0 setdash gsave
  translate 0 hpt M 4 {72 rotate 0 hpt L} repeat
  Opaque stroke grestore} def
/CircW {stroke [] 0 setdash 
  hpt 0 360 arc Opaque stroke} def
/BoxFill {gsave Rec 1 setgray fill grestore} def
/Density {
  /Fillden exch def
  currentrgbcolor
  /ColB exch def /ColG exch def /ColR exch def
  /ColR ColR Fillden mul Fillden sub 1 add def
  /ColG ColG Fillden mul Fillden sub 1 add def
  /ColB ColB Fillden mul Fillden sub 1 add def
  ColR ColG ColB setrgbcolor} def
/BoxColFill {gsave Rec PolyFill} def
/PolyFill {gsave Density fill grestore grestore} def
/h {rlineto rlineto rlineto gsave closepath fill grestore} bind def
%
% PostScript Level 1 Pattern Fill routine for rectangles
% Usage: x y w h s a XX PatternFill
%	x,y = lower left corner of box to be filled
%	w,h = width and height of box
%	  a = angle in degrees between lines and x-axis
%	 XX = 0/1 for no/yes cross-hatch
%
/PatternFill {gsave /PFa [ 9 2 roll ] def
  PFa 0 get PFa 2 get 2 div add PFa 1 get PFa 3 get 2 div add translate
  PFa 2 get -2 div PFa 3 get -2 div PFa 2 get PFa 3 get Rec
  TransparentPatterns {} {gsave 1 setgray fill grestore} ifelse
  clip
  currentlinewidth 0.5 mul setlinewidth
  /PFs PFa 2 get dup mul PFa 3 get dup mul add sqrt def
  0 0 M PFa 5 get rotate PFs -2 div dup translate
  0 1 PFs PFa 4 get div 1 add floor cvi
	{PFa 4 get mul 0 M 0 PFs V} for
  0 PFa 6 get ne {
	0 1 PFs PFa 4 get div 1 add floor cvi
	{PFa 4 get mul 0 2 1 roll M PFs 0 V} for
 } if
  stroke grestore} def
%
/languagelevel where
 {pop languagelevel} {1} ifelse
dup 2 lt
	{/InterpretLevel1 true def
	 /InterpretLevel3 false def}
	{/InterpretLevel1 Level1 def
	 2 gt
	    {/InterpretLevel3 Level3 def}
	    {/InterpretLevel3 false def}
	 ifelse }
 ifelse
%
% PostScript level 2 pattern fill definitions
%
/Level2PatternFill {
/Tile8x8 {/PaintType 2 /PatternType 1 /TilingType 1 /BBox [0 0 8 8] /XStep 8 /YStep 8}
	bind def
/KeepColor {currentrgbcolor [/Pattern /DeviceRGB] setcolorspace} bind def
<< Tile8x8
 /PaintProc {0.5 setlinewidth pop 0 0 M 8 8 L 0 8 M 8 0 L stroke} 
>> matrix makepattern
/Pat1 exch def
<< Tile8x8
 /PaintProc {0.5 setlinewidth pop 0 0 M 8 8 L 0 8 M 8 0 L stroke
	0 4 M 4 8 L 8 4 L 4 0 L 0 4 L stroke}
>> matrix makepattern
/Pat2 exch def
<< Tile8x8
 /PaintProc {0.5 setlinewidth pop 0 0 M 0 8 L
	8 8 L 8 0 L 0 0 L fill}
>> matrix makepattern
/Pat3 exch def
<< Tile8x8
 /PaintProc {0.5 setlinewidth pop -4 8 M 8 -4 L
	0 12 M 12 0 L stroke}
>> matrix makepattern
/Pat4 exch def
<< Tile8x8
 /PaintProc {0.5 setlinewidth pop -4 0 M 8 12 L
	0 -4 M 12 8 L stroke}
>> matrix makepattern
/Pat5 exch def
<< Tile8x8
 /PaintProc {0.5 setlinewidth pop -2 8 M 4 -4 L
	0 12 M 8 -4 L 4 12 M 10 0 L stroke}
>> matrix makepattern
/Pat6 exch def
<< Tile8x8
 /PaintProc {0.5 setlinewidth pop -2 0 M 4 12 L
	0 -4 M 8 12 L 4 -4 M 10 8 L stroke}
>> matrix makepattern
/Pat7 exch def
<< Tile8x8
 /PaintProc {0.5 setlinewidth pop 8 -2 M -4 4 L
	12 0 M -4 8 L 12 4 M 0 10 L stroke}
>> matrix makepattern
/Pat8 exch def
<< Tile8x8
 /PaintProc {0.5 setlinewidth pop 0 -2 M 12 4 L
	-4 0 M 12 8 L -4 4 M 8 10 L stroke}
>> matrix makepattern
/Pat9 exch def
/Pattern1 {PatternBgnd KeepColor Pat1 setpattern} bind def
/Pattern2 {PatternBgnd KeepColor Pat2 setpattern} bind def
/Pattern3 {PatternBgnd KeepColor Pat3 setpattern} bind def
/Pattern4 {PatternBgnd KeepColor Landscape {Pat5} {Pat4} ifelse setpattern} bind def
/Pattern5 {PatternBgnd KeepColor Landscape {Pat4} {Pat5} ifelse setpattern} bind def
/Pattern6 {PatternBgnd KeepColor Landscape {Pat9} {Pat6} ifelse setpattern} bind def
/Pattern7 {PatternBgnd KeepColor Landscape {Pat8} {Pat7} ifelse setpattern} bind def
} def
%
%
%End of PostScript Level 2 code
%
/PatternBgnd {
  TransparentPatterns {} {gsave 1 setgray fill grestore} ifelse
} def
%
% Substitute for Level 2 pattern fill codes with
% grayscale if Level 2 support is not selected.
%
/Level1PatternFill {
/Pattern1 {0.250 Density} bind def
/Pattern2 {0.500 Density} bind def
/Pattern3 {0.750 Density} bind def
/Pattern4 {0.125 Density} bind def
/Pattern5 {0.375 Density} bind def
/Pattern6 {0.625 Density} bind def
/Pattern7 {0.875 Density} bind def
} def
%
% Now test for support of Level 2 code
%
Level1 {Level1PatternFill} {Level2PatternFill} ifelse
%
/Symbol-Oblique /Symbol findfont [1 0 .167 1 0 0] makefont
dup length dict begin {1 index /FID eq {pop pop} {def} ifelse} forall
currentdict end definefont pop
%
/MFshow {
   { dup 5 get 3 ge
     { 5 get 3 eq {gsave} {grestore} ifelse }
     {dup dup 0 get findfont exch 1 get scalefont setfont
     [ currentpoint ] exch dup 2 get 0 exch R dup 5 get 2 ne {dup dup 6
     get exch 4 get {textshow} {stringwidth pop 0 R} ifelse }if dup 5 get 0 eq
     {dup 3 get {2 get neg 0 exch R pop} {pop aload pop M} ifelse} {dup 5
     get 1 eq {dup 2 get exch dup 3 get exch 6 get stringwidth pop -2 div
     dup 0 R} {dup 6 get stringwidth pop -2 div 0 R 6 get
     textshow 2 index {aload pop M neg 3 -1 roll neg R pop pop} {pop pop pop
     pop aload pop M} ifelse }ifelse }ifelse }
     ifelse }
   forall} def
/Gswidth {dup type /stringtype eq {stringwidth} {pop (n) stringwidth} ifelse} def
/MFwidth {0 exch { dup 5 get 3 ge { 5 get 3 eq { 0 } { pop } ifelse }
 {dup 3 get{dup dup 0 get findfont exch 1 get scalefont setfont
     6 get Gswidth pop add} {pop} ifelse} ifelse} forall} def
/MLshow { currentpoint stroke M
  0 exch R
  Blacktext {gsave 0 setgray MFshow grestore} {MFshow} ifelse } bind def
/MRshow { currentpoint stroke M
  exch dup MFwidth neg 3 -1 roll R
  Blacktext {gsave 0 setgray MFshow grestore} {MFshow} ifelse } bind def
/MCshow { currentpoint stroke M
  exch dup MFwidth -2 div 3 -1 roll R
  Blacktext {gsave 0 setgray MFshow grestore} {MFshow} ifelse } bind def
/XYsave    { [( ) 1 2 true false 3 ()] } bind def
/XYrestore { [( ) 1 2 true false 4 ()] } bind def
Level1 SuppressPDFMark or 
{} {
/SDict 10 dict def
systemdict /pdfmark known not {
  userdict /pdfmark systemdict /cleartomark get put
} if
SDict begin [
  /Title (packets-s-minus-packets-uv-s-ccdf-loglog.eps)
  /Subject (gnuplot plot)
  /Creator (gnuplot 5.0 patchlevel 3)
  /Author (tiphaine)
%  /Producer (gnuplot)
%  /Keywords ()
  /CreationDate (Mon May 29 11:06:12 2017)
  /DOCINFO pdfmark
end
} ifelse
%
% Support for boxed text - Ethan A Merritt May 2005
%
/InitTextBox { userdict /TBy2 3 -1 roll put userdict /TBx2 3 -1 roll put
           userdict /TBy1 3 -1 roll put userdict /TBx1 3 -1 roll put
	   /Boxing true def } def
/ExtendTextBox { Boxing
    { gsave dup false charpath pathbbox
      dup TBy2 gt {userdict /TBy2 3 -1 roll put} {pop} ifelse
      dup TBx2 gt {userdict /TBx2 3 -1 roll put} {pop} ifelse
      dup TBy1 lt {userdict /TBy1 3 -1 roll put} {pop} ifelse
      dup TBx1 lt {userdict /TBx1 3 -1 roll put} {pop} ifelse
      grestore } if } def
/PopTextBox { newpath TBx1 TBxmargin sub TBy1 TBymargin sub M
               TBx1 TBxmargin sub TBy2 TBymargin add L
	       TBx2 TBxmargin add TBy2 TBymargin add L
	       TBx2 TBxmargin add TBy1 TBymargin sub L closepath } def
/DrawTextBox { PopTextBox stroke /Boxing false def} def
/FillTextBox { gsave PopTextBox 1 1 1 setrgbcolor fill grestore /Boxing false def} def
0 0 0 0 InitTextBox
/TBxmargin 20 def
/TBymargin 20 def
/Boxing false def
/textshow { ExtendTextBox Gshow } def
%
% redundant definitions for compatibility with prologue.ps older than 5.0.2
/LTB {BL [] LCb DL} def
/LTb {PL [] LCb DL} def
end
%%EndProlog
%%Page: 1 1
gnudict begin
gsave
doclip
50 50 translate
0.100 0.100 scale
90 rotate
0 -5040 translate
0 setgray
newpath
(Helvetica) findfont 140 scalefont setfont
BackgroundColor 0 lt 3 1 roll 0 lt exch 0 lt or or not {gsave BackgroundColor C clippath fill grestore} if
1.000 UL
LTb
LCb setrgbcolor
966 280 M
63 0 V
5918 0 R
-63 0 V
stroke
882 280 M
[ [(Helvetica) 140.0 0.0 true true 0 (0.0000001)]
] -46.7 MRshow
1.000 UL
LTb
LCb setrgbcolor
966 626 M
31 0 V
5950 0 R
-31 0 V
966 828 M
31 0 V
5950 0 R
-31 0 V
966 971 M
31 0 V
5950 0 R
-31 0 V
966 1082 M
31 0 V
5950 0 R
-31 0 V
966 1173 M
31 0 V
5950 0 R
-31 0 V
966 1250 M
31 0 V
5950 0 R
-31 0 V
966 1317 M
31 0 V
5950 0 R
-31 0 V
966 1375 M
31 0 V
5950 0 R
-31 0 V
966 1428 M
63 0 V
5918 0 R
-63 0 V
stroke
882 1428 M
[ [(Helvetica) 140.0 0.0 true true 0 (0.0000010)]
] -46.7 MRshow
1.000 UL
LTb
LCb setrgbcolor
966 1773 M
31 0 V
5950 0 R
-31 0 V
966 1975 M
31 0 V
5950 0 R
-31 0 V
966 2119 M
31 0 V
5950 0 R
-31 0 V
966 2230 M
31 0 V
5950 0 R
-31 0 V
966 2321 M
31 0 V
5950 0 R
-31 0 V
966 2398 M
31 0 V
5950 0 R
-31 0 V
966 2464 M
31 0 V
5950 0 R
-31 0 V
966 2523 M
31 0 V
5950 0 R
-31 0 V
966 2576 M
63 0 V
5918 0 R
-63 0 V
stroke
882 2576 M
[ [(Helvetica) 140.0 0.0 true true 0 (0.0000100)]
] -46.7 MRshow
1.000 UL
LTb
LCb setrgbcolor
966 2921 M
31 0 V
5950 0 R
-31 0 V
966 3123 M
31 0 V
5950 0 R
-31 0 V
966 3267 M
31 0 V
5950 0 R
-31 0 V
966 3378 M
31 0 V
5950 0 R
-31 0 V
966 3469 M
31 0 V
5950 0 R
-31 0 V
966 3545 M
31 0 V
5950 0 R
-31 0 V
966 3612 M
31 0 V
5950 0 R
-31 0 V
966 3671 M
31 0 V
5950 0 R
-31 0 V
966 3723 M
63 0 V
5918 0 R
-63 0 V
stroke
882 3723 M
[ [(Helvetica) 140.0 0.0 true true 0 (0.0001000)]
] -46.7 MRshow
1.000 UL
LTb
LCb setrgbcolor
966 4069 M
31 0 V
5950 0 R
-31 0 V
966 4271 M
31 0 V
5950 0 R
-31 0 V
966 4414 M
31 0 V
5950 0 R
-31 0 V
966 4525 M
31 0 V
5950 0 R
-31 0 V
966 4616 M
31 0 V
5950 0 R
-31 0 V
966 4693 M
31 0 V
5950 0 R
-31 0 V
966 4760 M
31 0 V
5950 0 R
-31 0 V
966 4818 M
31 0 V
5950 0 R
-31 0 V
966 4871 M
63 0 V
5918 0 R
-63 0 V
stroke
882 4871 M
[ [(Helvetica) 140.0 0.0 true true 0 (0.0010000)]
] -46.7 MRshow
1.000 UL
LTb
LCb setrgbcolor
966 280 M
0 63 V
0 4528 R
0 -63 V
stroke
966 140 M
[ [(Helvetica) 140.0 0.0 true true 0 ( 1)]
] -46.7 MCshow
1.000 UL
LTb
LCb setrgbcolor
1223 280 M
0 31 V
0 4560 R
0 -31 V
1563 280 M
0 31 V
0 4560 R
0 -31 V
1738 280 M
0 31 V
0 4560 R
0 -31 V
1820 280 M
0 63 V
0 4528 R
0 -63 V
stroke
1820 140 M
[ [(Helvetica) 140.0 0.0 true true 0 ( 10)]
] -46.7 MCshow
1.000 UL
LTb
LCb setrgbcolor
2078 280 M
0 31 V
0 4560 R
0 -31 V
2418 280 M
0 31 V
0 4560 R
0 -31 V
2592 280 M
0 31 V
0 4560 R
0 -31 V
2675 280 M
0 63 V
0 4528 R
0 -63 V
stroke
2675 140 M
[ [(Helvetica) 140.0 0.0 true true 0 ( 100)]
] -46.7 MCshow
1.000 UL
LTb
LCb setrgbcolor
2932 280 M
0 31 V
0 4560 R
0 -31 V
3272 280 M
0 31 V
0 4560 R
0 -31 V
3446 280 M
0 31 V
0 4560 R
0 -31 V
3529 280 M
0 63 V
0 4528 R
0 -63 V
stroke
3529 140 M
[ [(Helvetica) 140.0 0.0 true true 0 ( 1000)]
] -46.7 MCshow
1.000 UL
LTb
LCb setrgbcolor
3786 280 M
0 31 V
0 4560 R
0 -31 V
4127 280 M
0 31 V
0 4560 R
0 -31 V
4301 280 M
0 31 V
0 4560 R
0 -31 V
4384 280 M
0 63 V
0 4528 R
0 -63 V
stroke
4384 140 M
[ [(Helvetica) 140.0 0.0 true true 0 ( 10000)]
] -46.7 MCshow
1.000 UL
LTb
LCb setrgbcolor
4641 280 M
0 31 V
0 4560 R
0 -31 V
4981 280 M
0 31 V
0 4560 R
0 -31 V
5155 280 M
0 31 V
0 4560 R
0 -31 V
5238 280 M
0 63 V
0 4528 R
0 -63 V
stroke
5238 140 M
[ [(Helvetica) 140.0 0.0 true true 0 ( 100000)]
] -46.7 MCshow
1.000 UL
LTb
LCb setrgbcolor
5495 280 M
0 31 V
0 4560 R
0 -31 V
5835 280 M
0 31 V
0 4560 R
0 -31 V
6010 280 M
0 31 V
0 4560 R
0 -31 V
6093 280 M
0 63 V
0 4528 R
0 -63 V
stroke
6093 140 M
[ [(Helvetica) 140.0 0.0 true true 0 ( 1x10)]
[(Helvetica) 112.0 70.0 true true 0 (6)]
] -60.7 MCshow
1.000 UL
LTb
LCb setrgbcolor
6350 280 M
0 31 V
0 4560 R
0 -31 V
6690 280 M
0 31 V
0 4560 R
0 -31 V
6864 280 M
0 31 V
0 4560 R
0 -31 V
6947 280 M
0 63 V
0 4528 R
0 -63 V
stroke
6947 140 M
[ [(Helvetica) 140.0 0.0 true true 0 ( 1x10)]
[(Helvetica) 112.0 70.0 true true 0 (7)]
] -60.7 MCshow
1.000 UL
LTb
LCb setrgbcolor
1.000 UL
LTB
LCb setrgbcolor
966 4871 N
966 280 L
5981 0 V
0 4591 V
-5981 0 V
Z stroke
1.000 UP
1.000 UL
LTb
LCb setrgbcolor
% Begin plot #1
1.000 UP
1.000 UL
LTb
0.58 0.00 0.83 C 966 4235 Pls
1563 4234 Pls
2485 4233 Pls
2515 4232 Pls
2558 4231 Pls
2707 4230 Pls
2815 4230 Pls
2870 4229 Pls
2950 4228 Pls
2979 4227 Pls
3070 4226 Pls
3076 4225 Pls
3081 4224 Pls
3135 4224 Pls
3153 4223 Pls
3154 4222 Pls
3164 4221 Pls
3165 4220 Pls
3171 4219 Pls
3195 4218 Pls
3198 4218 Pls
3288 4217 Pls
3320 4216 Pls
3327 4215 Pls
3337 4214 Pls
3347 4213 Pls
3365 4212 Pls
3376 4211 Pls
3393 4211 Pls
3401 4210 Pls
3430 4209 Pls
3437 4208 Pls
3453 4207 Pls
3488 4206 Pls
3518 4205 Pls
3526 4204 Pls
3546 4203 Pls
3580 4203 Pls
3584 4202 Pls
3584 4201 Pls
3601 4200 Pls
3603 4199 Pls
3607 4198 Pls
3617 4197 Pls
3619 4196 Pls
3638 4195 Pls
3639 4194 Pls
3650 4194 Pls
3657 4193 Pls
3669 4192 Pls
3679 4191 Pls
3682 4190 Pls
3685 4189 Pls
3688 4188 Pls
3693 4187 Pls
3701 4186 Pls
3704 4185 Pls
3708 4184 Pls
3719 4183 Pls
3726 4182 Pls
3727 4181 Pls
3728 4181 Pls
3747 4180 Pls
3748 4179 Pls
3756 4178 Pls
3766 4177 Pls
3767 4176 Pls
3772 4175 Pls
3772 4174 Pls
3779 4173 Pls
3779 4172 Pls
3781 4171 Pls
3790 4170 Pls
3791 4169 Pls
3794 4168 Pls
3797 4167 Pls
3799 4166 Pls
3800 4165 Pls
3800 4164 Pls
3800 4163 Pls
3801 4162 Pls
3805 4161 Pls
3807 4160 Pls
3808 4160 Pls
3830 4159 Pls
3833 4158 Pls
3839 4157 Pls
3840 4156 Pls
3845 4155 Pls
3846 4154 Pls
3851 4153 Pls
3851 4152 Pls
3852 4150 Pls
3852 4149 Pls
3852 4147 Pls
3852 4146 Pls
3854 4145 Pls
3854 4144 Pls
3855 4143 Pls
3856 4142 Pls
3856 4141 Pls
3857 4140 Pls
3860 4139 Pls
3861 4138 Pls
3862 4137 Pls
3864 4135 Pls
3865 4134 Pls
3881 4133 Pls
3888 4132 Pls
3889 4131 Pls
3896 4130 Pls
3899 4129 Pls
3900 4128 Pls
3906 4127 Pls
3921 4126 Pls
3921 4125 Pls
3923 4124 Pls
3924 4123 Pls
3929 4122 Pls
3929 4120 Pls
3930 4119 Pls
3945 4118 Pls
3964 4117 Pls
3974 4116 Pls
3975 4115 Pls
3977 4113 Pls
3981 4112 Pls
3983 4111 Pls
3987 4110 Pls
3995 4109 Pls
3995 4108 Pls
3996 4107 Pls
3997 4106 Pls
3998 4105 Pls
4002 4104 Pls
4003 4103 Pls
4004 4102 Pls
4004 4100 Pls
4004 4099 Pls
4015 4098 Pls
4030 4097 Pls
4031 4096 Pls
4032 4095 Pls
4033 4094 Pls
4033 4093 Pls
4036 4092 Pls
4047 4090 Pls
4050 4089 Pls
4053 4088 Pls
4057 4087 Pls
4066 4086 Pls
4072 4085 Pls
4076 4084 Pls
4077 4083 Pls
4079 4081 Pls
4085 4080 Pls
4086 4079 Pls
4086 4078 Pls
4091 4077 Pls
4095 4076 Pls
4096 4074 Pls
4098 4073 Pls
4107 4072 Pls
4108 4071 Pls
4109 4070 Pls
4109 4069 Pls
4112 4067 Pls
4115 4066 Pls
4120 4065 Pls
4121 4064 Pls
4126 4063 Pls
4127 4062 Pls
4134 4060 Pls
4134 4059 Pls
4135 4058 Pls
4137 4057 Pls
4139 4056 Pls
4147 4054 Pls
4148 4053 Pls
4152 4052 Pls
4160 4051 Pls
4165 4049 Pls
4168 4048 Pls
4171 4047 Pls
4177 4046 Pls
4177 4045 Pls
4179 4043 Pls
4186 4042 Pls
4189 4041 Pls
4189 4040 Pls
4198 4038 Pls
4211 4037 Pls
4216 4036 Pls
4216 4035 Pls
4217 4033 Pls
4227 4032 Pls
4228 4031 Pls
4229 4030 Pls
4231 4028 Pls
4236 4027 Pls
4241 4026 Pls
4254 4025 Pls
4258 4023 Pls
4258 4022 Pls
4259 4021 Pls
4266 4019 Pls
4267 4018 Pls
4269 4017 Pls
4272 4015 Pls
4274 4014 Pls
4275 4013 Pls
4278 4012 Pls
4280 4010 Pls
4283 4009 Pls
4283 4008 Pls
4284 4006 Pls
4285 4005 Pls
4285 4004 Pls
4287 4002 Pls
4288 4001 Pls
4291 4000 Pls
4302 3998 Pls
4303 3997 Pls
4304 3995 Pls
4304 3994 Pls
4306 3993 Pls
4312 3991 Pls
4313 3990 Pls
4321 3989 Pls
4323 3987 Pls
4326 3986 Pls
4330 3985 Pls
4331 3983 Pls
4331 3982 Pls
4334 3980 Pls
4335 3979 Pls
4338 3978 Pls
4340 3976 Pls
4342 3975 Pls
4351 3973 Pls
4354 3972 Pls
4356 3970 Pls
4359 3969 Pls
4360 3968 Pls
4361 3966 Pls
4362 3965 Pls
4364 3963 Pls
4370 3962 Pls
4372 3960 Pls
4375 3959 Pls
4378 3957 Pls
4378 3956 Pls
4383 3954 Pls
4391 3953 Pls
4393 3951 Pls
4393 3950 Pls
4394 3949 Pls
4401 3947 Pls
4402 3946 Pls
4403 3944 Pls
4404 3943 Pls
4407 3941 Pls
4408 3939 Pls
4416 3938 Pls
4421 3936 Pls
4428 3935 Pls
4437 3933 Pls
4437 3932 Pls
4438 3930 Pls
4445 3929 Pls
4445 3927 Pls
4446 3926 Pls
4451 3924 Pls
4451 3922 Pls
4453 3921 Pls
4465 3919 Pls
4469 3918 Pls
4470 3916 Pls
4471 3915 Pls
4475 3913 Pls
4482 3911 Pls
4483 3910 Pls
4489 3908 Pls
4490 3907 Pls
4497 3905 Pls
4499 3903 Pls
4507 3902 Pls
4511 3900 Pls
4512 3898 Pls
4513 3897 Pls
4515 3895 Pls
4517 3893 Pls
4528 3892 Pls
4530 3890 Pls
4531 3888 Pls
4534 3887 Pls
4535 3885 Pls
4536 3883 Pls
4539 3882 Pls
4541 3880 Pls
4542 3878 Pls
4542 3876 Pls
4549 3875 Pls
4552 3873 Pls
4556 3871 Pls
4557 3869 Pls
4558 3868 Pls
4563 3866 Pls
4565 3864 Pls
4568 3862 Pls
4572 3861 Pls
4577 3859 Pls
4581 3857 Pls
4583 3855 Pls
4585 3853 Pls
4586 3852 Pls
4589 3850 Pls
4591 3848 Pls
4592 3846 Pls
4594 3844 Pls
4597 3842 Pls
4600 3841 Pls
4603 3839 Pls
4603 3837 Pls
4607 3835 Pls
4616 3833 Pls
4621 3831 Pls
4622 3829 Pls
4623 3827 Pls
4624 3826 Pls
4629 3824 Pls
4629 3822 Pls
4635 3820 Pls
4638 3818 Pls
4640 3816 Pls
4643 3814 Pls
4647 3812 Pls
4648 3810 Pls
4663 3808 Pls
4664 3806 Pls
4665 3804 Pls
4666 3802 Pls
4669 3800 Pls
4671 3798 Pls
4672 3796 Pls
4674 3794 Pls
4674 3792 Pls
4683 3790 Pls
4683 3788 Pls
4684 3786 Pls
4686 3784 Pls
4686 3782 Pls
4692 3780 Pls
4697 3778 Pls
4700 3775 Pls
4702 3773 Pls
4706 3771 Pls
4711 3769 Pls
4712 3767 Pls
4715 3765 Pls
4716 3763 Pls
4716 3760 Pls
4719 3758 Pls
4729 3756 Pls
4731 3754 Pls
4733 3752 Pls
4735 3749 Pls
4736 3747 Pls
4740 3745 Pls
4750 3743 Pls
4755 3740 Pls
4755 3738 Pls
4758 3736 Pls
4763 3734 Pls
4766 3731 Pls
4776 3729 Pls
4777 3727 Pls
4778 3724 Pls
4778 3722 Pls
4786 3720 Pls
4787 3717 Pls
4790 3715 Pls
4790 3712 Pls
4793 3710 Pls
4794 3708 Pls
4799 3705 Pls
4802 3703 Pls
4803 3700 Pls
4804 3698 Pls
4813 3695 Pls
4817 3693 Pls
4817 3690 Pls
4817 3688 Pls
4819 3685 Pls
4820 3683 Pls
4821 3680 Pls
4827 3678 Pls
4830 3675 Pls
4834 3673 Pls
4837 3670 Pls
4838 3667 Pls
4838 3665 Pls
4840 3662 Pls
4841 3659 Pls
4843 3657 Pls
4846 3654 Pls
4847 3651 Pls
4851 3649 Pls
4855 3646 Pls
4863 3643 Pls
4865 3640 Pls
4865 3638 Pls
4867 3635 Pls
4869 3632 Pls
4878 3629 Pls
4883 3626 Pls
4885 3623 Pls
4886 3621 Pls
4892 3618 Pls
4893 3615 Pls
4899 3612 Pls
4900 3609 Pls
4907 3606 Pls
4910 3603 Pls
4912 3600 Pls
4913 3597 Pls
4916 3594 Pls
4917 3591 Pls
4917 3588 Pls
4917 3585 Pls
4930 3582 Pls
4932 3579 Pls
4937 3575 Pls
4952 3572 Pls
4956 3569 Pls
4957 3566 Pls
4962 3563 Pls
4964 3559 Pls
4966 3556 Pls
4968 3553 Pls
4974 3550 Pls
4981 3546 Pls
4988 3543 Pls
4989 3539 Pls
4991 3536 Pls
4993 3533 Pls
4995 3529 Pls
4997 3526 Pls
4998 3522 Pls
5000 3519 Pls
5001 3515 Pls
5010 3512 Pls
5012 3508 Pls
5018 3504 Pls
5021 3501 Pls
5025 3497 Pls
5027 3493 Pls
5031 3490 Pls
5033 3486 Pls
5041 3482 Pls
5041 3478 Pls
5042 3474 Pls
5044 3470 Pls
5044 3467 Pls
5047 3463 Pls
5051 3459 Pls
5054 3455 Pls
5055 3451 Pls
5055 3447 Pls
5058 3442 Pls
5062 3438 Pls
5064 3434 Pls
5066 3430 Pls
5070 3426 Pls
5071 3421 Pls
5075 3417 Pls
5080 3413 Pls
5081 3408 Pls
5083 3404 Pls
5083 3399 Pls
5088 3395 Pls
5094 3390 Pls
5099 3386 Pls
5109 3381 Pls
5119 3376 Pls
5126 3372 Pls
5129 3367 Pls
5138 3362 Pls
5139 3357 Pls
5144 3352 Pls
5155 3347 Pls
5163 3342 Pls
5174 3337 Pls
5188 3332 Pls
5189 3327 Pls
5193 3322 Pls
5194 3317 Pls
5194 3311 Pls
5198 3306 Pls
5199 3300 Pls
5207 3295 Pls
5209 3289 Pls
5215 3284 Pls
5217 3278 Pls
5222 3272 Pls
5227 3266 Pls
5227 3260 Pls
5234 3255 Pls
5234 3248 Pls
5236 3242 Pls
5236 3236 Pls
5240 3230 Pls
5244 3224 Pls
5250 3217 Pls
5251 3211 Pls
5252 3204 Pls
5253 3197 Pls
5256 3191 Pls
5258 3184 Pls
5264 3177 Pls
5267 3170 Pls
5269 3162 Pls
5270 3155 Pls
5281 3148 Pls
5297 3140 Pls
5302 3133 Pls
5305 3125 Pls
5317 3117 Pls
5318 3109 Pls
5326 3101 Pls
5346 3093 Pls
5357 3084 Pls
5361 3076 Pls
5365 3067 Pls
5378 3058 Pls
5395 3049 Pls
5415 3040 Pls
5418 3031 Pls
5420 3021 Pls
5423 3012 Pls
5424 3002 Pls
5429 2992 Pls
5433 2982 Pls
5435 2971 Pls
5452 2960 Pls
5454 2949 Pls
5459 2938 Pls
5460 2927 Pls
5469 2915 Pls
5476 2903 Pls
5480 2891 Pls
5484 2878 Pls
5486 2865 Pls
5490 2852 Pls
5492 2838 Pls
5508 2824 Pls
5512 2810 Pls
5525 2795 Pls
5527 2779 Pls
5528 2764 Pls
5532 2747 Pls
5556 2730 Pls
5560 2713 Pls
5563 2695 Pls
5565 2676 Pls
5582 2656 Pls
5587 2636 Pls
5685 2615 Pls
5695 2593 Pls
5705 2569 Pls
5728 2545 Pls
5776 2520 Pls
5796 2493 Pls
5799 2464 Pls
5832 2434 Pls
5940 2402 Pls
5943 2367 Pls
5964 2330 Pls
5987 2291 Pls
6002 2247 Pls
6010 2200 Pls
6068 2147 Pls
6068 2088 Pls
6079 2022 Pls
6158 1945 Pls
6188 1854 Pls
6244 1743 Pls
6264 1600 Pls
6403 1397 Pls
6522 1052 Pls
% End plot #1
2.000 UL
LTb
LCb setrgbcolor
1.000 UL
LTB
LCb setrgbcolor
966 4871 N
966 280 L
5981 0 V
0 4591 V
-5981 0 V
Z stroke
1.000 UP
1.000 UL
LTb
LCb setrgbcolor
stroke
grestore
end
showpage
%%Trailer
%%DocumentFonts: Helvetica
%%Pages: 1
