%!PS-Adobe-2.0
%%Title: packets-s-minus-packets-uv-s-dist-loglog.eps
%%Creator: gnuplot 5.0 patchlevel 3
%%CreationDate: Mon May 29 11:06:12 2017
%%DocumentFonts: (atend)
%%BoundingBox: 50 50 554 770
%%Orientation: Landscape
%%Pages: (atend)
%%EndComments
%%BeginProlog
/gnudict 256 dict def
gnudict begin
%
% The following true/false flags may be edited by hand if desired.
% The unit line width and grayscale image gamma correction may also be changed.
%
/Color true def
/Blacktext false def
/Solid false def
/Dashlength 1 def
/Landscape true def
/Level1 false def
/Level3 false def
/Rounded false def
/ClipToBoundingBox false def
/SuppressPDFMark false def
/TransparentPatterns false def
/gnulinewidth 5.000 def
/userlinewidth gnulinewidth def
/Gamma 1.0 def
/BackgroundColor {-1.000 -1.000 -1.000} def
%
/vshift -46 def
/dl1 {
  10.0 Dashlength userlinewidth gnulinewidth div mul mul mul
  Rounded { currentlinewidth 0.75 mul sub dup 0 le { pop 0.01 } if } if
} def
/dl2 {
  10.0 Dashlength userlinewidth gnulinewidth div mul mul mul
  Rounded { currentlinewidth 0.75 mul add } if
} def
/hpt_ 31.5 def
/vpt_ 31.5 def
/hpt hpt_ def
/vpt vpt_ def
/doclip {
  ClipToBoundingBox {
    newpath 50 50 moveto 554 50 lineto 554 770 lineto 50 770 lineto closepath
    clip
  } if
} def
%
% Gnuplot Prolog Version 5.1 (Oct 2015)
%
%/SuppressPDFMark true def
%
/M {moveto} bind def
/L {lineto} bind def
/R {rmoveto} bind def
/V {rlineto} bind def
/N {newpath moveto} bind def
/Z {closepath} bind def
/C {setrgbcolor} bind def
/f {rlineto fill} bind def
/g {setgray} bind def
/Gshow {show} def   % May be redefined later in the file to support UTF-8
/vpt2 vpt 2 mul def
/hpt2 hpt 2 mul def
/Lshow {currentpoint stroke M 0 vshift R 
	Blacktext {gsave 0 setgray textshow grestore} {textshow} ifelse} def
/Rshow {currentpoint stroke M dup stringwidth pop neg vshift R
	Blacktext {gsave 0 setgray textshow grestore} {textshow} ifelse} def
/Cshow {currentpoint stroke M dup stringwidth pop -2 div vshift R 
	Blacktext {gsave 0 setgray textshow grestore} {textshow} ifelse} def
/UP {dup vpt_ mul /vpt exch def hpt_ mul /hpt exch def
  /hpt2 hpt 2 mul def /vpt2 vpt 2 mul def} def
/DL {Color {setrgbcolor Solid {pop []} if 0 setdash}
 {pop pop pop 0 setgray Solid {pop []} if 0 setdash} ifelse} def
/BL {stroke userlinewidth 2 mul setlinewidth
	Rounded {1 setlinejoin 1 setlinecap} if} def
/AL {stroke userlinewidth 2 div setlinewidth
	Rounded {1 setlinejoin 1 setlinecap} if} def
/UL {dup gnulinewidth mul /userlinewidth exch def
	dup 1 lt {pop 1} if 10 mul /udl exch def} def
/PL {stroke userlinewidth setlinewidth
	Rounded {1 setlinejoin 1 setlinecap} if} def
3.8 setmiterlimit
% Classic Line colors (version 5.0)
/LCw {1 1 1} def
/LCb {0 0 0} def
/LCa {0 0 0} def
/LC0 {1 0 0} def
/LC1 {0 1 0} def
/LC2 {0 0 1} def
/LC3 {1 0 1} def
/LC4 {0 1 1} def
/LC5 {1 1 0} def
/LC6 {0 0 0} def
/LC7 {1 0.3 0} def
/LC8 {0.5 0.5 0.5} def
% Default dash patterns (version 5.0)
/LTB {BL [] LCb DL} def
/LTw {PL [] 1 setgray} def
/LTb {PL [] LCb DL} def
/LTa {AL [1 udl mul 2 udl mul] 0 setdash LCa setrgbcolor} def
/LT0 {PL [] LC0 DL} def
/LT1 {PL [2 dl1 3 dl2] LC1 DL} def
/LT2 {PL [1 dl1 1.5 dl2] LC2 DL} def
/LT3 {PL [6 dl1 2 dl2 1 dl1 2 dl2] LC3 DL} def
/LT4 {PL [1 dl1 2 dl2 6 dl1 2 dl2 1 dl1 2 dl2] LC4 DL} def
/LT5 {PL [4 dl1 2 dl2] LC5 DL} def
/LT6 {PL [1.5 dl1 1.5 dl2 1.5 dl1 1.5 dl2 1.5 dl1 6 dl2] LC6 DL} def
/LT7 {PL [3 dl1 3 dl2 1 dl1 3 dl2] LC7 DL} def
/LT8 {PL [2 dl1 2 dl2 2 dl1 6 dl2] LC8 DL} def
/SL {[] 0 setdash} def
/Pnt {stroke [] 0 setdash gsave 1 setlinecap M 0 0 V stroke grestore} def
/Dia {stroke [] 0 setdash 2 copy vpt add M
  hpt neg vpt neg V hpt vpt neg V
  hpt vpt V hpt neg vpt V closepath stroke
  Pnt} def
/Pls {stroke [] 0 setdash vpt sub M 0 vpt2 V
  currentpoint stroke M
  hpt neg vpt neg R hpt2 0 V stroke
 } def
/Box {stroke [] 0 setdash 2 copy exch hpt sub exch vpt add M
  0 vpt2 neg V hpt2 0 V 0 vpt2 V
  hpt2 neg 0 V closepath stroke
  Pnt} def
/Crs {stroke [] 0 setdash exch hpt sub exch vpt add M
  hpt2 vpt2 neg V currentpoint stroke M
  hpt2 neg 0 R hpt2 vpt2 V stroke} def
/TriU {stroke [] 0 setdash 2 copy vpt 1.12 mul add M
  hpt neg vpt -1.62 mul V
  hpt 2 mul 0 V
  hpt neg vpt 1.62 mul V closepath stroke
  Pnt} def
/Star {2 copy Pls Crs} def
/BoxF {stroke [] 0 setdash exch hpt sub exch vpt add M
  0 vpt2 neg V hpt2 0 V 0 vpt2 V
  hpt2 neg 0 V closepath fill} def
/TriUF {stroke [] 0 setdash vpt 1.12 mul add M
  hpt neg vpt -1.62 mul V
  hpt 2 mul 0 V
  hpt neg vpt 1.62 mul V closepath fill} def
/TriD {stroke [] 0 setdash 2 copy vpt 1.12 mul sub M
  hpt neg vpt 1.62 mul V
  hpt 2 mul 0 V
  hpt neg vpt -1.62 mul V closepath stroke
  Pnt} def
/TriDF {stroke [] 0 setdash vpt 1.12 mul sub M
  hpt neg vpt 1.62 mul V
  hpt 2 mul 0 V
  hpt neg vpt -1.62 mul V closepath fill} def
/DiaF {stroke [] 0 setdash vpt add M
  hpt neg vpt neg V hpt vpt neg V
  hpt vpt V hpt neg vpt V closepath fill} def
/Pent {stroke [] 0 setdash 2 copy gsave
  translate 0 hpt M 4 {72 rotate 0 hpt L} repeat
  closepath stroke grestore Pnt} def
/PentF {stroke [] 0 setdash gsave
  translate 0 hpt M 4 {72 rotate 0 hpt L} repeat
  closepath fill grestore} def
/Circle {stroke [] 0 setdash 2 copy
  hpt 0 360 arc stroke Pnt} def
/CircleF {stroke [] 0 setdash hpt 0 360 arc fill} def
/C0 {BL [] 0 setdash 2 copy moveto vpt 90 450 arc} bind def
/C1 {BL [] 0 setdash 2 copy moveto
	2 copy vpt 0 90 arc closepath fill
	vpt 0 360 arc closepath} bind def
/C2 {BL [] 0 setdash 2 copy moveto
	2 copy vpt 90 180 arc closepath fill
	vpt 0 360 arc closepath} bind def
/C3 {BL [] 0 setdash 2 copy moveto
	2 copy vpt 0 180 arc closepath fill
	vpt 0 360 arc closepath} bind def
/C4 {BL [] 0 setdash 2 copy moveto
	2 copy vpt 180 270 arc closepath fill
	vpt 0 360 arc closepath} bind def
/C5 {BL [] 0 setdash 2 copy moveto
	2 copy vpt 0 90 arc
	2 copy moveto
	2 copy vpt 180 270 arc closepath fill
	vpt 0 360 arc} bind def
/C6 {BL [] 0 setdash 2 copy moveto
	2 copy vpt 90 270 arc closepath fill
	vpt 0 360 arc closepath} bind def
/C7 {BL [] 0 setdash 2 copy moveto
	2 copy vpt 0 270 arc closepath fill
	vpt 0 360 arc closepath} bind def
/C8 {BL [] 0 setdash 2 copy moveto
	2 copy vpt 270 360 arc closepath fill
	vpt 0 360 arc closepath} bind def
/C9 {BL [] 0 setdash 2 copy moveto
	2 copy vpt 270 450 arc closepath fill
	vpt 0 360 arc closepath} bind def
/C10 {BL [] 0 setdash 2 copy 2 copy moveto vpt 270 360 arc closepath fill
	2 copy moveto
	2 copy vpt 90 180 arc closepath fill
	vpt 0 360 arc closepath} bind def
/C11 {BL [] 0 setdash 2 copy moveto
	2 copy vpt 0 180 arc closepath fill
	2 copy moveto
	2 copy vpt 270 360 arc closepath fill
	vpt 0 360 arc closepath} bind def
/C12 {BL [] 0 setdash 2 copy moveto
	2 copy vpt 180 360 arc closepath fill
	vpt 0 360 arc closepath} bind def
/C13 {BL [] 0 setdash 2 copy moveto
	2 copy vpt 0 90 arc closepath fill
	2 copy moveto
	2 copy vpt 180 360 arc closepath fill
	vpt 0 360 arc closepath} bind def
/C14 {BL [] 0 setdash 2 copy moveto
	2 copy vpt 90 360 arc closepath fill
	vpt 0 360 arc} bind def
/C15 {BL [] 0 setdash 2 copy vpt 0 360 arc closepath fill
	vpt 0 360 arc closepath} bind def
/Rec {newpath 4 2 roll moveto 1 index 0 rlineto 0 exch rlineto
	neg 0 rlineto closepath} bind def
/Square {dup Rec} bind def
/Bsquare {vpt sub exch vpt sub exch vpt2 Square} bind def
/S0 {BL [] 0 setdash 2 copy moveto 0 vpt rlineto BL Bsquare} bind def
/S1 {BL [] 0 setdash 2 copy vpt Square fill Bsquare} bind def
/S2 {BL [] 0 setdash 2 copy exch vpt sub exch vpt Square fill Bsquare} bind def
/S3 {BL [] 0 setdash 2 copy exch vpt sub exch vpt2 vpt Rec fill Bsquare} bind def
/S4 {BL [] 0 setdash 2 copy exch vpt sub exch vpt sub vpt Square fill Bsquare} bind def
/S5 {BL [] 0 setdash 2 copy 2 copy vpt Square fill
	exch vpt sub exch vpt sub vpt Square fill Bsquare} bind def
/S6 {BL [] 0 setdash 2 copy exch vpt sub exch vpt sub vpt vpt2 Rec fill Bsquare} bind def
/S7 {BL [] 0 setdash 2 copy exch vpt sub exch vpt sub vpt vpt2 Rec fill
	2 copy vpt Square fill Bsquare} bind def
/S8 {BL [] 0 setdash 2 copy vpt sub vpt Square fill Bsquare} bind def
/S9 {BL [] 0 setdash 2 copy vpt sub vpt vpt2 Rec fill Bsquare} bind def
/S10 {BL [] 0 setdash 2 copy vpt sub vpt Square fill 2 copy exch vpt sub exch vpt Square fill
	Bsquare} bind def
/S11 {BL [] 0 setdash 2 copy vpt sub vpt Square fill 2 copy exch vpt sub exch vpt2 vpt Rec fill
	Bsquare} bind def
/S12 {BL [] 0 setdash 2 copy exch vpt sub exch vpt sub vpt2 vpt Rec fill Bsquare} bind def
/S13 {BL [] 0 setdash 2 copy exch vpt sub exch vpt sub vpt2 vpt Rec fill
	2 copy vpt Square fill Bsquare} bind def
/S14 {BL [] 0 setdash 2 copy exch vpt sub exch vpt sub vpt2 vpt Rec fill
	2 copy exch vpt sub exch vpt Square fill Bsquare} bind def
/S15 {BL [] 0 setdash 2 copy Bsquare fill Bsquare} bind def
/D0 {gsave translate 45 rotate 0 0 S0 stroke grestore} bind def
/D1 {gsave translate 45 rotate 0 0 S1 stroke grestore} bind def
/D2 {gsave translate 45 rotate 0 0 S2 stroke grestore} bind def
/D3 {gsave translate 45 rotate 0 0 S3 stroke grestore} bind def
/D4 {gsave translate 45 rotate 0 0 S4 stroke grestore} bind def
/D5 {gsave translate 45 rotate 0 0 S5 stroke grestore} bind def
/D6 {gsave translate 45 rotate 0 0 S6 stroke grestore} bind def
/D7 {gsave translate 45 rotate 0 0 S7 stroke grestore} bind def
/D8 {gsave translate 45 rotate 0 0 S8 stroke grestore} bind def
/D9 {gsave translate 45 rotate 0 0 S9 stroke grestore} bind def
/D10 {gsave translate 45 rotate 0 0 S10 stroke grestore} bind def
/D11 {gsave translate 45 rotate 0 0 S11 stroke grestore} bind def
/D12 {gsave translate 45 rotate 0 0 S12 stroke grestore} bind def
/D13 {gsave translate 45 rotate 0 0 S13 stroke grestore} bind def
/D14 {gsave translate 45 rotate 0 0 S14 stroke grestore} bind def
/D15 {gsave translate 45 rotate 0 0 S15 stroke grestore} bind def
/DiaE {stroke [] 0 setdash vpt add M
  hpt neg vpt neg V hpt vpt neg V
  hpt vpt V hpt neg vpt V closepath stroke} def
/BoxE {stroke [] 0 setdash exch hpt sub exch vpt add M
  0 vpt2 neg V hpt2 0 V 0 vpt2 V
  hpt2 neg 0 V closepath stroke} def
/TriUE {stroke [] 0 setdash vpt 1.12 mul add M
  hpt neg vpt -1.62 mul V
  hpt 2 mul 0 V
  hpt neg vpt 1.62 mul V closepath stroke} def
/TriDE {stroke [] 0 setdash vpt 1.12 mul sub M
  hpt neg vpt 1.62 mul V
  hpt 2 mul 0 V
  hpt neg vpt -1.62 mul V closepath stroke} def
/PentE {stroke [] 0 setdash gsave
  translate 0 hpt M 4 {72 rotate 0 hpt L} repeat
  closepath stroke grestore} def
/CircE {stroke [] 0 setdash 
  hpt 0 360 arc stroke} def
/Opaque {gsave closepath 1 setgray fill grestore 0 setgray closepath} def
/DiaW {stroke [] 0 setdash vpt add M
  hpt neg vpt neg V hpt vpt neg V
  hpt vpt V hpt neg vpt V Opaque stroke} def
/BoxW {stroke [] 0 setdash exch hpt sub exch vpt add M
  0 vpt2 neg V hpt2 0 V 0 vpt2 V
  hpt2 neg 0 V Opaque stroke} def
/TriUW {stroke [] 0 setdash vpt 1.12 mul add M
  hpt neg vpt -1.62 mul V
  hpt 2 mul 0 V
  hpt neg vpt 1.62 mul V Opaque stroke} def
/TriDW {stroke [] 0 setdash vpt 1.12 mul sub M
  hpt neg vpt 1.62 mul V
  hpt 2 mul 0 V
  hpt neg vpt -1.62 mul V Opaque stroke} def
/PentW {stroke [] 0 setdash gsave
  translate 0 hpt M 4 {72 rotate 0 hpt L} repeat
  Opaque stroke grestore} def
/CircW {stroke [] 0 setdash 
  hpt 0 360 arc Opaque stroke} def
/BoxFill {gsave Rec 1 setgray fill grestore} def
/Density {
  /Fillden exch def
  currentrgbcolor
  /ColB exch def /ColG exch def /ColR exch def
  /ColR ColR Fillden mul Fillden sub 1 add def
  /ColG ColG Fillden mul Fillden sub 1 add def
  /ColB ColB Fillden mul Fillden sub 1 add def
  ColR ColG ColB setrgbcolor} def
/BoxColFill {gsave Rec PolyFill} def
/PolyFill {gsave Density fill grestore grestore} def
/h {rlineto rlineto rlineto gsave closepath fill grestore} bind def
%
% PostScript Level 1 Pattern Fill routine for rectangles
% Usage: x y w h s a XX PatternFill
%	x,y = lower left corner of box to be filled
%	w,h = width and height of box
%	  a = angle in degrees between lines and x-axis
%	 XX = 0/1 for no/yes cross-hatch
%
/PatternFill {gsave /PFa [ 9 2 roll ] def
  PFa 0 get PFa 2 get 2 div add PFa 1 get PFa 3 get 2 div add translate
  PFa 2 get -2 div PFa 3 get -2 div PFa 2 get PFa 3 get Rec
  TransparentPatterns {} {gsave 1 setgray fill grestore} ifelse
  clip
  currentlinewidth 0.5 mul setlinewidth
  /PFs PFa 2 get dup mul PFa 3 get dup mul add sqrt def
  0 0 M PFa 5 get rotate PFs -2 div dup translate
  0 1 PFs PFa 4 get div 1 add floor cvi
	{PFa 4 get mul 0 M 0 PFs V} for
  0 PFa 6 get ne {
	0 1 PFs PFa 4 get div 1 add floor cvi
	{PFa 4 get mul 0 2 1 roll M PFs 0 V} for
 } if
  stroke grestore} def
%
/languagelevel where
 {pop languagelevel} {1} ifelse
dup 2 lt
	{/InterpretLevel1 true def
	 /InterpretLevel3 false def}
	{/InterpretLevel1 Level1 def
	 2 gt
	    {/InterpretLevel3 Level3 def}
	    {/InterpretLevel3 false def}
	 ifelse }
 ifelse
%
% PostScript level 2 pattern fill definitions
%
/Level2PatternFill {
/Tile8x8 {/PaintType 2 /PatternType 1 /TilingType 1 /BBox [0 0 8 8] /XStep 8 /YStep 8}
	bind def
/KeepColor {currentrgbcolor [/Pattern /DeviceRGB] setcolorspace} bind def
<< Tile8x8
 /PaintProc {0.5 setlinewidth pop 0 0 M 8 8 L 0 8 M 8 0 L stroke} 
>> matrix makepattern
/Pat1 exch def
<< Tile8x8
 /PaintProc {0.5 setlinewidth pop 0 0 M 8 8 L 0 8 M 8 0 L stroke
	0 4 M 4 8 L 8 4 L 4 0 L 0 4 L stroke}
>> matrix makepattern
/Pat2 exch def
<< Tile8x8
 /PaintProc {0.5 setlinewidth pop 0 0 M 0 8 L
	8 8 L 8 0 L 0 0 L fill}
>> matrix makepattern
/Pat3 exch def
<< Tile8x8
 /PaintProc {0.5 setlinewidth pop -4 8 M 8 -4 L
	0 12 M 12 0 L stroke}
>> matrix makepattern
/Pat4 exch def
<< Tile8x8
 /PaintProc {0.5 setlinewidth pop -4 0 M 8 12 L
	0 -4 M 12 8 L stroke}
>> matrix makepattern
/Pat5 exch def
<< Tile8x8
 /PaintProc {0.5 setlinewidth pop -2 8 M 4 -4 L
	0 12 M 8 -4 L 4 12 M 10 0 L stroke}
>> matrix makepattern
/Pat6 exch def
<< Tile8x8
 /PaintProc {0.5 setlinewidth pop -2 0 M 4 12 L
	0 -4 M 8 12 L 4 -4 M 10 8 L stroke}
>> matrix makepattern
/Pat7 exch def
<< Tile8x8
 /PaintProc {0.5 setlinewidth pop 8 -2 M -4 4 L
	12 0 M -4 8 L 12 4 M 0 10 L stroke}
>> matrix makepattern
/Pat8 exch def
<< Tile8x8
 /PaintProc {0.5 setlinewidth pop 0 -2 M 12 4 L
	-4 0 M 12 8 L -4 4 M 8 10 L stroke}
>> matrix makepattern
/Pat9 exch def
/Pattern1 {PatternBgnd KeepColor Pat1 setpattern} bind def
/Pattern2 {PatternBgnd KeepColor Pat2 setpattern} bind def
/Pattern3 {PatternBgnd KeepColor Pat3 setpattern} bind def
/Pattern4 {PatternBgnd KeepColor Landscape {Pat5} {Pat4} ifelse setpattern} bind def
/Pattern5 {PatternBgnd KeepColor Landscape {Pat4} {Pat5} ifelse setpattern} bind def
/Pattern6 {PatternBgnd KeepColor Landscape {Pat9} {Pat6} ifelse setpattern} bind def
/Pattern7 {PatternBgnd KeepColor Landscape {Pat8} {Pat7} ifelse setpattern} bind def
} def
%
%
%End of PostScript Level 2 code
%
/PatternBgnd {
  TransparentPatterns {} {gsave 1 setgray fill grestore} ifelse
} def
%
% Substitute for Level 2 pattern fill codes with
% grayscale if Level 2 support is not selected.
%
/Level1PatternFill {
/Pattern1 {0.250 Density} bind def
/Pattern2 {0.500 Density} bind def
/Pattern3 {0.750 Density} bind def
/Pattern4 {0.125 Density} bind def
/Pattern5 {0.375 Density} bind def
/Pattern6 {0.625 Density} bind def
/Pattern7 {0.875 Density} bind def
} def
%
% Now test for support of Level 2 code
%
Level1 {Level1PatternFill} {Level2PatternFill} ifelse
%
/Symbol-Oblique /Symbol findfont [1 0 .167 1 0 0] makefont
dup length dict begin {1 index /FID eq {pop pop} {def} ifelse} forall
currentdict end definefont pop
%
/MFshow {
   { dup 5 get 3 ge
     { 5 get 3 eq {gsave} {grestore} ifelse }
     {dup dup 0 get findfont exch 1 get scalefont setfont
     [ currentpoint ] exch dup 2 get 0 exch R dup 5 get 2 ne {dup dup 6
     get exch 4 get {textshow} {stringwidth pop 0 R} ifelse }if dup 5 get 0 eq
     {dup 3 get {2 get neg 0 exch R pop} {pop aload pop M} ifelse} {dup 5
     get 1 eq {dup 2 get exch dup 3 get exch 6 get stringwidth pop -2 div
     dup 0 R} {dup 6 get stringwidth pop -2 div 0 R 6 get
     textshow 2 index {aload pop M neg 3 -1 roll neg R pop pop} {pop pop pop
     pop aload pop M} ifelse }ifelse }ifelse }
     ifelse }
   forall} def
/Gswidth {dup type /stringtype eq {stringwidth} {pop (n) stringwidth} ifelse} def
/MFwidth {0 exch { dup 5 get 3 ge { 5 get 3 eq { 0 } { pop } ifelse }
 {dup 3 get{dup dup 0 get findfont exch 1 get scalefont setfont
     6 get Gswidth pop add} {pop} ifelse} ifelse} forall} def
/MLshow { currentpoint stroke M
  0 exch R
  Blacktext {gsave 0 setgray MFshow grestore} {MFshow} ifelse } bind def
/MRshow { currentpoint stroke M
  exch dup MFwidth neg 3 -1 roll R
  Blacktext {gsave 0 setgray MFshow grestore} {MFshow} ifelse } bind def
/MCshow { currentpoint stroke M
  exch dup MFwidth -2 div 3 -1 roll R
  Blacktext {gsave 0 setgray MFshow grestore} {MFshow} ifelse } bind def
/XYsave    { [( ) 1 2 true false 3 ()] } bind def
/XYrestore { [( ) 1 2 true false 4 ()] } bind def
Level1 SuppressPDFMark or 
{} {
/SDict 10 dict def
systemdict /pdfmark known not {
  userdict /pdfmark systemdict /cleartomark get put
} if
SDict begin [
  /Title (packets-s-minus-packets-uv-s-dist-loglog.eps)
  /Subject (gnuplot plot)
  /Creator (gnuplot 5.0 patchlevel 3)
  /Author (tiphaine)
%  /Producer (gnuplot)
%  /Keywords ()
  /CreationDate (Mon May 29 11:06:12 2017)
  /DOCINFO pdfmark
end
} ifelse
%
% Support for boxed text - Ethan A Merritt May 2005
%
/InitTextBox { userdict /TBy2 3 -1 roll put userdict /TBx2 3 -1 roll put
           userdict /TBy1 3 -1 roll put userdict /TBx1 3 -1 roll put
	   /Boxing true def } def
/ExtendTextBox { Boxing
    { gsave dup false charpath pathbbox
      dup TBy2 gt {userdict /TBy2 3 -1 roll put} {pop} ifelse
      dup TBx2 gt {userdict /TBx2 3 -1 roll put} {pop} ifelse
      dup TBy1 lt {userdict /TBy1 3 -1 roll put} {pop} ifelse
      dup TBx1 lt {userdict /TBx1 3 -1 roll put} {pop} ifelse
      grestore } if } def
/PopTextBox { newpath TBx1 TBxmargin sub TBy1 TBymargin sub M
               TBx1 TBxmargin sub TBy2 TBymargin add L
	       TBx2 TBxmargin add TBy2 TBymargin add L
	       TBx2 TBxmargin add TBy1 TBymargin sub L closepath } def
/DrawTextBox { PopTextBox stroke /Boxing false def} def
/FillTextBox { gsave PopTextBox 1 1 1 setrgbcolor fill grestore /Boxing false def} def
0 0 0 0 InitTextBox
/TBxmargin 20 def
/TBymargin 20 def
/Boxing false def
/textshow { ExtendTextBox Gshow } def
%
% redundant definitions for compatibility with prologue.ps older than 5.0.2
/LTB {BL [] LCb DL} def
/LTb {PL [] LCb DL} def
end
%%EndProlog
%%Page: 1 1
gnudict begin
gsave
doclip
50 50 translate
0.100 0.100 scale
90 rotate
0 -5040 translate
0 setgray
newpath
(Helvetica) findfont 140 scalefont setfont
BackgroundColor 0 lt 3 1 roll 0 lt exch 0 lt or or not {gsave BackgroundColor C clippath fill grestore} if
1.000 UL
LTb
LCb setrgbcolor
462 280 M
63 0 V
6422 0 R
-63 0 V
stroke
378 280 M
[ [(Helvetica) 140.0 0.0 true true 0 ( 1)]
] -46.7 MRshow
1.000 UL
LTb
LCb setrgbcolor
462 1662 M
31 0 V
6454 0 R
-31 0 V
462 2470 M
31 0 V
6454 0 R
-31 0 V
462 3044 M
31 0 V
6454 0 R
-31 0 V
462 3489 M
31 0 V
6454 0 R
-31 0 V
462 3852 M
31 0 V
6454 0 R
-31 0 V
462 4160 M
31 0 V
6454 0 R
-31 0 V
462 4426 M
31 0 V
6454 0 R
-31 0 V
462 4661 M
31 0 V
6454 0 R
-31 0 V
462 4871 M
63 0 V
6422 0 R
-63 0 V
stroke
378 4871 M
[ [(Helvetica) 140.0 0.0 true true 0 ( 10)]
] -46.7 MRshow
1.000 UL
LTb
LCb setrgbcolor
462 280 M
0 63 V
0 4528 R
0 -63 V
stroke
462 140 M
[ [(Helvetica) 140.0 0.0 true true 0 ( 1)]
] -46.7 MCshow
1.000 UL
LTb
LCb setrgbcolor
741 280 M
0 31 V
0 4560 R
0 -31 V
1110 280 M
0 31 V
0 4560 R
0 -31 V
1299 280 M
0 31 V
0 4560 R
0 -31 V
1388 280 M
0 63 V
0 4528 R
0 -63 V
stroke
1388 140 M
[ [(Helvetica) 140.0 0.0 true true 0 ( 10)]
] -46.7 MCshow
1.000 UL
LTb
LCb setrgbcolor
1667 280 M
0 31 V
0 4560 R
0 -31 V
2036 280 M
0 31 V
0 4560 R
0 -31 V
2225 280 M
0 31 V
0 4560 R
0 -31 V
2315 280 M
0 63 V
0 4528 R
0 -63 V
stroke
2315 140 M
[ [(Helvetica) 140.0 0.0 true true 0 ( 100)]
] -46.7 MCshow
1.000 UL
LTb
LCb setrgbcolor
2594 280 M
0 31 V
0 4560 R
0 -31 V
2962 280 M
0 31 V
0 4560 R
0 -31 V
3152 280 M
0 31 V
0 4560 R
0 -31 V
3241 280 M
0 63 V
0 4528 R
0 -63 V
stroke
3241 140 M
[ [(Helvetica) 140.0 0.0 true true 0 ( 1000)]
] -46.7 MCshow
1.000 UL
LTb
LCb setrgbcolor
3520 280 M
0 31 V
0 4560 R
0 -31 V
3889 280 M
0 31 V
0 4560 R
0 -31 V
4078 280 M
0 31 V
0 4560 R
0 -31 V
4168 280 M
0 63 V
0 4528 R
0 -63 V
stroke
4168 140 M
[ [(Helvetica) 140.0 0.0 true true 0 ( 10000)]
] -46.7 MCshow
1.000 UL
LTb
LCb setrgbcolor
4447 280 M
0 31 V
0 4560 R
0 -31 V
4815 280 M
0 31 V
0 4560 R
0 -31 V
5004 280 M
0 31 V
0 4560 R
0 -31 V
5094 280 M
0 63 V
0 4528 R
0 -63 V
stroke
5094 140 M
[ [(Helvetica) 140.0 0.0 true true 0 ( 100000)]
] -46.7 MCshow
1.000 UL
LTb
LCb setrgbcolor
5373 280 M
0 31 V
0 4560 R
0 -31 V
5742 280 M
0 31 V
0 4560 R
0 -31 V
5931 280 M
0 31 V
0 4560 R
0 -31 V
6021 280 M
0 63 V
0 4528 R
0 -63 V
stroke
6021 140 M
[ [(Helvetica) 140.0 0.0 true true 0 ( 1x10)]
[(Helvetica) 112.0 70.0 true true 0 (6)]
] -60.7 MCshow
1.000 UL
LTb
LCb setrgbcolor
6299 280 M
0 31 V
0 4560 R
0 -31 V
6668 280 M
0 31 V
0 4560 R
0 -31 V
6857 280 M
0 31 V
0 4560 R
0 -31 V
6947 280 M
0 63 V
0 4528 R
0 -63 V
stroke
6947 140 M
[ [(Helvetica) 140.0 0.0 true true 0 ( 1x10)]
[(Helvetica) 112.0 70.0 true true 0 (7)]
] -60.7 MCshow
1.000 UL
LTb
LCb setrgbcolor
1.000 UL
LTB
LCb setrgbcolor
462 4871 N
462 280 L
6485 0 V
0 4591 V
-6485 0 V
Z stroke
1.000 UP
1.000 UL
LTb
LCb setrgbcolor
% Begin plot #1
1.000 UP
1.000 UL
LTb
0.58 0.00 0.83 C 462 280 Pls
1110 280 Pls
2109 280 Pls
2142 280 Pls
2188 280 Pls
2350 280 Pls
2467 280 Pls
2526 280 Pls
2613 280 Pls
2645 280 Pls
2743 280 Pls
2750 280 Pls
2756 280 Pls
2814 280 Pls
2834 280 Pls
2835 280 Pls
2846 280 Pls
2847 280 Pls
2853 280 Pls
2879 280 Pls
2883 280 Pls
2980 280 Pls
3014 280 Pls
3021 280 Pls
3032 280 Pls
3044 280 Pls
3063 280 Pls
3075 280 Pls
3093 280 Pls
3102 280 Pls
3134 280 Pls
3141 280 Pls
3159 280 Pls
3196 280 Pls
3229 280 Pls
3237 280 Pls
3260 280 Pls
3296 280 Pls
3300 280 Pls
3301 280 Pls
3319 280 Pls
3321 280 Pls
3325 280 Pls
3336 280 Pls
3338 280 Pls
3359 280 Pls
3360 280 Pls
3372 280 Pls
3380 280 Pls
3393 280 Pls
3403 280 Pls
3407 280 Pls
3410 280 Pls
3413 280 Pls
3419 280 Pls
3428 280 Pls
3431 280 Pls
3435 280 Pls
3447 280 Pls
3454 280 Pls
3456 280 Pls
3457 280 Pls
3478 280 Pls
3479 280 Pls
3487 280 Pls
3497 280 Pls
3499 280 Pls
3504 280 Pls
3504 280 Pls
3512 280 Pls
3512 280 Pls
3514 280 Pls
3524 280 Pls
3525 280 Pls
3528 280 Pls
3531 280 Pls
3534 280 Pls
3535 280 Pls
3535 280 Pls
3535 280 Pls
3536 280 Pls
3541 280 Pls
3542 280 Pls
3544 280 Pls
3568 280 Pls
3570 280 Pls
3577 280 Pls
3578 280 Pls
3583 280 Pls
3585 280 Pls
3590 280 Pls
3590 1662 Pls
3591 280 Pls
3591 1662 Pls
3591 280 Pls
3592 280 Pls
3593 280 Pls
3593 280 Pls
3594 280 Pls
3595 280 Pls
3596 280 Pls
3596 280 Pls
3600 280 Pls
3601 280 Pls
3602 280 Pls
3604 280 Pls
3606 280 Pls
3622 280 Pls
3630 280 Pls
3631 280 Pls
3639 280 Pls
3642 280 Pls
3643 280 Pls
3650 280 Pls
3666 280 Pls
3666 280 Pls
3668 280 Pls
3670 280 Pls
3675 1662 Pls
3675 280 Pls
3676 280 Pls
3692 280 Pls
3712 280 Pls
3723 280 Pls
3725 280 Pls
3727 280 Pls
3731 280 Pls
3733 280 Pls
3737 280 Pls
3746 280 Pls
3746 280 Pls
3748 280 Pls
3748 280 Pls
3749 280 Pls
3753 280 Pls
3755 280 Pls
3756 280 Pls
3756 280 Pls
3756 280 Pls
3768 280 Pls
3785 280 Pls
3786 280 Pls
3786 280 Pls
3787 280 Pls
3788 280 Pls
3791 280 Pls
3803 280 Pls
3805 280 Pls
3809 280 Pls
3813 280 Pls
3823 280 Pls
3829 280 Pls
3834 280 Pls
3835 280 Pls
3837 280 Pls
3844 280 Pls
3844 280 Pls
3845 280 Pls
3850 280 Pls
3855 280 Pls
3855 280 Pls
3858 280 Pls
3867 280 Pls
3869 280 Pls
3870 280 Pls
3870 280 Pls
3873 280 Pls
3876 280 Pls
3882 280 Pls
3883 280 Pls
3888 280 Pls
3889 280 Pls
3896 280 Pls
3897 280 Pls
3898 280 Pls
3900 280 Pls
3902 280 Pls
3911 280 Pls
3913 280 Pls
3917 280 Pls
3925 280 Pls
3930 280 Pls
3934 280 Pls
3937 280 Pls
3943 280 Pls
3944 280 Pls
3946 280 Pls
3954 280 Pls
3956 280 Pls
3956 280 Pls
3966 280 Pls
3981 280 Pls
3986 280 Pls
3986 280 Pls
3987 280 Pls
3998 280 Pls
3999 280 Pls
4000 280 Pls
4002 280 Pls
4007 280 Pls
4013 280 Pls
4027 280 Pls
4031 280 Pls
4031 280 Pls
4033 280 Pls
4040 280 Pls
4041 280 Pls
4043 280 Pls
4046 280 Pls
4049 280 Pls
4050 280 Pls
4053 280 Pls
4055 280 Pls
4058 280 Pls
4058 280 Pls
4059 280 Pls
4061 280 Pls
4061 280 Pls
4063 280 Pls
4063 280 Pls
4067 280 Pls
4079 280 Pls
4081 280 Pls
4081 280 Pls
4082 280 Pls
4083 280 Pls
4090 280 Pls
4091 280 Pls
4100 280 Pls
4102 280 Pls
4105 280 Pls
4110 280 Pls
4110 280 Pls
4110 280 Pls
4114 280 Pls
4115 280 Pls
4118 280 Pls
4120 280 Pls
4123 280 Pls
4132 280 Pls
4135 280 Pls
4138 280 Pls
4141 280 Pls
4142 280 Pls
4143 280 Pls
4144 280 Pls
4147 280 Pls
4153 280 Pls
4155 280 Pls
4159 280 Pls
4161 280 Pls
4162 280 Pls
4167 280 Pls
4175 280 Pls
4178 280 Pls
4178 280 Pls
4179 280 Pls
4186 280 Pls
4188 280 Pls
4189 280 Pls
4189 280 Pls
4193 280 Pls
4194 280 Pls
4202 280 Pls
4208 280 Pls
4216 280 Pls
4225 280 Pls
4226 280 Pls
4226 280 Pls
4234 280 Pls
4234 280 Pls
4236 280 Pls
4240 280 Pls
4241 280 Pls
4242 280 Pls
4256 280 Pls
4261 280 Pls
4261 280 Pls
4262 280 Pls
4267 280 Pls
4274 280 Pls
4276 280 Pls
4282 280 Pls
4283 280 Pls
4291 280 Pls
4293 280 Pls
4302 280 Pls
4305 280 Pls
4307 280 Pls
4308 280 Pls
4310 280 Pls
4313 280 Pls
4324 280 Pls
4326 280 Pls
4328 280 Pls
4331 280 Pls
4331 280 Pls
4332 280 Pls
4336 280 Pls
4338 280 Pls
4339 280 Pls
4339 280 Pls
4347 280 Pls
4350 280 Pls
4355 280 Pls
4356 280 Pls
4357 280 Pls
4362 280 Pls
4365 280 Pls
4368 280 Pls
4372 280 Pls
4377 280 Pls
4382 280 Pls
4384 280 Pls
4386 280 Pls
4387 280 Pls
4390 280 Pls
4392 280 Pls
4394 280 Pls
4395 280 Pls
4399 280 Pls
4402 280 Pls
4405 280 Pls
4406 280 Pls
4409 280 Pls
4419 280 Pls
4425 280 Pls
4426 280 Pls
4427 280 Pls
4428 280 Pls
4433 280 Pls
4434 280 Pls
4441 280 Pls
4443 280 Pls
4446 280 Pls
4449 280 Pls
4453 280 Pls
4455 280 Pls
4471 280 Pls
4472 280 Pls
4472 280 Pls
4473 280 Pls
4477 280 Pls
4479 280 Pls
4480 280 Pls
4483 280 Pls
4483 280 Pls
4492 280 Pls
4493 280 Pls
4494 280 Pls
4495 280 Pls
4496 280 Pls
4502 280 Pls
4508 280 Pls
4511 280 Pls
4513 280 Pls
4517 280 Pls
4522 280 Pls
4524 280 Pls
4527 280 Pls
4527 280 Pls
4528 280 Pls
4531 280 Pls
4542 280 Pls
4544 280 Pls
4547 280 Pls
4549 280 Pls
4550 280 Pls
4554 280 Pls
4565 280 Pls
4570 280 Pls
4570 280 Pls
4574 280 Pls
4579 280 Pls
4582 280 Pls
4593 280 Pls
4594 280 Pls
4595 280 Pls
4596 280 Pls
4604 280 Pls
4605 280 Pls
4608 280 Pls
4609 280 Pls
4611 280 Pls
4612 280 Pls
4618 280 Pls
4622 280 Pls
4622 280 Pls
4624 280 Pls
4633 280 Pls
4637 280 Pls
4638 280 Pls
4638 280 Pls
4640 280 Pls
4640 280 Pls
4641 280 Pls
4648 280 Pls
4652 280 Pls
4655 280 Pls
4659 280 Pls
4660 280 Pls
4661 280 Pls
4663 280 Pls
4663 280 Pls
4665 280 Pls
4668 280 Pls
4670 280 Pls
4674 280 Pls
4679 280 Pls
4687 280 Pls
4689 280 Pls
4690 280 Pls
4691 280 Pls
4694 280 Pls
4704 280 Pls
4709 280 Pls
4711 280 Pls
4712 280 Pls
4718 280 Pls
4720 280 Pls
4727 280 Pls
4727 280 Pls
4735 280 Pls
4738 280 Pls
4741 280 Pls
4742 280 Pls
4745 280 Pls
4746 280 Pls
4746 280 Pls
4746 280 Pls
4760 280 Pls
4762 280 Pls
4767 280 Pls
4784 280 Pls
4789 280 Pls
4789 280 Pls
4795 280 Pls
4797 280 Pls
4799 280 Pls
4801 280 Pls
4807 280 Pls
4815 280 Pls
4823 280 Pls
4824 280 Pls
4826 280 Pls
4828 280 Pls
4831 280 Pls
4832 280 Pls
4834 280 Pls
4836 280 Pls
4837 280 Pls
4846 280 Pls
4849 280 Pls
4856 280 Pls
4858 280 Pls
4863 280 Pls
4865 280 Pls
4870 280 Pls
4871 280 Pls
4881 280 Pls
4881 280 Pls
4881 280 Pls
4883 280 Pls
4884 280 Pls
4887 280 Pls
4891 280 Pls
4895 280 Pls
4896 280 Pls
4896 280 Pls
4899 280 Pls
4904 280 Pls
4905 280 Pls
4907 280 Pls
4911 280 Pls
4913 280 Pls
4917 280 Pls
4923 280 Pls
4924 280 Pls
4926 280 Pls
4926 280 Pls
4932 280 Pls
4938 280 Pls
4943 280 Pls
4954 280 Pls
4965 280 Pls
4973 280 Pls
4976 280 Pls
4985 280 Pls
4986 280 Pls
4993 280 Pls
5004 280 Pls
5013 280 Pls
5025 280 Pls
5040 280 Pls
5041 280 Pls
5045 280 Pls
5046 280 Pls
5047 280 Pls
5051 280 Pls
5051 280 Pls
5060 280 Pls
5062 280 Pls
5069 280 Pls
5071 280 Pls
5076 280 Pls
5082 280 Pls
5082 280 Pls
5089 280 Pls
5089 280 Pls
5091 280 Pls
5092 280 Pls
5097 280 Pls
5101 280 Pls
5107 280 Pls
5108 280 Pls
5109 280 Pls
5110 280 Pls
5113 280 Pls
5115 280 Pls
5122 280 Pls
5126 280 Pls
5127 280 Pls
5128 280 Pls
5141 280 Pls
5157 280 Pls
5163 280 Pls
5167 280 Pls
5180 280 Pls
5181 280 Pls
5189 280 Pls
5211 280 Pls
5223 280 Pls
5227 280 Pls
5231 280 Pls
5246 280 Pls
5264 280 Pls
5285 280 Pls
5289 280 Pls
5291 280 Pls
5295 280 Pls
5295 280 Pls
5301 280 Pls
5306 280 Pls
5308 280 Pls
5326 280 Pls
5328 280 Pls
5334 280 Pls
5335 280 Pls
5345 280 Pls
5352 280 Pls
5357 280 Pls
5361 280 Pls
5363 280 Pls
5367 280 Pls
5369 280 Pls
5387 280 Pls
5391 280 Pls
5405 280 Pls
5407 280 Pls
5408 280 Pls
5413 280 Pls
5438 280 Pls
5443 280 Pls
5446 280 Pls
5449 280 Pls
5467 280 Pls
5472 280 Pls
5579 280 Pls
5589 280 Pls
5600 280 Pls
5625 280 Pls
5677 280 Pls
5699 280 Pls
5702 280 Pls
5738 280 Pls
5855 280 Pls
5859 280 Pls
5881 280 Pls
5906 280 Pls
5923 280 Pls
5932 280 Pls
5994 280 Pls
5994 280 Pls
6005 280 Pls
6091 280 Pls
6124 280 Pls
6185 280 Pls
6207 280 Pls
6357 280 Pls
6486 280 Pls
% End plot #1
2.000 UL
LTb
LCb setrgbcolor
1.000 UL
LTB
LCb setrgbcolor
462 4871 N
462 280 L
6485 0 V
0 4591 V
-6485 0 V
Z stroke
1.000 UP
1.000 UL
LTb
LCb setrgbcolor
stroke
grestore
end
showpage
%%Trailer
%%DocumentFonts: Helvetica
%%Pages: 1
