%!PS-Adobe-2.0
%%Title: packets-uv-s-mult-packets-uv-dist-linlog.eps
%%Creator: gnuplot 5.0 patchlevel 3
%%CreationDate: Mon May 29 11:14:16 2017
%%DocumentFonts: (atend)
%%BoundingBox: 50 50 554 770
%%Orientation: Landscape
%%Pages: (atend)
%%EndComments
%%BeginProlog
/gnudict 256 dict def
gnudict begin
%
% The following true/false flags may be edited by hand if desired.
% The unit line width and grayscale image gamma correction may also be changed.
%
/Color true def
/Blacktext false def
/Solid false def
/Dashlength 1 def
/Landscape true def
/Level1 false def
/Level3 false def
/Rounded false def
/ClipToBoundingBox false def
/SuppressPDFMark false def
/TransparentPatterns false def
/gnulinewidth 5.000 def
/userlinewidth gnulinewidth def
/Gamma 1.0 def
/BackgroundColor {-1.000 -1.000 -1.000} def
%
/vshift -46 def
/dl1 {
  10.0 Dashlength userlinewidth gnulinewidth div mul mul mul
  Rounded { currentlinewidth 0.75 mul sub dup 0 le { pop 0.01 } if } if
} def
/dl2 {
  10.0 Dashlength userlinewidth gnulinewidth div mul mul mul
  Rounded { currentlinewidth 0.75 mul add } if
} def
/hpt_ 31.5 def
/vpt_ 31.5 def
/hpt hpt_ def
/vpt vpt_ def
/doclip {
  ClipToBoundingBox {
    newpath 50 50 moveto 554 50 lineto 554 770 lineto 50 770 lineto closepath
    clip
  } if
} def
%
% Gnuplot Prolog Version 5.1 (Oct 2015)
%
%/SuppressPDFMark true def
%
/M {moveto} bind def
/L {lineto} bind def
/R {rmoveto} bind def
/V {rlineto} bind def
/N {newpath moveto} bind def
/Z {closepath} bind def
/C {setrgbcolor} bind def
/f {rlineto fill} bind def
/g {setgray} bind def
/Gshow {show} def   % May be redefined later in the file to support UTF-8
/vpt2 vpt 2 mul def
/hpt2 hpt 2 mul def
/Lshow {currentpoint stroke M 0 vshift R 
	Blacktext {gsave 0 setgray textshow grestore} {textshow} ifelse} def
/Rshow {currentpoint stroke M dup stringwidth pop neg vshift R
	Blacktext {gsave 0 setgray textshow grestore} {textshow} ifelse} def
/Cshow {currentpoint stroke M dup stringwidth pop -2 div vshift R 
	Blacktext {gsave 0 setgray textshow grestore} {textshow} ifelse} def
/UP {dup vpt_ mul /vpt exch def hpt_ mul /hpt exch def
  /hpt2 hpt 2 mul def /vpt2 vpt 2 mul def} def
/DL {Color {setrgbcolor Solid {pop []} if 0 setdash}
 {pop pop pop 0 setgray Solid {pop []} if 0 setdash} ifelse} def
/BL {stroke userlinewidth 2 mul setlinewidth
	Rounded {1 setlinejoin 1 setlinecap} if} def
/AL {stroke userlinewidth 2 div setlinewidth
	Rounded {1 setlinejoin 1 setlinecap} if} def
/UL {dup gnulinewidth mul /userlinewidth exch def
	dup 1 lt {pop 1} if 10 mul /udl exch def} def
/PL {stroke userlinewidth setlinewidth
	Rounded {1 setlinejoin 1 setlinecap} if} def
3.8 setmiterlimit
% Classic Line colors (version 5.0)
/LCw {1 1 1} def
/LCb {0 0 0} def
/LCa {0 0 0} def
/LC0 {1 0 0} def
/LC1 {0 1 0} def
/LC2 {0 0 1} def
/LC3 {1 0 1} def
/LC4 {0 1 1} def
/LC5 {1 1 0} def
/LC6 {0 0 0} def
/LC7 {1 0.3 0} def
/LC8 {0.5 0.5 0.5} def
% Default dash patterns (version 5.0)
/LTB {BL [] LCb DL} def
/LTw {PL [] 1 setgray} def
/LTb {PL [] LCb DL} def
/LTa {AL [1 udl mul 2 udl mul] 0 setdash LCa setrgbcolor} def
/LT0 {PL [] LC0 DL} def
/LT1 {PL [2 dl1 3 dl2] LC1 DL} def
/LT2 {PL [1 dl1 1.5 dl2] LC2 DL} def
/LT3 {PL [6 dl1 2 dl2 1 dl1 2 dl2] LC3 DL} def
/LT4 {PL [1 dl1 2 dl2 6 dl1 2 dl2 1 dl1 2 dl2] LC4 DL} def
/LT5 {PL [4 dl1 2 dl2] LC5 DL} def
/LT6 {PL [1.5 dl1 1.5 dl2 1.5 dl1 1.5 dl2 1.5 dl1 6 dl2] LC6 DL} def
/LT7 {PL [3 dl1 3 dl2 1 dl1 3 dl2] LC7 DL} def
/LT8 {PL [2 dl1 2 dl2 2 dl1 6 dl2] LC8 DL} def
/SL {[] 0 setdash} def
/Pnt {stroke [] 0 setdash gsave 1 setlinecap M 0 0 V stroke grestore} def
/Dia {stroke [] 0 setdash 2 copy vpt add M
  hpt neg vpt neg V hpt vpt neg V
  hpt vpt V hpt neg vpt V closepath stroke
  Pnt} def
/Pls {stroke [] 0 setdash vpt sub M 0 vpt2 V
  currentpoint stroke M
  hpt neg vpt neg R hpt2 0 V stroke
 } def
/Box {stroke [] 0 setdash 2 copy exch hpt sub exch vpt add M
  0 vpt2 neg V hpt2 0 V 0 vpt2 V
  hpt2 neg 0 V closepath stroke
  Pnt} def
/Crs {stroke [] 0 setdash exch hpt sub exch vpt add M
  hpt2 vpt2 neg V currentpoint stroke M
  hpt2 neg 0 R hpt2 vpt2 V stroke} def
/TriU {stroke [] 0 setdash 2 copy vpt 1.12 mul add M
  hpt neg vpt -1.62 mul V
  hpt 2 mul 0 V
  hpt neg vpt 1.62 mul V closepath stroke
  Pnt} def
/Star {2 copy Pls Crs} def
/BoxF {stroke [] 0 setdash exch hpt sub exch vpt add M
  0 vpt2 neg V hpt2 0 V 0 vpt2 V
  hpt2 neg 0 V closepath fill} def
/TriUF {stroke [] 0 setdash vpt 1.12 mul add M
  hpt neg vpt -1.62 mul V
  hpt 2 mul 0 V
  hpt neg vpt 1.62 mul V closepath fill} def
/TriD {stroke [] 0 setdash 2 copy vpt 1.12 mul sub M
  hpt neg vpt 1.62 mul V
  hpt 2 mul 0 V
  hpt neg vpt -1.62 mul V closepath stroke
  Pnt} def
/TriDF {stroke [] 0 setdash vpt 1.12 mul sub M
  hpt neg vpt 1.62 mul V
  hpt 2 mul 0 V
  hpt neg vpt -1.62 mul V closepath fill} def
/DiaF {stroke [] 0 setdash vpt add M
  hpt neg vpt neg V hpt vpt neg V
  hpt vpt V hpt neg vpt V closepath fill} def
/Pent {stroke [] 0 setdash 2 copy gsave
  translate 0 hpt M 4 {72 rotate 0 hpt L} repeat
  closepath stroke grestore Pnt} def
/PentF {stroke [] 0 setdash gsave
  translate 0 hpt M 4 {72 rotate 0 hpt L} repeat
  closepath fill grestore} def
/Circle {stroke [] 0 setdash 2 copy
  hpt 0 360 arc stroke Pnt} def
/CircleF {stroke [] 0 setdash hpt 0 360 arc fill} def
/C0 {BL [] 0 setdash 2 copy moveto vpt 90 450 arc} bind def
/C1 {BL [] 0 setdash 2 copy moveto
	2 copy vpt 0 90 arc closepath fill
	vpt 0 360 arc closepath} bind def
/C2 {BL [] 0 setdash 2 copy moveto
	2 copy vpt 90 180 arc closepath fill
	vpt 0 360 arc closepath} bind def
/C3 {BL [] 0 setdash 2 copy moveto
	2 copy vpt 0 180 arc closepath fill
	vpt 0 360 arc closepath} bind def
/C4 {BL [] 0 setdash 2 copy moveto
	2 copy vpt 180 270 arc closepath fill
	vpt 0 360 arc closepath} bind def
/C5 {BL [] 0 setdash 2 copy moveto
	2 copy vpt 0 90 arc
	2 copy moveto
	2 copy vpt 180 270 arc closepath fill
	vpt 0 360 arc} bind def
/C6 {BL [] 0 setdash 2 copy moveto
	2 copy vpt 90 270 arc closepath fill
	vpt 0 360 arc closepath} bind def
/C7 {BL [] 0 setdash 2 copy moveto
	2 copy vpt 0 270 arc closepath fill
	vpt 0 360 arc closepath} bind def
/C8 {BL [] 0 setdash 2 copy moveto
	2 copy vpt 270 360 arc closepath fill
	vpt 0 360 arc closepath} bind def
/C9 {BL [] 0 setdash 2 copy moveto
	2 copy vpt 270 450 arc closepath fill
	vpt 0 360 arc closepath} bind def
/C10 {BL [] 0 setdash 2 copy 2 copy moveto vpt 270 360 arc closepath fill
	2 copy moveto
	2 copy vpt 90 180 arc closepath fill
	vpt 0 360 arc closepath} bind def
/C11 {BL [] 0 setdash 2 copy moveto
	2 copy vpt 0 180 arc closepath fill
	2 copy moveto
	2 copy vpt 270 360 arc closepath fill
	vpt 0 360 arc closepath} bind def
/C12 {BL [] 0 setdash 2 copy moveto
	2 copy vpt 180 360 arc closepath fill
	vpt 0 360 arc closepath} bind def
/C13 {BL [] 0 setdash 2 copy moveto
	2 copy vpt 0 90 arc closepath fill
	2 copy moveto
	2 copy vpt 180 360 arc closepath fill
	vpt 0 360 arc closepath} bind def
/C14 {BL [] 0 setdash 2 copy moveto
	2 copy vpt 90 360 arc closepath fill
	vpt 0 360 arc} bind def
/C15 {BL [] 0 setdash 2 copy vpt 0 360 arc closepath fill
	vpt 0 360 arc closepath} bind def
/Rec {newpath 4 2 roll moveto 1 index 0 rlineto 0 exch rlineto
	neg 0 rlineto closepath} bind def
/Square {dup Rec} bind def
/Bsquare {vpt sub exch vpt sub exch vpt2 Square} bind def
/S0 {BL [] 0 setdash 2 copy moveto 0 vpt rlineto BL Bsquare} bind def
/S1 {BL [] 0 setdash 2 copy vpt Square fill Bsquare} bind def
/S2 {BL [] 0 setdash 2 copy exch vpt sub exch vpt Square fill Bsquare} bind def
/S3 {BL [] 0 setdash 2 copy exch vpt sub exch vpt2 vpt Rec fill Bsquare} bind def
/S4 {BL [] 0 setdash 2 copy exch vpt sub exch vpt sub vpt Square fill Bsquare} bind def
/S5 {BL [] 0 setdash 2 copy 2 copy vpt Square fill
	exch vpt sub exch vpt sub vpt Square fill Bsquare} bind def
/S6 {BL [] 0 setdash 2 copy exch vpt sub exch vpt sub vpt vpt2 Rec fill Bsquare} bind def
/S7 {BL [] 0 setdash 2 copy exch vpt sub exch vpt sub vpt vpt2 Rec fill
	2 copy vpt Square fill Bsquare} bind def
/S8 {BL [] 0 setdash 2 copy vpt sub vpt Square fill Bsquare} bind def
/S9 {BL [] 0 setdash 2 copy vpt sub vpt vpt2 Rec fill Bsquare} bind def
/S10 {BL [] 0 setdash 2 copy vpt sub vpt Square fill 2 copy exch vpt sub exch vpt Square fill
	Bsquare} bind def
/S11 {BL [] 0 setdash 2 copy vpt sub vpt Square fill 2 copy exch vpt sub exch vpt2 vpt Rec fill
	Bsquare} bind def
/S12 {BL [] 0 setdash 2 copy exch vpt sub exch vpt sub vpt2 vpt Rec fill Bsquare} bind def
/S13 {BL [] 0 setdash 2 copy exch vpt sub exch vpt sub vpt2 vpt Rec fill
	2 copy vpt Square fill Bsquare} bind def
/S14 {BL [] 0 setdash 2 copy exch vpt sub exch vpt sub vpt2 vpt Rec fill
	2 copy exch vpt sub exch vpt Square fill Bsquare} bind def
/S15 {BL [] 0 setdash 2 copy Bsquare fill Bsquare} bind def
/D0 {gsave translate 45 rotate 0 0 S0 stroke grestore} bind def
/D1 {gsave translate 45 rotate 0 0 S1 stroke grestore} bind def
/D2 {gsave translate 45 rotate 0 0 S2 stroke grestore} bind def
/D3 {gsave translate 45 rotate 0 0 S3 stroke grestore} bind def
/D4 {gsave translate 45 rotate 0 0 S4 stroke grestore} bind def
/D5 {gsave translate 45 rotate 0 0 S5 stroke grestore} bind def
/D6 {gsave translate 45 rotate 0 0 S6 stroke grestore} bind def
/D7 {gsave translate 45 rotate 0 0 S7 stroke grestore} bind def
/D8 {gsave translate 45 rotate 0 0 S8 stroke grestore} bind def
/D9 {gsave translate 45 rotate 0 0 S9 stroke grestore} bind def
/D10 {gsave translate 45 rotate 0 0 S10 stroke grestore} bind def
/D11 {gsave translate 45 rotate 0 0 S11 stroke grestore} bind def
/D12 {gsave translate 45 rotate 0 0 S12 stroke grestore} bind def
/D13 {gsave translate 45 rotate 0 0 S13 stroke grestore} bind def
/D14 {gsave translate 45 rotate 0 0 S14 stroke grestore} bind def
/D15 {gsave translate 45 rotate 0 0 S15 stroke grestore} bind def
/DiaE {stroke [] 0 setdash vpt add M
  hpt neg vpt neg V hpt vpt neg V
  hpt vpt V hpt neg vpt V closepath stroke} def
/BoxE {stroke [] 0 setdash exch hpt sub exch vpt add M
  0 vpt2 neg V hpt2 0 V 0 vpt2 V
  hpt2 neg 0 V closepath stroke} def
/TriUE {stroke [] 0 setdash vpt 1.12 mul add M
  hpt neg vpt -1.62 mul V
  hpt 2 mul 0 V
  hpt neg vpt 1.62 mul V closepath stroke} def
/TriDE {stroke [] 0 setdash vpt 1.12 mul sub M
  hpt neg vpt 1.62 mul V
  hpt 2 mul 0 V
  hpt neg vpt -1.62 mul V closepath stroke} def
/PentE {stroke [] 0 setdash gsave
  translate 0 hpt M 4 {72 rotate 0 hpt L} repeat
  closepath stroke grestore} def
/CircE {stroke [] 0 setdash 
  hpt 0 360 arc stroke} def
/Opaque {gsave closepath 1 setgray fill grestore 0 setgray closepath} def
/DiaW {stroke [] 0 setdash vpt add M
  hpt neg vpt neg V hpt vpt neg V
  hpt vpt V hpt neg vpt V Opaque stroke} def
/BoxW {stroke [] 0 setdash exch hpt sub exch vpt add M
  0 vpt2 neg V hpt2 0 V 0 vpt2 V
  hpt2 neg 0 V Opaque stroke} def
/TriUW {stroke [] 0 setdash vpt 1.12 mul add M
  hpt neg vpt -1.62 mul V
  hpt 2 mul 0 V
  hpt neg vpt 1.62 mul V Opaque stroke} def
/TriDW {stroke [] 0 setdash vpt 1.12 mul sub M
  hpt neg vpt 1.62 mul V
  hpt 2 mul 0 V
  hpt neg vpt -1.62 mul V Opaque stroke} def
/PentW {stroke [] 0 setdash gsave
  translate 0 hpt M 4 {72 rotate 0 hpt L} repeat
  Opaque stroke grestore} def
/CircW {stroke [] 0 setdash 
  hpt 0 360 arc Opaque stroke} def
/BoxFill {gsave Rec 1 setgray fill grestore} def
/Density {
  /Fillden exch def
  currentrgbcolor
  /ColB exch def /ColG exch def /ColR exch def
  /ColR ColR Fillden mul Fillden sub 1 add def
  /ColG ColG Fillden mul Fillden sub 1 add def
  /ColB ColB Fillden mul Fillden sub 1 add def
  ColR ColG ColB setrgbcolor} def
/BoxColFill {gsave Rec PolyFill} def
/PolyFill {gsave Density fill grestore grestore} def
/h {rlineto rlineto rlineto gsave closepath fill grestore} bind def
%
% PostScript Level 1 Pattern Fill routine for rectangles
% Usage: x y w h s a XX PatternFill
%	x,y = lower left corner of box to be filled
%	w,h = width and height of box
%	  a = angle in degrees between lines and x-axis
%	 XX = 0/1 for no/yes cross-hatch
%
/PatternFill {gsave /PFa [ 9 2 roll ] def
  PFa 0 get PFa 2 get 2 div add PFa 1 get PFa 3 get 2 div add translate
  PFa 2 get -2 div PFa 3 get -2 div PFa 2 get PFa 3 get Rec
  TransparentPatterns {} {gsave 1 setgray fill grestore} ifelse
  clip
  currentlinewidth 0.5 mul setlinewidth
  /PFs PFa 2 get dup mul PFa 3 get dup mul add sqrt def
  0 0 M PFa 5 get rotate PFs -2 div dup translate
  0 1 PFs PFa 4 get div 1 add floor cvi
	{PFa 4 get mul 0 M 0 PFs V} for
  0 PFa 6 get ne {
	0 1 PFs PFa 4 get div 1 add floor cvi
	{PFa 4 get mul 0 2 1 roll M PFs 0 V} for
 } if
  stroke grestore} def
%
/languagelevel where
 {pop languagelevel} {1} ifelse
dup 2 lt
	{/InterpretLevel1 true def
	 /InterpretLevel3 false def}
	{/InterpretLevel1 Level1 def
	 2 gt
	    {/InterpretLevel3 Level3 def}
	    {/InterpretLevel3 false def}
	 ifelse }
 ifelse
%
% PostScript level 2 pattern fill definitions
%
/Level2PatternFill {
/Tile8x8 {/PaintType 2 /PatternType 1 /TilingType 1 /BBox [0 0 8 8] /XStep 8 /YStep 8}
	bind def
/KeepColor {currentrgbcolor [/Pattern /DeviceRGB] setcolorspace} bind def
<< Tile8x8
 /PaintProc {0.5 setlinewidth pop 0 0 M 8 8 L 0 8 M 8 0 L stroke} 
>> matrix makepattern
/Pat1 exch def
<< Tile8x8
 /PaintProc {0.5 setlinewidth pop 0 0 M 8 8 L 0 8 M 8 0 L stroke
	0 4 M 4 8 L 8 4 L 4 0 L 0 4 L stroke}
>> matrix makepattern
/Pat2 exch def
<< Tile8x8
 /PaintProc {0.5 setlinewidth pop 0 0 M 0 8 L
	8 8 L 8 0 L 0 0 L fill}
>> matrix makepattern
/Pat3 exch def
<< Tile8x8
 /PaintProc {0.5 setlinewidth pop -4 8 M 8 -4 L
	0 12 M 12 0 L stroke}
>> matrix makepattern
/Pat4 exch def
<< Tile8x8
 /PaintProc {0.5 setlinewidth pop -4 0 M 8 12 L
	0 -4 M 12 8 L stroke}
>> matrix makepattern
/Pat5 exch def
<< Tile8x8
 /PaintProc {0.5 setlinewidth pop -2 8 M 4 -4 L
	0 12 M 8 -4 L 4 12 M 10 0 L stroke}
>> matrix makepattern
/Pat6 exch def
<< Tile8x8
 /PaintProc {0.5 setlinewidth pop -2 0 M 4 12 L
	0 -4 M 8 12 L 4 -4 M 10 8 L stroke}
>> matrix makepattern
/Pat7 exch def
<< Tile8x8
 /PaintProc {0.5 setlinewidth pop 8 -2 M -4 4 L
	12 0 M -4 8 L 12 4 M 0 10 L stroke}
>> matrix makepattern
/Pat8 exch def
<< Tile8x8
 /PaintProc {0.5 setlinewidth pop 0 -2 M 12 4 L
	-4 0 M 12 8 L -4 4 M 8 10 L stroke}
>> matrix makepattern
/Pat9 exch def
/Pattern1 {PatternBgnd KeepColor Pat1 setpattern} bind def
/Pattern2 {PatternBgnd KeepColor Pat2 setpattern} bind def
/Pattern3 {PatternBgnd KeepColor Pat3 setpattern} bind def
/Pattern4 {PatternBgnd KeepColor Landscape {Pat5} {Pat4} ifelse setpattern} bind def
/Pattern5 {PatternBgnd KeepColor Landscape {Pat4} {Pat5} ifelse setpattern} bind def
/Pattern6 {PatternBgnd KeepColor Landscape {Pat9} {Pat6} ifelse setpattern} bind def
/Pattern7 {PatternBgnd KeepColor Landscape {Pat8} {Pat7} ifelse setpattern} bind def
} def
%
%
%End of PostScript Level 2 code
%
/PatternBgnd {
  TransparentPatterns {} {gsave 1 setgray fill grestore} ifelse
} def
%
% Substitute for Level 2 pattern fill codes with
% grayscale if Level 2 support is not selected.
%
/Level1PatternFill {
/Pattern1 {0.250 Density} bind def
/Pattern2 {0.500 Density} bind def
/Pattern3 {0.750 Density} bind def
/Pattern4 {0.125 Density} bind def
/Pattern5 {0.375 Density} bind def
/Pattern6 {0.625 Density} bind def
/Pattern7 {0.875 Density} bind def
} def
%
% Now test for support of Level 2 code
%
Level1 {Level1PatternFill} {Level2PatternFill} ifelse
%
/Symbol-Oblique /Symbol findfont [1 0 .167 1 0 0] makefont
dup length dict begin {1 index /FID eq {pop pop} {def} ifelse} forall
currentdict end definefont pop
%
/MFshow {
   { dup 5 get 3 ge
     { 5 get 3 eq {gsave} {grestore} ifelse }
     {dup dup 0 get findfont exch 1 get scalefont setfont
     [ currentpoint ] exch dup 2 get 0 exch R dup 5 get 2 ne {dup dup 6
     get exch 4 get {textshow} {stringwidth pop 0 R} ifelse }if dup 5 get 0 eq
     {dup 3 get {2 get neg 0 exch R pop} {pop aload pop M} ifelse} {dup 5
     get 1 eq {dup 2 get exch dup 3 get exch 6 get stringwidth pop -2 div
     dup 0 R} {dup 6 get stringwidth pop -2 div 0 R 6 get
     textshow 2 index {aload pop M neg 3 -1 roll neg R pop pop} {pop pop pop
     pop aload pop M} ifelse }ifelse }ifelse }
     ifelse }
   forall} def
/Gswidth {dup type /stringtype eq {stringwidth} {pop (n) stringwidth} ifelse} def
/MFwidth {0 exch { dup 5 get 3 ge { 5 get 3 eq { 0 } { pop } ifelse }
 {dup 3 get{dup dup 0 get findfont exch 1 get scalefont setfont
     6 get Gswidth pop add} {pop} ifelse} ifelse} forall} def
/MLshow { currentpoint stroke M
  0 exch R
  Blacktext {gsave 0 setgray MFshow grestore} {MFshow} ifelse } bind def
/MRshow { currentpoint stroke M
  exch dup MFwidth neg 3 -1 roll R
  Blacktext {gsave 0 setgray MFshow grestore} {MFshow} ifelse } bind def
/MCshow { currentpoint stroke M
  exch dup MFwidth -2 div 3 -1 roll R
  Blacktext {gsave 0 setgray MFshow grestore} {MFshow} ifelse } bind def
/XYsave    { [( ) 1 2 true false 3 ()] } bind def
/XYrestore { [( ) 1 2 true false 4 ()] } bind def
Level1 SuppressPDFMark or 
{} {
/SDict 10 dict def
systemdict /pdfmark known not {
  userdict /pdfmark systemdict /cleartomark get put
} if
SDict begin [
  /Title (packets-uv-s-mult-packets-uv-dist-linlog.eps)
  /Subject (gnuplot plot)
  /Creator (gnuplot 5.0 patchlevel 3)
  /Author (tiphaine)
%  /Producer (gnuplot)
%  /Keywords ()
  /CreationDate (Mon May 29 11:14:16 2017)
  /DOCINFO pdfmark
end
} ifelse
%
% Support for boxed text - Ethan A Merritt May 2005
%
/InitTextBox { userdict /TBy2 3 -1 roll put userdict /TBx2 3 -1 roll put
           userdict /TBy1 3 -1 roll put userdict /TBx1 3 -1 roll put
	   /Boxing true def } def
/ExtendTextBox { Boxing
    { gsave dup false charpath pathbbox
      dup TBy2 gt {userdict /TBy2 3 -1 roll put} {pop} ifelse
      dup TBx2 gt {userdict /TBx2 3 -1 roll put} {pop} ifelse
      dup TBy1 lt {userdict /TBy1 3 -1 roll put} {pop} ifelse
      dup TBx1 lt {userdict /TBx1 3 -1 roll put} {pop} ifelse
      grestore } if } def
/PopTextBox { newpath TBx1 TBxmargin sub TBy1 TBymargin sub M
               TBx1 TBxmargin sub TBy2 TBymargin add L
	       TBx2 TBxmargin add TBy2 TBymargin add L
	       TBx2 TBxmargin add TBy1 TBymargin sub L closepath } def
/DrawTextBox { PopTextBox stroke /Boxing false def} def
/FillTextBox { gsave PopTextBox 1 1 1 setrgbcolor fill grestore /Boxing false def} def
0 0 0 0 InitTextBox
/TBxmargin 20 def
/TBymargin 20 def
/Boxing false def
/textshow { ExtendTextBox Gshow } def
%
% redundant definitions for compatibility with prologue.ps older than 5.0.2
/LTB {BL [] LCb DL} def
/LTb {PL [] LCb DL} def
end
%%EndProlog
%%Page: 1 1
gnudict begin
gsave
doclip
50 50 translate
0.100 0.100 scale
90 rotate
0 -5040 translate
0 setgray
newpath
(Helvetica) findfont 140 scalefont setfont
BackgroundColor 0 lt 3 1 roll 0 lt exch 0 lt or or not {gsave BackgroundColor C clippath fill grestore} if
1.000 UL
LTb
LCb setrgbcolor
798 280 M
63 0 V
6086 0 R
-63 0 V
stroke
714 280 M
[ [(Helvetica) 140.0 0.0 true true 0 ( 1)]
] -46.7 MRshow
1.000 UL
LTb
LCb setrgbcolor
798 477 M
31 0 V
6118 0 R
-31 0 V
798 738 M
31 0 V
6118 0 R
-31 0 V
798 872 M
31 0 V
6118 0 R
-31 0 V
798 936 M
63 0 V
6086 0 R
-63 0 V
stroke
714 936 M
[ [(Helvetica) 140.0 0.0 true true 0 ( 10)]
] -46.7 MRshow
1.000 UL
LTb
LCb setrgbcolor
798 1133 M
31 0 V
6118 0 R
-31 0 V
798 1394 M
31 0 V
6118 0 R
-31 0 V
798 1528 M
31 0 V
6118 0 R
-31 0 V
798 1592 M
63 0 V
6086 0 R
-63 0 V
stroke
714 1592 M
[ [(Helvetica) 140.0 0.0 true true 0 ( 100)]
] -46.7 MRshow
1.000 UL
LTb
LCb setrgbcolor
798 1789 M
31 0 V
6118 0 R
-31 0 V
798 2050 M
31 0 V
6118 0 R
-31 0 V
798 2184 M
31 0 V
6118 0 R
-31 0 V
798 2248 M
63 0 V
6086 0 R
-63 0 V
stroke
714 2248 M
[ [(Helvetica) 140.0 0.0 true true 0 ( 1000)]
] -46.7 MRshow
1.000 UL
LTb
LCb setrgbcolor
798 2445 M
31 0 V
6118 0 R
-31 0 V
798 2706 M
31 0 V
6118 0 R
-31 0 V
798 2840 M
31 0 V
6118 0 R
-31 0 V
798 2903 M
63 0 V
6086 0 R
-63 0 V
stroke
714 2903 M
[ [(Helvetica) 140.0 0.0 true true 0 ( 10000)]
] -46.7 MRshow
1.000 UL
LTb
LCb setrgbcolor
798 3101 M
31 0 V
6118 0 R
-31 0 V
798 3362 M
31 0 V
6118 0 R
-31 0 V
798 3496 M
31 0 V
6118 0 R
-31 0 V
798 3559 M
63 0 V
6086 0 R
-63 0 V
stroke
714 3559 M
[ [(Helvetica) 140.0 0.0 true true 0 ( 100000)]
] -46.7 MRshow
1.000 UL
LTb
LCb setrgbcolor
798 3757 M
31 0 V
6118 0 R
-31 0 V
798 4018 M
31 0 V
6118 0 R
-31 0 V
798 4152 M
31 0 V
6118 0 R
-31 0 V
798 4215 M
63 0 V
6086 0 R
-63 0 V
stroke
714 4215 M
[ [(Helvetica) 140.0 0.0 true true 0 ( 1x10)]
[(Helvetica) 112.0 70.0 true true 0 (6)]
] -60.7 MRshow
1.000 UL
LTb
LCb setrgbcolor
798 4413 M
31 0 V
6118 0 R
-31 0 V
798 4674 M
31 0 V
6118 0 R
-31 0 V
798 4807 M
31 0 V
6118 0 R
-31 0 V
798 4871 M
63 0 V
6086 0 R
-63 0 V
stroke
714 4871 M
[ [(Helvetica) 140.0 0.0 true true 0 ( 1x10)]
[(Helvetica) 112.0 70.0 true true 0 (7)]
] -60.7 MRshow
1.000 UL
LTb
LCb setrgbcolor
798 280 M
0 63 V
0 4528 R
0 -63 V
stroke
798 140 M
[ [(Helvetica) 140.0 0.0 true true 0 ( 0)]
] -46.7 MCshow
1.000 UL
LTb
LCb setrgbcolor
1823 280 M
0 63 V
0 4528 R
0 -63 V
stroke
1823 140 M
[ [(Helvetica) 140.0 0.0 true true 0 ( 2x10)]
[(Helvetica) 112.0 70.0 true true 0 (12)]
] -60.7 MCshow
1.000 UL
LTb
LCb setrgbcolor
2848 280 M
0 63 V
0 4528 R
0 -63 V
stroke
2848 140 M
[ [(Helvetica) 140.0 0.0 true true 0 ( 4x10)]
[(Helvetica) 112.0 70.0 true true 0 (12)]
] -60.7 MCshow
1.000 UL
LTb
LCb setrgbcolor
3873 280 M
0 63 V
0 4528 R
0 -63 V
stroke
3873 140 M
[ [(Helvetica) 140.0 0.0 true true 0 ( 6x10)]
[(Helvetica) 112.0 70.0 true true 0 (12)]
] -60.7 MCshow
1.000 UL
LTb
LCb setrgbcolor
4897 280 M
0 63 V
0 4528 R
0 -63 V
stroke
4897 140 M
[ [(Helvetica) 140.0 0.0 true true 0 ( 8x10)]
[(Helvetica) 112.0 70.0 true true 0 (12)]
] -60.7 MCshow
1.000 UL
LTb
LCb setrgbcolor
5922 280 M
0 63 V
0 4528 R
0 -63 V
stroke
5922 140 M
[ [(Helvetica) 140.0 0.0 true true 0 ( 1x10)]
[(Helvetica) 112.0 70.0 true true 0 (13)]
] -60.7 MCshow
1.000 UL
LTb
LCb setrgbcolor
6947 280 M
0 63 V
0 4528 R
0 -63 V
stroke
6947 140 M
[ [(Helvetica) 140.0 0.0 true true 0 ( 1.2x10)]
[(Helvetica) 112.0 70.0 true true 0 (13)]
] -60.7 MCshow
1.000 UL
LTb
LCb setrgbcolor
1.000 UL
LTB
LCb setrgbcolor
798 4871 N
798 280 L
6149 0 V
0 4591 V
-6149 0 V
Z stroke
1.000 UP
1.000 UL
LTb
LCb setrgbcolor
% Begin plot #1
1.000 UP
1.000 UL
LTb
0.58 0.00 0.83 C 798 4259 Pls
798 4033 Pls
798 3488 Pls
798 3400 Pls
798 3247 Pls
798 3216 Pls
798 3042 Pls
798 3099 Pls
798 2949 Pls
798 3103 Pls
798 2886 Pls
798 2964 Pls
798 2816 Pls
798 2848 Pls
798 2809 Pls
798 2832 Pls
798 2717 Pls
798 2766 Pls
798 2680 Pls
798 2762 Pls
798 2610 Pls
798 2632 Pls
798 2509 Pls
798 2607 Pls
798 2472 Pls
798 2493 Pls
798 2428 Pls
798 2479 Pls
798 2350 Pls
798 2495 Pls
798 2307 Pls
798 2381 Pls
798 2304 Pls
798 2367 Pls
798 2277 Pls
798 2363 Pls
798 2228 Pls
798 2268 Pls
798 2201 Pls
798 2280 Pls
798 2173 Pls
798 2214 Pls
798 2158 Pls
798 2195 Pls
798 2178 Pls
798 2161 Pls
798 2277 Pls
798 2252 Pls
798 2232 Pls
798 2194 Pls
798 2146 Pls
798 2122 Pls
798 2090 Pls
798 2090 Pls
798 2071 Pls
798 2098 Pls
798 2057 Pls
798 2026 Pls
798 2048 Pls
798 2220 Pls
798 1996 Pls
798 1994 Pls
798 1988 Pls
798 1992 Pls
798 1990 Pls
798 1953 Pls
798 1935 Pls
798 1950 Pls
798 1954 Pls
798 1973 Pls
798 1919 Pls
798 1966 Pls
798 1901 Pls
798 1886 Pls
798 1892 Pls
798 1885 Pls
798 1874 Pls
798 1974 Pls
798 1896 Pls
798 1913 Pls
798 1858 Pls
798 1836 Pls
798 1836 Pls
798 1857 Pls
798 1854 Pls
798 1798 Pls
798 1795 Pls
798 1812 Pls
798 1782 Pls
798 1892 Pls
798 1746 Pls
798 1829 Pls
798 1833 Pls
798 1785 Pls
798 1807 Pls
798 1902 Pls
798 1724 Pls
798 1778 Pls
798 1792 Pls
798 2169 Pls
798 1761 Pls
798 1718 Pls
798 1690 Pls
798 1751 Pls
798 1793 Pls
798 1681 Pls
798 1743 Pls
798 1764 Pls
798 1675 Pls
798 1761 Pls
798 1775 Pls
798 1729 Pls
798 1717 Pls
798 1736 Pls
798 1692 Pls
798 1705 Pls
798 1746 Pls
798 1632 Pls
798 1729 Pls
798 1847 Pls
798 1673 Pls
798 1701 Pls
798 1658 Pls
798 1653 Pls
798 1660 Pls
798 1636 Pls
798 1597 Pls
798 1739 Pls
798 1690 Pls
798 1879 Pls
798 1639 Pls
798 1761 Pls
798 1592 Pls
798 1606 Pls
798 1653 Pls
798 1653 Pls
798 1666 Pls
798 1677 Pls
798 1679 Pls
798 1660 Pls
798 1634 Pls
798 1595 Pls
798 1568 Pls
798 1583 Pls
798 1562 Pls
798 1549 Pls
798 1549 Pls
798 1532 Pls
798 1595 Pls
798 1597 Pls
798 1552 Pls
798 1552 Pls
798 1510 Pls
798 1535 Pls
798 1437 Pls
798 1586 Pls
798 1562 Pls
798 1510 Pls
798 1528 Pls
798 1603 Pls
798 1552 Pls
798 1514 Pls
798 1482 Pls
798 1482 Pls
798 1437 Pls
798 1528 Pls
798 1478 Pls
798 1521 Pls
798 1502 Pls
798 1586 Pls
798 1510 Pls
798 1411 Pls
798 1482 Pls
798 1532 Pls
798 1525 Pls
798 1528 Pls
798 1565 Pls
798 1525 Pls
798 1555 Pls
798 1624 Pls
798 1574 Pls
798 1545 Pls
798 1510 Pls
798 1517 Pls
798 1437 Pls
798 1490 Pls
798 1432 Pls
798 1389 Pls
798 1460 Pls
798 1446 Pls
798 1427 Pls
798 1421 Pls
798 1405 Pls
798 1400 Pls
798 1437 Pls
798 1421 Pls
798 1465 Pls
798 1427 Pls
798 1364 Pls
798 1473 Pls
798 1383 Pls
798 1490 Pls
798 1441 Pls
798 1460 Pls
798 1364 Pls
798 1400 Pls
798 1416 Pls
798 1427 Pls
798 1421 Pls
798 1634 Pls
798 1416 Pls
798 1432 Pls
798 1389 Pls
798 1411 Pls
798 1405 Pls
798 1405 Pls
798 1383 Pls
798 1371 Pls
798 1400 Pls
798 1371 Pls
798 1371 Pls
798 1316 Pls
798 1316 Pls
798 1437 Pls
798 1394 Pls
798 1338 Pls
798 1309 Pls
798 1301 Pls
798 1316 Pls
798 1432 Pls
798 1351 Pls
798 1301 Pls
798 1331 Pls
798 1383 Pls
798 1345 Pls
798 1338 Pls
798 1293 Pls
798 1400 Pls
798 1351 Pls
798 1611 Pls
798 1293 Pls
798 1371 Pls
798 1331 Pls
798 1358 Pls
798 1258 Pls
798 1345 Pls
798 1309 Pls
798 1309 Pls
798 1309 Pls
798 1371 Pls
798 1239 Pls
798 1301 Pls
798 1338 Pls
798 1258 Pls
798 1338 Pls
798 1338 Pls
798 1276 Pls
798 1258 Pls
798 1293 Pls
798 1219 Pls
798 1309 Pls
798 1229 Pls
798 1345 Pls
798 1276 Pls
798 1208 Pls
798 1284 Pls
798 1239 Pls
798 1276 Pls
798 1301 Pls
798 1316 Pls
798 1258 Pls
798 1293 Pls
798 1258 Pls
798 1267 Pls
798 1316 Pls
798 1185 Pls
798 1309 Pls
798 1258 Pls
798 1309 Pls
798 1239 Pls
798 1229 Pls
798 1324 Pls
798 1229 Pls
798 1316 Pls
798 1185 Pls
798 1249 Pls
798 1249 Pls
798 1267 Pls
798 1249 Pls
798 1219 Pls
798 1249 Pls
798 1229 Pls
798 1258 Pls
798 1249 Pls
798 1267 Pls
798 1249 Pls
798 1185 Pls
798 1219 Pls
798 1284 Pls
798 1258 Pls
798 1229 Pls
798 1276 Pls
798 1208 Pls
798 1267 Pls
798 1197 Pls
798 1173 Pls
798 1309 Pls
798 1197 Pls
798 1293 Pls
798 1301 Pls
798 1103 Pls
798 1301 Pls
798 1229 Pls
798 1331 Pls
798 1208 Pls
798 1229 Pls
798 1219 Pls
798 988 Pls
798 1239 Pls
798 1239 Pls
798 1276 Pls
798 1173 Pls
798 1133 Pls
798 1173 Pls
798 1147 Pls
798 1133 Pls
798 1208 Pls
798 1219 Pls
798 1103 Pls
798 1276 Pls
798 1185 Pls
798 1147 Pls
798 1185 Pls
798 1087 Pls
798 1103 Pls
798 1197 Pls
798 1103 Pls
798 1160 Pls
798 1119 Pls
798 1160 Pls
798 963 Pls
798 1249 Pls
798 1185 Pls
798 1087 Pls
798 1258 Pls
798 1032 Pls
798 1087 Pls
798 1301 Pls
798 1119 Pls
798 1160 Pls
798 1147 Pls
798 1133 Pls
798 1185 Pls
798 1147 Pls
798 1173 Pls
798 1185 Pls
798 1197 Pls
798 1208 Pls
798 1133 Pls
798 1284 Pls
798 1070 Pls
798 1208 Pls
798 1147 Pls
798 1119 Pls
798 906 Pls
798 1133 Pls
798 1173 Pls
798 988 Pls
798 1051 Pls
798 1087 Pls
798 1133 Pls
798 1208 Pls
798 1160 Pls
798 1087 Pls
798 1087 Pls
798 936 Pls
798 1070 Pls
798 1133 Pls
798 1087 Pls
798 1087 Pls
798 1070 Pls
798 1051 Pls
798 1197 Pls
798 1119 Pls
798 1119 Pls
798 1070 Pls
798 1103 Pls
798 1032 Pls
798 1133 Pls
798 1103 Pls
798 1032 Pls
798 1133 Pls
798 1133 Pls
798 1032 Pls
798 1051 Pls
798 963 Pls
798 1087 Pls
798 1133 Pls
798 1070 Pls
798 1011 Pls
798 1133 Pls
798 1160 Pls
798 1133 Pls
798 1087 Pls
798 1133 Pls
798 1051 Pls
798 1119 Pls
798 1087 Pls
798 1103 Pls
798 1087 Pls
798 963 Pls
798 1103 Pls
798 1103 Pls
798 1011 Pls
798 1147 Pls
798 1070 Pls
798 1087 Pls
798 1160 Pls
798 1070 Pls
798 1103 Pls
798 1208 Pls
798 1133 Pls
798 1032 Pls
798 1103 Pls
798 1051 Pls
798 1032 Pls
798 1087 Pls
798 1103 Pls
798 1133 Pls
798 1070 Pls
798 790 Pls
798 1087 Pls
798 1133 Pls
798 1087 Pls
798 963 Pls
798 1011 Pls
798 1087 Pls
798 1133 Pls
798 1070 Pls
798 1011 Pls
798 1147 Pls
798 1011 Pls
798 1103 Pls
798 1011 Pls
798 1051 Pls
798 1011 Pls
798 1133 Pls
798 1051 Pls
798 1032 Pls
798 963 Pls
798 1173 Pls
798 1070 Pls
798 872 Pls
798 1011 Pls
798 963 Pls
798 1032 Pls
798 988 Pls
798 1160 Pls
798 1051 Pls
798 1051 Pls
798 1119 Pls
798 1103 Pls
798 936 Pls
798 906 Pls
798 988 Pls
798 1032 Pls
798 963 Pls
798 1032 Pls
798 1087 Pls
798 988 Pls
798 936 Pls
798 1119 Pls
798 1185 Pls
798 1173 Pls
798 936 Pls
798 1119 Pls
798 1070 Pls
798 1147 Pls
798 1051 Pls
798 1119 Pls
798 1070 Pls
798 1011 Pls
798 1051 Pls
798 963 Pls
798 988 Pls
798 936 Pls
798 936 Pls
798 936 Pls
798 1032 Pls
798 936 Pls
798 936 Pls
798 936 Pls
798 1103 Pls
798 834 Pls
798 1087 Pls
798 906 Pls
798 593 Pls
798 936 Pls
798 1032 Pls
798 1011 Pls
798 1032 Pls
798 872 Pls
798 1070 Pls
798 1070 Pls
798 936 Pls
798 906 Pls
798 1011 Pls
798 988 Pls
798 936 Pls
798 1070 Pls
798 1032 Pls
798 872 Pls
798 963 Pls
798 1119 Pls
798 936 Pls
798 906 Pls
798 1070 Pls
798 988 Pls
798 1011 Pls
798 1133 Pls
798 1032 Pls
798 988 Pls
798 1103 Pls
798 872 Pls
798 988 Pls
798 963 Pls
798 1051 Pls
798 963 Pls
798 906 Pls
798 988 Pls
798 1032 Pls
798 936 Pls
798 936 Pls
798 834 Pls
798 906 Pls
798 906 Pls
798 1011 Pls
798 988 Pls
798 1070 Pls
798 1032 Pls
798 790 Pls
798 1087 Pls
798 988 Pls
798 906 Pls
798 1032 Pls
798 872 Pls
798 834 Pls
798 1032 Pls
798 1011 Pls
798 1032 Pls
798 1051 Pls
798 906 Pls
798 834 Pls
798 906 Pls
798 963 Pls
798 906 Pls
798 790 Pls
798 1011 Pls
798 963 Pls
798 963 Pls
798 1051 Pls
798 1011 Pls
798 1011 Pls
798 906 Pls
798 963 Pls
798 906 Pls
798 906 Pls
798 936 Pls
798 738 Pls
798 1011 Pls
798 738 Pls
798 988 Pls
798 1011 Pls
798 906 Pls
798 790 Pls
798 872 Pls
798 906 Pls
798 790 Pls
798 963 Pls
798 1032 Pls
798 963 Pls
798 906 Pls
798 906 Pls
798 936 Pls
798 872 Pls
798 906 Pls
798 834 Pls
798 906 Pls
798 834 Pls
798 834 Pls
798 872 Pls
798 936 Pls
798 963 Pls
798 936 Pls
798 1011 Pls
798 936 Pls
798 834 Pls
798 872 Pls
798 963 Pls
798 906 Pls
798 790 Pls
798 1011 Pls
798 738 Pls
798 936 Pls
798 872 Pls
798 1032 Pls
798 963 Pls
798 790 Pls
798 906 Pls
798 936 Pls
798 790 Pls
798 790 Pls
798 790 Pls
798 834 Pls
798 872 Pls
798 872 Pls
798 906 Pls
798 936 Pls
798 872 Pls
798 988 Pls
798 834 Pls
798 1032 Pls
798 906 Pls
798 906 Pls
798 936 Pls
798 906 Pls
798 1051 Pls
798 1119 Pls
798 1070 Pls
798 1011 Pls
798 790 Pls
798 1051 Pls
798 1051 Pls
798 1011 Pls
798 1032 Pls
798 906 Pls
798 988 Pls
798 1087 Pls
798 1185 Pls
798 1087 Pls
798 1051 Pls
798 1032 Pls
798 988 Pls
798 1051 Pls
798 1197 Pls
798 963 Pls
798 1051 Pls
798 1032 Pls
798 1070 Pls
798 1011 Pls
798 1011 Pls
798 1070 Pls
798 1011 Pls
798 1051 Pls
798 1173 Pls
798 1051 Pls
798 1070 Pls
798 1087 Pls
798 1070 Pls
798 1032 Pls
798 1119 Pls
798 1070 Pls
798 1087 Pls
798 988 Pls
798 1070 Pls
798 936 Pls
798 1103 Pls
798 1103 Pls
798 963 Pls
798 963 Pls
798 1051 Pls
798 963 Pls
798 936 Pls
798 1032 Pls
798 1011 Pls
798 1032 Pls
798 1070 Pls
798 1051 Pls
798 988 Pls
798 1032 Pls
798 1011 Pls
798 675 Pls
798 1032 Pls
798 963 Pls
798 1087 Pls
798 675 Pls
798 1032 Pls
798 988 Pls
798 963 Pls
798 872 Pls
798 906 Pls
798 963 Pls
798 1070 Pls
798 936 Pls
798 1087 Pls
798 1070 Pls
798 906 Pls
798 1011 Pls
798 834 Pls
798 1103 Pls
798 963 Pls
798 988 Pls
798 936 Pls
798 1032 Pls
798 988 Pls
798 872 Pls
798 834 Pls
798 963 Pls
798 936 Pls
798 906 Pls
798 834 Pls
798 675 Pls
798 988 Pls
798 1011 Pls
798 1103 Pls
798 936 Pls
798 834 Pls
798 963 Pls
798 1011 Pls
798 988 Pls
798 1011 Pls
798 906 Pls
798 936 Pls
798 963 Pls
798 872 Pls
798 834 Pls
798 988 Pls
798 988 Pls
798 936 Pls
798 675 Pls
798 675 Pls
798 872 Pls
798 906 Pls
798 963 Pls
798 1011 Pls
798 988 Pls
798 936 Pls
798 872 Pls
798 834 Pls
798 834 Pls
798 738 Pls
798 906 Pls
798 963 Pls
798 477 Pls
798 834 Pls
798 834 Pls
798 790 Pls
798 834 Pls
798 988 Pls
798 738 Pls
798 738 Pls
798 834 Pls
798 872 Pls
798 906 Pls
798 790 Pls
798 790 Pls
798 906 Pls
798 872 Pls
798 936 Pls
798 834 Pls
798 834 Pls
798 834 Pls
798 872 Pls
798 906 Pls
798 872 Pls
798 738 Pls
798 906 Pls
798 675 Pls
798 790 Pls
798 790 Pls
798 936 Pls
798 738 Pls
798 936 Pls
798 593 Pls
798 963 Pls
798 936 Pls
798 675 Pls
798 834 Pls
798 738 Pls
798 872 Pls
798 963 Pls
798 834 Pls
798 936 Pls
798 738 Pls
798 790 Pls
798 872 Pls
798 906 Pls
798 790 Pls
798 593 Pls
798 1011 Pls
798 988 Pls
798 906 Pls
798 1032 Pls
798 593 Pls
798 906 Pls
798 1011 Pls
798 906 Pls
798 834 Pls
798 872 Pls
798 790 Pls
798 790 Pls
798 790 Pls
798 790 Pls
798 834 Pls
798 738 Pls
798 477 Pls
798 790 Pls
798 834 Pls
798 738 Pls
798 834 Pls
798 906 Pls
798 834 Pls
798 963 Pls
798 834 Pls
798 906 Pls
798 738 Pls
798 906 Pls
798 477 Pls
798 936 Pls
798 738 Pls
798 790 Pls
798 593 Pls
798 738 Pls
798 477 Pls
798 675 Pls
798 906 Pls
798 834 Pls
798 593 Pls
798 834 Pls
798 477 Pls
798 593 Pls
798 593 Pls
798 738 Pls
798 790 Pls
798 738 Pls
798 834 Pls
798 738 Pls
798 675 Pls
798 593 Pls
798 738 Pls
798 477 Pls
798 675 Pls
798 477 Pls
798 936 Pls
798 790 Pls
798 834 Pls
798 834 Pls
798 675 Pls
798 593 Pls
798 593 Pls
798 675 Pls
798 477 Pls
798 790 Pls
798 738 Pls
798 593 Pls
798 872 Pls
798 790 Pls
798 790 Pls
798 280 Pls
798 834 Pls
798 834 Pls
798 477 Pls
798 593 Pls
798 477 Pls
798 872 Pls
798 593 Pls
798 738 Pls
798 593 Pls
798 477 Pls
798 280 Pls
798 834 Pls
798 593 Pls
798 593 Pls
798 477 Pls
798 593 Pls
798 834 Pls
798 790 Pls
798 872 Pls
798 477 Pls
798 593 Pls
798 593 Pls
798 477 Pls
798 790 Pls
798 675 Pls
798 675 Pls
798 738 Pls
798 834 Pls
798 738 Pls
798 738 Pls
798 790 Pls
798 834 Pls
798 675 Pls
798 738 Pls
798 738 Pls
798 593 Pls
798 675 Pls
798 675 Pls
798 477 Pls
798 280 Pls
798 936 Pls
798 790 Pls
798 477 Pls
798 790 Pls
798 675 Pls
798 834 Pls
798 790 Pls
798 477 Pls
798 280 Pls
798 675 Pls
798 593 Pls
798 738 Pls
798 593 Pls
798 280 Pls
798 593 Pls
798 738 Pls
798 593 Pls
798 738 Pls
798 477 Pls
798 790 Pls
798 675 Pls
798 675 Pls
798 593 Pls
798 280 Pls
798 675 Pls
798 477 Pls
798 477 Pls
798 593 Pls
798 738 Pls
798 675 Pls
798 280 Pls
798 593 Pls
798 477 Pls
798 872 Pls
798 477 Pls
798 738 Pls
798 738 Pls
798 872 Pls
798 738 Pls
798 280 Pls
798 675 Pls
798 790 Pls
798 593 Pls
798 790 Pls
798 593 Pls
798 593 Pls
798 675 Pls
798 593 Pls
798 790 Pls
798 477 Pls
798 790 Pls
798 477 Pls
798 738 Pls
798 477 Pls
798 738 Pls
798 593 Pls
798 738 Pls
798 675 Pls
798 280 Pls
798 906 Pls
798 738 Pls
798 834 Pls
798 790 Pls
798 834 Pls
798 834 Pls
798 477 Pls
798 593 Pls
798 790 Pls
798 280 Pls
798 593 Pls
798 675 Pls
798 477 Pls
798 593 Pls
798 477 Pls
798 593 Pls
798 477 Pls
798 593 Pls
798 675 Pls
798 790 Pls
798 593 Pls
798 675 Pls
798 675 Pls
798 790 Pls
798 790 Pls
798 477 Pls
798 872 Pls
798 675 Pls
798 738 Pls
798 675 Pls
798 593 Pls
798 790 Pls
798 738 Pls
798 738 Pls
798 280 Pls
798 738 Pls
798 675 Pls
798 790 Pls
798 280 Pls
798 675 Pls
798 738 Pls
798 477 Pls
798 834 Pls
798 477 Pls
798 675 Pls
798 906 Pls
798 738 Pls
798 477 Pls
798 477 Pls
798 675 Pls
798 675 Pls
798 675 Pls
798 675 Pls
798 738 Pls
798 280 Pls
798 675 Pls
798 477 Pls
798 675 Pls
798 477 Pls
798 593 Pls
798 477 Pls
798 280 Pls
798 790 Pls
798 593 Pls
798 790 Pls
798 936 Pls
798 936 Pls
798 477 Pls
798 280 Pls
798 834 Pls
798 593 Pls
798 593 Pls
798 593 Pls
798 790 Pls
798 593 Pls
798 477 Pls
798 280 Pls
798 593 Pls
798 477 Pls
798 593 Pls
798 593 Pls
798 675 Pls
798 280 Pls
798 477 Pls
798 593 Pls
798 593 Pls
798 675 Pls
798 675 Pls
798 477 Pls
798 675 Pls
798 477 Pls
798 675 Pls
798 738 Pls
798 675 Pls
798 738 Pls
798 280 Pls
798 675 Pls
798 738 Pls
798 593 Pls
798 280 Pls
798 477 Pls
798 593 Pls
798 280 Pls
798 738 Pls
798 280 Pls
798 738 Pls
798 280 Pls
798 675 Pls
798 675 Pls
798 280 Pls
798 477 Pls
798 593 Pls
798 280 Pls
798 593 Pls
798 477 Pls
798 280 Pls
798 593 Pls
798 675 Pls
798 738 Pls
798 477 Pls
798 593 Pls
798 477 Pls
798 593 Pls
798 675 Pls
798 675 Pls
798 593 Pls
798 477 Pls
798 675 Pls
798 477 Pls
798 738 Pls
798 280 Pls
798 936 Pls
798 675 Pls
798 738 Pls
798 675 Pls
798 280 Pls
798 280 Pls
798 477 Pls
798 280 Pls
798 477 Pls
798 477 Pls
798 593 Pls
798 477 Pls
798 280 Pls
798 872 Pls
798 872 Pls
798 593 Pls
798 593 Pls
798 477 Pls
798 675 Pls
798 738 Pls
798 477 Pls
798 477 Pls
798 477 Pls
798 477 Pls
798 593 Pls
798 280 Pls
798 593 Pls
798 280 Pls
798 593 Pls
798 593 Pls
798 675 Pls
798 593 Pls
798 477 Pls
798 280 Pls
798 675 Pls
798 675 Pls
798 593 Pls
798 675 Pls
798 593 Pls
798 593 Pls
798 790 Pls
798 790 Pls
798 477 Pls
798 477 Pls
798 593 Pls
798 675 Pls
798 280 Pls
798 834 Pls
798 936 Pls
798 872 Pls
798 675 Pls
798 280 Pls
798 477 Pls
798 675 Pls
798 675 Pls
798 280 Pls
798 477 Pls
798 280 Pls
798 280 Pls
798 280 Pls
798 280 Pls
798 593 Pls
798 593 Pls
798 477 Pls
798 738 Pls
798 593 Pls
798 477 Pls
798 477 Pls
798 675 Pls
798 675 Pls
798 477 Pls
798 675 Pls
798 477 Pls
798 280 Pls
798 593 Pls
798 280 Pls
798 477 Pls
798 477 Pls
798 477 Pls
798 477 Pls
798 477 Pls
798 675 Pls
798 477 Pls
798 477 Pls
798 738 Pls
798 477 Pls
798 593 Pls
798 675 Pls
798 280 Pls
798 593 Pls
798 593 Pls
798 280 Pls
798 593 Pls
798 477 Pls
798 872 Pls
798 593 Pls
798 280 Pls
798 477 Pls
798 593 Pls
798 593 Pls
798 738 Pls
798 477 Pls
798 280 Pls
798 280 Pls
798 280 Pls
798 593 Pls
798 790 Pls
798 675 Pls
798 593 Pls
798 280 Pls
798 738 Pls
798 477 Pls
798 477 Pls
798 280 Pls
798 477 Pls
798 477 Pls
798 593 Pls
798 477 Pls
798 593 Pls
798 280 Pls
798 675 Pls
798 477 Pls
798 477 Pls
798 593 Pls
798 280 Pls
798 477 Pls
798 280 Pls
798 477 Pls
798 280 Pls
798 477 Pls
798 477 Pls
798 477 Pls
798 738 Pls
798 477 Pls
798 593 Pls
798 280 Pls
798 280 Pls
798 477 Pls
798 738 Pls
798 280 Pls
798 280 Pls
798 280 Pls
798 593 Pls
798 477 Pls
798 675 Pls
798 280 Pls
798 593 Pls
798 477 Pls
798 477 Pls
798 477 Pls
798 593 Pls
798 675 Pls
798 790 Pls
798 477 Pls
798 477 Pls
798 738 Pls
798 477 Pls
798 477 Pls
798 790 Pls
798 477 Pls
798 280 Pls
798 280 Pls
798 280 Pls
798 477 Pls
798 738 Pls
798 280 Pls
798 593 Pls
798 280 Pls
798 477 Pls
798 477 Pls
798 477 Pls
798 477 Pls
798 280 Pls
798 477 Pls
798 593 Pls
798 675 Pls
798 477 Pls
798 477 Pls
798 280 Pls
798 477 Pls
798 790 Pls
798 477 Pls
798 280 Pls
798 593 Pls
798 477 Pls
798 280 Pls
798 675 Pls
798 280 Pls
798 280 Pls
798 593 Pls
798 790 Pls
798 280 Pls
798 477 Pls
798 593 Pls
798 790 Pls
798 280 Pls
798 280 Pls
798 790 Pls
798 477 Pls
798 280 Pls
798 593 Pls
798 593 Pls
798 477 Pls
798 593 Pls
798 280 Pls
798 280 Pls
798 477 Pls
798 593 Pls
798 280 Pls
798 675 Pls
798 280 Pls
798 477 Pls
798 675 Pls
798 675 Pls
798 280 Pls
798 280 Pls
798 477 Pls
798 593 Pls
798 593 Pls
798 593 Pls
798 280 Pls
798 477 Pls
798 477 Pls
798 280 Pls
798 477 Pls
798 280 Pls
798 738 Pls
798 280 Pls
798 280 Pls
798 675 Pls
798 738 Pls
798 593 Pls
798 477 Pls
798 477 Pls
798 738 Pls
798 593 Pls
798 280 Pls
798 738 Pls
798 280 Pls
798 593 Pls
798 593 Pls
798 280 Pls
798 738 Pls
798 593 Pls
798 477 Pls
798 280 Pls
798 280 Pls
798 280 Pls
798 675 Pls
798 593 Pls
798 790 Pls
798 477 Pls
798 280 Pls
798 675 Pls
798 675 Pls
798 477 Pls
798 593 Pls
798 593 Pls
798 593 Pls
798 738 Pls
798 477 Pls
798 280 Pls
798 593 Pls
798 477 Pls
798 280 Pls
798 477 Pls
798 477 Pls
798 280 Pls
798 593 Pls
798 280 Pls
798 477 Pls
798 280 Pls
798 593 Pls
798 477 Pls
798 280 Pls
798 280 Pls
798 593 Pls
798 477 Pls
798 593 Pls
798 280 Pls
798 477 Pls
798 477 Pls
798 477 Pls
798 593 Pls
798 477 Pls
798 280 Pls
798 477 Pls
798 593 Pls
798 477 Pls
798 675 Pls
798 477 Pls
798 593 Pls
798 280 Pls
798 280 Pls
798 477 Pls
798 593 Pls
798 906 Pls
798 280 Pls
798 790 Pls
798 593 Pls
798 593 Pls
798 675 Pls
798 280 Pls
798 738 Pls
798 593 Pls
798 593 Pls
798 280 Pls
798 280 Pls
798 477 Pls
798 593 Pls
798 477 Pls
798 280 Pls
798 280 Pls
798 675 Pls
798 477 Pls
798 477 Pls
798 593 Pls
798 593 Pls
798 280 Pls
798 280 Pls
798 593 Pls
798 477 Pls
798 477 Pls
798 477 Pls
798 477 Pls
798 280 Pls
798 280 Pls
798 675 Pls
798 477 Pls
798 593 Pls
798 593 Pls
798 477 Pls
798 280 Pls
798 477 Pls
798 477 Pls
798 675 Pls
798 477 Pls
798 477 Pls
798 477 Pls
798 675 Pls
798 477 Pls
798 675 Pls
798 593 Pls
798 477 Pls
798 477 Pls
798 593 Pls
798 477 Pls
798 738 Pls
798 738 Pls
798 593 Pls
798 477 Pls
798 280 Pls
798 280 Pls
798 477 Pls
798 477 Pls
798 280 Pls
798 477 Pls
798 477 Pls
798 280 Pls
798 593 Pls
798 477 Pls
798 280 Pls
798 280 Pls
798 477 Pls
798 477 Pls
798 280 Pls
798 477 Pls
798 593 Pls
798 593 Pls
798 675 Pls
798 675 Pls
798 593 Pls
798 280 Pls
798 593 Pls
798 477 Pls
798 280 Pls
798 477 Pls
798 477 Pls
798 280 Pls
798 477 Pls
798 280 Pls
798 477 Pls
798 593 Pls
798 280 Pls
798 477 Pls
798 280 Pls
798 280 Pls
798 593 Pls
798 280 Pls
798 593 Pls
798 593 Pls
798 280 Pls
798 834 Pls
798 593 Pls
798 280 Pls
798 280 Pls
798 280 Pls
798 280 Pls
798 477 Pls
798 280 Pls
798 477 Pls
798 477 Pls
798 675 Pls
798 280 Pls
798 477 Pls
798 477 Pls
798 477 Pls
798 477 Pls
798 280 Pls
798 280 Pls
798 280 Pls
798 477 Pls
798 477 Pls
798 280 Pls
798 593 Pls
798 280 Pls
798 477 Pls
798 738 Pls
798 280 Pls
798 280 Pls
798 280 Pls
798 477 Pls
798 477 Pls
798 280 Pls
798 675 Pls
798 675 Pls
798 280 Pls
798 477 Pls
798 593 Pls
798 593 Pls
798 477 Pls
798 593 Pls
798 477 Pls
798 477 Pls
798 675 Pls
798 280 Pls
798 477 Pls
798 593 Pls
798 280 Pls
798 280 Pls
798 593 Pls
798 280 Pls
798 280 Pls
798 280 Pls
798 477 Pls
798 593 Pls
798 280 Pls
798 280 Pls
798 280 Pls
798 280 Pls
798 280 Pls
798 477 Pls
798 280 Pls
798 280 Pls
798 280 Pls
798 593 Pls
798 477 Pls
798 280 Pls
798 477 Pls
798 280 Pls
798 280 Pls
798 280 Pls
798 477 Pls
798 477 Pls
798 280 Pls
798 280 Pls
798 477 Pls
798 280 Pls
798 280 Pls
798 675 Pls
798 477 Pls
798 593 Pls
798 593 Pls
798 593 Pls
798 280 Pls
798 280 Pls
798 477 Pls
798 593 Pls
798 280 Pls
798 477 Pls
798 280 Pls
798 477 Pls
798 593 Pls
798 477 Pls
798 280 Pls
798 477 Pls
798 593 Pls
798 280 Pls
798 280 Pls
798 477 Pls
798 280 Pls
798 280 Pls
798 477 Pls
798 280 Pls
798 477 Pls
798 675 Pls
798 280 Pls
798 593 Pls
798 280 Pls
798 593 Pls
798 280 Pls
798 280 Pls
798 280 Pls
798 593 Pls
798 477 Pls
798 280 Pls
798 280 Pls
798 280 Pls
798 280 Pls
798 280 Pls
798 280 Pls
798 280 Pls
798 477 Pls
798 280 Pls
798 280 Pls
798 280 Pls
798 477 Pls
798 477 Pls
798 477 Pls
798 280 Pls
798 280 Pls
798 477 Pls
798 477 Pls
798 593 Pls
798 280 Pls
798 477 Pls
798 280 Pls
798 280 Pls
798 280 Pls
798 280 Pls
798 280 Pls
798 477 Pls
798 477 Pls
798 280 Pls
798 593 Pls
798 477 Pls
798 675 Pls
798 280 Pls
798 477 Pls
798 280 Pls
798 280 Pls
798 593 Pls
798 280 Pls
798 280 Pls
798 675 Pls
798 280 Pls
798 280 Pls
798 675 Pls
798 477 Pls
798 280 Pls
798 593 Pls
798 280 Pls
798 477 Pls
798 280 Pls
798 280 Pls
798 280 Pls
798 477 Pls
798 280 Pls
798 477 Pls
798 477 Pls
798 477 Pls
798 280 Pls
798 477 Pls
798 280 Pls
798 593 Pls
798 477 Pls
798 593 Pls
798 280 Pls
798 280 Pls
798 280 Pls
798 280 Pls
798 593 Pls
798 477 Pls
798 280 Pls
798 280 Pls
798 280 Pls
798 675 Pls
798 477 Pls
798 280 Pls
798 280 Pls
798 280 Pls
798 593 Pls
798 593 Pls
798 477 Pls
798 675 Pls
798 593 Pls
798 675 Pls
798 477 Pls
798 675 Pls
798 280 Pls
798 477 Pls
798 280 Pls
798 280 Pls
798 593 Pls
798 280 Pls
798 280 Pls
798 280 Pls
798 477 Pls
798 593 Pls
798 477 Pls
798 280 Pls
798 477 Pls
798 738 Pls
798 280 Pls
798 280 Pls
798 280 Pls
798 280 Pls
798 477 Pls
798 280 Pls
798 280 Pls
798 477 Pls
798 477 Pls
798 280 Pls
798 280 Pls
798 280 Pls
798 477 Pls
798 280 Pls
798 593 Pls
798 280 Pls
798 280 Pls
798 280 Pls
798 280 Pls
798 593 Pls
798 280 Pls
798 280 Pls
798 280 Pls
798 280 Pls
798 280 Pls
798 280 Pls
798 280 Pls
798 477 Pls
798 280 Pls
798 280 Pls
798 477 Pls
798 477 Pls
798 477 Pls
798 477 Pls
798 280 Pls
798 280 Pls
798 280 Pls
798 280 Pls
798 477 Pls
798 738 Pls
798 477 Pls
798 280 Pls
798 280 Pls
798 280 Pls
798 280 Pls
798 280 Pls
798 477 Pls
798 280 Pls
798 477 Pls
798 280 Pls
798 593 Pls
798 477 Pls
798 280 Pls
798 280 Pls
798 280 Pls
798 280 Pls
798 477 Pls
798 280 Pls
798 280 Pls
798 477 Pls
798 593 Pls
798 593 Pls
798 280 Pls
798 280 Pls
798 280 Pls
798 280 Pls
798 593 Pls
798 280 Pls
798 675 Pls
798 280 Pls
798 280 Pls
798 280 Pls
798 477 Pls
798 280 Pls
798 280 Pls
798 477 Pls
798 477 Pls
798 280 Pls
798 477 Pls
798 280 Pls
798 477 Pls
798 280 Pls
798 280 Pls
798 593 Pls
798 477 Pls
798 280 Pls
798 280 Pls
798 280 Pls
798 280 Pls
798 280 Pls
798 675 Pls
798 280 Pls
798 477 Pls
798 477 Pls
798 280 Pls
798 477 Pls
798 280 Pls
798 280 Pls
798 675 Pls
798 280 Pls
798 593 Pls
798 280 Pls
798 593 Pls
798 280 Pls
798 477 Pls
798 280 Pls
798 280 Pls
798 477 Pls
798 280 Pls
798 280 Pls
798 280 Pls
798 280 Pls
798 477 Pls
798 477 Pls
798 477 Pls
798 280 Pls
798 280 Pls
798 477 Pls
798 477 Pls
798 477 Pls
798 280 Pls
798 280 Pls
798 280 Pls
798 477 Pls
798 280 Pls
798 280 Pls
798 280 Pls
798 280 Pls
798 280 Pls
798 280 Pls
798 593 Pls
798 280 Pls
798 675 Pls
798 477 Pls
798 593 Pls
798 280 Pls
798 280 Pls
798 280 Pls
798 280 Pls
798 280 Pls
798 280 Pls
798 477 Pls
798 280 Pls
798 477 Pls
798 280 Pls
798 280 Pls
798 477 Pls
798 675 Pls
798 280 Pls
798 593 Pls
798 280 Pls
798 280 Pls
798 477 Pls
798 280 Pls
798 280 Pls
798 477 Pls
798 477 Pls
798 280 Pls
798 477 Pls
798 477 Pls
798 477 Pls
798 593 Pls
798 280 Pls
798 280 Pls
798 477 Pls
798 593 Pls
798 280 Pls
798 280 Pls
798 280 Pls
798 280 Pls
798 280 Pls
798 280 Pls
798 280 Pls
798 280 Pls
798 593 Pls
798 280 Pls
798 593 Pls
798 280 Pls
798 280 Pls
798 593 Pls
798 280 Pls
798 593 Pls
798 280 Pls
798 280 Pls
798 477 Pls
798 280 Pls
798 280 Pls
798 280 Pls
798 280 Pls
798 477 Pls
798 280 Pls
798 593 Pls
798 280 Pls
798 477 Pls
798 280 Pls
798 280 Pls
798 477 Pls
798 280 Pls
798 280 Pls
798 280 Pls
798 280 Pls
798 477 Pls
798 280 Pls
798 280 Pls
798 593 Pls
798 477 Pls
798 738 Pls
798 280 Pls
798 477 Pls
798 477 Pls
798 477 Pls
798 477 Pls
798 280 Pls
798 477 Pls
798 280 Pls
798 477 Pls
798 477 Pls
798 477 Pls
798 280 Pls
798 280 Pls
798 280 Pls
798 280 Pls
798 280 Pls
798 280 Pls
798 280 Pls
798 477 Pls
798 280 Pls
798 280 Pls
798 280 Pls
798 280 Pls
798 280 Pls
798 280 Pls
798 280 Pls
798 280 Pls
798 280 Pls
798 280 Pls
798 280 Pls
798 477 Pls
798 280 Pls
798 593 Pls
798 280 Pls
798 675 Pls
798 477 Pls
798 477 Pls
798 280 Pls
798 477 Pls
798 593 Pls
798 280 Pls
798 280 Pls
798 280 Pls
798 593 Pls
798 477 Pls
798 477 Pls
798 477 Pls
798 477 Pls
798 280 Pls
798 477 Pls
798 477 Pls
798 280 Pls
798 280 Pls
798 280 Pls
798 280 Pls
798 477 Pls
798 280 Pls
798 280 Pls
798 593 Pls
798 280 Pls
798 477 Pls
798 593 Pls
798 280 Pls
798 477 Pls
798 477 Pls
798 477 Pls
798 280 Pls
798 477 Pls
798 280 Pls
798 280 Pls
798 280 Pls
798 280 Pls
798 280 Pls
798 280 Pls
798 280 Pls
798 477 Pls
798 280 Pls
798 280 Pls
798 593 Pls
798 477 Pls
798 593 Pls
798 280 Pls
798 280 Pls
798 280 Pls
798 280 Pls
798 280 Pls
798 280 Pls
798 593 Pls
798 280 Pls
798 280 Pls
798 280 Pls
798 280 Pls
798 280 Pls
798 280 Pls
798 477 Pls
798 280 Pls
798 280 Pls
798 280 Pls
798 477 Pls
798 280 Pls
798 280 Pls
798 280 Pls
798 280 Pls
798 280 Pls
798 280 Pls
798 280 Pls
798 280 Pls
798 280 Pls
798 280 Pls
798 477 Pls
798 280 Pls
798 280 Pls
798 280 Pls
798 280 Pls
798 280 Pls
798 280 Pls
798 280 Pls
798 280 Pls
798 477 Pls
798 280 Pls
798 477 Pls
798 280 Pls
798 280 Pls
798 280 Pls
798 280 Pls
798 477 Pls
798 280 Pls
798 280 Pls
798 280 Pls
798 280 Pls
798 477 Pls
798 280 Pls
798 280 Pls
798 280 Pls
798 280 Pls
798 280 Pls
798 280 Pls
798 280 Pls
798 280 Pls
798 280 Pls
798 280 Pls
798 280 Pls
798 280 Pls
798 280 Pls
798 280 Pls
798 280 Pls
798 280 Pls
798 280 Pls
798 280 Pls
798 280 Pls
798 280 Pls
798 477 Pls
798 280 Pls
798 477 Pls
798 477 Pls
798 477 Pls
798 280 Pls
798 280 Pls
798 477 Pls
798 280 Pls
798 280 Pls
798 280 Pls
798 477 Pls
798 280 Pls
798 280 Pls
798 280 Pls
798 280 Pls
798 280 Pls
798 280 Pls
798 280 Pls
798 280 Pls
798 280 Pls
798 280 Pls
798 280 Pls
798 280 Pls
798 280 Pls
798 280 Pls
798 280 Pls
798 280 Pls
798 477 Pls
798 280 Pls
798 280 Pls
798 280 Pls
798 280 Pls
798 477 Pls
798 280 Pls
798 280 Pls
798 280 Pls
798 280 Pls
798 280 Pls
798 477 Pls
798 280 Pls
798 280 Pls
798 477 Pls
798 593 Pls
798 477 Pls
798 280 Pls
798 280 Pls
798 280 Pls
798 477 Pls
798 593 Pls
798 280 Pls
798 280 Pls
798 280 Pls
798 280 Pls
798 280 Pls
798 280 Pls
798 280 Pls
798 280 Pls
798 280 Pls
798 280 Pls
798 477 Pls
798 280 Pls
798 280 Pls
798 280 Pls
798 280 Pls
798 280 Pls
798 280 Pls
798 280 Pls
798 280 Pls
798 280 Pls
798 280 Pls
798 280 Pls
798 477 Pls
798 280 Pls
798 280 Pls
798 280 Pls
798 477 Pls
798 280 Pls
798 280 Pls
798 280 Pls
798 280 Pls
798 477 Pls
798 280 Pls
798 280 Pls
798 477 Pls
798 477 Pls
798 477 Pls
798 477 Pls
798 280 Pls
798 280 Pls
798 593 Pls
798 280 Pls
798 280 Pls
798 280 Pls
798 477 Pls
798 280 Pls
798 280 Pls
798 280 Pls
798 280 Pls
798 280 Pls
798 280 Pls
798 280 Pls
798 280 Pls
798 280 Pls
798 280 Pls
798 280 Pls
798 280 Pls
798 280 Pls
798 280 Pls
798 477 Pls
798 477 Pls
798 280 Pls
798 280 Pls
798 280 Pls
798 280 Pls
798 280 Pls
798 280 Pls
798 280 Pls
798 280 Pls
798 477 Pls
798 477 Pls
798 675 Pls
798 280 Pls
798 280 Pls
798 477 Pls
798 280 Pls
798 593 Pls
798 280 Pls
798 280 Pls
798 477 Pls
798 280 Pls
798 280 Pls
798 280 Pls
798 280 Pls
798 280 Pls
798 280 Pls
798 280 Pls
798 280 Pls
798 280 Pls
798 280 Pls
798 280 Pls
798 280 Pls
798 477 Pls
798 280 Pls
798 280 Pls
798 280 Pls
798 280 Pls
798 280 Pls
798 280 Pls
798 280 Pls
798 593 Pls
798 477 Pls
798 477 Pls
798 280 Pls
798 280 Pls
798 477 Pls
798 280 Pls
798 280 Pls
798 280 Pls
798 280 Pls
798 280 Pls
798 280 Pls
798 280 Pls
798 280 Pls
798 280 Pls
798 477 Pls
798 280 Pls
798 280 Pls
798 477 Pls
798 280 Pls
798 280 Pls
798 477 Pls
798 477 Pls
798 280 Pls
798 280 Pls
798 280 Pls
798 280 Pls
798 280 Pls
798 280 Pls
798 280 Pls
798 477 Pls
798 280 Pls
798 280 Pls
798 280 Pls
798 280 Pls
798 280 Pls
798 280 Pls
798 280 Pls
798 280 Pls
798 477 Pls
798 280 Pls
798 280 Pls
798 280 Pls
798 280 Pls
798 280 Pls
798 280 Pls
798 280 Pls
798 477 Pls
798 280 Pls
798 280 Pls
798 280 Pls
798 477 Pls
798 477 Pls
798 675 Pls
798 280 Pls
798 280 Pls
798 593 Pls
798 280 Pls
798 280 Pls
798 675 Pls
798 477 Pls
798 280 Pls
798 675 Pls
798 834 Pls
798 1416 Pls
798 280 Pls
798 280 Pls
798 280 Pls
798 477 Pls
798 280 Pls
798 280 Pls
798 477 Pls
798 280 Pls
798 280 Pls
798 280 Pls
798 280 Pls
798 280 Pls
798 280 Pls
798 477 Pls
798 280 Pls
798 477 Pls
798 280 Pls
798 280 Pls
798 280 Pls
798 280 Pls
798 280 Pls
798 280 Pls
798 477 Pls
798 280 Pls
798 280 Pls
798 280 Pls
798 280 Pls
798 280 Pls
798 477 Pls
798 280 Pls
798 280 Pls
798 280 Pls
798 280 Pls
798 280 Pls
798 280 Pls
798 280 Pls
798 477 Pls
798 280 Pls
798 280 Pls
798 280 Pls
798 593 Pls
798 280 Pls
798 280 Pls
798 280 Pls
798 280 Pls
798 280 Pls
798 477 Pls
798 280 Pls
798 280 Pls
798 280 Pls
798 280 Pls
798 477 Pls
798 280 Pls
798 280 Pls
798 280 Pls
798 280 Pls
798 280 Pls
798 280 Pls
798 280 Pls
798 280 Pls
798 280 Pls
798 280 Pls
798 280 Pls
798 280 Pls
798 280 Pls
798 477 Pls
798 280 Pls
798 280 Pls
798 280 Pls
798 280 Pls
798 280 Pls
798 280 Pls
798 280 Pls
798 477 Pls
798 280 Pls
798 280 Pls
798 280 Pls
798 477 Pls
798 280 Pls
798 280 Pls
798 477 Pls
798 280 Pls
798 280 Pls
798 280 Pls
798 280 Pls
798 280 Pls
798 738 Pls
798 280 Pls
798 280 Pls
798 280 Pls
798 280 Pls
798 280 Pls
798 280 Pls
798 280 Pls
798 280 Pls
798 280 Pls
798 280 Pls
798 280 Pls
798 280 Pls
798 280 Pls
798 280 Pls
798 280 Pls
798 477 Pls
798 280 Pls
798 280 Pls
798 280 Pls
798 280 Pls
798 280 Pls
798 280 Pls
798 477 Pls
798 593 Pls
798 280 Pls
798 477 Pls
798 280 Pls
798 280 Pls
798 280 Pls
798 280 Pls
798 477 Pls
798 280 Pls
798 280 Pls
798 280 Pls
798 280 Pls
798 477 Pls
798 280 Pls
798 280 Pls
798 280 Pls
798 280 Pls
798 280 Pls
798 280 Pls
798 593 Pls
798 280 Pls
798 477 Pls
798 280 Pls
798 280 Pls
798 280 Pls
798 280 Pls
798 280 Pls
798 280 Pls
798 280 Pls
798 280 Pls
798 280 Pls
798 280 Pls
798 280 Pls
798 280 Pls
798 477 Pls
798 280 Pls
798 280 Pls
798 280 Pls
798 280 Pls
798 280 Pls
798 280 Pls
798 593 Pls
798 280 Pls
798 280 Pls
798 280 Pls
798 280 Pls
798 280 Pls
798 477 Pls
798 280 Pls
798 280 Pls
798 280 Pls
798 280 Pls
798 280 Pls
798 280 Pls
798 477 Pls
798 280 Pls
798 280 Pls
798 280 Pls
798 280 Pls
798 593 Pls
798 593 Pls
798 593 Pls
798 280 Pls
798 477 Pls
798 280 Pls
798 280 Pls
798 280 Pls
798 280 Pls
798 280 Pls
798 280 Pls
798 280 Pls
798 280 Pls
798 280 Pls
798 280 Pls
798 280 Pls
798 280 Pls
798 280 Pls
798 280 Pls
798 280 Pls
798 280 Pls
798 280 Pls
798 280 Pls
798 280 Pls
798 477 Pls
798 280 Pls
798 280 Pls
798 280 Pls
798 280 Pls
798 477 Pls
798 280 Pls
798 280 Pls
798 280 Pls
798 477 Pls
798 280 Pls
798 280 Pls
798 280 Pls
798 477 Pls
798 280 Pls
798 280 Pls
798 280 Pls
798 280 Pls
798 280 Pls
798 280 Pls
798 280 Pls
798 280 Pls
798 280 Pls
798 280 Pls
798 280 Pls
798 280 Pls
798 280 Pls
798 280 Pls
798 593 Pls
798 280 Pls
798 280 Pls
798 280 Pls
798 280 Pls
798 280 Pls
798 280 Pls
798 280 Pls
798 280 Pls
798 477 Pls
798 477 Pls
798 280 Pls
798 593 Pls
798 280 Pls
798 280 Pls
798 280 Pls
798 477 Pls
798 280 Pls
798 280 Pls
798 280 Pls
798 280 Pls
798 280 Pls
798 280 Pls
798 280 Pls
798 280 Pls
798 280 Pls
798 477 Pls
798 280 Pls
798 280 Pls
798 280 Pls
798 280 Pls
798 477 Pls
798 280 Pls
798 280 Pls
798 280 Pls
798 280 Pls
798 280 Pls
798 280 Pls
798 280 Pls
798 280 Pls
798 280 Pls
798 280 Pls
798 280 Pls
798 280 Pls
798 477 Pls
798 280 Pls
798 280 Pls
798 280 Pls
798 280 Pls
798 280 Pls
798 280 Pls
798 280 Pls
798 280 Pls
798 280 Pls
798 280 Pls
798 280 Pls
798 280 Pls
798 280 Pls
798 280 Pls
798 280 Pls
798 280 Pls
798 280 Pls
798 280 Pls
798 280 Pls
798 280 Pls
798 477 Pls
798 280 Pls
798 280 Pls
798 280 Pls
798 280 Pls
798 280 Pls
798 280 Pls
798 477 Pls
798 280 Pls
798 280 Pls
798 280 Pls
798 280 Pls
798 280 Pls
798 280 Pls
798 280 Pls
798 280 Pls
798 280 Pls
798 280 Pls
798 280 Pls
798 280 Pls
798 280 Pls
798 280 Pls
798 280 Pls
798 280 Pls
798 280 Pls
798 280 Pls
798 280 Pls
798 280 Pls
798 280 Pls
798 280 Pls
798 280 Pls
798 280 Pls
798 280 Pls
798 280 Pls
798 477 Pls
798 280 Pls
798 280 Pls
798 280 Pls
798 280 Pls
798 280 Pls
798 280 Pls
798 477 Pls
798 280 Pls
798 280 Pls
798 280 Pls
798 280 Pls
798 280 Pls
798 280 Pls
798 280 Pls
798 280 Pls
798 280 Pls
798 477 Pls
798 280 Pls
798 280 Pls
798 280 Pls
798 280 Pls
798 280 Pls
798 280 Pls
798 280 Pls
798 280 Pls
798 280 Pls
798 280 Pls
798 280 Pls
798 280 Pls
798 280 Pls
798 280 Pls
798 280 Pls
798 477 Pls
798 280 Pls
798 280 Pls
798 280 Pls
798 280 Pls
798 280 Pls
798 477 Pls
798 477 Pls
798 280 Pls
798 280 Pls
798 280 Pls
798 280 Pls
798 280 Pls
798 280 Pls
798 280 Pls
798 280 Pls
798 280 Pls
798 280 Pls
798 593 Pls
798 280 Pls
798 280 Pls
798 280 Pls
798 280 Pls
798 593 Pls
798 280 Pls
798 477 Pls
798 280 Pls
798 477 Pls
798 280 Pls
798 477 Pls
798 280 Pls
798 280 Pls
798 280 Pls
798 280 Pls
798 280 Pls
798 280 Pls
798 280 Pls
798 280 Pls
798 280 Pls
798 280 Pls
798 280 Pls
798 280 Pls
798 280 Pls
798 280 Pls
798 280 Pls
798 280 Pls
798 477 Pls
798 280 Pls
798 280 Pls
798 280 Pls
798 280 Pls
798 280 Pls
798 280 Pls
798 280 Pls
798 477 Pls
798 280 Pls
798 280 Pls
798 280 Pls
798 280 Pls
798 280 Pls
798 280 Pls
798 280 Pls
798 477 Pls
798 477 Pls
798 280 Pls
798 280 Pls
798 280 Pls
798 280 Pls
798 477 Pls
798 280 Pls
798 280 Pls
798 477 Pls
798 280 Pls
798 280 Pls
798 280 Pls
798 280 Pls
798 280 Pls
798 280 Pls
798 280 Pls
798 280 Pls
798 280 Pls
798 280 Pls
798 280 Pls
798 280 Pls
798 280 Pls
798 280 Pls
798 280 Pls
798 477 Pls
798 593 Pls
798 280 Pls
798 280 Pls
798 280 Pls
798 477 Pls
798 280 Pls
798 280 Pls
798 280 Pls
798 280 Pls
798 280 Pls
798 477 Pls
798 477 Pls
798 280 Pls
798 280 Pls
798 280 Pls
798 280 Pls
798 280 Pls
798 280 Pls
798 280 Pls
798 280 Pls
798 280 Pls
798 280 Pls
798 280 Pls
798 280 Pls
798 280 Pls
798 280 Pls
798 280 Pls
798 280 Pls
798 280 Pls
798 280 Pls
798 477 Pls
798 477 Pls
798 280 Pls
798 280 Pls
798 477 Pls
798 477 Pls
798 280 Pls
798 280 Pls
798 280 Pls
798 280 Pls
798 280 Pls
798 280 Pls
798 280 Pls
798 280 Pls
798 280 Pls
798 593 Pls
798 280 Pls
798 280 Pls
798 280 Pls
798 477 Pls
798 280 Pls
798 280 Pls
798 280 Pls
798 477 Pls
798 280 Pls
798 280 Pls
798 280 Pls
798 280 Pls
798 280 Pls
798 280 Pls
798 280 Pls
798 280 Pls
798 477 Pls
798 280 Pls
798 280 Pls
798 280 Pls
798 280 Pls
798 280 Pls
798 280 Pls
798 280 Pls
798 280 Pls
798 280 Pls
798 477 Pls
798 280 Pls
798 280 Pls
798 280 Pls
798 477 Pls
798 477 Pls
798 675 Pls
798 477 Pls
798 280 Pls
798 280 Pls
798 280 Pls
798 280 Pls
798 280 Pls
798 280 Pls
798 280 Pls
798 280 Pls
798 280 Pls
798 477 Pls
798 280 Pls
798 280 Pls
798 280 Pls
798 280 Pls
798 280 Pls
798 280 Pls
798 477 Pls
798 280 Pls
798 280 Pls
798 280 Pls
798 280 Pls
798 280 Pls
798 280 Pls
798 280 Pls
798 477 Pls
798 280 Pls
798 280 Pls
798 280 Pls
798 280 Pls
798 280 Pls
798 477 Pls
798 280 Pls
798 280 Pls
798 280 Pls
798 280 Pls
798 280 Pls
798 280 Pls
798 280 Pls
798 280 Pls
798 280 Pls
798 280 Pls
798 280 Pls
798 280 Pls
798 280 Pls
798 280 Pls
798 280 Pls
798 280 Pls
798 280 Pls
798 280 Pls
798 280 Pls
798 280 Pls
798 280 Pls
798 280 Pls
798 280 Pls
798 280 Pls
798 280 Pls
798 477 Pls
798 280 Pls
798 280 Pls
798 280 Pls
798 280 Pls
798 280 Pls
798 280 Pls
798 280 Pls
798 280 Pls
798 280 Pls
798 280 Pls
798 280 Pls
798 280 Pls
798 280 Pls
798 280 Pls
798 280 Pls
798 280 Pls
798 477 Pls
798 280 Pls
798 280 Pls
798 477 Pls
798 477 Pls
798 280 Pls
798 280 Pls
798 280 Pls
798 280 Pls
798 477 Pls
798 280 Pls
798 280 Pls
798 280 Pls
798 477 Pls
798 280 Pls
798 280 Pls
798 280 Pls
798 280 Pls
798 280 Pls
798 280 Pls
798 280 Pls
798 280 Pls
798 280 Pls
798 477 Pls
798 280 Pls
798 280 Pls
798 280 Pls
798 280 Pls
798 280 Pls
798 280 Pls
798 280 Pls
798 280 Pls
798 280 Pls
798 280 Pls
798 280 Pls
798 280 Pls
798 280 Pls
798 280 Pls
798 280 Pls
798 280 Pls
798 280 Pls
798 593 Pls
798 280 Pls
798 280 Pls
798 280 Pls
798 280 Pls
798 280 Pls
798 280 Pls
798 280 Pls
798 280 Pls
798 280 Pls
798 280 Pls
798 477 Pls
798 280 Pls
798 280 Pls
798 280 Pls
798 280 Pls
798 280 Pls
798 280 Pls
798 280 Pls
798 280 Pls
798 280 Pls
798 280 Pls
798 280 Pls
798 280 Pls
798 280 Pls
798 280 Pls
798 280 Pls
798 280 Pls
798 280 Pls
798 280 Pls
798 280 Pls
798 280 Pls
798 280 Pls
798 280 Pls
798 280 Pls
798 280 Pls
798 280 Pls
798 280 Pls
798 280 Pls
798 280 Pls
798 280 Pls
798 280 Pls
798 280 Pls
798 280 Pls
798 280 Pls
798 280 Pls
798 280 Pls
798 280 Pls
798 280 Pls
798 280 Pls
798 280 Pls
798 280 Pls
798 280 Pls
798 280 Pls
798 280 Pls
798 280 Pls
798 280 Pls
798 280 Pls
798 280 Pls
798 280 Pls
798 280 Pls
798 280 Pls
798 280 Pls
798 280 Pls
798 280 Pls
798 280 Pls
798 280 Pls
798 280 Pls
798 593 Pls
798 280 Pls
798 280 Pls
798 477 Pls
798 280 Pls
798 280 Pls
798 280 Pls
798 280 Pls
798 280 Pls
798 280 Pls
798 280 Pls
798 280 Pls
798 280 Pls
798 280 Pls
798 280 Pls
798 477 Pls
798 280 Pls
798 280 Pls
798 280 Pls
798 280 Pls
798 280 Pls
798 280 Pls
798 280 Pls
798 280 Pls
798 280 Pls
798 280 Pls
798 280 Pls
798 280 Pls
798 280 Pls
798 280 Pls
798 280 Pls
798 280 Pls
798 280 Pls
798 280 Pls
798 280 Pls
798 280 Pls
798 477 Pls
798 280 Pls
798 280 Pls
798 280 Pls
798 280 Pls
798 280 Pls
798 280 Pls
798 280 Pls
798 280 Pls
798 280 Pls
798 280 Pls
798 280 Pls
798 280 Pls
798 280 Pls
798 280 Pls
798 280 Pls
798 280 Pls
798 280 Pls
798 280 Pls
798 280 Pls
798 280 Pls
798 280 Pls
798 280 Pls
798 280 Pls
798 280 Pls
798 280 Pls
798 280 Pls
798 477 Pls
798 280 Pls
798 280 Pls
798 280 Pls
798 280 Pls
798 280 Pls
798 280 Pls
798 280 Pls
798 280 Pls
798 280 Pls
798 280 Pls
798 280 Pls
798 280 Pls
798 280 Pls
798 280 Pls
798 280 Pls
798 280 Pls
798 280 Pls
798 280 Pls
798 280 Pls
798 280 Pls
798 280 Pls
798 280 Pls
798 280 Pls
798 280 Pls
798 280 Pls
798 280 Pls
798 280 Pls
798 280 Pls
798 280 Pls
798 280 Pls
798 280 Pls
798 280 Pls
798 280 Pls
798 280 Pls
798 280 Pls
798 280 Pls
798 280 Pls
798 280 Pls
798 477 Pls
798 280 Pls
798 280 Pls
798 280 Pls
798 593 Pls
798 280 Pls
798 280 Pls
798 280 Pls
798 280 Pls
798 280 Pls
798 280 Pls
798 280 Pls
798 280 Pls
798 280 Pls
798 280 Pls
798 280 Pls
798 280 Pls
798 280 Pls
798 477 Pls
798 280 Pls
798 280 Pls
798 280 Pls
798 280 Pls
798 477 Pls
798 280 Pls
798 280 Pls
798 280 Pls
798 280 Pls
798 280 Pls
798 280 Pls
798 280 Pls
798 280 Pls
798 280 Pls
798 280 Pls
798 280 Pls
798 280 Pls
798 280 Pls
798 280 Pls
798 280 Pls
798 477 Pls
798 280 Pls
798 280 Pls
798 280 Pls
798 280 Pls
798 280 Pls
798 280 Pls
798 280 Pls
798 280 Pls
798 280 Pls
798 280 Pls
798 280 Pls
798 280 Pls
798 280 Pls
798 280 Pls
798 280 Pls
798 280 Pls
798 280 Pls
798 280 Pls
798 280 Pls
798 280 Pls
798 280 Pls
798 280 Pls
798 280 Pls
798 280 Pls
798 280 Pls
798 280 Pls
798 280 Pls
798 280 Pls
798 280 Pls
798 280 Pls
798 280 Pls
798 280 Pls
798 280 Pls
798 280 Pls
798 280 Pls
798 280 Pls
798 280 Pls
798 280 Pls
798 280 Pls
798 280 Pls
798 280 Pls
798 280 Pls
798 280 Pls
798 280 Pls
798 280 Pls
798 593 Pls
798 280 Pls
798 477 Pls
798 280 Pls
798 280 Pls
798 280 Pls
798 280 Pls
798 280 Pls
798 280 Pls
798 280 Pls
798 280 Pls
798 280 Pls
798 593 Pls
798 280 Pls
798 280 Pls
798 280 Pls
798 280 Pls
798 280 Pls
798 280 Pls
798 280 Pls
798 280 Pls
798 280 Pls
798 280 Pls
798 280 Pls
798 280 Pls
798 280 Pls
798 477 Pls
798 280 Pls
798 280 Pls
798 280 Pls
798 280 Pls
798 280 Pls
798 280 Pls
798 280 Pls
798 280 Pls
798 477 Pls
798 280 Pls
798 280 Pls
798 280 Pls
798 280 Pls
798 280 Pls
798 280 Pls
798 280 Pls
798 280 Pls
798 280 Pls
798 280 Pls
798 280 Pls
798 280 Pls
798 280 Pls
798 280 Pls
798 280 Pls
798 280 Pls
798 280 Pls
798 280 Pls
798 280 Pls
798 280 Pls
798 280 Pls
798 280 Pls
798 280 Pls
798 280 Pls
798 280 Pls
798 280 Pls
798 280 Pls
798 280 Pls
798 280 Pls
798 280 Pls
798 280 Pls
798 280 Pls
798 280 Pls
798 280 Pls
798 280 Pls
798 280 Pls
798 280 Pls
798 280 Pls
798 280 Pls
798 477 Pls
798 280 Pls
798 280 Pls
798 280 Pls
798 280 Pls
798 280 Pls
798 280 Pls
798 280 Pls
798 280 Pls
798 280 Pls
798 280 Pls
798 280 Pls
798 280 Pls
798 280 Pls
798 280 Pls
798 280 Pls
798 280 Pls
798 280 Pls
798 280 Pls
798 280 Pls
798 477 Pls
798 280 Pls
798 280 Pls
798 280 Pls
798 280 Pls
798 280 Pls
798 280 Pls
798 280 Pls
798 280 Pls
798 280 Pls
798 280 Pls
798 280 Pls
798 280 Pls
798 280 Pls
798 280 Pls
798 280 Pls
798 280 Pls
798 280 Pls
798 280 Pls
798 280 Pls
798 280 Pls
798 280 Pls
798 477 Pls
798 280 Pls
798 477 Pls
798 477 Pls
798 477 Pls
798 280 Pls
798 280 Pls
798 280 Pls
798 280 Pls
798 280 Pls
798 280 Pls
798 280 Pls
798 280 Pls
798 280 Pls
798 280 Pls
798 280 Pls
798 280 Pls
798 280 Pls
798 280 Pls
798 280 Pls
798 280 Pls
798 280 Pls
798 280 Pls
798 280 Pls
798 280 Pls
798 280 Pls
798 280 Pls
798 280 Pls
798 280 Pls
798 280 Pls
798 280 Pls
798 280 Pls
798 280 Pls
798 280 Pls
798 280 Pls
798 280 Pls
798 477 Pls
798 280 Pls
798 280 Pls
798 280 Pls
798 280 Pls
798 280 Pls
798 280 Pls
798 280 Pls
798 280 Pls
798 280 Pls
798 280 Pls
798 280 Pls
798 280 Pls
798 280 Pls
798 280 Pls
798 477 Pls
798 280 Pls
798 280 Pls
798 280 Pls
798 280 Pls
798 280 Pls
798 280 Pls
798 280 Pls
798 280 Pls
798 280 Pls
798 280 Pls
798 280 Pls
798 280 Pls
798 280 Pls
798 280 Pls
798 280 Pls
798 280 Pls
798 280 Pls
798 280 Pls
798 280 Pls
798 280 Pls
798 280 Pls
798 280 Pls
798 280 Pls
798 280 Pls
798 280 Pls
798 280 Pls
798 280 Pls
798 280 Pls
798 280 Pls
798 280 Pls
798 280 Pls
798 477 Pls
798 280 Pls
798 280 Pls
798 280 Pls
798 280 Pls
798 280 Pls
798 280 Pls
798 280 Pls
798 280 Pls
798 280 Pls
798 280 Pls
798 280 Pls
798 280 Pls
798 280 Pls
798 280 Pls
798 280 Pls
798 280 Pls
798 280 Pls
798 280 Pls
798 280 Pls
798 280 Pls
798 280 Pls
798 280 Pls
798 280 Pls
798 280 Pls
798 280 Pls
798 477 Pls
798 477 Pls
798 280 Pls
798 280 Pls
798 280 Pls
798 280 Pls
798 280 Pls
798 280 Pls
798 280 Pls
798 280 Pls
798 280 Pls
798 280 Pls
798 280 Pls
798 280 Pls
798 280 Pls
798 280 Pls
798 280 Pls
798 280 Pls
798 280 Pls
798 280 Pls
798 280 Pls
798 280 Pls
798 280 Pls
798 280 Pls
798 280 Pls
798 280 Pls
798 280 Pls
798 280 Pls
798 280 Pls
798 280 Pls
798 280 Pls
798 280 Pls
798 280 Pls
798 280 Pls
798 280 Pls
798 280 Pls
798 280 Pls
798 280 Pls
798 280 Pls
798 280 Pls
798 280 Pls
798 280 Pls
798 280 Pls
798 280 Pls
798 280 Pls
798 477 Pls
798 280 Pls
798 477 Pls
798 477 Pls
798 280 Pls
798 280 Pls
798 280 Pls
798 280 Pls
798 280 Pls
798 280 Pls
798 280 Pls
798 280 Pls
798 280 Pls
798 280 Pls
798 280 Pls
798 280 Pls
798 280 Pls
798 280 Pls
798 280 Pls
798 280 Pls
798 280 Pls
798 280 Pls
798 280 Pls
798 280 Pls
798 280 Pls
798 280 Pls
798 280 Pls
798 280 Pls
798 280 Pls
798 280 Pls
798 280 Pls
798 280 Pls
798 280 Pls
798 280 Pls
798 280 Pls
798 280 Pls
798 280 Pls
798 280 Pls
798 280 Pls
798 280 Pls
798 280 Pls
798 280 Pls
798 280 Pls
798 280 Pls
798 280 Pls
798 280 Pls
798 280 Pls
798 280 Pls
798 280 Pls
798 280 Pls
798 280 Pls
798 280 Pls
798 280 Pls
798 280 Pls
798 280 Pls
798 280 Pls
798 280 Pls
798 280 Pls
798 280 Pls
798 280 Pls
798 280 Pls
798 280 Pls
798 280 Pls
798 280 Pls
798 280 Pls
798 280 Pls
798 280 Pls
798 280 Pls
798 280 Pls
798 280 Pls
798 280 Pls
798 280 Pls
798 280 Pls
798 280 Pls
798 280 Pls
798 280 Pls
798 280 Pls
798 280 Pls
798 280 Pls
798 280 Pls
798 280 Pls
798 477 Pls
798 280 Pls
798 280 Pls
798 280 Pls
798 477 Pls
798 280 Pls
798 280 Pls
798 280 Pls
798 280 Pls
798 280 Pls
798 280 Pls
798 280 Pls
798 280 Pls
798 280 Pls
798 280 Pls
798 280 Pls
798 280 Pls
798 280 Pls
798 280 Pls
798 280 Pls
798 280 Pls
798 280 Pls
798 280 Pls
798 477 Pls
798 280 Pls
798 280 Pls
798 280 Pls
798 280 Pls
798 280 Pls
798 280 Pls
798 280 Pls
798 280 Pls
798 280 Pls
798 280 Pls
798 280 Pls
798 280 Pls
798 280 Pls
798 280 Pls
798 280 Pls
798 280 Pls
798 280 Pls
798 280 Pls
798 280 Pls
798 280 Pls
798 280 Pls
798 280 Pls
798 280 Pls
798 280 Pls
798 280 Pls
798 280 Pls
798 280 Pls
798 280 Pls
798 280 Pls
798 280 Pls
798 280 Pls
798 280 Pls
798 280 Pls
798 280 Pls
798 280 Pls
798 280 Pls
798 280 Pls
798 280 Pls
798 280 Pls
798 477 Pls
798 280 Pls
798 280 Pls
798 280 Pls
798 280 Pls
798 280 Pls
798 280 Pls
798 280 Pls
798 280 Pls
798 280 Pls
798 280 Pls
798 280 Pls
798 280 Pls
798 280 Pls
798 280 Pls
798 280 Pls
798 280 Pls
798 280 Pls
798 280 Pls
798 280 Pls
798 280 Pls
798 280 Pls
798 280 Pls
798 280 Pls
798 280 Pls
798 280 Pls
798 280 Pls
798 280 Pls
798 280 Pls
798 280 Pls
798 280 Pls
798 280 Pls
798 280 Pls
798 280 Pls
798 280 Pls
798 280 Pls
798 280 Pls
798 280 Pls
798 280 Pls
798 280 Pls
798 280 Pls
798 280 Pls
798 280 Pls
798 280 Pls
798 280 Pls
798 280 Pls
798 280 Pls
798 280 Pls
798 280 Pls
798 280 Pls
798 280 Pls
798 280 Pls
798 280 Pls
798 280 Pls
798 280 Pls
798 280 Pls
798 280 Pls
798 280 Pls
798 280 Pls
798 280 Pls
798 280 Pls
798 280 Pls
798 280 Pls
798 280 Pls
798 280 Pls
798 280 Pls
798 280 Pls
798 280 Pls
798 280 Pls
798 280 Pls
798 280 Pls
798 280 Pls
798 280 Pls
798 280 Pls
798 280 Pls
798 280 Pls
798 280 Pls
798 280 Pls
798 280 Pls
798 280 Pls
798 280 Pls
798 280 Pls
798 280 Pls
798 280 Pls
798 280 Pls
798 280 Pls
798 280 Pls
798 280 Pls
798 280 Pls
798 280 Pls
798 280 Pls
798 280 Pls
798 280 Pls
798 280 Pls
798 280 Pls
798 280 Pls
798 280 Pls
798 280 Pls
798 280 Pls
798 280 Pls
798 280 Pls
798 280 Pls
798 280 Pls
798 280 Pls
798 280 Pls
798 280 Pls
798 280 Pls
798 280 Pls
798 280 Pls
798 280 Pls
798 280 Pls
798 280 Pls
798 280 Pls
798 280 Pls
798 280 Pls
798 280 Pls
798 280 Pls
798 280 Pls
798 280 Pls
798 280 Pls
798 280 Pls
798 280 Pls
798 280 Pls
798 280 Pls
798 280 Pls
798 280 Pls
798 280 Pls
798 280 Pls
798 280 Pls
798 280 Pls
798 280 Pls
798 280 Pls
798 280 Pls
798 280 Pls
798 280 Pls
798 280 Pls
798 280 Pls
798 280 Pls
798 280 Pls
798 280 Pls
798 280 Pls
798 280 Pls
798 280 Pls
798 280 Pls
798 280 Pls
798 280 Pls
798 280 Pls
798 280 Pls
798 280 Pls
798 280 Pls
798 280 Pls
798 280 Pls
798 280 Pls
798 280 Pls
798 280 Pls
798 280 Pls
798 280 Pls
798 280 Pls
798 280 Pls
798 280 Pls
798 280 Pls
798 280 Pls
798 280 Pls
798 280 Pls
798 280 Pls
798 280 Pls
798 280 Pls
798 280 Pls
798 280 Pls
798 280 Pls
798 280 Pls
798 280 Pls
798 280 Pls
798 280 Pls
798 280 Pls
798 280 Pls
798 280 Pls
798 280 Pls
798 280 Pls
798 280 Pls
798 280 Pls
798 280 Pls
798 280 Pls
798 280 Pls
798 280 Pls
798 280 Pls
798 280 Pls
798 280 Pls
798 280 Pls
798 280 Pls
798 280 Pls
798 280 Pls
798 280 Pls
798 280 Pls
798 280 Pls
798 280 Pls
798 280 Pls
798 280 Pls
798 280 Pls
798 280 Pls
798 280 Pls
798 280 Pls
798 280 Pls
798 280 Pls
798 280 Pls
798 280 Pls
798 280 Pls
798 280 Pls
798 280 Pls
798 280 Pls
798 280 Pls
798 280 Pls
798 280 Pls
798 280 Pls
798 280 Pls
798 280 Pls
798 280 Pls
798 280 Pls
798 280 Pls
798 280 Pls
798 280 Pls
798 280 Pls
798 280 Pls
798 280 Pls
798 280 Pls
798 280 Pls
798 280 Pls
798 280 Pls
798 280 Pls
798 280 Pls
798 280 Pls
798 280 Pls
798 280 Pls
798 280 Pls
798 280 Pls
798 280 Pls
798 280 Pls
798 280 Pls
798 280 Pls
798 280 Pls
798 280 Pls
798 280 Pls
798 280 Pls
798 280 Pls
798 280 Pls
798 280 Pls
798 280 Pls
798 280 Pls
798 280 Pls
798 280 Pls
798 280 Pls
798 280 Pls
798 280 Pls
798 280 Pls
798 280 Pls
798 280 Pls
798 280 Pls
798 280 Pls
798 280 Pls
798 280 Pls
798 280 Pls
798 477 Pls
798 280 Pls
798 280 Pls
798 280 Pls
798 280 Pls
798 280 Pls
798 280 Pls
798 280 Pls
798 280 Pls
798 280 Pls
798 280 Pls
798 280 Pls
798 280 Pls
798 280 Pls
798 280 Pls
798 280 Pls
798 280 Pls
798 477 Pls
798 280 Pls
798 280 Pls
798 280 Pls
798 280 Pls
798 280 Pls
798 280 Pls
798 280 Pls
798 280 Pls
798 280 Pls
798 280 Pls
798 280 Pls
798 280 Pls
798 280 Pls
798 280 Pls
798 280 Pls
798 280 Pls
798 280 Pls
798 280 Pls
798 280 Pls
798 280 Pls
798 280 Pls
798 280 Pls
798 280 Pls
798 280 Pls
798 280 Pls
798 280 Pls
798 280 Pls
798 280 Pls
798 280 Pls
798 280 Pls
798 280 Pls
798 280 Pls
798 280 Pls
798 280 Pls
798 477 Pls
798 280 Pls
798 280 Pls
798 280 Pls
798 280 Pls
798 280 Pls
798 280 Pls
798 280 Pls
798 280 Pls
798 280 Pls
798 280 Pls
798 280 Pls
798 280 Pls
798 280 Pls
798 280 Pls
798 280 Pls
798 280 Pls
798 280 Pls
798 280 Pls
798 280 Pls
798 280 Pls
798 280 Pls
798 280 Pls
798 280 Pls
798 280 Pls
798 280 Pls
798 280 Pls
798 280 Pls
798 280 Pls
798 280 Pls
798 280 Pls
798 280 Pls
798 280 Pls
798 280 Pls
798 280 Pls
798 280 Pls
798 280 Pls
798 280 Pls
798 280 Pls
798 280 Pls
798 280 Pls
798 280 Pls
798 280 Pls
798 280 Pls
798 280 Pls
798 280 Pls
798 280 Pls
798 280 Pls
798 280 Pls
798 477 Pls
798 280 Pls
798 280 Pls
798 280 Pls
798 280 Pls
798 280 Pls
798 280 Pls
798 280 Pls
798 280 Pls
798 280 Pls
798 280 Pls
798 280 Pls
798 280 Pls
798 280 Pls
798 280 Pls
798 280 Pls
798 477 Pls
798 280 Pls
798 280 Pls
798 280 Pls
798 280 Pls
798 280 Pls
798 280 Pls
798 280 Pls
798 280 Pls
798 280 Pls
798 280 Pls
798 280 Pls
798 280 Pls
798 280 Pls
798 280 Pls
798 280 Pls
798 280 Pls
798 280 Pls
798 280 Pls
798 280 Pls
798 280 Pls
798 280 Pls
798 280 Pls
798 280 Pls
798 280 Pls
798 280 Pls
798 280 Pls
798 280 Pls
798 280 Pls
798 280 Pls
798 280 Pls
798 280 Pls
798 280 Pls
798 280 Pls
798 477 Pls
798 280 Pls
798 280 Pls
798 280 Pls
798 280 Pls
798 280 Pls
798 280 Pls
798 280 Pls
798 280 Pls
798 280 Pls
798 280 Pls
798 280 Pls
798 280 Pls
798 280 Pls
798 280 Pls
798 280 Pls
798 280 Pls
798 280 Pls
798 280 Pls
798 280 Pls
798 280 Pls
798 280 Pls
798 280 Pls
798 280 Pls
798 280 Pls
798 280 Pls
798 280 Pls
798 280 Pls
798 280 Pls
798 280 Pls
798 280 Pls
798 280 Pls
798 280 Pls
798 280 Pls
798 280 Pls
798 280 Pls
798 280 Pls
798 280 Pls
798 280 Pls
798 593 Pls
798 477 Pls
798 280 Pls
798 280 Pls
798 280 Pls
798 280 Pls
798 280 Pls
798 280 Pls
798 280 Pls
798 280 Pls
798 280 Pls
798 280 Pls
798 280 Pls
798 280 Pls
798 280 Pls
798 280 Pls
798 280 Pls
798 280 Pls
798 280 Pls
798 280 Pls
798 280 Pls
798 280 Pls
798 280 Pls
798 280 Pls
798 280 Pls
798 280 Pls
798 280 Pls
798 280 Pls
798 280 Pls
798 280 Pls
798 280 Pls
798 280 Pls
798 280 Pls
798 280 Pls
798 280 Pls
798 280 Pls
798 280 Pls
798 280 Pls
798 280 Pls
798 280 Pls
798 280 Pls
798 280 Pls
798 280 Pls
798 280 Pls
798 280 Pls
798 280 Pls
798 280 Pls
798 280 Pls
798 280 Pls
798 280 Pls
798 280 Pls
798 280 Pls
798 280 Pls
798 280 Pls
798 280 Pls
798 280 Pls
798 280 Pls
798 280 Pls
798 280 Pls
798 280 Pls
798 280 Pls
798 280 Pls
798 280 Pls
798 280 Pls
798 280 Pls
798 280 Pls
798 280 Pls
798 280 Pls
798 280 Pls
798 280 Pls
798 280 Pls
798 280 Pls
798 280 Pls
798 280 Pls
798 280 Pls
798 280 Pls
798 280 Pls
798 280 Pls
798 280 Pls
798 280 Pls
798 280 Pls
798 280 Pls
798 280 Pls
798 280 Pls
798 280 Pls
798 280 Pls
798 280 Pls
798 280 Pls
798 280 Pls
798 280 Pls
798 280 Pls
798 280 Pls
798 280 Pls
798 280 Pls
798 280 Pls
798 280 Pls
798 280 Pls
798 280 Pls
798 280 Pls
798 280 Pls
798 280 Pls
798 280 Pls
798 280 Pls
798 280 Pls
798 280 Pls
798 280 Pls
799 280 Pls
799 280 Pls
799 280 Pls
799 280 Pls
799 280 Pls
799 280 Pls
799 280 Pls
799 280 Pls
799 280 Pls
799 280 Pls
799 280 Pls
799 280 Pls
799 280 Pls
799 280 Pls
799 280 Pls
799 280 Pls
799 280 Pls
799 280 Pls
799 280 Pls
799 280 Pls
799 280 Pls
799 280 Pls
799 280 Pls
799 280 Pls
799 280 Pls
799 280 Pls
799 280 Pls
799 280 Pls
799 280 Pls
799 477 Pls
799 280 Pls
799 280 Pls
799 280 Pls
799 280 Pls
799 280 Pls
799 280 Pls
799 280 Pls
799 280 Pls
799 280 Pls
799 280 Pls
799 280 Pls
799 280 Pls
799 280 Pls
799 280 Pls
799 280 Pls
799 280 Pls
799 280 Pls
799 280 Pls
799 280 Pls
799 280 Pls
799 280 Pls
799 280 Pls
799 280 Pls
799 280 Pls
799 280 Pls
799 280 Pls
799 280 Pls
799 280 Pls
799 280 Pls
799 280 Pls
799 280 Pls
799 280 Pls
799 280 Pls
799 280 Pls
799 280 Pls
799 280 Pls
799 280 Pls
799 280 Pls
799 280 Pls
799 280 Pls
799 280 Pls
799 280 Pls
799 280 Pls
799 280 Pls
799 280 Pls
799 280 Pls
799 280 Pls
799 280 Pls
799 280 Pls
799 280 Pls
799 280 Pls
799 280 Pls
799 280 Pls
799 280 Pls
799 280 Pls
799 280 Pls
799 280 Pls
799 280 Pls
799 280 Pls
799 280 Pls
799 280 Pls
799 280 Pls
799 280 Pls
799 280 Pls
799 280 Pls
799 280 Pls
799 280 Pls
799 280 Pls
799 280 Pls
799 280 Pls
799 280 Pls
799 280 Pls
799 280 Pls
799 280 Pls
799 280 Pls
799 280 Pls
799 280 Pls
799 280 Pls
799 280 Pls
799 280 Pls
799 280 Pls
799 280 Pls
799 280 Pls
799 280 Pls
799 280 Pls
799 280 Pls
799 280 Pls
799 280 Pls
799 280 Pls
799 280 Pls
799 280 Pls
799 280 Pls
799 280 Pls
799 280 Pls
799 280 Pls
799 280 Pls
799 280 Pls
799 280 Pls
799 280 Pls
799 280 Pls
799 280 Pls
799 280 Pls
799 280 Pls
799 280 Pls
799 280 Pls
799 280 Pls
799 280 Pls
799 280 Pls
799 280 Pls
799 280 Pls
799 280 Pls
800 280 Pls
800 280 Pls
800 280 Pls
800 280 Pls
800 280 Pls
800 280 Pls
800 280 Pls
800 280 Pls
800 280 Pls
800 280 Pls
800 280 Pls
800 280 Pls
800 280 Pls
800 280 Pls
800 280 Pls
800 280 Pls
800 280 Pls
800 280 Pls
800 280 Pls
800 280 Pls
800 280 Pls
800 280 Pls
800 280 Pls
800 280 Pls
800 280 Pls
800 280 Pls
800 280 Pls
800 280 Pls
800 280 Pls
800 280 Pls
800 280 Pls
800 280 Pls
800 280 Pls
800 280 Pls
800 280 Pls
800 280 Pls
800 280 Pls
800 280 Pls
800 280 Pls
800 280 Pls
800 280 Pls
800 280 Pls
800 280 Pls
800 280 Pls
800 280 Pls
800 280 Pls
800 280 Pls
801 280 Pls
801 280 Pls
801 280 Pls
801 280 Pls
801 280 Pls
801 280 Pls
801 280 Pls
801 280 Pls
801 280 Pls
801 280 Pls
801 280 Pls
801 280 Pls
801 280 Pls
801 280 Pls
801 280 Pls
801 280 Pls
801 280 Pls
801 280 Pls
801 280 Pls
801 280 Pls
801 280 Pls
801 280 Pls
802 280 Pls
802 280 Pls
802 280 Pls
802 280 Pls
802 280 Pls
802 280 Pls
802 280 Pls
802 280 Pls
802 280 Pls
802 280 Pls
802 280 Pls
802 280 Pls
802 280 Pls
802 280 Pls
802 280 Pls
802 280 Pls
802 280 Pls
802 280 Pls
802 280 Pls
802 280 Pls
802 280 Pls
803 280 Pls
803 280 Pls
803 280 Pls
803 280 Pls
803 280 Pls
803 280 Pls
803 280 Pls
803 280 Pls
803 280 Pls
804 280 Pls
804 280 Pls
804 280 Pls
804 280 Pls
804 280 Pls
804 280 Pls
804 280 Pls
804 280 Pls
805 280 Pls
805 280 Pls
805 280 Pls
805 280 Pls
805 280 Pls
805 280 Pls
805 280 Pls
805 280 Pls
806 280 Pls
806 280 Pls
806 280 Pls
806 280 Pls
806 280 Pls
806 280 Pls
806 280 Pls
806 280 Pls
806 280 Pls
806 280 Pls
807 280 Pls
807 280 Pls
807 280 Pls
807 280 Pls
807 280 Pls
807 280 Pls
807 280 Pls
808 280 Pls
808 280 Pls
809 280 Pls
809 280 Pls
809 280 Pls
809 280 Pls
811 280 Pls
811 280 Pls
813 280 Pls
813 280 Pls
813 280 Pls
814 280 Pls
814 280 Pls
815 280 Pls
815 280 Pls
816 280 Pls
816 280 Pls
816 280 Pls
816 280 Pls
817 280 Pls
818 280 Pls
819 280 Pls
820 280 Pls
821 280 Pls
821 280 Pls
822 280 Pls
823 280 Pls
823 280 Pls
823 280 Pls
824 280 Pls
825 280 Pls
826 280 Pls
828 280 Pls
828 280 Pls
829 280 Pls
831 280 Pls
832 280 Pls
833 280 Pls
833 280 Pls
834 280 Pls
834 280 Pls
838 280 Pls
864 280 Pls
870 280 Pls
870 280 Pls
880 280 Pls
894 280 Pls
911 280 Pls
913 280 Pls
941 280 Pls
1028 280 Pls
1043 280 Pls
1074 280 Pls
1109 280 Pls
1135 280 Pls
1150 280 Pls
1268 280 Pls
1269 280 Pls
1295 280 Pls
1534 280 Pls
1665 280 Pls
1991 280 Pls
2142 280 Pls
3581 280 Pls
6035 280 Pls
% End plot #1
2.000 UL
LTb
LCb setrgbcolor
1.000 UL
LTB
LCb setrgbcolor
798 4871 N
798 280 L
6149 0 V
0 4591 V
-6149 0 V
Z stroke
1.000 UP
1.000 UL
LTb
LCb setrgbcolor
stroke
grestore
end
showpage
%%Trailer
%%DocumentFonts: Helvetica
%%Pages: 1
