%!PS-Adobe-2.0
%%Title: packets-uv-s-mult-packets-uv-ccdf-linlog.eps
%%Creator: gnuplot 5.0 patchlevel 3
%%CreationDate: Mon May 29 11:14:16 2017
%%DocumentFonts: (atend)
%%BoundingBox: 50 50 554 770
%%Orientation: Landscape
%%Pages: (atend)
%%EndComments
%%BeginProlog
/gnudict 256 dict def
gnudict begin
%
% The following true/false flags may be edited by hand if desired.
% The unit line width and grayscale image gamma correction may also be changed.
%
/Color true def
/Blacktext false def
/Solid false def
/Dashlength 1 def
/Landscape true def
/Level1 false def
/Level3 false def
/Rounded false def
/ClipToBoundingBox false def
/SuppressPDFMark false def
/TransparentPatterns false def
/gnulinewidth 5.000 def
/userlinewidth gnulinewidth def
/Gamma 1.0 def
/BackgroundColor {-1.000 -1.000 -1.000} def
%
/vshift -46 def
/dl1 {
  10.0 Dashlength userlinewidth gnulinewidth div mul mul mul
  Rounded { currentlinewidth 0.75 mul sub dup 0 le { pop 0.01 } if } if
} def
/dl2 {
  10.0 Dashlength userlinewidth gnulinewidth div mul mul mul
  Rounded { currentlinewidth 0.75 mul add } if
} def
/hpt_ 31.5 def
/vpt_ 31.5 def
/hpt hpt_ def
/vpt vpt_ def
/doclip {
  ClipToBoundingBox {
    newpath 50 50 moveto 554 50 lineto 554 770 lineto 50 770 lineto closepath
    clip
  } if
} def
%
% Gnuplot Prolog Version 5.1 (Oct 2015)
%
%/SuppressPDFMark true def
%
/M {moveto} bind def
/L {lineto} bind def
/R {rmoveto} bind def
/V {rlineto} bind def
/N {newpath moveto} bind def
/Z {closepath} bind def
/C {setrgbcolor} bind def
/f {rlineto fill} bind def
/g {setgray} bind def
/Gshow {show} def   % May be redefined later in the file to support UTF-8
/vpt2 vpt 2 mul def
/hpt2 hpt 2 mul def
/Lshow {currentpoint stroke M 0 vshift R 
	Blacktext {gsave 0 setgray textshow grestore} {textshow} ifelse} def
/Rshow {currentpoint stroke M dup stringwidth pop neg vshift R
	Blacktext {gsave 0 setgray textshow grestore} {textshow} ifelse} def
/Cshow {currentpoint stroke M dup stringwidth pop -2 div vshift R 
	Blacktext {gsave 0 setgray textshow grestore} {textshow} ifelse} def
/UP {dup vpt_ mul /vpt exch def hpt_ mul /hpt exch def
  /hpt2 hpt 2 mul def /vpt2 vpt 2 mul def} def
/DL {Color {setrgbcolor Solid {pop []} if 0 setdash}
 {pop pop pop 0 setgray Solid {pop []} if 0 setdash} ifelse} def
/BL {stroke userlinewidth 2 mul setlinewidth
	Rounded {1 setlinejoin 1 setlinecap} if} def
/AL {stroke userlinewidth 2 div setlinewidth
	Rounded {1 setlinejoin 1 setlinecap} if} def
/UL {dup gnulinewidth mul /userlinewidth exch def
	dup 1 lt {pop 1} if 10 mul /udl exch def} def
/PL {stroke userlinewidth setlinewidth
	Rounded {1 setlinejoin 1 setlinecap} if} def
3.8 setmiterlimit
% Classic Line colors (version 5.0)
/LCw {1 1 1} def
/LCb {0 0 0} def
/LCa {0 0 0} def
/LC0 {1 0 0} def
/LC1 {0 1 0} def
/LC2 {0 0 1} def
/LC3 {1 0 1} def
/LC4 {0 1 1} def
/LC5 {1 1 0} def
/LC6 {0 0 0} def
/LC7 {1 0.3 0} def
/LC8 {0.5 0.5 0.5} def
% Default dash patterns (version 5.0)
/LTB {BL [] LCb DL} def
/LTw {PL [] 1 setgray} def
/LTb {PL [] LCb DL} def
/LTa {AL [1 udl mul 2 udl mul] 0 setdash LCa setrgbcolor} def
/LT0 {PL [] LC0 DL} def
/LT1 {PL [2 dl1 3 dl2] LC1 DL} def
/LT2 {PL [1 dl1 1.5 dl2] LC2 DL} def
/LT3 {PL [6 dl1 2 dl2 1 dl1 2 dl2] LC3 DL} def
/LT4 {PL [1 dl1 2 dl2 6 dl1 2 dl2 1 dl1 2 dl2] LC4 DL} def
/LT5 {PL [4 dl1 2 dl2] LC5 DL} def
/LT6 {PL [1.5 dl1 1.5 dl2 1.5 dl1 1.5 dl2 1.5 dl1 6 dl2] LC6 DL} def
/LT7 {PL [3 dl1 3 dl2 1 dl1 3 dl2] LC7 DL} def
/LT8 {PL [2 dl1 2 dl2 2 dl1 6 dl2] LC8 DL} def
/SL {[] 0 setdash} def
/Pnt {stroke [] 0 setdash gsave 1 setlinecap M 0 0 V stroke grestore} def
/Dia {stroke [] 0 setdash 2 copy vpt add M
  hpt neg vpt neg V hpt vpt neg V
  hpt vpt V hpt neg vpt V closepath stroke
  Pnt} def
/Pls {stroke [] 0 setdash vpt sub M 0 vpt2 V
  currentpoint stroke M
  hpt neg vpt neg R hpt2 0 V stroke
 } def
/Box {stroke [] 0 setdash 2 copy exch hpt sub exch vpt add M
  0 vpt2 neg V hpt2 0 V 0 vpt2 V
  hpt2 neg 0 V closepath stroke
  Pnt} def
/Crs {stroke [] 0 setdash exch hpt sub exch vpt add M
  hpt2 vpt2 neg V currentpoint stroke M
  hpt2 neg 0 R hpt2 vpt2 V stroke} def
/TriU {stroke [] 0 setdash 2 copy vpt 1.12 mul add M
  hpt neg vpt -1.62 mul V
  hpt 2 mul 0 V
  hpt neg vpt 1.62 mul V closepath stroke
  Pnt} def
/Star {2 copy Pls Crs} def
/BoxF {stroke [] 0 setdash exch hpt sub exch vpt add M
  0 vpt2 neg V hpt2 0 V 0 vpt2 V
  hpt2 neg 0 V closepath fill} def
/TriUF {stroke [] 0 setdash vpt 1.12 mul add M
  hpt neg vpt -1.62 mul V
  hpt 2 mul 0 V
  hpt neg vpt 1.62 mul V closepath fill} def
/TriD {stroke [] 0 setdash 2 copy vpt 1.12 mul sub M
  hpt neg vpt 1.62 mul V
  hpt 2 mul 0 V
  hpt neg vpt -1.62 mul V closepath stroke
  Pnt} def
/TriDF {stroke [] 0 setdash vpt 1.12 mul sub M
  hpt neg vpt 1.62 mul V
  hpt 2 mul 0 V
  hpt neg vpt -1.62 mul V closepath fill} def
/DiaF {stroke [] 0 setdash vpt add M
  hpt neg vpt neg V hpt vpt neg V
  hpt vpt V hpt neg vpt V closepath fill} def
/Pent {stroke [] 0 setdash 2 copy gsave
  translate 0 hpt M 4 {72 rotate 0 hpt L} repeat
  closepath stroke grestore Pnt} def
/PentF {stroke [] 0 setdash gsave
  translate 0 hpt M 4 {72 rotate 0 hpt L} repeat
  closepath fill grestore} def
/Circle {stroke [] 0 setdash 2 copy
  hpt 0 360 arc stroke Pnt} def
/CircleF {stroke [] 0 setdash hpt 0 360 arc fill} def
/C0 {BL [] 0 setdash 2 copy moveto vpt 90 450 arc} bind def
/C1 {BL [] 0 setdash 2 copy moveto
	2 copy vpt 0 90 arc closepath fill
	vpt 0 360 arc closepath} bind def
/C2 {BL [] 0 setdash 2 copy moveto
	2 copy vpt 90 180 arc closepath fill
	vpt 0 360 arc closepath} bind def
/C3 {BL [] 0 setdash 2 copy moveto
	2 copy vpt 0 180 arc closepath fill
	vpt 0 360 arc closepath} bind def
/C4 {BL [] 0 setdash 2 copy moveto
	2 copy vpt 180 270 arc closepath fill
	vpt 0 360 arc closepath} bind def
/C5 {BL [] 0 setdash 2 copy moveto
	2 copy vpt 0 90 arc
	2 copy moveto
	2 copy vpt 180 270 arc closepath fill
	vpt 0 360 arc} bind def
/C6 {BL [] 0 setdash 2 copy moveto
	2 copy vpt 90 270 arc closepath fill
	vpt 0 360 arc closepath} bind def
/C7 {BL [] 0 setdash 2 copy moveto
	2 copy vpt 0 270 arc closepath fill
	vpt 0 360 arc closepath} bind def
/C8 {BL [] 0 setdash 2 copy moveto
	2 copy vpt 270 360 arc closepath fill
	vpt 0 360 arc closepath} bind def
/C9 {BL [] 0 setdash 2 copy moveto
	2 copy vpt 270 450 arc closepath fill
	vpt 0 360 arc closepath} bind def
/C10 {BL [] 0 setdash 2 copy 2 copy moveto vpt 270 360 arc closepath fill
	2 copy moveto
	2 copy vpt 90 180 arc closepath fill
	vpt 0 360 arc closepath} bind def
/C11 {BL [] 0 setdash 2 copy moveto
	2 copy vpt 0 180 arc closepath fill
	2 copy moveto
	2 copy vpt 270 360 arc closepath fill
	vpt 0 360 arc closepath} bind def
/C12 {BL [] 0 setdash 2 copy moveto
	2 copy vpt 180 360 arc closepath fill
	vpt 0 360 arc closepath} bind def
/C13 {BL [] 0 setdash 2 copy moveto
	2 copy vpt 0 90 arc closepath fill
	2 copy moveto
	2 copy vpt 180 360 arc closepath fill
	vpt 0 360 arc closepath} bind def
/C14 {BL [] 0 setdash 2 copy moveto
	2 copy vpt 90 360 arc closepath fill
	vpt 0 360 arc} bind def
/C15 {BL [] 0 setdash 2 copy vpt 0 360 arc closepath fill
	vpt 0 360 arc closepath} bind def
/Rec {newpath 4 2 roll moveto 1 index 0 rlineto 0 exch rlineto
	neg 0 rlineto closepath} bind def
/Square {dup Rec} bind def
/Bsquare {vpt sub exch vpt sub exch vpt2 Square} bind def
/S0 {BL [] 0 setdash 2 copy moveto 0 vpt rlineto BL Bsquare} bind def
/S1 {BL [] 0 setdash 2 copy vpt Square fill Bsquare} bind def
/S2 {BL [] 0 setdash 2 copy exch vpt sub exch vpt Square fill Bsquare} bind def
/S3 {BL [] 0 setdash 2 copy exch vpt sub exch vpt2 vpt Rec fill Bsquare} bind def
/S4 {BL [] 0 setdash 2 copy exch vpt sub exch vpt sub vpt Square fill Bsquare} bind def
/S5 {BL [] 0 setdash 2 copy 2 copy vpt Square fill
	exch vpt sub exch vpt sub vpt Square fill Bsquare} bind def
/S6 {BL [] 0 setdash 2 copy exch vpt sub exch vpt sub vpt vpt2 Rec fill Bsquare} bind def
/S7 {BL [] 0 setdash 2 copy exch vpt sub exch vpt sub vpt vpt2 Rec fill
	2 copy vpt Square fill Bsquare} bind def
/S8 {BL [] 0 setdash 2 copy vpt sub vpt Square fill Bsquare} bind def
/S9 {BL [] 0 setdash 2 copy vpt sub vpt vpt2 Rec fill Bsquare} bind def
/S10 {BL [] 0 setdash 2 copy vpt sub vpt Square fill 2 copy exch vpt sub exch vpt Square fill
	Bsquare} bind def
/S11 {BL [] 0 setdash 2 copy vpt sub vpt Square fill 2 copy exch vpt sub exch vpt2 vpt Rec fill
	Bsquare} bind def
/S12 {BL [] 0 setdash 2 copy exch vpt sub exch vpt sub vpt2 vpt Rec fill Bsquare} bind def
/S13 {BL [] 0 setdash 2 copy exch vpt sub exch vpt sub vpt2 vpt Rec fill
	2 copy vpt Square fill Bsquare} bind def
/S14 {BL [] 0 setdash 2 copy exch vpt sub exch vpt sub vpt2 vpt Rec fill
	2 copy exch vpt sub exch vpt Square fill Bsquare} bind def
/S15 {BL [] 0 setdash 2 copy Bsquare fill Bsquare} bind def
/D0 {gsave translate 45 rotate 0 0 S0 stroke grestore} bind def
/D1 {gsave translate 45 rotate 0 0 S1 stroke grestore} bind def
/D2 {gsave translate 45 rotate 0 0 S2 stroke grestore} bind def
/D3 {gsave translate 45 rotate 0 0 S3 stroke grestore} bind def
/D4 {gsave translate 45 rotate 0 0 S4 stroke grestore} bind def
/D5 {gsave translate 45 rotate 0 0 S5 stroke grestore} bind def
/D6 {gsave translate 45 rotate 0 0 S6 stroke grestore} bind def
/D7 {gsave translate 45 rotate 0 0 S7 stroke grestore} bind def
/D8 {gsave translate 45 rotate 0 0 S8 stroke grestore} bind def
/D9 {gsave translate 45 rotate 0 0 S9 stroke grestore} bind def
/D10 {gsave translate 45 rotate 0 0 S10 stroke grestore} bind def
/D11 {gsave translate 45 rotate 0 0 S11 stroke grestore} bind def
/D12 {gsave translate 45 rotate 0 0 S12 stroke grestore} bind def
/D13 {gsave translate 45 rotate 0 0 S13 stroke grestore} bind def
/D14 {gsave translate 45 rotate 0 0 S14 stroke grestore} bind def
/D15 {gsave translate 45 rotate 0 0 S15 stroke grestore} bind def
/DiaE {stroke [] 0 setdash vpt add M
  hpt neg vpt neg V hpt vpt neg V
  hpt vpt V hpt neg vpt V closepath stroke} def
/BoxE {stroke [] 0 setdash exch hpt sub exch vpt add M
  0 vpt2 neg V hpt2 0 V 0 vpt2 V
  hpt2 neg 0 V closepath stroke} def
/TriUE {stroke [] 0 setdash vpt 1.12 mul add M
  hpt neg vpt -1.62 mul V
  hpt 2 mul 0 V
  hpt neg vpt 1.62 mul V closepath stroke} def
/TriDE {stroke [] 0 setdash vpt 1.12 mul sub M
  hpt neg vpt 1.62 mul V
  hpt 2 mul 0 V
  hpt neg vpt -1.62 mul V closepath stroke} def
/PentE {stroke [] 0 setdash gsave
  translate 0 hpt M 4 {72 rotate 0 hpt L} repeat
  closepath stroke grestore} def
/CircE {stroke [] 0 setdash 
  hpt 0 360 arc stroke} def
/Opaque {gsave closepath 1 setgray fill grestore 0 setgray closepath} def
/DiaW {stroke [] 0 setdash vpt add M
  hpt neg vpt neg V hpt vpt neg V
  hpt vpt V hpt neg vpt V Opaque stroke} def
/BoxW {stroke [] 0 setdash exch hpt sub exch vpt add M
  0 vpt2 neg V hpt2 0 V 0 vpt2 V
  hpt2 neg 0 V Opaque stroke} def
/TriUW {stroke [] 0 setdash vpt 1.12 mul add M
  hpt neg vpt -1.62 mul V
  hpt 2 mul 0 V
  hpt neg vpt 1.62 mul V Opaque stroke} def
/TriDW {stroke [] 0 setdash vpt 1.12 mul sub M
  hpt neg vpt 1.62 mul V
  hpt 2 mul 0 V
  hpt neg vpt -1.62 mul V Opaque stroke} def
/PentW {stroke [] 0 setdash gsave
  translate 0 hpt M 4 {72 rotate 0 hpt L} repeat
  Opaque stroke grestore} def
/CircW {stroke [] 0 setdash 
  hpt 0 360 arc Opaque stroke} def
/BoxFill {gsave Rec 1 setgray fill grestore} def
/Density {
  /Fillden exch def
  currentrgbcolor
  /ColB exch def /ColG exch def /ColR exch def
  /ColR ColR Fillden mul Fillden sub 1 add def
  /ColG ColG Fillden mul Fillden sub 1 add def
  /ColB ColB Fillden mul Fillden sub 1 add def
  ColR ColG ColB setrgbcolor} def
/BoxColFill {gsave Rec PolyFill} def
/PolyFill {gsave Density fill grestore grestore} def
/h {rlineto rlineto rlineto gsave closepath fill grestore} bind def
%
% PostScript Level 1 Pattern Fill routine for rectangles
% Usage: x y w h s a XX PatternFill
%	x,y = lower left corner of box to be filled
%	w,h = width and height of box
%	  a = angle in degrees between lines and x-axis
%	 XX = 0/1 for no/yes cross-hatch
%
/PatternFill {gsave /PFa [ 9 2 roll ] def
  PFa 0 get PFa 2 get 2 div add PFa 1 get PFa 3 get 2 div add translate
  PFa 2 get -2 div PFa 3 get -2 div PFa 2 get PFa 3 get Rec
  TransparentPatterns {} {gsave 1 setgray fill grestore} ifelse
  clip
  currentlinewidth 0.5 mul setlinewidth
  /PFs PFa 2 get dup mul PFa 3 get dup mul add sqrt def
  0 0 M PFa 5 get rotate PFs -2 div dup translate
  0 1 PFs PFa 4 get div 1 add floor cvi
	{PFa 4 get mul 0 M 0 PFs V} for
  0 PFa 6 get ne {
	0 1 PFs PFa 4 get div 1 add floor cvi
	{PFa 4 get mul 0 2 1 roll M PFs 0 V} for
 } if
  stroke grestore} def
%
/languagelevel where
 {pop languagelevel} {1} ifelse
dup 2 lt
	{/InterpretLevel1 true def
	 /InterpretLevel3 false def}
	{/InterpretLevel1 Level1 def
	 2 gt
	    {/InterpretLevel3 Level3 def}
	    {/InterpretLevel3 false def}
	 ifelse }
 ifelse
%
% PostScript level 2 pattern fill definitions
%
/Level2PatternFill {
/Tile8x8 {/PaintType 2 /PatternType 1 /TilingType 1 /BBox [0 0 8 8] /XStep 8 /YStep 8}
	bind def
/KeepColor {currentrgbcolor [/Pattern /DeviceRGB] setcolorspace} bind def
<< Tile8x8
 /PaintProc {0.5 setlinewidth pop 0 0 M 8 8 L 0 8 M 8 0 L stroke} 
>> matrix makepattern
/Pat1 exch def
<< Tile8x8
 /PaintProc {0.5 setlinewidth pop 0 0 M 8 8 L 0 8 M 8 0 L stroke
	0 4 M 4 8 L 8 4 L 4 0 L 0 4 L stroke}
>> matrix makepattern
/Pat2 exch def
<< Tile8x8
 /PaintProc {0.5 setlinewidth pop 0 0 M 0 8 L
	8 8 L 8 0 L 0 0 L fill}
>> matrix makepattern
/Pat3 exch def
<< Tile8x8
 /PaintProc {0.5 setlinewidth pop -4 8 M 8 -4 L
	0 12 M 12 0 L stroke}
>> matrix makepattern
/Pat4 exch def
<< Tile8x8
 /PaintProc {0.5 setlinewidth pop -4 0 M 8 12 L
	0 -4 M 12 8 L stroke}
>> matrix makepattern
/Pat5 exch def
<< Tile8x8
 /PaintProc {0.5 setlinewidth pop -2 8 M 4 -4 L
	0 12 M 8 -4 L 4 12 M 10 0 L stroke}
>> matrix makepattern
/Pat6 exch def
<< Tile8x8
 /PaintProc {0.5 setlinewidth pop -2 0 M 4 12 L
	0 -4 M 8 12 L 4 -4 M 10 8 L stroke}
>> matrix makepattern
/Pat7 exch def
<< Tile8x8
 /PaintProc {0.5 setlinewidth pop 8 -2 M -4 4 L
	12 0 M -4 8 L 12 4 M 0 10 L stroke}
>> matrix makepattern
/Pat8 exch def
<< Tile8x8
 /PaintProc {0.5 setlinewidth pop 0 -2 M 12 4 L
	-4 0 M 12 8 L -4 4 M 8 10 L stroke}
>> matrix makepattern
/Pat9 exch def
/Pattern1 {PatternBgnd KeepColor Pat1 setpattern} bind def
/Pattern2 {PatternBgnd KeepColor Pat2 setpattern} bind def
/Pattern3 {PatternBgnd KeepColor Pat3 setpattern} bind def
/Pattern4 {PatternBgnd KeepColor Landscape {Pat5} {Pat4} ifelse setpattern} bind def
/Pattern5 {PatternBgnd KeepColor Landscape {Pat4} {Pat5} ifelse setpattern} bind def
/Pattern6 {PatternBgnd KeepColor Landscape {Pat9} {Pat6} ifelse setpattern} bind def
/Pattern7 {PatternBgnd KeepColor Landscape {Pat8} {Pat7} ifelse setpattern} bind def
} def
%
%
%End of PostScript Level 2 code
%
/PatternBgnd {
  TransparentPatterns {} {gsave 1 setgray fill grestore} ifelse
} def
%
% Substitute for Level 2 pattern fill codes with
% grayscale if Level 2 support is not selected.
%
/Level1PatternFill {
/Pattern1 {0.250 Density} bind def
/Pattern2 {0.500 Density} bind def
/Pattern3 {0.750 Density} bind def
/Pattern4 {0.125 Density} bind def
/Pattern5 {0.375 Density} bind def
/Pattern6 {0.625 Density} bind def
/Pattern7 {0.875 Density} bind def
} def
%
% Now test for support of Level 2 code
%
Level1 {Level1PatternFill} {Level2PatternFill} ifelse
%
/Symbol-Oblique /Symbol findfont [1 0 .167 1 0 0] makefont
dup length dict begin {1 index /FID eq {pop pop} {def} ifelse} forall
currentdict end definefont pop
%
/MFshow {
   { dup 5 get 3 ge
     { 5 get 3 eq {gsave} {grestore} ifelse }
     {dup dup 0 get findfont exch 1 get scalefont setfont
     [ currentpoint ] exch dup 2 get 0 exch R dup 5 get 2 ne {dup dup 6
     get exch 4 get {textshow} {stringwidth pop 0 R} ifelse }if dup 5 get 0 eq
     {dup 3 get {2 get neg 0 exch R pop} {pop aload pop M} ifelse} {dup 5
     get 1 eq {dup 2 get exch dup 3 get exch 6 get stringwidth pop -2 div
     dup 0 R} {dup 6 get stringwidth pop -2 div 0 R 6 get
     textshow 2 index {aload pop M neg 3 -1 roll neg R pop pop} {pop pop pop
     pop aload pop M} ifelse }ifelse }ifelse }
     ifelse }
   forall} def
/Gswidth {dup type /stringtype eq {stringwidth} {pop (n) stringwidth} ifelse} def
/MFwidth {0 exch { dup 5 get 3 ge { 5 get 3 eq { 0 } { pop } ifelse }
 {dup 3 get{dup dup 0 get findfont exch 1 get scalefont setfont
     6 get Gswidth pop add} {pop} ifelse} ifelse} forall} def
/MLshow { currentpoint stroke M
  0 exch R
  Blacktext {gsave 0 setgray MFshow grestore} {MFshow} ifelse } bind def
/MRshow { currentpoint stroke M
  exch dup MFwidth neg 3 -1 roll R
  Blacktext {gsave 0 setgray MFshow grestore} {MFshow} ifelse } bind def
/MCshow { currentpoint stroke M
  exch dup MFwidth -2 div 3 -1 roll R
  Blacktext {gsave 0 setgray MFshow grestore} {MFshow} ifelse } bind def
/XYsave    { [( ) 1 2 true false 3 ()] } bind def
/XYrestore { [( ) 1 2 true false 4 ()] } bind def
Level1 SuppressPDFMark or 
{} {
/SDict 10 dict def
systemdict /pdfmark known not {
  userdict /pdfmark systemdict /cleartomark get put
} if
SDict begin [
  /Title (packets-uv-s-mult-packets-uv-ccdf-linlog.eps)
  /Subject (gnuplot plot)
  /Creator (gnuplot 5.0 patchlevel 3)
  /Author (tiphaine)
%  /Producer (gnuplot)
%  /Keywords ()
  /CreationDate (Mon May 29 11:14:16 2017)
  /DOCINFO pdfmark
end
} ifelse
%
% Support for boxed text - Ethan A Merritt May 2005
%
/InitTextBox { userdict /TBy2 3 -1 roll put userdict /TBx2 3 -1 roll put
           userdict /TBy1 3 -1 roll put userdict /TBx1 3 -1 roll put
	   /Boxing true def } def
/ExtendTextBox { Boxing
    { gsave dup false charpath pathbbox
      dup TBy2 gt {userdict /TBy2 3 -1 roll put} {pop} ifelse
      dup TBx2 gt {userdict /TBx2 3 -1 roll put} {pop} ifelse
      dup TBy1 lt {userdict /TBy1 3 -1 roll put} {pop} ifelse
      dup TBx1 lt {userdict /TBx1 3 -1 roll put} {pop} ifelse
      grestore } if } def
/PopTextBox { newpath TBx1 TBxmargin sub TBy1 TBymargin sub M
               TBx1 TBxmargin sub TBy2 TBymargin add L
	       TBx2 TBxmargin add TBy2 TBymargin add L
	       TBx2 TBxmargin add TBy1 TBymargin sub L closepath } def
/DrawTextBox { PopTextBox stroke /Boxing false def} def
/FillTextBox { gsave PopTextBox 1 1 1 setrgbcolor fill grestore /Boxing false def} def
0 0 0 0 InitTextBox
/TBxmargin 20 def
/TBymargin 20 def
/Boxing false def
/textshow { ExtendTextBox Gshow } def
%
% redundant definitions for compatibility with prologue.ps older than 5.0.2
/LTB {BL [] LCb DL} def
/LTb {PL [] LCb DL} def
end
%%EndProlog
%%Page: 1 1
gnudict begin
gsave
doclip
50 50 translate
0.100 0.100 scale
90 rotate
0 -5040 translate
0 setgray
newpath
(Helvetica) findfont 140 scalefont setfont
BackgroundColor 0 lt 3 1 roll 0 lt exch 0 lt or or not {gsave BackgroundColor C clippath fill grestore} if
1.000 UL
LTb
LCb setrgbcolor
966 280 M
63 0 V
5918 0 R
-63 0 V
stroke
882 280 M
[ [(Helvetica) 140.0 0.0 true true 0 (0.0000001)]
] -46.7 MRshow
1.000 UL
LTb
LCb setrgbcolor
966 477 M
31 0 V
5950 0 R
-31 0 V
966 738 M
31 0 V
5950 0 R
-31 0 V
966 872 M
31 0 V
5950 0 R
-31 0 V
966 936 M
63 0 V
5918 0 R
-63 0 V
stroke
882 936 M
[ [(Helvetica) 140.0 0.0 true true 0 (0.0000010)]
] -46.7 MRshow
1.000 UL
LTb
LCb setrgbcolor
966 1133 M
31 0 V
5950 0 R
-31 0 V
966 1394 M
31 0 V
5950 0 R
-31 0 V
966 1528 M
31 0 V
5950 0 R
-31 0 V
966 1592 M
63 0 V
5918 0 R
-63 0 V
stroke
882 1592 M
[ [(Helvetica) 140.0 0.0 true true 0 (0.0000100)]
] -46.7 MRshow
1.000 UL
LTb
LCb setrgbcolor
966 1789 M
31 0 V
5950 0 R
-31 0 V
966 2050 M
31 0 V
5950 0 R
-31 0 V
966 2184 M
31 0 V
5950 0 R
-31 0 V
966 2248 M
63 0 V
5918 0 R
-63 0 V
stroke
882 2248 M
[ [(Helvetica) 140.0 0.0 true true 0 (0.0001000)]
] -46.7 MRshow
1.000 UL
LTb
LCb setrgbcolor
966 2445 M
31 0 V
5950 0 R
-31 0 V
966 2706 M
31 0 V
5950 0 R
-31 0 V
966 2840 M
31 0 V
5950 0 R
-31 0 V
966 2903 M
63 0 V
5918 0 R
-63 0 V
stroke
882 2903 M
[ [(Helvetica) 140.0 0.0 true true 0 (0.0010000)]
] -46.7 MRshow
1.000 UL
LTb
LCb setrgbcolor
966 3101 M
31 0 V
5950 0 R
-31 0 V
966 3362 M
31 0 V
5950 0 R
-31 0 V
966 3496 M
31 0 V
5950 0 R
-31 0 V
966 3559 M
63 0 V
5918 0 R
-63 0 V
stroke
882 3559 M
[ [(Helvetica) 140.0 0.0 true true 0 (0.0100000)]
] -46.7 MRshow
1.000 UL
LTb
LCb setrgbcolor
966 3757 M
31 0 V
5950 0 R
-31 0 V
966 4018 M
31 0 V
5950 0 R
-31 0 V
966 4152 M
31 0 V
5950 0 R
-31 0 V
966 4215 M
63 0 V
5918 0 R
-63 0 V
stroke
882 4215 M
[ [(Helvetica) 140.0 0.0 true true 0 (0.1000000)]
] -46.7 MRshow
1.000 UL
LTb
LCb setrgbcolor
966 4413 M
31 0 V
5950 0 R
-31 0 V
966 4674 M
31 0 V
5950 0 R
-31 0 V
966 4807 M
31 0 V
5950 0 R
-31 0 V
966 4871 M
63 0 V
5918 0 R
-63 0 V
stroke
882 4871 M
[ [(Helvetica) 140.0 0.0 true true 0 (1.0000000)]
] -46.7 MRshow
1.000 UL
LTb
LCb setrgbcolor
966 280 M
0 63 V
0 4528 R
0 -63 V
stroke
966 140 M
[ [(Helvetica) 140.0 0.0 true true 0 ( 0)]
] -46.7 MCshow
1.000 UL
LTb
LCb setrgbcolor
1963 280 M
0 63 V
0 4528 R
0 -63 V
stroke
1963 140 M
[ [(Helvetica) 140.0 0.0 true true 0 ( 2x10)]
[(Helvetica) 112.0 70.0 true true 0 (12)]
] -60.7 MCshow
1.000 UL
LTb
LCb setrgbcolor
2960 280 M
0 63 V
0 4528 R
0 -63 V
stroke
2960 140 M
[ [(Helvetica) 140.0 0.0 true true 0 ( 4x10)]
[(Helvetica) 112.0 70.0 true true 0 (12)]
] -60.7 MCshow
1.000 UL
LTb
LCb setrgbcolor
3956 280 M
0 63 V
0 4528 R
0 -63 V
stroke
3956 140 M
[ [(Helvetica) 140.0 0.0 true true 0 ( 6x10)]
[(Helvetica) 112.0 70.0 true true 0 (12)]
] -60.7 MCshow
1.000 UL
LTb
LCb setrgbcolor
4953 280 M
0 63 V
0 4528 R
0 -63 V
stroke
4953 140 M
[ [(Helvetica) 140.0 0.0 true true 0 ( 8x10)]
[(Helvetica) 112.0 70.0 true true 0 (12)]
] -60.7 MCshow
1.000 UL
LTb
LCb setrgbcolor
5950 280 M
0 63 V
0 4528 R
0 -63 V
stroke
5950 140 M
[ [(Helvetica) 140.0 0.0 true true 0 ( 1x10)]
[(Helvetica) 112.0 70.0 true true 0 (13)]
] -60.7 MCshow
1.000 UL
LTb
LCb setrgbcolor
6947 280 M
0 63 V
0 4528 R
0 -63 V
stroke
6947 140 M
[ [(Helvetica) 140.0 0.0 true true 0 ( 1.2x10)]
[(Helvetica) 112.0 70.0 true true 0 (13)]
] -60.7 MCshow
1.000 UL
LTb
LCb setrgbcolor
1.000 UL
LTB
LCb setrgbcolor
966 4871 N
966 280 L
5981 0 V
0 4591 V
-5981 0 V
Z stroke
1.000 UP
1.000 UL
LTb
LCb setrgbcolor
% Begin plot #1
1.000 UP
1.000 UL
LTb
0.58 0.00 0.83 C 966 4871 Pls
966 4645 Pls
966 4418 Pls
966 4361 Pls
966 4311 Pls
966 4277 Pls
966 4243 Pls
966 4223 Pls
966 4195 Pls
966 4178 Pls
966 4145 Pls
966 4129 Pls
966 4106 Pls
966 4091 Pls
966 4073 Pls
966 4057 Pls
966 4038 Pls
966 4025 Pls
966 4008 Pls
966 3995 Pls
966 3977 Pls
966 3966 Pls
966 3953 Pls
966 3944 Pls
966 3932 Pls
966 3924 Pls
966 3915 Pls
966 3907 Pls
966 3898 Pls
966 3893 Pls
966 3882 Pls
966 3877 Pls
966 3870 Pls
966 3864 Pls
966 3857 Pls
966 3852 Pls
966 3845 Pls
966 3840 Pls
966 3835 Pls
966 3830 Pls
966 3825 Pls
966 3820 Pls
966 3816 Pls
966 3812 Pls
966 3807 Pls
966 3803 Pls
966 3798 Pls
966 3792 Pls
966 3786 Pls
966 3780 Pls
966 3775 Pls
966 3770 Pls
966 3766 Pls
966 3763 Pls
966 3759 Pls
966 3755 Pls
966 3751 Pls
966 3748 Pls
966 3744 Pls
966 3741 Pls
966 3734 Pls
966 3731 Pls
966 3728 Pls
966 3725 Pls
966 3722 Pls
966 3719 Pls
966 3716 Pls
966 3714 Pls
966 3711 Pls
966 3708 Pls
966 3705 Pls
966 3703 Pls
966 3700 Pls
966 3697 Pls
966 3695 Pls
966 3693 Pls
966 3690 Pls
966 3688 Pls
966 3685 Pls
966 3682 Pls
966 3679 Pls
966 3677 Pls
966 3675 Pls
966 3673 Pls
966 3671 Pls
966 3668 Pls
966 3666 Pls
966 3665 Pls
966 3663 Pls
966 3661 Pls
966 3658 Pls
966 3656 Pls
966 3654 Pls
966 3652 Pls
966 3650 Pls
966 3648 Pls
966 3645 Pls
966 3643 Pls
966 3642 Pls
966 3639 Pls
966 3632 Pls
966 3630 Pls
966 3628 Pls
966 3627 Pls
966 3625 Pls
966 3623 Pls
966 3621 Pls
966 3619 Pls
966 3617 Pls
966 3616 Pls
966 3614 Pls
966 3612 Pls
966 3610 Pls
966 3608 Pls
966 3606 Pls
966 3605 Pls
966 3603 Pls
966 3601 Pls
966 3600 Pls
966 3598 Pls
966 3595 Pls
966 3593 Pls
966 3592 Pls
966 3590 Pls
966 3589 Pls
966 3587 Pls
966 3586 Pls
966 3584 Pls
966 3582 Pls
966 3581 Pls
966 3577 Pls
966 3576 Pls
966 3573 Pls
966 3572 Pls
966 3571 Pls
966 3569 Pls
966 3567 Pls
966 3566 Pls
966 3564 Pls
966 3562 Pls
966 3561 Pls
966 3559 Pls
966 3558 Pls
966 3556 Pls
966 3555 Pls
966 3554 Pls
966 3553 Pls
966 3551 Pls
966 3550 Pls
966 3549 Pls
966 3548 Pls
966 3546 Pls
966 3545 Pls
966 3544 Pls
966 3543 Pls
966 3542 Pls
966 3541 Pls
966 3539 Pls
966 3538 Pls
966 3537 Pls
966 3536 Pls
966 3534 Pls
966 3533 Pls
966 3532 Pls
966 3531 Pls
966 3530 Pls
966 3529 Pls
966 3528 Pls
966 3527 Pls
966 3526 Pls
966 3524 Pls
966 3523 Pls
966 3522 Pls
966 3521 Pls
966 3520 Pls
966 3519 Pls
966 3518 Pls
966 3516 Pls
966 3515 Pls
966 3514 Pls
966 3512 Pls
966 3510 Pls
966 3509 Pls
966 3508 Pls
966 3507 Pls
966 3506 Pls
966 3505 Pls
966 3504 Pls
966 3503 Pls
966 3502 Pls
966 3501 Pls
966 3500 Pls
966 3499 Pls
966 3498 Pls
966 3497 Pls
966 3496 Pls
966 3495 Pls
966 3494 Pls
966 3493 Pls
966 3493 Pls
966 3492 Pls
966 3491 Pls
966 3490 Pls
966 3488 Pls
966 3487 Pls
966 3487 Pls
966 3486 Pls
966 3485 Pls
966 3484 Pls
966 3483 Pls
966 3481 Pls
966 3480 Pls
966 3479 Pls
966 3478 Pls
966 3477 Pls
966 3476 Pls
966 3475 Pls
966 3474 Pls
966 3473 Pls
966 3473 Pls
966 3472 Pls
966 3471 Pls
966 3470 Pls
966 3469 Pls
966 3468 Pls
966 3467 Pls
966 3467 Pls
966 3466 Pls
966 3465 Pls
966 3465 Pls
966 3464 Pls
966 3463 Pls
966 3462 Pls
966 3461 Pls
966 3460 Pls
966 3460 Pls
966 3459 Pls
966 3458 Pls
966 3457 Pls
966 3456 Pls
966 3454 Pls
966 3454 Pls
966 3453 Pls
966 3452 Pls
966 3451 Pls
966 3451 Pls
966 3450 Pls
966 3449 Pls
966 3448 Pls
966 3448 Pls
966 3447 Pls
966 3446 Pls
966 3445 Pls
966 3444 Pls
966 3444 Pls
966 3443 Pls
966 3442 Pls
966 3442 Pls
966 3441 Pls
966 3440 Pls
966 3440 Pls
966 3439 Pls
966 3438 Pls
966 3437 Pls
966 3437 Pls
966 3436 Pls
966 3436 Pls
966 3435 Pls
966 3434 Pls
966 3433 Pls
966 3433 Pls
966 3432 Pls
966 3431 Pls
966 3431 Pls
966 3430 Pls
966 3429 Pls
966 3429 Pls
966 3428 Pls
966 3427 Pls
966 3426 Pls
966 3426 Pls
966 3425 Pls
966 3424 Pls
966 3424 Pls
966 3423 Pls
966 3422 Pls
966 3422 Pls
966 3421 Pls
966 3420 Pls
966 3420 Pls
966 3419 Pls
966 3419 Pls
966 3418 Pls
966 3417 Pls
966 3417 Pls
966 3416 Pls
966 3415 Pls
966 3415 Pls
966 3414 Pls
966 3413 Pls
966 3413 Pls
966 3412 Pls
966 3411 Pls
966 3411 Pls
966 3410 Pls
966 3409 Pls
966 3409 Pls
966 3408 Pls
966 3407 Pls
966 3407 Pls
966 3406 Pls
966 3405 Pls
966 3405 Pls
966 3404 Pls
966 3403 Pls
966 3402 Pls
966 3402 Pls
966 3401 Pls
966 3401 Pls
966 3400 Pls
966 3399 Pls
966 3399 Pls
966 3398 Pls
966 3398 Pls
966 3397 Pls
966 3397 Pls
966 3396 Pls
966 3396 Pls
966 3395 Pls
966 3394 Pls
966 3394 Pls
966 3393 Pls
966 3393 Pls
966 3392 Pls
966 3392 Pls
966 3391 Pls
966 3391 Pls
966 3390 Pls
966 3390 Pls
966 3389 Pls
966 3389 Pls
966 3388 Pls
966 3388 Pls
966 3387 Pls
966 3387 Pls
966 3386 Pls
966 3385 Pls
966 3385 Pls
966 3384 Pls
966 3384 Pls
966 3383 Pls
966 3383 Pls
966 3382 Pls
966 3382 Pls
966 3381 Pls
966 3380 Pls
966 3380 Pls
966 3379 Pls
966 3379 Pls
966 3378 Pls
966 3377 Pls
966 3377 Pls
966 3376 Pls
966 3376 Pls
966 3375 Pls
966 3375 Pls
966 3374 Pls
966 3374 Pls
966 3373 Pls
966 3373 Pls
966 3373 Pls
966 3372 Pls
966 3371 Pls
966 3371 Pls
966 3370 Pls
966 3370 Pls
966 3370 Pls
966 3369 Pls
966 3369 Pls
966 3368 Pls
966 3368 Pls
966 3367 Pls
966 3367 Pls
966 3366 Pls
966 3366 Pls
966 3365 Pls
966 3365 Pls
966 3364 Pls
966 3364 Pls
966 3364 Pls
966 3363 Pls
966 3363 Pls
966 3362 Pls
966 3362 Pls
966 3361 Pls
966 3361 Pls
966 3361 Pls
966 3360 Pls
966 3360 Pls
966 3359 Pls
966 3359 Pls
966 3358 Pls
966 3358 Pls
966 3357 Pls
966 3357 Pls
966 3356 Pls
966 3356 Pls
966 3355 Pls
966 3355 Pls
966 3354 Pls
966 3354 Pls
966 3353 Pls
966 3353 Pls
966 3352 Pls
966 3352 Pls
966 3352 Pls
966 3351 Pls
966 3351 Pls
966 3350 Pls
966 3350 Pls
966 3349 Pls
966 3348 Pls
966 3348 Pls
966 3347 Pls
966 3347 Pls
966 3346 Pls
966 3346 Pls
966 3346 Pls
966 3345 Pls
966 3344 Pls
966 3344 Pls
966 3344 Pls
966 3343 Pls
966 3343 Pls
966 3342 Pls
966 3342 Pls
966 3342 Pls
966 3341 Pls
966 3341 Pls
966 3340 Pls
966 3340 Pls
966 3339 Pls
966 3339 Pls
966 3338 Pls
966 3338 Pls
966 3337 Pls
966 3337 Pls
966 3336 Pls
966 3336 Pls
966 3336 Pls
966 3335 Pls
966 3335 Pls
966 3334 Pls
966 3334 Pls
966 3333 Pls
966 3333 Pls
966 3333 Pls
966 3332 Pls
966 3332 Pls
966 3331 Pls
966 3331 Pls
966 3330 Pls
966 3330 Pls
966 3329 Pls
966 3329 Pls
966 3329 Pls
966 3328 Pls
966 3328 Pls
966 3328 Pls
966 3327 Pls
966 3327 Pls
966 3326 Pls
966 3326 Pls
966 3325 Pls
966 3324 Pls
966 3324 Pls
966 3324 Pls
966 3323 Pls
966 3322 Pls
966 3322 Pls
966 3321 Pls
966 3321 Pls
966 3320 Pls
966 3320 Pls
966 3320 Pls
966 3319 Pls
966 3319 Pls
966 3319 Pls
966 3318 Pls
966 3318 Pls
966 3318 Pls
966 3317 Pls
966 3317 Pls
966 3316 Pls
966 3316 Pls
966 3316 Pls
966 3315 Pls
966 3315 Pls
966 3315 Pls
966 3314 Pls
966 3314 Pls
966 3314 Pls
966 3313 Pls
966 3313 Pls
966 3312 Pls
966 3312 Pls
966 3312 Pls
966 3311 Pls
966 3311 Pls
966 3311 Pls
966 3310 Pls
966 3310 Pls
966 3309 Pls
966 3309 Pls
966 3308 Pls
966 3308 Pls
966 3308 Pls
966 3307 Pls
966 3307 Pls
966 3306 Pls
966 3306 Pls
966 3305 Pls
966 3305 Pls
966 3304 Pls
966 3304 Pls
966 3304 Pls
966 3303 Pls
966 3303 Pls
966 3303 Pls
966 3302 Pls
966 3302 Pls
966 3301 Pls
966 3301 Pls
966 3301 Pls
966 3300 Pls
966 3300 Pls
966 3300 Pls
966 3299 Pls
966 3299 Pls
966 3298 Pls
966 3298 Pls
966 3298 Pls
966 3297 Pls
966 3297 Pls
966 3297 Pls
966 3296 Pls
966 3296 Pls
966 3296 Pls
966 3295 Pls
966 3295 Pls
966 3294 Pls
966 3294 Pls
966 3293 Pls
966 3293 Pls
966 3293 Pls
966 3292 Pls
966 3292 Pls
966 3292 Pls
966 3291 Pls
966 3291 Pls
966 3291 Pls
966 3290 Pls
966 3290 Pls
966 3289 Pls
966 3289 Pls
966 3289 Pls
966 3288 Pls
966 3288 Pls
966 3288 Pls
966 3287 Pls
966 3287 Pls
966 3287 Pls
966 3286 Pls
966 3286 Pls
966 3286 Pls
966 3285 Pls
966 3285 Pls
966 3285 Pls
966 3285 Pls
966 3284 Pls
966 3284 Pls
966 3283 Pls
966 3283 Pls
966 3283 Pls
966 3282 Pls
966 3282 Pls
966 3282 Pls
966 3282 Pls
966 3281 Pls
966 3281 Pls
966 3281 Pls
966 3280 Pls
966 3280 Pls
966 3280 Pls
966 3279 Pls
966 3279 Pls
966 3278 Pls
966 3278 Pls
966 3278 Pls
966 3278 Pls
966 3277 Pls
966 3277 Pls
966 3277 Pls
966 3276 Pls
966 3276 Pls
966 3276 Pls
966 3275 Pls
966 3275 Pls
966 3275 Pls
966 3274 Pls
966 3274 Pls
966 3274 Pls
966 3273 Pls
966 3273 Pls
966 3273 Pls
966 3273 Pls
966 3272 Pls
966 3272 Pls
966 3272 Pls
966 3271 Pls
966 3271 Pls
966 3271 Pls
966 3270 Pls
966 3270 Pls
966 3270 Pls
966 3269 Pls
966 3269 Pls
966 3268 Pls
966 3268 Pls
966 3267 Pls
966 3266 Pls
966 3266 Pls
966 3266 Pls
966 3265 Pls
966 3265 Pls
966 3264 Pls
966 3264 Pls
966 3263 Pls
966 3263 Pls
966 3262 Pls
966 3261 Pls
966 3261 Pls
966 3260 Pls
966 3260 Pls
966 3259 Pls
966 3258 Pls
966 3258 Pls
966 3257 Pls
966 3256 Pls
966 3256 Pls
966 3255 Pls
966 3255 Pls
966 3254 Pls
966 3254 Pls
966 3253 Pls
966 3252 Pls
966 3252 Pls
966 3251 Pls
966 3250 Pls
966 3250 Pls
966 3249 Pls
966 3248 Pls
966 3248 Pls
966 3247 Pls
966 3247 Pls
966 3246 Pls
966 3245 Pls
966 3245 Pls
966 3244 Pls
966 3244 Pls
966 3243 Pls
966 3243 Pls
966 3242 Pls
966 3242 Pls
966 3241 Pls
966 3241 Pls
966 3240 Pls
966 3239 Pls
966 3239 Pls
966 3238 Pls
966 3238 Pls
966 3237 Pls
966 3237 Pls
966 3236 Pls
966 3236 Pls
966 3235 Pls
966 3235 Pls
966 3234 Pls
966 3234 Pls
966 3233 Pls
966 3233 Pls
966 3233 Pls
966 3232 Pls
966 3232 Pls
966 3231 Pls
966 3230 Pls
966 3230 Pls
966 3229 Pls
966 3229 Pls
966 3229 Pls
966 3228 Pls
966 3227 Pls
966 3227 Pls
966 3226 Pls
966 3226 Pls
966 3225 Pls
966 3225 Pls
966 3225 Pls
966 3224 Pls
966 3224 Pls
966 3223 Pls
966 3223 Pls
966 3223 Pls
966 3222 Pls
966 3222 Pls
966 3221 Pls
966 3220 Pls
966 3220 Pls
966 3220 Pls
966 3219 Pls
966 3219 Pls
966 3218 Pls
966 3218 Pls
966 3217 Pls
966 3217 Pls
966 3216 Pls
966 3216 Pls
966 3215 Pls
966 3215 Pls
966 3214 Pls
966 3214 Pls
966 3214 Pls
966 3214 Pls
966 3213 Pls
966 3213 Pls
966 3212 Pls
966 3212 Pls
966 3211 Pls
966 3211 Pls
966 3211 Pls
966 3210 Pls
966 3210 Pls
966 3210 Pls
966 3209 Pls
966 3209 Pls
966 3209 Pls
966 3208 Pls
966 3208 Pls
966 3208 Pls
966 3207 Pls
966 3207 Pls
966 3207 Pls
966 3206 Pls
966 3206 Pls
966 3206 Pls
966 3205 Pls
966 3205 Pls
966 3205 Pls
966 3204 Pls
966 3204 Pls
966 3203 Pls
966 3203 Pls
966 3203 Pls
966 3202 Pls
966 3202 Pls
966 3202 Pls
966 3201 Pls
966 3201 Pls
966 3201 Pls
966 3201 Pls
966 3200 Pls
966 3200 Pls
966 3200 Pls
966 3199 Pls
966 3199 Pls
966 3198 Pls
966 3198 Pls
966 3198 Pls
966 3197 Pls
966 3197 Pls
966 3197 Pls
966 3196 Pls
966 3196 Pls
966 3195 Pls
966 3195 Pls
966 3195 Pls
966 3195 Pls
966 3194 Pls
966 3194 Pls
966 3194 Pls
966 3193 Pls
966 3192 Pls
966 3192 Pls
966 3191 Pls
966 3191 Pls
966 3191 Pls
966 3190 Pls
966 3190 Pls
966 3189 Pls
966 3189 Pls
966 3189 Pls
966 3188 Pls
966 3188 Pls
966 3188 Pls
966 3187 Pls
966 3187 Pls
966 3187 Pls
966 3187 Pls
966 3186 Pls
966 3186 Pls
966 3186 Pls
966 3185 Pls
966 3185 Pls
966 3184 Pls
966 3184 Pls
966 3184 Pls
966 3183 Pls
966 3183 Pls
966 3183 Pls
966 3182 Pls
966 3182 Pls
966 3182 Pls
966 3182 Pls
966 3181 Pls
966 3181 Pls
966 3181 Pls
966 3181 Pls
966 3180 Pls
966 3180 Pls
966 3180 Pls
966 3180 Pls
966 3180 Pls
966 3179 Pls
966 3179 Pls
966 3179 Pls
966 3179 Pls
966 3178 Pls
966 3178 Pls
966 3178 Pls
966 3178 Pls
966 3177 Pls
966 3177 Pls
966 3177 Pls
966 3177 Pls
966 3176 Pls
966 3176 Pls
966 3176 Pls
966 3175 Pls
966 3175 Pls
966 3175 Pls
966 3175 Pls
966 3175 Pls
966 3175 Pls
966 3174 Pls
966 3174 Pls
966 3174 Pls
966 3173 Pls
966 3173 Pls
966 3173 Pls
966 3173 Pls
966 3172 Pls
966 3172 Pls
966 3172 Pls
966 3172 Pls
966 3172 Pls
966 3171 Pls
966 3171 Pls
966 3171 Pls
966 3171 Pls
966 3171 Pls
966 3170 Pls
966 3170 Pls
966 3170 Pls
966 3170 Pls
966 3170 Pls
966 3170 Pls
966 3169 Pls
966 3169 Pls
966 3168 Pls
966 3168 Pls
966 3168 Pls
966 3168 Pls
966 3168 Pls
966 3168 Pls
966 3167 Pls
966 3167 Pls
966 3167 Pls
966 3167 Pls
966 3166 Pls
966 3166 Pls
966 3166 Pls
966 3165 Pls
966 3165 Pls
966 3165 Pls
966 3165 Pls
966 3164 Pls
966 3164 Pls
966 3164 Pls
966 3164 Pls
966 3164 Pls
966 3163 Pls
966 3163 Pls
966 3163 Pls
966 3162 Pls
966 3162 Pls
966 3162 Pls
966 3162 Pls
966 3161 Pls
966 3161 Pls
966 3161 Pls
966 3161 Pls
966 3161 Pls
966 3161 Pls
966 3161 Pls
966 3160 Pls
966 3160 Pls
966 3160 Pls
966 3160 Pls
966 3160 Pls
966 3159 Pls
966 3159 Pls
966 3159 Pls
966 3159 Pls
966 3159 Pls
966 3158 Pls
966 3158 Pls
966 3158 Pls
966 3158 Pls
966 3158 Pls
966 3157 Pls
966 3157 Pls
966 3157 Pls
966 3157 Pls
966 3157 Pls
966 3157 Pls
966 3156 Pls
966 3156 Pls
966 3156 Pls
966 3155 Pls
966 3155 Pls
966 3155 Pls
966 3155 Pls
966 3155 Pls
966 3154 Pls
966 3154 Pls
966 3154 Pls
966 3154 Pls
966 3153 Pls
966 3153 Pls
966 3153 Pls
966 3153 Pls
966 3153 Pls
966 3152 Pls
966 3152 Pls
966 3152 Pls
966 3152 Pls
966 3151 Pls
966 3151 Pls
966 3151 Pls
966 3151 Pls
966 3150 Pls
966 3150 Pls
966 3150 Pls
966 3149 Pls
966 3149 Pls
966 3149 Pls
966 3149 Pls
966 3148 Pls
966 3148 Pls
966 3148 Pls
966 3148 Pls
966 3148 Pls
966 3148 Pls
966 3147 Pls
966 3147 Pls
966 3147 Pls
966 3147 Pls
966 3147 Pls
966 3146 Pls
966 3146 Pls
966 3146 Pls
966 3146 Pls
966 3145 Pls
966 3145 Pls
966 3145 Pls
966 3145 Pls
966 3144 Pls
966 3144 Pls
966 3144 Pls
966 3144 Pls
966 3143 Pls
966 3143 Pls
966 3143 Pls
966 3143 Pls
966 3142 Pls
966 3142 Pls
966 3142 Pls
966 3142 Pls
966 3141 Pls
966 3141 Pls
966 3141 Pls
966 3141 Pls
966 3141 Pls
966 3140 Pls
966 3140 Pls
966 3139 Pls
966 3139 Pls
966 3139 Pls
966 3139 Pls
966 3139 Pls
966 3139 Pls
966 3138 Pls
966 3138 Pls
966 3138 Pls
966 3138 Pls
966 3138 Pls
966 3137 Pls
966 3137 Pls
966 3137 Pls
966 3137 Pls
966 3137 Pls
966 3137 Pls
966 3136 Pls
966 3136 Pls
966 3135 Pls
966 3135 Pls
966 3135 Pls
966 3135 Pls
966 3134 Pls
966 3134 Pls
966 3134 Pls
966 3134 Pls
966 3133 Pls
966 3133 Pls
966 3133 Pls
966 3133 Pls
966 3133 Pls
966 3133 Pls
966 3132 Pls
966 3132 Pls
966 3132 Pls
966 3132 Pls
966 3132 Pls
966 3132 Pls
966 3132 Pls
966 3131 Pls
966 3131 Pls
966 3131 Pls
966 3131 Pls
966 3131 Pls
966 3130 Pls
966 3130 Pls
966 3130 Pls
966 3129 Pls
966 3129 Pls
966 3129 Pls
966 3129 Pls
966 3129 Pls
966 3129 Pls
966 3128 Pls
966 3128 Pls
966 3128 Pls
966 3128 Pls
966 3128 Pls
966 3128 Pls
966 3128 Pls
966 3127 Pls
966 3127 Pls
966 3127 Pls
966 3127 Pls
966 3127 Pls
966 3127 Pls
966 3126 Pls
966 3126 Pls
966 3126 Pls
966 3126 Pls
966 3126 Pls
966 3125 Pls
966 3125 Pls
966 3125 Pls
966 3125 Pls
966 3125 Pls
966 3125 Pls
966 3124 Pls
966 3124 Pls
966 3124 Pls
966 3124 Pls
966 3124 Pls
966 3123 Pls
966 3123 Pls
966 3123 Pls
966 3122 Pls
966 3122 Pls
966 3122 Pls
966 3122 Pls
966 3122 Pls
966 3122 Pls
966 3122 Pls
966 3121 Pls
966 3121 Pls
966 3121 Pls
966 3121 Pls
966 3121 Pls
966 3120 Pls
966 3120 Pls
966 3120 Pls
966 3120 Pls
966 3119 Pls
966 3119 Pls
966 3119 Pls
966 3119 Pls
966 3119 Pls
966 3119 Pls
966 3118 Pls
966 3118 Pls
966 3118 Pls
966 3118 Pls
966 3118 Pls
966 3118 Pls
966 3118 Pls
966 3117 Pls
966 3117 Pls
966 3117 Pls
966 3117 Pls
966 3117 Pls
966 3116 Pls
966 3116 Pls
966 3116 Pls
966 3116 Pls
966 3116 Pls
966 3115 Pls
966 3115 Pls
966 3115 Pls
966 3115 Pls
966 3114 Pls
966 3114 Pls
966 3114 Pls
966 3114 Pls
966 3113 Pls
966 3112 Pls
966 3112 Pls
966 3112 Pls
966 3112 Pls
966 3112 Pls
966 3111 Pls
966 3111 Pls
966 3111 Pls
966 3111 Pls
966 3111 Pls
966 3111 Pls
966 3111 Pls
966 3111 Pls
966 3111 Pls
966 3110 Pls
966 3110 Pls
966 3110 Pls
966 3110 Pls
966 3110 Pls
966 3109 Pls
966 3109 Pls
966 3109 Pls
966 3109 Pls
966 3109 Pls
966 3109 Pls
966 3108 Pls
966 3108 Pls
966 3108 Pls
966 3108 Pls
966 3108 Pls
966 3108 Pls
966 3108 Pls
966 3107 Pls
966 3107 Pls
966 3107 Pls
966 3107 Pls
966 3107 Pls
966 3106 Pls
966 3106 Pls
966 3106 Pls
966 3106 Pls
966 3106 Pls
966 3106 Pls
966 3106 Pls
966 3105 Pls
966 3105 Pls
966 3105 Pls
966 3105 Pls
966 3104 Pls
966 3104 Pls
966 3104 Pls
966 3104 Pls
966 3104 Pls
966 3104 Pls
966 3103 Pls
966 3103 Pls
966 3103 Pls
966 3103 Pls
966 3103 Pls
966 3102 Pls
966 3102 Pls
966 3102 Pls
966 3102 Pls
966 3102 Pls
966 3102 Pls
966 3101 Pls
966 3101 Pls
966 3101 Pls
966 3101 Pls
966 3101 Pls
966 3101 Pls
966 3100 Pls
966 3100 Pls
966 3100 Pls
966 3100 Pls
966 3100 Pls
966 3100 Pls
966 3100 Pls
966 3100 Pls
966 3100 Pls
966 3099 Pls
966 3099 Pls
966 3099 Pls
966 3099 Pls
966 3099 Pls
966 3098 Pls
966 3098 Pls
966 3098 Pls
966 3098 Pls
966 3098 Pls
966 3098 Pls
966 3098 Pls
966 3098 Pls
966 3097 Pls
966 3097 Pls
966 3097 Pls
966 3097 Pls
966 3097 Pls
966 3097 Pls
966 3096 Pls
966 3096 Pls
966 3096 Pls
966 3096 Pls
966 3095 Pls
966 3095 Pls
966 3095 Pls
966 3095 Pls
966 3095 Pls
966 3095 Pls
966 3094 Pls
966 3094 Pls
966 3094 Pls
966 3094 Pls
966 3094 Pls
966 3094 Pls
966 3093 Pls
966 3093 Pls
966 3093 Pls
966 3093 Pls
966 3093 Pls
966 3093 Pls
966 3093 Pls
966 3092 Pls
966 3092 Pls
966 3092 Pls
966 3092 Pls
966 3092 Pls
966 3092 Pls
966 3091 Pls
966 3091 Pls
966 3091 Pls
966 3091 Pls
966 3091 Pls
966 3091 Pls
966 3090 Pls
966 3090 Pls
966 3090 Pls
966 3090 Pls
966 3090 Pls
966 3090 Pls
966 3090 Pls
966 3089 Pls
966 3089 Pls
966 3089 Pls
966 3089 Pls
966 3088 Pls
966 3088 Pls
966 3088 Pls
966 3088 Pls
966 3088 Pls
966 3088 Pls
966 3087 Pls
966 3087 Pls
966 3087 Pls
966 3087 Pls
966 3087 Pls
966 3087 Pls
966 3086 Pls
966 3086 Pls
966 3086 Pls
966 3086 Pls
966 3086 Pls
966 3086 Pls
966 3085 Pls
966 3085 Pls
966 3085 Pls
966 3085 Pls
966 3085 Pls
966 3085 Pls
966 3084 Pls
966 3084 Pls
966 3084 Pls
966 3084 Pls
966 3084 Pls
966 3084 Pls
966 3084 Pls
966 3084 Pls
966 3083 Pls
966 3083 Pls
966 3083 Pls
966 3083 Pls
966 3082 Pls
966 3082 Pls
966 3082 Pls
966 3082 Pls
966 3082 Pls
966 3081 Pls
966 3081 Pls
966 3081 Pls
966 3081 Pls
966 3081 Pls
966 3080 Pls
966 3080 Pls
966 3080 Pls
966 3080 Pls
966 3080 Pls
966 3080 Pls
966 3080 Pls
966 3079 Pls
966 3079 Pls
966 3079 Pls
966 3078 Pls
966 3078 Pls
966 3078 Pls
966 3078 Pls
966 3078 Pls
966 3078 Pls
966 3077 Pls
966 3077 Pls
966 3077 Pls
966 3077 Pls
966 3076 Pls
966 3076 Pls
966 3076 Pls
966 3076 Pls
966 3076 Pls
966 3076 Pls
966 3076 Pls
966 3076 Pls
966 3075 Pls
966 3075 Pls
966 3075 Pls
966 3075 Pls
966 3075 Pls
966 3075 Pls
966 3075 Pls
966 3074 Pls
966 3074 Pls
966 3074 Pls
966 3074 Pls
966 3074 Pls
966 3074 Pls
966 3074 Pls
966 3073 Pls
966 3073 Pls
966 3073 Pls
966 3073 Pls
966 3073 Pls
966 3073 Pls
966 3072 Pls
966 3072 Pls
966 3072 Pls
966 3072 Pls
966 3072 Pls
966 3072 Pls
966 3071 Pls
966 3071 Pls
966 3071 Pls
966 3070 Pls
966 3070 Pls
966 3070 Pls
966 3070 Pls
966 3069 Pls
966 3069 Pls
966 3069 Pls
966 3069 Pls
966 3068 Pls
966 3068 Pls
966 3068 Pls
966 3068 Pls
966 3068 Pls
966 3068 Pls
966 3068 Pls
966 3068 Pls
966 3067 Pls
966 3067 Pls
966 3067 Pls
966 3067 Pls
966 3066 Pls
966 3066 Pls
966 3066 Pls
966 3066 Pls
966 3066 Pls
966 3066 Pls
966 3066 Pls
966 3066 Pls
966 3065 Pls
966 3065 Pls
966 3065 Pls
966 3065 Pls
966 3065 Pls
966 3064 Pls
966 3064 Pls
966 3064 Pls
966 3064 Pls
966 3064 Pls
966 3064 Pls
966 3063 Pls
966 3063 Pls
966 3063 Pls
966 3063 Pls
966 3063 Pls
966 3062 Pls
966 3062 Pls
966 3062 Pls
966 3062 Pls
966 3062 Pls
966 3061 Pls
966 3061 Pls
966 3061 Pls
966 3060 Pls
966 3060 Pls
966 3060 Pls
966 3060 Pls
966 3060 Pls
966 3060 Pls
966 3060 Pls
966 3060 Pls
966 3059 Pls
966 3059 Pls
966 3059 Pls
966 3059 Pls
966 3059 Pls
966 3059 Pls
966 3059 Pls
966 3059 Pls
966 3058 Pls
966 3058 Pls
966 3058 Pls
966 3058 Pls
966 3058 Pls
966 3057 Pls
966 3057 Pls
966 3057 Pls
966 3057 Pls
966 3056 Pls
966 3056 Pls
966 3056 Pls
966 3056 Pls
966 3056 Pls
966 3056 Pls
966 3056 Pls
966 3056 Pls
966 3055 Pls
966 3055 Pls
966 3055 Pls
966 3055 Pls
966 3055 Pls
966 3055 Pls
966 3055 Pls
966 3054 Pls
966 3054 Pls
966 3054 Pls
966 3054 Pls
966 3053 Pls
966 3053 Pls
966 3053 Pls
966 3053 Pls
966 3053 Pls
966 3053 Pls
966 3053 Pls
966 3053 Pls
966 3052 Pls
966 3052 Pls
966 3052 Pls
966 3052 Pls
966 3052 Pls
966 3052 Pls
966 3051 Pls
966 3051 Pls
966 3051 Pls
966 3051 Pls
966 3051 Pls
966 3051 Pls
966 3051 Pls
966 3051 Pls
966 3050 Pls
966 3050 Pls
966 3050 Pls
966 3050 Pls
966 3050 Pls
966 3050 Pls
966 3050 Pls
966 3049 Pls
966 3049 Pls
966 3049 Pls
966 3049 Pls
966 3049 Pls
966 3048 Pls
966 3048 Pls
966 3048 Pls
966 3048 Pls
966 3048 Pls
966 3047 Pls
966 3047 Pls
966 3047 Pls
966 3047 Pls
966 3047 Pls
966 3046 Pls
966 3046 Pls
966 3046 Pls
966 3046 Pls
966 3046 Pls
966 3046 Pls
966 3046 Pls
966 3046 Pls
966 3045 Pls
966 3045 Pls
966 3045 Pls
966 3045 Pls
966 3045 Pls
966 3045 Pls
966 3045 Pls
966 3045 Pls
966 3045 Pls
966 3045 Pls
966 3044 Pls
966 3044 Pls
966 3044 Pls
966 3044 Pls
966 3044 Pls
966 3044 Pls
966 3044 Pls
966 3043 Pls
966 3043 Pls
966 3043 Pls
966 3043 Pls
966 3043 Pls
966 3043 Pls
966 3043 Pls
966 3042 Pls
966 3042 Pls
966 3042 Pls
966 3042 Pls
966 3042 Pls
966 3041 Pls
966 3041 Pls
966 3041 Pls
966 3041 Pls
966 3041 Pls
966 3041 Pls
966 3041 Pls
966 3040 Pls
966 3040 Pls
966 3040 Pls
966 3040 Pls
966 3040 Pls
966 3040 Pls
966 3039 Pls
966 3039 Pls
966 3039 Pls
966 3039 Pls
966 3039 Pls
966 3039 Pls
966 3039 Pls
966 3039 Pls
966 3038 Pls
966 3038 Pls
966 3038 Pls
966 3038 Pls
966 3038 Pls
966 3038 Pls
966 3037 Pls
966 3037 Pls
966 3037 Pls
966 3037 Pls
966 3037 Pls
966 3037 Pls
966 3037 Pls
966 3037 Pls
966 3037 Pls
966 3036 Pls
966 3036 Pls
966 3036 Pls
966 3036 Pls
966 3036 Pls
966 3036 Pls
966 3036 Pls
966 3036 Pls
966 3035 Pls
966 3035 Pls
966 3035 Pls
966 3035 Pls
966 3035 Pls
966 3035 Pls
966 3035 Pls
966 3034 Pls
966 3034 Pls
966 3034 Pls
966 3034 Pls
966 3034 Pls
966 3034 Pls
966 3034 Pls
966 3034 Pls
966 3034 Pls
966 3033 Pls
966 3033 Pls
966 3033 Pls
966 3033 Pls
966 3033 Pls
966 3032 Pls
966 3032 Pls
966 3032 Pls
966 3032 Pls
966 3032 Pls
966 3032 Pls
966 3032 Pls
966 3031 Pls
966 3031 Pls
966 3031 Pls
966 3031 Pls
966 3031 Pls
966 3031 Pls
966 3030 Pls
966 3030 Pls
966 3030 Pls
966 3030 Pls
966 3030 Pls
966 3030 Pls
966 3030 Pls
966 3030 Pls
966 3029 Pls
966 3029 Pls
966 3029 Pls
966 3029 Pls
966 3029 Pls
966 3029 Pls
966 3028 Pls
966 3028 Pls
966 3028 Pls
966 3028 Pls
966 3028 Pls
966 3028 Pls
966 3028 Pls
966 3027 Pls
966 3027 Pls
966 3027 Pls
966 3027 Pls
966 3027 Pls
966 3027 Pls
966 3027 Pls
966 3026 Pls
966 3026 Pls
966 3026 Pls
966 3026 Pls
966 3025 Pls
966 3025 Pls
966 3025 Pls
966 3025 Pls
966 3024 Pls
966 3024 Pls
966 3024 Pls
966 3024 Pls
966 3024 Pls
966 3024 Pls
966 3023 Pls
966 3023 Pls
966 3023 Pls
966 3023 Pls
966 3023 Pls
966 3023 Pls
966 3023 Pls
966 3022 Pls
966 3022 Pls
966 3022 Pls
966 3022 Pls
966 3022 Pls
966 3022 Pls
966 3021 Pls
966 3021 Pls
966 3021 Pls
966 3021 Pls
966 3021 Pls
966 3021 Pls
966 3021 Pls
966 3021 Pls
966 3020 Pls
966 3020 Pls
966 3020 Pls
966 3020 Pls
966 3020 Pls
966 3020 Pls
966 3020 Pls
966 3020 Pls
966 3019 Pls
966 3019 Pls
966 3019 Pls
966 3019 Pls
966 3019 Pls
966 3019 Pls
966 3019 Pls
966 3019 Pls
966 3019 Pls
966 3019 Pls
966 3018 Pls
966 3018 Pls
966 3018 Pls
966 3018 Pls
966 3018 Pls
966 3018 Pls
966 3018 Pls
966 3017 Pls
966 3017 Pls
966 3017 Pls
966 3017 Pls
966 3017 Pls
966 3016 Pls
966 3016 Pls
966 3016 Pls
966 3016 Pls
966 3016 Pls
966 3016 Pls
966 3016 Pls
966 3016 Pls
966 3015 Pls
966 3015 Pls
966 3015 Pls
966 3015 Pls
966 3015 Pls
966 3015 Pls
966 3015 Pls
966 3015 Pls
966 3014 Pls
966 3014 Pls
966 3014 Pls
966 3014 Pls
966 3014 Pls
966 3014 Pls
966 3013 Pls
966 3013 Pls
966 3013 Pls
966 3013 Pls
966 3013 Pls
966 3013 Pls
966 3012 Pls
966 3012 Pls
966 3012 Pls
966 3012 Pls
966 3012 Pls
966 3012 Pls
966 3012 Pls
966 3012 Pls
966 3011 Pls
966 3011 Pls
966 3011 Pls
966 3011 Pls
966 3011 Pls
966 3011 Pls
966 3010 Pls
966 3010 Pls
966 3010 Pls
966 3010 Pls
966 3010 Pls
966 3010 Pls
966 3010 Pls
966 3010 Pls
966 3009 Pls
966 3009 Pls
966 3009 Pls
966 3009 Pls
966 3009 Pls
966 3009 Pls
966 3008 Pls
966 3008 Pls
966 3008 Pls
966 3008 Pls
966 3008 Pls
966 3007 Pls
966 3007 Pls
966 3007 Pls
966 3007 Pls
966 3007 Pls
966 3007 Pls
966 3007 Pls
966 3007 Pls
966 3007 Pls
966 3006 Pls
966 3006 Pls
966 3006 Pls
966 3006 Pls
966 3006 Pls
966 3006 Pls
966 3005 Pls
966 3005 Pls
966 3005 Pls
966 3005 Pls
966 3005 Pls
966 3005 Pls
966 3005 Pls
966 3005 Pls
966 3005 Pls
966 3004 Pls
966 3004 Pls
966 3004 Pls
966 3004 Pls
966 3004 Pls
966 3003 Pls
966 3003 Pls
966 3003 Pls
966 3003 Pls
966 3003 Pls
966 3003 Pls
966 3003 Pls
966 3003 Pls
966 3002 Pls
966 3002 Pls
966 3002 Pls
966 3002 Pls
966 3002 Pls
966 3002 Pls
966 3002 Pls
966 3001 Pls
966 3001 Pls
966 3001 Pls
966 3001 Pls
966 3001 Pls
966 3000 Pls
966 3000 Pls
966 3000 Pls
966 3000 Pls
966 3000 Pls
966 3000 Pls
966 3000 Pls
966 2999 Pls
966 2999 Pls
966 2999 Pls
966 2999 Pls
966 2999 Pls
966 2999 Pls
966 2998 Pls
966 2998 Pls
966 2998 Pls
966 2998 Pls
966 2998 Pls
966 2998 Pls
966 2998 Pls
966 2998 Pls
966 2997 Pls
966 2997 Pls
966 2997 Pls
966 2997 Pls
966 2997 Pls
966 2997 Pls
966 2996 Pls
966 2996 Pls
966 2996 Pls
966 2996 Pls
966 2996 Pls
966 2996 Pls
966 2995 Pls
966 2995 Pls
966 2995 Pls
966 2995 Pls
966 2995 Pls
966 2995 Pls
966 2995 Pls
966 2994 Pls
966 2994 Pls
966 2994 Pls
966 2994 Pls
966 2994 Pls
966 2994 Pls
966 2994 Pls
966 2994 Pls
966 2993 Pls
966 2993 Pls
966 2993 Pls
966 2993 Pls
966 2993 Pls
966 2993 Pls
966 2992 Pls
966 2992 Pls
966 2992 Pls
966 2992 Pls
966 2991 Pls
966 2991 Pls
966 2991 Pls
966 2991 Pls
966 2991 Pls
966 2991 Pls
966 2990 Pls
966 2990 Pls
966 2990 Pls
966 2990 Pls
966 2990 Pls
966 2990 Pls
966 2990 Pls
966 2990 Pls
966 2990 Pls
966 2989 Pls
966 2989 Pls
966 2989 Pls
966 2989 Pls
966 2989 Pls
966 2989 Pls
966 2989 Pls
966 2989 Pls
966 2989 Pls
966 2988 Pls
966 2988 Pls
966 2988 Pls
966 2988 Pls
966 2988 Pls
966 2988 Pls
966 2988 Pls
966 2987 Pls
966 2987 Pls
966 2987 Pls
966 2987 Pls
966 2986 Pls
966 2986 Pls
966 2986 Pls
966 2986 Pls
966 2986 Pls
966 2986 Pls
966 2985 Pls
966 2985 Pls
966 2985 Pls
966 2985 Pls
966 2985 Pls
966 2984 Pls
966 2984 Pls
966 2984 Pls
966 2984 Pls
966 2984 Pls
966 2984 Pls
966 2984 Pls
966 2984 Pls
966 2983 Pls
966 2983 Pls
966 2983 Pls
966 2983 Pls
966 2983 Pls
966 2982 Pls
966 2982 Pls
966 2982 Pls
966 2982 Pls
966 2982 Pls
966 2982 Pls
966 2981 Pls
966 2981 Pls
966 2981 Pls
966 2981 Pls
966 2981 Pls
966 2981 Pls
966 2981 Pls
966 2981 Pls
966 2980 Pls
966 2980 Pls
966 2980 Pls
966 2980 Pls
966 2980 Pls
966 2979 Pls
966 2979 Pls
966 2979 Pls
966 2979 Pls
966 2979 Pls
966 2979 Pls
966 2979 Pls
966 2979 Pls
966 2978 Pls
966 2978 Pls
966 2978 Pls
966 2978 Pls
966 2978 Pls
966 2978 Pls
966 2978 Pls
966 2978 Pls
966 2978 Pls
966 2977 Pls
966 2977 Pls
966 2977 Pls
966 2977 Pls
966 2977 Pls
966 2977 Pls
966 2977 Pls
966 2977 Pls
966 2976 Pls
966 2976 Pls
966 2976 Pls
966 2976 Pls
966 2976 Pls
966 2976 Pls
966 2976 Pls
966 2976 Pls
966 2976 Pls
966 2975 Pls
966 2975 Pls
966 2975 Pls
966 2975 Pls
966 2975 Pls
966 2975 Pls
966 2975 Pls
966 2975 Pls
966 2974 Pls
966 2974 Pls
966 2974 Pls
966 2974 Pls
966 2974 Pls
966 2974 Pls
966 2974 Pls
966 2973 Pls
966 2973 Pls
966 2973 Pls
966 2973 Pls
966 2973 Pls
966 2973 Pls
966 2973 Pls
966 2973 Pls
966 2973 Pls
966 2973 Pls
966 2972 Pls
966 2972 Pls
966 2972 Pls
966 2972 Pls
966 2972 Pls
966 2972 Pls
966 2972 Pls
966 2972 Pls
966 2972 Pls
966 2971 Pls
966 2971 Pls
966 2971 Pls
966 2971 Pls
966 2971 Pls
966 2971 Pls
966 2970 Pls
966 2970 Pls
966 2970 Pls
966 2970 Pls
966 2970 Pls
966 2970 Pls
966 2970 Pls
966 2969 Pls
966 2969 Pls
966 2969 Pls
966 2969 Pls
966 2969 Pls
966 2969 Pls
966 2969 Pls
966 2969 Pls
966 2969 Pls
966 2968 Pls
966 2968 Pls
966 2968 Pls
966 2968 Pls
966 2968 Pls
966 2968 Pls
966 2968 Pls
966 2968 Pls
966 2968 Pls
966 2967 Pls
966 2967 Pls
966 2967 Pls
966 2967 Pls
966 2967 Pls
966 2967 Pls
966 2967 Pls
966 2967 Pls
966 2966 Pls
966 2966 Pls
966 2966 Pls
966 2966 Pls
966 2966 Pls
966 2966 Pls
966 2965 Pls
966 2965 Pls
966 2965 Pls
966 2965 Pls
966 2965 Pls
966 2965 Pls
966 2964 Pls
966 2964 Pls
966 2964 Pls
966 2964 Pls
966 2964 Pls
966 2964 Pls
966 2964 Pls
966 2964 Pls
966 2963 Pls
966 2963 Pls
966 2963 Pls
966 2963 Pls
966 2963 Pls
966 2963 Pls
966 2963 Pls
966 2963 Pls
966 2962 Pls
966 2962 Pls
966 2962 Pls
966 2962 Pls
966 2962 Pls
966 2962 Pls
966 2962 Pls
966 2962 Pls
966 2961 Pls
966 2961 Pls
966 2961 Pls
966 2961 Pls
966 2961 Pls
966 2961 Pls
966 2961 Pls
966 2961 Pls
966 2960 Pls
966 2960 Pls
966 2960 Pls
966 2960 Pls
966 2960 Pls
966 2959 Pls
966 2959 Pls
966 2959 Pls
966 2959 Pls
966 2959 Pls
966 2959 Pls
966 2959 Pls
966 2958 Pls
966 2958 Pls
966 2958 Pls
966 2958 Pls
966 2958 Pls
966 2958 Pls
966 2958 Pls
966 2958 Pls
966 2957 Pls
966 2957 Pls
966 2957 Pls
966 2957 Pls
966 2957 Pls
966 2957 Pls
966 2957 Pls
966 2957 Pls
966 2956 Pls
966 2956 Pls
966 2956 Pls
966 2956 Pls
966 2956 Pls
966 2956 Pls
966 2956 Pls
966 2956 Pls
966 2955 Pls
966 2955 Pls
966 2955 Pls
966 2955 Pls
966 2954 Pls
966 2954 Pls
966 2954 Pls
966 2954 Pls
966 2954 Pls
966 2953 Pls
966 2953 Pls
966 2953 Pls
966 2953 Pls
966 2953 Pls
966 2953 Pls
966 2953 Pls
966 2953 Pls
966 2952 Pls
966 2952 Pls
966 2952 Pls
966 2952 Pls
966 2952 Pls
966 2952 Pls
966 2952 Pls
966 2952 Pls
966 2951 Pls
966 2951 Pls
966 2951 Pls
966 2951 Pls
966 2951 Pls
966 2951 Pls
966 2951 Pls
966 2951 Pls
966 2950 Pls
966 2950 Pls
966 2950 Pls
966 2950 Pls
966 2950 Pls
966 2949 Pls
966 2949 Pls
966 2949 Pls
966 2949 Pls
966 2949 Pls
966 2949 Pls
966 2949 Pls
966 2949 Pls
966 2949 Pls
966 2948 Pls
966 2948 Pls
966 2948 Pls
966 2948 Pls
966 2948 Pls
966 2948 Pls
966 2947 Pls
966 2947 Pls
966 2947 Pls
966 2947 Pls
966 2947 Pls
966 2947 Pls
966 2947 Pls
966 2946 Pls
966 2946 Pls
966 2946 Pls
966 2946 Pls
966 2946 Pls
966 2946 Pls
966 2946 Pls
966 2946 Pls
966 2945 Pls
966 2945 Pls
966 2945 Pls
966 2945 Pls
966 2945 Pls
966 2945 Pls
966 2945 Pls
966 2944 Pls
966 2944 Pls
966 2944 Pls
966 2944 Pls
966 2944 Pls
966 2944 Pls
966 2944 Pls
966 2944 Pls
966 2943 Pls
966 2943 Pls
966 2943 Pls
966 2942 Pls
966 2942 Pls
966 2942 Pls
966 2942 Pls
966 2942 Pls
966 2942 Pls
966 2941 Pls
966 2941 Pls
966 2941 Pls
966 2940 Pls
966 2940 Pls
966 2933 Pls
966 2933 Pls
966 2933 Pls
966 2933 Pls
966 2933 Pls
966 2932 Pls
966 2932 Pls
966 2932 Pls
966 2932 Pls
966 2932 Pls
966 2932 Pls
966 2932 Pls
966 2931 Pls
966 2931 Pls
966 2931 Pls
966 2931 Pls
966 2931 Pls
966 2931 Pls
966 2930 Pls
966 2930 Pls
966 2930 Pls
966 2930 Pls
966 2930 Pls
966 2930 Pls
966 2930 Pls
966 2929 Pls
966 2929 Pls
966 2929 Pls
966 2929 Pls
966 2929 Pls
966 2929 Pls
966 2929 Pls
966 2928 Pls
966 2928 Pls
966 2928 Pls
966 2928 Pls
966 2928 Pls
966 2928 Pls
966 2928 Pls
966 2928 Pls
966 2927 Pls
966 2927 Pls
966 2927 Pls
966 2927 Pls
966 2927 Pls
966 2927 Pls
966 2926 Pls
966 2926 Pls
966 2926 Pls
966 2926 Pls
966 2926 Pls
966 2926 Pls
966 2925 Pls
966 2925 Pls
966 2925 Pls
966 2925 Pls
966 2925 Pls
966 2925 Pls
966 2925 Pls
966 2925 Pls
966 2924 Pls
966 2924 Pls
966 2924 Pls
966 2924 Pls
966 2924 Pls
966 2924 Pls
966 2924 Pls
966 2923 Pls
966 2923 Pls
966 2923 Pls
966 2923 Pls
966 2923 Pls
966 2923 Pls
966 2923 Pls
966 2922 Pls
966 2922 Pls
966 2922 Pls
966 2922 Pls
966 2922 Pls
966 2922 Pls
966 2922 Pls
966 2921 Pls
966 2921 Pls
966 2921 Pls
966 2921 Pls
966 2921 Pls
966 2921 Pls
966 2920 Pls
966 2920 Pls
966 2920 Pls
966 2920 Pls
966 2920 Pls
966 2919 Pls
966 2919 Pls
966 2919 Pls
966 2919 Pls
966 2919 Pls
966 2919 Pls
966 2919 Pls
966 2918 Pls
966 2918 Pls
966 2918 Pls
966 2918 Pls
966 2918 Pls
966 2918 Pls
966 2918 Pls
966 2917 Pls
966 2917 Pls
966 2917 Pls
966 2917 Pls
966 2917 Pls
966 2916 Pls
966 2916 Pls
966 2916 Pls
966 2916 Pls
966 2916 Pls
966 2916 Pls
966 2916 Pls
966 2915 Pls
966 2915 Pls
966 2915 Pls
966 2915 Pls
966 2915 Pls
966 2915 Pls
966 2914 Pls
966 2914 Pls
966 2914 Pls
966 2914 Pls
966 2914 Pls
966 2914 Pls
966 2913 Pls
966 2913 Pls
966 2913 Pls
966 2913 Pls
966 2913 Pls
966 2913 Pls
966 2912 Pls
966 2912 Pls
966 2912 Pls
966 2912 Pls
966 2912 Pls
966 2912 Pls
966 2912 Pls
966 2912 Pls
966 2911 Pls
966 2911 Pls
966 2911 Pls
966 2911 Pls
966 2911 Pls
966 2911 Pls
966 2911 Pls
966 2910 Pls
966 2910 Pls
966 2910 Pls
966 2910 Pls
966 2910 Pls
966 2909 Pls
966 2909 Pls
966 2909 Pls
966 2909 Pls
966 2909 Pls
966 2909 Pls
966 2909 Pls
966 2908 Pls
966 2908 Pls
966 2908 Pls
966 2908 Pls
966 2908 Pls
966 2908 Pls
966 2907 Pls
966 2907 Pls
966 2907 Pls
966 2906 Pls
966 2906 Pls
966 2906 Pls
966 2906 Pls
966 2906 Pls
966 2905 Pls
966 2905 Pls
966 2905 Pls
966 2905 Pls
966 2905 Pls
966 2905 Pls
966 2905 Pls
966 2905 Pls
966 2904 Pls
966 2904 Pls
966 2904 Pls
966 2904 Pls
966 2904 Pls
966 2904 Pls
966 2904 Pls
966 2903 Pls
966 2903 Pls
966 2903 Pls
966 2903 Pls
966 2903 Pls
966 2903 Pls
966 2903 Pls
966 2902 Pls
966 2902 Pls
966 2902 Pls
966 2902 Pls
966 2902 Pls
966 2901 Pls
966 2901 Pls
966 2901 Pls
966 2901 Pls
966 2901 Pls
966 2901 Pls
966 2901 Pls
966 2900 Pls
966 2900 Pls
966 2900 Pls
966 2900 Pls
966 2900 Pls
966 2900 Pls
966 2900 Pls
966 2899 Pls
966 2899 Pls
966 2899 Pls
966 2899 Pls
966 2899 Pls
966 2898 Pls
966 2898 Pls
966 2898 Pls
966 2898 Pls
966 2898 Pls
966 2898 Pls
966 2898 Pls
966 2898 Pls
966 2897 Pls
966 2897 Pls
966 2897 Pls
966 2896 Pls
966 2896 Pls
966 2896 Pls
966 2896 Pls
966 2896 Pls
966 2896 Pls
966 2895 Pls
966 2895 Pls
966 2895 Pls
966 2895 Pls
966 2895 Pls
966 2895 Pls
966 2895 Pls
966 2895 Pls
966 2894 Pls
966 2894 Pls
966 2894 Pls
966 2894 Pls
966 2894 Pls
966 2893 Pls
966 2893 Pls
966 2893 Pls
966 2893 Pls
966 2893 Pls
966 2893 Pls
966 2893 Pls
966 2892 Pls
966 2892 Pls
966 2892 Pls
966 2892 Pls
966 2892 Pls
966 2892 Pls
966 2891 Pls
966 2891 Pls
966 2891 Pls
966 2891 Pls
966 2891 Pls
966 2891 Pls
966 2891 Pls
966 2890 Pls
966 2890 Pls
966 2890 Pls
966 2890 Pls
966 2890 Pls
966 2890 Pls
966 2890 Pls
966 2889 Pls
966 2889 Pls
966 2889 Pls
966 2889 Pls
966 2889 Pls
966 2889 Pls
966 2889 Pls
966 2888 Pls
966 2888 Pls
966 2888 Pls
966 2888 Pls
966 2888 Pls
966 2888 Pls
966 2888 Pls
966 2887 Pls
966 2887 Pls
966 2887 Pls
966 2887 Pls
966 2887 Pls
966 2887 Pls
966 2886 Pls
966 2886 Pls
966 2886 Pls
966 2886 Pls
966 2886 Pls
966 2886 Pls
966 2886 Pls
966 2885 Pls
966 2885 Pls
966 2885 Pls
966 2885 Pls
966 2885 Pls
966 2885 Pls
966 2885 Pls
966 2884 Pls
966 2884 Pls
966 2884 Pls
966 2884 Pls
966 2884 Pls
966 2884 Pls
966 2884 Pls
966 2883 Pls
966 2883 Pls
966 2883 Pls
966 2883 Pls
966 2883 Pls
966 2883 Pls
966 2882 Pls
966 2882 Pls
966 2882 Pls
966 2882 Pls
966 2882 Pls
966 2881 Pls
966 2881 Pls
966 2881 Pls
966 2881 Pls
966 2881 Pls
966 2881 Pls
966 2880 Pls
966 2880 Pls
966 2880 Pls
966 2880 Pls
966 2880 Pls
966 2880 Pls
966 2880 Pls
966 2879 Pls
966 2879 Pls
966 2879 Pls
966 2879 Pls
966 2879 Pls
966 2879 Pls
966 2879 Pls
966 2878 Pls
966 2878 Pls
966 2878 Pls
966 2878 Pls
966 2878 Pls
966 2878 Pls
966 2877 Pls
966 2877 Pls
966 2877 Pls
966 2877 Pls
966 2877 Pls
966 2876 Pls
966 2876 Pls
966 2876 Pls
966 2876 Pls
966 2876 Pls
966 2876 Pls
966 2875 Pls
966 2875 Pls
966 2875 Pls
966 2875 Pls
966 2875 Pls
966 2874 Pls
966 2874 Pls
966 2874 Pls
966 2874 Pls
966 2874 Pls
966 2873 Pls
966 2873 Pls
966 2873 Pls
966 2873 Pls
966 2872 Pls
966 2872 Pls
966 2872 Pls
966 2872 Pls
966 2872 Pls
966 2872 Pls
966 2871 Pls
966 2871 Pls
966 2871 Pls
966 2871 Pls
966 2871 Pls
966 2871 Pls
966 2871 Pls
966 2870 Pls
966 2870 Pls
966 2870 Pls
966 2870 Pls
966 2870 Pls
966 2870 Pls
966 2869 Pls
966 2869 Pls
966 2869 Pls
966 2869 Pls
966 2869 Pls
966 2869 Pls
966 2868 Pls
966 2868 Pls
966 2868 Pls
966 2868 Pls
966 2868 Pls
966 2868 Pls
966 2867 Pls
966 2867 Pls
966 2867 Pls
966 2867 Pls
966 2866 Pls
966 2866 Pls
966 2866 Pls
966 2866 Pls
966 2866 Pls
966 2866 Pls
966 2865 Pls
966 2865 Pls
966 2865 Pls
966 2865 Pls
966 2865 Pls
966 2864 Pls
966 2864 Pls
966 2864 Pls
966 2864 Pls
966 2864 Pls
966 2864 Pls
966 2864 Pls
966 2863 Pls
966 2863 Pls
966 2863 Pls
966 2863 Pls
966 2863 Pls
966 2862 Pls
966 2862 Pls
966 2862 Pls
966 2862 Pls
966 2862 Pls
966 2861 Pls
966 2861 Pls
966 2861 Pls
966 2861 Pls
966 2861 Pls
966 2860 Pls
966 2860 Pls
966 2860 Pls
966 2860 Pls
966 2860 Pls
966 2859 Pls
966 2859 Pls
966 2859 Pls
966 2859 Pls
966 2859 Pls
966 2859 Pls
966 2858 Pls
966 2858 Pls
966 2858 Pls
966 2858 Pls
966 2858 Pls
966 2858 Pls
966 2857 Pls
966 2857 Pls
966 2857 Pls
966 2857 Pls
966 2857 Pls
966 2856 Pls
966 2856 Pls
966 2856 Pls
966 2856 Pls
966 2855 Pls
966 2855 Pls
966 2855 Pls
966 2855 Pls
966 2855 Pls
966 2855 Pls
966 2854 Pls
966 2854 Pls
966 2854 Pls
966 2854 Pls
966 2854 Pls
966 2853 Pls
966 2853 Pls
966 2853 Pls
966 2853 Pls
966 2853 Pls
966 2852 Pls
966 2852 Pls
966 2852 Pls
966 2852 Pls
966 2852 Pls
966 2851 Pls
966 2851 Pls
966 2851 Pls
966 2851 Pls
966 2851 Pls
966 2851 Pls
966 2850 Pls
966 2850 Pls
966 2850 Pls
966 2850 Pls
966 2850 Pls
966 2850 Pls
966 2849 Pls
966 2849 Pls
966 2849 Pls
966 2849 Pls
966 2849 Pls
966 2848 Pls
966 2848 Pls
966 2848 Pls
966 2848 Pls
966 2847 Pls
966 2847 Pls
966 2846 Pls
966 2846 Pls
966 2846 Pls
966 2846 Pls
966 2846 Pls
966 2846 Pls
966 2845 Pls
966 2845 Pls
966 2845 Pls
966 2845 Pls
966 2845 Pls
966 2844 Pls
966 2844 Pls
966 2844 Pls
966 2844 Pls
966 2844 Pls
966 2844 Pls
966 2843 Pls
966 2843 Pls
966 2843 Pls
966 2843 Pls
966 2843 Pls
966 2842 Pls
966 2842 Pls
966 2842 Pls
966 2842 Pls
966 2842 Pls
966 2841 Pls
966 2841 Pls
966 2841 Pls
966 2841 Pls
966 2841 Pls
966 2840 Pls
966 2840 Pls
966 2840 Pls
966 2840 Pls
966 2840 Pls
966 2840 Pls
966 2839 Pls
966 2839 Pls
966 2839 Pls
966 2839 Pls
966 2839 Pls
966 2839 Pls
966 2838 Pls
966 2838 Pls
966 2838 Pls
966 2838 Pls
966 2838 Pls
966 2838 Pls
966 2837 Pls
966 2837 Pls
966 2837 Pls
966 2837 Pls
966 2837 Pls
966 2837 Pls
966 2836 Pls
966 2836 Pls
966 2836 Pls
966 2836 Pls
966 2836 Pls
966 2835 Pls
966 2835 Pls
966 2835 Pls
966 2835 Pls
966 2835 Pls
966 2835 Pls
966 2834 Pls
966 2834 Pls
966 2834 Pls
966 2834 Pls
966 2834 Pls
966 2834 Pls
966 2833 Pls
966 2833 Pls
966 2833 Pls
966 2833 Pls
966 2832 Pls
966 2832 Pls
966 2832 Pls
966 2832 Pls
966 2831 Pls
966 2831 Pls
966 2831 Pls
966 2831 Pls
966 2831 Pls
966 2830 Pls
966 2830 Pls
966 2830 Pls
966 2830 Pls
966 2830 Pls
966 2829 Pls
966 2829 Pls
966 2829 Pls
966 2829 Pls
966 2829 Pls
966 2829 Pls
966 2828 Pls
966 2828 Pls
966 2828 Pls
966 2828 Pls
966 2827 Pls
966 2827 Pls
966 2827 Pls
966 2827 Pls
966 2827 Pls
966 2827 Pls
966 2826 Pls
966 2826 Pls
966 2826 Pls
966 2826 Pls
966 2826 Pls
966 2826 Pls
966 2825 Pls
966 2825 Pls
966 2825 Pls
966 2824 Pls
966 2824 Pls
966 2824 Pls
966 2824 Pls
966 2824 Pls
966 2824 Pls
966 2823 Pls
966 2823 Pls
966 2823 Pls
966 2823 Pls
966 2823 Pls
966 2822 Pls
966 2822 Pls
966 2822 Pls
966 2822 Pls
966 2822 Pls
966 2821 Pls
966 2821 Pls
966 2821 Pls
966 2821 Pls
966 2821 Pls
966 2821 Pls
966 2820 Pls
966 2820 Pls
966 2820 Pls
966 2820 Pls
966 2820 Pls
966 2819 Pls
966 2819 Pls
966 2819 Pls
966 2819 Pls
966 2819 Pls
966 2819 Pls
966 2818 Pls
966 2818 Pls
966 2818 Pls
966 2818 Pls
966 2818 Pls
966 2817 Pls
966 2817 Pls
966 2817 Pls
966 2817 Pls
966 2817 Pls
966 2817 Pls
966 2816 Pls
966 2816 Pls
966 2816 Pls
966 2816 Pls
966 2816 Pls
966 2815 Pls
966 2815 Pls
966 2815 Pls
966 2815 Pls
966 2815 Pls
966 2815 Pls
966 2814 Pls
966 2814 Pls
966 2814 Pls
966 2814 Pls
966 2814 Pls
966 2813 Pls
966 2813 Pls
966 2813 Pls
966 2813 Pls
966 2813 Pls
966 2813 Pls
966 2812 Pls
966 2812 Pls
966 2812 Pls
966 2811 Pls
966 2811 Pls
966 2811 Pls
966 2811 Pls
966 2811 Pls
966 2810 Pls
966 2810 Pls
966 2810 Pls
966 2810 Pls
966 2810 Pls
966 2809 Pls
966 2809 Pls
966 2809 Pls
966 2809 Pls
966 2808 Pls
966 2808 Pls
966 2808 Pls
966 2808 Pls
966 2808 Pls
966 2808 Pls
966 2807 Pls
966 2807 Pls
966 2807 Pls
966 2807 Pls
966 2807 Pls
966 2806 Pls
966 2806 Pls
966 2806 Pls
966 2806 Pls
966 2806 Pls
966 2805 Pls
966 2805 Pls
966 2805 Pls
966 2805 Pls
966 2805 Pls
966 2804 Pls
966 2804 Pls
966 2804 Pls
966 2804 Pls
966 2804 Pls
966 2803 Pls
966 2803 Pls
966 2803 Pls
966 2803 Pls
966 2803 Pls
966 2802 Pls
966 2802 Pls
966 2802 Pls
966 2802 Pls
966 2802 Pls
966 2801 Pls
966 2801 Pls
966 2801 Pls
966 2801 Pls
966 2801 Pls
966 2801 Pls
966 2800 Pls
966 2800 Pls
966 2800 Pls
966 2800 Pls
966 2800 Pls
966 2799 Pls
966 2799 Pls
966 2799 Pls
966 2799 Pls
966 2798 Pls
966 2798 Pls
966 2798 Pls
966 2798 Pls
966 2798 Pls
966 2797 Pls
966 2797 Pls
966 2797 Pls
966 2797 Pls
966 2797 Pls
966 2796 Pls
966 2796 Pls
966 2796 Pls
966 2796 Pls
966 2796 Pls
966 2795 Pls
966 2795 Pls
966 2795 Pls
966 2795 Pls
966 2795 Pls
966 2794 Pls
966 2794 Pls
966 2794 Pls
966 2794 Pls
966 2794 Pls
966 2794 Pls
966 2793 Pls
966 2793 Pls
966 2793 Pls
966 2793 Pls
966 2793 Pls
966 2792 Pls
966 2792 Pls
966 2792 Pls
966 2792 Pls
966 2791 Pls
966 2791 Pls
966 2791 Pls
966 2791 Pls
966 2790 Pls
966 2790 Pls
966 2790 Pls
966 2790 Pls
966 2789 Pls
966 2789 Pls
966 2789 Pls
966 2789 Pls
966 2789 Pls
966 2788 Pls
966 2788 Pls
966 2788 Pls
966 2788 Pls
966 2788 Pls
966 2787 Pls
966 2787 Pls
966 2787 Pls
966 2787 Pls
966 2786 Pls
966 2786 Pls
966 2786 Pls
966 2786 Pls
966 2785 Pls
966 2785 Pls
966 2785 Pls
966 2785 Pls
966 2784 Pls
966 2784 Pls
966 2784 Pls
966 2784 Pls
966 2784 Pls
966 2783 Pls
966 2783 Pls
966 2783 Pls
966 2783 Pls
966 2782 Pls
966 2782 Pls
966 2782 Pls
966 2782 Pls
966 2782 Pls
966 2781 Pls
966 2781 Pls
966 2781 Pls
966 2781 Pls
966 2781 Pls
966 2780 Pls
966 2780 Pls
966 2780 Pls
966 2780 Pls
966 2780 Pls
966 2779 Pls
966 2779 Pls
966 2779 Pls
966 2779 Pls
966 2779 Pls
966 2778 Pls
966 2778 Pls
966 2778 Pls
966 2778 Pls
966 2777 Pls
966 2777 Pls
966 2777 Pls
966 2777 Pls
966 2777 Pls
966 2776 Pls
966 2776 Pls
966 2776 Pls
966 2776 Pls
966 2776 Pls
966 2775 Pls
966 2775 Pls
966 2775 Pls
966 2775 Pls
966 2775 Pls
966 2774 Pls
966 2774 Pls
966 2774 Pls
966 2774 Pls
966 2773 Pls
966 2773 Pls
966 2773 Pls
966 2772 Pls
966 2772 Pls
966 2772 Pls
966 2772 Pls
966 2771 Pls
966 2771 Pls
966 2771 Pls
966 2771 Pls
966 2771 Pls
966 2770 Pls
966 2770 Pls
966 2770 Pls
966 2769 Pls
966 2769 Pls
966 2769 Pls
966 2769 Pls
966 2768 Pls
966 2768 Pls
966 2768 Pls
966 2768 Pls
966 2768 Pls
966 2767 Pls
966 2767 Pls
966 2767 Pls
966 2767 Pls
966 2766 Pls
966 2766 Pls
966 2766 Pls
966 2766 Pls
966 2765 Pls
966 2765 Pls
966 2765 Pls
966 2765 Pls
966 2764 Pls
966 2764 Pls
966 2764 Pls
966 2764 Pls
966 2763 Pls
966 2763 Pls
966 2763 Pls
966 2763 Pls
966 2763 Pls
966 2762 Pls
966 2762 Pls
966 2762 Pls
966 2762 Pls
966 2761 Pls
966 2761 Pls
966 2761 Pls
966 2761 Pls
966 2761 Pls
966 2760 Pls
966 2760 Pls
966 2760 Pls
966 2760 Pls
966 2759 Pls
966 2759 Pls
966 2759 Pls
966 2759 Pls
966 2759 Pls
966 2758 Pls
966 2758 Pls
966 2758 Pls
966 2758 Pls
966 2757 Pls
966 2757 Pls
966 2757 Pls
966 2757 Pls
966 2757 Pls
966 2756 Pls
966 2756 Pls
966 2756 Pls
966 2756 Pls
966 2755 Pls
966 2755 Pls
966 2755 Pls
966 2754 Pls
966 2754 Pls
966 2754 Pls
966 2754 Pls
966 2754 Pls
966 2753 Pls
966 2753 Pls
966 2753 Pls
966 2753 Pls
966 2752 Pls
966 2752 Pls
966 2752 Pls
966 2752 Pls
966 2752 Pls
966 2751 Pls
966 2751 Pls
966 2751 Pls
966 2751 Pls
966 2750 Pls
966 2750 Pls
966 2750 Pls
966 2749 Pls
966 2749 Pls
966 2749 Pls
966 2749 Pls
966 2749 Pls
966 2748 Pls
966 2748 Pls
966 2748 Pls
966 2748 Pls
966 2747 Pls
966 2747 Pls
966 2747 Pls
966 2747 Pls
966 2746 Pls
966 2746 Pls
966 2746 Pls
966 2746 Pls
966 2746 Pls
966 2745 Pls
966 2745 Pls
966 2745 Pls
966 2744 Pls
966 2744 Pls
966 2743 Pls
966 2743 Pls
966 2743 Pls
966 2742 Pls
966 2742 Pls
966 2742 Pls
966 2742 Pls
966 2742 Pls
966 2741 Pls
966 2741 Pls
966 2741 Pls
966 2741 Pls
966 2740 Pls
966 2740 Pls
966 2740 Pls
966 2740 Pls
966 2739 Pls
966 2739 Pls
966 2739 Pls
966 2739 Pls
966 2738 Pls
966 2738 Pls
966 2738 Pls
966 2738 Pls
966 2737 Pls
966 2737 Pls
966 2737 Pls
966 2737 Pls
966 2737 Pls
966 2736 Pls
966 2736 Pls
966 2736 Pls
966 2736 Pls
966 2735 Pls
966 2735 Pls
966 2735 Pls
966 2734 Pls
966 2734 Pls
966 2734 Pls
966 2734 Pls
966 2733 Pls
966 2733 Pls
966 2733 Pls
966 2733 Pls
966 2732 Pls
966 2732 Pls
966 2732 Pls
966 2732 Pls
966 2731 Pls
966 2731 Pls
966 2731 Pls
966 2730 Pls
966 2730 Pls
966 2730 Pls
966 2730 Pls
966 2729 Pls
966 2729 Pls
966 2729 Pls
966 2729 Pls
966 2728 Pls
966 2728 Pls
966 2728 Pls
966 2728 Pls
966 2727 Pls
966 2727 Pls
966 2727 Pls
966 2727 Pls
966 2726 Pls
966 2726 Pls
966 2726 Pls
966 2726 Pls
966 2725 Pls
966 2725 Pls
966 2725 Pls
966 2725 Pls
966 2724 Pls
966 2724 Pls
966 2724 Pls
966 2724 Pls
966 2723 Pls
966 2723 Pls
966 2723 Pls
966 2722 Pls
966 2722 Pls
966 2722 Pls
966 2722 Pls
966 2721 Pls
966 2721 Pls
966 2721 Pls
966 2721 Pls
966 2720 Pls
966 2720 Pls
966 2720 Pls
966 2720 Pls
966 2719 Pls
966 2719 Pls
966 2719 Pls
966 2719 Pls
966 2718 Pls
966 2718 Pls
966 2718 Pls
966 2718 Pls
966 2717 Pls
966 2717 Pls
966 2717 Pls
966 2717 Pls
966 2716 Pls
966 2716 Pls
966 2715 Pls
966 2715 Pls
966 2715 Pls
966 2715 Pls
966 2714 Pls
966 2714 Pls
966 2714 Pls
966 2713 Pls
966 2713 Pls
966 2713 Pls
966 2713 Pls
966 2712 Pls
966 2712 Pls
966 2712 Pls
966 2712 Pls
966 2711 Pls
966 2711 Pls
966 2711 Pls
966 2711 Pls
966 2710 Pls
966 2710 Pls
966 2710 Pls
966 2710 Pls
966 2709 Pls
966 2709 Pls
966 2709 Pls
966 2708 Pls
966 2708 Pls
966 2708 Pls
966 2708 Pls
966 2707 Pls
966 2707 Pls
966 2707 Pls
966 2707 Pls
966 2706 Pls
966 2706 Pls
966 2706 Pls
966 2706 Pls
966 2705 Pls
966 2705 Pls
966 2705 Pls
966 2704 Pls
966 2704 Pls
966 2704 Pls
966 2703 Pls
966 2703 Pls
966 2702 Pls
966 2702 Pls
966 2702 Pls
966 2701 Pls
966 2701 Pls
966 2701 Pls
966 2701 Pls
966 2700 Pls
966 2700 Pls
966 2700 Pls
966 2700 Pls
966 2699 Pls
966 2699 Pls
966 2699 Pls
966 2698 Pls
966 2698 Pls
966 2698 Pls
966 2698 Pls
966 2697 Pls
966 2697 Pls
966 2697 Pls
966 2697 Pls
966 2696 Pls
966 2696 Pls
966 2696 Pls
966 2695 Pls
966 2695 Pls
966 2695 Pls
966 2695 Pls
966 2694 Pls
966 2694 Pls
966 2694 Pls
966 2693 Pls
966 2693 Pls
966 2693 Pls
966 2693 Pls
966 2692 Pls
966 2692 Pls
966 2692 Pls
966 2691 Pls
966 2691 Pls
966 2691 Pls
966 2691 Pls
966 2690 Pls
966 2690 Pls
966 2690 Pls
966 2690 Pls
966 2689 Pls
966 2689 Pls
966 2689 Pls
966 2688 Pls
966 2688 Pls
966 2688 Pls
966 2688 Pls
966 2687 Pls
966 2687 Pls
966 2687 Pls
966 2686 Pls
966 2686 Pls
966 2686 Pls
966 2686 Pls
966 2685 Pls
966 2685 Pls
966 2685 Pls
966 2684 Pls
966 2684 Pls
966 2684 Pls
966 2683 Pls
966 2683 Pls
966 2683 Pls
966 2683 Pls
966 2682 Pls
966 2682 Pls
966 2682 Pls
966 2681 Pls
966 2681 Pls
966 2681 Pls
966 2681 Pls
966 2680 Pls
966 2680 Pls
966 2679 Pls
966 2679 Pls
966 2679 Pls
966 2678 Pls
966 2678 Pls
966 2678 Pls
966 2677 Pls
966 2677 Pls
966 2677 Pls
966 2676 Pls
966 2676 Pls
966 2676 Pls
966 2676 Pls
966 2675 Pls
966 2675 Pls
966 2675 Pls
966 2674 Pls
966 2674 Pls
966 2674 Pls
966 2673 Pls
966 2673 Pls
966 2673 Pls
966 2672 Pls
966 2672 Pls
966 2672 Pls
966 2671 Pls
966 2671 Pls
966 2671 Pls
966 2670 Pls
966 2670 Pls
966 2670 Pls
966 2670 Pls
966 2669 Pls
966 2669 Pls
966 2669 Pls
966 2668 Pls
966 2668 Pls
966 2668 Pls
966 2667 Pls
966 2667 Pls
966 2667 Pls
966 2666 Pls
966 2666 Pls
966 2666 Pls
966 2666 Pls
966 2665 Pls
966 2665 Pls
966 2665 Pls
966 2664 Pls
966 2664 Pls
966 2664 Pls
966 2663 Pls
966 2663 Pls
966 2663 Pls
966 2662 Pls
966 2662 Pls
966 2662 Pls
966 2661 Pls
966 2661 Pls
966 2661 Pls
966 2661 Pls
966 2660 Pls
966 2660 Pls
966 2659 Pls
966 2659 Pls
966 2659 Pls
966 2658 Pls
966 2658 Pls
966 2658 Pls
966 2657 Pls
966 2657 Pls
966 2657 Pls
966 2656 Pls
966 2656 Pls
966 2656 Pls
966 2655 Pls
966 2655 Pls
966 2655 Pls
966 2654 Pls
966 2654 Pls
966 2654 Pls
966 2654 Pls
966 2653 Pls
966 2653 Pls
966 2653 Pls
966 2652 Pls
966 2652 Pls
966 2652 Pls
966 2651 Pls
966 2651 Pls
966 2651 Pls
966 2650 Pls
966 2650 Pls
966 2650 Pls
966 2649 Pls
966 2649 Pls
966 2649 Pls
966 2648 Pls
966 2648 Pls
966 2648 Pls
966 2647 Pls
966 2647 Pls
966 2647 Pls
966 2646 Pls
966 2646 Pls
966 2646 Pls
966 2645 Pls
966 2645 Pls
966 2645 Pls
966 2644 Pls
966 2644 Pls
966 2644 Pls
966 2643 Pls
966 2643 Pls
966 2643 Pls
966 2642 Pls
966 2642 Pls
966 2642 Pls
966 2641 Pls
966 2641 Pls
966 2641 Pls
966 2640 Pls
966 2640 Pls
966 2640 Pls
966 2639 Pls
966 2639 Pls
966 2639 Pls
966 2638 Pls
966 2638 Pls
966 2638 Pls
966 2637 Pls
966 2637 Pls
966 2637 Pls
966 2636 Pls
966 2636 Pls
966 2636 Pls
966 2635 Pls
966 2635 Pls
966 2635 Pls
966 2634 Pls
966 2634 Pls
966 2634 Pls
966 2633 Pls
966 2633 Pls
966 2632 Pls
966 2632 Pls
966 2632 Pls
966 2631 Pls
966 2631 Pls
966 2631 Pls
966 2630 Pls
966 2630 Pls
966 2630 Pls
966 2629 Pls
966 2629 Pls
966 2629 Pls
966 2628 Pls
966 2628 Pls
966 2628 Pls
966 2627 Pls
966 2627 Pls
966 2627 Pls
966 2626 Pls
966 2626 Pls
966 2625 Pls
966 2625 Pls
966 2625 Pls
966 2624 Pls
966 2624 Pls
966 2624 Pls
966 2623 Pls
966 2623 Pls
966 2623 Pls
966 2622 Pls
966 2622 Pls
966 2622 Pls
966 2621 Pls
966 2621 Pls
966 2620 Pls
966 2620 Pls
966 2620 Pls
966 2619 Pls
966 2619 Pls
966 2619 Pls
966 2618 Pls
966 2618 Pls
966 2618 Pls
966 2617 Pls
966 2617 Pls
966 2616 Pls
966 2616 Pls
966 2616 Pls
966 2615 Pls
966 2615 Pls
966 2615 Pls
966 2614 Pls
966 2614 Pls
966 2613 Pls
966 2613 Pls
966 2613 Pls
966 2612 Pls
966 2612 Pls
966 2612 Pls
966 2611 Pls
966 2611 Pls
966 2610 Pls
966 2610 Pls
966 2610 Pls
966 2609 Pls
966 2609 Pls
966 2609 Pls
966 2608 Pls
966 2608 Pls
966 2607 Pls
966 2607 Pls
966 2607 Pls
966 2606 Pls
966 2606 Pls
966 2606 Pls
966 2605 Pls
966 2605 Pls
966 2604 Pls
966 2604 Pls
966 2604 Pls
966 2603 Pls
966 2603 Pls
966 2603 Pls
966 2602 Pls
966 2602 Pls
966 2601 Pls
966 2601 Pls
966 2601 Pls
966 2600 Pls
966 2600 Pls
966 2599 Pls
966 2599 Pls
966 2599 Pls
966 2598 Pls
966 2598 Pls
966 2597 Pls
966 2597 Pls
966 2597 Pls
966 2596 Pls
966 2596 Pls
966 2595 Pls
966 2595 Pls
966 2595 Pls
966 2594 Pls
966 2594 Pls
966 2593 Pls
966 2593 Pls
966 2593 Pls
966 2592 Pls
966 2592 Pls
966 2592 Pls
966 2591 Pls
966 2591 Pls
966 2590 Pls
966 2590 Pls
966 2589 Pls
966 2589 Pls
966 2589 Pls
966 2588 Pls
966 2588 Pls
966 2587 Pls
966 2587 Pls
966 2587 Pls
966 2586 Pls
966 2586 Pls
966 2585 Pls
966 2585 Pls
966 2585 Pls
966 2584 Pls
966 2584 Pls
966 2583 Pls
966 2583 Pls
966 2583 Pls
966 2582 Pls
966 2582 Pls
966 2581 Pls
966 2581 Pls
966 2580 Pls
966 2580 Pls
966 2580 Pls
966 2579 Pls
966 2579 Pls
966 2578 Pls
966 2578 Pls
966 2578 Pls
966 2577 Pls
966 2577 Pls
966 2576 Pls
966 2576 Pls
966 2575 Pls
966 2575 Pls
966 2575 Pls
966 2574 Pls
966 2574 Pls
966 2573 Pls
966 2573 Pls
966 2572 Pls
966 2572 Pls
966 2572 Pls
966 2571 Pls
966 2571 Pls
966 2570 Pls
966 2570 Pls
966 2569 Pls
966 2569 Pls
966 2569 Pls
966 2568 Pls
966 2568 Pls
966 2567 Pls
966 2567 Pls
966 2566 Pls
966 2566 Pls
966 2566 Pls
966 2565 Pls
966 2565 Pls
966 2564 Pls
966 2564 Pls
966 2563 Pls
966 2562 Pls
966 2562 Pls
966 2562 Pls
966 2561 Pls
966 2561 Pls
966 2560 Pls
966 2560 Pls
966 2559 Pls
966 2559 Pls
966 2558 Pls
966 2558 Pls
966 2558 Pls
966 2557 Pls
966 2557 Pls
966 2556 Pls
966 2556 Pls
966 2555 Pls
966 2554 Pls
966 2554 Pls
966 2553 Pls
966 2553 Pls
966 2552 Pls
966 2552 Pls
966 2552 Pls
966 2551 Pls
966 2551 Pls
966 2550 Pls
966 2550 Pls
966 2549 Pls
966 2549 Pls
966 2548 Pls
966 2548 Pls
966 2547 Pls
966 2547 Pls
966 2546 Pls
966 2546 Pls
966 2546 Pls
966 2545 Pls
966 2545 Pls
966 2544 Pls
966 2544 Pls
966 2543 Pls
966 2543 Pls
966 2542 Pls
966 2542 Pls
966 2541 Pls
966 2541 Pls
966 2540 Pls
966 2540 Pls
966 2539 Pls
966 2539 Pls
966 2538 Pls
966 2537 Pls
966 2537 Pls
966 2536 Pls
966 2536 Pls
966 2535 Pls
966 2535 Pls
966 2534 Pls
966 2534 Pls
966 2533 Pls
966 2533 Pls
966 2533 Pls
966 2532 Pls
966 2532 Pls
966 2531 Pls
966 2531 Pls
966 2530 Pls
966 2530 Pls
966 2529 Pls
966 2529 Pls
966 2528 Pls
966 2528 Pls
966 2527 Pls
966 2527 Pls
966 2526 Pls
966 2526 Pls
966 2525 Pls
966 2525 Pls
966 2524 Pls
966 2524 Pls
966 2523 Pls
966 2522 Pls
966 2522 Pls
966 2521 Pls
966 2521 Pls
966 2520 Pls
966 2520 Pls
966 2519 Pls
966 2519 Pls
966 2518 Pls
966 2518 Pls
966 2517 Pls
966 2517 Pls
966 2516 Pls
966 2516 Pls
966 2515 Pls
966 2515 Pls
966 2514 Pls
966 2514 Pls
966 2513 Pls
966 2512 Pls
966 2512 Pls
966 2511 Pls
966 2510 Pls
966 2510 Pls
966 2509 Pls
966 2509 Pls
966 2508 Pls
966 2508 Pls
966 2507 Pls
966 2507 Pls
966 2506 Pls
966 2506 Pls
966 2505 Pls
966 2505 Pls
966 2504 Pls
966 2503 Pls
966 2502 Pls
966 2502 Pls
966 2501 Pls
966 2501 Pls
966 2500 Pls
966 2500 Pls
966 2499 Pls
966 2499 Pls
966 2498 Pls
966 2497 Pls
966 2497 Pls
966 2496 Pls
966 2496 Pls
966 2495 Pls
966 2495 Pls
966 2494 Pls
966 2493 Pls
966 2493 Pls
966 2492 Pls
966 2492 Pls
966 2491 Pls
966 2491 Pls
966 2490 Pls
966 2490 Pls
966 2489 Pls
966 2488 Pls
966 2488 Pls
966 2487 Pls
966 2487 Pls
966 2486 Pls
966 2485 Pls
966 2485 Pls
966 2484 Pls
966 2483 Pls
966 2483 Pls
966 2482 Pls
966 2481 Pls
966 2481 Pls
966 2480 Pls
966 2480 Pls
966 2479 Pls
966 2478 Pls
966 2478 Pls
966 2477 Pls
966 2477 Pls
966 2476 Pls
966 2475 Pls
966 2475 Pls
966 2474 Pls
966 2474 Pls
966 2473 Pls
966 2472 Pls
966 2472 Pls
966 2471 Pls
966 2471 Pls
966 2470 Pls
966 2469 Pls
966 2469 Pls
966 2468 Pls
966 2467 Pls
966 2467 Pls
966 2466 Pls
966 2466 Pls
966 2465 Pls
966 2464 Pls
966 2464 Pls
966 2463 Pls
966 2462 Pls
966 2462 Pls
966 2461 Pls
966 2461 Pls
966 2460 Pls
966 2458 Pls
966 2457 Pls
966 2456 Pls
966 2455 Pls
966 2455 Pls
966 2454 Pls
966 2454 Pls
966 2453 Pls
966 2452 Pls
966 2452 Pls
966 2451 Pls
966 2450 Pls
966 2450 Pls
966 2449 Pls
966 2448 Pls
966 2448 Pls
966 2447 Pls
966 2446 Pls
966 2446 Pls
966 2445 Pls
966 2444 Pls
966 2444 Pls
966 2443 Pls
966 2442 Pls
966 2442 Pls
966 2441 Pls
966 2440 Pls
966 2440 Pls
966 2439 Pls
966 2438 Pls
966 2437 Pls
966 2437 Pls
966 2436 Pls
966 2435 Pls
966 2435 Pls
966 2434 Pls
966 2433 Pls
966 2433 Pls
966 2432 Pls
966 2431 Pls
966 2430 Pls
966 2430 Pls
966 2429 Pls
966 2428 Pls
966 2428 Pls
966 2427 Pls
966 2426 Pls
966 2426 Pls
966 2425 Pls
966 2424 Pls
966 2423 Pls
966 2423 Pls
966 2422 Pls
966 2421 Pls
966 2420 Pls
966 2420 Pls
966 2419 Pls
966 2418 Pls
966 2418 Pls
966 2417 Pls
966 2416 Pls
966 2415 Pls
966 2415 Pls
966 2414 Pls
966 2413 Pls
966 2412 Pls
966 2412 Pls
966 2411 Pls
966 2410 Pls
966 2409 Pls
966 2409 Pls
966 2408 Pls
966 2407 Pls
966 2406 Pls
966 2405 Pls
966 2405 Pls
966 2404 Pls
966 2403 Pls
966 2402 Pls
966 2402 Pls
966 2401 Pls
966 2400 Pls
966 2399 Pls
966 2398 Pls
966 2398 Pls
966 2397 Pls
966 2396 Pls
966 2395 Pls
966 2394 Pls
966 2394 Pls
966 2393 Pls
966 2392 Pls
966 2391 Pls
966 2390 Pls
966 2390 Pls
966 2389 Pls
966 2388 Pls
966 2387 Pls
966 2386 Pls
966 2386 Pls
966 2385 Pls
966 2384 Pls
966 2383 Pls
966 2382 Pls
966 2381 Pls
966 2381 Pls
966 2380 Pls
966 2379 Pls
966 2378 Pls
966 2377 Pls
966 2376 Pls
967 2375 Pls
967 2375 Pls
967 2374 Pls
967 2373 Pls
967 2372 Pls
967 2371 Pls
967 2370 Pls
967 2369 Pls
967 2369 Pls
967 2368 Pls
967 2367 Pls
967 2366 Pls
967 2365 Pls
967 2364 Pls
967 2363 Pls
967 2362 Pls
967 2361 Pls
967 2361 Pls
967 2360 Pls
967 2359 Pls
967 2358 Pls
967 2357 Pls
967 2356 Pls
967 2355 Pls
967 2353 Pls
967 2352 Pls
967 2351 Pls
967 2350 Pls
967 2349 Pls
967 2349 Pls
967 2348 Pls
967 2347 Pls
967 2346 Pls
967 2345 Pls
967 2344 Pls
967 2343 Pls
967 2342 Pls
967 2341 Pls
967 2340 Pls
967 2339 Pls
967 2338 Pls
967 2337 Pls
967 2336 Pls
967 2335 Pls
967 2334 Pls
967 2333 Pls
967 2332 Pls
967 2331 Pls
967 2330 Pls
967 2329 Pls
967 2328 Pls
967 2327 Pls
967 2326 Pls
967 2325 Pls
967 2324 Pls
967 2323 Pls
967 2322 Pls
967 2321 Pls
967 2320 Pls
967 2319 Pls
967 2318 Pls
967 2317 Pls
967 2316 Pls
967 2315 Pls
967 2314 Pls
967 2313 Pls
967 2311 Pls
967 2310 Pls
967 2309 Pls
967 2308 Pls
967 2307 Pls
967 2306 Pls
967 2305 Pls
967 2304 Pls
967 2303 Pls
967 2302 Pls
967 2301 Pls
967 2299 Pls
967 2298 Pls
967 2297 Pls
967 2296 Pls
967 2295 Pls
967 2294 Pls
967 2293 Pls
967 2291 Pls
967 2290 Pls
967 2289 Pls
967 2288 Pls
967 2287 Pls
967 2286 Pls
967 2285 Pls
967 2283 Pls
967 2282 Pls
967 2281 Pls
967 2280 Pls
967 2279 Pls
967 2277 Pls
967 2276 Pls
967 2275 Pls
967 2274 Pls
967 2273 Pls
967 2271 Pls
967 2270 Pls
967 2269 Pls
967 2268 Pls
967 2266 Pls
967 2265 Pls
967 2264 Pls
967 2263 Pls
967 2261 Pls
967 2260 Pls
967 2259 Pls
967 2257 Pls
967 2256 Pls
967 2255 Pls
967 2253 Pls
967 2252 Pls
967 2251 Pls
967 2249 Pls
967 2248 Pls
967 2247 Pls
967 2245 Pls
967 2244 Pls
967 2243 Pls
967 2241 Pls
967 2240 Pls
967 2239 Pls
967 2237 Pls
967 2236 Pls
967 2234 Pls
967 2233 Pls
967 2232 Pls
967 2230 Pls
967 2229 Pls
967 2227 Pls
967 2226 Pls
967 2224 Pls
967 2223 Pls
967 2222 Pls
967 2220 Pls
967 2219 Pls
967 2217 Pls
967 2216 Pls
968 2214 Pls
968 2213 Pls
968 2211 Pls
968 2210 Pls
968 2208 Pls
968 2206 Pls
968 2205 Pls
968 2203 Pls
968 2202 Pls
968 2200 Pls
968 2199 Pls
968 2197 Pls
968 2195 Pls
968 2194 Pls
968 2192 Pls
968 2191 Pls
968 2189 Pls
968 2187 Pls
968 2186 Pls
968 2184 Pls
968 2182 Pls
968 2181 Pls
968 2179 Pls
968 2177 Pls
968 2175 Pls
968 2174 Pls
968 2172 Pls
968 2170 Pls
968 2168 Pls
968 2167 Pls
968 2165 Pls
968 2163 Pls
968 2161 Pls
968 2159 Pls
968 2158 Pls
968 2156 Pls
968 2154 Pls
968 2152 Pls
968 2150 Pls
968 2148 Pls
968 2146 Pls
969 2144 Pls
969 2143 Pls
969 2141 Pls
969 2139 Pls
969 2137 Pls
969 2135 Pls
969 2133 Pls
969 2131 Pls
969 2129 Pls
969 2127 Pls
969 2125 Pls
969 2122 Pls
969 2120 Pls
969 2118 Pls
969 2116 Pls
969 2114 Pls
969 2112 Pls
969 2110 Pls
969 2108 Pls
969 2105 Pls
969 2103 Pls
969 2101 Pls
969 2099 Pls
969 2096 Pls
970 2094 Pls
970 2092 Pls
970 2089 Pls
970 2087 Pls
970 2085 Pls
970 2082 Pls
970 2080 Pls
970 2078 Pls
970 2075 Pls
970 2073 Pls
970 2070 Pls
970 2068 Pls
970 2065 Pls
970 2063 Pls
970 2060 Pls
970 2057 Pls
970 2055 Pls
970 2052 Pls
971 2049 Pls
971 2047 Pls
971 2044 Pls
971 2041 Pls
971 2038 Pls
971 2036 Pls
971 2033 Pls
971 2030 Pls
971 2027 Pls
972 2024 Pls
972 2021 Pls
972 2018 Pls
972 2015 Pls
972 2012 Pls
972 2009 Pls
972 2006 Pls
972 2003 Pls
972 2000 Pls
972 1996 Pls
973 1993 Pls
973 1990 Pls
973 1987 Pls
973 1983 Pls
973 1980 Pls
973 1976 Pls
973 1973 Pls
974 1969 Pls
974 1966 Pls
974 1962 Pls
974 1958 Pls
974 1955 Pls
974 1951 Pls
974 1947 Pls
974 1943 Pls
974 1939 Pls
974 1935 Pls
975 1931 Pls
975 1927 Pls
975 1923 Pls
975 1919 Pls
975 1914 Pls
976 1910 Pls
976 1906 Pls
977 1901 Pls
977 1897 Pls
977 1892 Pls
977 1887 Pls
978 1883 Pls
979 1878 Pls
981 1873 Pls
981 1868 Pls
981 1863 Pls
981 1857 Pls
981 1852 Pls
982 1847 Pls
983 1841 Pls
983 1835 Pls
984 1830 Pls
984 1824 Pls
984 1818 Pls
985 1812 Pls
986 1805 Pls
986 1799 Pls
987 1792 Pls
988 1786 Pls
988 1779 Pls
989 1772 Pls
990 1765 Pls
990 1757 Pls
990 1750 Pls
992 1742 Pls
993 1734 Pls
993 1726 Pls
995 1717 Pls
995 1708 Pls
996 1699 Pls
999 1690 Pls
999 1680 Pls
1000 1670 Pls
1000 1660 Pls
1001 1649 Pls
1001 1638 Pls
1005 1626 Pls
1030 1614 Pls
1036 1602 Pls
1036 1588 Pls
1046 1574 Pls
1060 1560 Pls
1076 1544 Pls
1078 1528 Pls
1105 1511 Pls
1190 1492 Pls
1204 1473 Pls
1235 1452 Pls
1269 1429 Pls
1294 1404 Pls
1308 1377 Pls
1423 1347 Pls
1424 1313 Pls
1449 1275 Pls
1682 1231 Pls
1810 1180 Pls
2126 1116 Pls
2273 1034 Pls
3673 919 Pls
6060 721 Pls
% End plot #1
2.000 UL
LTb
LCb setrgbcolor
1.000 UL
LTB
LCb setrgbcolor
966 4871 N
966 280 L
5981 0 V
0 4591 V
-5981 0 V
Z stroke
1.000 UP
1.000 UL
LTb
LCb setrgbcolor
stroke
grestore
end
showpage
%%Trailer
%%DocumentFonts: Helvetica
%%Pages: 1
