%!PS-Adobe-2.0
%%Title: packets-uv-s-mult-packets-uv-ccdf-linlin.eps
%%Creator: gnuplot 5.0 patchlevel 3
%%CreationDate: Mon May 29 11:14:16 2017
%%DocumentFonts: (atend)
%%BoundingBox: 50 50 554 770
%%Orientation: Landscape
%%Pages: (atend)
%%EndComments
%%BeginProlog
/gnudict 256 dict def
gnudict begin
%
% The following true/false flags may be edited by hand if desired.
% The unit line width and grayscale image gamma correction may also be changed.
%
/Color true def
/Blacktext false def
/Solid false def
/Dashlength 1 def
/Landscape true def
/Level1 false def
/Level3 false def
/Rounded false def
/ClipToBoundingBox false def
/SuppressPDFMark false def
/TransparentPatterns false def
/gnulinewidth 5.000 def
/userlinewidth gnulinewidth def
/Gamma 1.0 def
/BackgroundColor {-1.000 -1.000 -1.000} def
%
/vshift -46 def
/dl1 {
  10.0 Dashlength userlinewidth gnulinewidth div mul mul mul
  Rounded { currentlinewidth 0.75 mul sub dup 0 le { pop 0.01 } if } if
} def
/dl2 {
  10.0 Dashlength userlinewidth gnulinewidth div mul mul mul
  Rounded { currentlinewidth 0.75 mul add } if
} def
/hpt_ 31.5 def
/vpt_ 31.5 def
/hpt hpt_ def
/vpt vpt_ def
/doclip {
  ClipToBoundingBox {
    newpath 50 50 moveto 554 50 lineto 554 770 lineto 50 770 lineto closepath
    clip
  } if
} def
%
% Gnuplot Prolog Version 5.1 (Oct 2015)
%
%/SuppressPDFMark true def
%
/M {moveto} bind def
/L {lineto} bind def
/R {rmoveto} bind def
/V {rlineto} bind def
/N {newpath moveto} bind def
/Z {closepath} bind def
/C {setrgbcolor} bind def
/f {rlineto fill} bind def
/g {setgray} bind def
/Gshow {show} def   % May be redefined later in the file to support UTF-8
/vpt2 vpt 2 mul def
/hpt2 hpt 2 mul def
/Lshow {currentpoint stroke M 0 vshift R 
	Blacktext {gsave 0 setgray textshow grestore} {textshow} ifelse} def
/Rshow {currentpoint stroke M dup stringwidth pop neg vshift R
	Blacktext {gsave 0 setgray textshow grestore} {textshow} ifelse} def
/Cshow {currentpoint stroke M dup stringwidth pop -2 div vshift R 
	Blacktext {gsave 0 setgray textshow grestore} {textshow} ifelse} def
/UP {dup vpt_ mul /vpt exch def hpt_ mul /hpt exch def
  /hpt2 hpt 2 mul def /vpt2 vpt 2 mul def} def
/DL {Color {setrgbcolor Solid {pop []} if 0 setdash}
 {pop pop pop 0 setgray Solid {pop []} if 0 setdash} ifelse} def
/BL {stroke userlinewidth 2 mul setlinewidth
	Rounded {1 setlinejoin 1 setlinecap} if} def
/AL {stroke userlinewidth 2 div setlinewidth
	Rounded {1 setlinejoin 1 setlinecap} if} def
/UL {dup gnulinewidth mul /userlinewidth exch def
	dup 1 lt {pop 1} if 10 mul /udl exch def} def
/PL {stroke userlinewidth setlinewidth
	Rounded {1 setlinejoin 1 setlinecap} if} def
3.8 setmiterlimit
% Classic Line colors (version 5.0)
/LCw {1 1 1} def
/LCb {0 0 0} def
/LCa {0 0 0} def
/LC0 {1 0 0} def
/LC1 {0 1 0} def
/LC2 {0 0 1} def
/LC3 {1 0 1} def
/LC4 {0 1 1} def
/LC5 {1 1 0} def
/LC6 {0 0 0} def
/LC7 {1 0.3 0} def
/LC8 {0.5 0.5 0.5} def
% Default dash patterns (version 5.0)
/LTB {BL [] LCb DL} def
/LTw {PL [] 1 setgray} def
/LTb {PL [] LCb DL} def
/LTa {AL [1 udl mul 2 udl mul] 0 setdash LCa setrgbcolor} def
/LT0 {PL [] LC0 DL} def
/LT1 {PL [2 dl1 3 dl2] LC1 DL} def
/LT2 {PL [1 dl1 1.5 dl2] LC2 DL} def
/LT3 {PL [6 dl1 2 dl2 1 dl1 2 dl2] LC3 DL} def
/LT4 {PL [1 dl1 2 dl2 6 dl1 2 dl2 1 dl1 2 dl2] LC4 DL} def
/LT5 {PL [4 dl1 2 dl2] LC5 DL} def
/LT6 {PL [1.5 dl1 1.5 dl2 1.5 dl1 1.5 dl2 1.5 dl1 6 dl2] LC6 DL} def
/LT7 {PL [3 dl1 3 dl2 1 dl1 3 dl2] LC7 DL} def
/LT8 {PL [2 dl1 2 dl2 2 dl1 6 dl2] LC8 DL} def
/SL {[] 0 setdash} def
/Pnt {stroke [] 0 setdash gsave 1 setlinecap M 0 0 V stroke grestore} def
/Dia {stroke [] 0 setdash 2 copy vpt add M
  hpt neg vpt neg V hpt vpt neg V
  hpt vpt V hpt neg vpt V closepath stroke
  Pnt} def
/Pls {stroke [] 0 setdash vpt sub M 0 vpt2 V
  currentpoint stroke M
  hpt neg vpt neg R hpt2 0 V stroke
 } def
/Box {stroke [] 0 setdash 2 copy exch hpt sub exch vpt add M
  0 vpt2 neg V hpt2 0 V 0 vpt2 V
  hpt2 neg 0 V closepath stroke
  Pnt} def
/Crs {stroke [] 0 setdash exch hpt sub exch vpt add M
  hpt2 vpt2 neg V currentpoint stroke M
  hpt2 neg 0 R hpt2 vpt2 V stroke} def
/TriU {stroke [] 0 setdash 2 copy vpt 1.12 mul add M
  hpt neg vpt -1.62 mul V
  hpt 2 mul 0 V
  hpt neg vpt 1.62 mul V closepath stroke
  Pnt} def
/Star {2 copy Pls Crs} def
/BoxF {stroke [] 0 setdash exch hpt sub exch vpt add M
  0 vpt2 neg V hpt2 0 V 0 vpt2 V
  hpt2 neg 0 V closepath fill} def
/TriUF {stroke [] 0 setdash vpt 1.12 mul add M
  hpt neg vpt -1.62 mul V
  hpt 2 mul 0 V
  hpt neg vpt 1.62 mul V closepath fill} def
/TriD {stroke [] 0 setdash 2 copy vpt 1.12 mul sub M
  hpt neg vpt 1.62 mul V
  hpt 2 mul 0 V
  hpt neg vpt -1.62 mul V closepath stroke
  Pnt} def
/TriDF {stroke [] 0 setdash vpt 1.12 mul sub M
  hpt neg vpt 1.62 mul V
  hpt 2 mul 0 V
  hpt neg vpt -1.62 mul V closepath fill} def
/DiaF {stroke [] 0 setdash vpt add M
  hpt neg vpt neg V hpt vpt neg V
  hpt vpt V hpt neg vpt V closepath fill} def
/Pent {stroke [] 0 setdash 2 copy gsave
  translate 0 hpt M 4 {72 rotate 0 hpt L} repeat
  closepath stroke grestore Pnt} def
/PentF {stroke [] 0 setdash gsave
  translate 0 hpt M 4 {72 rotate 0 hpt L} repeat
  closepath fill grestore} def
/Circle {stroke [] 0 setdash 2 copy
  hpt 0 360 arc stroke Pnt} def
/CircleF {stroke [] 0 setdash hpt 0 360 arc fill} def
/C0 {BL [] 0 setdash 2 copy moveto vpt 90 450 arc} bind def
/C1 {BL [] 0 setdash 2 copy moveto
	2 copy vpt 0 90 arc closepath fill
	vpt 0 360 arc closepath} bind def
/C2 {BL [] 0 setdash 2 copy moveto
	2 copy vpt 90 180 arc closepath fill
	vpt 0 360 arc closepath} bind def
/C3 {BL [] 0 setdash 2 copy moveto
	2 copy vpt 0 180 arc closepath fill
	vpt 0 360 arc closepath} bind def
/C4 {BL [] 0 setdash 2 copy moveto
	2 copy vpt 180 270 arc closepath fill
	vpt 0 360 arc closepath} bind def
/C5 {BL [] 0 setdash 2 copy moveto
	2 copy vpt 0 90 arc
	2 copy moveto
	2 copy vpt 180 270 arc closepath fill
	vpt 0 360 arc} bind def
/C6 {BL [] 0 setdash 2 copy moveto
	2 copy vpt 90 270 arc closepath fill
	vpt 0 360 arc closepath} bind def
/C7 {BL [] 0 setdash 2 copy moveto
	2 copy vpt 0 270 arc closepath fill
	vpt 0 360 arc closepath} bind def
/C8 {BL [] 0 setdash 2 copy moveto
	2 copy vpt 270 360 arc closepath fill
	vpt 0 360 arc closepath} bind def
/C9 {BL [] 0 setdash 2 copy moveto
	2 copy vpt 270 450 arc closepath fill
	vpt 0 360 arc closepath} bind def
/C10 {BL [] 0 setdash 2 copy 2 copy moveto vpt 270 360 arc closepath fill
	2 copy moveto
	2 copy vpt 90 180 arc closepath fill
	vpt 0 360 arc closepath} bind def
/C11 {BL [] 0 setdash 2 copy moveto
	2 copy vpt 0 180 arc closepath fill
	2 copy moveto
	2 copy vpt 270 360 arc closepath fill
	vpt 0 360 arc closepath} bind def
/C12 {BL [] 0 setdash 2 copy moveto
	2 copy vpt 180 360 arc closepath fill
	vpt 0 360 arc closepath} bind def
/C13 {BL [] 0 setdash 2 copy moveto
	2 copy vpt 0 90 arc closepath fill
	2 copy moveto
	2 copy vpt 180 360 arc closepath fill
	vpt 0 360 arc closepath} bind def
/C14 {BL [] 0 setdash 2 copy moveto
	2 copy vpt 90 360 arc closepath fill
	vpt 0 360 arc} bind def
/C15 {BL [] 0 setdash 2 copy vpt 0 360 arc closepath fill
	vpt 0 360 arc closepath} bind def
/Rec {newpath 4 2 roll moveto 1 index 0 rlineto 0 exch rlineto
	neg 0 rlineto closepath} bind def
/Square {dup Rec} bind def
/Bsquare {vpt sub exch vpt sub exch vpt2 Square} bind def
/S0 {BL [] 0 setdash 2 copy moveto 0 vpt rlineto BL Bsquare} bind def
/S1 {BL [] 0 setdash 2 copy vpt Square fill Bsquare} bind def
/S2 {BL [] 0 setdash 2 copy exch vpt sub exch vpt Square fill Bsquare} bind def
/S3 {BL [] 0 setdash 2 copy exch vpt sub exch vpt2 vpt Rec fill Bsquare} bind def
/S4 {BL [] 0 setdash 2 copy exch vpt sub exch vpt sub vpt Square fill Bsquare} bind def
/S5 {BL [] 0 setdash 2 copy 2 copy vpt Square fill
	exch vpt sub exch vpt sub vpt Square fill Bsquare} bind def
/S6 {BL [] 0 setdash 2 copy exch vpt sub exch vpt sub vpt vpt2 Rec fill Bsquare} bind def
/S7 {BL [] 0 setdash 2 copy exch vpt sub exch vpt sub vpt vpt2 Rec fill
	2 copy vpt Square fill Bsquare} bind def
/S8 {BL [] 0 setdash 2 copy vpt sub vpt Square fill Bsquare} bind def
/S9 {BL [] 0 setdash 2 copy vpt sub vpt vpt2 Rec fill Bsquare} bind def
/S10 {BL [] 0 setdash 2 copy vpt sub vpt Square fill 2 copy exch vpt sub exch vpt Square fill
	Bsquare} bind def
/S11 {BL [] 0 setdash 2 copy vpt sub vpt Square fill 2 copy exch vpt sub exch vpt2 vpt Rec fill
	Bsquare} bind def
/S12 {BL [] 0 setdash 2 copy exch vpt sub exch vpt sub vpt2 vpt Rec fill Bsquare} bind def
/S13 {BL [] 0 setdash 2 copy exch vpt sub exch vpt sub vpt2 vpt Rec fill
	2 copy vpt Square fill Bsquare} bind def
/S14 {BL [] 0 setdash 2 copy exch vpt sub exch vpt sub vpt2 vpt Rec fill
	2 copy exch vpt sub exch vpt Square fill Bsquare} bind def
/S15 {BL [] 0 setdash 2 copy Bsquare fill Bsquare} bind def
/D0 {gsave translate 45 rotate 0 0 S0 stroke grestore} bind def
/D1 {gsave translate 45 rotate 0 0 S1 stroke grestore} bind def
/D2 {gsave translate 45 rotate 0 0 S2 stroke grestore} bind def
/D3 {gsave translate 45 rotate 0 0 S3 stroke grestore} bind def
/D4 {gsave translate 45 rotate 0 0 S4 stroke grestore} bind def
/D5 {gsave translate 45 rotate 0 0 S5 stroke grestore} bind def
/D6 {gsave translate 45 rotate 0 0 S6 stroke grestore} bind def
/D7 {gsave translate 45 rotate 0 0 S7 stroke grestore} bind def
/D8 {gsave translate 45 rotate 0 0 S8 stroke grestore} bind def
/D9 {gsave translate 45 rotate 0 0 S9 stroke grestore} bind def
/D10 {gsave translate 45 rotate 0 0 S10 stroke grestore} bind def
/D11 {gsave translate 45 rotate 0 0 S11 stroke grestore} bind def
/D12 {gsave translate 45 rotate 0 0 S12 stroke grestore} bind def
/D13 {gsave translate 45 rotate 0 0 S13 stroke grestore} bind def
/D14 {gsave translate 45 rotate 0 0 S14 stroke grestore} bind def
/D15 {gsave translate 45 rotate 0 0 S15 stroke grestore} bind def
/DiaE {stroke [] 0 setdash vpt add M
  hpt neg vpt neg V hpt vpt neg V
  hpt vpt V hpt neg vpt V closepath stroke} def
/BoxE {stroke [] 0 setdash exch hpt sub exch vpt add M
  0 vpt2 neg V hpt2 0 V 0 vpt2 V
  hpt2 neg 0 V closepath stroke} def
/TriUE {stroke [] 0 setdash vpt 1.12 mul add M
  hpt neg vpt -1.62 mul V
  hpt 2 mul 0 V
  hpt neg vpt 1.62 mul V closepath stroke} def
/TriDE {stroke [] 0 setdash vpt 1.12 mul sub M
  hpt neg vpt 1.62 mul V
  hpt 2 mul 0 V
  hpt neg vpt -1.62 mul V closepath stroke} def
/PentE {stroke [] 0 setdash gsave
  translate 0 hpt M 4 {72 rotate 0 hpt L} repeat
  closepath stroke grestore} def
/CircE {stroke [] 0 setdash 
  hpt 0 360 arc stroke} def
/Opaque {gsave closepath 1 setgray fill grestore 0 setgray closepath} def
/DiaW {stroke [] 0 setdash vpt add M
  hpt neg vpt neg V hpt vpt neg V
  hpt vpt V hpt neg vpt V Opaque stroke} def
/BoxW {stroke [] 0 setdash exch hpt sub exch vpt add M
  0 vpt2 neg V hpt2 0 V 0 vpt2 V
  hpt2 neg 0 V Opaque stroke} def
/TriUW {stroke [] 0 setdash vpt 1.12 mul add M
  hpt neg vpt -1.62 mul V
  hpt 2 mul 0 V
  hpt neg vpt 1.62 mul V Opaque stroke} def
/TriDW {stroke [] 0 setdash vpt 1.12 mul sub M
  hpt neg vpt 1.62 mul V
  hpt 2 mul 0 V
  hpt neg vpt -1.62 mul V Opaque stroke} def
/PentW {stroke [] 0 setdash gsave
  translate 0 hpt M 4 {72 rotate 0 hpt L} repeat
  Opaque stroke grestore} def
/CircW {stroke [] 0 setdash 
  hpt 0 360 arc Opaque stroke} def
/BoxFill {gsave Rec 1 setgray fill grestore} def
/Density {
  /Fillden exch def
  currentrgbcolor
  /ColB exch def /ColG exch def /ColR exch def
  /ColR ColR Fillden mul Fillden sub 1 add def
  /ColG ColG Fillden mul Fillden sub 1 add def
  /ColB ColB Fillden mul Fillden sub 1 add def
  ColR ColG ColB setrgbcolor} def
/BoxColFill {gsave Rec PolyFill} def
/PolyFill {gsave Density fill grestore grestore} def
/h {rlineto rlineto rlineto gsave closepath fill grestore} bind def
%
% PostScript Level 1 Pattern Fill routine for rectangles
% Usage: x y w h s a XX PatternFill
%	x,y = lower left corner of box to be filled
%	w,h = width and height of box
%	  a = angle in degrees between lines and x-axis
%	 XX = 0/1 for no/yes cross-hatch
%
/PatternFill {gsave /PFa [ 9 2 roll ] def
  PFa 0 get PFa 2 get 2 div add PFa 1 get PFa 3 get 2 div add translate
  PFa 2 get -2 div PFa 3 get -2 div PFa 2 get PFa 3 get Rec
  TransparentPatterns {} {gsave 1 setgray fill grestore} ifelse
  clip
  currentlinewidth 0.5 mul setlinewidth
  /PFs PFa 2 get dup mul PFa 3 get dup mul add sqrt def
  0 0 M PFa 5 get rotate PFs -2 div dup translate
  0 1 PFs PFa 4 get div 1 add floor cvi
	{PFa 4 get mul 0 M 0 PFs V} for
  0 PFa 6 get ne {
	0 1 PFs PFa 4 get div 1 add floor cvi
	{PFa 4 get mul 0 2 1 roll M PFs 0 V} for
 } if
  stroke grestore} def
%
/languagelevel where
 {pop languagelevel} {1} ifelse
dup 2 lt
	{/InterpretLevel1 true def
	 /InterpretLevel3 false def}
	{/InterpretLevel1 Level1 def
	 2 gt
	    {/InterpretLevel3 Level3 def}
	    {/InterpretLevel3 false def}
	 ifelse }
 ifelse
%
% PostScript level 2 pattern fill definitions
%
/Level2PatternFill {
/Tile8x8 {/PaintType 2 /PatternType 1 /TilingType 1 /BBox [0 0 8 8] /XStep 8 /YStep 8}
	bind def
/KeepColor {currentrgbcolor [/Pattern /DeviceRGB] setcolorspace} bind def
<< Tile8x8
 /PaintProc {0.5 setlinewidth pop 0 0 M 8 8 L 0 8 M 8 0 L stroke} 
>> matrix makepattern
/Pat1 exch def
<< Tile8x8
 /PaintProc {0.5 setlinewidth pop 0 0 M 8 8 L 0 8 M 8 0 L stroke
	0 4 M 4 8 L 8 4 L 4 0 L 0 4 L stroke}
>> matrix makepattern
/Pat2 exch def
<< Tile8x8
 /PaintProc {0.5 setlinewidth pop 0 0 M 0 8 L
	8 8 L 8 0 L 0 0 L fill}
>> matrix makepattern
/Pat3 exch def
<< Tile8x8
 /PaintProc {0.5 setlinewidth pop -4 8 M 8 -4 L
	0 12 M 12 0 L stroke}
>> matrix makepattern
/Pat4 exch def
<< Tile8x8
 /PaintProc {0.5 setlinewidth pop -4 0 M 8 12 L
	0 -4 M 12 8 L stroke}
>> matrix makepattern
/Pat5 exch def
<< Tile8x8
 /PaintProc {0.5 setlinewidth pop -2 8 M 4 -4 L
	0 12 M 8 -4 L 4 12 M 10 0 L stroke}
>> matrix makepattern
/Pat6 exch def
<< Tile8x8
 /PaintProc {0.5 setlinewidth pop -2 0 M 4 12 L
	0 -4 M 8 12 L 4 -4 M 10 8 L stroke}
>> matrix makepattern
/Pat7 exch def
<< Tile8x8
 /PaintProc {0.5 setlinewidth pop 8 -2 M -4 4 L
	12 0 M -4 8 L 12 4 M 0 10 L stroke}
>> matrix makepattern
/Pat8 exch def
<< Tile8x8
 /PaintProc {0.5 setlinewidth pop 0 -2 M 12 4 L
	-4 0 M 12 8 L -4 4 M 8 10 L stroke}
>> matrix makepattern
/Pat9 exch def
/Pattern1 {PatternBgnd KeepColor Pat1 setpattern} bind def
/Pattern2 {PatternBgnd KeepColor Pat2 setpattern} bind def
/Pattern3 {PatternBgnd KeepColor Pat3 setpattern} bind def
/Pattern4 {PatternBgnd KeepColor Landscape {Pat5} {Pat4} ifelse setpattern} bind def
/Pattern5 {PatternBgnd KeepColor Landscape {Pat4} {Pat5} ifelse setpattern} bind def
/Pattern6 {PatternBgnd KeepColor Landscape {Pat9} {Pat6} ifelse setpattern} bind def
/Pattern7 {PatternBgnd KeepColor Landscape {Pat8} {Pat7} ifelse setpattern} bind def
} def
%
%
%End of PostScript Level 2 code
%
/PatternBgnd {
  TransparentPatterns {} {gsave 1 setgray fill grestore} ifelse
} def
%
% Substitute for Level 2 pattern fill codes with
% grayscale if Level 2 support is not selected.
%
/Level1PatternFill {
/Pattern1 {0.250 Density} bind def
/Pattern2 {0.500 Density} bind def
/Pattern3 {0.750 Density} bind def
/Pattern4 {0.125 Density} bind def
/Pattern5 {0.375 Density} bind def
/Pattern6 {0.625 Density} bind def
/Pattern7 {0.875 Density} bind def
} def
%
% Now test for support of Level 2 code
%
Level1 {Level1PatternFill} {Level2PatternFill} ifelse
%
/Symbol-Oblique /Symbol findfont [1 0 .167 1 0 0] makefont
dup length dict begin {1 index /FID eq {pop pop} {def} ifelse} forall
currentdict end definefont pop
%
/MFshow {
   { dup 5 get 3 ge
     { 5 get 3 eq {gsave} {grestore} ifelse }
     {dup dup 0 get findfont exch 1 get scalefont setfont
     [ currentpoint ] exch dup 2 get 0 exch R dup 5 get 2 ne {dup dup 6
     get exch 4 get {textshow} {stringwidth pop 0 R} ifelse }if dup 5 get 0 eq
     {dup 3 get {2 get neg 0 exch R pop} {pop aload pop M} ifelse} {dup 5
     get 1 eq {dup 2 get exch dup 3 get exch 6 get stringwidth pop -2 div
     dup 0 R} {dup 6 get stringwidth pop -2 div 0 R 6 get
     textshow 2 index {aload pop M neg 3 -1 roll neg R pop pop} {pop pop pop
     pop aload pop M} ifelse }ifelse }ifelse }
     ifelse }
   forall} def
/Gswidth {dup type /stringtype eq {stringwidth} {pop (n) stringwidth} ifelse} def
/MFwidth {0 exch { dup 5 get 3 ge { 5 get 3 eq { 0 } { pop } ifelse }
 {dup 3 get{dup dup 0 get findfont exch 1 get scalefont setfont
     6 get Gswidth pop add} {pop} ifelse} ifelse} forall} def
/MLshow { currentpoint stroke M
  0 exch R
  Blacktext {gsave 0 setgray MFshow grestore} {MFshow} ifelse } bind def
/MRshow { currentpoint stroke M
  exch dup MFwidth neg 3 -1 roll R
  Blacktext {gsave 0 setgray MFshow grestore} {MFshow} ifelse } bind def
/MCshow { currentpoint stroke M
  exch dup MFwidth -2 div 3 -1 roll R
  Blacktext {gsave 0 setgray MFshow grestore} {MFshow} ifelse } bind def
/XYsave    { [( ) 1 2 true false 3 ()] } bind def
/XYrestore { [( ) 1 2 true false 4 ()] } bind def
Level1 SuppressPDFMark or 
{} {
/SDict 10 dict def
systemdict /pdfmark known not {
  userdict /pdfmark systemdict /cleartomark get put
} if
SDict begin [
  /Title (packets-uv-s-mult-packets-uv-ccdf-linlin.eps)
  /Subject (gnuplot plot)
  /Creator (gnuplot 5.0 patchlevel 3)
  /Author (tiphaine)
%  /Producer (gnuplot)
%  /Keywords ()
  /CreationDate (Mon May 29 11:14:16 2017)
  /DOCINFO pdfmark
end
} ifelse
%
% Support for boxed text - Ethan A Merritt May 2005
%
/InitTextBox { userdict /TBy2 3 -1 roll put userdict /TBx2 3 -1 roll put
           userdict /TBy1 3 -1 roll put userdict /TBx1 3 -1 roll put
	   /Boxing true def } def
/ExtendTextBox { Boxing
    { gsave dup false charpath pathbbox
      dup TBy2 gt {userdict /TBy2 3 -1 roll put} {pop} ifelse
      dup TBx2 gt {userdict /TBx2 3 -1 roll put} {pop} ifelse
      dup TBy1 lt {userdict /TBy1 3 -1 roll put} {pop} ifelse
      dup TBx1 lt {userdict /TBx1 3 -1 roll put} {pop} ifelse
      grestore } if } def
/PopTextBox { newpath TBx1 TBxmargin sub TBy1 TBymargin sub M
               TBx1 TBxmargin sub TBy2 TBymargin add L
	       TBx2 TBxmargin add TBy2 TBymargin add L
	       TBx2 TBxmargin add TBy1 TBymargin sub L closepath } def
/DrawTextBox { PopTextBox stroke /Boxing false def} def
/FillTextBox { gsave PopTextBox 1 1 1 setrgbcolor fill grestore /Boxing false def} def
0 0 0 0 InitTextBox
/TBxmargin 20 def
/TBymargin 20 def
/Boxing false def
/textshow { ExtendTextBox Gshow } def
%
% redundant definitions for compatibility with prologue.ps older than 5.0.2
/LTB {BL [] LCb DL} def
/LTb {PL [] LCb DL} def
end
%%EndProlog
%%Page: 1 1
gnudict begin
gsave
doclip
50 50 translate
0.100 0.100 scale
90 rotate
0 -5040 translate
0 setgray
newpath
(Helvetica) findfont 140 scalefont setfont
BackgroundColor 0 lt 3 1 roll 0 lt exch 0 lt or or not {gsave BackgroundColor C clippath fill grestore} if
1.000 UL
LTb
LCb setrgbcolor
546 280 M
63 0 V
6338 0 R
-63 0 V
stroke
462 280 M
[ [(Helvetica) 140.0 0.0 true true 0 ( 0)]
] -46.7 MRshow
1.000 UL
LTb
LCb setrgbcolor
546 739 M
63 0 V
6338 0 R
-63 0 V
stroke
462 739 M
[ [(Helvetica) 140.0 0.0 true true 0 ( 0.1)]
] -46.7 MRshow
1.000 UL
LTb
LCb setrgbcolor
546 1198 M
63 0 V
6338 0 R
-63 0 V
stroke
462 1198 M
[ [(Helvetica) 140.0 0.0 true true 0 ( 0.2)]
] -46.7 MRshow
1.000 UL
LTb
LCb setrgbcolor
546 1657 M
63 0 V
6338 0 R
-63 0 V
stroke
462 1657 M
[ [(Helvetica) 140.0 0.0 true true 0 ( 0.3)]
] -46.7 MRshow
1.000 UL
LTb
LCb setrgbcolor
546 2116 M
63 0 V
6338 0 R
-63 0 V
stroke
462 2116 M
[ [(Helvetica) 140.0 0.0 true true 0 ( 0.4)]
] -46.7 MRshow
1.000 UL
LTb
LCb setrgbcolor
546 2576 M
63 0 V
6338 0 R
-63 0 V
stroke
462 2576 M
[ [(Helvetica) 140.0 0.0 true true 0 ( 0.5)]
] -46.7 MRshow
1.000 UL
LTb
LCb setrgbcolor
546 3035 M
63 0 V
6338 0 R
-63 0 V
stroke
462 3035 M
[ [(Helvetica) 140.0 0.0 true true 0 ( 0.6)]
] -46.7 MRshow
1.000 UL
LTb
LCb setrgbcolor
546 3494 M
63 0 V
6338 0 R
-63 0 V
stroke
462 3494 M
[ [(Helvetica) 140.0 0.0 true true 0 ( 0.7)]
] -46.7 MRshow
1.000 UL
LTb
LCb setrgbcolor
546 3953 M
63 0 V
6338 0 R
-63 0 V
stroke
462 3953 M
[ [(Helvetica) 140.0 0.0 true true 0 ( 0.8)]
] -46.7 MRshow
1.000 UL
LTb
LCb setrgbcolor
546 4412 M
63 0 V
6338 0 R
-63 0 V
stroke
462 4412 M
[ [(Helvetica) 140.0 0.0 true true 0 ( 0.9)]
] -46.7 MRshow
1.000 UL
LTb
LCb setrgbcolor
546 4871 M
63 0 V
6338 0 R
-63 0 V
stroke
462 4871 M
[ [(Helvetica) 140.0 0.0 true true 0 ( 1)]
] -46.7 MRshow
1.000 UL
LTb
LCb setrgbcolor
546 280 M
0 63 V
0 4528 R
0 -63 V
stroke
546 140 M
[ [(Helvetica) 140.0 0.0 true true 0 ( 0)]
] -46.7 MCshow
1.000 UL
LTb
LCb setrgbcolor
1613 280 M
0 63 V
0 4528 R
0 -63 V
stroke
1613 140 M
[ [(Helvetica) 140.0 0.0 true true 0 ( 2x10)]
[(Helvetica) 112.0 70.0 true true 0 (12)]
] -60.7 MCshow
1.000 UL
LTb
LCb setrgbcolor
2680 280 M
0 63 V
0 4528 R
0 -63 V
stroke
2680 140 M
[ [(Helvetica) 140.0 0.0 true true 0 ( 4x10)]
[(Helvetica) 112.0 70.0 true true 0 (12)]
] -60.7 MCshow
1.000 UL
LTb
LCb setrgbcolor
3747 280 M
0 63 V
0 4528 R
0 -63 V
stroke
3747 140 M
[ [(Helvetica) 140.0 0.0 true true 0 ( 6x10)]
[(Helvetica) 112.0 70.0 true true 0 (12)]
] -60.7 MCshow
1.000 UL
LTb
LCb setrgbcolor
4813 280 M
0 63 V
0 4528 R
0 -63 V
stroke
4813 140 M
[ [(Helvetica) 140.0 0.0 true true 0 ( 8x10)]
[(Helvetica) 112.0 70.0 true true 0 (12)]
] -60.7 MCshow
1.000 UL
LTb
LCb setrgbcolor
5880 280 M
0 63 V
0 4528 R
0 -63 V
stroke
5880 140 M
[ [(Helvetica) 140.0 0.0 true true 0 ( 1x10)]
[(Helvetica) 112.0 70.0 true true 0 (13)]
] -60.7 MCshow
1.000 UL
LTb
LCb setrgbcolor
6947 280 M
0 63 V
0 4528 R
0 -63 V
stroke
6947 140 M
[ [(Helvetica) 140.0 0.0 true true 0 ( 1.2x10)]
[(Helvetica) 112.0 70.0 true true 0 (13)]
] -60.7 MCshow
1.000 UL
LTb
LCb setrgbcolor
1.000 UL
LTB
LCb setrgbcolor
546 4871 N
546 280 L
6401 0 V
0 4591 V
-6401 0 V
Z stroke
1.000 UP
1.000 UL
LTb
LCb setrgbcolor
% Begin plot #1
1.000 UP
1.000 UL
LTb
0.58 0.00 0.83 C 546 4871 Pls
546 2354 Pls
546 1215 Pls
546 1047 Pls
546 923 Pls
546 851 Pls
546 786 Pls
546 751 Pls
546 708 Pls
546 683 Pls
546 640 Pls
546 619 Pls
546 592 Pls
546 577 Pls
546 559 Pls
546 543 Pls
546 526 Pls
546 515 Pls
546 502 Pls
546 492 Pls
546 479 Pls
546 471 Pls
546 463 Pls
546 457 Pls
546 450 Pls
546 445 Pls
546 440 Pls
546 436 Pls
546 431 Pls
546 428 Pls
546 423 Pls
546 420 Pls
546 417 Pls
546 414 Pls
546 411 Pls
546 408 Pls
546 405 Pls
546 403 Pls
546 401 Pls
546 399 Pls
546 397 Pls
546 395 Pls
546 393 Pls
546 391 Pls
546 390 Pls
546 388 Pls
546 386 Pls
546 384 Pls
546 382 Pls
546 380 Pls
546 378 Pls
546 376 Pls
546 375 Pls
546 374 Pls
546 372 Pls
546 371 Pls
546 370 Pls
546 369 Pls
546 368 Pls
546 367 Pls
546 365 Pls
546 364 Pls
546 363 Pls
546 362 Pls
546 361 Pls
546 360 Pls
546 360 Pls
546 359 Pls
546 358 Pls
546 357 Pls
546 357 Pls
546 356 Pls
546 355 Pls
546 355 Pls
546 354 Pls
546 353 Pls
546 353 Pls
546 352 Pls
546 351 Pls
546 351 Pls
546 350 Pls
546 349 Pls
546 349 Pls
546 348 Pls
546 348 Pls
546 347 Pls
546 347 Pls
546 346 Pls
546 346 Pls
546 346 Pls
546 345 Pls
546 345 Pls
546 344 Pls
546 344 Pls
546 343 Pls
546 343 Pls
546 342 Pls
546 342 Pls
546 341 Pls
546 341 Pls
546 339 Pls
546 339 Pls
546 338 Pls
546 338 Pls
546 338 Pls
546 337 Pls
546 337 Pls
546 337 Pls
546 336 Pls
546 336 Pls
546 336 Pls
546 335 Pls
546 335 Pls
546 335 Pls
546 334 Pls
546 334 Pls
546 334 Pls
546 333 Pls
546 333 Pls
546 333 Pls
546 332 Pls
546 332 Pls
546 331 Pls
546 331 Pls
546 331 Pls
546 331 Pls
546 330 Pls
546 330 Pls
546 330 Pls
546 329 Pls
546 329 Pls
546 329 Pls
546 328 Pls
546 328 Pls
546 328 Pls
546 328 Pls
546 327 Pls
546 327 Pls
546 327 Pls
546 326 Pls
546 326 Pls
546 326 Pls
546 326 Pls
546 325 Pls
546 325 Pls
546 325 Pls
546 325 Pls
546 325 Pls
546 324 Pls
546 324 Pls
546 324 Pls
546 324 Pls
546 324 Pls
546 324 Pls
546 323 Pls
546 323 Pls
546 323 Pls
546 323 Pls
546 323 Pls
546 322 Pls
546 322 Pls
546 322 Pls
546 322 Pls
546 322 Pls
546 322 Pls
546 321 Pls
546 321 Pls
546 321 Pls
546 321 Pls
546 321 Pls
546 321 Pls
546 320 Pls
546 320 Pls
546 320 Pls
546 320 Pls
546 320 Pls
546 320 Pls
546 319 Pls
546 319 Pls
546 319 Pls
546 319 Pls
546 319 Pls
546 318 Pls
546 318 Pls
546 318 Pls
546 318 Pls
546 318 Pls
546 318 Pls
546 318 Pls
546 318 Pls
546 317 Pls
546 317 Pls
546 317 Pls
546 317 Pls
546 317 Pls
546 317 Pls
546 317 Pls
546 317 Pls
546 316 Pls
546 316 Pls
546 316 Pls
546 316 Pls
546 316 Pls
546 316 Pls
546 316 Pls
546 316 Pls
546 315 Pls
546 315 Pls
546 315 Pls
546 315 Pls
546 315 Pls
546 315 Pls
546 315 Pls
546 315 Pls
546 314 Pls
546 314 Pls
546 314 Pls
546 314 Pls
546 314 Pls
546 314 Pls
546 314 Pls
546 314 Pls
546 314 Pls
546 313 Pls
546 313 Pls
546 313 Pls
546 313 Pls
546 313 Pls
546 313 Pls
546 313 Pls
546 313 Pls
546 313 Pls
546 313 Pls
546 313 Pls
546 312 Pls
546 312 Pls
546 312 Pls
546 312 Pls
546 312 Pls
546 312 Pls
546 312 Pls
546 312 Pls
546 312 Pls
546 312 Pls
546 311 Pls
546 311 Pls
546 311 Pls
546 311 Pls
546 311 Pls
546 311 Pls
546 311 Pls
546 311 Pls
546 311 Pls
546 311 Pls
546 311 Pls
546 311 Pls
546 310 Pls
546 310 Pls
546 310 Pls
546 310 Pls
546 310 Pls
546 310 Pls
546 310 Pls
546 310 Pls
546 310 Pls
546 310 Pls
546 310 Pls
546 310 Pls
546 310 Pls
546 310 Pls
546 309 Pls
546 309 Pls
546 309 Pls
546 309 Pls
546 309 Pls
546 309 Pls
546 309 Pls
546 309 Pls
546 309 Pls
546 309 Pls
546 309 Pls
546 309 Pls
546 309 Pls
546 309 Pls
546 308 Pls
546 308 Pls
546 308 Pls
546 308 Pls
546 308 Pls
546 308 Pls
546 308 Pls
546 308 Pls
546 308 Pls
546 308 Pls
546 308 Pls
546 308 Pls
546 308 Pls
546 308 Pls
546 308 Pls
546 307 Pls
546 307 Pls
546 307 Pls
546 307 Pls
546 307 Pls
546 307 Pls
546 307 Pls
546 307 Pls
546 307 Pls
546 307 Pls
546 307 Pls
546 307 Pls
546 307 Pls
546 307 Pls
546 307 Pls
546 307 Pls
546 306 Pls
546 306 Pls
546 306 Pls
546 306 Pls
546 306 Pls
546 306 Pls
546 306 Pls
546 306 Pls
546 306 Pls
546 306 Pls
546 306 Pls
546 306 Pls
546 306 Pls
546 306 Pls
546 306 Pls
546 306 Pls
546 306 Pls
546 306 Pls
546 306 Pls
546 305 Pls
546 305 Pls
546 305 Pls
546 305 Pls
546 305 Pls
546 305 Pls
546 305 Pls
546 305 Pls
546 305 Pls
546 305 Pls
546 305 Pls
546 305 Pls
546 305 Pls
546 305 Pls
546 305 Pls
546 305 Pls
546 305 Pls
546 305 Pls
546 305 Pls
546 305 Pls
546 305 Pls
546 305 Pls
546 304 Pls
546 304 Pls
546 304 Pls
546 304 Pls
546 304 Pls
546 304 Pls
546 304 Pls
546 304 Pls
546 304 Pls
546 304 Pls
546 304 Pls
546 304 Pls
546 304 Pls
546 304 Pls
546 304 Pls
546 304 Pls
546 304 Pls
546 304 Pls
546 304 Pls
546 304 Pls
546 304 Pls
546 304 Pls
546 304 Pls
546 303 Pls
546 303 Pls
546 303 Pls
546 303 Pls
546 303 Pls
546 303 Pls
546 303 Pls
546 303 Pls
546 303 Pls
546 303 Pls
546 303 Pls
546 303 Pls
546 303 Pls
546 303 Pls
546 303 Pls
546 303 Pls
546 303 Pls
546 303 Pls
546 303 Pls
546 303 Pls
546 303 Pls
546 303 Pls
546 303 Pls
546 303 Pls
546 303 Pls
546 303 Pls
546 302 Pls
546 302 Pls
546 302 Pls
546 302 Pls
546 302 Pls
546 302 Pls
546 302 Pls
546 302 Pls
546 302 Pls
546 302 Pls
546 302 Pls
546 302 Pls
546 302 Pls
546 302 Pls
546 302 Pls
546 302 Pls
546 302 Pls
546 302 Pls
546 302 Pls
546 302 Pls
546 302 Pls
546 302 Pls
546 302 Pls
546 302 Pls
546 302 Pls
546 302 Pls
546 302 Pls
546 302 Pls
546 301 Pls
546 301 Pls
546 301 Pls
546 301 Pls
546 301 Pls
546 301 Pls
546 301 Pls
546 301 Pls
546 301 Pls
546 301 Pls
546 301 Pls
546 301 Pls
546 301 Pls
546 301 Pls
546 301 Pls
546 301 Pls
546 301 Pls
546 301 Pls
546 301 Pls
546 301 Pls
546 301 Pls
546 301 Pls
546 301 Pls
546 301 Pls
546 301 Pls
546 301 Pls
546 301 Pls
546 301 Pls
546 301 Pls
546 301 Pls
546 300 Pls
546 300 Pls
546 300 Pls
546 300 Pls
546 300 Pls
546 300 Pls
546 300 Pls
546 300 Pls
546 300 Pls
546 300 Pls
546 300 Pls
546 300 Pls
546 300 Pls
546 300 Pls
546 300 Pls
546 300 Pls
546 300 Pls
546 300 Pls
546 300 Pls
546 300 Pls
546 300 Pls
546 300 Pls
546 300 Pls
546 300 Pls
546 300 Pls
546 300 Pls
546 300 Pls
546 300 Pls
546 300 Pls
546 300 Pls
546 300 Pls
546 300 Pls
546 300 Pls
546 299 Pls
546 299 Pls
546 299 Pls
546 299 Pls
546 299 Pls
546 299 Pls
546 299 Pls
546 299 Pls
546 299 Pls
546 299 Pls
546 299 Pls
546 299 Pls
546 299 Pls
546 299 Pls
546 299 Pls
546 299 Pls
546 299 Pls
546 299 Pls
546 299 Pls
546 299 Pls
546 299 Pls
546 299 Pls
546 299 Pls
546 299 Pls
546 299 Pls
546 299 Pls
546 299 Pls
546 299 Pls
546 299 Pls
546 299 Pls
546 299 Pls
546 299 Pls
546 299 Pls
546 299 Pls
546 299 Pls
546 299 Pls
546 299 Pls
546 299 Pls
546 299 Pls
546 298 Pls
546 298 Pls
546 298 Pls
546 298 Pls
546 298 Pls
546 298 Pls
546 298 Pls
546 298 Pls
546 298 Pls
546 298 Pls
546 298 Pls
546 298 Pls
546 298 Pls
546 298 Pls
546 298 Pls
546 298 Pls
546 298 Pls
546 298 Pls
546 298 Pls
546 298 Pls
546 298 Pls
546 298 Pls
546 298 Pls
546 298 Pls
546 298 Pls
546 298 Pls
546 298 Pls
546 298 Pls
546 298 Pls
546 298 Pls
546 298 Pls
546 298 Pls
546 298 Pls
546 298 Pls
546 298 Pls
546 298 Pls
546 298 Pls
546 298 Pls
546 298 Pls
546 298 Pls
546 298 Pls
546 298 Pls
546 298 Pls
546 298 Pls
546 297 Pls
546 297 Pls
546 297 Pls
546 297 Pls
546 297 Pls
546 297 Pls
546 297 Pls
546 297 Pls
546 297 Pls
546 297 Pls
546 297 Pls
546 297 Pls
546 297 Pls
546 297 Pls
546 297 Pls
546 297 Pls
546 297 Pls
546 297 Pls
546 297 Pls
546 297 Pls
546 297 Pls
546 297 Pls
546 297 Pls
546 297 Pls
546 297 Pls
546 297 Pls
546 297 Pls
546 297 Pls
546 297 Pls
546 297 Pls
546 297 Pls
546 297 Pls
546 297 Pls
546 297 Pls
546 297 Pls
546 297 Pls
546 297 Pls
546 297 Pls
546 297 Pls
546 297 Pls
546 297 Pls
546 297 Pls
546 297 Pls
546 297 Pls
546 297 Pls
546 297 Pls
546 297 Pls
546 297 Pls
546 297 Pls
546 296 Pls
546 296 Pls
546 296 Pls
546 296 Pls
546 296 Pls
546 296 Pls
546 296 Pls
546 296 Pls
546 296 Pls
546 296 Pls
546 296 Pls
546 296 Pls
546 296 Pls
546 296 Pls
546 296 Pls
546 296 Pls
546 296 Pls
546 296 Pls
546 296 Pls
546 296 Pls
546 296 Pls
546 296 Pls
546 296 Pls
546 296 Pls
546 296 Pls
546 296 Pls
546 296 Pls
546 296 Pls
546 296 Pls
546 296 Pls
546 296 Pls
546 295 Pls
546 295 Pls
546 295 Pls
546 295 Pls
546 295 Pls
546 295 Pls
546 295 Pls
546 295 Pls
546 295 Pls
546 295 Pls
546 295 Pls
546 295 Pls
546 295 Pls
546 295 Pls
546 295 Pls
546 295 Pls
546 295 Pls
546 295 Pls
546 295 Pls
546 295 Pls
546 295 Pls
546 295 Pls
546 295 Pls
546 295 Pls
546 295 Pls
546 295 Pls
546 295 Pls
546 295 Pls
546 295 Pls
546 295 Pls
546 295 Pls
546 295 Pls
546 295 Pls
546 295 Pls
546 295 Pls
546 295 Pls
546 294 Pls
546 294 Pls
546 294 Pls
546 294 Pls
546 294 Pls
546 294 Pls
546 294 Pls
546 294 Pls
546 294 Pls
546 294 Pls
546 294 Pls
546 294 Pls
546 294 Pls
546 294 Pls
546 294 Pls
546 294 Pls
546 294 Pls
546 294 Pls
546 294 Pls
546 294 Pls
546 294 Pls
546 294 Pls
546 294 Pls
546 294 Pls
546 294 Pls
546 294 Pls
546 294 Pls
546 294 Pls
546 294 Pls
546 294 Pls
546 294 Pls
546 294 Pls
546 294 Pls
546 294 Pls
546 294 Pls
546 294 Pls
546 294 Pls
546 294 Pls
546 294 Pls
546 294 Pls
546 294 Pls
546 294 Pls
546 294 Pls
546 294 Pls
546 293 Pls
546 293 Pls
546 293 Pls
546 293 Pls
546 293 Pls
546 293 Pls
546 293 Pls
546 293 Pls
546 293 Pls
546 293 Pls
546 293 Pls
546 293 Pls
546 293 Pls
546 293 Pls
546 293 Pls
546 293 Pls
546 293 Pls
546 293 Pls
546 293 Pls
546 293 Pls
546 293 Pls
546 293 Pls
546 293 Pls
546 293 Pls
546 293 Pls
546 293 Pls
546 293 Pls
546 293 Pls
546 293 Pls
546 293 Pls
546 293 Pls
546 293 Pls
546 293 Pls
546 293 Pls
546 293 Pls
546 293 Pls
546 293 Pls
546 293 Pls
546 293 Pls
546 293 Pls
546 293 Pls
546 293 Pls
546 293 Pls
546 293 Pls
546 293 Pls
546 293 Pls
546 293 Pls
546 293 Pls
546 293 Pls
546 293 Pls
546 293 Pls
546 293 Pls
546 293 Pls
546 293 Pls
546 293 Pls
546 293 Pls
546 293 Pls
546 293 Pls
546 293 Pls
546 293 Pls
546 293 Pls
546 292 Pls
546 292 Pls
546 292 Pls
546 292 Pls
546 292 Pls
546 292 Pls
546 292 Pls
546 292 Pls
546 292 Pls
546 292 Pls
546 292 Pls
546 292 Pls
546 292 Pls
546 292 Pls
546 292 Pls
546 292 Pls
546 292 Pls
546 292 Pls
546 292 Pls
546 292 Pls
546 292 Pls
546 292 Pls
546 292 Pls
546 292 Pls
546 292 Pls
546 292 Pls
546 292 Pls
546 292 Pls
546 292 Pls
546 292 Pls
546 292 Pls
546 292 Pls
546 292 Pls
546 292 Pls
546 292 Pls
546 292 Pls
546 292 Pls
546 292 Pls
546 292 Pls
546 292 Pls
546 292 Pls
546 292 Pls
546 292 Pls
546 292 Pls
546 292 Pls
546 292 Pls
546 292 Pls
546 292 Pls
546 292 Pls
546 292 Pls
546 292 Pls
546 292 Pls
546 292 Pls
546 292 Pls
546 292 Pls
546 292 Pls
546 292 Pls
546 292 Pls
546 292 Pls
546 292 Pls
546 292 Pls
546 292 Pls
546 292 Pls
546 292 Pls
546 292 Pls
546 292 Pls
546 292 Pls
546 292 Pls
546 292 Pls
546 292 Pls
546 292 Pls
546 292 Pls
546 292 Pls
546 292 Pls
546 292 Pls
546 292 Pls
546 292 Pls
546 292 Pls
546 292 Pls
546 292 Pls
546 292 Pls
546 292 Pls
546 292 Pls
546 292 Pls
546 292 Pls
546 292 Pls
546 292 Pls
546 292 Pls
546 292 Pls
546 292 Pls
546 292 Pls
546 292 Pls
546 292 Pls
546 291 Pls
546 291 Pls
546 291 Pls
546 291 Pls
546 291 Pls
546 291 Pls
546 291 Pls
546 291 Pls
546 291 Pls
546 291 Pls
546 291 Pls
546 291 Pls
546 291 Pls
546 291 Pls
546 291 Pls
546 291 Pls
546 291 Pls
546 291 Pls
546 291 Pls
546 291 Pls
546 291 Pls
546 291 Pls
546 291 Pls
546 291 Pls
546 291 Pls
546 291 Pls
546 291 Pls
546 291 Pls
546 291 Pls
546 291 Pls
546 291 Pls
546 291 Pls
546 291 Pls
546 291 Pls
546 291 Pls
546 291 Pls
546 291 Pls
546 291 Pls
546 291 Pls
546 291 Pls
546 291 Pls
546 291 Pls
546 291 Pls
546 291 Pls
546 291 Pls
546 291 Pls
546 291 Pls
546 291 Pls
546 291 Pls
546 291 Pls
546 291 Pls
546 291 Pls
546 291 Pls
546 291 Pls
546 291 Pls
546 291 Pls
546 291 Pls
546 291 Pls
546 291 Pls
546 291 Pls
546 291 Pls
546 291 Pls
546 291 Pls
546 291 Pls
546 291 Pls
546 291 Pls
546 291 Pls
546 291 Pls
546 291 Pls
546 291 Pls
546 291 Pls
546 291 Pls
546 291 Pls
546 291 Pls
546 291 Pls
546 291 Pls
546 291 Pls
546 291 Pls
546 291 Pls
546 291 Pls
546 291 Pls
546 291 Pls
546 291 Pls
546 291 Pls
546 291 Pls
546 291 Pls
546 291 Pls
546 291 Pls
546 291 Pls
546 291 Pls
546 291 Pls
546 291 Pls
546 291 Pls
546 291 Pls
546 291 Pls
546 291 Pls
546 291 Pls
546 291 Pls
546 291 Pls
546 291 Pls
546 291 Pls
546 291 Pls
546 291 Pls
546 291 Pls
546 291 Pls
546 291 Pls
546 291 Pls
546 291 Pls
546 291 Pls
546 291 Pls
546 291 Pls
546 291 Pls
546 291 Pls
546 291 Pls
546 291 Pls
546 290 Pls
546 290 Pls
546 290 Pls
546 290 Pls
546 290 Pls
546 290 Pls
546 290 Pls
546 290 Pls
546 290 Pls
546 290 Pls
546 290 Pls
546 290 Pls
546 290 Pls
546 290 Pls
546 290 Pls
546 290 Pls
546 290 Pls
546 290 Pls
546 290 Pls
546 290 Pls
546 290 Pls
546 290 Pls
546 290 Pls
546 290 Pls
546 290 Pls
546 290 Pls
546 290 Pls
546 290 Pls
546 290 Pls
546 290 Pls
546 290 Pls
546 290 Pls
546 290 Pls
546 290 Pls
546 290 Pls
546 290 Pls
546 290 Pls
546 290 Pls
546 290 Pls
546 290 Pls
546 290 Pls
546 290 Pls
546 290 Pls
546 290 Pls
546 290 Pls
546 290 Pls
546 290 Pls
546 290 Pls
546 290 Pls
546 290 Pls
546 290 Pls
546 290 Pls
546 290 Pls
546 290 Pls
546 290 Pls
546 290 Pls
546 290 Pls
546 290 Pls
546 290 Pls
546 290 Pls
546 290 Pls
546 290 Pls
546 290 Pls
546 290 Pls
546 290 Pls
546 290 Pls
546 290 Pls
546 290 Pls
546 290 Pls
546 290 Pls
546 290 Pls
546 290 Pls
546 290 Pls
546 290 Pls
546 290 Pls
546 290 Pls
546 290 Pls
546 290 Pls
546 290 Pls
546 290 Pls
546 290 Pls
546 290 Pls
546 290 Pls
546 290 Pls
546 290 Pls
546 290 Pls
546 290 Pls
546 290 Pls
546 290 Pls
546 290 Pls
546 290 Pls
546 290 Pls
546 290 Pls
546 290 Pls
546 290 Pls
546 290 Pls
546 290 Pls
546 290 Pls
546 290 Pls
546 290 Pls
546 290 Pls
546 290 Pls
546 290 Pls
546 290 Pls
546 290 Pls
546 290 Pls
546 290 Pls
546 290 Pls
546 290 Pls
546 290 Pls
546 290 Pls
546 290 Pls
546 290 Pls
546 290 Pls
546 290 Pls
546 290 Pls
546 290 Pls
546 290 Pls
546 290 Pls
546 290 Pls
546 290 Pls
546 290 Pls
546 290 Pls
546 290 Pls
546 290 Pls
546 290 Pls
546 290 Pls
546 290 Pls
546 290 Pls
546 290 Pls
546 290 Pls
546 290 Pls
546 290 Pls
546 290 Pls
546 290 Pls
546 290 Pls
546 290 Pls
546 290 Pls
546 290 Pls
546 290 Pls
546 290 Pls
546 290 Pls
546 290 Pls
546 290 Pls
546 290 Pls
546 289 Pls
546 289 Pls
546 289 Pls
546 289 Pls
546 289 Pls
546 289 Pls
546 289 Pls
546 289 Pls
546 289 Pls
546 289 Pls
546 289 Pls
546 289 Pls
546 289 Pls
546 289 Pls
546 289 Pls
546 289 Pls
546 289 Pls
546 289 Pls
546 289 Pls
546 289 Pls
546 289 Pls
546 289 Pls
546 289 Pls
546 289 Pls
546 289 Pls
546 289 Pls
546 289 Pls
546 289 Pls
546 289 Pls
546 289 Pls
546 289 Pls
546 289 Pls
546 289 Pls
546 289 Pls
546 289 Pls
546 289 Pls
546 289 Pls
546 289 Pls
546 289 Pls
546 289 Pls
546 289 Pls
546 289 Pls
546 289 Pls
546 289 Pls
546 289 Pls
546 289 Pls
546 289 Pls
546 289 Pls
546 289 Pls
546 289 Pls
546 289 Pls
546 289 Pls
546 289 Pls
546 289 Pls
546 289 Pls
546 289 Pls
546 289 Pls
546 289 Pls
546 289 Pls
546 289 Pls
546 289 Pls
546 289 Pls
546 289 Pls
546 289 Pls
546 289 Pls
546 289 Pls
546 289 Pls
546 289 Pls
546 289 Pls
546 289 Pls
546 289 Pls
546 289 Pls
546 289 Pls
546 289 Pls
546 289 Pls
546 289 Pls
546 289 Pls
546 289 Pls
546 289 Pls
546 289 Pls
546 289 Pls
546 289 Pls
546 289 Pls
546 289 Pls
546 289 Pls
546 289 Pls
546 289 Pls
546 289 Pls
546 289 Pls
546 289 Pls
546 289 Pls
546 289 Pls
546 289 Pls
546 289 Pls
546 289 Pls
546 289 Pls
546 289 Pls
546 289 Pls
546 289 Pls
546 289 Pls
546 289 Pls
546 289 Pls
546 289 Pls
546 289 Pls
546 289 Pls
546 289 Pls
546 289 Pls
546 289 Pls
546 289 Pls
546 289 Pls
546 289 Pls
546 289 Pls
546 289 Pls
546 289 Pls
546 289 Pls
546 289 Pls
546 289 Pls
546 289 Pls
546 289 Pls
546 289 Pls
546 289 Pls
546 289 Pls
546 289 Pls
546 289 Pls
546 289 Pls
546 289 Pls
546 289 Pls
546 289 Pls
546 289 Pls
546 289 Pls
546 289 Pls
546 289 Pls
546 289 Pls
546 289 Pls
546 289 Pls
546 289 Pls
546 289 Pls
546 289 Pls
546 289 Pls
546 289 Pls
546 289 Pls
546 289 Pls
546 289 Pls
546 289 Pls
546 289 Pls
546 289 Pls
546 289 Pls
546 289 Pls
546 289 Pls
546 289 Pls
546 289 Pls
546 289 Pls
546 289 Pls
546 289 Pls
546 289 Pls
546 289 Pls
546 289 Pls
546 289 Pls
546 289 Pls
546 289 Pls
546 289 Pls
546 289 Pls
546 289 Pls
546 289 Pls
546 289 Pls
546 289 Pls
546 289 Pls
546 289 Pls
546 289 Pls
546 289 Pls
546 289 Pls
546 289 Pls
546 289 Pls
546 289 Pls
546 289 Pls
546 289 Pls
546 289 Pls
546 289 Pls
546 289 Pls
546 289 Pls
546 289 Pls
546 289 Pls
546 289 Pls
546 289 Pls
546 289 Pls
546 289 Pls
546 289 Pls
546 288 Pls
546 288 Pls
546 288 Pls
546 288 Pls
546 288 Pls
546 288 Pls
546 288 Pls
546 288 Pls
546 288 Pls
546 288 Pls
546 288 Pls
546 288 Pls
546 288 Pls
546 288 Pls
546 288 Pls
546 288 Pls
546 288 Pls
546 288 Pls
546 288 Pls
546 288 Pls
546 288 Pls
546 288 Pls
546 288 Pls
546 288 Pls
546 288 Pls
546 288 Pls
546 288 Pls
546 288 Pls
546 288 Pls
546 288 Pls
546 288 Pls
546 288 Pls
546 288 Pls
546 288 Pls
546 288 Pls
546 288 Pls
546 288 Pls
546 288 Pls
546 288 Pls
546 288 Pls
546 288 Pls
546 288 Pls
546 288 Pls
546 288 Pls
546 288 Pls
546 288 Pls
546 288 Pls
546 288 Pls
546 288 Pls
546 288 Pls
546 288 Pls
546 288 Pls
546 288 Pls
546 288 Pls
546 288 Pls
546 288 Pls
546 288 Pls
546 288 Pls
546 288 Pls
546 288 Pls
546 288 Pls
546 288 Pls
546 288 Pls
546 288 Pls
546 288 Pls
546 288 Pls
546 288 Pls
546 288 Pls
546 288 Pls
546 288 Pls
546 288 Pls
546 288 Pls
546 288 Pls
546 288 Pls
546 288 Pls
546 288 Pls
546 288 Pls
546 288 Pls
546 288 Pls
546 288 Pls
546 288 Pls
546 288 Pls
546 288 Pls
546 288 Pls
546 288 Pls
546 288 Pls
546 288 Pls
546 288 Pls
546 288 Pls
546 288 Pls
546 288 Pls
546 288 Pls
546 288 Pls
546 288 Pls
546 288 Pls
546 288 Pls
546 288 Pls
546 288 Pls
546 288 Pls
546 288 Pls
546 288 Pls
546 288 Pls
546 288 Pls
546 288 Pls
546 288 Pls
546 288 Pls
546 288 Pls
546 288 Pls
546 288 Pls
546 288 Pls
546 288 Pls
546 288 Pls
546 288 Pls
546 288 Pls
546 288 Pls
546 288 Pls
546 288 Pls
546 288 Pls
546 288 Pls
546 288 Pls
546 288 Pls
546 288 Pls
546 288 Pls
546 288 Pls
546 288 Pls
546 288 Pls
546 288 Pls
546 288 Pls
546 288 Pls
546 288 Pls
546 288 Pls
546 288 Pls
546 288 Pls
546 288 Pls
546 288 Pls
546 288 Pls
546 288 Pls
546 288 Pls
546 288 Pls
546 288 Pls
546 288 Pls
546 288 Pls
546 288 Pls
546 288 Pls
546 288 Pls
546 288 Pls
546 288 Pls
546 288 Pls
546 288 Pls
546 288 Pls
546 288 Pls
546 288 Pls
546 288 Pls
546 288 Pls
546 288 Pls
546 288 Pls
546 288 Pls
546 288 Pls
546 288 Pls
546 288 Pls
546 288 Pls
546 288 Pls
546 288 Pls
546 288 Pls
546 288 Pls
546 288 Pls
546 288 Pls
546 288 Pls
546 288 Pls
546 288 Pls
546 288 Pls
546 288 Pls
546 288 Pls
546 288 Pls
546 288 Pls
546 288 Pls
546 288 Pls
546 288 Pls
546 288 Pls
546 288 Pls
546 288 Pls
546 288 Pls
546 288 Pls
546 288 Pls
546 288 Pls
546 288 Pls
546 288 Pls
546 288 Pls
546 288 Pls
546 288 Pls
546 288 Pls
546 288 Pls
546 288 Pls
546 288 Pls
546 288 Pls
546 288 Pls
546 288 Pls
546 288 Pls
546 288 Pls
546 288 Pls
546 288 Pls
546 288 Pls
546 288 Pls
546 288 Pls
546 288 Pls
546 288 Pls
546 288 Pls
546 288 Pls
546 288 Pls
546 288 Pls
546 288 Pls
546 288 Pls
546 288 Pls
546 288 Pls
546 287 Pls
546 287 Pls
546 287 Pls
546 287 Pls
546 287 Pls
546 287 Pls
546 287 Pls
546 287 Pls
546 287 Pls
546 287 Pls
546 287 Pls
546 287 Pls
546 287 Pls
546 287 Pls
546 287 Pls
546 287 Pls
546 287 Pls
546 287 Pls
546 287 Pls
546 287 Pls
546 287 Pls
546 287 Pls
546 287 Pls
546 287 Pls
546 287 Pls
546 287 Pls
546 287 Pls
546 287 Pls
546 287 Pls
546 287 Pls
546 287 Pls
546 287 Pls
546 287 Pls
546 287 Pls
546 287 Pls
546 287 Pls
546 287 Pls
546 287 Pls
546 287 Pls
546 287 Pls
546 287 Pls
546 287 Pls
546 287 Pls
546 287 Pls
546 287 Pls
546 287 Pls
546 287 Pls
546 287 Pls
546 287 Pls
546 287 Pls
546 287 Pls
546 287 Pls
546 287 Pls
546 287 Pls
546 287 Pls
546 287 Pls
546 287 Pls
546 287 Pls
546 287 Pls
546 287 Pls
546 287 Pls
546 287 Pls
546 287 Pls
546 287 Pls
546 287 Pls
546 287 Pls
546 287 Pls
546 287 Pls
546 287 Pls
546 287 Pls
546 287 Pls
546 287 Pls
546 287 Pls
546 287 Pls
546 287 Pls
546 287 Pls
546 287 Pls
546 287 Pls
546 287 Pls
546 287 Pls
546 287 Pls
546 287 Pls
546 287 Pls
546 287 Pls
546 287 Pls
546 287 Pls
546 287 Pls
546 287 Pls
546 287 Pls
546 287 Pls
546 287 Pls
546 287 Pls
546 287 Pls
546 287 Pls
546 287 Pls
546 287 Pls
546 287 Pls
546 287 Pls
546 287 Pls
546 287 Pls
546 287 Pls
546 287 Pls
546 287 Pls
546 287 Pls
546 287 Pls
546 287 Pls
546 287 Pls
546 287 Pls
546 287 Pls
546 287 Pls
546 287 Pls
546 287 Pls
546 287 Pls
546 287 Pls
546 287 Pls
546 287 Pls
546 287 Pls
546 287 Pls
546 287 Pls
546 287 Pls
546 287 Pls
546 287 Pls
546 287 Pls
546 287 Pls
546 287 Pls
546 287 Pls
546 287 Pls
546 287 Pls
546 287 Pls
546 287 Pls
546 287 Pls
546 287 Pls
546 287 Pls
546 287 Pls
546 287 Pls
546 287 Pls
546 287 Pls
546 287 Pls
546 287 Pls
546 287 Pls
546 287 Pls
546 287 Pls
546 287 Pls
546 287 Pls
546 287 Pls
546 287 Pls
546 287 Pls
546 287 Pls
546 287 Pls
546 287 Pls
546 287 Pls
546 287 Pls
546 287 Pls
546 287 Pls
546 287 Pls
546 287 Pls
546 287 Pls
546 287 Pls
546 287 Pls
546 287 Pls
546 287 Pls
546 287 Pls
546 287 Pls
546 287 Pls
546 287 Pls
546 287 Pls
546 287 Pls
546 287 Pls
546 287 Pls
546 287 Pls
546 287 Pls
546 287 Pls
546 287 Pls
546 287 Pls
546 287 Pls
546 287 Pls
546 287 Pls
546 287 Pls
546 287 Pls
546 287 Pls
546 287 Pls
546 287 Pls
546 287 Pls
546 287 Pls
546 287 Pls
546 287 Pls
546 287 Pls
546 287 Pls
546 287 Pls
546 287 Pls
546 287 Pls
546 287 Pls
546 287 Pls
546 287 Pls
546 287 Pls
546 287 Pls
546 287 Pls
546 287 Pls
546 287 Pls
546 287 Pls
546 287 Pls
546 287 Pls
546 287 Pls
546 287 Pls
546 287 Pls
546 287 Pls
546 287 Pls
546 287 Pls
546 287 Pls
546 287 Pls
546 287 Pls
546 287 Pls
546 287 Pls
546 287 Pls
546 287 Pls
546 287 Pls
546 287 Pls
546 287 Pls
546 287 Pls
546 287 Pls
546 287 Pls
546 287 Pls
546 287 Pls
546 287 Pls
546 287 Pls
546 287 Pls
546 287 Pls
546 287 Pls
546 287 Pls
546 287 Pls
546 287 Pls
546 287 Pls
546 287 Pls
546 287 Pls
546 287 Pls
546 287 Pls
546 287 Pls
546 287 Pls
546 287 Pls
546 287 Pls
546 287 Pls
546 287 Pls
546 287 Pls
546 287 Pls
546 287 Pls
546 287 Pls
546 287 Pls
546 287 Pls
546 287 Pls
546 287 Pls
546 287 Pls
546 287 Pls
546 287 Pls
546 287 Pls
546 287 Pls
546 287 Pls
546 287 Pls
546 287 Pls
546 287 Pls
546 287 Pls
546 287 Pls
546 287 Pls
546 287 Pls
546 287 Pls
546 287 Pls
546 287 Pls
546 287 Pls
546 287 Pls
546 287 Pls
546 287 Pls
546 287 Pls
546 287 Pls
546 287 Pls
546 287 Pls
546 287 Pls
546 287 Pls
546 287 Pls
546 287 Pls
546 287 Pls
546 286 Pls
546 286 Pls
546 286 Pls
546 286 Pls
546 286 Pls
546 286 Pls
546 286 Pls
546 286 Pls
546 286 Pls
546 286 Pls
546 286 Pls
546 286 Pls
546 286 Pls
546 286 Pls
546 286 Pls
546 286 Pls
546 286 Pls
546 286 Pls
546 286 Pls
546 286 Pls
546 286 Pls
546 286 Pls
546 286 Pls
546 286 Pls
546 286 Pls
546 286 Pls
546 286 Pls
546 286 Pls
546 286 Pls
546 286 Pls
546 286 Pls
546 286 Pls
546 286 Pls
546 286 Pls
546 286 Pls
546 286 Pls
546 286 Pls
546 286 Pls
546 286 Pls
546 286 Pls
546 286 Pls
546 286 Pls
546 286 Pls
546 286 Pls
546 286 Pls
546 286 Pls
546 286 Pls
546 286 Pls
546 286 Pls
546 286 Pls
546 286 Pls
546 286 Pls
546 286 Pls
546 286 Pls
546 286 Pls
546 286 Pls
546 286 Pls
546 286 Pls
546 286 Pls
546 286 Pls
546 286 Pls
546 286 Pls
546 286 Pls
546 286 Pls
546 286 Pls
546 286 Pls
546 286 Pls
546 286 Pls
546 286 Pls
546 286 Pls
546 286 Pls
546 286 Pls
546 286 Pls
546 286 Pls
546 286 Pls
546 286 Pls
546 286 Pls
546 286 Pls
546 286 Pls
546 286 Pls
546 286 Pls
546 286 Pls
546 286 Pls
546 286 Pls
546 286 Pls
546 286 Pls
546 286 Pls
546 286 Pls
546 286 Pls
546 286 Pls
546 286 Pls
546 286 Pls
546 286 Pls
546 286 Pls
546 286 Pls
546 286 Pls
546 286 Pls
546 286 Pls
546 286 Pls
546 286 Pls
546 286 Pls
546 286 Pls
546 286 Pls
546 286 Pls
546 286 Pls
546 286 Pls
546 286 Pls
546 286 Pls
546 286 Pls
546 286 Pls
546 286 Pls
546 286 Pls
546 286 Pls
546 286 Pls
546 286 Pls
546 286 Pls
546 286 Pls
546 286 Pls
546 286 Pls
546 286 Pls
546 286 Pls
546 286 Pls
546 286 Pls
546 286 Pls
546 286 Pls
546 286 Pls
546 286 Pls
546 286 Pls
546 286 Pls
546 286 Pls
546 286 Pls
546 286 Pls
546 286 Pls
546 286 Pls
546 286 Pls
546 286 Pls
546 286 Pls
546 286 Pls
546 286 Pls
546 286 Pls
546 286 Pls
546 286 Pls
546 286 Pls
546 286 Pls
546 286 Pls
546 286 Pls
546 286 Pls
546 286 Pls
546 286 Pls
546 286 Pls
546 286 Pls
546 286 Pls
546 286 Pls
546 286 Pls
546 286 Pls
546 286 Pls
546 286 Pls
546 286 Pls
546 286 Pls
546 286 Pls
546 286 Pls
546 286 Pls
546 286 Pls
546 286 Pls
546 286 Pls
546 286 Pls
546 286 Pls
546 286 Pls
546 286 Pls
546 286 Pls
546 286 Pls
546 286 Pls
546 286 Pls
546 286 Pls
546 286 Pls
546 286 Pls
546 286 Pls
546 286 Pls
546 286 Pls
546 286 Pls
546 286 Pls
546 286 Pls
546 286 Pls
546 286 Pls
546 286 Pls
546 286 Pls
546 286 Pls
546 286 Pls
546 286 Pls
546 286 Pls
546 286 Pls
546 286 Pls
546 286 Pls
546 286 Pls
546 286 Pls
546 286 Pls
546 286 Pls
546 286 Pls
546 286 Pls
546 286 Pls
546 286 Pls
546 286 Pls
546 286 Pls
546 286 Pls
546 286 Pls
546 286 Pls
546 286 Pls
546 286 Pls
546 286 Pls
546 286 Pls
546 286 Pls
546 286 Pls
546 286 Pls
546 286 Pls
546 286 Pls
546 286 Pls
546 286 Pls
546 286 Pls
546 286 Pls
546 286 Pls
546 286 Pls
546 286 Pls
546 286 Pls
546 286 Pls
546 286 Pls
546 286 Pls
546 286 Pls
546 286 Pls
546 286 Pls
546 286 Pls
546 286 Pls
546 286 Pls
546 286 Pls
546 286 Pls
546 286 Pls
546 286 Pls
546 286 Pls
546 286 Pls
546 286 Pls
546 286 Pls
546 286 Pls
546 286 Pls
546 286 Pls
546 286 Pls
546 286 Pls
546 286 Pls
546 286 Pls
546 286 Pls
546 286 Pls
546 286 Pls
546 286 Pls
546 286 Pls
546 286 Pls
546 286 Pls
546 286 Pls
546 286 Pls
546 286 Pls
546 286 Pls
546 286 Pls
546 286 Pls
546 286 Pls
546 286 Pls
546 286 Pls
546 286 Pls
546 286 Pls
546 286 Pls
546 286 Pls
546 286 Pls
546 286 Pls
546 286 Pls
546 286 Pls
546 286 Pls
546 286 Pls
546 286 Pls
546 286 Pls
546 286 Pls
546 286 Pls
546 286 Pls
546 286 Pls
546 286 Pls
546 286 Pls
546 286 Pls
546 286 Pls
546 286 Pls
546 286 Pls
546 286 Pls
546 286 Pls
546 286 Pls
546 286 Pls
546 286 Pls
546 286 Pls
546 286 Pls
546 286 Pls
546 286 Pls
546 286 Pls
546 286 Pls
546 286 Pls
546 286 Pls
546 286 Pls
546 286 Pls
546 286 Pls
546 286 Pls
546 286 Pls
546 286 Pls
546 286 Pls
546 286 Pls
546 286 Pls
546 286 Pls
546 286 Pls
546 286 Pls
546 286 Pls
546 286 Pls
546 286 Pls
546 286 Pls
546 286 Pls
546 286 Pls
546 286 Pls
546 286 Pls
546 286 Pls
546 286 Pls
546 286 Pls
546 286 Pls
546 286 Pls
546 286 Pls
546 286 Pls
546 286 Pls
546 286 Pls
546 286 Pls
546 286 Pls
546 286 Pls
546 286 Pls
546 286 Pls
546 286 Pls
546 286 Pls
546 286 Pls
546 286 Pls
546 286 Pls
546 286 Pls
546 285 Pls
546 285 Pls
546 285 Pls
546 285 Pls
546 285 Pls
546 285 Pls
546 285 Pls
546 285 Pls
546 285 Pls
546 285 Pls
546 285 Pls
546 285 Pls
546 285 Pls
546 285 Pls
546 285 Pls
546 285 Pls
546 285 Pls
546 285 Pls
546 285 Pls
546 285 Pls
546 285 Pls
546 285 Pls
546 285 Pls
546 285 Pls
546 285 Pls
546 285 Pls
546 285 Pls
546 285 Pls
546 285 Pls
546 285 Pls
546 285 Pls
546 285 Pls
546 285 Pls
546 285 Pls
546 285 Pls
546 285 Pls
546 285 Pls
546 285 Pls
546 285 Pls
546 285 Pls
546 285 Pls
546 285 Pls
546 285 Pls
546 285 Pls
546 285 Pls
546 285 Pls
546 285 Pls
546 285 Pls
546 285 Pls
546 285 Pls
546 285 Pls
546 285 Pls
546 285 Pls
546 285 Pls
546 285 Pls
546 285 Pls
546 285 Pls
546 285 Pls
546 285 Pls
546 285 Pls
546 285 Pls
546 285 Pls
546 285 Pls
546 285 Pls
546 285 Pls
546 285 Pls
546 285 Pls
546 285 Pls
546 285 Pls
546 285 Pls
546 285 Pls
546 285 Pls
546 285 Pls
546 285 Pls
546 285 Pls
546 285 Pls
546 285 Pls
546 285 Pls
546 285 Pls
546 285 Pls
546 285 Pls
546 285 Pls
546 285 Pls
546 285 Pls
546 285 Pls
546 285 Pls
546 285 Pls
546 285 Pls
546 285 Pls
546 285 Pls
546 285 Pls
546 285 Pls
546 285 Pls
546 285 Pls
546 285 Pls
546 285 Pls
546 285 Pls
546 285 Pls
546 285 Pls
546 285 Pls
546 285 Pls
546 285 Pls
546 285 Pls
546 285 Pls
546 285 Pls
546 285 Pls
546 285 Pls
546 285 Pls
546 285 Pls
546 285 Pls
546 285 Pls
546 285 Pls
546 285 Pls
546 285 Pls
546 285 Pls
546 285 Pls
546 285 Pls
546 285 Pls
546 285 Pls
546 285 Pls
546 285 Pls
546 285 Pls
546 285 Pls
546 285 Pls
546 285 Pls
546 285 Pls
546 285 Pls
546 285 Pls
546 285 Pls
546 285 Pls
546 285 Pls
546 285 Pls
546 285 Pls
546 285 Pls
546 285 Pls
546 285 Pls
546 285 Pls
546 285 Pls
546 285 Pls
546 285 Pls
546 285 Pls
546 285 Pls
546 285 Pls
546 285 Pls
546 285 Pls
546 285 Pls
546 285 Pls
546 285 Pls
546 285 Pls
546 285 Pls
546 285 Pls
546 285 Pls
546 285 Pls
546 285 Pls
546 285 Pls
546 285 Pls
546 285 Pls
546 285 Pls
546 285 Pls
546 285 Pls
546 285 Pls
546 285 Pls
546 285 Pls
546 285 Pls
546 285 Pls
546 285 Pls
546 285 Pls
546 285 Pls
546 285 Pls
546 285 Pls
546 285 Pls
546 285 Pls
546 285 Pls
546 285 Pls
546 285 Pls
546 285 Pls
546 285 Pls
546 285 Pls
546 285 Pls
546 285 Pls
546 285 Pls
546 285 Pls
546 285 Pls
546 285 Pls
546 285 Pls
546 285 Pls
546 285 Pls
546 285 Pls
546 285 Pls
546 285 Pls
546 285 Pls
546 285 Pls
546 285 Pls
546 285 Pls
546 285 Pls
546 285 Pls
546 285 Pls
546 285 Pls
546 285 Pls
546 285 Pls
546 285 Pls
546 285 Pls
546 285 Pls
546 285 Pls
546 285 Pls
546 285 Pls
546 285 Pls
546 285 Pls
546 285 Pls
546 285 Pls
546 285 Pls
546 285 Pls
546 285 Pls
546 285 Pls
546 285 Pls
546 285 Pls
546 285 Pls
546 285 Pls
546 285 Pls
546 285 Pls
546 285 Pls
546 285 Pls
546 285 Pls
546 285 Pls
546 285 Pls
546 285 Pls
546 285 Pls
546 285 Pls
546 285 Pls
546 285 Pls
546 285 Pls
546 285 Pls
546 285 Pls
546 285 Pls
546 285 Pls
546 285 Pls
546 285 Pls
546 285 Pls
546 285 Pls
546 285 Pls
546 285 Pls
546 285 Pls
546 285 Pls
546 285 Pls
546 285 Pls
546 285 Pls
546 285 Pls
546 285 Pls
546 285 Pls
546 285 Pls
546 285 Pls
546 285 Pls
546 285 Pls
546 285 Pls
546 285 Pls
546 285 Pls
546 285 Pls
546 285 Pls
546 285 Pls
546 285 Pls
546 285 Pls
546 285 Pls
546 285 Pls
546 285 Pls
546 285 Pls
546 285 Pls
546 285 Pls
546 285 Pls
546 285 Pls
546 285 Pls
546 285 Pls
546 285 Pls
546 285 Pls
546 285 Pls
546 285 Pls
546 285 Pls
546 285 Pls
546 285 Pls
546 285 Pls
546 285 Pls
546 285 Pls
546 285 Pls
546 285 Pls
546 285 Pls
546 285 Pls
546 285 Pls
546 285 Pls
546 285 Pls
546 285 Pls
546 285 Pls
546 285 Pls
546 285 Pls
546 285 Pls
546 285 Pls
546 285 Pls
546 285 Pls
546 285 Pls
546 285 Pls
546 285 Pls
546 285 Pls
546 285 Pls
546 285 Pls
546 285 Pls
546 285 Pls
546 285 Pls
546 285 Pls
546 285 Pls
546 285 Pls
546 285 Pls
546 285 Pls
546 285 Pls
546 285 Pls
546 285 Pls
546 285 Pls
546 285 Pls
546 285 Pls
546 285 Pls
546 285 Pls
546 285 Pls
546 285 Pls
546 285 Pls
546 285 Pls
546 285 Pls
546 284 Pls
546 284 Pls
546 284 Pls
546 284 Pls
546 284 Pls
546 284 Pls
546 284 Pls
546 284 Pls
546 284 Pls
546 284 Pls
546 284 Pls
546 284 Pls
546 284 Pls
546 284 Pls
546 284 Pls
546 284 Pls
546 284 Pls
546 284 Pls
546 284 Pls
546 284 Pls
546 284 Pls
546 284 Pls
546 284 Pls
546 284 Pls
546 284 Pls
546 284 Pls
546 284 Pls
546 284 Pls
546 284 Pls
546 284 Pls
546 284 Pls
546 284 Pls
546 284 Pls
546 284 Pls
546 284 Pls
546 284 Pls
546 284 Pls
546 284 Pls
546 284 Pls
546 284 Pls
546 284 Pls
546 284 Pls
546 284 Pls
546 284 Pls
546 284 Pls
546 284 Pls
546 284 Pls
546 284 Pls
546 284 Pls
546 284 Pls
546 284 Pls
546 284 Pls
546 284 Pls
546 284 Pls
546 284 Pls
546 284 Pls
546 284 Pls
546 284 Pls
546 284 Pls
546 284 Pls
546 284 Pls
546 284 Pls
546 284 Pls
546 284 Pls
546 284 Pls
546 284 Pls
546 284 Pls
546 284 Pls
546 284 Pls
546 284 Pls
546 284 Pls
546 284 Pls
546 284 Pls
546 284 Pls
546 284 Pls
546 284 Pls
546 284 Pls
546 284 Pls
546 284 Pls
546 284 Pls
546 284 Pls
546 284 Pls
546 284 Pls
546 284 Pls
546 284 Pls
546 284 Pls
546 284 Pls
546 284 Pls
546 284 Pls
546 284 Pls
546 284 Pls
546 284 Pls
546 284 Pls
546 284 Pls
546 284 Pls
546 284 Pls
546 284 Pls
546 284 Pls
546 284 Pls
546 284 Pls
546 284 Pls
546 284 Pls
546 284 Pls
546 284 Pls
546 284 Pls
546 284 Pls
546 284 Pls
546 284 Pls
546 284 Pls
546 284 Pls
546 284 Pls
546 284 Pls
546 284 Pls
546 284 Pls
546 284 Pls
546 284 Pls
546 284 Pls
546 284 Pls
546 284 Pls
546 284 Pls
546 284 Pls
546 284 Pls
546 284 Pls
546 284 Pls
546 284 Pls
546 284 Pls
546 284 Pls
546 284 Pls
546 284 Pls
546 284 Pls
546 284 Pls
546 284 Pls
546 284 Pls
546 284 Pls
546 284 Pls
546 284 Pls
546 284 Pls
546 284 Pls
546 284 Pls
546 284 Pls
546 284 Pls
546 284 Pls
546 284 Pls
546 284 Pls
546 284 Pls
546 284 Pls
546 284 Pls
546 284 Pls
546 284 Pls
546 284 Pls
546 284 Pls
546 284 Pls
546 284 Pls
546 284 Pls
546 284 Pls
546 284 Pls
546 284 Pls
546 284 Pls
546 284 Pls
546 284 Pls
546 284 Pls
546 284 Pls
546 284 Pls
546 284 Pls
546 284 Pls
546 284 Pls
546 284 Pls
546 284 Pls
546 284 Pls
546 284 Pls
546 284 Pls
546 284 Pls
546 284 Pls
546 284 Pls
546 284 Pls
546 284 Pls
546 284 Pls
546 284 Pls
546 284 Pls
546 284 Pls
546 284 Pls
546 284 Pls
546 284 Pls
546 284 Pls
546 284 Pls
546 284 Pls
546 284 Pls
546 284 Pls
546 284 Pls
546 284 Pls
546 284 Pls
546 284 Pls
546 284 Pls
546 284 Pls
546 284 Pls
546 284 Pls
546 284 Pls
546 284 Pls
546 284 Pls
546 284 Pls
546 284 Pls
546 284 Pls
546 284 Pls
546 284 Pls
546 284 Pls
546 284 Pls
546 284 Pls
546 284 Pls
546 284 Pls
546 284 Pls
546 284 Pls
546 284 Pls
546 284 Pls
546 284 Pls
546 284 Pls
546 284 Pls
546 284 Pls
546 284 Pls
546 284 Pls
546 284 Pls
546 284 Pls
546 284 Pls
546 284 Pls
546 284 Pls
546 284 Pls
546 284 Pls
546 284 Pls
546 284 Pls
546 284 Pls
546 284 Pls
546 284 Pls
546 284 Pls
546 284 Pls
546 284 Pls
546 284 Pls
546 284 Pls
546 284 Pls
546 284 Pls
546 284 Pls
546 284 Pls
546 284 Pls
546 284 Pls
546 284 Pls
546 284 Pls
546 284 Pls
546 284 Pls
546 284 Pls
546 284 Pls
546 284 Pls
546 284 Pls
546 284 Pls
546 284 Pls
546 284 Pls
546 284 Pls
546 284 Pls
546 284 Pls
546 284 Pls
546 284 Pls
546 284 Pls
546 284 Pls
546 284 Pls
546 284 Pls
546 284 Pls
546 284 Pls
546 284 Pls
546 284 Pls
546 284 Pls
546 284 Pls
546 284 Pls
546 284 Pls
546 284 Pls
546 284 Pls
546 284 Pls
546 284 Pls
546 284 Pls
546 284 Pls
546 284 Pls
546 284 Pls
546 284 Pls
546 284 Pls
546 284 Pls
546 284 Pls
546 284 Pls
546 284 Pls
546 284 Pls
546 284 Pls
546 284 Pls
546 284 Pls
546 284 Pls
546 284 Pls
546 284 Pls
546 284 Pls
546 284 Pls
546 284 Pls
546 284 Pls
546 284 Pls
546 284 Pls
546 284 Pls
546 284 Pls
546 284 Pls
546 284 Pls
546 284 Pls
546 284 Pls
546 284 Pls
546 284 Pls
546 284 Pls
546 284 Pls
546 284 Pls
546 284 Pls
546 284 Pls
546 284 Pls
546 284 Pls
546 284 Pls
546 284 Pls
546 284 Pls
546 284 Pls
546 284 Pls
546 284 Pls
546 284 Pls
546 284 Pls
546 284 Pls
546 284 Pls
546 284 Pls
546 284 Pls
546 284 Pls
546 284 Pls
546 284 Pls
546 284 Pls
546 284 Pls
546 284 Pls
546 284 Pls
546 284 Pls
546 284 Pls
546 284 Pls
546 284 Pls
546 284 Pls
546 284 Pls
546 284 Pls
546 284 Pls
546 284 Pls
546 284 Pls
546 284 Pls
546 284 Pls
546 284 Pls
546 284 Pls
546 284 Pls
546 284 Pls
546 284 Pls
546 284 Pls
546 284 Pls
546 284 Pls
546 284 Pls
546 284 Pls
546 284 Pls
546 284 Pls
546 284 Pls
546 284 Pls
546 284 Pls
546 284 Pls
546 284 Pls
546 284 Pls
546 284 Pls
546 284 Pls
546 284 Pls
546 284 Pls
546 284 Pls
546 284 Pls
546 284 Pls
546 284 Pls
546 284 Pls
546 284 Pls
546 284 Pls
546 284 Pls
546 284 Pls
546 284 Pls
546 284 Pls
546 284 Pls
546 284 Pls
546 284 Pls
546 284 Pls
546 284 Pls
546 284 Pls
546 284 Pls
546 284 Pls
546 284 Pls
546 284 Pls
546 284 Pls
546 284 Pls
546 284 Pls
546 284 Pls
546 284 Pls
546 284 Pls
546 284 Pls
546 284 Pls
546 284 Pls
546 284 Pls
546 284 Pls
546 284 Pls
546 284 Pls
546 284 Pls
546 284 Pls
546 283 Pls
546 283 Pls
546 283 Pls
546 283 Pls
546 283 Pls
546 283 Pls
546 283 Pls
546 283 Pls
546 283 Pls
546 283 Pls
546 283 Pls
546 283 Pls
546 283 Pls
546 283 Pls
546 283 Pls
546 283 Pls
546 283 Pls
546 283 Pls
546 283 Pls
546 283 Pls
546 283 Pls
546 283 Pls
546 283 Pls
546 283 Pls
546 283 Pls
546 283 Pls
546 283 Pls
546 283 Pls
546 283 Pls
546 283 Pls
546 283 Pls
546 283 Pls
546 283 Pls
546 283 Pls
546 283 Pls
546 283 Pls
546 283 Pls
546 283 Pls
546 283 Pls
546 283 Pls
546 283 Pls
546 283 Pls
546 283 Pls
546 283 Pls
546 283 Pls
546 283 Pls
546 283 Pls
546 283 Pls
546 283 Pls
546 283 Pls
546 283 Pls
546 283 Pls
546 283 Pls
546 283 Pls
546 283 Pls
546 283 Pls
546 283 Pls
546 283 Pls
546 283 Pls
546 283 Pls
546 283 Pls
546 283 Pls
546 283 Pls
546 283 Pls
546 283 Pls
546 283 Pls
546 283 Pls
546 283 Pls
546 283 Pls
546 283 Pls
546 283 Pls
546 283 Pls
546 283 Pls
546 283 Pls
546 283 Pls
546 283 Pls
546 283 Pls
546 283 Pls
546 283 Pls
546 283 Pls
546 283 Pls
546 283 Pls
546 283 Pls
546 283 Pls
546 283 Pls
546 283 Pls
546 283 Pls
546 283 Pls
546 283 Pls
546 283 Pls
546 283 Pls
546 283 Pls
546 283 Pls
546 283 Pls
546 283 Pls
546 283 Pls
546 283 Pls
546 283 Pls
546 283 Pls
546 283 Pls
546 283 Pls
546 283 Pls
546 283 Pls
546 283 Pls
546 283 Pls
546 283 Pls
546 283 Pls
546 283 Pls
546 283 Pls
546 283 Pls
546 283 Pls
546 283 Pls
546 283 Pls
546 283 Pls
546 283 Pls
546 283 Pls
546 283 Pls
546 283 Pls
546 283 Pls
546 283 Pls
546 283 Pls
546 283 Pls
546 283 Pls
546 283 Pls
546 283 Pls
546 283 Pls
546 283 Pls
546 283 Pls
546 283 Pls
546 283 Pls
546 283 Pls
546 283 Pls
546 283 Pls
546 283 Pls
546 283 Pls
546 283 Pls
546 283 Pls
546 283 Pls
546 283 Pls
546 283 Pls
546 283 Pls
546 283 Pls
546 283 Pls
546 283 Pls
546 283 Pls
546 283 Pls
546 283 Pls
546 283 Pls
546 283 Pls
546 283 Pls
546 283 Pls
546 283 Pls
546 283 Pls
546 283 Pls
546 283 Pls
546 283 Pls
546 283 Pls
546 283 Pls
546 283 Pls
546 283 Pls
546 283 Pls
546 283 Pls
546 283 Pls
546 283 Pls
546 283 Pls
546 283 Pls
546 283 Pls
546 283 Pls
546 283 Pls
546 283 Pls
546 283 Pls
546 283 Pls
546 283 Pls
546 283 Pls
546 283 Pls
546 283 Pls
546 283 Pls
546 283 Pls
546 283 Pls
546 283 Pls
546 283 Pls
546 283 Pls
546 283 Pls
546 283 Pls
546 283 Pls
546 283 Pls
546 283 Pls
546 283 Pls
546 283 Pls
546 283 Pls
546 283 Pls
546 283 Pls
546 283 Pls
546 283 Pls
546 283 Pls
546 283 Pls
546 283 Pls
546 283 Pls
546 283 Pls
546 283 Pls
546 283 Pls
546 283 Pls
546 283 Pls
546 283 Pls
546 283 Pls
546 283 Pls
546 283 Pls
546 283 Pls
546 283 Pls
546 283 Pls
546 283 Pls
546 283 Pls
546 283 Pls
546 283 Pls
546 283 Pls
546 283 Pls
546 283 Pls
546 283 Pls
546 283 Pls
546 283 Pls
546 283 Pls
546 283 Pls
546 283 Pls
546 283 Pls
546 283 Pls
546 283 Pls
546 283 Pls
546 283 Pls
546 283 Pls
546 283 Pls
546 283 Pls
546 283 Pls
546 283 Pls
546 283 Pls
546 283 Pls
546 283 Pls
546 283 Pls
546 283 Pls
546 283 Pls
546 283 Pls
546 283 Pls
546 283 Pls
546 283 Pls
546 283 Pls
546 283 Pls
546 283 Pls
546 283 Pls
546 283 Pls
546 283 Pls
546 283 Pls
546 283 Pls
546 283 Pls
546 283 Pls
546 283 Pls
546 283 Pls
546 283 Pls
546 283 Pls
546 283 Pls
546 283 Pls
546 283 Pls
546 283 Pls
546 283 Pls
546 283 Pls
546 283 Pls
546 283 Pls
546 283 Pls
546 283 Pls
546 283 Pls
546 283 Pls
546 283 Pls
546 283 Pls
546 283 Pls
546 283 Pls
546 283 Pls
546 283 Pls
546 283 Pls
546 283 Pls
546 283 Pls
546 283 Pls
546 283 Pls
546 283 Pls
546 283 Pls
546 283 Pls
546 283 Pls
546 283 Pls
546 283 Pls
546 283 Pls
546 283 Pls
546 283 Pls
546 283 Pls
546 283 Pls
546 283 Pls
546 283 Pls
546 283 Pls
546 283 Pls
546 283 Pls
546 283 Pls
546 283 Pls
546 283 Pls
546 283 Pls
546 283 Pls
546 283 Pls
546 283 Pls
546 283 Pls
546 283 Pls
546 283 Pls
546 283 Pls
546 283 Pls
546 283 Pls
546 283 Pls
546 283 Pls
546 283 Pls
546 283 Pls
546 283 Pls
546 283 Pls
546 283 Pls
546 283 Pls
546 283 Pls
546 283 Pls
546 283 Pls
546 283 Pls
546 283 Pls
546 283 Pls
546 283 Pls
546 283 Pls
546 283 Pls
546 283 Pls
546 283 Pls
546 283 Pls
546 283 Pls
546 283 Pls
546 283 Pls
546 283 Pls
546 283 Pls
546 283 Pls
546 283 Pls
546 283 Pls
546 283 Pls
546 283 Pls
546 283 Pls
546 283 Pls
546 283 Pls
546 283 Pls
546 283 Pls
546 283 Pls
546 283 Pls
546 283 Pls
546 283 Pls
546 283 Pls
546 283 Pls
546 283 Pls
546 283 Pls
546 283 Pls
546 283 Pls
546 283 Pls
546 283 Pls
546 283 Pls
546 283 Pls
546 283 Pls
546 283 Pls
546 283 Pls
546 283 Pls
546 283 Pls
546 283 Pls
546 283 Pls
546 283 Pls
546 283 Pls
546 283 Pls
546 283 Pls
546 283 Pls
546 283 Pls
546 283 Pls
546 283 Pls
546 283 Pls
546 283 Pls
546 283 Pls
546 283 Pls
546 283 Pls
546 283 Pls
546 283 Pls
546 283 Pls
546 283 Pls
546 283 Pls
546 283 Pls
546 283 Pls
546 283 Pls
546 283 Pls
546 283 Pls
546 283 Pls
546 283 Pls
546 283 Pls
546 283 Pls
546 283 Pls
546 283 Pls
546 283 Pls
546 283 Pls
546 283 Pls
546 283 Pls
546 283 Pls
546 283 Pls
546 283 Pls
546 283 Pls
546 283 Pls
546 283 Pls
546 283 Pls
546 283 Pls
546 283 Pls
546 283 Pls
546 283 Pls
546 283 Pls
546 283 Pls
546 283 Pls
546 283 Pls
546 283 Pls
546 283 Pls
546 283 Pls
546 283 Pls
546 283 Pls
546 283 Pls
546 283 Pls
546 283 Pls
546 283 Pls
546 283 Pls
546 283 Pls
546 283 Pls
546 283 Pls
546 283 Pls
546 283 Pls
546 283 Pls
546 283 Pls
546 283 Pls
546 283 Pls
546 283 Pls
546 282 Pls
546 282 Pls
546 282 Pls
546 282 Pls
546 282 Pls
546 282 Pls
546 282 Pls
546 282 Pls
546 282 Pls
546 282 Pls
546 282 Pls
546 282 Pls
546 282 Pls
546 282 Pls
546 282 Pls
546 282 Pls
546 282 Pls
546 282 Pls
546 282 Pls
546 282 Pls
546 282 Pls
546 282 Pls
546 282 Pls
546 282 Pls
546 282 Pls
546 282 Pls
546 282 Pls
546 282 Pls
546 282 Pls
546 282 Pls
546 282 Pls
546 282 Pls
546 282 Pls
546 282 Pls
546 282 Pls
546 282 Pls
546 282 Pls
546 282 Pls
546 282 Pls
546 282 Pls
546 282 Pls
546 282 Pls
546 282 Pls
546 282 Pls
546 282 Pls
546 282 Pls
546 282 Pls
546 282 Pls
546 282 Pls
546 282 Pls
546 282 Pls
546 282 Pls
546 282 Pls
546 282 Pls
546 282 Pls
546 282 Pls
546 282 Pls
546 282 Pls
546 282 Pls
546 282 Pls
546 282 Pls
546 282 Pls
546 282 Pls
546 282 Pls
546 282 Pls
546 282 Pls
546 282 Pls
546 282 Pls
546 282 Pls
546 282 Pls
546 282 Pls
546 282 Pls
546 282 Pls
546 282 Pls
546 282 Pls
546 282 Pls
546 282 Pls
546 282 Pls
546 282 Pls
546 282 Pls
546 282 Pls
546 282 Pls
546 282 Pls
546 282 Pls
546 282 Pls
546 282 Pls
546 282 Pls
546 282 Pls
546 282 Pls
546 282 Pls
546 282 Pls
546 282 Pls
546 282 Pls
546 282 Pls
546 282 Pls
546 282 Pls
546 282 Pls
546 282 Pls
546 282 Pls
546 282 Pls
546 282 Pls
546 282 Pls
546 282 Pls
546 282 Pls
546 282 Pls
546 282 Pls
546 282 Pls
546 282 Pls
546 282 Pls
546 282 Pls
546 282 Pls
546 282 Pls
546 282 Pls
546 282 Pls
546 282 Pls
546 282 Pls
546 282 Pls
546 282 Pls
546 282 Pls
546 282 Pls
546 282 Pls
546 282 Pls
546 282 Pls
546 282 Pls
546 282 Pls
546 282 Pls
546 282 Pls
546 282 Pls
546 282 Pls
546 282 Pls
546 282 Pls
546 282 Pls
546 282 Pls
546 282 Pls
546 282 Pls
546 282 Pls
546 282 Pls
546 282 Pls
546 282 Pls
546 282 Pls
546 282 Pls
546 282 Pls
546 282 Pls
546 282 Pls
546 282 Pls
546 282 Pls
546 282 Pls
546 282 Pls
546 282 Pls
546 282 Pls
546 282 Pls
546 282 Pls
546 282 Pls
546 282 Pls
546 282 Pls
546 282 Pls
546 282 Pls
546 282 Pls
546 282 Pls
546 282 Pls
546 282 Pls
546 282 Pls
546 282 Pls
546 282 Pls
546 282 Pls
546 282 Pls
546 282 Pls
546 282 Pls
546 282 Pls
546 282 Pls
546 282 Pls
546 282 Pls
546 282 Pls
546 282 Pls
546 282 Pls
546 282 Pls
546 282 Pls
546 282 Pls
546 282 Pls
546 282 Pls
546 282 Pls
546 282 Pls
546 282 Pls
546 282 Pls
546 282 Pls
546 282 Pls
546 282 Pls
546 282 Pls
546 282 Pls
546 282 Pls
546 282 Pls
546 282 Pls
546 282 Pls
546 282 Pls
546 282 Pls
546 282 Pls
546 282 Pls
546 282 Pls
546 282 Pls
546 282 Pls
546 282 Pls
546 282 Pls
546 282 Pls
546 282 Pls
546 282 Pls
546 282 Pls
546 282 Pls
546 282 Pls
546 282 Pls
546 282 Pls
546 282 Pls
546 282 Pls
546 282 Pls
546 282 Pls
546 282 Pls
546 282 Pls
546 282 Pls
546 282 Pls
546 282 Pls
546 282 Pls
546 282 Pls
546 282 Pls
546 282 Pls
546 282 Pls
546 282 Pls
546 282 Pls
546 282 Pls
546 282 Pls
546 282 Pls
546 282 Pls
546 282 Pls
546 282 Pls
546 282 Pls
546 282 Pls
546 282 Pls
546 282 Pls
546 282 Pls
546 282 Pls
546 282 Pls
546 282 Pls
546 282 Pls
546 282 Pls
546 282 Pls
546 282 Pls
546 282 Pls
546 282 Pls
546 282 Pls
546 282 Pls
546 282 Pls
546 282 Pls
546 282 Pls
546 282 Pls
546 282 Pls
546 282 Pls
546 282 Pls
546 282 Pls
546 282 Pls
546 282 Pls
546 282 Pls
546 282 Pls
546 282 Pls
546 282 Pls
546 282 Pls
546 282 Pls
546 282 Pls
546 282 Pls
546 282 Pls
546 282 Pls
546 282 Pls
546 282 Pls
546 282 Pls
546 282 Pls
546 282 Pls
546 282 Pls
546 282 Pls
546 282 Pls
546 282 Pls
546 282 Pls
546 282 Pls
546 282 Pls
546 282 Pls
546 282 Pls
546 282 Pls
546 282 Pls
546 282 Pls
546 282 Pls
546 282 Pls
546 282 Pls
546 282 Pls
546 282 Pls
546 282 Pls
546 282 Pls
546 282 Pls
546 282 Pls
546 282 Pls
546 282 Pls
546 282 Pls
546 282 Pls
546 282 Pls
546 282 Pls
546 282 Pls
546 282 Pls
546 282 Pls
546 282 Pls
546 282 Pls
546 282 Pls
546 282 Pls
546 282 Pls
546 282 Pls
546 282 Pls
546 282 Pls
546 282 Pls
546 282 Pls
546 282 Pls
546 282 Pls
546 282 Pls
546 282 Pls
546 282 Pls
546 282 Pls
546 282 Pls
546 282 Pls
546 282 Pls
546 282 Pls
546 282 Pls
546 282 Pls
546 282 Pls
546 282 Pls
546 282 Pls
546 282 Pls
546 282 Pls
546 282 Pls
546 282 Pls
546 282 Pls
546 282 Pls
546 282 Pls
546 282 Pls
546 282 Pls
546 282 Pls
546 282 Pls
546 282 Pls
546 282 Pls
546 282 Pls
546 282 Pls
546 282 Pls
546 282 Pls
546 282 Pls
546 282 Pls
546 282 Pls
546 282 Pls
546 282 Pls
546 282 Pls
546 282 Pls
546 282 Pls
546 282 Pls
546 282 Pls
546 282 Pls
546 282 Pls
546 282 Pls
546 282 Pls
546 282 Pls
546 282 Pls
546 282 Pls
546 282 Pls
546 282 Pls
546 282 Pls
546 282 Pls
546 282 Pls
546 282 Pls
546 282 Pls
546 282 Pls
546 282 Pls
546 282 Pls
546 282 Pls
546 282 Pls
546 282 Pls
546 282 Pls
546 282 Pls
546 282 Pls
546 282 Pls
546 282 Pls
546 282 Pls
546 282 Pls
546 282 Pls
546 282 Pls
546 282 Pls
546 282 Pls
546 282 Pls
546 282 Pls
546 282 Pls
546 282 Pls
546 282 Pls
546 282 Pls
546 282 Pls
546 282 Pls
546 282 Pls
546 282 Pls
546 282 Pls
546 282 Pls
546 282 Pls
546 282 Pls
546 282 Pls
546 282 Pls
546 282 Pls
546 282 Pls
546 282 Pls
546 282 Pls
546 282 Pls
546 282 Pls
546 282 Pls
546 282 Pls
546 282 Pls
546 282 Pls
546 282 Pls
546 282 Pls
546 282 Pls
546 282 Pls
546 282 Pls
546 282 Pls
546 282 Pls
546 282 Pls
546 282 Pls
546 282 Pls
546 282 Pls
546 282 Pls
546 282 Pls
546 282 Pls
546 282 Pls
546 282 Pls
546 282 Pls
546 282 Pls
546 282 Pls
546 282 Pls
546 282 Pls
546 282 Pls
546 282 Pls
546 282 Pls
546 282 Pls
546 282 Pls
546 282 Pls
546 282 Pls
546 282 Pls
546 282 Pls
546 282 Pls
546 282 Pls
546 282 Pls
546 282 Pls
546 282 Pls
546 282 Pls
546 282 Pls
546 282 Pls
546 282 Pls
546 282 Pls
546 282 Pls
546 281 Pls
546 281 Pls
546 281 Pls
546 281 Pls
546 281 Pls
546 281 Pls
546 281 Pls
546 281 Pls
546 281 Pls
546 281 Pls
546 281 Pls
546 281 Pls
546 281 Pls
546 281 Pls
546 281 Pls
546 281 Pls
546 281 Pls
546 281 Pls
546 281 Pls
546 281 Pls
546 281 Pls
546 281 Pls
546 281 Pls
546 281 Pls
546 281 Pls
546 281 Pls
546 281 Pls
546 281 Pls
546 281 Pls
546 281 Pls
546 281 Pls
546 281 Pls
546 281 Pls
546 281 Pls
546 281 Pls
546 281 Pls
546 281 Pls
546 281 Pls
546 281 Pls
546 281 Pls
546 281 Pls
546 281 Pls
546 281 Pls
546 281 Pls
546 281 Pls
546 281 Pls
546 281 Pls
546 281 Pls
546 281 Pls
546 281 Pls
546 281 Pls
546 281 Pls
546 281 Pls
546 281 Pls
546 281 Pls
546 281 Pls
546 281 Pls
546 281 Pls
546 281 Pls
546 281 Pls
546 281 Pls
546 281 Pls
546 281 Pls
546 281 Pls
546 281 Pls
546 281 Pls
546 281 Pls
546 281 Pls
546 281 Pls
546 281 Pls
546 281 Pls
546 281 Pls
546 281 Pls
546 281 Pls
546 281 Pls
546 281 Pls
546 281 Pls
546 281 Pls
546 281 Pls
546 281 Pls
546 281 Pls
546 281 Pls
546 281 Pls
546 281 Pls
546 281 Pls
546 281 Pls
546 281 Pls
546 281 Pls
546 281 Pls
546 281 Pls
546 281 Pls
546 281 Pls
546 281 Pls
546 281 Pls
546 281 Pls
546 281 Pls
546 281 Pls
546 281 Pls
546 281 Pls
546 281 Pls
546 281 Pls
546 281 Pls
546 281 Pls
546 281 Pls
546 281 Pls
546 281 Pls
546 281 Pls
546 281 Pls
546 281 Pls
546 281 Pls
546 281 Pls
546 281 Pls
546 281 Pls
546 281 Pls
546 281 Pls
546 281 Pls
546 281 Pls
546 281 Pls
546 281 Pls
546 281 Pls
546 281 Pls
546 281 Pls
546 281 Pls
546 281 Pls
546 281 Pls
546 281 Pls
546 281 Pls
546 281 Pls
546 281 Pls
546 281 Pls
546 281 Pls
546 281 Pls
546 281 Pls
546 281 Pls
546 281 Pls
546 281 Pls
546 281 Pls
546 281 Pls
546 281 Pls
546 281 Pls
546 281 Pls
546 281 Pls
546 281 Pls
546 281 Pls
546 281 Pls
546 281 Pls
546 281 Pls
546 281 Pls
546 281 Pls
546 281 Pls
546 281 Pls
546 281 Pls
546 281 Pls
546 281 Pls
546 281 Pls
546 281 Pls
546 281 Pls
546 281 Pls
546 281 Pls
546 281 Pls
546 281 Pls
546 281 Pls
546 281 Pls
546 281 Pls
546 281 Pls
546 281 Pls
546 281 Pls
546 281 Pls
546 281 Pls
546 281 Pls
546 281 Pls
546 281 Pls
546 281 Pls
546 281 Pls
546 281 Pls
546 281 Pls
546 281 Pls
546 281 Pls
546 281 Pls
546 281 Pls
546 281 Pls
546 281 Pls
546 281 Pls
546 281 Pls
546 281 Pls
546 281 Pls
546 281 Pls
546 281 Pls
546 281 Pls
546 281 Pls
546 281 Pls
546 281 Pls
546 281 Pls
546 281 Pls
546 281 Pls
546 281 Pls
546 281 Pls
546 281 Pls
546 281 Pls
546 281 Pls
546 281 Pls
546 281 Pls
546 281 Pls
546 281 Pls
546 281 Pls
546 281 Pls
546 281 Pls
546 281 Pls
546 281 Pls
546 281 Pls
546 281 Pls
546 281 Pls
546 281 Pls
546 281 Pls
546 281 Pls
546 281 Pls
546 281 Pls
546 281 Pls
546 281 Pls
546 281 Pls
546 281 Pls
546 281 Pls
546 281 Pls
546 281 Pls
546 281 Pls
546 281 Pls
546 281 Pls
546 281 Pls
546 281 Pls
546 281 Pls
546 281 Pls
546 281 Pls
546 281 Pls
546 281 Pls
546 281 Pls
546 281 Pls
546 281 Pls
546 281 Pls
546 281 Pls
546 281 Pls
546 281 Pls
546 281 Pls
546 281 Pls
546 281 Pls
546 281 Pls
546 281 Pls
546 281 Pls
546 281 Pls
546 281 Pls
546 281 Pls
546 281 Pls
546 281 Pls
546 281 Pls
546 281 Pls
546 281 Pls
546 281 Pls
546 281 Pls
546 281 Pls
546 281 Pls
546 281 Pls
546 281 Pls
546 281 Pls
546 281 Pls
546 281 Pls
546 281 Pls
546 281 Pls
546 281 Pls
546 281 Pls
546 281 Pls
546 281 Pls
546 281 Pls
546 281 Pls
546 281 Pls
546 281 Pls
546 281 Pls
546 281 Pls
546 281 Pls
546 281 Pls
546 281 Pls
546 281 Pls
546 281 Pls
546 281 Pls
546 281 Pls
546 281 Pls
546 281 Pls
546 281 Pls
546 281 Pls
546 281 Pls
546 281 Pls
546 281 Pls
546 281 Pls
546 281 Pls
546 281 Pls
546 281 Pls
546 281 Pls
546 281 Pls
546 281 Pls
546 281 Pls
546 281 Pls
546 281 Pls
546 281 Pls
546 281 Pls
546 281 Pls
546 281 Pls
546 281 Pls
546 281 Pls
546 281 Pls
546 281 Pls
546 281 Pls
546 281 Pls
546 281 Pls
546 281 Pls
546 281 Pls
546 281 Pls
546 281 Pls
546 281 Pls
546 281 Pls
546 281 Pls
546 281 Pls
546 281 Pls
546 281 Pls
546 281 Pls
546 281 Pls
546 281 Pls
546 281 Pls
546 281 Pls
546 281 Pls
546 281 Pls
546 281 Pls
546 281 Pls
546 281 Pls
546 281 Pls
546 281 Pls
546 281 Pls
546 281 Pls
546 281 Pls
546 281 Pls
546 281 Pls
547 281 Pls
547 281 Pls
547 281 Pls
547 281 Pls
547 281 Pls
547 281 Pls
547 281 Pls
547 281 Pls
547 281 Pls
547 281 Pls
547 281 Pls
547 281 Pls
547 281 Pls
547 281 Pls
547 281 Pls
547 281 Pls
547 281 Pls
547 281 Pls
547 281 Pls
547 281 Pls
547 281 Pls
547 281 Pls
547 281 Pls
547 281 Pls
547 281 Pls
547 281 Pls
547 281 Pls
547 281 Pls
547 281 Pls
547 281 Pls
547 281 Pls
547 281 Pls
547 281 Pls
547 281 Pls
547 281 Pls
547 281 Pls
547 281 Pls
547 281 Pls
547 281 Pls
547 281 Pls
547 281 Pls
547 281 Pls
547 281 Pls
547 281 Pls
547 281 Pls
547 281 Pls
547 281 Pls
547 281 Pls
547 281 Pls
547 281 Pls
547 281 Pls
547 281 Pls
547 281 Pls
547 281 Pls
547 281 Pls
547 281 Pls
547 281 Pls
547 281 Pls
547 281 Pls
547 281 Pls
547 281 Pls
547 281 Pls
547 281 Pls
547 281 Pls
547 281 Pls
547 281 Pls
547 281 Pls
547 281 Pls
547 281 Pls
547 281 Pls
547 281 Pls
547 281 Pls
547 281 Pls
547 281 Pls
547 281 Pls
547 281 Pls
547 281 Pls
547 281 Pls
547 281 Pls
547 281 Pls
547 281 Pls
547 281 Pls
547 281 Pls
547 281 Pls
547 281 Pls
547 281 Pls
547 281 Pls
547 281 Pls
547 281 Pls
547 281 Pls
547 281 Pls
547 281 Pls
547 281 Pls
547 281 Pls
547 281 Pls
547 281 Pls
547 281 Pls
547 281 Pls
547 281 Pls
547 281 Pls
547 281 Pls
547 281 Pls
547 281 Pls
547 281 Pls
547 281 Pls
547 281 Pls
547 281 Pls
547 281 Pls
547 281 Pls
547 281 Pls
547 281 Pls
547 281 Pls
547 281 Pls
547 281 Pls
547 281 Pls
547 280 Pls
547 280 Pls
547 280 Pls
547 280 Pls
547 280 Pls
547 280 Pls
547 280 Pls
547 280 Pls
547 280 Pls
547 280 Pls
547 280 Pls
547 280 Pls
547 280 Pls
547 280 Pls
547 280 Pls
547 280 Pls
547 280 Pls
547 280 Pls
547 280 Pls
547 280 Pls
547 280 Pls
547 280 Pls
547 280 Pls
547 280 Pls
547 280 Pls
547 280 Pls
547 280 Pls
547 280 Pls
547 280 Pls
547 280 Pls
547 280 Pls
548 280 Pls
548 280 Pls
548 280 Pls
548 280 Pls
548 280 Pls
548 280 Pls
548 280 Pls
548 280 Pls
548 280 Pls
548 280 Pls
548 280 Pls
548 280 Pls
548 280 Pls
548 280 Pls
548 280 Pls
548 280 Pls
548 280 Pls
548 280 Pls
548 280 Pls
548 280 Pls
548 280 Pls
548 280 Pls
548 280 Pls
548 280 Pls
548 280 Pls
548 280 Pls
548 280 Pls
548 280 Pls
548 280 Pls
548 280 Pls
548 280 Pls
548 280 Pls
548 280 Pls
548 280 Pls
548 280 Pls
548 280 Pls
548 280 Pls
548 280 Pls
548 280 Pls
548 280 Pls
548 280 Pls
548 280 Pls
548 280 Pls
548 280 Pls
548 280 Pls
548 280 Pls
548 280 Pls
548 280 Pls
549 280 Pls
549 280 Pls
549 280 Pls
549 280 Pls
549 280 Pls
549 280 Pls
549 280 Pls
549 280 Pls
549 280 Pls
549 280 Pls
549 280 Pls
549 280 Pls
549 280 Pls
549 280 Pls
549 280 Pls
549 280 Pls
549 280 Pls
549 280 Pls
549 280 Pls
549 280 Pls
549 280 Pls
550 280 Pls
550 280 Pls
550 280 Pls
550 280 Pls
550 280 Pls
550 280 Pls
550 280 Pls
550 280 Pls
550 280 Pls
550 280 Pls
550 280 Pls
550 280 Pls
550 280 Pls
550 280 Pls
550 280 Pls
550 280 Pls
550 280 Pls
550 280 Pls
550 280 Pls
550 280 Pls
550 280 Pls
550 280 Pls
551 280 Pls
551 280 Pls
551 280 Pls
551 280 Pls
551 280 Pls
551 280 Pls
551 280 Pls
551 280 Pls
551 280 Pls
552 280 Pls
552 280 Pls
552 280 Pls
552 280 Pls
552 280 Pls
552 280 Pls
552 280 Pls
553 280 Pls
553 280 Pls
553 280 Pls
553 280 Pls
553 280 Pls
553 280 Pls
553 280 Pls
553 280 Pls
553 280 Pls
553 280 Pls
554 280 Pls
554 280 Pls
554 280 Pls
554 280 Pls
554 280 Pls
554 280 Pls
555 280 Pls
555 280 Pls
555 280 Pls
555 280 Pls
555 280 Pls
555 280 Pls
555 280 Pls
555 280 Pls
555 280 Pls
555 280 Pls
555 280 Pls
556 280 Pls
556 280 Pls
557 280 Pls
557 280 Pls
557 280 Pls
557 280 Pls
558 280 Pls
559 280 Pls
560 280 Pls
562 280 Pls
562 280 Pls
562 280 Pls
562 280 Pls
562 280 Pls
564 280 Pls
564 280 Pls
565 280 Pls
565 280 Pls
565 280 Pls
565 280 Pls
566 280 Pls
567 280 Pls
567 280 Pls
569 280 Pls
569 280 Pls
570 280 Pls
571 280 Pls
572 280 Pls
572 280 Pls
572 280 Pls
573 280 Pls
574 280 Pls
575 280 Pls
577 280 Pls
577 280 Pls
578 280 Pls
581 280 Pls
582 280 Pls
582 280 Pls
582 280 Pls
583 280 Pls
584 280 Pls
587 280 Pls
615 280 Pls
620 280 Pls
621 280 Pls
632 280 Pls
646 280 Pls
664 280 Pls
666 280 Pls
695 280 Pls
785 280 Pls
801 280 Pls
834 280 Pls
870 280 Pls
897 280 Pls
912 280 Pls
1035 280 Pls
1037 280 Pls
1063 280 Pls
1312 280 Pls
1449 280 Pls
1788 280 Pls
1945 280 Pls
3443 280 Pls
5997 280 Pls
% End plot #1
2.000 UL
LTb
LCb setrgbcolor
1.000 UL
LTB
LCb setrgbcolor
546 4871 N
546 280 L
6401 0 V
0 4591 V
-6401 0 V
Z stroke
1.000 UP
1.000 UL
LTb
LCb setrgbcolor
stroke
grestore
end
showpage
%%Trailer
%%DocumentFonts: Helvetica
%%Pages: 1
