%!PS-Adobe-2.0
%%Title: packets-ip-s-dist-linlin.eps
%%Creator: gnuplot 5.0 patchlevel 3
%%CreationDate: Mon May 29 11:10:18 2017
%%DocumentFonts: (atend)
%%BoundingBox: 50 50 554 770
%%Orientation: Landscape
%%Pages: (atend)
%%EndComments
%%BeginProlog
/gnudict 256 dict def
gnudict begin
%
% The following true/false flags may be edited by hand if desired.
% The unit line width and grayscale image gamma correction may also be changed.
%
/Color true def
/Blacktext false def
/Solid false def
/Dashlength 1 def
/Landscape true def
/Level1 false def
/Level3 false def
/Rounded false def
/ClipToBoundingBox false def
/SuppressPDFMark false def
/TransparentPatterns false def
/gnulinewidth 5.000 def
/userlinewidth gnulinewidth def
/Gamma 1.0 def
/BackgroundColor {-1.000 -1.000 -1.000} def
%
/vshift -46 def
/dl1 {
  10.0 Dashlength userlinewidth gnulinewidth div mul mul mul
  Rounded { currentlinewidth 0.75 mul sub dup 0 le { pop 0.01 } if } if
} def
/dl2 {
  10.0 Dashlength userlinewidth gnulinewidth div mul mul mul
  Rounded { currentlinewidth 0.75 mul add } if
} def
/hpt_ 31.5 def
/vpt_ 31.5 def
/hpt hpt_ def
/vpt vpt_ def
/doclip {
  ClipToBoundingBox {
    newpath 50 50 moveto 554 50 lineto 554 770 lineto 50 770 lineto closepath
    clip
  } if
} def
%
% Gnuplot Prolog Version 5.1 (Oct 2015)
%
%/SuppressPDFMark true def
%
/M {moveto} bind def
/L {lineto} bind def
/R {rmoveto} bind def
/V {rlineto} bind def
/N {newpath moveto} bind def
/Z {closepath} bind def
/C {setrgbcolor} bind def
/f {rlineto fill} bind def
/g {setgray} bind def
/Gshow {show} def   % May be redefined later in the file to support UTF-8
/vpt2 vpt 2 mul def
/hpt2 hpt 2 mul def
/Lshow {currentpoint stroke M 0 vshift R 
	Blacktext {gsave 0 setgray textshow grestore} {textshow} ifelse} def
/Rshow {currentpoint stroke M dup stringwidth pop neg vshift R
	Blacktext {gsave 0 setgray textshow grestore} {textshow} ifelse} def
/Cshow {currentpoint stroke M dup stringwidth pop -2 div vshift R 
	Blacktext {gsave 0 setgray textshow grestore} {textshow} ifelse} def
/UP {dup vpt_ mul /vpt exch def hpt_ mul /hpt exch def
  /hpt2 hpt 2 mul def /vpt2 vpt 2 mul def} def
/DL {Color {setrgbcolor Solid {pop []} if 0 setdash}
 {pop pop pop 0 setgray Solid {pop []} if 0 setdash} ifelse} def
/BL {stroke userlinewidth 2 mul setlinewidth
	Rounded {1 setlinejoin 1 setlinecap} if} def
/AL {stroke userlinewidth 2 div setlinewidth
	Rounded {1 setlinejoin 1 setlinecap} if} def
/UL {dup gnulinewidth mul /userlinewidth exch def
	dup 1 lt {pop 1} if 10 mul /udl exch def} def
/PL {stroke userlinewidth setlinewidth
	Rounded {1 setlinejoin 1 setlinecap} if} def
3.8 setmiterlimit
% Classic Line colors (version 5.0)
/LCw {1 1 1} def
/LCb {0 0 0} def
/LCa {0 0 0} def
/LC0 {1 0 0} def
/LC1 {0 1 0} def
/LC2 {0 0 1} def
/LC3 {1 0 1} def
/LC4 {0 1 1} def
/LC5 {1 1 0} def
/LC6 {0 0 0} def
/LC7 {1 0.3 0} def
/LC8 {0.5 0.5 0.5} def
% Default dash patterns (version 5.0)
/LTB {BL [] LCb DL} def
/LTw {PL [] 1 setgray} def
/LTb {PL [] LCb DL} def
/LTa {AL [1 udl mul 2 udl mul] 0 setdash LCa setrgbcolor} def
/LT0 {PL [] LC0 DL} def
/LT1 {PL [2 dl1 3 dl2] LC1 DL} def
/LT2 {PL [1 dl1 1.5 dl2] LC2 DL} def
/LT3 {PL [6 dl1 2 dl2 1 dl1 2 dl2] LC3 DL} def
/LT4 {PL [1 dl1 2 dl2 6 dl1 2 dl2 1 dl1 2 dl2] LC4 DL} def
/LT5 {PL [4 dl1 2 dl2] LC5 DL} def
/LT6 {PL [1.5 dl1 1.5 dl2 1.5 dl1 1.5 dl2 1.5 dl1 6 dl2] LC6 DL} def
/LT7 {PL [3 dl1 3 dl2 1 dl1 3 dl2] LC7 DL} def
/LT8 {PL [2 dl1 2 dl2 2 dl1 6 dl2] LC8 DL} def
/SL {[] 0 setdash} def
/Pnt {stroke [] 0 setdash gsave 1 setlinecap M 0 0 V stroke grestore} def
/Dia {stroke [] 0 setdash 2 copy vpt add M
  hpt neg vpt neg V hpt vpt neg V
  hpt vpt V hpt neg vpt V closepath stroke
  Pnt} def
/Pls {stroke [] 0 setdash vpt sub M 0 vpt2 V
  currentpoint stroke M
  hpt neg vpt neg R hpt2 0 V stroke
 } def
/Box {stroke [] 0 setdash 2 copy exch hpt sub exch vpt add M
  0 vpt2 neg V hpt2 0 V 0 vpt2 V
  hpt2 neg 0 V closepath stroke
  Pnt} def
/Crs {stroke [] 0 setdash exch hpt sub exch vpt add M
  hpt2 vpt2 neg V currentpoint stroke M
  hpt2 neg 0 R hpt2 vpt2 V stroke} def
/TriU {stroke [] 0 setdash 2 copy vpt 1.12 mul add M
  hpt neg vpt -1.62 mul V
  hpt 2 mul 0 V
  hpt neg vpt 1.62 mul V closepath stroke
  Pnt} def
/Star {2 copy Pls Crs} def
/BoxF {stroke [] 0 setdash exch hpt sub exch vpt add M
  0 vpt2 neg V hpt2 0 V 0 vpt2 V
  hpt2 neg 0 V closepath fill} def
/TriUF {stroke [] 0 setdash vpt 1.12 mul add M
  hpt neg vpt -1.62 mul V
  hpt 2 mul 0 V
  hpt neg vpt 1.62 mul V closepath fill} def
/TriD {stroke [] 0 setdash 2 copy vpt 1.12 mul sub M
  hpt neg vpt 1.62 mul V
  hpt 2 mul 0 V
  hpt neg vpt -1.62 mul V closepath stroke
  Pnt} def
/TriDF {stroke [] 0 setdash vpt 1.12 mul sub M
  hpt neg vpt 1.62 mul V
  hpt 2 mul 0 V
  hpt neg vpt -1.62 mul V closepath fill} def
/DiaF {stroke [] 0 setdash vpt add M
  hpt neg vpt neg V hpt vpt neg V
  hpt vpt V hpt neg vpt V closepath fill} def
/Pent {stroke [] 0 setdash 2 copy gsave
  translate 0 hpt M 4 {72 rotate 0 hpt L} repeat
  closepath stroke grestore Pnt} def
/PentF {stroke [] 0 setdash gsave
  translate 0 hpt M 4 {72 rotate 0 hpt L} repeat
  closepath fill grestore} def
/Circle {stroke [] 0 setdash 2 copy
  hpt 0 360 arc stroke Pnt} def
/CircleF {stroke [] 0 setdash hpt 0 360 arc fill} def
/C0 {BL [] 0 setdash 2 copy moveto vpt 90 450 arc} bind def
/C1 {BL [] 0 setdash 2 copy moveto
	2 copy vpt 0 90 arc closepath fill
	vpt 0 360 arc closepath} bind def
/C2 {BL [] 0 setdash 2 copy moveto
	2 copy vpt 90 180 arc closepath fill
	vpt 0 360 arc closepath} bind def
/C3 {BL [] 0 setdash 2 copy moveto
	2 copy vpt 0 180 arc closepath fill
	vpt 0 360 arc closepath} bind def
/C4 {BL [] 0 setdash 2 copy moveto
	2 copy vpt 180 270 arc closepath fill
	vpt 0 360 arc closepath} bind def
/C5 {BL [] 0 setdash 2 copy moveto
	2 copy vpt 0 90 arc
	2 copy moveto
	2 copy vpt 180 270 arc closepath fill
	vpt 0 360 arc} bind def
/C6 {BL [] 0 setdash 2 copy moveto
	2 copy vpt 90 270 arc closepath fill
	vpt 0 360 arc closepath} bind def
/C7 {BL [] 0 setdash 2 copy moveto
	2 copy vpt 0 270 arc closepath fill
	vpt 0 360 arc closepath} bind def
/C8 {BL [] 0 setdash 2 copy moveto
	2 copy vpt 270 360 arc closepath fill
	vpt 0 360 arc closepath} bind def
/C9 {BL [] 0 setdash 2 copy moveto
	2 copy vpt 270 450 arc closepath fill
	vpt 0 360 arc closepath} bind def
/C10 {BL [] 0 setdash 2 copy 2 copy moveto vpt 270 360 arc closepath fill
	2 copy moveto
	2 copy vpt 90 180 arc closepath fill
	vpt 0 360 arc closepath} bind def
/C11 {BL [] 0 setdash 2 copy moveto
	2 copy vpt 0 180 arc closepath fill
	2 copy moveto
	2 copy vpt 270 360 arc closepath fill
	vpt 0 360 arc closepath} bind def
/C12 {BL [] 0 setdash 2 copy moveto
	2 copy vpt 180 360 arc closepath fill
	vpt 0 360 arc closepath} bind def
/C13 {BL [] 0 setdash 2 copy moveto
	2 copy vpt 0 90 arc closepath fill
	2 copy moveto
	2 copy vpt 180 360 arc closepath fill
	vpt 0 360 arc closepath} bind def
/C14 {BL [] 0 setdash 2 copy moveto
	2 copy vpt 90 360 arc closepath fill
	vpt 0 360 arc} bind def
/C15 {BL [] 0 setdash 2 copy vpt 0 360 arc closepath fill
	vpt 0 360 arc closepath} bind def
/Rec {newpath 4 2 roll moveto 1 index 0 rlineto 0 exch rlineto
	neg 0 rlineto closepath} bind def
/Square {dup Rec} bind def
/Bsquare {vpt sub exch vpt sub exch vpt2 Square} bind def
/S0 {BL [] 0 setdash 2 copy moveto 0 vpt rlineto BL Bsquare} bind def
/S1 {BL [] 0 setdash 2 copy vpt Square fill Bsquare} bind def
/S2 {BL [] 0 setdash 2 copy exch vpt sub exch vpt Square fill Bsquare} bind def
/S3 {BL [] 0 setdash 2 copy exch vpt sub exch vpt2 vpt Rec fill Bsquare} bind def
/S4 {BL [] 0 setdash 2 copy exch vpt sub exch vpt sub vpt Square fill Bsquare} bind def
/S5 {BL [] 0 setdash 2 copy 2 copy vpt Square fill
	exch vpt sub exch vpt sub vpt Square fill Bsquare} bind def
/S6 {BL [] 0 setdash 2 copy exch vpt sub exch vpt sub vpt vpt2 Rec fill Bsquare} bind def
/S7 {BL [] 0 setdash 2 copy exch vpt sub exch vpt sub vpt vpt2 Rec fill
	2 copy vpt Square fill Bsquare} bind def
/S8 {BL [] 0 setdash 2 copy vpt sub vpt Square fill Bsquare} bind def
/S9 {BL [] 0 setdash 2 copy vpt sub vpt vpt2 Rec fill Bsquare} bind def
/S10 {BL [] 0 setdash 2 copy vpt sub vpt Square fill 2 copy exch vpt sub exch vpt Square fill
	Bsquare} bind def
/S11 {BL [] 0 setdash 2 copy vpt sub vpt Square fill 2 copy exch vpt sub exch vpt2 vpt Rec fill
	Bsquare} bind def
/S12 {BL [] 0 setdash 2 copy exch vpt sub exch vpt sub vpt2 vpt Rec fill Bsquare} bind def
/S13 {BL [] 0 setdash 2 copy exch vpt sub exch vpt sub vpt2 vpt Rec fill
	2 copy vpt Square fill Bsquare} bind def
/S14 {BL [] 0 setdash 2 copy exch vpt sub exch vpt sub vpt2 vpt Rec fill
	2 copy exch vpt sub exch vpt Square fill Bsquare} bind def
/S15 {BL [] 0 setdash 2 copy Bsquare fill Bsquare} bind def
/D0 {gsave translate 45 rotate 0 0 S0 stroke grestore} bind def
/D1 {gsave translate 45 rotate 0 0 S1 stroke grestore} bind def
/D2 {gsave translate 45 rotate 0 0 S2 stroke grestore} bind def
/D3 {gsave translate 45 rotate 0 0 S3 stroke grestore} bind def
/D4 {gsave translate 45 rotate 0 0 S4 stroke grestore} bind def
/D5 {gsave translate 45 rotate 0 0 S5 stroke grestore} bind def
/D6 {gsave translate 45 rotate 0 0 S6 stroke grestore} bind def
/D7 {gsave translate 45 rotate 0 0 S7 stroke grestore} bind def
/D8 {gsave translate 45 rotate 0 0 S8 stroke grestore} bind def
/D9 {gsave translate 45 rotate 0 0 S9 stroke grestore} bind def
/D10 {gsave translate 45 rotate 0 0 S10 stroke grestore} bind def
/D11 {gsave translate 45 rotate 0 0 S11 stroke grestore} bind def
/D12 {gsave translate 45 rotate 0 0 S12 stroke grestore} bind def
/D13 {gsave translate 45 rotate 0 0 S13 stroke grestore} bind def
/D14 {gsave translate 45 rotate 0 0 S14 stroke grestore} bind def
/D15 {gsave translate 45 rotate 0 0 S15 stroke grestore} bind def
/DiaE {stroke [] 0 setdash vpt add M
  hpt neg vpt neg V hpt vpt neg V
  hpt vpt V hpt neg vpt V closepath stroke} def
/BoxE {stroke [] 0 setdash exch hpt sub exch vpt add M
  0 vpt2 neg V hpt2 0 V 0 vpt2 V
  hpt2 neg 0 V closepath stroke} def
/TriUE {stroke [] 0 setdash vpt 1.12 mul add M
  hpt neg vpt -1.62 mul V
  hpt 2 mul 0 V
  hpt neg vpt 1.62 mul V closepath stroke} def
/TriDE {stroke [] 0 setdash vpt 1.12 mul sub M
  hpt neg vpt 1.62 mul V
  hpt 2 mul 0 V
  hpt neg vpt -1.62 mul V closepath stroke} def
/PentE {stroke [] 0 setdash gsave
  translate 0 hpt M 4 {72 rotate 0 hpt L} repeat
  closepath stroke grestore} def
/CircE {stroke [] 0 setdash 
  hpt 0 360 arc stroke} def
/Opaque {gsave closepath 1 setgray fill grestore 0 setgray closepath} def
/DiaW {stroke [] 0 setdash vpt add M
  hpt neg vpt neg V hpt vpt neg V
  hpt vpt V hpt neg vpt V Opaque stroke} def
/BoxW {stroke [] 0 setdash exch hpt sub exch vpt add M
  0 vpt2 neg V hpt2 0 V 0 vpt2 V
  hpt2 neg 0 V Opaque stroke} def
/TriUW {stroke [] 0 setdash vpt 1.12 mul add M
  hpt neg vpt -1.62 mul V
  hpt 2 mul 0 V
  hpt neg vpt 1.62 mul V Opaque stroke} def
/TriDW {stroke [] 0 setdash vpt 1.12 mul sub M
  hpt neg vpt 1.62 mul V
  hpt 2 mul 0 V
  hpt neg vpt -1.62 mul V Opaque stroke} def
/PentW {stroke [] 0 setdash gsave
  translate 0 hpt M 4 {72 rotate 0 hpt L} repeat
  Opaque stroke grestore} def
/CircW {stroke [] 0 setdash 
  hpt 0 360 arc Opaque stroke} def
/BoxFill {gsave Rec 1 setgray fill grestore} def
/Density {
  /Fillden exch def
  currentrgbcolor
  /ColB exch def /ColG exch def /ColR exch def
  /ColR ColR Fillden mul Fillden sub 1 add def
  /ColG ColG Fillden mul Fillden sub 1 add def
  /ColB ColB Fillden mul Fillden sub 1 add def
  ColR ColG ColB setrgbcolor} def
/BoxColFill {gsave Rec PolyFill} def
/PolyFill {gsave Density fill grestore grestore} def
/h {rlineto rlineto rlineto gsave closepath fill grestore} bind def
%
% PostScript Level 1 Pattern Fill routine for rectangles
% Usage: x y w h s a XX PatternFill
%	x,y = lower left corner of box to be filled
%	w,h = width and height of box
%	  a = angle in degrees between lines and x-axis
%	 XX = 0/1 for no/yes cross-hatch
%
/PatternFill {gsave /PFa [ 9 2 roll ] def
  PFa 0 get PFa 2 get 2 div add PFa 1 get PFa 3 get 2 div add translate
  PFa 2 get -2 div PFa 3 get -2 div PFa 2 get PFa 3 get Rec
  TransparentPatterns {} {gsave 1 setgray fill grestore} ifelse
  clip
  currentlinewidth 0.5 mul setlinewidth
  /PFs PFa 2 get dup mul PFa 3 get dup mul add sqrt def
  0 0 M PFa 5 get rotate PFs -2 div dup translate
  0 1 PFs PFa 4 get div 1 add floor cvi
	{PFa 4 get mul 0 M 0 PFs V} for
  0 PFa 6 get ne {
	0 1 PFs PFa 4 get div 1 add floor cvi
	{PFa 4 get mul 0 2 1 roll M PFs 0 V} for
 } if
  stroke grestore} def
%
/languagelevel where
 {pop languagelevel} {1} ifelse
dup 2 lt
	{/InterpretLevel1 true def
	 /InterpretLevel3 false def}
	{/InterpretLevel1 Level1 def
	 2 gt
	    {/InterpretLevel3 Level3 def}
	    {/InterpretLevel3 false def}
	 ifelse }
 ifelse
%
% PostScript level 2 pattern fill definitions
%
/Level2PatternFill {
/Tile8x8 {/PaintType 2 /PatternType 1 /TilingType 1 /BBox [0 0 8 8] /XStep 8 /YStep 8}
	bind def
/KeepColor {currentrgbcolor [/Pattern /DeviceRGB] setcolorspace} bind def
<< Tile8x8
 /PaintProc {0.5 setlinewidth pop 0 0 M 8 8 L 0 8 M 8 0 L stroke} 
>> matrix makepattern
/Pat1 exch def
<< Tile8x8
 /PaintProc {0.5 setlinewidth pop 0 0 M 8 8 L 0 8 M 8 0 L stroke
	0 4 M 4 8 L 8 4 L 4 0 L 0 4 L stroke}
>> matrix makepattern
/Pat2 exch def
<< Tile8x8
 /PaintProc {0.5 setlinewidth pop 0 0 M 0 8 L
	8 8 L 8 0 L 0 0 L fill}
>> matrix makepattern
/Pat3 exch def
<< Tile8x8
 /PaintProc {0.5 setlinewidth pop -4 8 M 8 -4 L
	0 12 M 12 0 L stroke}
>> matrix makepattern
/Pat4 exch def
<< Tile8x8
 /PaintProc {0.5 setlinewidth pop -4 0 M 8 12 L
	0 -4 M 12 8 L stroke}
>> matrix makepattern
/Pat5 exch def
<< Tile8x8
 /PaintProc {0.5 setlinewidth pop -2 8 M 4 -4 L
	0 12 M 8 -4 L 4 12 M 10 0 L stroke}
>> matrix makepattern
/Pat6 exch def
<< Tile8x8
 /PaintProc {0.5 setlinewidth pop -2 0 M 4 12 L
	0 -4 M 8 12 L 4 -4 M 10 8 L stroke}
>> matrix makepattern
/Pat7 exch def
<< Tile8x8
 /PaintProc {0.5 setlinewidth pop 8 -2 M -4 4 L
	12 0 M -4 8 L 12 4 M 0 10 L stroke}
>> matrix makepattern
/Pat8 exch def
<< Tile8x8
 /PaintProc {0.5 setlinewidth pop 0 -2 M 12 4 L
	-4 0 M 12 8 L -4 4 M 8 10 L stroke}
>> matrix makepattern
/Pat9 exch def
/Pattern1 {PatternBgnd KeepColor Pat1 setpattern} bind def
/Pattern2 {PatternBgnd KeepColor Pat2 setpattern} bind def
/Pattern3 {PatternBgnd KeepColor Pat3 setpattern} bind def
/Pattern4 {PatternBgnd KeepColor Landscape {Pat5} {Pat4} ifelse setpattern} bind def
/Pattern5 {PatternBgnd KeepColor Landscape {Pat4} {Pat5} ifelse setpattern} bind def
/Pattern6 {PatternBgnd KeepColor Landscape {Pat9} {Pat6} ifelse setpattern} bind def
/Pattern7 {PatternBgnd KeepColor Landscape {Pat8} {Pat7} ifelse setpattern} bind def
} def
%
%
%End of PostScript Level 2 code
%
/PatternBgnd {
  TransparentPatterns {} {gsave 1 setgray fill grestore} ifelse
} def
%
% Substitute for Level 2 pattern fill codes with
% grayscale if Level 2 support is not selected.
%
/Level1PatternFill {
/Pattern1 {0.250 Density} bind def
/Pattern2 {0.500 Density} bind def
/Pattern3 {0.750 Density} bind def
/Pattern4 {0.125 Density} bind def
/Pattern5 {0.375 Density} bind def
/Pattern6 {0.625 Density} bind def
/Pattern7 {0.875 Density} bind def
} def
%
% Now test for support of Level 2 code
%
Level1 {Level1PatternFill} {Level2PatternFill} ifelse
%
/Symbol-Oblique /Symbol findfont [1 0 .167 1 0 0] makefont
dup length dict begin {1 index /FID eq {pop pop} {def} ifelse} forall
currentdict end definefont pop
%
/MFshow {
   { dup 5 get 3 ge
     { 5 get 3 eq {gsave} {grestore} ifelse }
     {dup dup 0 get findfont exch 1 get scalefont setfont
     [ currentpoint ] exch dup 2 get 0 exch R dup 5 get 2 ne {dup dup 6
     get exch 4 get {textshow} {stringwidth pop 0 R} ifelse }if dup 5 get 0 eq
     {dup 3 get {2 get neg 0 exch R pop} {pop aload pop M} ifelse} {dup 5
     get 1 eq {dup 2 get exch dup 3 get exch 6 get stringwidth pop -2 div
     dup 0 R} {dup 6 get stringwidth pop -2 div 0 R 6 get
     textshow 2 index {aload pop M neg 3 -1 roll neg R pop pop} {pop pop pop
     pop aload pop M} ifelse }ifelse }ifelse }
     ifelse }
   forall} def
/Gswidth {dup type /stringtype eq {stringwidth} {pop (n) stringwidth} ifelse} def
/MFwidth {0 exch { dup 5 get 3 ge { 5 get 3 eq { 0 } { pop } ifelse }
 {dup 3 get{dup dup 0 get findfont exch 1 get scalefont setfont
     6 get Gswidth pop add} {pop} ifelse} ifelse} forall} def
/MLshow { currentpoint stroke M
  0 exch R
  Blacktext {gsave 0 setgray MFshow grestore} {MFshow} ifelse } bind def
/MRshow { currentpoint stroke M
  exch dup MFwidth neg 3 -1 roll R
  Blacktext {gsave 0 setgray MFshow grestore} {MFshow} ifelse } bind def
/MCshow { currentpoint stroke M
  exch dup MFwidth -2 div 3 -1 roll R
  Blacktext {gsave 0 setgray MFshow grestore} {MFshow} ifelse } bind def
/XYsave    { [( ) 1 2 true false 3 ()] } bind def
/XYrestore { [( ) 1 2 true false 4 ()] } bind def
Level1 SuppressPDFMark or 
{} {
/SDict 10 dict def
systemdict /pdfmark known not {
  userdict /pdfmark systemdict /cleartomark get put
} if
SDict begin [
  /Title (packets-ip-s-dist-linlin.eps)
  /Subject (gnuplot plot)
  /Creator (gnuplot 5.0 patchlevel 3)
  /Author (tiphaine)
%  /Producer (gnuplot)
%  /Keywords ()
  /CreationDate (Mon May 29 11:10:18 2017)
  /DOCINFO pdfmark
end
} ifelse
%
% Support for boxed text - Ethan A Merritt May 2005
%
/InitTextBox { userdict /TBy2 3 -1 roll put userdict /TBx2 3 -1 roll put
           userdict /TBy1 3 -1 roll put userdict /TBx1 3 -1 roll put
	   /Boxing true def } def
/ExtendTextBox { Boxing
    { gsave dup false charpath pathbbox
      dup TBy2 gt {userdict /TBy2 3 -1 roll put} {pop} ifelse
      dup TBx2 gt {userdict /TBx2 3 -1 roll put} {pop} ifelse
      dup TBy1 lt {userdict /TBy1 3 -1 roll put} {pop} ifelse
      dup TBx1 lt {userdict /TBx1 3 -1 roll put} {pop} ifelse
      grestore } if } def
/PopTextBox { newpath TBx1 TBxmargin sub TBy1 TBymargin sub M
               TBx1 TBxmargin sub TBy2 TBymargin add L
	       TBx2 TBxmargin add TBy2 TBymargin add L
	       TBx2 TBxmargin add TBy1 TBymargin sub L closepath } def
/DrawTextBox { PopTextBox stroke /Boxing false def} def
/FillTextBox { gsave PopTextBox 1 1 1 setrgbcolor fill grestore /Boxing false def} def
0 0 0 0 InitTextBox
/TBxmargin 20 def
/TBymargin 20 def
/Boxing false def
/textshow { ExtendTextBox Gshow } def
%
% redundant definitions for compatibility with prologue.ps older than 5.0.2
/LTB {BL [] LCb DL} def
/LTb {PL [] LCb DL} def
end
%%EndProlog
%%Page: 1 1
gnudict begin
gsave
doclip
50 50 translate
0.100 0.100 scale
90 rotate
0 -5040 translate
0 setgray
newpath
(Helvetica) findfont 140 scalefont setfont
BackgroundColor 0 lt 3 1 roll 0 lt exch 0 lt or or not {gsave BackgroundColor C clippath fill grestore} if
1.000 UL
LTb
LCb setrgbcolor
630 280 M
63 0 V
6254 0 R
-63 0 V
stroke
546 280 M
[ [(Helvetica) 140.0 0.0 true true 0 ( 0)]
] -46.7 MRshow
1.000 UL
LTb
LCb setrgbcolor
630 936 M
63 0 V
6254 0 R
-63 0 V
stroke
546 936 M
[ [(Helvetica) 140.0 0.0 true true 0 ( 1x10)]
[(Helvetica) 112.0 70.0 true true 0 (6)]
] -60.7 MRshow
1.000 UL
LTb
LCb setrgbcolor
630 1592 M
63 0 V
6254 0 R
-63 0 V
stroke
546 1592 M
[ [(Helvetica) 140.0 0.0 true true 0 ( 2x10)]
[(Helvetica) 112.0 70.0 true true 0 (6)]
] -60.7 MRshow
1.000 UL
LTb
LCb setrgbcolor
630 2248 M
63 0 V
6254 0 R
-63 0 V
stroke
546 2248 M
[ [(Helvetica) 140.0 0.0 true true 0 ( 3x10)]
[(Helvetica) 112.0 70.0 true true 0 (6)]
] -60.7 MRshow
1.000 UL
LTb
LCb setrgbcolor
630 2903 M
63 0 V
6254 0 R
-63 0 V
stroke
546 2903 M
[ [(Helvetica) 140.0 0.0 true true 0 ( 4x10)]
[(Helvetica) 112.0 70.0 true true 0 (6)]
] -60.7 MRshow
1.000 UL
LTb
LCb setrgbcolor
630 3559 M
63 0 V
6254 0 R
-63 0 V
stroke
546 3559 M
[ [(Helvetica) 140.0 0.0 true true 0 ( 5x10)]
[(Helvetica) 112.0 70.0 true true 0 (6)]
] -60.7 MRshow
1.000 UL
LTb
LCb setrgbcolor
630 4215 M
63 0 V
6254 0 R
-63 0 V
stroke
546 4215 M
[ [(Helvetica) 140.0 0.0 true true 0 ( 6x10)]
[(Helvetica) 112.0 70.0 true true 0 (6)]
] -60.7 MRshow
1.000 UL
LTb
LCb setrgbcolor
630 4871 M
63 0 V
6254 0 R
-63 0 V
stroke
546 4871 M
[ [(Helvetica) 140.0 0.0 true true 0 ( 7x10)]
[(Helvetica) 112.0 70.0 true true 0 (6)]
] -60.7 MRshow
1.000 UL
LTb
LCb setrgbcolor
630 280 M
0 63 V
0 4528 R
0 -63 V
stroke
630 140 M
[ [(Helvetica) 140.0 0.0 true true 0 ( 0)]
] -46.7 MCshow
1.000 UL
LTb
LCb setrgbcolor
1262 280 M
0 63 V
0 4528 R
0 -63 V
stroke
1262 140 M
[ [(Helvetica) 140.0 0.0 true true 0 ( 5000)]
] -46.7 MCshow
1.000 UL
LTb
LCb setrgbcolor
1893 280 M
0 63 V
0 4528 R
0 -63 V
stroke
1893 140 M
[ [(Helvetica) 140.0 0.0 true true 0 ( 10000)]
] -46.7 MCshow
1.000 UL
LTb
LCb setrgbcolor
2525 280 M
0 63 V
0 4528 R
0 -63 V
stroke
2525 140 M
[ [(Helvetica) 140.0 0.0 true true 0 ( 15000)]
] -46.7 MCshow
1.000 UL
LTb
LCb setrgbcolor
3157 280 M
0 63 V
0 4528 R
0 -63 V
stroke
3157 140 M
[ [(Helvetica) 140.0 0.0 true true 0 ( 20000)]
] -46.7 MCshow
1.000 UL
LTb
LCb setrgbcolor
3789 280 M
0 63 V
0 4528 R
0 -63 V
stroke
3789 140 M
[ [(Helvetica) 140.0 0.0 true true 0 ( 25000)]
] -46.7 MCshow
1.000 UL
LTb
LCb setrgbcolor
4420 280 M
0 63 V
0 4528 R
0 -63 V
stroke
4420 140 M
[ [(Helvetica) 140.0 0.0 true true 0 ( 30000)]
] -46.7 MCshow
1.000 UL
LTb
LCb setrgbcolor
5052 280 M
0 63 V
0 4528 R
0 -63 V
stroke
5052 140 M
[ [(Helvetica) 140.0 0.0 true true 0 ( 35000)]
] -46.7 MCshow
1.000 UL
LTb
LCb setrgbcolor
5684 280 M
0 63 V
0 4528 R
0 -63 V
stroke
5684 140 M
[ [(Helvetica) 140.0 0.0 true true 0 ( 40000)]
] -46.7 MCshow
1.000 UL
LTb
LCb setrgbcolor
6315 280 M
0 63 V
0 4528 R
0 -63 V
stroke
6315 140 M
[ [(Helvetica) 140.0 0.0 true true 0 ( 45000)]
] -46.7 MCshow
1.000 UL
LTb
LCb setrgbcolor
6947 280 M
0 63 V
0 4528 R
0 -63 V
stroke
6947 140 M
[ [(Helvetica) 140.0 0.0 true true 0 ( 50000)]
] -46.7 MCshow
1.000 UL
LTb
LCb setrgbcolor
1.000 UL
LTB
LCb setrgbcolor
630 4871 N
630 280 L
6317 0 V
0 4591 V
-6317 0 V
Z stroke
1.000 UP
1.000 UL
LTb
LCb setrgbcolor
% Begin plot #1
1.000 UP
1.000 UL
LTb
0.58 0.00 0.83 C 630 841 Pls
630 4862 Pls
630 1005 Pls
630 609 Pls
631 509 Pls
631 433 Pls
631 396 Pls
631 358 Pls
631 349 Pls
631 334 Pls
631 335 Pls
631 316 Pls
632 314 Pls
632 308 Pls
632 306 Pls
632 305 Pls
632 303 Pls
632 300 Pls
632 299 Pls
632 298 Pls
633 297 Pls
633 294 Pls
633 293 Pls
633 292 Pls
633 293 Pls
633 292 Pls
633 293 Pls
633 291 Pls
634 292 Pls
634 291 Pls
634 291 Pls
634 289 Pls
634 289 Pls
634 288 Pls
634 288 Pls
634 288 Pls
635 288 Pls
635 288 Pls
635 287 Pls
635 286 Pls
635 286 Pls
635 285 Pls
635 285 Pls
635 285 Pls
636 285 Pls
636 285 Pls
636 285 Pls
636 285 Pls
636 285 Pls
636 284 Pls
636 286 Pls
636 290 Pls
637 288 Pls
637 287 Pls
637 286 Pls
637 285 Pls
637 285 Pls
637 284 Pls
637 284 Pls
637 283 Pls
638 284 Pls
638 283 Pls
638 283 Pls
638 283 Pls
638 283 Pls
638 283 Pls
638 283 Pls
638 283 Pls
639 283 Pls
639 283 Pls
639 283 Pls
639 283 Pls
639 283 Pls
639 283 Pls
639 283 Pls
639 282 Pls
640 283 Pls
640 283 Pls
640 283 Pls
640 282 Pls
640 282 Pls
640 282 Pls
640 282 Pls
640 282 Pls
641 282 Pls
641 282 Pls
641 282 Pls
641 282 Pls
641 282 Pls
641 282 Pls
641 282 Pls
641 282 Pls
642 282 Pls
642 282 Pls
642 282 Pls
642 282 Pls
642 282 Pls
642 282 Pls
642 282 Pls
643 282 Pls
643 282 Pls
643 281 Pls
643 282 Pls
643 281 Pls
643 281 Pls
643 281 Pls
643 281 Pls
644 281 Pls
644 281 Pls
644 281 Pls
644 281 Pls
644 281 Pls
644 281 Pls
644 281 Pls
644 281 Pls
645 281 Pls
645 281 Pls
645 281 Pls
645 281 Pls
645 281 Pls
645 281 Pls
645 281 Pls
645 281 Pls
646 281 Pls
646 281 Pls
646 281 Pls
646 281 Pls
646 281 Pls
646 281 Pls
646 281 Pls
646 281 Pls
647 281 Pls
647 281 Pls
647 281 Pls
647 281 Pls
647 281 Pls
647 281 Pls
647 281 Pls
647 281 Pls
648 281 Pls
648 281 Pls
648 281 Pls
648 281 Pls
648 281 Pls
648 281 Pls
648 281 Pls
648 281 Pls
649 281 Pls
649 281 Pls
649 281 Pls
649 281 Pls
649 281 Pls
649 281 Pls
649 281 Pls
649 281 Pls
650 281 Pls
650 281 Pls
650 281 Pls
650 281 Pls
650 281 Pls
650 281 Pls
650 281 Pls
650 281 Pls
651 281 Pls
651 281 Pls
651 281 Pls
651 281 Pls
651 281 Pls
651 281 Pls
651 281 Pls
651 281 Pls
652 281 Pls
652 281 Pls
652 280 Pls
652 281 Pls
652 280 Pls
652 281 Pls
652 280 Pls
652 281 Pls
653 280 Pls
653 280 Pls
653 280 Pls
653 280 Pls
653 280 Pls
653 281 Pls
653 280 Pls
653 280 Pls
654 280 Pls
654 280 Pls
654 280 Pls
654 280 Pls
654 280 Pls
654 280 Pls
654 280 Pls
655 280 Pls
655 280 Pls
655 280 Pls
655 280 Pls
655 280 Pls
655 280 Pls
655 280 Pls
655 280 Pls
656 280 Pls
656 280 Pls
656 280 Pls
656 280 Pls
656 280 Pls
656 280 Pls
656 280 Pls
656 280 Pls
657 280 Pls
657 280 Pls
657 280 Pls
657 280 Pls
657 280 Pls
657 280 Pls
657 280 Pls
657 280 Pls
658 280 Pls
658 280 Pls
658 280 Pls
658 280 Pls
658 280 Pls
658 280 Pls
658 280 Pls
658 280 Pls
659 280 Pls
659 280 Pls
659 280 Pls
659 280 Pls
659 280 Pls
659 280 Pls
659 280 Pls
659 280 Pls
660 280 Pls
660 280 Pls
660 280 Pls
660 280 Pls
660 280 Pls
660 280 Pls
660 280 Pls
660 280 Pls
661 280 Pls
661 280 Pls
661 280 Pls
661 280 Pls
661 280 Pls
661 280 Pls
661 280 Pls
661 280 Pls
662 280 Pls
662 280 Pls
662 280 Pls
662 280 Pls
662 280 Pls
662 280 Pls
662 280 Pls
662 280 Pls
663 280 Pls
663 280 Pls
663 280 Pls
663 280 Pls
663 280 Pls
663 280 Pls
663 280 Pls
663 280 Pls
664 280 Pls
664 280 Pls
664 280 Pls
664 280 Pls
664 280 Pls
664 280 Pls
664 280 Pls
664 280 Pls
665 280 Pls
665 280 Pls
665 280 Pls
665 280 Pls
665 280 Pls
665 280 Pls
665 280 Pls
666 280 Pls
666 280 Pls
666 280 Pls
666 280 Pls
666 280 Pls
666 280 Pls
666 280 Pls
666 280 Pls
667 280 Pls
667 280 Pls
667 280 Pls
667 280 Pls
667 280 Pls
667 280 Pls
667 280 Pls
667 280 Pls
668 280 Pls
668 280 Pls
668 280 Pls
668 280 Pls
668 280 Pls
668 280 Pls
668 280 Pls
668 280 Pls
669 280 Pls
669 280 Pls
669 280 Pls
669 280 Pls
669 280 Pls
669 280 Pls
669 280 Pls
669 280 Pls
670 280 Pls
670 280 Pls
670 280 Pls
670 280 Pls
670 280 Pls
670 280 Pls
670 280 Pls
670 280 Pls
671 280 Pls
671 280 Pls
671 280 Pls
671 280 Pls
671 280 Pls
671 280 Pls
671 280 Pls
671 280 Pls
672 280 Pls
672 280 Pls
672 280 Pls
672 280 Pls
672 280 Pls
672 280 Pls
672 280 Pls
672 280 Pls
673 280 Pls
673 280 Pls
673 280 Pls
673 280 Pls
673 280 Pls
673 280 Pls
673 280 Pls
673 280 Pls
674 280 Pls
674 280 Pls
674 280 Pls
674 280 Pls
674 280 Pls
674 280 Pls
674 280 Pls
674 281 Pls
675 280 Pls
675 280 Pls
675 280 Pls
675 280 Pls
675 280 Pls
675 280 Pls
675 280 Pls
675 280 Pls
676 280 Pls
676 280 Pls
676 280 Pls
676 280 Pls
676 280 Pls
676 280 Pls
676 280 Pls
676 280 Pls
677 280 Pls
677 280 Pls
677 280 Pls
677 280 Pls
677 280 Pls
677 280 Pls
677 280 Pls
678 280 Pls
678 280 Pls
678 280 Pls
678 280 Pls
678 280 Pls
678 280 Pls
678 280 Pls
678 280 Pls
679 280 Pls
679 280 Pls
679 280 Pls
679 280 Pls
679 280 Pls
679 280 Pls
679 280 Pls
679 280 Pls
680 280 Pls
680 280 Pls
680 280 Pls
680 280 Pls
680 280 Pls
680 280 Pls
680 280 Pls
680 280 Pls
681 280 Pls
681 280 Pls
681 280 Pls
681 280 Pls
681 280 Pls
681 280 Pls
681 280 Pls
681 280 Pls
682 280 Pls
682 280 Pls
682 280 Pls
682 280 Pls
682 280 Pls
682 280 Pls
682 280 Pls
682 280 Pls
683 280 Pls
683 280 Pls
683 280 Pls
683 280 Pls
683 280 Pls
683 280 Pls
683 280 Pls
683 280 Pls
684 280 Pls
684 280 Pls
684 280 Pls
684 280 Pls
684 280 Pls
684 280 Pls
684 280 Pls
684 280 Pls
685 280 Pls
685 280 Pls
685 280 Pls
685 280 Pls
685 280 Pls
685 280 Pls
685 280 Pls
685 280 Pls
686 280 Pls
686 280 Pls
686 280 Pls
686 280 Pls
686 280 Pls
686 280 Pls
686 280 Pls
686 280 Pls
687 280 Pls
687 280 Pls
687 280 Pls
687 280 Pls
687 280 Pls
687 280 Pls
687 280 Pls
687 280 Pls
688 280 Pls
688 280 Pls
688 280 Pls
688 280 Pls
688 280 Pls
688 280 Pls
688 280 Pls
688 280 Pls
689 280 Pls
689 280 Pls
689 280 Pls
689 280 Pls
689 280 Pls
689 280 Pls
689 280 Pls
690 280 Pls
690 280 Pls
690 280 Pls
690 280 Pls
690 280 Pls
690 280 Pls
690 280 Pls
690 280 Pls
691 280 Pls
691 280 Pls
691 280 Pls
691 280 Pls
691 280 Pls
691 280 Pls
691 280 Pls
691 280 Pls
692 280 Pls
692 280 Pls
692 280 Pls
692 280 Pls
692 280 Pls
692 280 Pls
692 280 Pls
692 280 Pls
693 280 Pls
693 280 Pls
693 280 Pls
693 280 Pls
693 280 Pls
693 280 Pls
693 280 Pls
693 280 Pls
694 280 Pls
694 280 Pls
694 280 Pls
694 280 Pls
694 280 Pls
694 280 Pls
694 280 Pls
694 280 Pls
695 280 Pls
695 280 Pls
695 280 Pls
695 280 Pls
695 280 Pls
695 280 Pls
695 280 Pls
695 280 Pls
696 280 Pls
696 280 Pls
696 280 Pls
696 280 Pls
696 280 Pls
696 280 Pls
696 280 Pls
696 280 Pls
697 280 Pls
697 280 Pls
697 280 Pls
697 280 Pls
697 280 Pls
697 280 Pls
697 280 Pls
697 280 Pls
698 280 Pls
698 280 Pls
698 280 Pls
698 280 Pls
698 280 Pls
698 280 Pls
698 280 Pls
698 280 Pls
699 280 Pls
699 280 Pls
699 280 Pls
699 280 Pls
699 280 Pls
699 280 Pls
699 280 Pls
699 280 Pls
700 280 Pls
700 280 Pls
700 280 Pls
700 280 Pls
700 280 Pls
700 280 Pls
700 280 Pls
700 280 Pls
701 280 Pls
701 280 Pls
701 280 Pls
701 280 Pls
701 280 Pls
701 280 Pls
701 280 Pls
702 280 Pls
702 280 Pls
702 280 Pls
702 280 Pls
702 280 Pls
702 280 Pls
702 280 Pls
702 280 Pls
703 280 Pls
703 280 Pls
703 280 Pls
703 280 Pls
703 280 Pls
703 280 Pls
703 280 Pls
703 280 Pls
704 280 Pls
704 280 Pls
704 280 Pls
704 280 Pls
704 280 Pls
704 280 Pls
704 280 Pls
704 280 Pls
705 280 Pls
705 280 Pls
705 280 Pls
705 280 Pls
705 280 Pls
705 280 Pls
705 280 Pls
705 280 Pls
706 280 Pls
706 280 Pls
706 280 Pls
706 280 Pls
706 280 Pls
706 280 Pls
706 280 Pls
706 280 Pls
707 280 Pls
707 280 Pls
707 280 Pls
707 280 Pls
707 280 Pls
707 280 Pls
707 280 Pls
707 280 Pls
708 280 Pls
708 280 Pls
708 280 Pls
708 280 Pls
708 280 Pls
708 280 Pls
708 280 Pls
708 280 Pls
709 280 Pls
709 280 Pls
709 280 Pls
709 280 Pls
709 280 Pls
709 280 Pls
709 280 Pls
709 280 Pls
710 280 Pls
710 280 Pls
710 280 Pls
710 280 Pls
710 280 Pls
710 280 Pls
710 280 Pls
710 280 Pls
711 280 Pls
711 280 Pls
711 280 Pls
711 280 Pls
711 280 Pls
711 280 Pls
711 280 Pls
711 280 Pls
712 280 Pls
712 280 Pls
712 280 Pls
712 280 Pls
712 280 Pls
712 280 Pls
712 280 Pls
713 280 Pls
713 280 Pls
713 280 Pls
713 280 Pls
713 280 Pls
713 280 Pls
713 280 Pls
713 280 Pls
714 280 Pls
714 280 Pls
714 280 Pls
714 280 Pls
714 280 Pls
714 280 Pls
714 280 Pls
714 280 Pls
715 280 Pls
715 280 Pls
715 280 Pls
715 280 Pls
715 280 Pls
715 280 Pls
715 280 Pls
715 280 Pls
716 280 Pls
716 280 Pls
716 280 Pls
716 280 Pls
716 280 Pls
716 280 Pls
716 280 Pls
716 280 Pls
717 280 Pls
717 280 Pls
717 280 Pls
717 280 Pls
717 280 Pls
717 280 Pls
717 280 Pls
717 280 Pls
718 280 Pls
718 280 Pls
718 280 Pls
718 280 Pls
718 280 Pls
718 280 Pls
718 280 Pls
718 280 Pls
719 280 Pls
719 280 Pls
719 280 Pls
719 280 Pls
719 280 Pls
719 280 Pls
719 280 Pls
719 280 Pls
720 280 Pls
720 280 Pls
720 280 Pls
720 280 Pls
720 280 Pls
720 280 Pls
720 280 Pls
720 280 Pls
721 280 Pls
721 280 Pls
721 280 Pls
721 280 Pls
721 280 Pls
721 280 Pls
721 280 Pls
721 280 Pls
722 280 Pls
722 280 Pls
722 280 Pls
722 280 Pls
722 280 Pls
722 280 Pls
722 280 Pls
722 280 Pls
723 280 Pls
723 280 Pls
723 280 Pls
723 280 Pls
723 280 Pls
723 280 Pls
723 280 Pls
723 280 Pls
724 280 Pls
724 280 Pls
724 280 Pls
724 280 Pls
724 280 Pls
724 280 Pls
724 280 Pls
725 280 Pls
725 280 Pls
725 280 Pls
725 280 Pls
725 280 Pls
725 280 Pls
725 280 Pls
725 280 Pls
726 280 Pls
726 280 Pls
726 280 Pls
726 280 Pls
726 280 Pls
726 280 Pls
726 280 Pls
726 280 Pls
727 280 Pls
727 280 Pls
727 280 Pls
727 280 Pls
727 280 Pls
727 280 Pls
727 280 Pls
727 280 Pls
728 280 Pls
728 280 Pls
728 280 Pls
728 280 Pls
728 280 Pls
728 280 Pls
728 280 Pls
728 280 Pls
729 280 Pls
729 280 Pls
729 280 Pls
729 280 Pls
729 280 Pls
729 280 Pls
729 280 Pls
729 280 Pls
730 280 Pls
730 280 Pls
730 280 Pls
730 280 Pls
730 280 Pls
730 280 Pls
730 280 Pls
730 280 Pls
731 280 Pls
731 280 Pls
731 280 Pls
731 280 Pls
731 280 Pls
731 280 Pls
731 280 Pls
731 280 Pls
732 280 Pls
732 280 Pls
732 280 Pls
732 280 Pls
732 280 Pls
732 280 Pls
732 280 Pls
732 280 Pls
733 280 Pls
733 280 Pls
733 280 Pls
733 280 Pls
733 280 Pls
733 280 Pls
733 280 Pls
733 280 Pls
734 280 Pls
734 280 Pls
734 280 Pls
734 280 Pls
734 280 Pls
734 280 Pls
734 280 Pls
734 280 Pls
735 280 Pls
735 280 Pls
735 280 Pls
735 280 Pls
735 280 Pls
735 280 Pls
735 280 Pls
735 280 Pls
736 280 Pls
736 280 Pls
736 280 Pls
736 280 Pls
736 280 Pls
736 280 Pls
736 280 Pls
737 280 Pls
737 280 Pls
737 280 Pls
737 280 Pls
737 280 Pls
737 280 Pls
737 280 Pls
737 280 Pls
738 280 Pls
738 280 Pls
738 280 Pls
738 280 Pls
738 280 Pls
738 280 Pls
738 280 Pls
738 280 Pls
739 280 Pls
739 280 Pls
739 280 Pls
739 280 Pls
739 280 Pls
739 280 Pls
739 280 Pls
739 280 Pls
740 280 Pls
740 280 Pls
740 280 Pls
740 280 Pls
740 280 Pls
740 280 Pls
740 280 Pls
740 280 Pls
741 280 Pls
741 280 Pls
741 280 Pls
741 280 Pls
741 280 Pls
741 280 Pls
741 280 Pls
741 280 Pls
742 280 Pls
742 280 Pls
742 280 Pls
742 280 Pls
742 280 Pls
742 280 Pls
742 280 Pls
742 280 Pls
743 280 Pls
743 280 Pls
743 280 Pls
743 280 Pls
743 280 Pls
743 280 Pls
743 280 Pls
743 280 Pls
744 280 Pls
744 280 Pls
744 280 Pls
744 280 Pls
744 280 Pls
744 280 Pls
744 280 Pls
744 280 Pls
745 280 Pls
745 280 Pls
745 280 Pls
745 280 Pls
745 280 Pls
745 280 Pls
745 280 Pls
745 280 Pls
746 280 Pls
746 280 Pls
746 280 Pls
746 280 Pls
746 280 Pls
746 280 Pls
746 280 Pls
746 280 Pls
747 280 Pls
747 280 Pls
747 280 Pls
747 280 Pls
747 280 Pls
747 280 Pls
747 280 Pls
747 280 Pls
748 280 Pls
748 280 Pls
748 280 Pls
748 280 Pls
748 280 Pls
748 280 Pls
748 280 Pls
749 280 Pls
749 280 Pls
749 280 Pls
749 280 Pls
749 280 Pls
749 280 Pls
749 280 Pls
749 280 Pls
750 280 Pls
750 280 Pls
750 280 Pls
750 280 Pls
750 280 Pls
750 280 Pls
750 280 Pls
750 280 Pls
751 280 Pls
751 280 Pls
751 280 Pls
751 280 Pls
751 280 Pls
751 280 Pls
751 280 Pls
751 280 Pls
752 280 Pls
752 280 Pls
752 280 Pls
752 280 Pls
752 280 Pls
752 280 Pls
752 280 Pls
752 280 Pls
753 280 Pls
753 280 Pls
753 280 Pls
753 280 Pls
753 280 Pls
753 280 Pls
753 280 Pls
753 280 Pls
754 280 Pls
754 280 Pls
754 280 Pls
754 280 Pls
754 280 Pls
754 280 Pls
754 280 Pls
754 280 Pls
755 280 Pls
755 280 Pls
755 280 Pls
755 280 Pls
755 280 Pls
755 280 Pls
755 280 Pls
755 280 Pls
756 280 Pls
756 280 Pls
756 280 Pls
756 280 Pls
756 280 Pls
756 280 Pls
756 280 Pls
756 280 Pls
757 280 Pls
757 280 Pls
757 280 Pls
757 280 Pls
757 280 Pls
757 280 Pls
757 280 Pls
757 280 Pls
758 280 Pls
758 280 Pls
758 280 Pls
758 280 Pls
758 280 Pls
758 280 Pls
758 280 Pls
758 280 Pls
759 280 Pls
759 280 Pls
759 280 Pls
759 280 Pls
759 280 Pls
759 280 Pls
759 280 Pls
759 280 Pls
760 280 Pls
760 280 Pls
760 280 Pls
760 280 Pls
760 280 Pls
760 280 Pls
760 280 Pls
761 280 Pls
761 280 Pls
761 280 Pls
761 280 Pls
761 280 Pls
761 280 Pls
761 280 Pls
761 280 Pls
762 280 Pls
762 280 Pls
762 280 Pls
762 280 Pls
762 280 Pls
762 280 Pls
762 280 Pls
762 280 Pls
763 280 Pls
763 280 Pls
763 280 Pls
763 280 Pls
763 280 Pls
763 280 Pls
763 280 Pls
763 280 Pls
764 280 Pls
764 280 Pls
764 280 Pls
764 280 Pls
764 280 Pls
764 280 Pls
764 280 Pls
764 280 Pls
765 280 Pls
765 280 Pls
765 280 Pls
765 280 Pls
765 280 Pls
765 280 Pls
765 280 Pls
765 280 Pls
766 280 Pls
766 280 Pls
766 280 Pls
766 280 Pls
766 280 Pls
766 280 Pls
766 280 Pls
766 280 Pls
767 280 Pls
767 280 Pls
767 280 Pls
767 280 Pls
767 280 Pls
767 280 Pls
767 280 Pls
767 280 Pls
768 280 Pls
768 280 Pls
768 280 Pls
768 280 Pls
768 280 Pls
768 280 Pls
768 280 Pls
768 280 Pls
769 280 Pls
769 280 Pls
769 280 Pls
769 280 Pls
769 280 Pls
769 280 Pls
769 280 Pls
769 280 Pls
770 280 Pls
770 280 Pls
770 280 Pls
770 280 Pls
770 280 Pls
770 280 Pls
770 280 Pls
770 280 Pls
771 280 Pls
771 280 Pls
771 280 Pls
771 280 Pls
771 280 Pls
771 280 Pls
771 280 Pls
772 280 Pls
772 280 Pls
772 280 Pls
772 280 Pls
772 280 Pls
772 280 Pls
772 280 Pls
772 280 Pls
773 280 Pls
773 280 Pls
773 280 Pls
773 280 Pls
773 280 Pls
773 280 Pls
773 280 Pls
773 280 Pls
774 280 Pls
774 280 Pls
774 280 Pls
774 280 Pls
774 280 Pls
774 280 Pls
774 280 Pls
774 280 Pls
775 280 Pls
775 280 Pls
775 280 Pls
775 280 Pls
775 280 Pls
775 280 Pls
775 280 Pls
775 280 Pls
776 280 Pls
776 280 Pls
776 280 Pls
776 280 Pls
776 280 Pls
776 280 Pls
776 280 Pls
776 280 Pls
777 280 Pls
777 280 Pls
777 280 Pls
777 280 Pls
777 280 Pls
777 280 Pls
777 280 Pls
777 280 Pls
778 280 Pls
778 280 Pls
778 280 Pls
778 280 Pls
778 280 Pls
778 280 Pls
778 280 Pls
778 280 Pls
779 280 Pls
779 280 Pls
779 280 Pls
779 280 Pls
779 280 Pls
779 280 Pls
779 280 Pls
779 280 Pls
780 280 Pls
780 280 Pls
780 280 Pls
780 280 Pls
780 280 Pls
780 280 Pls
780 280 Pls
780 280 Pls
781 280 Pls
781 280 Pls
781 280 Pls
781 280 Pls
781 280 Pls
781 280 Pls
781 280 Pls
781 280 Pls
782 280 Pls
782 280 Pls
782 280 Pls
782 280 Pls
782 280 Pls
782 280 Pls
782 280 Pls
782 280 Pls
783 280 Pls
783 280 Pls
783 280 Pls
783 280 Pls
783 280 Pls
783 280 Pls
783 280 Pls
784 280 Pls
784 280 Pls
784 280 Pls
784 280 Pls
784 280 Pls
784 280 Pls
784 280 Pls
784 280 Pls
785 280 Pls
785 280 Pls
785 280 Pls
785 280 Pls
785 280 Pls
785 280 Pls
785 280 Pls
785 280 Pls
786 280 Pls
786 280 Pls
786 280 Pls
786 280 Pls
786 280 Pls
786 280 Pls
786 280 Pls
786 280 Pls
787 280 Pls
787 280 Pls
787 280 Pls
787 280 Pls
787 280 Pls
787 280 Pls
787 280 Pls
787 280 Pls
788 280 Pls
788 280 Pls
788 280 Pls
788 280 Pls
788 280 Pls
788 280 Pls
788 280 Pls
788 280 Pls
789 280 Pls
789 280 Pls
789 280 Pls
789 280 Pls
789 280 Pls
789 280 Pls
789 280 Pls
789 280 Pls
790 280 Pls
790 280 Pls
790 280 Pls
790 280 Pls
790 280 Pls
790 280 Pls
790 280 Pls
790 280 Pls
791 280 Pls
791 280 Pls
791 280 Pls
791 280 Pls
791 280 Pls
791 280 Pls
791 280 Pls
791 280 Pls
792 280 Pls
792 280 Pls
792 280 Pls
792 280 Pls
792 280 Pls
792 280 Pls
792 280 Pls
792 280 Pls
793 280 Pls
793 280 Pls
793 280 Pls
793 280 Pls
793 280 Pls
793 280 Pls
793 280 Pls
793 280 Pls
794 280 Pls
794 280 Pls
794 280 Pls
794 280 Pls
794 280 Pls
794 280 Pls
794 280 Pls
794 280 Pls
795 280 Pls
795 280 Pls
795 280 Pls
795 280 Pls
795 280 Pls
795 280 Pls
795 280 Pls
796 280 Pls
796 280 Pls
796 280 Pls
796 280 Pls
796 280 Pls
796 280 Pls
796 280 Pls
796 280 Pls
797 280 Pls
797 280 Pls
797 280 Pls
797 280 Pls
797 280 Pls
797 280 Pls
797 280 Pls
797 280 Pls
798 280 Pls
798 280 Pls
798 280 Pls
798 280 Pls
798 280 Pls
798 280 Pls
798 280 Pls
798 280 Pls
799 280 Pls
799 280 Pls
799 280 Pls
799 280 Pls
799 280 Pls
799 280 Pls
799 280 Pls
799 280 Pls
800 280 Pls
800 280 Pls
800 280 Pls
800 280 Pls
800 280 Pls
800 280 Pls
800 280 Pls
800 280 Pls
801 280 Pls
801 280 Pls
801 280 Pls
801 280 Pls
801 280 Pls
801 280 Pls
801 280 Pls
801 280 Pls
802 280 Pls
802 280 Pls
802 280 Pls
802 280 Pls
802 280 Pls
802 280 Pls
802 280 Pls
802 280 Pls
803 280 Pls
803 280 Pls
803 280 Pls
803 280 Pls
803 280 Pls
803 280 Pls
803 280 Pls
803 280 Pls
804 280 Pls
804 280 Pls
804 280 Pls
804 280 Pls
804 280 Pls
804 280 Pls
804 280 Pls
804 280 Pls
805 280 Pls
805 280 Pls
805 280 Pls
805 280 Pls
805 280 Pls
805 280 Pls
805 280 Pls
805 280 Pls
806 280 Pls
806 280 Pls
806 280 Pls
806 280 Pls
806 280 Pls
806 280 Pls
806 280 Pls
806 280 Pls
807 280 Pls
807 280 Pls
807 280 Pls
807 280 Pls
807 280 Pls
807 280 Pls
807 280 Pls
808 280 Pls
808 280 Pls
808 280 Pls
808 280 Pls
808 280 Pls
808 280 Pls
808 280 Pls
808 280 Pls
809 280 Pls
809 280 Pls
809 280 Pls
809 280 Pls
809 280 Pls
809 280 Pls
809 280 Pls
809 280 Pls
810 280 Pls
810 280 Pls
810 280 Pls
810 280 Pls
810 280 Pls
810 280 Pls
810 280 Pls
810 280 Pls
811 280 Pls
811 280 Pls
811 280 Pls
811 280 Pls
811 280 Pls
811 280 Pls
811 280 Pls
811 280 Pls
812 280 Pls
812 280 Pls
812 280 Pls
812 280 Pls
812 280 Pls
812 280 Pls
812 280 Pls
812 280 Pls
813 280 Pls
813 280 Pls
813 280 Pls
813 280 Pls
813 280 Pls
813 280 Pls
813 280 Pls
813 280 Pls
814 280 Pls
814 280 Pls
814 280 Pls
814 280 Pls
814 280 Pls
814 280 Pls
814 280 Pls
814 280 Pls
815 280 Pls
815 280 Pls
815 280 Pls
815 280 Pls
815 280 Pls
815 280 Pls
815 280 Pls
815 280 Pls
816 280 Pls
816 280 Pls
816 280 Pls
816 280 Pls
816 280 Pls
816 280 Pls
816 280 Pls
816 280 Pls
817 280 Pls
817 280 Pls
817 280 Pls
817 280 Pls
817 280 Pls
817 280 Pls
817 280 Pls
817 280 Pls
818 280 Pls
818 280 Pls
818 280 Pls
818 280 Pls
818 280 Pls
818 280 Pls
818 280 Pls
818 280 Pls
819 280 Pls
819 280 Pls
819 280 Pls
819 280 Pls
819 280 Pls
819 280 Pls
819 280 Pls
820 280 Pls
820 280 Pls
820 280 Pls
820 280 Pls
820 280 Pls
820 280 Pls
820 280 Pls
820 280 Pls
821 280 Pls
821 280 Pls
821 280 Pls
821 280 Pls
821 280 Pls
821 280 Pls
821 280 Pls
821 280 Pls
822 280 Pls
822 280 Pls
822 280 Pls
822 280 Pls
822 280 Pls
822 280 Pls
822 280 Pls
822 280 Pls
823 280 Pls
823 280 Pls
823 280 Pls
823 280 Pls
823 280 Pls
823 280 Pls
823 280 Pls
823 280 Pls
824 280 Pls
824 280 Pls
824 280 Pls
824 280 Pls
824 280 Pls
824 280 Pls
824 280 Pls
824 280 Pls
825 280 Pls
825 280 Pls
825 280 Pls
825 280 Pls
825 280 Pls
825 280 Pls
825 280 Pls
825 280 Pls
826 280 Pls
826 280 Pls
826 280 Pls
826 280 Pls
826 280 Pls
826 280 Pls
826 280 Pls
826 280 Pls
827 280 Pls
827 280 Pls
827 280 Pls
827 280 Pls
827 280 Pls
827 280 Pls
827 280 Pls
827 280 Pls
828 280 Pls
828 280 Pls
828 280 Pls
828 280 Pls
828 280 Pls
828 280 Pls
828 280 Pls
828 280 Pls
829 280 Pls
829 280 Pls
829 280 Pls
829 280 Pls
829 280 Pls
829 280 Pls
829 280 Pls
829 280 Pls
830 280 Pls
830 280 Pls
830 280 Pls
830 280 Pls
830 280 Pls
830 280 Pls
830 280 Pls
831 280 Pls
831 280 Pls
831 280 Pls
831 280 Pls
831 280 Pls
831 280 Pls
831 280 Pls
831 280 Pls
832 280 Pls
832 280 Pls
832 280 Pls
832 280 Pls
832 280 Pls
832 280 Pls
832 280 Pls
832 280 Pls
833 280 Pls
833 280 Pls
833 280 Pls
833 280 Pls
833 280 Pls
833 280 Pls
833 280 Pls
833 280 Pls
834 280 Pls
834 280 Pls
834 280 Pls
834 280 Pls
834 280 Pls
834 280 Pls
834 280 Pls
834 280 Pls
835 280 Pls
835 280 Pls
835 280 Pls
835 280 Pls
835 280 Pls
835 280 Pls
835 280 Pls
835 280 Pls
836 280 Pls
836 280 Pls
836 280 Pls
836 280 Pls
836 280 Pls
836 280 Pls
836 280 Pls
836 280 Pls
837 280 Pls
837 280 Pls
837 280 Pls
837 280 Pls
837 280 Pls
837 280 Pls
837 280 Pls
837 280 Pls
838 280 Pls
838 280 Pls
838 280 Pls
838 280 Pls
838 280 Pls
838 280 Pls
838 280 Pls
838 280 Pls
839 280 Pls
839 280 Pls
839 280 Pls
839 280 Pls
839 280 Pls
839 280 Pls
839 280 Pls
839 280 Pls
840 280 Pls
840 280 Pls
840 280 Pls
840 280 Pls
840 280 Pls
840 280 Pls
840 280 Pls
840 280 Pls
841 280 Pls
841 280 Pls
841 280 Pls
841 280 Pls
841 280 Pls
841 280 Pls
841 280 Pls
841 280 Pls
842 280 Pls
842 280 Pls
842 280 Pls
842 280 Pls
842 280 Pls
842 280 Pls
842 280 Pls
843 280 Pls
843 280 Pls
843 280 Pls
843 280 Pls
843 280 Pls
843 280 Pls
843 280 Pls
843 280 Pls
844 280 Pls
844 280 Pls
844 280 Pls
844 280 Pls
844 280 Pls
844 280 Pls
844 280 Pls
844 280 Pls
845 280 Pls
845 280 Pls
845 280 Pls
845 280 Pls
845 280 Pls
845 280 Pls
845 280 Pls
845 280 Pls
846 280 Pls
846 280 Pls
846 280 Pls
846 280 Pls
846 280 Pls
846 280 Pls
846 280 Pls
846 280 Pls
847 280 Pls
847 280 Pls
847 280 Pls
847 280 Pls
847 280 Pls
847 280 Pls
847 280 Pls
847 280 Pls
848 280 Pls
848 280 Pls
848 280 Pls
848 280 Pls
848 280 Pls
848 280 Pls
848 280 Pls
848 280 Pls
849 280 Pls
849 280 Pls
849 280 Pls
849 280 Pls
849 280 Pls
849 280 Pls
849 280 Pls
849 280 Pls
850 280 Pls
850 280 Pls
850 280 Pls
850 280 Pls
850 280 Pls
850 280 Pls
850 280 Pls
850 280 Pls
851 280 Pls
851 280 Pls
851 280 Pls
851 280 Pls
851 280 Pls
851 280 Pls
851 280 Pls
851 280 Pls
852 280 Pls
852 280 Pls
852 280 Pls
852 280 Pls
852 280 Pls
852 280 Pls
852 280 Pls
852 280 Pls
853 280 Pls
853 280 Pls
853 280 Pls
853 280 Pls
853 280 Pls
853 280 Pls
853 280 Pls
853 280 Pls
854 280 Pls
854 280 Pls
854 280 Pls
854 280 Pls
854 280 Pls
854 280 Pls
854 280 Pls
855 280 Pls
855 280 Pls
855 280 Pls
855 280 Pls
855 280 Pls
855 280 Pls
855 280 Pls
855 280 Pls
856 280 Pls
856 280 Pls
856 280 Pls
856 280 Pls
856 280 Pls
856 280 Pls
856 280 Pls
856 280 Pls
857 280 Pls
857 280 Pls
857 280 Pls
857 280 Pls
857 280 Pls
857 280 Pls
857 280 Pls
857 280 Pls
858 280 Pls
858 280 Pls
858 280 Pls
858 280 Pls
858 280 Pls
858 280 Pls
858 280 Pls
858 280 Pls
859 280 Pls
859 280 Pls
859 280 Pls
859 280 Pls
859 280 Pls
859 280 Pls
859 280 Pls
859 280 Pls
860 280 Pls
860 280 Pls
860 280 Pls
860 280 Pls
860 280 Pls
860 280 Pls
860 280 Pls
860 280 Pls
861 280 Pls
861 280 Pls
861 280 Pls
861 280 Pls
861 280 Pls
861 280 Pls
861 280 Pls
861 280 Pls
862 280 Pls
862 280 Pls
862 280 Pls
862 280 Pls
862 280 Pls
862 280 Pls
862 280 Pls
862 280 Pls
863 280 Pls
863 280 Pls
863 280 Pls
863 280 Pls
863 280 Pls
863 280 Pls
863 280 Pls
863 280 Pls
864 280 Pls
864 280 Pls
864 280 Pls
864 280 Pls
864 280 Pls
864 280 Pls
864 280 Pls
864 280 Pls
865 280 Pls
865 280 Pls
865 280 Pls
865 280 Pls
865 280 Pls
865 280 Pls
865 280 Pls
865 280 Pls
866 280 Pls
866 280 Pls
866 280 Pls
866 280 Pls
866 280 Pls
866 280 Pls
866 280 Pls
867 280 Pls
867 280 Pls
867 280 Pls
867 280 Pls
867 280 Pls
867 280 Pls
867 280 Pls
867 280 Pls
868 280 Pls
868 280 Pls
868 280 Pls
868 280 Pls
868 280 Pls
868 280 Pls
868 280 Pls
868 280 Pls
869 280 Pls
869 280 Pls
869 280 Pls
869 280 Pls
869 280 Pls
869 280 Pls
869 280 Pls
869 280 Pls
870 280 Pls
870 280 Pls
870 280 Pls
870 280 Pls
870 280 Pls
870 280 Pls
870 280 Pls
870 280 Pls
871 280 Pls
871 280 Pls
871 280 Pls
871 280 Pls
871 280 Pls
871 280 Pls
871 280 Pls
871 280 Pls
872 280 Pls
872 280 Pls
872 280 Pls
872 280 Pls
872 280 Pls
872 280 Pls
872 280 Pls
872 280 Pls
873 280 Pls
873 280 Pls
873 280 Pls
873 280 Pls
873 280 Pls
873 280 Pls
873 280 Pls
873 280 Pls
874 280 Pls
874 280 Pls
874 280 Pls
874 280 Pls
874 280 Pls
874 280 Pls
874 280 Pls
874 280 Pls
875 280 Pls
875 280 Pls
875 280 Pls
875 280 Pls
875 280 Pls
875 280 Pls
875 280 Pls
875 280 Pls
876 280 Pls
876 280 Pls
876 280 Pls
876 280 Pls
876 280 Pls
876 280 Pls
876 280 Pls
876 280 Pls
877 280 Pls
877 280 Pls
877 280 Pls
877 280 Pls
877 280 Pls
877 280 Pls
877 280 Pls
878 280 Pls
878 280 Pls
878 280 Pls
878 280 Pls
878 280 Pls
878 280 Pls
878 280 Pls
878 280 Pls
879 280 Pls
879 280 Pls
879 280 Pls
879 280 Pls
879 280 Pls
879 280 Pls
879 280 Pls
879 280 Pls
880 280 Pls
880 280 Pls
880 280 Pls
880 280 Pls
880 280 Pls
880 280 Pls
880 280 Pls
880 280 Pls
881 280 Pls
881 280 Pls
881 280 Pls
881 280 Pls
881 280 Pls
881 280 Pls
881 280 Pls
881 280 Pls
882 280 Pls
882 280 Pls
882 280 Pls
882 280 Pls
882 280 Pls
882 280 Pls
882 280 Pls
882 280 Pls
883 280 Pls
883 280 Pls
883 280 Pls
883 280 Pls
883 280 Pls
883 280 Pls
883 280 Pls
883 280 Pls
884 280 Pls
884 280 Pls
884 280 Pls
884 280 Pls
884 280 Pls
884 280 Pls
884 280 Pls
884 280 Pls
885 280 Pls
885 280 Pls
885 280 Pls
885 280 Pls
885 280 Pls
885 280 Pls
885 280 Pls
885 280 Pls
886 280 Pls
886 280 Pls
886 280 Pls
886 280 Pls
886 280 Pls
886 280 Pls
886 280 Pls
886 280 Pls
887 280 Pls
887 280 Pls
887 280 Pls
887 280 Pls
887 280 Pls
887 280 Pls
887 280 Pls
887 280 Pls
888 280 Pls
888 280 Pls
888 280 Pls
888 280 Pls
888 280 Pls
888 280 Pls
888 280 Pls
888 280 Pls
889 280 Pls
889 280 Pls
889 280 Pls
889 280 Pls
889 280 Pls
889 280 Pls
889 280 Pls
890 280 Pls
890 280 Pls
890 280 Pls
890 280 Pls
890 280 Pls
890 280 Pls
890 280 Pls
890 280 Pls
891 280 Pls
891 280 Pls
891 280 Pls
891 280 Pls
891 280 Pls
891 280 Pls
891 280 Pls
891 280 Pls
892 280 Pls
892 280 Pls
892 280 Pls
892 280 Pls
892 280 Pls
892 280 Pls
892 280 Pls
892 280 Pls
893 280 Pls
893 280 Pls
893 280 Pls
893 280 Pls
893 280 Pls
893 280 Pls
893 280 Pls
893 280 Pls
894 280 Pls
894 280 Pls
894 280 Pls
894 280 Pls
894 280 Pls
894 280 Pls
894 280 Pls
894 280 Pls
895 280 Pls
895 280 Pls
895 280 Pls
895 280 Pls
895 280 Pls
895 280 Pls
895 280 Pls
895 280 Pls
896 280 Pls
896 280 Pls
896 280 Pls
896 280 Pls
896 280 Pls
896 280 Pls
896 280 Pls
896 280 Pls
897 280 Pls
897 280 Pls
897 280 Pls
897 280 Pls
897 280 Pls
897 280 Pls
897 280 Pls
897 280 Pls
898 280 Pls
898 280 Pls
898 280 Pls
898 280 Pls
898 280 Pls
898 280 Pls
898 280 Pls
898 280 Pls
899 280 Pls
899 280 Pls
899 280 Pls
899 280 Pls
899 280 Pls
899 280 Pls
899 280 Pls
899 280 Pls
900 280 Pls
900 280 Pls
900 280 Pls
900 280 Pls
900 280 Pls
900 280 Pls
900 280 Pls
900 280 Pls
901 280 Pls
901 280 Pls
901 280 Pls
901 280 Pls
901 280 Pls
901 280 Pls
901 280 Pls
902 280 Pls
902 280 Pls
902 280 Pls
902 280 Pls
902 280 Pls
902 280 Pls
902 280 Pls
902 280 Pls
903 280 Pls
903 280 Pls
903 280 Pls
903 280 Pls
903 280 Pls
903 280 Pls
903 280 Pls
903 280 Pls
904 280 Pls
904 280 Pls
904 280 Pls
904 280 Pls
904 280 Pls
904 280 Pls
904 280 Pls
904 280 Pls
905 280 Pls
905 280 Pls
905 280 Pls
905 280 Pls
905 280 Pls
905 280 Pls
905 280 Pls
905 280 Pls
906 280 Pls
906 280 Pls
906 280 Pls
906 280 Pls
906 280 Pls
906 280 Pls
906 280 Pls
906 280 Pls
907 280 Pls
907 280 Pls
907 280 Pls
907 280 Pls
907 280 Pls
907 280 Pls
907 280 Pls
907 280 Pls
908 280 Pls
908 280 Pls
908 280 Pls
908 280 Pls
908 280 Pls
908 280 Pls
908 280 Pls
908 280 Pls
909 280 Pls
909 280 Pls
909 280 Pls
909 280 Pls
909 280 Pls
909 280 Pls
909 280 Pls
909 280 Pls
910 280 Pls
910 280 Pls
910 280 Pls
910 280 Pls
910 280 Pls
910 280 Pls
910 280 Pls
910 280 Pls
911 280 Pls
911 280 Pls
911 280 Pls
911 280 Pls
911 280 Pls
911 280 Pls
911 280 Pls
911 280 Pls
912 280 Pls
912 280 Pls
912 280 Pls
912 280 Pls
912 280 Pls
912 280 Pls
912 280 Pls
912 280 Pls
913 280 Pls
913 280 Pls
913 280 Pls
913 280 Pls
913 280 Pls
913 280 Pls
913 280 Pls
914 280 Pls
914 280 Pls
914 280 Pls
914 280 Pls
914 280 Pls
914 280 Pls
914 280 Pls
914 280 Pls
915 280 Pls
915 280 Pls
915 280 Pls
915 280 Pls
915 280 Pls
915 280 Pls
915 280 Pls
915 280 Pls
916 280 Pls
916 280 Pls
916 280 Pls
916 280 Pls
916 280 Pls
916 280 Pls
916 280 Pls
916 280 Pls
917 280 Pls
917 280 Pls
917 280 Pls
917 280 Pls
917 280 Pls
917 280 Pls
917 280 Pls
917 280 Pls
918 280 Pls
918 280 Pls
918 280 Pls
918 280 Pls
918 280 Pls
918 280 Pls
918 280 Pls
918 280 Pls
919 280 Pls
919 280 Pls
919 280 Pls
919 280 Pls
919 280 Pls
919 280 Pls
919 280 Pls
919 280 Pls
920 280 Pls
920 280 Pls
920 280 Pls
920 280 Pls
920 280 Pls
920 280 Pls
920 280 Pls
920 280 Pls
921 280 Pls
921 280 Pls
921 280 Pls
921 280 Pls
921 280 Pls
921 280 Pls
921 280 Pls
921 280 Pls
922 280 Pls
922 280 Pls
922 280 Pls
922 280 Pls
922 280 Pls
922 280 Pls
922 280 Pls
922 280 Pls
923 280 Pls
923 280 Pls
923 280 Pls
923 280 Pls
923 280 Pls
923 280 Pls
923 280 Pls
923 280 Pls
924 280 Pls
924 280 Pls
924 280 Pls
924 280 Pls
924 280 Pls
924 280 Pls
924 280 Pls
924 280 Pls
925 280 Pls
925 280 Pls
925 280 Pls
925 280 Pls
925 280 Pls
925 280 Pls
925 280 Pls
926 280 Pls
926 280 Pls
926 280 Pls
926 280 Pls
926 280 Pls
926 280 Pls
926 280 Pls
926 280 Pls
927 280 Pls
927 280 Pls
927 280 Pls
927 280 Pls
927 280 Pls
927 280 Pls
927 280 Pls
927 280 Pls
928 280 Pls
928 280 Pls
928 280 Pls
928 280 Pls
928 280 Pls
928 280 Pls
928 280 Pls
928 280 Pls
929 280 Pls
929 280 Pls
929 280 Pls
929 280 Pls
929 280 Pls
929 280 Pls
929 280 Pls
929 280 Pls
930 280 Pls
930 280 Pls
930 280 Pls
930 280 Pls
930 280 Pls
930 280 Pls
930 280 Pls
930 280 Pls
931 280 Pls
931 280 Pls
931 280 Pls
931 280 Pls
931 280 Pls
931 280 Pls
931 280 Pls
931 280 Pls
932 280 Pls
932 280 Pls
932 280 Pls
932 280 Pls
932 280 Pls
932 280 Pls
932 280 Pls
932 280 Pls
933 280 Pls
933 280 Pls
933 280 Pls
933 280 Pls
933 280 Pls
933 280 Pls
933 280 Pls
933 280 Pls
934 280 Pls
934 280 Pls
934 280 Pls
934 280 Pls
934 280 Pls
934 280 Pls
934 280 Pls
934 280 Pls
935 280 Pls
935 280 Pls
935 280 Pls
935 280 Pls
935 280 Pls
935 280 Pls
935 280 Pls
935 280 Pls
936 280 Pls
936 280 Pls
936 280 Pls
936 280 Pls
936 280 Pls
936 280 Pls
936 280 Pls
937 280 Pls
937 280 Pls
937 280 Pls
937 280 Pls
937 280 Pls
937 280 Pls
937 280 Pls
937 280 Pls
938 280 Pls
938 280 Pls
938 280 Pls
938 280 Pls
938 280 Pls
938 280 Pls
938 280 Pls
938 280 Pls
939 280 Pls
939 280 Pls
939 280 Pls
939 280 Pls
939 280 Pls
939 280 Pls
939 280 Pls
939 280 Pls
940 280 Pls
940 280 Pls
940 280 Pls
940 280 Pls
940 280 Pls
940 280 Pls
940 280 Pls
940 280 Pls
941 280 Pls
941 280 Pls
941 280 Pls
941 280 Pls
941 280 Pls
941 280 Pls
941 280 Pls
941 280 Pls
942 280 Pls
942 280 Pls
942 280 Pls
942 280 Pls
942 280 Pls
942 280 Pls
942 280 Pls
942 280 Pls
943 280 Pls
943 280 Pls
943 280 Pls
943 280 Pls
943 280 Pls
943 280 Pls
943 280 Pls
943 280 Pls
944 280 Pls
944 280 Pls
944 280 Pls
944 280 Pls
944 280 Pls
944 280 Pls
944 280 Pls
944 280 Pls
945 280 Pls
945 280 Pls
945 280 Pls
945 280 Pls
945 280 Pls
945 280 Pls
945 280 Pls
945 280 Pls
946 280 Pls
946 280 Pls
946 280 Pls
946 280 Pls
946 280 Pls
946 280 Pls
946 280 Pls
946 280 Pls
947 280 Pls
947 280 Pls
947 280 Pls
947 280 Pls
947 280 Pls
947 280 Pls
947 280 Pls
947 280 Pls
948 280 Pls
948 280 Pls
948 280 Pls
948 280 Pls
948 280 Pls
949 280 Pls
949 280 Pls
949 280 Pls
949 280 Pls
949 280 Pls
949 280 Pls
949 280 Pls
949 280 Pls
950 280 Pls
950 280 Pls
950 280 Pls
950 280 Pls
950 280 Pls
950 280 Pls
950 280 Pls
950 280 Pls
951 280 Pls
951 280 Pls
951 280 Pls
951 280 Pls
951 280 Pls
951 280 Pls
951 280 Pls
951 280 Pls
952 280 Pls
952 280 Pls
952 280 Pls
952 280 Pls
952 280 Pls
952 280 Pls
952 280 Pls
952 280 Pls
953 280 Pls
953 280 Pls
953 280 Pls
953 280 Pls
953 280 Pls
953 280 Pls
953 280 Pls
953 280 Pls
954 280 Pls
954 280 Pls
954 280 Pls
954 280 Pls
954 280 Pls
954 280 Pls
954 280 Pls
954 280 Pls
955 280 Pls
955 280 Pls
955 280 Pls
955 280 Pls
955 280 Pls
955 280 Pls
955 280 Pls
956 280 Pls
956 280 Pls
956 280 Pls
956 280 Pls
956 280 Pls
956 280 Pls
956 280 Pls
956 280 Pls
957 280 Pls
957 280 Pls
957 280 Pls
957 280 Pls
957 280 Pls
957 280 Pls
957 280 Pls
957 280 Pls
958 280 Pls
958 280 Pls
958 280 Pls
958 280 Pls
958 280 Pls
958 280 Pls
958 280 Pls
959 280 Pls
959 280 Pls
959 280 Pls
959 280 Pls
959 280 Pls
959 280 Pls
959 280 Pls
959 280 Pls
960 280 Pls
960 280 Pls
960 280 Pls
960 280 Pls
960 280 Pls
960 280 Pls
960 280 Pls
961 280 Pls
961 280 Pls
961 280 Pls
961 280 Pls
961 280 Pls
961 280 Pls
961 280 Pls
961 280 Pls
962 280 Pls
962 280 Pls
962 280 Pls
962 280 Pls
962 280 Pls
962 280 Pls
962 280 Pls
962 280 Pls
963 280 Pls
963 280 Pls
963 280 Pls
963 280 Pls
963 280 Pls
963 280 Pls
963 280 Pls
963 280 Pls
964 280 Pls
964 280 Pls
964 280 Pls
964 280 Pls
964 280 Pls
964 280 Pls
964 280 Pls
964 280 Pls
965 280 Pls
965 280 Pls
965 280 Pls
965 280 Pls
965 280 Pls
965 280 Pls
965 280 Pls
965 280 Pls
966 280 Pls
966 280 Pls
966 280 Pls
966 280 Pls
966 280 Pls
966 280 Pls
966 280 Pls
966 280 Pls
967 280 Pls
967 280 Pls
967 280 Pls
967 280 Pls
967 280 Pls
967 280 Pls
967 280 Pls
967 280 Pls
968 280 Pls
968 280 Pls
968 280 Pls
968 280 Pls
968 280 Pls
968 280 Pls
968 280 Pls
968 280 Pls
969 280 Pls
969 280 Pls
969 280 Pls
969 280 Pls
969 280 Pls
969 280 Pls
969 280 Pls
970 280 Pls
970 280 Pls
970 280 Pls
970 280 Pls
970 280 Pls
970 280 Pls
970 280 Pls
970 280 Pls
971 280 Pls
971 280 Pls
971 280 Pls
971 280 Pls
971 280 Pls
971 280 Pls
971 280 Pls
972 280 Pls
972 280 Pls
972 280 Pls
972 280 Pls
972 280 Pls
972 280 Pls
972 280 Pls
973 280 Pls
973 280 Pls
973 280 Pls
973 280 Pls
973 280 Pls
973 280 Pls
973 280 Pls
974 280 Pls
974 280 Pls
974 280 Pls
974 280 Pls
974 280 Pls
974 280 Pls
974 280 Pls
974 280 Pls
975 280 Pls
975 280 Pls
975 280 Pls
975 280 Pls
975 280 Pls
975 280 Pls
975 280 Pls
975 280 Pls
976 280 Pls
976 280 Pls
976 280 Pls
976 280 Pls
976 280 Pls
976 280 Pls
976 280 Pls
976 280 Pls
977 280 Pls
977 280 Pls
977 280 Pls
977 280 Pls
977 280 Pls
977 280 Pls
977 280 Pls
978 280 Pls
978 280 Pls
978 280 Pls
978 280 Pls
978 280 Pls
978 280 Pls
978 280 Pls
978 280 Pls
979 280 Pls
979 280 Pls
979 280 Pls
979 280 Pls
979 280 Pls
979 280 Pls
979 280 Pls
980 280 Pls
980 280 Pls
980 280 Pls
980 280 Pls
980 280 Pls
980 280 Pls
980 280 Pls
981 280 Pls
981 280 Pls
981 280 Pls
981 280 Pls
981 280 Pls
981 280 Pls
981 280 Pls
981 280 Pls
982 280 Pls
982 280 Pls
982 280 Pls
982 280 Pls
982 280 Pls
982 280 Pls
982 280 Pls
982 280 Pls
983 280 Pls
983 280 Pls
983 280 Pls
983 280 Pls
983 280 Pls
983 280 Pls
984 280 Pls
984 280 Pls
984 280 Pls
984 280 Pls
985 280 Pls
985 280 Pls
985 280 Pls
985 280 Pls
985 280 Pls
985 280 Pls
985 280 Pls
985 280 Pls
986 280 Pls
986 280 Pls
986 280 Pls
986 280 Pls
986 280 Pls
986 280 Pls
986 280 Pls
986 280 Pls
987 280 Pls
987 280 Pls
987 280 Pls
987 280 Pls
987 280 Pls
987 280 Pls
987 280 Pls
987 280 Pls
988 280 Pls
988 280 Pls
988 280 Pls
988 280 Pls
988 280 Pls
988 280 Pls
988 280 Pls
989 280 Pls
989 280 Pls
989 280 Pls
989 280 Pls
989 280 Pls
989 280 Pls
989 280 Pls
989 280 Pls
990 280 Pls
990 280 Pls
990 280 Pls
990 280 Pls
990 280 Pls
990 280 Pls
990 280 Pls
990 280 Pls
991 280 Pls
991 280 Pls
991 280 Pls
991 280 Pls
991 280 Pls
991 280 Pls
991 280 Pls
991 280 Pls
992 280 Pls
992 280 Pls
992 280 Pls
992 280 Pls
992 280 Pls
992 280 Pls
992 280 Pls
993 280 Pls
993 280 Pls
993 280 Pls
993 280 Pls
993 280 Pls
993 280 Pls
993 280 Pls
993 280 Pls
994 280 Pls
994 280 Pls
994 280 Pls
994 280 Pls
994 280 Pls
994 280 Pls
994 280 Pls
995 280 Pls
995 280 Pls
995 280 Pls
995 280 Pls
995 280 Pls
995 280 Pls
995 280 Pls
996 280 Pls
996 280 Pls
996 280 Pls
996 280 Pls
996 280 Pls
996 280 Pls
996 280 Pls
996 280 Pls
997 280 Pls
997 280 Pls
997 280 Pls
997 280 Pls
997 280 Pls
997 280 Pls
997 280 Pls
997 280 Pls
998 280 Pls
998 280 Pls
998 280 Pls
998 280 Pls
998 280 Pls
998 280 Pls
998 280 Pls
998 280 Pls
999 280 Pls
999 280 Pls
999 280 Pls
999 280 Pls
999 280 Pls
999 280 Pls
999 280 Pls
999 280 Pls
1000 280 Pls
1000 280 Pls
1000 280 Pls
1000 280 Pls
1000 280 Pls
1000 280 Pls
1000 280 Pls
1001 280 Pls
1001 280 Pls
1001 280 Pls
1001 280 Pls
1001 280 Pls
1001 280 Pls
1001 280 Pls
1002 280 Pls
1002 280 Pls
1002 280 Pls
1002 280 Pls
1002 280 Pls
1002 280 Pls
1002 280 Pls
1002 280 Pls
1003 280 Pls
1003 280 Pls
1003 280 Pls
1003 280 Pls
1003 280 Pls
1003 280 Pls
1003 280 Pls
1004 280 Pls
1004 280 Pls
1004 280 Pls
1004 280 Pls
1004 280 Pls
1004 280 Pls
1004 280 Pls
1005 280 Pls
1005 280 Pls
1005 280 Pls
1005 280 Pls
1005 280 Pls
1005 280 Pls
1005 280 Pls
1005 280 Pls
1006 280 Pls
1006 280 Pls
1006 280 Pls
1006 280 Pls
1006 280 Pls
1006 280 Pls
1006 280 Pls
1006 280 Pls
1007 280 Pls
1007 280 Pls
1007 280 Pls
1007 280 Pls
1008 280 Pls
1008 280 Pls
1008 280 Pls
1008 280 Pls
1008 280 Pls
1008 280 Pls
1009 280 Pls
1009 280 Pls
1009 280 Pls
1009 280 Pls
1009 280 Pls
1009 280 Pls
1009 280 Pls
1009 280 Pls
1010 280 Pls
1010 280 Pls
1010 280 Pls
1010 280 Pls
1010 280 Pls
1010 280 Pls
1010 280 Pls
1011 280 Pls
1011 280 Pls
1011 280 Pls
1011 280 Pls
1011 280 Pls
1011 280 Pls
1011 280 Pls
1012 280 Pls
1012 280 Pls
1012 280 Pls
1012 280 Pls
1012 280 Pls
1012 280 Pls
1013 280 Pls
1013 280 Pls
1013 280 Pls
1013 280 Pls
1013 280 Pls
1014 280 Pls
1014 280 Pls
1014 280 Pls
1014 280 Pls
1014 280 Pls
1014 280 Pls
1014 280 Pls
1014 280 Pls
1015 280 Pls
1015 280 Pls
1015 280 Pls
1015 280 Pls
1015 280 Pls
1015 280 Pls
1015 280 Pls
1016 280 Pls
1016 280 Pls
1016 280 Pls
1016 280 Pls
1016 280 Pls
1016 280 Pls
1016 280 Pls
1016 280 Pls
1017 280 Pls
1017 280 Pls
1017 280 Pls
1017 280 Pls
1017 280 Pls
1017 280 Pls
1017 280 Pls
1017 280 Pls
1018 280 Pls
1018 280 Pls
1018 280 Pls
1018 280 Pls
1018 280 Pls
1018 280 Pls
1018 280 Pls
1019 280 Pls
1019 280 Pls
1019 280 Pls
1019 280 Pls
1019 280 Pls
1019 280 Pls
1019 280 Pls
1020 280 Pls
1020 280 Pls
1020 280 Pls
1020 280 Pls
1020 280 Pls
1020 280 Pls
1020 280 Pls
1021 280 Pls
1021 280 Pls
1021 280 Pls
1021 280 Pls
1021 280 Pls
1021 280 Pls
1021 280 Pls
1022 280 Pls
1022 280 Pls
1022 280 Pls
1022 280 Pls
1022 280 Pls
1022 280 Pls
1022 280 Pls
1022 280 Pls
1023 280 Pls
1023 280 Pls
1023 280 Pls
1023 280 Pls
1023 280 Pls
1023 280 Pls
1024 280 Pls
1024 280 Pls
1024 280 Pls
1024 280 Pls
1024 280 Pls
1024 280 Pls
1025 280 Pls
1025 280 Pls
1025 280 Pls
1025 280 Pls
1025 280 Pls
1025 280 Pls
1025 280 Pls
1026 280 Pls
1026 280 Pls
1026 280 Pls
1026 280 Pls
1026 280 Pls
1026 280 Pls
1026 280 Pls
1027 280 Pls
1027 280 Pls
1027 280 Pls
1027 280 Pls
1027 280 Pls
1027 280 Pls
1027 280 Pls
1027 280 Pls
1028 280 Pls
1028 280 Pls
1028 280 Pls
1028 280 Pls
1028 280 Pls
1028 280 Pls
1028 280 Pls
1028 280 Pls
1029 280 Pls
1029 280 Pls
1029 280 Pls
1029 280 Pls
1029 280 Pls
1029 280 Pls
1029 280 Pls
1029 280 Pls
1030 280 Pls
1030 280 Pls
1030 280 Pls
1030 280 Pls
1030 280 Pls
1030 280 Pls
1030 280 Pls
1031 280 Pls
1031 280 Pls
1031 280 Pls
1031 280 Pls
1031 280 Pls
1031 280 Pls
1032 280 Pls
1032 280 Pls
1032 280 Pls
1032 280 Pls
1032 280 Pls
1032 280 Pls
1032 280 Pls
1032 280 Pls
1033 280 Pls
1033 280 Pls
1033 280 Pls
1033 280 Pls
1033 280 Pls
1033 280 Pls
1033 280 Pls
1034 280 Pls
1034 280 Pls
1034 280 Pls
1034 280 Pls
1034 280 Pls
1034 280 Pls
1034 280 Pls
1035 280 Pls
1035 280 Pls
1035 280 Pls
1035 280 Pls
1035 280 Pls
1035 280 Pls
1035 280 Pls
1036 280 Pls
1036 280 Pls
1036 280 Pls
1036 280 Pls
1036 280 Pls
1036 280 Pls
1036 280 Pls
1037 280 Pls
1037 280 Pls
1037 280 Pls
1037 280 Pls
1037 280 Pls
1037 280 Pls
1037 280 Pls
1038 280 Pls
1038 280 Pls
1038 280 Pls
1038 280 Pls
1038 280 Pls
1038 280 Pls
1039 280 Pls
1039 280 Pls
1039 280 Pls
1039 280 Pls
1039 280 Pls
1040 280 Pls
1040 280 Pls
1040 280 Pls
1040 280 Pls
1040 280 Pls
1040 280 Pls
1041 280 Pls
1041 280 Pls
1041 280 Pls
1041 280 Pls
1041 280 Pls
1041 280 Pls
1041 280 Pls
1042 280 Pls
1042 280 Pls
1042 280 Pls
1042 280 Pls
1042 280 Pls
1042 280 Pls
1043 280 Pls
1043 280 Pls
1043 280 Pls
1043 280 Pls
1043 280 Pls
1044 280 Pls
1044 280 Pls
1044 280 Pls
1044 280 Pls
1044 280 Pls
1044 280 Pls
1044 280 Pls
1045 280 Pls
1045 280 Pls
1045 280 Pls
1045 280 Pls
1045 280 Pls
1045 280 Pls
1045 280 Pls
1046 280 Pls
1046 280 Pls
1046 280 Pls
1046 280 Pls
1046 280 Pls
1046 280 Pls
1046 280 Pls
1046 280 Pls
1047 280 Pls
1047 280 Pls
1047 280 Pls
1047 280 Pls
1047 280 Pls
1047 280 Pls
1048 280 Pls
1048 280 Pls
1048 280 Pls
1048 280 Pls
1048 280 Pls
1048 280 Pls
1048 280 Pls
1049 280 Pls
1049 280 Pls
1049 280 Pls
1049 280 Pls
1049 280 Pls
1049 280 Pls
1050 280 Pls
1050 280 Pls
1050 280 Pls
1050 280 Pls
1050 280 Pls
1050 280 Pls
1051 280 Pls
1051 280 Pls
1051 280 Pls
1051 280 Pls
1051 280 Pls
1051 280 Pls
1051 280 Pls
1052 280 Pls
1052 280 Pls
1052 280 Pls
1052 280 Pls
1052 280 Pls
1052 280 Pls
1052 280 Pls
1053 280 Pls
1053 280 Pls
1053 280 Pls
1053 280 Pls
1053 280 Pls
1053 280 Pls
1053 280 Pls
1053 280 Pls
1054 280 Pls
1054 280 Pls
1054 280 Pls
1054 280 Pls
1054 280 Pls
1055 280 Pls
1055 280 Pls
1055 280 Pls
1055 280 Pls
1056 280 Pls
1056 280 Pls
1056 280 Pls
1056 280 Pls
1056 280 Pls
1056 280 Pls
1056 280 Pls
1057 280 Pls
1057 280 Pls
1057 280 Pls
1057 280 Pls
1057 280 Pls
1058 280 Pls
1058 280 Pls
1058 280 Pls
1058 280 Pls
1058 280 Pls
1058 280 Pls
1059 280 Pls
1059 280 Pls
1059 280 Pls
1059 280 Pls
1059 280 Pls
1059 280 Pls
1060 280 Pls
1060 280 Pls
1060 280 Pls
1060 280 Pls
1060 280 Pls
1060 280 Pls
1060 280 Pls
1061 280 Pls
1061 280 Pls
1061 280 Pls
1061 280 Pls
1062 280 Pls
1062 280 Pls
1062 280 Pls
1062 280 Pls
1062 280 Pls
1062 280 Pls
1063 280 Pls
1063 280 Pls
1063 280 Pls
1063 280 Pls
1063 280 Pls
1063 280 Pls
1063 280 Pls
1064 280 Pls
1064 280 Pls
1064 280 Pls
1064 280 Pls
1064 280 Pls
1064 280 Pls
1064 280 Pls
1065 280 Pls
1065 280 Pls
1065 280 Pls
1065 280 Pls
1065 280 Pls
1065 280 Pls
1065 280 Pls
1066 280 Pls
1066 280 Pls
1066 280 Pls
1066 280 Pls
1066 280 Pls
1066 280 Pls
1067 280 Pls
1067 280 Pls
1067 280 Pls
1067 280 Pls
1067 280 Pls
1067 280 Pls
1067 280 Pls
1068 280 Pls
1068 280 Pls
1068 280 Pls
1068 280 Pls
1068 280 Pls
1069 280 Pls
1069 280 Pls
1069 280 Pls
1069 280 Pls
1069 280 Pls
1069 280 Pls
1069 280 Pls
1070 280 Pls
1070 280 Pls
1070 280 Pls
1070 280 Pls
1070 280 Pls
1070 280 Pls
1070 280 Pls
1071 280 Pls
1071 280 Pls
1071 280 Pls
1071 280 Pls
1071 280 Pls
1071 280 Pls
1071 280 Pls
1071 280 Pls
1072 280 Pls
1072 280 Pls
1072 280 Pls
1072 280 Pls
1072 280 Pls
1072 280 Pls
1072 280 Pls
1073 280 Pls
1073 280 Pls
1073 280 Pls
1073 280 Pls
1073 280 Pls
1073 280 Pls
1073 280 Pls
1074 280 Pls
1074 280 Pls
1074 280 Pls
1074 280 Pls
1074 280 Pls
1074 280 Pls
1074 280 Pls
1075 280 Pls
1075 280 Pls
1075 280 Pls
1075 280 Pls
1075 280 Pls
1075 280 Pls
1075 280 Pls
1076 280 Pls
1076 280 Pls
1076 280 Pls
1076 280 Pls
1076 280 Pls
1076 280 Pls
1076 280 Pls
1076 280 Pls
1077 280 Pls
1077 280 Pls
1077 280 Pls
1077 280 Pls
1077 280 Pls
1077 280 Pls
1077 280 Pls
1077 280 Pls
1078 280 Pls
1078 280 Pls
1078 280 Pls
1078 280 Pls
1078 280 Pls
1078 280 Pls
1078 280 Pls
1079 280 Pls
1079 280 Pls
1079 280 Pls
1079 280 Pls
1079 280 Pls
1079 280 Pls
1079 280 Pls
1080 280 Pls
1080 280 Pls
1080 280 Pls
1080 280 Pls
1080 280 Pls
1080 280 Pls
1080 280 Pls
1081 280 Pls
1081 280 Pls
1081 280 Pls
1081 280 Pls
1081 280 Pls
1081 280 Pls
1081 280 Pls
1082 280 Pls
1082 280 Pls
1082 280 Pls
1082 280 Pls
1082 280 Pls
1082 280 Pls
1082 280 Pls
1083 280 Pls
1083 280 Pls
1083 280 Pls
1083 280 Pls
1083 280 Pls
1083 280 Pls
1083 280 Pls
1083 280 Pls
1084 280 Pls
1084 280 Pls
1084 280 Pls
1084 280 Pls
1084 280 Pls
1084 280 Pls
1085 280 Pls
1085 280 Pls
1085 280 Pls
1085 280 Pls
1085 280 Pls
1085 280 Pls
1085 280 Pls
1086 280 Pls
1086 280 Pls
1086 280 Pls
1086 280 Pls
1086 280 Pls
1086 280 Pls
1086 280 Pls
1087 280 Pls
1087 280 Pls
1087 280 Pls
1087 280 Pls
1087 280 Pls
1087 280 Pls
1088 280 Pls
1088 280 Pls
1088 280 Pls
1088 280 Pls
1088 280 Pls
1089 280 Pls
1089 280 Pls
1089 280 Pls
1089 280 Pls
1089 280 Pls
1089 280 Pls
1090 280 Pls
1090 280 Pls
1090 280 Pls
1090 280 Pls
1090 280 Pls
1091 280 Pls
1091 280 Pls
1091 280 Pls
1091 280 Pls
1091 280 Pls
1091 280 Pls
1091 280 Pls
1092 280 Pls
1092 280 Pls
1092 280 Pls
1092 280 Pls
1092 280 Pls
1092 280 Pls
1092 280 Pls
1092 280 Pls
1093 280 Pls
1093 280 Pls
1093 280 Pls
1093 280 Pls
1093 280 Pls
1093 280 Pls
1094 280 Pls
1094 280 Pls
1094 280 Pls
1094 280 Pls
1095 280 Pls
1095 280 Pls
1095 280 Pls
1095 280 Pls
1096 280 Pls
1096 280 Pls
1096 280 Pls
1096 280 Pls
1096 280 Pls
1096 280 Pls
1096 280 Pls
1097 280 Pls
1097 280 Pls
1097 280 Pls
1097 280 Pls
1097 280 Pls
1097 280 Pls
1098 280 Pls
1098 280 Pls
1098 280 Pls
1098 280 Pls
1098 280 Pls
1099 280 Pls
1099 280 Pls
1099 280 Pls
1099 280 Pls
1099 280 Pls
1099 280 Pls
1100 280 Pls
1100 280 Pls
1100 280 Pls
1100 280 Pls
1100 280 Pls
1100 280 Pls
1100 280 Pls
1101 280 Pls
1101 280 Pls
1101 280 Pls
1101 280 Pls
1102 280 Pls
1102 280 Pls
1102 280 Pls
1102 280 Pls
1102 280 Pls
1102 280 Pls
1102 280 Pls
1103 280 Pls
1103 280 Pls
1103 280 Pls
1103 280 Pls
1103 280 Pls
1104 280 Pls
1104 280 Pls
1104 280 Pls
1104 280 Pls
1104 280 Pls
1104 280 Pls
1104 280 Pls
1104 280 Pls
1105 280 Pls
1105 280 Pls
1105 280 Pls
1105 280 Pls
1105 280 Pls
1106 280 Pls
1106 280 Pls
1106 280 Pls
1106 280 Pls
1106 280 Pls
1106 280 Pls
1106 280 Pls
1107 280 Pls
1107 280 Pls
1107 280 Pls
1108 280 Pls
1108 280 Pls
1108 280 Pls
1108 280 Pls
1108 280 Pls
1108 280 Pls
1108 280 Pls
1109 280 Pls
1109 280 Pls
1109 280 Pls
1109 280 Pls
1109 280 Pls
1109 280 Pls
1110 280 Pls
1110 280 Pls
1110 280 Pls
1110 280 Pls
1110 280 Pls
1111 280 Pls
1111 280 Pls
1111 280 Pls
1111 280 Pls
1111 280 Pls
1111 280 Pls
1111 280 Pls
1112 280 Pls
1112 280 Pls
1112 280 Pls
1112 280 Pls
1112 280 Pls
1112 280 Pls
1112 280 Pls
1113 280 Pls
1113 280 Pls
1113 280 Pls
1113 280 Pls
1113 280 Pls
1113 280 Pls
1114 280 Pls
1114 280 Pls
1114 280 Pls
1115 280 Pls
1115 280 Pls
1115 280 Pls
1115 280 Pls
1115 280 Pls
1115 280 Pls
1115 280 Pls
1115 280 Pls
1116 280 Pls
1116 280 Pls
1116 280 Pls
1116 280 Pls
1116 280 Pls
1116 280 Pls
1117 280 Pls
1117 280 Pls
1117 280 Pls
1117 280 Pls
1117 280 Pls
1117 280 Pls
1118 280 Pls
1118 280 Pls
1118 280 Pls
1118 280 Pls
1118 280 Pls
1118 280 Pls
1118 280 Pls
1119 280 Pls
1119 280 Pls
1119 280 Pls
1119 280 Pls
1120 280 Pls
1120 280 Pls
1120 280 Pls
1120 280 Pls
1120 280 Pls
1120 280 Pls
1120 280 Pls
1121 280 Pls
1121 280 Pls
1121 280 Pls
1121 280 Pls
1121 280 Pls
1122 280 Pls
1122 280 Pls
1122 280 Pls
1122 280 Pls
1122 280 Pls
1122 280 Pls
1122 280 Pls
1123 280 Pls
1123 280 Pls
1123 280 Pls
1123 280 Pls
1123 280 Pls
1123 280 Pls
1124 280 Pls
1124 280 Pls
1124 280 Pls
1124 280 Pls
1124 280 Pls
1125 280 Pls
1125 280 Pls
1125 280 Pls
1125 280 Pls
1125 280 Pls
1126 280 Pls
1126 280 Pls
1126 280 Pls
1126 280 Pls
1126 280 Pls
1126 280 Pls
1126 280 Pls
1127 280 Pls
1127 280 Pls
1127 280 Pls
1127 280 Pls
1127 280 Pls
1127 280 Pls
1127 280 Pls
1128 280 Pls
1128 280 Pls
1128 280 Pls
1128 280 Pls
1128 280 Pls
1128 280 Pls
1129 280 Pls
1129 280 Pls
1129 280 Pls
1129 280 Pls
1129 280 Pls
1129 280 Pls
1130 280 Pls
1130 280 Pls
1130 280 Pls
1130 280 Pls
1130 280 Pls
1130 280 Pls
1130 280 Pls
1131 280 Pls
1131 280 Pls
1131 280 Pls
1131 280 Pls
1131 280 Pls
1132 280 Pls
1132 280 Pls
1132 280 Pls
1132 280 Pls
1132 280 Pls
1132 280 Pls
1132 280 Pls
1132 280 Pls
1133 280 Pls
1133 280 Pls
1133 280 Pls
1133 280 Pls
1133 280 Pls
1133 280 Pls
1133 280 Pls
1134 280 Pls
1134 280 Pls
1134 280 Pls
1134 280 Pls
1134 280 Pls
1134 280 Pls
1134 280 Pls
1134 280 Pls
1135 280 Pls
1135 280 Pls
1135 280 Pls
1135 280 Pls
1135 280 Pls
1135 280 Pls
1136 280 Pls
1136 280 Pls
1136 280 Pls
1136 280 Pls
1136 280 Pls
1136 280 Pls
1136 280 Pls
1136 280 Pls
1137 280 Pls
1137 280 Pls
1137 280 Pls
1137 280 Pls
1137 280 Pls
1137 280 Pls
1137 280 Pls
1138 280 Pls
1138 280 Pls
1138 280 Pls
1138 280 Pls
1138 280 Pls
1138 280 Pls
1139 280 Pls
1139 280 Pls
1139 280 Pls
1139 280 Pls
1139 280 Pls
1139 280 Pls
1139 280 Pls
1140 280 Pls
1140 280 Pls
1140 280 Pls
1140 280 Pls
1140 280 Pls
1140 280 Pls
1141 280 Pls
1141 280 Pls
1141 280 Pls
1141 280 Pls
1141 280 Pls
1141 280 Pls
1141 280 Pls
1142 280 Pls
1142 280 Pls
1142 280 Pls
1142 280 Pls
1142 280 Pls
1142 280 Pls
1143 280 Pls
1143 280 Pls
1143 280 Pls
1143 280 Pls
1143 280 Pls
1143 280 Pls
1144 280 Pls
1144 280 Pls
1144 280 Pls
1144 280 Pls
1144 280 Pls
1145 280 Pls
1145 280 Pls
1145 280 Pls
1145 280 Pls
1145 280 Pls
1145 280 Pls
1146 280 Pls
1146 280 Pls
1146 280 Pls
1146 280 Pls
1146 280 Pls
1146 280 Pls
1146 280 Pls
1147 280 Pls
1147 280 Pls
1147 280 Pls
1147 280 Pls
1147 280 Pls
1147 280 Pls
1147 280 Pls
1147 280 Pls
1148 280 Pls
1148 280 Pls
1148 280 Pls
1148 280 Pls
1148 280 Pls
1148 280 Pls
1149 280 Pls
1149 280 Pls
1149 280 Pls
1149 280 Pls
1149 280 Pls
1149 280 Pls
1150 280 Pls
1150 280 Pls
1150 280 Pls
1150 280 Pls
1150 280 Pls
1151 280 Pls
1151 280 Pls
1151 280 Pls
1151 280 Pls
1151 280 Pls
1151 280 Pls
1152 280 Pls
1152 280 Pls
1152 280 Pls
1152 280 Pls
1153 280 Pls
1153 280 Pls
1153 280 Pls
1153 280 Pls
1153 280 Pls
1153 280 Pls
1153 280 Pls
1153 280 Pls
1154 280 Pls
1154 280 Pls
1154 280 Pls
1154 280 Pls
1154 280 Pls
1154 280 Pls
1154 280 Pls
1155 280 Pls
1155 280 Pls
1155 280 Pls
1155 280 Pls
1155 280 Pls
1155 280 Pls
1155 280 Pls
1155 280 Pls
1156 280 Pls
1156 280 Pls
1156 280 Pls
1156 280 Pls
1156 280 Pls
1156 280 Pls
1156 280 Pls
1157 280 Pls
1157 280 Pls
1157 280 Pls
1157 280 Pls
1157 280 Pls
1157 280 Pls
1157 280 Pls
1157 280 Pls
1158 280 Pls
1158 280 Pls
1158 280 Pls
1158 280 Pls
1158 280 Pls
1158 280 Pls
1158 280 Pls
1159 280 Pls
1159 280 Pls
1159 280 Pls
1159 280 Pls
1159 280 Pls
1159 280 Pls
1160 280 Pls
1160 280 Pls
1160 280 Pls
1160 280 Pls
1160 280 Pls
1160 280 Pls
1161 280 Pls
1161 280 Pls
1161 280 Pls
1161 280 Pls
1162 280 Pls
1162 280 Pls
1162 280 Pls
1162 280 Pls
1162 280 Pls
1162 280 Pls
1162 280 Pls
1162 280 Pls
1163 280 Pls
1163 280 Pls
1163 280 Pls
1163 280 Pls
1163 280 Pls
1163 280 Pls
1164 280 Pls
1164 280 Pls
1164 280 Pls
1164 280 Pls
1164 280 Pls
1164 280 Pls
1165 280 Pls
1165 280 Pls
1165 280 Pls
1165 280 Pls
1165 280 Pls
1165 280 Pls
1166 280 Pls
1166 280 Pls
1166 280 Pls
1166 280 Pls
1166 280 Pls
1166 280 Pls
1167 280 Pls
1167 280 Pls
1167 280 Pls
1167 280 Pls
1167 280 Pls
1167 280 Pls
1168 280 Pls
1168 280 Pls
1168 280 Pls
1168 280 Pls
1169 280 Pls
1169 280 Pls
1169 280 Pls
1169 280 Pls
1169 280 Pls
1169 280 Pls
1170 280 Pls
1170 280 Pls
1170 280 Pls
1170 280 Pls
1170 280 Pls
1170 280 Pls
1170 280 Pls
1171 280 Pls
1171 280 Pls
1171 280 Pls
1171 280 Pls
1171 280 Pls
1171 280 Pls
1172 280 Pls
1172 280 Pls
1173 280 Pls
1173 280 Pls
1173 280 Pls
1173 280 Pls
1173 280 Pls
1174 280 Pls
1174 280 Pls
1174 280 Pls
1174 280 Pls
1174 280 Pls
1174 280 Pls
1175 280 Pls
1175 280 Pls
1175 280 Pls
1175 280 Pls
1175 280 Pls
1175 280 Pls
1175 280 Pls
1176 280 Pls
1176 280 Pls
1176 280 Pls
1176 280 Pls
1176 280 Pls
1176 280 Pls
1176 280 Pls
1176 280 Pls
1177 280 Pls
1177 280 Pls
1177 280 Pls
1177 280 Pls
1178 280 Pls
1178 280 Pls
1178 280 Pls
1178 280 Pls
1178 280 Pls
1178 280 Pls
1178 280 Pls
1179 280 Pls
1179 280 Pls
1179 280 Pls
1179 280 Pls
1179 280 Pls
1179 280 Pls
1180 280 Pls
1180 280 Pls
1180 280 Pls
1180 280 Pls
1180 280 Pls
1181 280 Pls
1181 280 Pls
1181 280 Pls
1181 280 Pls
1181 280 Pls
1181 280 Pls
1182 280 Pls
1182 280 Pls
1182 280 Pls
1182 280 Pls
1182 280 Pls
1182 280 Pls
1182 280 Pls
1182 280 Pls
1183 280 Pls
1183 280 Pls
1183 280 Pls
1183 280 Pls
1183 280 Pls
1183 280 Pls
1183 280 Pls
1184 280 Pls
1184 280 Pls
1184 280 Pls
1184 280 Pls
1185 280 Pls
1185 280 Pls
1185 280 Pls
1185 280 Pls
1185 280 Pls
1186 280 Pls
1186 280 Pls
1186 280 Pls
1186 280 Pls
1186 280 Pls
1186 280 Pls
1186 280 Pls
1187 280 Pls
1187 280 Pls
1187 280 Pls
1187 280 Pls
1187 280 Pls
1187 280 Pls
1187 280 Pls
1188 280 Pls
1188 280 Pls
1188 280 Pls
1188 280 Pls
1189 280 Pls
1189 280 Pls
1189 280 Pls
1189 280 Pls
1189 280 Pls
1189 280 Pls
1189 280 Pls
1190 280 Pls
1190 280 Pls
1190 280 Pls
1190 280 Pls
1191 280 Pls
1191 280 Pls
1191 280 Pls
1191 280 Pls
1191 280 Pls
1191 280 Pls
1191 280 Pls
1192 280 Pls
1192 280 Pls
1192 280 Pls
1192 280 Pls
1192 280 Pls
1192 280 Pls
1192 280 Pls
1193 280 Pls
1193 280 Pls
1193 280 Pls
1194 280 Pls
1194 280 Pls
1194 280 Pls
1194 280 Pls
1195 280 Pls
1195 280 Pls
1195 280 Pls
1195 280 Pls
1195 280 Pls
1195 280 Pls
1196 280 Pls
1196 280 Pls
1196 280 Pls
1196 280 Pls
1196 280 Pls
1196 280 Pls
1197 280 Pls
1197 280 Pls
1197 280 Pls
1197 280 Pls
1197 280 Pls
1198 280 Pls
1198 280 Pls
1198 280 Pls
1198 280 Pls
1198 280 Pls
1198 280 Pls
1198 280 Pls
1199 280 Pls
1199 280 Pls
1199 280 Pls
1199 280 Pls
1199 280 Pls
1199 280 Pls
1199 280 Pls
1199 280 Pls
1200 280 Pls
1200 280 Pls
1200 280 Pls
1200 280 Pls
1200 280 Pls
1201 280 Pls
1201 280 Pls
1201 280 Pls
1201 280 Pls
1201 280 Pls
1201 280 Pls
1202 280 Pls
1202 280 Pls
1202 280 Pls
1202 280 Pls
1203 280 Pls
1203 280 Pls
1203 280 Pls
1203 280 Pls
1203 280 Pls
1203 280 Pls
1203 280 Pls
1204 280 Pls
1204 280 Pls
1204 280 Pls
1204 280 Pls
1204 280 Pls
1204 280 Pls
1205 280 Pls
1205 280 Pls
1205 280 Pls
1205 280 Pls
1205 280 Pls
1205 280 Pls
1205 280 Pls
1206 280 Pls
1206 280 Pls
1206 280 Pls
1206 280 Pls
1206 280 Pls
1206 280 Pls
1206 280 Pls
1207 280 Pls
1207 280 Pls
1207 280 Pls
1207 280 Pls
1207 280 Pls
1207 280 Pls
1208 280 Pls
1208 280 Pls
1208 280 Pls
1208 280 Pls
1208 280 Pls
1208 280 Pls
1208 280 Pls
1208 280 Pls
1209 280 Pls
1209 280 Pls
1209 280 Pls
1210 280 Pls
1210 280 Pls
1210 280 Pls
1210 280 Pls
1210 280 Pls
1210 280 Pls
1210 280 Pls
1211 280 Pls
1211 280 Pls
1211 280 Pls
1211 280 Pls
1211 280 Pls
1211 280 Pls
1211 280 Pls
1212 280 Pls
1212 280 Pls
1212 280 Pls
1212 280 Pls
1212 280 Pls
1213 280 Pls
1213 280 Pls
1213 280 Pls
1213 280 Pls
1213 280 Pls
1213 280 Pls
1214 280 Pls
1214 280 Pls
1214 280 Pls
1214 280 Pls
1214 280 Pls
1214 280 Pls
1214 280 Pls
1215 280 Pls
1215 280 Pls
1215 280 Pls
1215 280 Pls
1215 280 Pls
1216 280 Pls
1216 280 Pls
1216 280 Pls
1216 280 Pls
1216 280 Pls
1216 280 Pls
1217 280 Pls
1217 280 Pls
1217 280 Pls
1217 280 Pls
1217 280 Pls
1217 280 Pls
1217 280 Pls
1218 280 Pls
1218 280 Pls
1218 280 Pls
1218 280 Pls
1218 280 Pls
1218 280 Pls
1218 280 Pls
1219 280 Pls
1219 280 Pls
1219 280 Pls
1219 280 Pls
1219 280 Pls
1220 280 Pls
1220 280 Pls
1220 280 Pls
1220 280 Pls
1221 280 Pls
1221 280 Pls
1221 280 Pls
1221 280 Pls
1221 280 Pls
1221 280 Pls
1222 280 Pls
1222 280 Pls
1222 280 Pls
1222 280 Pls
1223 280 Pls
1223 280 Pls
1223 280 Pls
1223 280 Pls
1223 280 Pls
1223 280 Pls
1224 280 Pls
1224 280 Pls
1224 280 Pls
1224 280 Pls
1224 280 Pls
1224 280 Pls
1224 280 Pls
1224 280 Pls
1225 280 Pls
1225 280 Pls
1225 280 Pls
1225 280 Pls
1226 280 Pls
1226 280 Pls
1226 280 Pls
1226 280 Pls
1226 280 Pls
1226 280 Pls
1227 280 Pls
1227 280 Pls
1227 280 Pls
1227 280 Pls
1227 280 Pls
1227 280 Pls
1227 280 Pls
1228 280 Pls
1228 280 Pls
1228 280 Pls
1228 280 Pls
1229 280 Pls
1229 280 Pls
1229 280 Pls
1229 280 Pls
1229 280 Pls
1230 280 Pls
1230 280 Pls
1230 280 Pls
1230 280 Pls
1230 280 Pls
1230 280 Pls
1230 280 Pls
1230 280 Pls
1231 280 Pls
1231 280 Pls
1231 280 Pls
1231 280 Pls
1232 280 Pls
1232 280 Pls
1232 280 Pls
1232 280 Pls
1232 280 Pls
1232 280 Pls
1232 280 Pls
1232 280 Pls
1233 280 Pls
1233 280 Pls
1233 280 Pls
1233 280 Pls
1233 280 Pls
1233 280 Pls
1233 280 Pls
1233 280 Pls
1234 280 Pls
1234 280 Pls
1234 280 Pls
1234 280 Pls
1234 280 Pls
1234 280 Pls
1234 280 Pls
1235 280 Pls
1235 280 Pls
1235 280 Pls
1235 280 Pls
1235 280 Pls
1235 280 Pls
1235 280 Pls
1236 280 Pls
1236 280 Pls
1236 280 Pls
1236 280 Pls
1236 280 Pls
1237 280 Pls
1237 280 Pls
1237 280 Pls
1237 280 Pls
1237 280 Pls
1237 280 Pls
1237 280 Pls
1238 280 Pls
1238 280 Pls
1238 280 Pls
1238 280 Pls
1238 280 Pls
1238 280 Pls
1238 280 Pls
1239 280 Pls
1239 280 Pls
1239 280 Pls
1239 280 Pls
1239 280 Pls
1239 280 Pls
1240 280 Pls
1240 280 Pls
1240 280 Pls
1240 280 Pls
1240 280 Pls
1240 280 Pls
1241 280 Pls
1241 280 Pls
1241 280 Pls
1241 280 Pls
1241 280 Pls
1241 280 Pls
1241 280 Pls
1242 280 Pls
1242 280 Pls
1242 280 Pls
1242 280 Pls
1242 280 Pls
1242 280 Pls
1242 280 Pls
1242 280 Pls
1243 280 Pls
1243 280 Pls
1243 280 Pls
1243 280 Pls
1243 280 Pls
1243 280 Pls
1244 280 Pls
1244 280 Pls
1244 280 Pls
1244 280 Pls
1244 280 Pls
1244 280 Pls
1244 280 Pls
1244 280 Pls
1245 280 Pls
1245 280 Pls
1245 280 Pls
1245 280 Pls
1245 280 Pls
1245 280 Pls
1246 280 Pls
1246 280 Pls
1246 280 Pls
1246 280 Pls
1246 280 Pls
1246 280 Pls
1246 280 Pls
1247 280 Pls
1247 280 Pls
1247 280 Pls
1247 280 Pls
1247 280 Pls
1248 280 Pls
1248 280 Pls
1248 280 Pls
1248 280 Pls
1248 280 Pls
1249 280 Pls
1249 280 Pls
1249 280 Pls
1249 280 Pls
1249 280 Pls
1249 280 Pls
1250 280 Pls
1250 280 Pls
1250 280 Pls
1250 280 Pls
1250 280 Pls
1251 280 Pls
1251 280 Pls
1251 280 Pls
1251 280 Pls
1251 280 Pls
1251 280 Pls
1252 280 Pls
1252 280 Pls
1252 280 Pls
1252 280 Pls
1252 280 Pls
1253 280 Pls
1253 280 Pls
1253 280 Pls
1253 280 Pls
1254 280 Pls
1254 280 Pls
1254 280 Pls
1254 280 Pls
1254 280 Pls
1254 280 Pls
1255 280 Pls
1255 280 Pls
1255 280 Pls
1255 280 Pls
1255 280 Pls
1255 280 Pls
1256 280 Pls
1256 280 Pls
1256 280 Pls
1256 280 Pls
1256 280 Pls
1256 280 Pls
1257 280 Pls
1257 280 Pls
1257 280 Pls
1257 280 Pls
1257 280 Pls
1257 280 Pls
1257 280 Pls
1257 280 Pls
1258 280 Pls
1258 280 Pls
1258 280 Pls
1258 280 Pls
1258 280 Pls
1258 280 Pls
1258 280 Pls
1259 280 Pls
1259 280 Pls
1259 280 Pls
1259 280 Pls
1259 280 Pls
1259 280 Pls
1260 280 Pls
1260 280 Pls
1260 280 Pls
1260 280 Pls
1260 280 Pls
1260 280 Pls
1260 280 Pls
1261 280 Pls
1261 280 Pls
1261 280 Pls
1261 280 Pls
1261 280 Pls
1262 280 Pls
1262 280 Pls
1262 280 Pls
1262 280 Pls
1262 280 Pls
1262 280 Pls
1262 280 Pls
1262 280 Pls
1263 280 Pls
1263 280 Pls
1263 280 Pls
1263 280 Pls
1263 280 Pls
1263 280 Pls
1264 280 Pls
1264 280 Pls
1264 280 Pls
1264 280 Pls
1264 280 Pls
1264 280 Pls
1264 280 Pls
1265 280 Pls
1265 280 Pls
1265 280 Pls
1265 280 Pls
1265 280 Pls
1265 280 Pls
1265 280 Pls
1266 280 Pls
1266 280 Pls
1266 280 Pls
1266 280 Pls
1266 280 Pls
1267 280 Pls
1267 280 Pls
1267 280 Pls
1267 280 Pls
1267 280 Pls
1267 280 Pls
1268 280 Pls
1268 280 Pls
1268 280 Pls
1268 280 Pls
1269 280 Pls
1269 280 Pls
1269 280 Pls
1269 280 Pls
1269 280 Pls
1269 280 Pls
1270 280 Pls
1270 280 Pls
1270 280 Pls
1270 280 Pls
1270 280 Pls
1270 280 Pls
1270 280 Pls
1271 280 Pls
1271 280 Pls
1271 280 Pls
1271 280 Pls
1271 280 Pls
1271 280 Pls
1272 280 Pls
1272 280 Pls
1272 280 Pls
1272 280 Pls
1272 280 Pls
1272 280 Pls
1273 280 Pls
1273 280 Pls
1273 280 Pls
1274 280 Pls
1274 280 Pls
1274 280 Pls
1274 280 Pls
1274 280 Pls
1274 280 Pls
1274 280 Pls
1275 280 Pls
1275 280 Pls
1275 280 Pls
1275 280 Pls
1276 280 Pls
1276 280 Pls
1276 280 Pls
1276 280 Pls
1276 280 Pls
1276 280 Pls
1276 280 Pls
1277 280 Pls
1277 280 Pls
1277 280 Pls
1277 280 Pls
1277 280 Pls
1278 280 Pls
1278 280 Pls
1278 280 Pls
1278 280 Pls
1278 280 Pls
1278 280 Pls
1279 280 Pls
1279 280 Pls
1279 280 Pls
1279 280 Pls
1279 280 Pls
1279 280 Pls
1280 280 Pls
1280 280 Pls
1280 280 Pls
1280 280 Pls
1280 280 Pls
1280 280 Pls
1281 280 Pls
1281 280 Pls
1281 280 Pls
1281 280 Pls
1281 280 Pls
1281 280 Pls
1281 280 Pls
1281 280 Pls
1282 280 Pls
1282 280 Pls
1282 280 Pls
1282 280 Pls
1282 280 Pls
1283 280 Pls
1283 280 Pls
1283 280 Pls
1283 280 Pls
1284 280 Pls
1284 280 Pls
1284 280 Pls
1284 280 Pls
1284 280 Pls
1284 280 Pls
1285 280 Pls
1285 280 Pls
1285 280 Pls
1285 280 Pls
1285 280 Pls
1285 280 Pls
1285 280 Pls
1286 280 Pls
1286 280 Pls
1286 280 Pls
1286 280 Pls
1286 280 Pls
1286 280 Pls
1287 280 Pls
1287 280 Pls
1287 280 Pls
1287 280 Pls
1287 280 Pls
1287 280 Pls
1288 280 Pls
1288 280 Pls
1288 280 Pls
1288 280 Pls
1288 280 Pls
1289 280 Pls
1289 280 Pls
1289 280 Pls
1289 280 Pls
1289 280 Pls
1289 280 Pls
1290 280 Pls
1290 280 Pls
1290 280 Pls
1290 280 Pls
1290 280 Pls
1291 280 Pls
1291 280 Pls
1291 280 Pls
1291 280 Pls
1291 280 Pls
1291 280 Pls
1292 280 Pls
1292 280 Pls
1292 280 Pls
1292 280 Pls
1292 280 Pls
1293 280 Pls
1293 280 Pls
1293 280 Pls
1293 280 Pls
1293 280 Pls
1293 280 Pls
1294 280 Pls
1294 280 Pls
1294 280 Pls
1294 280 Pls
1294 280 Pls
1295 280 Pls
1295 280 Pls
1295 280 Pls
1295 280 Pls
1295 280 Pls
1295 280 Pls
1296 280 Pls
1296 280 Pls
1296 280 Pls
1296 280 Pls
1296 280 Pls
1296 280 Pls
1297 280 Pls
1297 280 Pls
1297 280 Pls
1297 280 Pls
1297 280 Pls
1297 280 Pls
1297 280 Pls
1298 280 Pls
1298 280 Pls
1298 280 Pls
1299 280 Pls
1299 280 Pls
1299 280 Pls
1300 280 Pls
1300 280 Pls
1300 280 Pls
1300 280 Pls
1300 280 Pls
1300 280 Pls
1301 280 Pls
1301 280 Pls
1301 280 Pls
1301 280 Pls
1301 280 Pls
1301 280 Pls
1302 280 Pls
1302 280 Pls
1302 280 Pls
1302 280 Pls
1303 280 Pls
1303 280 Pls
1303 280 Pls
1304 280 Pls
1304 280 Pls
1304 280 Pls
1304 280 Pls
1304 280 Pls
1304 280 Pls
1305 280 Pls
1305 280 Pls
1305 280 Pls
1305 280 Pls
1305 280 Pls
1306 280 Pls
1306 280 Pls
1306 280 Pls
1306 280 Pls
1307 280 Pls
1307 280 Pls
1307 280 Pls
1307 280 Pls
1307 280 Pls
1307 280 Pls
1308 280 Pls
1308 280 Pls
1309 280 Pls
1309 280 Pls
1309 280 Pls
1309 280 Pls
1309 280 Pls
1310 280 Pls
1310 280 Pls
1310 280 Pls
1310 280 Pls
1310 280 Pls
1311 280 Pls
1311 280 Pls
1311 280 Pls
1311 280 Pls
1311 280 Pls
1312 280 Pls
1312 280 Pls
1312 280 Pls
1312 280 Pls
1312 280 Pls
1313 280 Pls
1313 280 Pls
1313 280 Pls
1313 280 Pls
1313 280 Pls
1313 280 Pls
1314 280 Pls
1314 280 Pls
1314 280 Pls
1314 280 Pls
1315 280 Pls
1315 280 Pls
1315 280 Pls
1315 280 Pls
1315 280 Pls
1316 280 Pls
1316 280 Pls
1316 280 Pls
1316 280 Pls
1316 280 Pls
1317 280 Pls
1317 280 Pls
1317 280 Pls
1317 280 Pls
1317 280 Pls
1317 280 Pls
1318 280 Pls
1318 280 Pls
1318 280 Pls
1318 280 Pls
1318 280 Pls
1318 280 Pls
1318 280 Pls
1318 280 Pls
1319 280 Pls
1319 280 Pls
1319 280 Pls
1319 280 Pls
1319 280 Pls
1319 280 Pls
1320 280 Pls
1320 280 Pls
1320 280 Pls
1320 280 Pls
1320 280 Pls
1320 280 Pls
1321 280 Pls
1321 280 Pls
1321 280 Pls
1321 280 Pls
1321 280 Pls
1321 280 Pls
1322 280 Pls
1322 280 Pls
1322 280 Pls
1322 280 Pls
1322 280 Pls
1322 280 Pls
1323 280 Pls
1323 280 Pls
1323 280 Pls
1323 280 Pls
1323 280 Pls
1323 280 Pls
1324 280 Pls
1324 280 Pls
1324 280 Pls
1324 280 Pls
1324 280 Pls
1325 280 Pls
1325 280 Pls
1325 280 Pls
1325 280 Pls
1326 280 Pls
1326 280 Pls
1326 280 Pls
1326 280 Pls
1326 280 Pls
1326 280 Pls
1327 280 Pls
1327 280 Pls
1327 280 Pls
1327 280 Pls
1327 280 Pls
1327 280 Pls
1328 280 Pls
1328 280 Pls
1328 280 Pls
1328 280 Pls
1328 280 Pls
1328 280 Pls
1328 280 Pls
1329 280 Pls
1329 280 Pls
1329 280 Pls
1330 280 Pls
1330 280 Pls
1330 280 Pls
1330 280 Pls
1330 280 Pls
1330 280 Pls
1331 280 Pls
1331 280 Pls
1331 280 Pls
1331 280 Pls
1331 280 Pls
1331 280 Pls
1331 280 Pls
1332 280 Pls
1332 280 Pls
1332 280 Pls
1332 280 Pls
1333 280 Pls
1333 280 Pls
1333 280 Pls
1333 280 Pls
1333 280 Pls
1333 280 Pls
1334 280 Pls
1334 280 Pls
1334 280 Pls
1334 280 Pls
1334 280 Pls
1335 280 Pls
1335 280 Pls
1335 280 Pls
1335 280 Pls
1336 280 Pls
1336 280 Pls
1336 280 Pls
1336 280 Pls
1337 280 Pls
1337 280 Pls
1337 280 Pls
1337 280 Pls
1338 280 Pls
1338 280 Pls
1338 280 Pls
1338 280 Pls
1338 280 Pls
1339 280 Pls
1339 280 Pls
1339 280 Pls
1340 280 Pls
1340 280 Pls
1340 280 Pls
1341 280 Pls
1341 280 Pls
1341 280 Pls
1341 280 Pls
1341 280 Pls
1342 280 Pls
1342 280 Pls
1342 280 Pls
1342 280 Pls
1342 280 Pls
1343 280 Pls
1343 280 Pls
1343 280 Pls
1343 280 Pls
1343 280 Pls
1344 280 Pls
1344 280 Pls
1344 280 Pls
1344 280 Pls
1344 280 Pls
1345 280 Pls
1345 280 Pls
1345 280 Pls
1345 280 Pls
1345 280 Pls
1346 280 Pls
1346 280 Pls
1346 280 Pls
1346 280 Pls
1346 280 Pls
1346 280 Pls
1347 280 Pls
1347 280 Pls
1347 280 Pls
1347 280 Pls
1348 280 Pls
1348 280 Pls
1348 280 Pls
1348 280 Pls
1348 280 Pls
1349 280 Pls
1349 280 Pls
1349 280 Pls
1349 280 Pls
1349 280 Pls
1350 280 Pls
1350 280 Pls
1350 280 Pls
1350 280 Pls
1350 280 Pls
1351 280 Pls
1351 280 Pls
1351 280 Pls
1351 280 Pls
1351 280 Pls
1352 280 Pls
1352 280 Pls
1352 280 Pls
1353 280 Pls
1353 280 Pls
1353 280 Pls
1353 280 Pls
1354 280 Pls
1354 280 Pls
1354 280 Pls
1354 280 Pls
1354 280 Pls
1355 280 Pls
1355 280 Pls
1355 280 Pls
1355 280 Pls
1355 280 Pls
1355 280 Pls
1355 280 Pls
1355 280 Pls
1356 280 Pls
1356 280 Pls
1356 280 Pls
1356 280 Pls
1357 280 Pls
1357 280 Pls
1357 280 Pls
1357 280 Pls
1357 280 Pls
1357 280 Pls
1358 280 Pls
1358 280 Pls
1358 280 Pls
1358 280 Pls
1358 280 Pls
1359 280 Pls
1359 280 Pls
1359 280 Pls
1359 280 Pls
1360 280 Pls
1360 280 Pls
1360 280 Pls
1361 280 Pls
1361 280 Pls
1361 280 Pls
1361 280 Pls
1362 280 Pls
1362 280 Pls
1362 280 Pls
1362 280 Pls
1363 280 Pls
1363 280 Pls
1363 280 Pls
1363 280 Pls
1364 280 Pls
1364 280 Pls
1365 280 Pls
1365 280 Pls
1365 280 Pls
1366 280 Pls
1366 280 Pls
1366 280 Pls
1366 280 Pls
1367 280 Pls
1367 280 Pls
1367 280 Pls
1368 280 Pls
1368 280 Pls
1368 280 Pls
1368 280 Pls
1368 280 Pls
1368 280 Pls
1369 280 Pls
1369 280 Pls
1369 280 Pls
1369 280 Pls
1369 280 Pls
1370 280 Pls
1370 280 Pls
1370 280 Pls
1370 280 Pls
1370 280 Pls
1371 280 Pls
1371 280 Pls
1371 280 Pls
1371 280 Pls
1371 280 Pls
1371 280 Pls
1372 280 Pls
1372 280 Pls
1372 280 Pls
1372 280 Pls
1372 280 Pls
1373 280 Pls
1373 280 Pls
1373 280 Pls
1373 280 Pls
1374 280 Pls
1374 280 Pls
1374 280 Pls
1374 280 Pls
1375 280 Pls
1375 280 Pls
1375 280 Pls
1375 280 Pls
1375 280 Pls
1375 280 Pls
1376 280 Pls
1376 280 Pls
1377 280 Pls
1377 280 Pls
1377 280 Pls
1377 280 Pls
1377 280 Pls
1378 280 Pls
1378 280 Pls
1378 280 Pls
1378 280 Pls
1378 280 Pls
1378 280 Pls
1378 280 Pls
1378 280 Pls
1379 280 Pls
1379 280 Pls
1379 280 Pls
1379 280 Pls
1379 280 Pls
1379 280 Pls
1379 280 Pls
1380 280 Pls
1380 280 Pls
1380 280 Pls
1380 280 Pls
1380 280 Pls
1381 280 Pls
1382 280 Pls
1382 280 Pls
1382 280 Pls
1383 280 Pls
1383 280 Pls
1384 280 Pls
1384 280 Pls
1385 280 Pls
1385 280 Pls
1385 280 Pls
1386 280 Pls
1386 280 Pls
1386 280 Pls
1387 280 Pls
1387 280 Pls
1387 280 Pls
1388 280 Pls
1388 280 Pls
1388 280 Pls
1388 280 Pls
1389 280 Pls
1389 280 Pls
1389 280 Pls
1389 280 Pls
1389 280 Pls
1390 280 Pls
1390 280 Pls
1390 280 Pls
1391 280 Pls
1391 280 Pls
1391 280 Pls
1392 280 Pls
1392 280 Pls
1392 280 Pls
1392 280 Pls
1393 280 Pls
1393 280 Pls
1393 280 Pls
1393 280 Pls
1393 280 Pls
1394 280 Pls
1394 280 Pls
1394 280 Pls
1394 280 Pls
1394 280 Pls
1394 280 Pls
1395 280 Pls
1395 280 Pls
1395 280 Pls
1395 280 Pls
1396 280 Pls
1396 280 Pls
1396 280 Pls
1396 280 Pls
1396 280 Pls
1397 280 Pls
1397 280 Pls
1397 280 Pls
1397 280 Pls
1397 280 Pls
1398 280 Pls
1398 280 Pls
1398 280 Pls
1398 280 Pls
1399 280 Pls
1399 280 Pls
1399 280 Pls
1400 280 Pls
1400 280 Pls
1400 280 Pls
1400 280 Pls
1401 280 Pls
1401 280 Pls
1402 280 Pls
1403 280 Pls
1403 280 Pls
1403 280 Pls
1403 280 Pls
1404 280 Pls
1404 280 Pls
1405 280 Pls
1405 280 Pls
1405 280 Pls
1405 280 Pls
1406 280 Pls
1406 280 Pls
1407 280 Pls
1407 280 Pls
1408 280 Pls
1408 280 Pls
1408 280 Pls
1409 280 Pls
1409 280 Pls
1409 280 Pls
1409 280 Pls
1409 280 Pls
1409 280 Pls
1410 280 Pls
1410 280 Pls
1410 280 Pls
1410 280 Pls
1411 280 Pls
1411 280 Pls
1411 280 Pls
1412 280 Pls
1412 280 Pls
1412 280 Pls
1412 280 Pls
1412 280 Pls
1413 280 Pls
1413 280 Pls
1413 280 Pls
1413 280 Pls
1413 280 Pls
1414 280 Pls
1414 280 Pls
1415 280 Pls
1415 280 Pls
1415 280 Pls
1415 280 Pls
1416 280 Pls
1417 280 Pls
1417 280 Pls
1417 280 Pls
1418 280 Pls
1418 280 Pls
1418 280 Pls
1419 280 Pls
1419 280 Pls
1419 280 Pls
1420 280 Pls
1420 280 Pls
1420 280 Pls
1420 280 Pls
1420 280 Pls
1421 280 Pls
1422 280 Pls
1422 280 Pls
1422 280 Pls
1422 280 Pls
1423 280 Pls
1423 280 Pls
1423 280 Pls
1424 280 Pls
1424 280 Pls
1424 280 Pls
1425 280 Pls
1425 280 Pls
1425 280 Pls
1426 280 Pls
1426 280 Pls
1426 280 Pls
1427 280 Pls
1427 280 Pls
1427 280 Pls
1427 280 Pls
1427 280 Pls
1427 280 Pls
1428 280 Pls
1428 280 Pls
1429 280 Pls
1429 280 Pls
1430 280 Pls
1430 280 Pls
1430 280 Pls
1430 280 Pls
1431 280 Pls
1431 280 Pls
1431 280 Pls
1431 280 Pls
1431 280 Pls
1432 280 Pls
1432 280 Pls
1432 280 Pls
1433 280 Pls
1433 280 Pls
1433 280 Pls
1433 280 Pls
1434 280 Pls
1434 280 Pls
1435 280 Pls
1435 280 Pls
1436 280 Pls
1436 280 Pls
1436 280 Pls
1436 280 Pls
1437 280 Pls
1437 280 Pls
1437 280 Pls
1437 280 Pls
1438 280 Pls
1438 280 Pls
1439 280 Pls
1439 280 Pls
1439 280 Pls
1440 280 Pls
1440 280 Pls
1440 280 Pls
1441 280 Pls
1442 280 Pls
1442 280 Pls
1442 280 Pls
1443 280 Pls
1444 280 Pls
1444 280 Pls
1444 280 Pls
1445 280 Pls
1446 280 Pls
1446 280 Pls
1446 280 Pls
1446 280 Pls
1447 280 Pls
1447 280 Pls
1448 280 Pls
1448 280 Pls
1448 280 Pls
1449 280 Pls
1449 280 Pls
1449 280 Pls
1450 280 Pls
1450 280 Pls
1450 280 Pls
1451 280 Pls
1452 280 Pls
1452 280 Pls
1453 280 Pls
1454 280 Pls
1454 280 Pls
1454 280 Pls
1454 280 Pls
1455 280 Pls
1456 280 Pls
1456 280 Pls
1457 280 Pls
1458 280 Pls
1458 280 Pls
1459 280 Pls
1459 280 Pls
1459 280 Pls
1459 280 Pls
1459 280 Pls
1460 280 Pls
1460 280 Pls
1460 280 Pls
1460 280 Pls
1461 280 Pls
1461 280 Pls
1462 280 Pls
1462 280 Pls
1462 280 Pls
1462 280 Pls
1463 280 Pls
1463 280 Pls
1463 280 Pls
1464 280 Pls
1464 280 Pls
1464 280 Pls
1464 280 Pls
1464 280 Pls
1464 280 Pls
1465 280 Pls
1465 280 Pls
1465 280 Pls
1465 280 Pls
1465 280 Pls
1466 280 Pls
1466 280 Pls
1466 280 Pls
1466 280 Pls
1466 280 Pls
1468 280 Pls
1469 280 Pls
1469 280 Pls
1470 280 Pls
1470 280 Pls
1470 280 Pls
1470 280 Pls
1471 280 Pls
1471 280 Pls
1471 280 Pls
1472 280 Pls
1473 280 Pls
1473 280 Pls
1473 280 Pls
1474 280 Pls
1474 280 Pls
1474 280 Pls
1474 280 Pls
1474 280 Pls
1475 280 Pls
1475 280 Pls
1476 280 Pls
1476 280 Pls
1477 280 Pls
1477 280 Pls
1477 280 Pls
1477 280 Pls
1477 280 Pls
1478 280 Pls
1478 280 Pls
1478 280 Pls
1479 280 Pls
1479 280 Pls
1480 280 Pls
1480 280 Pls
1481 280 Pls
1481 280 Pls
1481 280 Pls
1481 280 Pls
1482 280 Pls
1482 280 Pls
1483 280 Pls
1483 280 Pls
1483 280 Pls
1483 280 Pls
1485 280 Pls
1485 280 Pls
1485 280 Pls
1485 280 Pls
1486 280 Pls
1486 280 Pls
1486 280 Pls
1488 280 Pls
1488 280 Pls
1488 280 Pls
1489 280 Pls
1489 280 Pls
1490 280 Pls
1491 280 Pls
1491 280 Pls
1491 280 Pls
1492 280 Pls
1492 280 Pls
1492 280 Pls
1492 280 Pls
1492 280 Pls
1493 280 Pls
1493 280 Pls
1493 280 Pls
1494 280 Pls
1495 280 Pls
1495 280 Pls
1495 280 Pls
1496 280 Pls
1496 280 Pls
1497 280 Pls
1498 280 Pls
1498 280 Pls
1498 280 Pls
1499 280 Pls
1500 280 Pls
1500 280 Pls
1500 280 Pls
1500 280 Pls
1500 280 Pls
1500 280 Pls
1500 280 Pls
1501 280 Pls
1501 280 Pls
1501 280 Pls
1501 280 Pls
1502 280 Pls
1502 280 Pls
1502 280 Pls
1503 280 Pls
1503 280 Pls
1504 280 Pls
1504 280 Pls
1504 280 Pls
1505 280 Pls
1505 280 Pls
1506 280 Pls
1506 280 Pls
1506 280 Pls
1506 280 Pls
1506 280 Pls
1506 280 Pls
1507 280 Pls
1507 280 Pls
1508 280 Pls
1508 280 Pls
1508 280 Pls
1509 280 Pls
1510 280 Pls
1511 280 Pls
1511 280 Pls
1511 280 Pls
1511 280 Pls
1512 280 Pls
1512 280 Pls
1513 280 Pls
1513 280 Pls
1513 280 Pls
1514 280 Pls
1514 280 Pls
1514 280 Pls
1515 280 Pls
1516 280 Pls
1517 280 Pls
1517 280 Pls
1517 280 Pls
1519 280 Pls
1519 280 Pls
1519 280 Pls
1520 280 Pls
1520 280 Pls
1520 280 Pls
1520 280 Pls
1521 280 Pls
1521 280 Pls
1522 280 Pls
1522 280 Pls
1523 280 Pls
1523 280 Pls
1524 280 Pls
1525 280 Pls
1525 280 Pls
1526 280 Pls
1526 280 Pls
1526 280 Pls
1527 280 Pls
1527 280 Pls
1528 280 Pls
1528 280 Pls
1528 280 Pls
1528 280 Pls
1528 280 Pls
1529 280 Pls
1529 280 Pls
1529 280 Pls
1529 280 Pls
1529 280 Pls
1529 280 Pls
1530 280 Pls
1531 280 Pls
1532 280 Pls
1533 280 Pls
1533 280 Pls
1534 280 Pls
1534 280 Pls
1535 280 Pls
1536 280 Pls
1536 280 Pls
1539 280 Pls
1539 280 Pls
1540 280 Pls
1540 280 Pls
1540 280 Pls
1540 280 Pls
1540 280 Pls
1541 280 Pls
1541 280 Pls
1541 280 Pls
1542 280 Pls
1543 280 Pls
1543 280 Pls
1543 280 Pls
1544 280 Pls
1544 280 Pls
1546 280 Pls
1546 280 Pls
1546 280 Pls
1546 280 Pls
1547 280 Pls
1547 280 Pls
1547 280 Pls
1547 280 Pls
1547 280 Pls
1548 280 Pls
1548 280 Pls
1548 280 Pls
1548 280 Pls
1548 280 Pls
1549 280 Pls
1549 280 Pls
1549 280 Pls
1550 280 Pls
1550 280 Pls
1551 280 Pls
1552 280 Pls
1552 280 Pls
1552 280 Pls
1552 280 Pls
1553 280 Pls
1553 280 Pls
1553 280 Pls
1553 280 Pls
1554 280 Pls
1555 280 Pls
1555 280 Pls
1556 280 Pls
1556 280 Pls
1556 280 Pls
1557 280 Pls
1557 280 Pls
1558 280 Pls
1559 280 Pls
1559 280 Pls
1560 280 Pls
1560 280 Pls
1560 280 Pls
1561 280 Pls
1562 280 Pls
1562 280 Pls
1563 280 Pls
1563 280 Pls
1563 280 Pls
1563 280 Pls
1564 280 Pls
1564 280 Pls
1564 280 Pls
1564 280 Pls
1565 280 Pls
1566 280 Pls
1566 280 Pls
1566 280 Pls
1567 280 Pls
1567 280 Pls
1567 280 Pls
1568 280 Pls
1568 280 Pls
1568 280 Pls
1569 280 Pls
1569 280 Pls
1570 280 Pls
1571 280 Pls
1571 280 Pls
1571 280 Pls
1573 280 Pls
1573 280 Pls
1574 280 Pls
1574 280 Pls
1575 280 Pls
1575 280 Pls
1575 280 Pls
1575 280 Pls
1576 280 Pls
1576 280 Pls
1576 280 Pls
1577 280 Pls
1578 280 Pls
1578 280 Pls
1579 280 Pls
1579 280 Pls
1579 280 Pls
1579 280 Pls
1580 280 Pls
1580 280 Pls
1581 280 Pls
1581 280 Pls
1582 280 Pls
1582 280 Pls
1583 280 Pls
1583 280 Pls
1584 280 Pls
1585 280 Pls
1586 280 Pls
1586 280 Pls
1587 280 Pls
1587 280 Pls
1588 280 Pls
1588 280 Pls
1588 280 Pls
1589 280 Pls
1589 280 Pls
1589 280 Pls
1590 280 Pls
1590 280 Pls
1590 280 Pls
1591 280 Pls
1594 280 Pls
1595 280 Pls
1595 280 Pls
1595 280 Pls
1595 280 Pls
1597 280 Pls
1598 280 Pls
1598 280 Pls
1599 280 Pls
1600 280 Pls
1600 280 Pls
1601 280 Pls
1601 280 Pls
1603 280 Pls
1603 280 Pls
1603 280 Pls
1604 280 Pls
1604 280 Pls
1604 280 Pls
1605 280 Pls
1605 280 Pls
1605 280 Pls
1606 280 Pls
1606 280 Pls
1606 280 Pls
1607 280 Pls
1607 280 Pls
1608 280 Pls
1608 280 Pls
1609 280 Pls
1609 280 Pls
1609 280 Pls
1610 280 Pls
1611 280 Pls
1613 280 Pls
1614 280 Pls
1615 280 Pls
1615 280 Pls
1615 280 Pls
1615 280 Pls
1615 280 Pls
1616 280 Pls
1616 280 Pls
1619 280 Pls
1619 280 Pls
1620 280 Pls
1621 280 Pls
1621 280 Pls
1621 280 Pls
1622 280 Pls
1626 280 Pls
1627 280 Pls
1627 280 Pls
1628 280 Pls
1628 280 Pls
1631 280 Pls
1631 280 Pls
1632 280 Pls
1632 280 Pls
1633 280 Pls
1634 280 Pls
1635 280 Pls
1635 280 Pls
1637 280 Pls
1639 280 Pls
1639 280 Pls
1640 280 Pls
1641 280 Pls
1641 280 Pls
1643 280 Pls
1643 280 Pls
1645 280 Pls
1645 280 Pls
1645 280 Pls
1646 280 Pls
1647 280 Pls
1648 280 Pls
1648 280 Pls
1648 280 Pls
1651 280 Pls
1652 280 Pls
1653 280 Pls
1653 280 Pls
1653 280 Pls
1655 280 Pls
1657 280 Pls
1657 280 Pls
1658 280 Pls
1658 280 Pls
1659 280 Pls
1660 280 Pls
1660 280 Pls
1662 280 Pls
1663 280 Pls
1664 280 Pls
1664 280 Pls
1665 280 Pls
1668 280 Pls
1669 280 Pls
1670 280 Pls
1672 280 Pls
1672 280 Pls
1674 280 Pls
1674 280 Pls
1675 280 Pls
1678 280 Pls
1679 280 Pls
1680 280 Pls
1681 280 Pls
1682 280 Pls
1682 280 Pls
1682 280 Pls
1682 280 Pls
1682 280 Pls
1683 280 Pls
1686 280 Pls
1689 280 Pls
1691 280 Pls
1692 280 Pls
1692 280 Pls
1692 280 Pls
1693 280 Pls
1693 280 Pls
1693 280 Pls
1694 280 Pls
1695 280 Pls
1696 280 Pls
1696 280 Pls
1698 280 Pls
1698 280 Pls
1699 280 Pls
1699 280 Pls
1699 280 Pls
1701 280 Pls
1703 280 Pls
1705 280 Pls
1706 280 Pls
1707 280 Pls
1710 280 Pls
1712 280 Pls
1713 280 Pls
1715 280 Pls
1716 280 Pls
1716 280 Pls
1717 280 Pls
1722 280 Pls
1723 280 Pls
1724 280 Pls
1724 280 Pls
1727 280 Pls
1729 280 Pls
1730 280 Pls
1730 280 Pls
1731 280 Pls
1731 280 Pls
1733 280 Pls
1736 280 Pls
1737 280 Pls
1738 280 Pls
1739 280 Pls
1743 280 Pls
1744 280 Pls
1744 280 Pls
1746 280 Pls
1747 280 Pls
1747 280 Pls
1748 280 Pls
1748 280 Pls
1749 280 Pls
1750 280 Pls
1752 280 Pls
1754 280 Pls
1755 280 Pls
1756 280 Pls
1758 280 Pls
1759 280 Pls
1760 280 Pls
1761 280 Pls
1761 280 Pls
1762 280 Pls
1762 280 Pls
1764 280 Pls
1764 280 Pls
1766 280 Pls
1766 280 Pls
1767 280 Pls
1777 280 Pls
1779 280 Pls
1781 280 Pls
1783 280 Pls
1784 280 Pls
1787 280 Pls
1788 280 Pls
1788 280 Pls
1790 280 Pls
1791 280 Pls
1792 280 Pls
1793 280 Pls
1795 280 Pls
1795 280 Pls
1801 280 Pls
1803 280 Pls
1804 280 Pls
1804 280 Pls
1807 280 Pls
1810 280 Pls
1812 280 Pls
1813 280 Pls
1815 280 Pls
1816 280 Pls
1819 280 Pls
1820 280 Pls
1823 280 Pls
1825 280 Pls
1829 280 Pls
1829 280 Pls
1831 280 Pls
1833 280 Pls
1836 280 Pls
1844 280 Pls
1848 280 Pls
1854 280 Pls
1857 280 Pls
1859 280 Pls
1861 280 Pls
1862 280 Pls
1862 280 Pls
1870 280 Pls
1873 280 Pls
1874 280 Pls
1876 280 Pls
1882 280 Pls
1888 280 Pls
1889 280 Pls
1904 280 Pls
1908 280 Pls
1908 280 Pls
1910 280 Pls
1912 280 Pls
1920 280 Pls
1928 280 Pls
1928 280 Pls
1929 280 Pls
1932 280 Pls
1935 280 Pls
1946 280 Pls
1950 280 Pls
1950 280 Pls
1951 280 Pls
1954 280 Pls
1956 280 Pls
1961 280 Pls
1966 280 Pls
1970 280 Pls
1974 280 Pls
1978 280 Pls
1987 280 Pls
1990 280 Pls
1995 280 Pls
2045 280 Pls
2052 280 Pls
2052 280 Pls
2072 280 Pls
2085 280 Pls
2087 280 Pls
2088 280 Pls
2089 280 Pls
2104 280 Pls
2116 280 Pls
2126 280 Pls
2127 280 Pls
2127 280 Pls
2152 280 Pls
2158 280 Pls
2178 280 Pls
2188 280 Pls
2192 280 Pls
2196 280 Pls
2200 280 Pls
2213 280 Pls
2235 280 Pls
2237 280 Pls
2241 280 Pls
2254 280 Pls
2263 280 Pls
2268 280 Pls
2290 280 Pls
2301 280 Pls
2330 280 Pls
2334 280 Pls
2359 280 Pls
2391 280 Pls
2392 280 Pls
2420 280 Pls
2435 280 Pls
2445 280 Pls
2468 280 Pls
2492 280 Pls
2519 280 Pls
2527 280 Pls
2534 280 Pls
2561 280 Pls
2603 280 Pls
2603 280 Pls
2629 280 Pls
2694 280 Pls
2849 280 Pls
2863 280 Pls
2866 280 Pls
2923 280 Pls
2938 280 Pls
2946 280 Pls
2951 280 Pls
2963 280 Pls
3019 280 Pls
3020 280 Pls
3044 280 Pls
3071 280 Pls
3072 280 Pls
3074 280 Pls
3086 280 Pls
3091 280 Pls
3148 280 Pls
3148 280 Pls
3177 280 Pls
3188 280 Pls
3233 280 Pls
3246 280 Pls
3301 280 Pls
3308 280 Pls
3312 280 Pls
3389 280 Pls
3409 280 Pls
3508 280 Pls
3527 280 Pls
3529 280 Pls
3548 280 Pls
3608 280 Pls
3654 280 Pls
3675 280 Pls
3714 280 Pls
3831 280 Pls
3835 280 Pls
3855 280 Pls
3857 280 Pls
3864 280 Pls
3876 280 Pls
3995 280 Pls
4007 280 Pls
4070 280 Pls
4086 280 Pls
4482 280 Pls
4502 280 Pls
4715 280 Pls
4729 280 Pls
4910 280 Pls
4931 280 Pls
5027 280 Pls
5039 280 Pls
5259 280 Pls
5285 280 Pls
5609 280 Pls
5619 280 Pls
6245 280 Pls
6264 280 Pls
6808 280 Pls
6812 280 Pls
6820 280 Pls
6835 280 Pls
% End plot #1
2.000 UL
LTb
LCb setrgbcolor
1.000 UL
LTB
LCb setrgbcolor
630 4871 N
630 280 L
6317 0 V
0 4591 V
-6317 0 V
Z stroke
1.000 UP
1.000 UL
LTb
LCb setrgbcolor
stroke
grestore
end
showpage
%%Trailer
%%DocumentFonts: Helvetica
%%Pages: 1
