%!PS-Adobe-2.0
%%Title: packets-ip-s-ccdf-linlin.eps
%%Creator: gnuplot 5.0 patchlevel 3
%%CreationDate: Mon May 29 11:10:18 2017
%%DocumentFonts: (atend)
%%BoundingBox: 50 50 554 770
%%Orientation: Landscape
%%Pages: (atend)
%%EndComments
%%BeginProlog
/gnudict 256 dict def
gnudict begin
%
% The following true/false flags may be edited by hand if desired.
% The unit line width and grayscale image gamma correction may also be changed.
%
/Color true def
/Blacktext false def
/Solid false def
/Dashlength 1 def
/Landscape true def
/Level1 false def
/Level3 false def
/Rounded false def
/ClipToBoundingBox false def
/SuppressPDFMark false def
/TransparentPatterns false def
/gnulinewidth 5.000 def
/userlinewidth gnulinewidth def
/Gamma 1.0 def
/BackgroundColor {-1.000 -1.000 -1.000} def
%
/vshift -46 def
/dl1 {
  10.0 Dashlength userlinewidth gnulinewidth div mul mul mul
  Rounded { currentlinewidth 0.75 mul sub dup 0 le { pop 0.01 } if } if
} def
/dl2 {
  10.0 Dashlength userlinewidth gnulinewidth div mul mul mul
  Rounded { currentlinewidth 0.75 mul add } if
} def
/hpt_ 31.5 def
/vpt_ 31.5 def
/hpt hpt_ def
/vpt vpt_ def
/doclip {
  ClipToBoundingBox {
    newpath 50 50 moveto 554 50 lineto 554 770 lineto 50 770 lineto closepath
    clip
  } if
} def
%
% Gnuplot Prolog Version 5.1 (Oct 2015)
%
%/SuppressPDFMark true def
%
/M {moveto} bind def
/L {lineto} bind def
/R {rmoveto} bind def
/V {rlineto} bind def
/N {newpath moveto} bind def
/Z {closepath} bind def
/C {setrgbcolor} bind def
/f {rlineto fill} bind def
/g {setgray} bind def
/Gshow {show} def   % May be redefined later in the file to support UTF-8
/vpt2 vpt 2 mul def
/hpt2 hpt 2 mul def
/Lshow {currentpoint stroke M 0 vshift R 
	Blacktext {gsave 0 setgray textshow grestore} {textshow} ifelse} def
/Rshow {currentpoint stroke M dup stringwidth pop neg vshift R
	Blacktext {gsave 0 setgray textshow grestore} {textshow} ifelse} def
/Cshow {currentpoint stroke M dup stringwidth pop -2 div vshift R 
	Blacktext {gsave 0 setgray textshow grestore} {textshow} ifelse} def
/UP {dup vpt_ mul /vpt exch def hpt_ mul /hpt exch def
  /hpt2 hpt 2 mul def /vpt2 vpt 2 mul def} def
/DL {Color {setrgbcolor Solid {pop []} if 0 setdash}
 {pop pop pop 0 setgray Solid {pop []} if 0 setdash} ifelse} def
/BL {stroke userlinewidth 2 mul setlinewidth
	Rounded {1 setlinejoin 1 setlinecap} if} def
/AL {stroke userlinewidth 2 div setlinewidth
	Rounded {1 setlinejoin 1 setlinecap} if} def
/UL {dup gnulinewidth mul /userlinewidth exch def
	dup 1 lt {pop 1} if 10 mul /udl exch def} def
/PL {stroke userlinewidth setlinewidth
	Rounded {1 setlinejoin 1 setlinecap} if} def
3.8 setmiterlimit
% Classic Line colors (version 5.0)
/LCw {1 1 1} def
/LCb {0 0 0} def
/LCa {0 0 0} def
/LC0 {1 0 0} def
/LC1 {0 1 0} def
/LC2 {0 0 1} def
/LC3 {1 0 1} def
/LC4 {0 1 1} def
/LC5 {1 1 0} def
/LC6 {0 0 0} def
/LC7 {1 0.3 0} def
/LC8 {0.5 0.5 0.5} def
% Default dash patterns (version 5.0)
/LTB {BL [] LCb DL} def
/LTw {PL [] 1 setgray} def
/LTb {PL [] LCb DL} def
/LTa {AL [1 udl mul 2 udl mul] 0 setdash LCa setrgbcolor} def
/LT0 {PL [] LC0 DL} def
/LT1 {PL [2 dl1 3 dl2] LC1 DL} def
/LT2 {PL [1 dl1 1.5 dl2] LC2 DL} def
/LT3 {PL [6 dl1 2 dl2 1 dl1 2 dl2] LC3 DL} def
/LT4 {PL [1 dl1 2 dl2 6 dl1 2 dl2 1 dl1 2 dl2] LC4 DL} def
/LT5 {PL [4 dl1 2 dl2] LC5 DL} def
/LT6 {PL [1.5 dl1 1.5 dl2 1.5 dl1 1.5 dl2 1.5 dl1 6 dl2] LC6 DL} def
/LT7 {PL [3 dl1 3 dl2 1 dl1 3 dl2] LC7 DL} def
/LT8 {PL [2 dl1 2 dl2 2 dl1 6 dl2] LC8 DL} def
/SL {[] 0 setdash} def
/Pnt {stroke [] 0 setdash gsave 1 setlinecap M 0 0 V stroke grestore} def
/Dia {stroke [] 0 setdash 2 copy vpt add M
  hpt neg vpt neg V hpt vpt neg V
  hpt vpt V hpt neg vpt V closepath stroke
  Pnt} def
/Pls {stroke [] 0 setdash vpt sub M 0 vpt2 V
  currentpoint stroke M
  hpt neg vpt neg R hpt2 0 V stroke
 } def
/Box {stroke [] 0 setdash 2 copy exch hpt sub exch vpt add M
  0 vpt2 neg V hpt2 0 V 0 vpt2 V
  hpt2 neg 0 V closepath stroke
  Pnt} def
/Crs {stroke [] 0 setdash exch hpt sub exch vpt add M
  hpt2 vpt2 neg V currentpoint stroke M
  hpt2 neg 0 R hpt2 vpt2 V stroke} def
/TriU {stroke [] 0 setdash 2 copy vpt 1.12 mul add M
  hpt neg vpt -1.62 mul V
  hpt 2 mul 0 V
  hpt neg vpt 1.62 mul V closepath stroke
  Pnt} def
/Star {2 copy Pls Crs} def
/BoxF {stroke [] 0 setdash exch hpt sub exch vpt add M
  0 vpt2 neg V hpt2 0 V 0 vpt2 V
  hpt2 neg 0 V closepath fill} def
/TriUF {stroke [] 0 setdash vpt 1.12 mul add M
  hpt neg vpt -1.62 mul V
  hpt 2 mul 0 V
  hpt neg vpt 1.62 mul V closepath fill} def
/TriD {stroke [] 0 setdash 2 copy vpt 1.12 mul sub M
  hpt neg vpt 1.62 mul V
  hpt 2 mul 0 V
  hpt neg vpt -1.62 mul V closepath stroke
  Pnt} def
/TriDF {stroke [] 0 setdash vpt 1.12 mul sub M
  hpt neg vpt 1.62 mul V
  hpt 2 mul 0 V
  hpt neg vpt -1.62 mul V closepath fill} def
/DiaF {stroke [] 0 setdash vpt add M
  hpt neg vpt neg V hpt vpt neg V
  hpt vpt V hpt neg vpt V closepath fill} def
/Pent {stroke [] 0 setdash 2 copy gsave
  translate 0 hpt M 4 {72 rotate 0 hpt L} repeat
  closepath stroke grestore Pnt} def
/PentF {stroke [] 0 setdash gsave
  translate 0 hpt M 4 {72 rotate 0 hpt L} repeat
  closepath fill grestore} def
/Circle {stroke [] 0 setdash 2 copy
  hpt 0 360 arc stroke Pnt} def
/CircleF {stroke [] 0 setdash hpt 0 360 arc fill} def
/C0 {BL [] 0 setdash 2 copy moveto vpt 90 450 arc} bind def
/C1 {BL [] 0 setdash 2 copy moveto
	2 copy vpt 0 90 arc closepath fill
	vpt 0 360 arc closepath} bind def
/C2 {BL [] 0 setdash 2 copy moveto
	2 copy vpt 90 180 arc closepath fill
	vpt 0 360 arc closepath} bind def
/C3 {BL [] 0 setdash 2 copy moveto
	2 copy vpt 0 180 arc closepath fill
	vpt 0 360 arc closepath} bind def
/C4 {BL [] 0 setdash 2 copy moveto
	2 copy vpt 180 270 arc closepath fill
	vpt 0 360 arc closepath} bind def
/C5 {BL [] 0 setdash 2 copy moveto
	2 copy vpt 0 90 arc
	2 copy moveto
	2 copy vpt 180 270 arc closepath fill
	vpt 0 360 arc} bind def
/C6 {BL [] 0 setdash 2 copy moveto
	2 copy vpt 90 270 arc closepath fill
	vpt 0 360 arc closepath} bind def
/C7 {BL [] 0 setdash 2 copy moveto
	2 copy vpt 0 270 arc closepath fill
	vpt 0 360 arc closepath} bind def
/C8 {BL [] 0 setdash 2 copy moveto
	2 copy vpt 270 360 arc closepath fill
	vpt 0 360 arc closepath} bind def
/C9 {BL [] 0 setdash 2 copy moveto
	2 copy vpt 270 450 arc closepath fill
	vpt 0 360 arc closepath} bind def
/C10 {BL [] 0 setdash 2 copy 2 copy moveto vpt 270 360 arc closepath fill
	2 copy moveto
	2 copy vpt 90 180 arc closepath fill
	vpt 0 360 arc closepath} bind def
/C11 {BL [] 0 setdash 2 copy moveto
	2 copy vpt 0 180 arc closepath fill
	2 copy moveto
	2 copy vpt 270 360 arc closepath fill
	vpt 0 360 arc closepath} bind def
/C12 {BL [] 0 setdash 2 copy moveto
	2 copy vpt 180 360 arc closepath fill
	vpt 0 360 arc closepath} bind def
/C13 {BL [] 0 setdash 2 copy moveto
	2 copy vpt 0 90 arc closepath fill
	2 copy moveto
	2 copy vpt 180 360 arc closepath fill
	vpt 0 360 arc closepath} bind def
/C14 {BL [] 0 setdash 2 copy moveto
	2 copy vpt 90 360 arc closepath fill
	vpt 0 360 arc} bind def
/C15 {BL [] 0 setdash 2 copy vpt 0 360 arc closepath fill
	vpt 0 360 arc closepath} bind def
/Rec {newpath 4 2 roll moveto 1 index 0 rlineto 0 exch rlineto
	neg 0 rlineto closepath} bind def
/Square {dup Rec} bind def
/Bsquare {vpt sub exch vpt sub exch vpt2 Square} bind def
/S0 {BL [] 0 setdash 2 copy moveto 0 vpt rlineto BL Bsquare} bind def
/S1 {BL [] 0 setdash 2 copy vpt Square fill Bsquare} bind def
/S2 {BL [] 0 setdash 2 copy exch vpt sub exch vpt Square fill Bsquare} bind def
/S3 {BL [] 0 setdash 2 copy exch vpt sub exch vpt2 vpt Rec fill Bsquare} bind def
/S4 {BL [] 0 setdash 2 copy exch vpt sub exch vpt sub vpt Square fill Bsquare} bind def
/S5 {BL [] 0 setdash 2 copy 2 copy vpt Square fill
	exch vpt sub exch vpt sub vpt Square fill Bsquare} bind def
/S6 {BL [] 0 setdash 2 copy exch vpt sub exch vpt sub vpt vpt2 Rec fill Bsquare} bind def
/S7 {BL [] 0 setdash 2 copy exch vpt sub exch vpt sub vpt vpt2 Rec fill
	2 copy vpt Square fill Bsquare} bind def
/S8 {BL [] 0 setdash 2 copy vpt sub vpt Square fill Bsquare} bind def
/S9 {BL [] 0 setdash 2 copy vpt sub vpt vpt2 Rec fill Bsquare} bind def
/S10 {BL [] 0 setdash 2 copy vpt sub vpt Square fill 2 copy exch vpt sub exch vpt Square fill
	Bsquare} bind def
/S11 {BL [] 0 setdash 2 copy vpt sub vpt Square fill 2 copy exch vpt sub exch vpt2 vpt Rec fill
	Bsquare} bind def
/S12 {BL [] 0 setdash 2 copy exch vpt sub exch vpt sub vpt2 vpt Rec fill Bsquare} bind def
/S13 {BL [] 0 setdash 2 copy exch vpt sub exch vpt sub vpt2 vpt Rec fill
	2 copy vpt Square fill Bsquare} bind def
/S14 {BL [] 0 setdash 2 copy exch vpt sub exch vpt sub vpt2 vpt Rec fill
	2 copy exch vpt sub exch vpt Square fill Bsquare} bind def
/S15 {BL [] 0 setdash 2 copy Bsquare fill Bsquare} bind def
/D0 {gsave translate 45 rotate 0 0 S0 stroke grestore} bind def
/D1 {gsave translate 45 rotate 0 0 S1 stroke grestore} bind def
/D2 {gsave translate 45 rotate 0 0 S2 stroke grestore} bind def
/D3 {gsave translate 45 rotate 0 0 S3 stroke grestore} bind def
/D4 {gsave translate 45 rotate 0 0 S4 stroke grestore} bind def
/D5 {gsave translate 45 rotate 0 0 S5 stroke grestore} bind def
/D6 {gsave translate 45 rotate 0 0 S6 stroke grestore} bind def
/D7 {gsave translate 45 rotate 0 0 S7 stroke grestore} bind def
/D8 {gsave translate 45 rotate 0 0 S8 stroke grestore} bind def
/D9 {gsave translate 45 rotate 0 0 S9 stroke grestore} bind def
/D10 {gsave translate 45 rotate 0 0 S10 stroke grestore} bind def
/D11 {gsave translate 45 rotate 0 0 S11 stroke grestore} bind def
/D12 {gsave translate 45 rotate 0 0 S12 stroke grestore} bind def
/D13 {gsave translate 45 rotate 0 0 S13 stroke grestore} bind def
/D14 {gsave translate 45 rotate 0 0 S14 stroke grestore} bind def
/D15 {gsave translate 45 rotate 0 0 S15 stroke grestore} bind def
/DiaE {stroke [] 0 setdash vpt add M
  hpt neg vpt neg V hpt vpt neg V
  hpt vpt V hpt neg vpt V closepath stroke} def
/BoxE {stroke [] 0 setdash exch hpt sub exch vpt add M
  0 vpt2 neg V hpt2 0 V 0 vpt2 V
  hpt2 neg 0 V closepath stroke} def
/TriUE {stroke [] 0 setdash vpt 1.12 mul add M
  hpt neg vpt -1.62 mul V
  hpt 2 mul 0 V
  hpt neg vpt 1.62 mul V closepath stroke} def
/TriDE {stroke [] 0 setdash vpt 1.12 mul sub M
  hpt neg vpt 1.62 mul V
  hpt 2 mul 0 V
  hpt neg vpt -1.62 mul V closepath stroke} def
/PentE {stroke [] 0 setdash gsave
  translate 0 hpt M 4 {72 rotate 0 hpt L} repeat
  closepath stroke grestore} def
/CircE {stroke [] 0 setdash 
  hpt 0 360 arc stroke} def
/Opaque {gsave closepath 1 setgray fill grestore 0 setgray closepath} def
/DiaW {stroke [] 0 setdash vpt add M
  hpt neg vpt neg V hpt vpt neg V
  hpt vpt V hpt neg vpt V Opaque stroke} def
/BoxW {stroke [] 0 setdash exch hpt sub exch vpt add M
  0 vpt2 neg V hpt2 0 V 0 vpt2 V
  hpt2 neg 0 V Opaque stroke} def
/TriUW {stroke [] 0 setdash vpt 1.12 mul add M
  hpt neg vpt -1.62 mul V
  hpt 2 mul 0 V
  hpt neg vpt 1.62 mul V Opaque stroke} def
/TriDW {stroke [] 0 setdash vpt 1.12 mul sub M
  hpt neg vpt 1.62 mul V
  hpt 2 mul 0 V
  hpt neg vpt -1.62 mul V Opaque stroke} def
/PentW {stroke [] 0 setdash gsave
  translate 0 hpt M 4 {72 rotate 0 hpt L} repeat
  Opaque stroke grestore} def
/CircW {stroke [] 0 setdash 
  hpt 0 360 arc Opaque stroke} def
/BoxFill {gsave Rec 1 setgray fill grestore} def
/Density {
  /Fillden exch def
  currentrgbcolor
  /ColB exch def /ColG exch def /ColR exch def
  /ColR ColR Fillden mul Fillden sub 1 add def
  /ColG ColG Fillden mul Fillden sub 1 add def
  /ColB ColB Fillden mul Fillden sub 1 add def
  ColR ColG ColB setrgbcolor} def
/BoxColFill {gsave Rec PolyFill} def
/PolyFill {gsave Density fill grestore grestore} def
/h {rlineto rlineto rlineto gsave closepath fill grestore} bind def
%
% PostScript Level 1 Pattern Fill routine for rectangles
% Usage: x y w h s a XX PatternFill
%	x,y = lower left corner of box to be filled
%	w,h = width and height of box
%	  a = angle in degrees between lines and x-axis
%	 XX = 0/1 for no/yes cross-hatch
%
/PatternFill {gsave /PFa [ 9 2 roll ] def
  PFa 0 get PFa 2 get 2 div add PFa 1 get PFa 3 get 2 div add translate
  PFa 2 get -2 div PFa 3 get -2 div PFa 2 get PFa 3 get Rec
  TransparentPatterns {} {gsave 1 setgray fill grestore} ifelse
  clip
  currentlinewidth 0.5 mul setlinewidth
  /PFs PFa 2 get dup mul PFa 3 get dup mul add sqrt def
  0 0 M PFa 5 get rotate PFs -2 div dup translate
  0 1 PFs PFa 4 get div 1 add floor cvi
	{PFa 4 get mul 0 M 0 PFs V} for
  0 PFa 6 get ne {
	0 1 PFs PFa 4 get div 1 add floor cvi
	{PFa 4 get mul 0 2 1 roll M PFs 0 V} for
 } if
  stroke grestore} def
%
/languagelevel where
 {pop languagelevel} {1} ifelse
dup 2 lt
	{/InterpretLevel1 true def
	 /InterpretLevel3 false def}
	{/InterpretLevel1 Level1 def
	 2 gt
	    {/InterpretLevel3 Level3 def}
	    {/InterpretLevel3 false def}
	 ifelse }
 ifelse
%
% PostScript level 2 pattern fill definitions
%
/Level2PatternFill {
/Tile8x8 {/PaintType 2 /PatternType 1 /TilingType 1 /BBox [0 0 8 8] /XStep 8 /YStep 8}
	bind def
/KeepColor {currentrgbcolor [/Pattern /DeviceRGB] setcolorspace} bind def
<< Tile8x8
 /PaintProc {0.5 setlinewidth pop 0 0 M 8 8 L 0 8 M 8 0 L stroke} 
>> matrix makepattern
/Pat1 exch def
<< Tile8x8
 /PaintProc {0.5 setlinewidth pop 0 0 M 8 8 L 0 8 M 8 0 L stroke
	0 4 M 4 8 L 8 4 L 4 0 L 0 4 L stroke}
>> matrix makepattern
/Pat2 exch def
<< Tile8x8
 /PaintProc {0.5 setlinewidth pop 0 0 M 0 8 L
	8 8 L 8 0 L 0 0 L fill}
>> matrix makepattern
/Pat3 exch def
<< Tile8x8
 /PaintProc {0.5 setlinewidth pop -4 8 M 8 -4 L
	0 12 M 12 0 L stroke}
>> matrix makepattern
/Pat4 exch def
<< Tile8x8
 /PaintProc {0.5 setlinewidth pop -4 0 M 8 12 L
	0 -4 M 12 8 L stroke}
>> matrix makepattern
/Pat5 exch def
<< Tile8x8
 /PaintProc {0.5 setlinewidth pop -2 8 M 4 -4 L
	0 12 M 8 -4 L 4 12 M 10 0 L stroke}
>> matrix makepattern
/Pat6 exch def
<< Tile8x8
 /PaintProc {0.5 setlinewidth pop -2 0 M 4 12 L
	0 -4 M 8 12 L 4 -4 M 10 8 L stroke}
>> matrix makepattern
/Pat7 exch def
<< Tile8x8
 /PaintProc {0.5 setlinewidth pop 8 -2 M -4 4 L
	12 0 M -4 8 L 12 4 M 0 10 L stroke}
>> matrix makepattern
/Pat8 exch def
<< Tile8x8
 /PaintProc {0.5 setlinewidth pop 0 -2 M 12 4 L
	-4 0 M 12 8 L -4 4 M 8 10 L stroke}
>> matrix makepattern
/Pat9 exch def
/Pattern1 {PatternBgnd KeepColor Pat1 setpattern} bind def
/Pattern2 {PatternBgnd KeepColor Pat2 setpattern} bind def
/Pattern3 {PatternBgnd KeepColor Pat3 setpattern} bind def
/Pattern4 {PatternBgnd KeepColor Landscape {Pat5} {Pat4} ifelse setpattern} bind def
/Pattern5 {PatternBgnd KeepColor Landscape {Pat4} {Pat5} ifelse setpattern} bind def
/Pattern6 {PatternBgnd KeepColor Landscape {Pat9} {Pat6} ifelse setpattern} bind def
/Pattern7 {PatternBgnd KeepColor Landscape {Pat8} {Pat7} ifelse setpattern} bind def
} def
%
%
%End of PostScript Level 2 code
%
/PatternBgnd {
  TransparentPatterns {} {gsave 1 setgray fill grestore} ifelse
} def
%
% Substitute for Level 2 pattern fill codes with
% grayscale if Level 2 support is not selected.
%
/Level1PatternFill {
/Pattern1 {0.250 Density} bind def
/Pattern2 {0.500 Density} bind def
/Pattern3 {0.750 Density} bind def
/Pattern4 {0.125 Density} bind def
/Pattern5 {0.375 Density} bind def
/Pattern6 {0.625 Density} bind def
/Pattern7 {0.875 Density} bind def
} def
%
% Now test for support of Level 2 code
%
Level1 {Level1PatternFill} {Level2PatternFill} ifelse
%
/Symbol-Oblique /Symbol findfont [1 0 .167 1 0 0] makefont
dup length dict begin {1 index /FID eq {pop pop} {def} ifelse} forall
currentdict end definefont pop
%
/MFshow {
   { dup 5 get 3 ge
     { 5 get 3 eq {gsave} {grestore} ifelse }
     {dup dup 0 get findfont exch 1 get scalefont setfont
     [ currentpoint ] exch dup 2 get 0 exch R dup 5 get 2 ne {dup dup 6
     get exch 4 get {textshow} {stringwidth pop 0 R} ifelse }if dup 5 get 0 eq
     {dup 3 get {2 get neg 0 exch R pop} {pop aload pop M} ifelse} {dup 5
     get 1 eq {dup 2 get exch dup 3 get exch 6 get stringwidth pop -2 div
     dup 0 R} {dup 6 get stringwidth pop -2 div 0 R 6 get
     textshow 2 index {aload pop M neg 3 -1 roll neg R pop pop} {pop pop pop
     pop aload pop M} ifelse }ifelse }ifelse }
     ifelse }
   forall} def
/Gswidth {dup type /stringtype eq {stringwidth} {pop (n) stringwidth} ifelse} def
/MFwidth {0 exch { dup 5 get 3 ge { 5 get 3 eq { 0 } { pop } ifelse }
 {dup 3 get{dup dup 0 get findfont exch 1 get scalefont setfont
     6 get Gswidth pop add} {pop} ifelse} ifelse} forall} def
/MLshow { currentpoint stroke M
  0 exch R
  Blacktext {gsave 0 setgray MFshow grestore} {MFshow} ifelse } bind def
/MRshow { currentpoint stroke M
  exch dup MFwidth neg 3 -1 roll R
  Blacktext {gsave 0 setgray MFshow grestore} {MFshow} ifelse } bind def
/MCshow { currentpoint stroke M
  exch dup MFwidth -2 div 3 -1 roll R
  Blacktext {gsave 0 setgray MFshow grestore} {MFshow} ifelse } bind def
/XYsave    { [( ) 1 2 true false 3 ()] } bind def
/XYrestore { [( ) 1 2 true false 4 ()] } bind def
Level1 SuppressPDFMark or 
{} {
/SDict 10 dict def
systemdict /pdfmark known not {
  userdict /pdfmark systemdict /cleartomark get put
} if
SDict begin [
  /Title (packets-ip-s-ccdf-linlin.eps)
  /Subject (gnuplot plot)
  /Creator (gnuplot 5.0 patchlevel 3)
  /Author (tiphaine)
%  /Producer (gnuplot)
%  /Keywords ()
  /CreationDate (Mon May 29 11:10:18 2017)
  /DOCINFO pdfmark
end
} ifelse
%
% Support for boxed text - Ethan A Merritt May 2005
%
/InitTextBox { userdict /TBy2 3 -1 roll put userdict /TBx2 3 -1 roll put
           userdict /TBy1 3 -1 roll put userdict /TBx1 3 -1 roll put
	   /Boxing true def } def
/ExtendTextBox { Boxing
    { gsave dup false charpath pathbbox
      dup TBy2 gt {userdict /TBy2 3 -1 roll put} {pop} ifelse
      dup TBx2 gt {userdict /TBx2 3 -1 roll put} {pop} ifelse
      dup TBy1 lt {userdict /TBy1 3 -1 roll put} {pop} ifelse
      dup TBx1 lt {userdict /TBx1 3 -1 roll put} {pop} ifelse
      grestore } if } def
/PopTextBox { newpath TBx1 TBxmargin sub TBy1 TBymargin sub M
               TBx1 TBxmargin sub TBy2 TBymargin add L
	       TBx2 TBxmargin add TBy2 TBymargin add L
	       TBx2 TBxmargin add TBy1 TBymargin sub L closepath } def
/DrawTextBox { PopTextBox stroke /Boxing false def} def
/FillTextBox { gsave PopTextBox 1 1 1 setrgbcolor fill grestore /Boxing false def} def
0 0 0 0 InitTextBox
/TBxmargin 20 def
/TBymargin 20 def
/Boxing false def
/textshow { ExtendTextBox Gshow } def
%
% redundant definitions for compatibility with prologue.ps older than 5.0.2
/LTB {BL [] LCb DL} def
/LTb {PL [] LCb DL} def
end
%%EndProlog
%%Page: 1 1
gnudict begin
gsave
doclip
50 50 translate
0.100 0.100 scale
90 rotate
0 -5040 translate
0 setgray
newpath
(Helvetica) findfont 140 scalefont setfont
BackgroundColor 0 lt 3 1 roll 0 lt exch 0 lt or or not {gsave BackgroundColor C clippath fill grestore} if
1.000 UL
LTb
LCb setrgbcolor
546 280 M
63 0 V
6338 0 R
-63 0 V
stroke
462 280 M
[ [(Helvetica) 140.0 0.0 true true 0 ( 0)]
] -46.7 MRshow
1.000 UL
LTb
LCb setrgbcolor
546 739 M
63 0 V
6338 0 R
-63 0 V
stroke
462 739 M
[ [(Helvetica) 140.0 0.0 true true 0 ( 0.1)]
] -46.7 MRshow
1.000 UL
LTb
LCb setrgbcolor
546 1198 M
63 0 V
6338 0 R
-63 0 V
stroke
462 1198 M
[ [(Helvetica) 140.0 0.0 true true 0 ( 0.2)]
] -46.7 MRshow
1.000 UL
LTb
LCb setrgbcolor
546 1657 M
63 0 V
6338 0 R
-63 0 V
stroke
462 1657 M
[ [(Helvetica) 140.0 0.0 true true 0 ( 0.3)]
] -46.7 MRshow
1.000 UL
LTb
LCb setrgbcolor
546 2116 M
63 0 V
6338 0 R
-63 0 V
stroke
462 2116 M
[ [(Helvetica) 140.0 0.0 true true 0 ( 0.4)]
] -46.7 MRshow
1.000 UL
LTb
LCb setrgbcolor
546 2576 M
63 0 V
6338 0 R
-63 0 V
stroke
462 2576 M
[ [(Helvetica) 140.0 0.0 true true 0 ( 0.5)]
] -46.7 MRshow
1.000 UL
LTb
LCb setrgbcolor
546 3035 M
63 0 V
6338 0 R
-63 0 V
stroke
462 3035 M
[ [(Helvetica) 140.0 0.0 true true 0 ( 0.6)]
] -46.7 MRshow
1.000 UL
LTb
LCb setrgbcolor
546 3494 M
63 0 V
6338 0 R
-63 0 V
stroke
462 3494 M
[ [(Helvetica) 140.0 0.0 true true 0 ( 0.7)]
] -46.7 MRshow
1.000 UL
LTb
LCb setrgbcolor
546 3953 M
63 0 V
6338 0 R
-63 0 V
stroke
462 3953 M
[ [(Helvetica) 140.0 0.0 true true 0 ( 0.8)]
] -46.7 MRshow
1.000 UL
LTb
LCb setrgbcolor
546 4412 M
63 0 V
6338 0 R
-63 0 V
stroke
462 4412 M
[ [(Helvetica) 140.0 0.0 true true 0 ( 0.9)]
] -46.7 MRshow
1.000 UL
LTb
LCb setrgbcolor
546 4871 M
63 0 V
6338 0 R
-63 0 V
stroke
462 4871 M
[ [(Helvetica) 140.0 0.0 true true 0 ( 1)]
] -46.7 MRshow
1.000 UL
LTb
LCb setrgbcolor
546 280 M
0 63 V
0 4528 R
0 -63 V
stroke
546 140 M
[ [(Helvetica) 140.0 0.0 true true 0 ( 0)]
] -46.7 MCshow
1.000 UL
LTb
LCb setrgbcolor
1186 280 M
0 63 V
0 4528 R
0 -63 V
stroke
1186 140 M
[ [(Helvetica) 140.0 0.0 true true 0 ( 5000)]
] -46.7 MCshow
1.000 UL
LTb
LCb setrgbcolor
1826 280 M
0 63 V
0 4528 R
0 -63 V
stroke
1826 140 M
[ [(Helvetica) 140.0 0.0 true true 0 ( 10000)]
] -46.7 MCshow
1.000 UL
LTb
LCb setrgbcolor
2466 280 M
0 63 V
0 4528 R
0 -63 V
stroke
2466 140 M
[ [(Helvetica) 140.0 0.0 true true 0 ( 15000)]
] -46.7 MCshow
1.000 UL
LTb
LCb setrgbcolor
3106 280 M
0 63 V
0 4528 R
0 -63 V
stroke
3106 140 M
[ [(Helvetica) 140.0 0.0 true true 0 ( 20000)]
] -46.7 MCshow
1.000 UL
LTb
LCb setrgbcolor
3747 280 M
0 63 V
0 4528 R
0 -63 V
stroke
3747 140 M
[ [(Helvetica) 140.0 0.0 true true 0 ( 25000)]
] -46.7 MCshow
1.000 UL
LTb
LCb setrgbcolor
4387 280 M
0 63 V
0 4528 R
0 -63 V
stroke
4387 140 M
[ [(Helvetica) 140.0 0.0 true true 0 ( 30000)]
] -46.7 MCshow
1.000 UL
LTb
LCb setrgbcolor
5027 280 M
0 63 V
0 4528 R
0 -63 V
stroke
5027 140 M
[ [(Helvetica) 140.0 0.0 true true 0 ( 35000)]
] -46.7 MCshow
1.000 UL
LTb
LCb setrgbcolor
5667 280 M
0 63 V
0 4528 R
0 -63 V
stroke
5667 140 M
[ [(Helvetica) 140.0 0.0 true true 0 ( 40000)]
] -46.7 MCshow
1.000 UL
LTb
LCb setrgbcolor
6307 280 M
0 63 V
0 4528 R
0 -63 V
stroke
6307 140 M
[ [(Helvetica) 140.0 0.0 true true 0 ( 45000)]
] -46.7 MCshow
1.000 UL
LTb
LCb setrgbcolor
6947 280 M
0 63 V
0 4528 R
0 -63 V
stroke
6947 140 M
[ [(Helvetica) 140.0 0.0 true true 0 ( 50000)]
] -46.7 MCshow
1.000 UL
LTb
LCb setrgbcolor
1.000 UL
LTB
LCb setrgbcolor
546 4871 N
546 280 L
6401 0 V
0 4591 V
-6401 0 V
Z stroke
1.000 UP
1.000 UL
LTb
LCb setrgbcolor
% Begin plot #1
1.000 UP
1.000 UL
LTb
0.58 0.00 0.83 C 546 4871 Pls
546 4539 Pls
546 1827 Pls
546 1397 Pls
547 1202 Pls
547 1067 Pls
547 976 Pls
547 908 Pls
547 862 Pls
547 821 Pls
547 789 Pls
547 757 Pls
548 735 Pls
548 715 Pls
548 699 Pls
548 683 Pls
548 669 Pls
548 655 Pls
548 643 Pls
548 632 Pls
549 621 Pls
549 611 Pls
549 603 Pls
549 595 Pls
549 588 Pls
549 581 Pls
549 574 Pls
549 566 Pls
550 559 Pls
550 552 Pls
550 546 Pls
550 539 Pls
550 534 Pls
550 529 Pls
550 524 Pls
550 519 Pls
551 515 Pls
551 510 Pls
551 506 Pls
551 502 Pls
551 498 Pls
551 495 Pls
551 491 Pls
552 488 Pls
552 485 Pls
552 482 Pls
552 479 Pls
552 476 Pls
552 473 Pls
552 470 Pls
552 468 Pls
553 464 Pls
553 458 Pls
553 453 Pls
553 449 Pls
553 445 Pls
553 442 Pls
553 440 Pls
553 437 Pls
554 435 Pls
554 433 Pls
554 431 Pls
554 429 Pls
554 427 Pls
554 425 Pls
554 424 Pls
554 422 Pls
555 420 Pls
555 418 Pls
555 417 Pls
555 415 Pls
555 413 Pls
555 412 Pls
555 410 Pls
555 409 Pls
556 407 Pls
556 406 Pls
556 404 Pls
556 403 Pls
556 401 Pls
556 400 Pls
556 398 Pls
556 397 Pls
557 396 Pls
557 394 Pls
557 393 Pls
557 392 Pls
557 390 Pls
557 389 Pls
557 388 Pls
558 387 Pls
558 386 Pls
558 384 Pls
558 383 Pls
558 382 Pls
558 381 Pls
558 380 Pls
558 379 Pls
559 378 Pls
559 377 Pls
559 376 Pls
559 375 Pls
559 374 Pls
559 373 Pls
559 373 Pls
559 372 Pls
560 371 Pls
560 370 Pls
560 370 Pls
560 369 Pls
560 368 Pls
560 367 Pls
560 367 Pls
560 366 Pls
561 366 Pls
561 365 Pls
561 364 Pls
561 364 Pls
561 363 Pls
561 362 Pls
561 362 Pls
561 361 Pls
562 361 Pls
562 360 Pls
562 359 Pls
562 359 Pls
562 358 Pls
562 358 Pls
562 357 Pls
563 357 Pls
563 356 Pls
563 356 Pls
563 355 Pls
563 355 Pls
563 354 Pls
563 354 Pls
563 353 Pls
564 353 Pls
564 352 Pls
564 352 Pls
564 351 Pls
564 351 Pls
564 350 Pls
564 350 Pls
564 349 Pls
565 349 Pls
565 349 Pls
565 348 Pls
565 348 Pls
565 347 Pls
565 347 Pls
565 346 Pls
565 345 Pls
566 345 Pls
566 344 Pls
566 344 Pls
566 344 Pls
566 343 Pls
566 343 Pls
566 342 Pls
566 342 Pls
567 342 Pls
567 341 Pls
567 341 Pls
567 340 Pls
567 340 Pls
567 340 Pls
567 339 Pls
568 339 Pls
568 339 Pls
568 338 Pls
568 338 Pls
568 338 Pls
568 337 Pls
568 337 Pls
568 337 Pls
569 336 Pls
569 336 Pls
569 336 Pls
569 335 Pls
569 335 Pls
569 335 Pls
569 335 Pls
569 334 Pls
570 334 Pls
570 334 Pls
570 333 Pls
570 333 Pls
570 333 Pls
570 333 Pls
570 332 Pls
570 332 Pls
571 332 Pls
571 332 Pls
571 331 Pls
571 331 Pls
571 331 Pls
571 331 Pls
571 331 Pls
571 330 Pls
572 330 Pls
572 330 Pls
572 330 Pls
572 330 Pls
572 329 Pls
572 329 Pls
572 329 Pls
573 329 Pls
573 328 Pls
573 328 Pls
573 328 Pls
573 328 Pls
573 328 Pls
573 327 Pls
573 327 Pls
574 327 Pls
574 327 Pls
574 327 Pls
574 327 Pls
574 326 Pls
574 326 Pls
574 326 Pls
574 326 Pls
575 326 Pls
575 325 Pls
575 325 Pls
575 325 Pls
575 325 Pls
575 325 Pls
575 325 Pls
575 325 Pls
576 324 Pls
576 324 Pls
576 324 Pls
576 324 Pls
576 324 Pls
576 324 Pls
576 324 Pls
576 323 Pls
577 323 Pls
577 323 Pls
577 323 Pls
577 323 Pls
577 323 Pls
577 323 Pls
577 323 Pls
577 322 Pls
578 322 Pls
578 322 Pls
578 322 Pls
578 322 Pls
578 322 Pls
578 322 Pls
578 322 Pls
579 321 Pls
579 321 Pls
579 321 Pls
579 321 Pls
579 321 Pls
579 321 Pls
579 321 Pls
579 321 Pls
580 320 Pls
580 320 Pls
580 320 Pls
580 320 Pls
580 320 Pls
580 320 Pls
580 320 Pls
580 319 Pls
581 319 Pls
581 319 Pls
581 319 Pls
581 319 Pls
581 319 Pls
581 319 Pls
581 319 Pls
581 319 Pls
582 318 Pls
582 318 Pls
582 318 Pls
582 318 Pls
582 318 Pls
582 318 Pls
582 318 Pls
582 318 Pls
583 318 Pls
583 317 Pls
583 317 Pls
583 317 Pls
583 317 Pls
583 317 Pls
583 317 Pls
584 317 Pls
584 317 Pls
584 317 Pls
584 316 Pls
584 316 Pls
584 316 Pls
584 316 Pls
584 316 Pls
585 316 Pls
585 316 Pls
585 316 Pls
585 316 Pls
585 316 Pls
585 315 Pls
585 315 Pls
585 315 Pls
586 315 Pls
586 315 Pls
586 315 Pls
586 315 Pls
586 315 Pls
586 315 Pls
586 314 Pls
586 314 Pls
587 314 Pls
587 314 Pls
587 314 Pls
587 314 Pls
587 314 Pls
587 314 Pls
587 314 Pls
587 314 Pls
588 313 Pls
588 313 Pls
588 313 Pls
588 313 Pls
588 313 Pls
588 313 Pls
588 313 Pls
589 313 Pls
589 313 Pls
589 313 Pls
589 312 Pls
589 312 Pls
589 312 Pls
589 312 Pls
589 312 Pls
590 312 Pls
590 312 Pls
590 312 Pls
590 312 Pls
590 312 Pls
590 312 Pls
590 311 Pls
590 311 Pls
591 311 Pls
591 311 Pls
591 311 Pls
591 311 Pls
591 311 Pls
591 310 Pls
591 310 Pls
591 310 Pls
592 310 Pls
592 310 Pls
592 310 Pls
592 310 Pls
592 310 Pls
592 310 Pls
592 310 Pls
592 309 Pls
593 309 Pls
593 309 Pls
593 309 Pls
593 309 Pls
593 309 Pls
593 309 Pls
593 309 Pls
593 309 Pls
594 309 Pls
594 309 Pls
594 309 Pls
594 309 Pls
594 308 Pls
594 308 Pls
594 308 Pls
595 308 Pls
595 308 Pls
595 308 Pls
595 308 Pls
595 308 Pls
595 308 Pls
595 308 Pls
595 308 Pls
596 308 Pls
596 308 Pls
596 308 Pls
596 308 Pls
596 308 Pls
596 308 Pls
596 307 Pls
596 307 Pls
597 307 Pls
597 307 Pls
597 307 Pls
597 307 Pls
597 307 Pls
597 307 Pls
597 307 Pls
597 307 Pls
598 307 Pls
598 307 Pls
598 307 Pls
598 307 Pls
598 307 Pls
598 307 Pls
598 306 Pls
598 306 Pls
599 306 Pls
599 306 Pls
599 306 Pls
599 306 Pls
599 306 Pls
599 306 Pls
599 306 Pls
600 306 Pls
600 306 Pls
600 306 Pls
600 306 Pls
600 306 Pls
600 306 Pls
600 306 Pls
600 306 Pls
601 306 Pls
601 306 Pls
601 306 Pls
601 305 Pls
601 305 Pls
601 305 Pls
601 305 Pls
601 305 Pls
602 305 Pls
602 305 Pls
602 305 Pls
602 305 Pls
602 305 Pls
602 305 Pls
602 305 Pls
602 305 Pls
603 305 Pls
603 305 Pls
603 305 Pls
603 305 Pls
603 305 Pls
603 305 Pls
603 305 Pls
603 305 Pls
604 305 Pls
604 304 Pls
604 304 Pls
604 304 Pls
604 304 Pls
604 304 Pls
604 304 Pls
605 304 Pls
605 304 Pls
605 304 Pls
605 304 Pls
605 304 Pls
605 304 Pls
605 304 Pls
605 304 Pls
606 304 Pls
606 304 Pls
606 304 Pls
606 304 Pls
606 304 Pls
606 304 Pls
606 304 Pls
606 304 Pls
607 303 Pls
607 303 Pls
607 303 Pls
607 303 Pls
607 303 Pls
607 303 Pls
607 303 Pls
607 303 Pls
608 303 Pls
608 303 Pls
608 303 Pls
608 303 Pls
608 303 Pls
608 303 Pls
608 303 Pls
608 303 Pls
609 303 Pls
609 303 Pls
609 303 Pls
609 303 Pls
609 303 Pls
609 303 Pls
609 303 Pls
609 303 Pls
610 302 Pls
610 302 Pls
610 302 Pls
610 302 Pls
610 302 Pls
610 302 Pls
610 302 Pls
611 302 Pls
611 302 Pls
611 302 Pls
611 302 Pls
611 302 Pls
611 302 Pls
611 302 Pls
611 302 Pls
612 302 Pls
612 302 Pls
612 302 Pls
612 302 Pls
612 302 Pls
612 302 Pls
612 302 Pls
612 302 Pls
613 302 Pls
613 302 Pls
613 302 Pls
613 301 Pls
613 301 Pls
613 301 Pls
613 301 Pls
613 301 Pls
614 301 Pls
614 301 Pls
614 301 Pls
614 301 Pls
614 301 Pls
614 301 Pls
614 301 Pls
614 301 Pls
615 301 Pls
615 301 Pls
615 301 Pls
615 301 Pls
615 301 Pls
615 301 Pls
615 301 Pls
616 301 Pls
616 301 Pls
616 301 Pls
616 301 Pls
616 301 Pls
616 301 Pls
616 301 Pls
616 301 Pls
617 301 Pls
617 301 Pls
617 300 Pls
617 300 Pls
617 300 Pls
617 300 Pls
617 300 Pls
617 300 Pls
618 300 Pls
618 300 Pls
618 300 Pls
618 300 Pls
618 300 Pls
618 300 Pls
618 300 Pls
618 300 Pls
619 300 Pls
619 300 Pls
619 300 Pls
619 300 Pls
619 300 Pls
619 300 Pls
619 300 Pls
619 300 Pls
620 300 Pls
620 300 Pls
620 300 Pls
620 300 Pls
620 300 Pls
620 300 Pls
620 300 Pls
621 300 Pls
621 299 Pls
621 299 Pls
621 299 Pls
621 299 Pls
621 299 Pls
621 299 Pls
621 299 Pls
622 299 Pls
622 299 Pls
622 299 Pls
622 299 Pls
622 299 Pls
622 299 Pls
622 299 Pls
622 299 Pls
623 299 Pls
623 299 Pls
623 299 Pls
623 299 Pls
623 299 Pls
623 299 Pls
623 299 Pls
623 299 Pls
624 299 Pls
624 299 Pls
624 299 Pls
624 299 Pls
624 299 Pls
624 299 Pls
624 299 Pls
624 299 Pls
625 298 Pls
625 298 Pls
625 298 Pls
625 298 Pls
625 298 Pls
625 298 Pls
625 298 Pls
626 298 Pls
626 298 Pls
626 298 Pls
626 298 Pls
626 298 Pls
626 298 Pls
626 298 Pls
626 298 Pls
627 298 Pls
627 298 Pls
627 298 Pls
627 298 Pls
627 298 Pls
627 298 Pls
627 298 Pls
627 298 Pls
628 298 Pls
628 298 Pls
628 298 Pls
628 298 Pls
628 298 Pls
628 298 Pls
628 298 Pls
628 298 Pls
629 298 Pls
629 298 Pls
629 298 Pls
629 298 Pls
629 298 Pls
629 298 Pls
629 298 Pls
629 298 Pls
630 298 Pls
630 298 Pls
630 298 Pls
630 298 Pls
630 297 Pls
630 297 Pls
630 297 Pls
630 297 Pls
631 297 Pls
631 297 Pls
631 297 Pls
631 297 Pls
631 297 Pls
631 297 Pls
631 297 Pls
632 297 Pls
632 297 Pls
632 297 Pls
632 297 Pls
632 297 Pls
632 297 Pls
632 297 Pls
632 297 Pls
633 297 Pls
633 297 Pls
633 297 Pls
633 297 Pls
633 297 Pls
633 297 Pls
633 297 Pls
633 297 Pls
634 297 Pls
634 297 Pls
634 297 Pls
634 297 Pls
634 297 Pls
634 297 Pls
634 297 Pls
634 297 Pls
635 297 Pls
635 297 Pls
635 297 Pls
635 297 Pls
635 297 Pls
635 297 Pls
635 297 Pls
635 297 Pls
636 297 Pls
636 297 Pls
636 297 Pls
636 297 Pls
636 297 Pls
636 296 Pls
636 296 Pls
637 296 Pls
637 296 Pls
637 296 Pls
637 296 Pls
637 296 Pls
637 296 Pls
637 296 Pls
637 296 Pls
638 296 Pls
638 296 Pls
638 296 Pls
638 296 Pls
638 296 Pls
638 296 Pls
638 296 Pls
638 296 Pls
639 296 Pls
639 296 Pls
639 296 Pls
639 296 Pls
639 296 Pls
639 296 Pls
639 296 Pls
639 296 Pls
640 296 Pls
640 296 Pls
640 296 Pls
640 296 Pls
640 296 Pls
640 296 Pls
640 296 Pls
640 296 Pls
641 296 Pls
641 296 Pls
641 296 Pls
641 296 Pls
641 296 Pls
641 296 Pls
641 296 Pls
642 296 Pls
642 296 Pls
642 296 Pls
642 296 Pls
642 296 Pls
642 296 Pls
642 296 Pls
642 296 Pls
643 296 Pls
643 296 Pls
643 296 Pls
643 295 Pls
643 295 Pls
643 295 Pls
643 295 Pls
643 295 Pls
644 295 Pls
644 295 Pls
644 295 Pls
644 295 Pls
644 295 Pls
644 295 Pls
644 295 Pls
644 295 Pls
645 295 Pls
645 295 Pls
645 295 Pls
645 295 Pls
645 295 Pls
645 295 Pls
645 295 Pls
645 295 Pls
646 295 Pls
646 295 Pls
646 295 Pls
646 295 Pls
646 295 Pls
646 295 Pls
646 295 Pls
646 295 Pls
647 295 Pls
647 295 Pls
647 295 Pls
647 295 Pls
647 295 Pls
647 295 Pls
647 295 Pls
648 295 Pls
648 295 Pls
648 295 Pls
648 295 Pls
648 295 Pls
648 295 Pls
648 295 Pls
648 295 Pls
649 295 Pls
649 295 Pls
649 295 Pls
649 295 Pls
649 295 Pls
649 295 Pls
649 295 Pls
649 294 Pls
650 294 Pls
650 294 Pls
650 294 Pls
650 294 Pls
650 294 Pls
650 294 Pls
650 294 Pls
650 294 Pls
651 294 Pls
651 294 Pls
651 294 Pls
651 294 Pls
651 294 Pls
651 294 Pls
651 294 Pls
651 294 Pls
652 294 Pls
652 294 Pls
652 294 Pls
652 294 Pls
652 294 Pls
652 294 Pls
652 294 Pls
653 294 Pls
653 294 Pls
653 294 Pls
653 294 Pls
653 294 Pls
653 294 Pls
653 294 Pls
653 294 Pls
654 294 Pls
654 294 Pls
654 294 Pls
654 294 Pls
654 294 Pls
654 294 Pls
654 294 Pls
654 294 Pls
655 294 Pls
655 294 Pls
655 294 Pls
655 294 Pls
655 294 Pls
655 294 Pls
655 294 Pls
655 294 Pls
656 294 Pls
656 294 Pls
656 294 Pls
656 294 Pls
656 294 Pls
656 294 Pls
656 294 Pls
656 294 Pls
657 294 Pls
657 294 Pls
657 294 Pls
657 293 Pls
657 293 Pls
657 293 Pls
657 293 Pls
658 293 Pls
658 293 Pls
658 293 Pls
658 293 Pls
658 293 Pls
658 293 Pls
658 293 Pls
658 293 Pls
659 293 Pls
659 293 Pls
659 293 Pls
659 293 Pls
659 293 Pls
659 293 Pls
659 293 Pls
659 293 Pls
660 293 Pls
660 293 Pls
660 293 Pls
660 293 Pls
660 293 Pls
660 293 Pls
660 293 Pls
660 293 Pls
661 293 Pls
661 293 Pls
661 293 Pls
661 293 Pls
661 293 Pls
661 293 Pls
661 293 Pls
661 293 Pls
662 293 Pls
662 293 Pls
662 293 Pls
662 293 Pls
662 293 Pls
662 293 Pls
662 293 Pls
662 293 Pls
663 293 Pls
663 293 Pls
663 293 Pls
663 293 Pls
663 293 Pls
663 293 Pls
663 293 Pls
664 293 Pls
664 293 Pls
664 293 Pls
664 293 Pls
664 293 Pls
664 293 Pls
664 293 Pls
664 293 Pls
665 292 Pls
665 292 Pls
665 292 Pls
665 292 Pls
665 292 Pls
665 292 Pls
665 292 Pls
665 292 Pls
666 292 Pls
666 292 Pls
666 292 Pls
666 292 Pls
666 292 Pls
666 292 Pls
666 292 Pls
666 292 Pls
667 292 Pls
667 292 Pls
667 292 Pls
667 292 Pls
667 292 Pls
667 292 Pls
667 292 Pls
667 292 Pls
668 292 Pls
668 292 Pls
668 292 Pls
668 292 Pls
668 292 Pls
668 292 Pls
668 292 Pls
669 292 Pls
669 292 Pls
669 292 Pls
669 292 Pls
669 292 Pls
669 292 Pls
669 292 Pls
669 292 Pls
670 292 Pls
670 292 Pls
670 292 Pls
670 292 Pls
670 292 Pls
670 292 Pls
670 292 Pls
670 292 Pls
671 292 Pls
671 292 Pls
671 292 Pls
671 292 Pls
671 292 Pls
671 292 Pls
671 292 Pls
671 292 Pls
672 292 Pls
672 292 Pls
672 292 Pls
672 292 Pls
672 292 Pls
672 292 Pls
672 292 Pls
672 292 Pls
673 292 Pls
673 292 Pls
673 292 Pls
673 292 Pls
673 292 Pls
673 292 Pls
673 292 Pls
674 292 Pls
674 292 Pls
674 292 Pls
674 292 Pls
674 292 Pls
674 292 Pls
674 291 Pls
674 291 Pls
675 291 Pls
675 291 Pls
675 291 Pls
675 291 Pls
675 291 Pls
675 291 Pls
675 291 Pls
675 291 Pls
676 291 Pls
676 291 Pls
676 291 Pls
676 291 Pls
676 291 Pls
676 291 Pls
676 291 Pls
676 291 Pls
677 291 Pls
677 291 Pls
677 291 Pls
677 291 Pls
677 291 Pls
677 291 Pls
677 291 Pls
677 291 Pls
678 291 Pls
678 291 Pls
678 291 Pls
678 291 Pls
678 291 Pls
678 291 Pls
678 291 Pls
679 291 Pls
679 291 Pls
679 291 Pls
679 291 Pls
679 291 Pls
679 291 Pls
679 291 Pls
679 291 Pls
680 291 Pls
680 291 Pls
680 291 Pls
680 291 Pls
680 291 Pls
680 291 Pls
680 291 Pls
680 291 Pls
681 291 Pls
681 291 Pls
681 291 Pls
681 291 Pls
681 291 Pls
681 291 Pls
681 291 Pls
681 291 Pls
682 291 Pls
682 291 Pls
682 291 Pls
682 291 Pls
682 291 Pls
682 291 Pls
682 291 Pls
682 291 Pls
683 291 Pls
683 291 Pls
683 291 Pls
683 291 Pls
683 291 Pls
683 291 Pls
683 291 Pls
683 291 Pls
684 291 Pls
684 291 Pls
684 291 Pls
684 291 Pls
684 291 Pls
684 291 Pls
684 291 Pls
685 291 Pls
685 291 Pls
685 291 Pls
685 291 Pls
685 291 Pls
685 291 Pls
685 291 Pls
685 290 Pls
686 290 Pls
686 290 Pls
686 290 Pls
686 290 Pls
686 290 Pls
686 290 Pls
686 290 Pls
686 290 Pls
687 290 Pls
687 290 Pls
687 290 Pls
687 290 Pls
687 290 Pls
687 290 Pls
687 290 Pls
687 290 Pls
688 290 Pls
688 290 Pls
688 290 Pls
688 290 Pls
688 290 Pls
688 290 Pls
688 290 Pls
688 290 Pls
689 290 Pls
689 290 Pls
689 290 Pls
689 290 Pls
689 290 Pls
689 290 Pls
689 290 Pls
690 290 Pls
690 290 Pls
690 290 Pls
690 290 Pls
690 290 Pls
690 290 Pls
690 290 Pls
690 290 Pls
691 290 Pls
691 290 Pls
691 290 Pls
691 290 Pls
691 290 Pls
691 290 Pls
691 290 Pls
691 290 Pls
692 290 Pls
692 290 Pls
692 290 Pls
692 290 Pls
692 290 Pls
692 290 Pls
692 290 Pls
692 290 Pls
693 290 Pls
693 290 Pls
693 290 Pls
693 290 Pls
693 290 Pls
693 290 Pls
693 290 Pls
693 290 Pls
694 290 Pls
694 290 Pls
694 290 Pls
694 290 Pls
694 290 Pls
694 290 Pls
694 290 Pls
695 290 Pls
695 290 Pls
695 290 Pls
695 290 Pls
695 290 Pls
695 290 Pls
695 290 Pls
695 290 Pls
696 290 Pls
696 290 Pls
696 290 Pls
696 290 Pls
696 289 Pls
696 289 Pls
696 289 Pls
696 289 Pls
697 289 Pls
697 289 Pls
697 289 Pls
697 289 Pls
697 289 Pls
697 289 Pls
697 289 Pls
697 289 Pls
698 289 Pls
698 289 Pls
698 289 Pls
698 289 Pls
698 289 Pls
698 289 Pls
698 289 Pls
698 289 Pls
699 289 Pls
699 289 Pls
699 289 Pls
699 289 Pls
699 289 Pls
699 289 Pls
699 289 Pls
699 289 Pls
700 289 Pls
700 289 Pls
700 289 Pls
700 289 Pls
700 289 Pls
700 289 Pls
700 289 Pls
701 289 Pls
701 289 Pls
701 289 Pls
701 289 Pls
701 289 Pls
701 289 Pls
701 289 Pls
701 289 Pls
702 289 Pls
702 289 Pls
702 289 Pls
702 289 Pls
702 289 Pls
702 289 Pls
702 289 Pls
702 289 Pls
703 289 Pls
703 289 Pls
703 289 Pls
703 289 Pls
703 289 Pls
703 289 Pls
703 289 Pls
703 289 Pls
704 289 Pls
704 289 Pls
704 289 Pls
704 289 Pls
704 289 Pls
704 289 Pls
704 289 Pls
704 289 Pls
705 289 Pls
705 289 Pls
705 289 Pls
705 289 Pls
705 289 Pls
705 289 Pls
705 289 Pls
706 289 Pls
706 289 Pls
706 289 Pls
706 289 Pls
706 289 Pls
706 289 Pls
706 289 Pls
706 289 Pls
707 289 Pls
707 289 Pls
707 289 Pls
707 289 Pls
707 289 Pls
707 289 Pls
707 289 Pls
707 289 Pls
708 289 Pls
708 289 Pls
708 289 Pls
708 289 Pls
708 289 Pls
708 289 Pls
708 289 Pls
708 289 Pls
709 289 Pls
709 288 Pls
709 288 Pls
709 288 Pls
709 288 Pls
709 288 Pls
709 288 Pls
709 288 Pls
710 288 Pls
710 288 Pls
710 288 Pls
710 288 Pls
710 288 Pls
710 288 Pls
710 288 Pls
711 288 Pls
711 288 Pls
711 288 Pls
711 288 Pls
711 288 Pls
711 288 Pls
711 288 Pls
711 288 Pls
712 288 Pls
712 288 Pls
712 288 Pls
712 288 Pls
712 288 Pls
712 288 Pls
712 288 Pls
712 288 Pls
713 288 Pls
713 288 Pls
713 288 Pls
713 288 Pls
713 288 Pls
713 288 Pls
713 288 Pls
713 288 Pls
714 288 Pls
714 288 Pls
714 288 Pls
714 288 Pls
714 288 Pls
714 288 Pls
714 288 Pls
714 288 Pls
715 288 Pls
715 288 Pls
715 288 Pls
715 288 Pls
715 288 Pls
715 288 Pls
715 288 Pls
715 288 Pls
716 288 Pls
716 288 Pls
716 288 Pls
716 288 Pls
716 288 Pls
716 288 Pls
716 288 Pls
717 288 Pls
717 288 Pls
717 288 Pls
717 288 Pls
717 288 Pls
717 288 Pls
717 288 Pls
717 288 Pls
718 288 Pls
718 288 Pls
718 288 Pls
718 288 Pls
718 288 Pls
718 288 Pls
718 288 Pls
718 288 Pls
719 288 Pls
719 288 Pls
719 288 Pls
719 288 Pls
719 288 Pls
719 288 Pls
719 288 Pls
719 288 Pls
720 288 Pls
720 288 Pls
720 288 Pls
720 288 Pls
720 288 Pls
720 288 Pls
720 288 Pls
720 288 Pls
721 288 Pls
721 288 Pls
721 288 Pls
721 288 Pls
721 288 Pls
721 288 Pls
721 288 Pls
722 288 Pls
722 288 Pls
722 288 Pls
722 288 Pls
722 288 Pls
722 288 Pls
722 288 Pls
722 288 Pls
723 288 Pls
723 288 Pls
723 288 Pls
723 288 Pls
723 288 Pls
723 288 Pls
723 288 Pls
723 288 Pls
724 288 Pls
724 288 Pls
724 288 Pls
724 288 Pls
724 288 Pls
724 288 Pls
724 288 Pls
724 288 Pls
725 288 Pls
725 288 Pls
725 288 Pls
725 288 Pls
725 288 Pls
725 288 Pls
725 288 Pls
725 288 Pls
726 288 Pls
726 288 Pls
726 288 Pls
726 288 Pls
726 288 Pls
726 288 Pls
726 288 Pls
727 288 Pls
727 288 Pls
727 288 Pls
727 288 Pls
727 287 Pls
727 287 Pls
727 287 Pls
727 287 Pls
728 287 Pls
728 287 Pls
728 287 Pls
728 287 Pls
728 287 Pls
728 287 Pls
728 287 Pls
728 287 Pls
729 287 Pls
729 287 Pls
729 287 Pls
729 287 Pls
729 287 Pls
729 287 Pls
729 287 Pls
729 287 Pls
730 287 Pls
730 287 Pls
730 287 Pls
730 287 Pls
730 287 Pls
730 287 Pls
730 287 Pls
730 287 Pls
731 287 Pls
731 287 Pls
731 287 Pls
731 287 Pls
731 287 Pls
731 287 Pls
731 287 Pls
732 287 Pls
732 287 Pls
732 287 Pls
732 287 Pls
732 287 Pls
732 287 Pls
732 287 Pls
732 287 Pls
733 287 Pls
733 287 Pls
733 287 Pls
733 287 Pls
733 287 Pls
733 287 Pls
733 287 Pls
733 287 Pls
734 287 Pls
734 287 Pls
734 287 Pls
734 287 Pls
734 287 Pls
734 287 Pls
734 287 Pls
734 287 Pls
735 287 Pls
735 287 Pls
735 287 Pls
735 287 Pls
735 287 Pls
735 287 Pls
735 287 Pls
735 287 Pls
736 287 Pls
736 287 Pls
736 287 Pls
736 287 Pls
736 287 Pls
736 287 Pls
736 287 Pls
736 287 Pls
737 287 Pls
737 287 Pls
737 287 Pls
737 287 Pls
737 287 Pls
737 287 Pls
737 287 Pls
738 287 Pls
738 287 Pls
738 287 Pls
738 287 Pls
738 287 Pls
738 287 Pls
738 287 Pls
738 287 Pls
739 287 Pls
739 287 Pls
739 287 Pls
739 287 Pls
739 287 Pls
739 287 Pls
739 287 Pls
739 287 Pls
740 287 Pls
740 287 Pls
740 287 Pls
740 287 Pls
740 287 Pls
740 287 Pls
740 287 Pls
740 287 Pls
741 287 Pls
741 287 Pls
741 287 Pls
741 287 Pls
741 287 Pls
741 287 Pls
741 287 Pls
741 287 Pls
742 287 Pls
742 287 Pls
742 287 Pls
742 287 Pls
742 287 Pls
742 287 Pls
742 287 Pls
743 287 Pls
743 287 Pls
743 287 Pls
743 287 Pls
743 287 Pls
743 287 Pls
743 287 Pls
743 287 Pls
744 287 Pls
744 287 Pls
744 287 Pls
744 287 Pls
744 287 Pls
744 287 Pls
744 287 Pls
744 287 Pls
745 287 Pls
745 287 Pls
745 287 Pls
745 287 Pls
745 287 Pls
745 287 Pls
745 287 Pls
745 287 Pls
746 287 Pls
746 287 Pls
746 287 Pls
746 287 Pls
746 287 Pls
746 287 Pls
746 287 Pls
746 287 Pls
747 287 Pls
747 287 Pls
747 287 Pls
747 287 Pls
747 286 Pls
747 286 Pls
747 286 Pls
748 286 Pls
748 286 Pls
748 286 Pls
748 286 Pls
748 286 Pls
748 286 Pls
748 286 Pls
748 286 Pls
749 286 Pls
749 286 Pls
749 286 Pls
749 286 Pls
749 286 Pls
749 286 Pls
749 286 Pls
749 286 Pls
750 286 Pls
750 286 Pls
750 286 Pls
750 286 Pls
750 286 Pls
750 286 Pls
750 286 Pls
750 286 Pls
751 286 Pls
751 286 Pls
751 286 Pls
751 286 Pls
751 286 Pls
751 286 Pls
751 286 Pls
751 286 Pls
752 286 Pls
752 286 Pls
752 286 Pls
752 286 Pls
752 286 Pls
752 286 Pls
752 286 Pls
752 286 Pls
753 286 Pls
753 286 Pls
753 286 Pls
753 286 Pls
753 286 Pls
753 286 Pls
753 286 Pls
754 286 Pls
754 286 Pls
754 286 Pls
754 286 Pls
754 286 Pls
754 286 Pls
754 286 Pls
754 286 Pls
755 286 Pls
755 286 Pls
755 286 Pls
755 286 Pls
755 286 Pls
755 286 Pls
755 286 Pls
755 286 Pls
756 286 Pls
756 286 Pls
756 286 Pls
756 286 Pls
756 286 Pls
756 286 Pls
756 286 Pls
756 286 Pls
757 286 Pls
757 286 Pls
757 286 Pls
757 286 Pls
757 286 Pls
757 286 Pls
757 286 Pls
757 286 Pls
758 286 Pls
758 286 Pls
758 286 Pls
758 286 Pls
758 286 Pls
758 286 Pls
758 286 Pls
759 286 Pls
759 286 Pls
759 286 Pls
759 286 Pls
759 286 Pls
759 286 Pls
759 286 Pls
759 286 Pls
760 286 Pls
760 286 Pls
760 286 Pls
760 286 Pls
760 286 Pls
760 286 Pls
760 286 Pls
760 286 Pls
761 286 Pls
761 286 Pls
761 286 Pls
761 286 Pls
761 286 Pls
761 286 Pls
761 286 Pls
761 286 Pls
762 286 Pls
762 286 Pls
762 286 Pls
762 286 Pls
762 286 Pls
762 286 Pls
762 286 Pls
762 286 Pls
763 286 Pls
763 286 Pls
763 286 Pls
763 286 Pls
763 286 Pls
763 286 Pls
763 286 Pls
764 286 Pls
764 286 Pls
764 286 Pls
764 286 Pls
764 286 Pls
764 286 Pls
764 286 Pls
764 286 Pls
765 286 Pls
765 286 Pls
765 286 Pls
765 286 Pls
765 286 Pls
765 286 Pls
765 286 Pls
765 286 Pls
766 286 Pls
766 286 Pls
766 286 Pls
766 286 Pls
766 286 Pls
766 286 Pls
766 286 Pls
766 286 Pls
767 286 Pls
767 286 Pls
767 286 Pls
767 286 Pls
767 286 Pls
767 286 Pls
767 286 Pls
767 286 Pls
768 286 Pls
768 286 Pls
768 286 Pls
768 286 Pls
768 286 Pls
768 286 Pls
768 286 Pls
768 286 Pls
769 286 Pls
769 286 Pls
769 286 Pls
769 286 Pls
769 286 Pls
769 286 Pls
769 286 Pls
770 286 Pls
770 286 Pls
770 286 Pls
770 286 Pls
770 285 Pls
770 285 Pls
770 285 Pls
770 285 Pls
771 285 Pls
771 285 Pls
771 285 Pls
771 285 Pls
771 285 Pls
771 285 Pls
771 285 Pls
771 285 Pls
772 285 Pls
772 285 Pls
772 285 Pls
772 285 Pls
772 285 Pls
772 285 Pls
772 285 Pls
772 285 Pls
773 285 Pls
773 285 Pls
773 285 Pls
773 285 Pls
773 285 Pls
773 285 Pls
773 285 Pls
773 285 Pls
774 285 Pls
774 285 Pls
774 285 Pls
774 285 Pls
774 285 Pls
774 285 Pls
774 285 Pls
775 285 Pls
775 285 Pls
775 285 Pls
775 285 Pls
775 285 Pls
775 285 Pls
775 285 Pls
775 285 Pls
776 285 Pls
776 285 Pls
776 285 Pls
776 285 Pls
776 285 Pls
776 285 Pls
776 285 Pls
776 285 Pls
777 285 Pls
777 285 Pls
777 285 Pls
777 285 Pls
777 285 Pls
777 285 Pls
777 285 Pls
777 285 Pls
778 285 Pls
778 285 Pls
778 285 Pls
778 285 Pls
778 285 Pls
778 285 Pls
778 285 Pls
778 285 Pls
779 285 Pls
779 285 Pls
779 285 Pls
779 285 Pls
779 285 Pls
779 285 Pls
779 285 Pls
780 285 Pls
780 285 Pls
780 285 Pls
780 285 Pls
780 285 Pls
780 285 Pls
780 285 Pls
780 285 Pls
781 285 Pls
781 285 Pls
781 285 Pls
781 285 Pls
781 285 Pls
781 285 Pls
781 285 Pls
781 285 Pls
782 285 Pls
782 285 Pls
782 285 Pls
782 285 Pls
782 285 Pls
782 285 Pls
782 285 Pls
782 285 Pls
783 285 Pls
783 285 Pls
783 285 Pls
783 285 Pls
783 285 Pls
783 285 Pls
783 285 Pls
783 285 Pls
784 285 Pls
784 285 Pls
784 285 Pls
784 285 Pls
784 285 Pls
784 285 Pls
784 285 Pls
785 285 Pls
785 285 Pls
785 285 Pls
785 285 Pls
785 285 Pls
785 285 Pls
785 285 Pls
785 285 Pls
786 285 Pls
786 285 Pls
786 285 Pls
786 285 Pls
786 285 Pls
786 285 Pls
786 285 Pls
786 285 Pls
787 285 Pls
787 285 Pls
787 285 Pls
787 285 Pls
787 285 Pls
787 285 Pls
787 285 Pls
787 285 Pls
788 285 Pls
788 285 Pls
788 285 Pls
788 285 Pls
788 285 Pls
788 285 Pls
788 285 Pls
788 285 Pls
789 285 Pls
789 285 Pls
789 285 Pls
789 285 Pls
789 285 Pls
789 285 Pls
789 285 Pls
789 285 Pls
790 285 Pls
790 285 Pls
790 285 Pls
790 285 Pls
790 285 Pls
790 285 Pls
790 285 Pls
791 285 Pls
791 285 Pls
791 285 Pls
791 285 Pls
791 285 Pls
791 285 Pls
791 285 Pls
791 285 Pls
792 285 Pls
792 285 Pls
792 285 Pls
792 285 Pls
792 285 Pls
792 285 Pls
792 285 Pls
792 285 Pls
793 285 Pls
793 285 Pls
793 285 Pls
793 285 Pls
793 285 Pls
793 285 Pls
793 285 Pls
793 285 Pls
794 285 Pls
794 285 Pls
794 285 Pls
794 285 Pls
794 285 Pls
794 285 Pls
794 285 Pls
794 285 Pls
795 285 Pls
795 285 Pls
795 285 Pls
795 285 Pls
795 285 Pls
795 285 Pls
795 285 Pls
796 285 Pls
796 284 Pls
796 284 Pls
796 284 Pls
796 284 Pls
796 284 Pls
796 284 Pls
796 284 Pls
797 284 Pls
797 284 Pls
797 284 Pls
797 284 Pls
797 284 Pls
797 284 Pls
797 284 Pls
797 284 Pls
798 284 Pls
798 284 Pls
798 284 Pls
798 284 Pls
798 284 Pls
798 284 Pls
798 284 Pls
798 284 Pls
799 284 Pls
799 284 Pls
799 284 Pls
799 284 Pls
799 284 Pls
799 284 Pls
799 284 Pls
799 284 Pls
800 284 Pls
800 284 Pls
800 284 Pls
800 284 Pls
800 284 Pls
800 284 Pls
800 284 Pls
801 284 Pls
801 284 Pls
801 284 Pls
801 284 Pls
801 284 Pls
801 284 Pls
801 284 Pls
801 284 Pls
802 284 Pls
802 284 Pls
802 284 Pls
802 284 Pls
802 284 Pls
802 284 Pls
802 284 Pls
802 284 Pls
803 284 Pls
803 284 Pls
803 284 Pls
803 284 Pls
803 284 Pls
803 284 Pls
803 284 Pls
803 284 Pls
804 284 Pls
804 284 Pls
804 284 Pls
804 284 Pls
804 284 Pls
804 284 Pls
804 284 Pls
804 284 Pls
805 284 Pls
805 284 Pls
805 284 Pls
805 284 Pls
805 284 Pls
805 284 Pls
805 284 Pls
805 284 Pls
806 284 Pls
806 284 Pls
806 284 Pls
806 284 Pls
806 284 Pls
806 284 Pls
806 284 Pls
807 284 Pls
807 284 Pls
807 284 Pls
807 284 Pls
807 284 Pls
807 284 Pls
807 284 Pls
807 284 Pls
808 284 Pls
808 284 Pls
808 284 Pls
808 284 Pls
808 284 Pls
808 284 Pls
808 284 Pls
808 284 Pls
809 284 Pls
809 284 Pls
809 284 Pls
809 284 Pls
809 284 Pls
809 284 Pls
809 284 Pls
809 284 Pls
810 284 Pls
810 284 Pls
810 284 Pls
810 284 Pls
810 284 Pls
810 284 Pls
810 284 Pls
810 284 Pls
811 284 Pls
811 284 Pls
811 284 Pls
811 284 Pls
811 284 Pls
811 284 Pls
811 284 Pls
812 284 Pls
812 284 Pls
812 284 Pls
812 284 Pls
812 284 Pls
812 284 Pls
812 284 Pls
812 284 Pls
813 284 Pls
813 284 Pls
813 284 Pls
813 284 Pls
813 284 Pls
813 284 Pls
813 284 Pls
813 284 Pls
814 284 Pls
814 284 Pls
814 284 Pls
814 284 Pls
814 284 Pls
814 284 Pls
814 284 Pls
814 284 Pls
815 284 Pls
815 284 Pls
815 284 Pls
815 284 Pls
815 284 Pls
815 284 Pls
815 284 Pls
815 284 Pls
816 284 Pls
816 284 Pls
816 284 Pls
816 284 Pls
816 284 Pls
816 284 Pls
816 284 Pls
817 284 Pls
817 284 Pls
817 284 Pls
817 284 Pls
817 284 Pls
817 284 Pls
817 284 Pls
817 284 Pls
818 284 Pls
818 284 Pls
818 284 Pls
818 284 Pls
818 284 Pls
818 284 Pls
818 284 Pls
818 284 Pls
819 284 Pls
819 284 Pls
819 284 Pls
819 284 Pls
819 284 Pls
819 284 Pls
819 284 Pls
819 284 Pls
820 284 Pls
820 284 Pls
820 284 Pls
820 284 Pls
820 284 Pls
820 284 Pls
820 284 Pls
820 284 Pls
821 284 Pls
821 284 Pls
821 284 Pls
821 284 Pls
821 284 Pls
821 284 Pls
821 284 Pls
821 284 Pls
822 284 Pls
822 284 Pls
822 284 Pls
822 284 Pls
822 284 Pls
822 284 Pls
822 284 Pls
823 284 Pls
823 284 Pls
823 284 Pls
823 284 Pls
823 284 Pls
823 284 Pls
823 284 Pls
823 284 Pls
824 284 Pls
824 284 Pls
824 284 Pls
824 284 Pls
824 284 Pls
824 284 Pls
824 284 Pls
824 284 Pls
825 284 Pls
825 283 Pls
825 283 Pls
825 283 Pls
825 283 Pls
825 283 Pls
825 283 Pls
825 283 Pls
826 283 Pls
826 283 Pls
826 283 Pls
826 283 Pls
826 283 Pls
826 283 Pls
826 283 Pls
826 283 Pls
827 283 Pls
827 283 Pls
827 283 Pls
827 283 Pls
827 283 Pls
827 283 Pls
827 283 Pls
828 283 Pls
828 283 Pls
828 283 Pls
828 283 Pls
828 283 Pls
828 283 Pls
828 283 Pls
828 283 Pls
829 283 Pls
829 283 Pls
829 283 Pls
829 283 Pls
829 283 Pls
829 283 Pls
829 283 Pls
829 283 Pls
830 283 Pls
830 283 Pls
830 283 Pls
830 283 Pls
830 283 Pls
830 283 Pls
830 283 Pls
830 283 Pls
831 283 Pls
831 283 Pls
831 283 Pls
831 283 Pls
831 283 Pls
831 283 Pls
831 283 Pls
831 283 Pls
832 283 Pls
832 283 Pls
832 283 Pls
832 283 Pls
832 283 Pls
832 283 Pls
832 283 Pls
833 283 Pls
833 283 Pls
833 283 Pls
833 283 Pls
833 283 Pls
833 283 Pls
833 283 Pls
833 283 Pls
834 283 Pls
834 283 Pls
834 283 Pls
834 283 Pls
834 283 Pls
834 283 Pls
834 283 Pls
834 283 Pls
835 283 Pls
835 283 Pls
835 283 Pls
835 283 Pls
835 283 Pls
835 283 Pls
835 283 Pls
835 283 Pls
836 283 Pls
836 283 Pls
836 283 Pls
836 283 Pls
836 283 Pls
836 283 Pls
836 283 Pls
836 283 Pls
837 283 Pls
837 283 Pls
837 283 Pls
837 283 Pls
837 283 Pls
837 283 Pls
837 283 Pls
838 283 Pls
838 283 Pls
838 283 Pls
838 283 Pls
838 283 Pls
838 283 Pls
838 283 Pls
838 283 Pls
839 283 Pls
839 283 Pls
839 283 Pls
839 283 Pls
839 283 Pls
839 283 Pls
839 283 Pls
839 283 Pls
840 283 Pls
840 283 Pls
840 283 Pls
840 283 Pls
840 283 Pls
840 283 Pls
840 283 Pls
840 283 Pls
841 283 Pls
841 283 Pls
841 283 Pls
841 283 Pls
841 283 Pls
841 283 Pls
841 283 Pls
841 283 Pls
842 283 Pls
842 283 Pls
842 283 Pls
842 283 Pls
842 283 Pls
842 283 Pls
842 283 Pls
842 283 Pls
843 283 Pls
843 283 Pls
843 283 Pls
843 283 Pls
843 283 Pls
843 283 Pls
843 283 Pls
844 283 Pls
844 283 Pls
844 283 Pls
844 283 Pls
844 283 Pls
844 283 Pls
844 283 Pls
844 283 Pls
845 283 Pls
845 283 Pls
845 283 Pls
845 283 Pls
845 283 Pls
845 283 Pls
845 283 Pls
845 283 Pls
846 283 Pls
846 283 Pls
846 283 Pls
846 283 Pls
846 283 Pls
846 283 Pls
846 283 Pls
846 283 Pls
847 283 Pls
847 283 Pls
847 283 Pls
847 283 Pls
847 283 Pls
847 283 Pls
847 283 Pls
847 283 Pls
848 283 Pls
848 283 Pls
848 283 Pls
848 283 Pls
848 283 Pls
848 283 Pls
848 283 Pls
849 283 Pls
849 283 Pls
849 283 Pls
849 283 Pls
849 283 Pls
849 283 Pls
849 283 Pls
849 283 Pls
850 283 Pls
850 283 Pls
850 283 Pls
850 283 Pls
850 283 Pls
850 283 Pls
850 283 Pls
850 283 Pls
851 283 Pls
851 283 Pls
851 283 Pls
851 283 Pls
851 283 Pls
851 283 Pls
851 283 Pls
851 283 Pls
852 283 Pls
852 283 Pls
852 283 Pls
852 283 Pls
852 283 Pls
852 283 Pls
852 283 Pls
852 283 Pls
853 283 Pls
853 283 Pls
853 283 Pls
853 283 Pls
853 283 Pls
853 283 Pls
853 283 Pls
854 283 Pls
854 283 Pls
854 283 Pls
854 283 Pls
854 283 Pls
854 283 Pls
854 283 Pls
854 283 Pls
855 283 Pls
855 283 Pls
855 283 Pls
855 283 Pls
855 283 Pls
855 283 Pls
855 283 Pls
855 283 Pls
856 283 Pls
856 283 Pls
856 283 Pls
856 283 Pls
856 283 Pls
856 283 Pls
856 283 Pls
856 283 Pls
857 283 Pls
857 283 Pls
857 283 Pls
857 283 Pls
857 283 Pls
857 283 Pls
857 283 Pls
857 283 Pls
858 283 Pls
858 283 Pls
858 283 Pls
858 283 Pls
858 283 Pls
858 283 Pls
858 283 Pls
858 283 Pls
859 283 Pls
859 283 Pls
859 283 Pls
859 283 Pls
859 283 Pls
859 283 Pls
859 283 Pls
860 283 Pls
860 283 Pls
860 283 Pls
860 283 Pls
860 283 Pls
860 283 Pls
860 283 Pls
860 283 Pls
861 283 Pls
861 283 Pls
861 283 Pls
861 283 Pls
861 283 Pls
861 283 Pls
861 283 Pls
861 283 Pls
862 283 Pls
862 283 Pls
862 283 Pls
862 283 Pls
862 283 Pls
862 283 Pls
862 283 Pls
862 283 Pls
863 283 Pls
863 283 Pls
863 283 Pls
863 283 Pls
863 283 Pls
863 283 Pls
863 283 Pls
863 283 Pls
864 283 Pls
864 283 Pls
864 283 Pls
864 283 Pls
864 283 Pls
864 283 Pls
864 283 Pls
865 283 Pls
865 283 Pls
865 283 Pls
865 283 Pls
865 283 Pls
865 283 Pls
865 283 Pls
865 283 Pls
866 283 Pls
866 283 Pls
866 283 Pls
866 283 Pls
866 283 Pls
866 283 Pls
866 283 Pls
866 283 Pls
867 283 Pls
867 283 Pls
867 283 Pls
867 283 Pls
867 283 Pls
867 283 Pls
867 283 Pls
867 283 Pls
868 283 Pls
868 283 Pls
868 283 Pls
868 283 Pls
868 283 Pls
868 283 Pls
869 283 Pls
869 283 Pls
869 283 Pls
869 283 Pls
869 283 Pls
869 283 Pls
869 283 Pls
870 283 Pls
870 283 Pls
870 283 Pls
870 283 Pls
870 283 Pls
870 283 Pls
870 283 Pls
870 283 Pls
871 283 Pls
871 283 Pls
871 283 Pls
871 283 Pls
871 283 Pls
871 283 Pls
871 283 Pls
871 283 Pls
872 283 Pls
872 283 Pls
872 283 Pls
872 283 Pls
872 283 Pls
872 283 Pls
872 283 Pls
872 283 Pls
873 283 Pls
873 283 Pls
873 283 Pls
873 283 Pls
873 283 Pls
873 283 Pls
873 283 Pls
873 283 Pls
874 283 Pls
874 283 Pls
874 283 Pls
874 283 Pls
874 283 Pls
874 283 Pls
874 283 Pls
874 283 Pls
875 283 Pls
875 283 Pls
875 283 Pls
875 283 Pls
875 283 Pls
875 283 Pls
876 283 Pls
876 283 Pls
876 283 Pls
876 283 Pls
876 283 Pls
876 283 Pls
876 283 Pls
876 283 Pls
877 283 Pls
877 283 Pls
877 283 Pls
877 283 Pls
877 283 Pls
877 283 Pls
877 283 Pls
877 283 Pls
878 283 Pls
878 283 Pls
878 283 Pls
878 283 Pls
878 283 Pls
878 283 Pls
878 283 Pls
878 283 Pls
879 283 Pls
879 283 Pls
879 283 Pls
879 283 Pls
879 283 Pls
879 283 Pls
879 283 Pls
880 283 Pls
880 283 Pls
880 283 Pls
880 283 Pls
880 283 Pls
880 283 Pls
880 283 Pls
881 283 Pls
881 283 Pls
881 283 Pls
881 283 Pls
881 283 Pls
881 283 Pls
881 283 Pls
881 283 Pls
882 283 Pls
882 283 Pls
882 283 Pls
882 283 Pls
882 283 Pls
882 283 Pls
882 283 Pls
882 283 Pls
883 283 Pls
883 283 Pls
883 283 Pls
883 283 Pls
883 283 Pls
883 283 Pls
883 283 Pls
883 283 Pls
884 283 Pls
884 282 Pls
884 282 Pls
884 282 Pls
884 282 Pls
884 282 Pls
884 282 Pls
884 282 Pls
885 282 Pls
885 282 Pls
885 282 Pls
885 282 Pls
885 282 Pls
885 282 Pls
885 282 Pls
886 282 Pls
886 282 Pls
886 282 Pls
886 282 Pls
886 282 Pls
886 282 Pls
886 282 Pls
886 282 Pls
887 282 Pls
887 282 Pls
887 282 Pls
887 282 Pls
887 282 Pls
887 282 Pls
887 282 Pls
887 282 Pls
888 282 Pls
888 282 Pls
888 282 Pls
888 282 Pls
888 282 Pls
888 282 Pls
888 282 Pls
888 282 Pls
889 282 Pls
889 282 Pls
889 282 Pls
889 282 Pls
889 282 Pls
889 282 Pls
889 282 Pls
889 282 Pls
890 282 Pls
890 282 Pls
890 282 Pls
890 282 Pls
890 282 Pls
890 282 Pls
891 282 Pls
891 282 Pls
891 282 Pls
891 282 Pls
891 282 Pls
891 282 Pls
891 282 Pls
891 282 Pls
892 282 Pls
892 282 Pls
892 282 Pls
892 282 Pls
892 282 Pls
892 282 Pls
892 282 Pls
893 282 Pls
893 282 Pls
893 282 Pls
893 282 Pls
893 282 Pls
893 282 Pls
893 282 Pls
893 282 Pls
894 282 Pls
894 282 Pls
894 282 Pls
894 282 Pls
894 282 Pls
894 282 Pls
894 282 Pls
895 282 Pls
895 282 Pls
895 282 Pls
895 282 Pls
895 282 Pls
895 282 Pls
895 282 Pls
895 282 Pls
896 282 Pls
896 282 Pls
896 282 Pls
896 282 Pls
896 282 Pls
896 282 Pls
896 282 Pls
897 282 Pls
897 282 Pls
897 282 Pls
897 282 Pls
897 282 Pls
897 282 Pls
897 282 Pls
898 282 Pls
898 282 Pls
898 282 Pls
898 282 Pls
898 282 Pls
898 282 Pls
898 282 Pls
898 282 Pls
899 282 Pls
899 282 Pls
899 282 Pls
899 282 Pls
899 282 Pls
899 282 Pls
899 282 Pls
899 282 Pls
900 282 Pls
900 282 Pls
900 282 Pls
900 282 Pls
900 282 Pls
900 282 Pls
900 282 Pls
901 282 Pls
901 282 Pls
901 282 Pls
901 282 Pls
901 282 Pls
901 282 Pls
902 282 Pls
902 282 Pls
902 282 Pls
902 282 Pls
902 282 Pls
902 282 Pls
902 282 Pls
902 282 Pls
903 282 Pls
903 282 Pls
903 282 Pls
903 282 Pls
903 282 Pls
903 282 Pls
903 282 Pls
904 282 Pls
904 282 Pls
904 282 Pls
904 282 Pls
904 282 Pls
904 282 Pls
905 282 Pls
905 282 Pls
905 282 Pls
905 282 Pls
905 282 Pls
905 282 Pls
906 282 Pls
906 282 Pls
906 282 Pls
906 282 Pls
906 282 Pls
906 282 Pls
906 282 Pls
907 282 Pls
907 282 Pls
907 282 Pls
907 282 Pls
907 282 Pls
907 282 Pls
907 282 Pls
907 282 Pls
908 282 Pls
908 282 Pls
908 282 Pls
908 282 Pls
908 282 Pls
908 282 Pls
908 282 Pls
909 282 Pls
909 282 Pls
909 282 Pls
909 282 Pls
909 282 Pls
909 282 Pls
909 282 Pls
909 282 Pls
910 282 Pls
910 282 Pls
910 282 Pls
910 282 Pls
910 282 Pls
910 282 Pls
910 282 Pls
910 282 Pls
911 282 Pls
911 282 Pls
911 282 Pls
911 282 Pls
911 282 Pls
911 282 Pls
911 282 Pls
911 282 Pls
912 282 Pls
912 282 Pls
912 282 Pls
912 282 Pls
912 282 Pls
912 282 Pls
913 282 Pls
913 282 Pls
913 282 Pls
913 282 Pls
913 282 Pls
913 282 Pls
913 282 Pls
913 282 Pls
914 282 Pls
914 282 Pls
914 282 Pls
914 282 Pls
914 282 Pls
914 282 Pls
914 282 Pls
914 282 Pls
915 282 Pls
915 282 Pls
915 282 Pls
915 282 Pls
915 282 Pls
915 282 Pls
915 282 Pls
916 282 Pls
916 282 Pls
916 282 Pls
916 282 Pls
916 282 Pls
916 282 Pls
916 282 Pls
916 282 Pls
917 282 Pls
917 282 Pls
917 282 Pls
917 282 Pls
917 282 Pls
917 282 Pls
917 282 Pls
918 282 Pls
918 282 Pls
918 282 Pls
918 282 Pls
918 282 Pls
918 282 Pls
918 282 Pls
918 282 Pls
919 282 Pls
919 282 Pls
919 282 Pls
919 282 Pls
919 282 Pls
919 282 Pls
919 282 Pls
919 282 Pls
920 282 Pls
920 282 Pls
920 282 Pls
920 282 Pls
920 282 Pls
920 282 Pls
920 282 Pls
920 282 Pls
921 282 Pls
921 282 Pls
921 282 Pls
921 282 Pls
921 282 Pls
921 282 Pls
922 282 Pls
922 282 Pls
922 282 Pls
922 282 Pls
922 282 Pls
922 282 Pls
922 282 Pls
923 282 Pls
923 282 Pls
923 282 Pls
923 282 Pls
923 282 Pls
923 282 Pls
923 282 Pls
923 282 Pls
924 282 Pls
924 282 Pls
924 282 Pls
924 282 Pls
924 282 Pls
924 282 Pls
924 282 Pls
925 282 Pls
925 282 Pls
925 282 Pls
925 282 Pls
925 282 Pls
925 282 Pls
925 282 Pls
926 282 Pls
926 282 Pls
926 282 Pls
926 282 Pls
926 282 Pls
926 282 Pls
926 282 Pls
926 282 Pls
927 282 Pls
927 282 Pls
927 282 Pls
927 282 Pls
927 282 Pls
927 282 Pls
927 282 Pls
927 282 Pls
928 282 Pls
928 282 Pls
928 282 Pls
928 282 Pls
929 282 Pls
929 282 Pls
929 282 Pls
929 282 Pls
929 282 Pls
929 282 Pls
930 282 Pls
930 282 Pls
930 282 Pls
930 282 Pls
930 282 Pls
930 282 Pls
930 282 Pls
930 282 Pls
931 282 Pls
931 282 Pls
931 282 Pls
931 282 Pls
931 282 Pls
931 282 Pls
931 282 Pls
932 282 Pls
932 282 Pls
932 282 Pls
932 282 Pls
932 282 Pls
932 282 Pls
932 282 Pls
933 282 Pls
933 282 Pls
933 282 Pls
933 282 Pls
933 282 Pls
934 282 Pls
934 282 Pls
934 282 Pls
934 282 Pls
934 282 Pls
935 282 Pls
935 282 Pls
935 282 Pls
935 282 Pls
935 282 Pls
935 282 Pls
935 282 Pls
935 282 Pls
936 282 Pls
936 282 Pls
936 282 Pls
936 282 Pls
936 282 Pls
936 282 Pls
936 282 Pls
937 282 Pls
937 282 Pls
937 282 Pls
937 282 Pls
937 282 Pls
937 282 Pls
937 282 Pls
937 282 Pls
938 282 Pls
938 282 Pls
938 282 Pls
938 282 Pls
938 282 Pls
938 282 Pls
938 282 Pls
939 282 Pls
939 282 Pls
939 282 Pls
939 282 Pls
939 282 Pls
939 282 Pls
939 282 Pls
940 282 Pls
940 282 Pls
940 282 Pls
940 282 Pls
940 282 Pls
940 282 Pls
940 282 Pls
940 282 Pls
941 282 Pls
941 282 Pls
941 282 Pls
941 282 Pls
941 282 Pls
941 282 Pls
941 282 Pls
941 282 Pls
942 282 Pls
942 282 Pls
942 282 Pls
942 282 Pls
942 282 Pls
942 282 Pls
943 282 Pls
943 282 Pls
943 282 Pls
943 282 Pls
943 282 Pls
943 282 Pls
943 282 Pls
944 282 Pls
944 282 Pls
944 282 Pls
944 282 Pls
944 282 Pls
944 282 Pls
945 282 Pls
945 282 Pls
945 282 Pls
945 282 Pls
945 282 Pls
945 282 Pls
946 282 Pls
946 282 Pls
946 282 Pls
946 282 Pls
946 282 Pls
946 282 Pls
946 282 Pls
947 282 Pls
947 282 Pls
947 282 Pls
947 282 Pls
947 282 Pls
947 282 Pls
947 282 Pls
948 282 Pls
948 282 Pls
948 282 Pls
948 282 Pls
948 282 Pls
948 282 Pls
948 282 Pls
948 282 Pls
949 282 Pls
949 282 Pls
949 282 Pls
949 282 Pls
949 282 Pls
949 282 Pls
949 282 Pls
950 282 Pls
950 282 Pls
950 282 Pls
950 282 Pls
950 282 Pls
950 282 Pls
950 282 Pls
950 282 Pls
951 282 Pls
951 282 Pls
951 282 Pls
951 282 Pls
951 282 Pls
951 282 Pls
951 282 Pls
951 282 Pls
952 282 Pls
952 282 Pls
952 282 Pls
952 282 Pls
952 282 Pls
952 282 Pls
952 282 Pls
953 282 Pls
953 282 Pls
953 282 Pls
953 282 Pls
953 282 Pls
953 282 Pls
953 282 Pls
954 282 Pls
954 282 Pls
954 282 Pls
954 282 Pls
954 282 Pls
954 282 Pls
955 282 Pls
955 282 Pls
955 282 Pls
955 282 Pls
955 282 Pls
955 282 Pls
955 282 Pls
955 282 Pls
956 282 Pls
956 282 Pls
956 282 Pls
956 282 Pls
956 282 Pls
956 282 Pls
956 282 Pls
957 282 Pls
957 282 Pls
957 282 Pls
957 282 Pls
957 282 Pls
957 282 Pls
957 282 Pls
958 282 Pls
958 282 Pls
958 282 Pls
958 282 Pls
958 282 Pls
958 282 Pls
959 282 Pls
959 282 Pls
959 282 Pls
959 282 Pls
959 282 Pls
959 282 Pls
960 282 Pls
960 282 Pls
960 282 Pls
960 282 Pls
960 282 Pls
961 282 Pls
961 282 Pls
961 282 Pls
961 282 Pls
961 282 Pls
961 282 Pls
961 282 Pls
962 282 Pls
962 282 Pls
962 282 Pls
962 282 Pls
962 282 Pls
962 282 Pls
963 282 Pls
963 282 Pls
963 282 Pls
963 282 Pls
963 282 Pls
963 282 Pls
964 282 Pls
964 282 Pls
964 282 Pls
964 282 Pls
964 282 Pls
964 282 Pls
964 282 Pls
965 282 Pls
965 282 Pls
965 282 Pls
965 282 Pls
965 282 Pls
966 282 Pls
966 282 Pls
966 282 Pls
966 282 Pls
966 282 Pls
966 282 Pls
966 282 Pls
967 282 Pls
967 282 Pls
967 282 Pls
967 282 Pls
967 282 Pls
967 282 Pls
967 282 Pls
968 282 Pls
968 282 Pls
968 282 Pls
968 282 Pls
968 282 Pls
968 282 Pls
968 282 Pls
968 282 Pls
969 282 Pls
969 282 Pls
969 282 Pls
969 282 Pls
969 282 Pls
970 282 Pls
970 282 Pls
970 282 Pls
970 282 Pls
970 282 Pls
970 282 Pls
970 282 Pls
971 282 Pls
971 282 Pls
971 282 Pls
971 282 Pls
971 282 Pls
972 282 Pls
972 282 Pls
972 282 Pls
972 282 Pls
972 282 Pls
972 282 Pls
973 282 Pls
973 282 Pls
973 282 Pls
973 282 Pls
973 282 Pls
973 282 Pls
973 282 Pls
974 282 Pls
974 282 Pls
974 282 Pls
974 282 Pls
974 282 Pls
974 282 Pls
974 282 Pls
974 282 Pls
975 282 Pls
975 282 Pls
975 282 Pls
975 282 Pls
975 282 Pls
975 282 Pls
976 282 Pls
976 282 Pls
976 282 Pls
976 282 Pls
976 282 Pls
977 282 Pls
977 282 Pls
977 282 Pls
977 282 Pls
977 282 Pls
978 282 Pls
978 282 Pls
978 282 Pls
978 282 Pls
978 282 Pls
978 282 Pls
978 282 Pls
979 282 Pls
979 282 Pls
979 282 Pls
979 282 Pls
979 282 Pls
980 282 Pls
980 282 Pls
980 282 Pls
980 282 Pls
980 282 Pls
981 282 Pls
981 282 Pls
981 282 Pls
981 282 Pls
981 282 Pls
981 282 Pls
981 282 Pls
982 282 Pls
982 282 Pls
982 282 Pls
982 282 Pls
982 282 Pls
982 282 Pls
983 282 Pls
983 282 Pls
983 282 Pls
983 282 Pls
983 282 Pls
984 282 Pls
984 282 Pls
984 282 Pls
984 282 Pls
984 282 Pls
984 282 Pls
985 282 Pls
985 282 Pls
985 282 Pls
985 282 Pls
985 282 Pls
985 282 Pls
986 282 Pls
986 282 Pls
986 282 Pls
986 282 Pls
986 282 Pls
986 282 Pls
986 282 Pls
987 282 Pls
987 282 Pls
987 282 Pls
987 282 Pls
987 282 Pls
987 282 Pls
987 282 Pls
988 282 Pls
988 282 Pls
988 282 Pls
988 282 Pls
988 282 Pls
988 282 Pls
988 282 Pls
989 282 Pls
989 282 Pls
989 282 Pls
989 282 Pls
989 282 Pls
989 282 Pls
989 282 Pls
990 282 Pls
990 282 Pls
990 282 Pls
990 282 Pls
991 282 Pls
991 282 Pls
991 282 Pls
991 282 Pls
991 282 Pls
991 282 Pls
991 282 Pls
992 282 Pls
992 282 Pls
992 282 Pls
992 282 Pls
992 282 Pls
992 282 Pls
992 282 Pls
993 282 Pls
993 282 Pls
993 282 Pls
993 282 Pls
993 282 Pls
993 282 Pls
993 282 Pls
994 282 Pls
994 282 Pls
994 282 Pls
994 282 Pls
994 282 Pls
994 282 Pls
994 282 Pls
994 282 Pls
995 282 Pls
995 282 Pls
995 282 Pls
995 282 Pls
995 282 Pls
995 282 Pls
995 282 Pls
996 282 Pls
996 282 Pls
996 282 Pls
996 282 Pls
996 282 Pls
996 282 Pls
997 282 Pls
997 282 Pls
997 282 Pls
997 282 Pls
997 282 Pls
997 282 Pls
997 282 Pls
998 282 Pls
998 282 Pls
998 282 Pls
998 282 Pls
998 282 Pls
998 282 Pls
998 282 Pls
998 282 Pls
999 282 Pls
999 282 Pls
999 282 Pls
999 282 Pls
999 282 Pls
999 282 Pls
999 282 Pls
999 282 Pls
1000 282 Pls
1000 282 Pls
1000 282 Pls
1000 282 Pls
1000 282 Pls
1000 282 Pls
1000 282 Pls
1000 282 Pls
1001 282 Pls
1001 282 Pls
1001 282 Pls
1001 282 Pls
1001 282 Pls
1001 282 Pls
1001 282 Pls
1002 282 Pls
1002 282 Pls
1002 282 Pls
1002 282 Pls
1002 282 Pls
1002 282 Pls
1003 282 Pls
1003 282 Pls
1003 282 Pls
1003 282 Pls
1003 282 Pls
1003 282 Pls
1003 282 Pls
1004 282 Pls
1004 282 Pls
1004 282 Pls
1004 282 Pls
1004 282 Pls
1004 282 Pls
1004 282 Pls
1005 282 Pls
1005 282 Pls
1005 282 Pls
1005 282 Pls
1005 282 Pls
1005 282 Pls
1005 282 Pls
1005 282 Pls
1006 282 Pls
1006 282 Pls
1006 282 Pls
1006 282 Pls
1006 282 Pls
1006 282 Pls
1007 282 Pls
1007 282 Pls
1007 282 Pls
1007 282 Pls
1007 282 Pls
1007 282 Pls
1007 282 Pls
1008 282 Pls
1008 282 Pls
1008 282 Pls
1008 282 Pls
1008 282 Pls
1008 282 Pls
1009 282 Pls
1009 282 Pls
1009 282 Pls
1009 282 Pls
1009 282 Pls
1009 282 Pls
1009 282 Pls
1010 282 Pls
1010 282 Pls
1010 282 Pls
1010 282 Pls
1011 282 Pls
1011 282 Pls
1011 282 Pls
1011 282 Pls
1011 282 Pls
1011 282 Pls
1011 282 Pls
1012 282 Pls
1012 282 Pls
1012 282 Pls
1012 282 Pls
1013 282 Pls
1013 282 Pls
1013 282 Pls
1013 282 Pls
1013 282 Pls
1013 282 Pls
1013 282 Pls
1014 282 Pls
1014 282 Pls
1014 282 Pls
1014 282 Pls
1014 282 Pls
1014 282 Pls
1014 282 Pls
1014 282 Pls
1015 282 Pls
1015 282 Pls
1015 282 Pls
1015 282 Pls
1015 282 Pls
1015 282 Pls
1015 282 Pls
1016 282 Pls
1016 282 Pls
1016 282 Pls
1017 282 Pls
1017 282 Pls
1017 282 Pls
1017 282 Pls
1017 282 Pls
1018 282 Pls
1018 282 Pls
1018 282 Pls
1018 282 Pls
1018 282 Pls
1019 282 Pls
1019 282 Pls
1019 282 Pls
1019 282 Pls
1019 282 Pls
1019 282 Pls
1019 282 Pls
1020 282 Pls
1020 282 Pls
1020 282 Pls
1020 282 Pls
1021 282 Pls
1021 282 Pls
1021 282 Pls
1021 282 Pls
1021 282 Pls
1021 282 Pls
1021 282 Pls
1022 282 Pls
1022 282 Pls
1022 282 Pls
1022 282 Pls
1022 282 Pls
1022 282 Pls
1023 282 Pls
1023 282 Pls
1023 282 Pls
1023 282 Pls
1024 282 Pls
1024 282 Pls
1024 282 Pls
1024 282 Pls
1024 282 Pls
1024 282 Pls
1024 282 Pls
1025 282 Pls
1025 282 Pls
1025 282 Pls
1025 282 Pls
1025 282 Pls
1026 282 Pls
1026 282 Pls
1026 282 Pls
1026 282 Pls
1026 282 Pls
1026 282 Pls
1026 282 Pls
1026 282 Pls
1027 282 Pls
1027 282 Pls
1027 282 Pls
1027 282 Pls
1027 282 Pls
1027 282 Pls
1028 282 Pls
1028 282 Pls
1028 282 Pls
1028 282 Pls
1028 282 Pls
1028 282 Pls
1029 282 Pls
1029 282 Pls
1029 282 Pls
1029 282 Pls
1030 282 Pls
1030 282 Pls
1030 282 Pls
1030 282 Pls
1030 282 Pls
1031 282 Pls
1031 282 Pls
1031 282 Pls
1031 282 Pls
1031 282 Pls
1031 282 Pls
1032 282 Pls
1032 282 Pls
1032 282 Pls
1032 282 Pls
1032 282 Pls
1032 282 Pls
1032 282 Pls
1033 282 Pls
1033 281 Pls
1033 281 Pls
1033 281 Pls
1033 281 Pls
1034 281 Pls
1034 281 Pls
1034 281 Pls
1034 281 Pls
1034 281 Pls
1034 281 Pls
1034 281 Pls
1035 281 Pls
1035 281 Pls
1035 281 Pls
1035 281 Pls
1035 281 Pls
1035 281 Pls
1036 281 Pls
1036 281 Pls
1036 281 Pls
1036 281 Pls
1037 281 Pls
1037 281 Pls
1037 281 Pls
1037 281 Pls
1037 281 Pls
1037 281 Pls
1037 281 Pls
1038 281 Pls
1038 281 Pls
1038 281 Pls
1038 281 Pls
1038 281 Pls
1038 281 Pls
1038 281 Pls
1039 281 Pls
1039 281 Pls
1039 281 Pls
1039 281 Pls
1039 281 Pls
1040 281 Pls
1040 281 Pls
1040 281 Pls
1040 281 Pls
1040 281 Pls
1040 281 Pls
1041 281 Pls
1041 281 Pls
1041 281 Pls
1041 281 Pls
1041 281 Pls
1041 281 Pls
1042 281 Pls
1042 281 Pls
1042 281 Pls
1042 281 Pls
1042 281 Pls
1042 281 Pls
1043 281 Pls
1043 281 Pls
1043 281 Pls
1043 281 Pls
1043 281 Pls
1043 281 Pls
1044 281 Pls
1044 281 Pls
1044 281 Pls
1044 281 Pls
1044 281 Pls
1045 281 Pls
1045 281 Pls
1045 281 Pls
1045 281 Pls
1045 281 Pls
1045 281 Pls
1046 281 Pls
1046 281 Pls
1046 281 Pls
1046 281 Pls
1046 281 Pls
1046 281 Pls
1046 281 Pls
1047 281 Pls
1047 281 Pls
1047 281 Pls
1047 281 Pls
1048 281 Pls
1048 281 Pls
1048 281 Pls
1048 281 Pls
1048 281 Pls
1048 281 Pls
1048 281 Pls
1049 281 Pls
1049 281 Pls
1049 281 Pls
1049 281 Pls
1049 281 Pls
1049 281 Pls
1050 281 Pls
1050 281 Pls
1050 281 Pls
1050 281 Pls
1050 281 Pls
1050 281 Pls
1050 281 Pls
1051 281 Pls
1051 281 Pls
1051 281 Pls
1051 281 Pls
1051 281 Pls
1051 281 Pls
1052 281 Pls
1052 281 Pls
1052 281 Pls
1052 281 Pls
1052 281 Pls
1052 281 Pls
1053 281 Pls
1053 281 Pls
1053 281 Pls
1053 281 Pls
1053 281 Pls
1053 281 Pls
1054 281 Pls
1054 281 Pls
1054 281 Pls
1054 281 Pls
1054 281 Pls
1054 281 Pls
1055 281 Pls
1055 281 Pls
1055 281 Pls
1055 281 Pls
1055 281 Pls
1055 281 Pls
1055 281 Pls
1056 281 Pls
1056 281 Pls
1056 281 Pls
1056 281 Pls
1056 281 Pls
1056 281 Pls
1056 281 Pls
1057 281 Pls
1057 281 Pls
1057 281 Pls
1057 281 Pls
1057 281 Pls
1057 281 Pls
1057 281 Pls
1058 281 Pls
1058 281 Pls
1058 281 Pls
1058 281 Pls
1058 281 Pls
1058 281 Pls
1058 281 Pls
1059 281 Pls
1059 281 Pls
1059 281 Pls
1059 281 Pls
1059 281 Pls
1059 281 Pls
1059 281 Pls
1059 281 Pls
1060 281 Pls
1060 281 Pls
1060 281 Pls
1060 281 Pls
1060 281 Pls
1060 281 Pls
1060 281 Pls
1061 281 Pls
1061 281 Pls
1061 281 Pls
1061 281 Pls
1061 281 Pls
1061 281 Pls
1062 281 Pls
1062 281 Pls
1062 281 Pls
1062 281 Pls
1062 281 Pls
1062 281 Pls
1062 281 Pls
1063 281 Pls
1063 281 Pls
1063 281 Pls
1063 281 Pls
1063 281 Pls
1063 281 Pls
1064 281 Pls
1064 281 Pls
1064 281 Pls
1064 281 Pls
1064 281 Pls
1064 281 Pls
1064 281 Pls
1065 281 Pls
1065 281 Pls
1065 281 Pls
1065 281 Pls
1065 281 Pls
1066 281 Pls
1066 281 Pls
1066 281 Pls
1066 281 Pls
1066 281 Pls
1066 281 Pls
1067 281 Pls
1067 281 Pls
1067 281 Pls
1067 281 Pls
1067 281 Pls
1068 281 Pls
1068 281 Pls
1068 281 Pls
1068 281 Pls
1068 281 Pls
1068 281 Pls
1069 281 Pls
1069 281 Pls
1069 281 Pls
1069 281 Pls
1069 281 Pls
1069 281 Pls
1069 281 Pls
1070 281 Pls
1070 281 Pls
1070 281 Pls
1070 281 Pls
1070 281 Pls
1070 281 Pls
1070 281 Pls
1070 281 Pls
1071 281 Pls
1071 281 Pls
1071 281 Pls
1071 281 Pls
1071 281 Pls
1072 281 Pls
1072 281 Pls
1072 281 Pls
1072 281 Pls
1072 281 Pls
1072 281 Pls
1073 281 Pls
1073 281 Pls
1073 281 Pls
1073 281 Pls
1073 281 Pls
1073 281 Pls
1074 281 Pls
1074 281 Pls
1074 281 Pls
1074 281 Pls
1074 281 Pls
1075 281 Pls
1075 281 Pls
1075 281 Pls
1075 281 Pls
1075 281 Pls
1076 281 Pls
1076 281 Pls
1076 281 Pls
1076 281 Pls
1076 281 Pls
1076 281 Pls
1076 281 Pls
1077 281 Pls
1077 281 Pls
1077 281 Pls
1077 281 Pls
1077 281 Pls
1077 281 Pls
1077 281 Pls
1078 281 Pls
1078 281 Pls
1078 281 Pls
1078 281 Pls
1078 281 Pls
1078 281 Pls
1078 281 Pls
1078 281 Pls
1079 281 Pls
1079 281 Pls
1079 281 Pls
1079 281 Pls
1079 281 Pls
1079 281 Pls
1079 281 Pls
1080 281 Pls
1080 281 Pls
1080 281 Pls
1080 281 Pls
1080 281 Pls
1080 281 Pls
1080 281 Pls
1080 281 Pls
1081 281 Pls
1081 281 Pls
1081 281 Pls
1081 281 Pls
1081 281 Pls
1081 281 Pls
1081 281 Pls
1082 281 Pls
1082 281 Pls
1082 281 Pls
1082 281 Pls
1082 281 Pls
1082 281 Pls
1083 281 Pls
1083 281 Pls
1083 281 Pls
1083 281 Pls
1083 281 Pls
1083 281 Pls
1084 281 Pls
1084 281 Pls
1084 281 Pls
1084 281 Pls
1085 281 Pls
1085 281 Pls
1085 281 Pls
1085 281 Pls
1085 281 Pls
1085 281 Pls
1085 281 Pls
1085 281 Pls
1086 281 Pls
1086 281 Pls
1086 281 Pls
1086 281 Pls
1086 281 Pls
1087 281 Pls
1087 281 Pls
1087 281 Pls
1087 281 Pls
1087 281 Pls
1087 281 Pls
1088 281 Pls
1088 281 Pls
1088 281 Pls
1088 281 Pls
1088 281 Pls
1088 281 Pls
1089 281 Pls
1089 281 Pls
1089 281 Pls
1089 281 Pls
1089 281 Pls
1089 281 Pls
1090 281 Pls
1090 281 Pls
1090 281 Pls
1090 281 Pls
1090 281 Pls
1090 281 Pls
1090 281 Pls
1091 281 Pls
1091 281 Pls
1091 281 Pls
1092 281 Pls
1092 281 Pls
1092 281 Pls
1092 281 Pls
1092 281 Pls
1092 281 Pls
1093 281 Pls
1093 281 Pls
1093 281 Pls
1093 281 Pls
1093 281 Pls
1093 281 Pls
1093 281 Pls
1094 281 Pls
1094 281 Pls
1094 281 Pls
1094 281 Pls
1094 281 Pls
1095 281 Pls
1095 281 Pls
1095 281 Pls
1096 281 Pls
1096 281 Pls
1096 281 Pls
1096 281 Pls
1096 281 Pls
1097 281 Pls
1097 281 Pls
1097 281 Pls
1097 281 Pls
1097 281 Pls
1098 281 Pls
1098 281 Pls
1098 281 Pls
1098 281 Pls
1098 281 Pls
1098 281 Pls
1098 281 Pls
1099 281 Pls
1099 281 Pls
1099 281 Pls
1099 281 Pls
1099 281 Pls
1099 281 Pls
1099 281 Pls
1099 281 Pls
1100 281 Pls
1100 281 Pls
1100 281 Pls
1100 281 Pls
1100 281 Pls
1101 281 Pls
1101 281 Pls
1101 281 Pls
1101 281 Pls
1101 281 Pls
1101 281 Pls
1102 281 Pls
1102 281 Pls
1102 281 Pls
1102 281 Pls
1102 281 Pls
1103 281 Pls
1103 281 Pls
1103 281 Pls
1103 281 Pls
1103 281 Pls
1103 281 Pls
1104 281 Pls
1104 281 Pls
1104 281 Pls
1104 281 Pls
1104 281 Pls
1104 281 Pls
1105 281 Pls
1105 281 Pls
1105 281 Pls
1105 281 Pls
1105 281 Pls
1105 281 Pls
1105 281 Pls
1106 281 Pls
1106 281 Pls
1106 281 Pls
1106 281 Pls
1106 281 Pls
1106 281 Pls
1106 281 Pls
1106 281 Pls
1107 281 Pls
1107 281 Pls
1107 281 Pls
1107 281 Pls
1107 281 Pls
1108 281 Pls
1108 281 Pls
1108 281 Pls
1108 281 Pls
1108 281 Pls
1109 281 Pls
1109 281 Pls
1109 281 Pls
1109 281 Pls
1109 281 Pls
1109 281 Pls
1110 281 Pls
1110 281 Pls
1110 281 Pls
1110 281 Pls
1110 281 Pls
1110 281 Pls
1111 281 Pls
1111 281 Pls
1111 281 Pls
1111 281 Pls
1111 281 Pls
1112 281 Pls
1112 281 Pls
1112 281 Pls
1112 281 Pls
1112 281 Pls
1112 281 Pls
1113 281 Pls
1113 281 Pls
1113 281 Pls
1113 281 Pls
1113 281 Pls
1114 281 Pls
1114 281 Pls
1114 281 Pls
1114 281 Pls
1114 281 Pls
1114 281 Pls
1115 281 Pls
1115 281 Pls
1115 281 Pls
1115 281 Pls
1115 281 Pls
1115 281 Pls
1116 281 Pls
1116 281 Pls
1116 281 Pls
1116 281 Pls
1116 281 Pls
1117 281 Pls
1117 281 Pls
1117 281 Pls
1117 281 Pls
1117 281 Pls
1118 281 Pls
1118 281 Pls
1118 281 Pls
1118 281 Pls
1119 281 Pls
1119 281 Pls
1119 281 Pls
1119 281 Pls
1119 281 Pls
1119 281 Pls
1120 281 Pls
1120 281 Pls
1120 281 Pls
1120 281 Pls
1120 281 Pls
1120 281 Pls
1121 281 Pls
1121 281 Pls
1121 281 Pls
1121 281 Pls
1121 281 Pls
1122 281 Pls
1122 281 Pls
1122 281 Pls
1122 281 Pls
1122 281 Pls
1122 281 Pls
1122 281 Pls
1122 281 Pls
1123 281 Pls
1123 281 Pls
1123 281 Pls
1123 281 Pls
1123 281 Pls
1123 281 Pls
1123 281 Pls
1124 281 Pls
1124 281 Pls
1124 281 Pls
1124 281 Pls
1124 281 Pls
1125 281 Pls
1125 281 Pls
1125 281 Pls
1125 281 Pls
1126 281 Pls
1126 281 Pls
1126 281 Pls
1126 281 Pls
1126 281 Pls
1126 281 Pls
1127 281 Pls
1127 281 Pls
1127 281 Pls
1127 281 Pls
1127 281 Pls
1127 281 Pls
1128 281 Pls
1128 281 Pls
1128 281 Pls
1128 281 Pls
1128 281 Pls
1128 281 Pls
1128 281 Pls
1129 281 Pls
1129 281 Pls
1129 281 Pls
1129 281 Pls
1129 281 Pls
1129 281 Pls
1130 281 Pls
1130 281 Pls
1130 281 Pls
1130 281 Pls
1130 281 Pls
1130 281 Pls
1131 281 Pls
1131 281 Pls
1131 281 Pls
1131 281 Pls
1131 281 Pls
1131 281 Pls
1131 281 Pls
1131 281 Pls
1132 281 Pls
1132 281 Pls
1132 281 Pls
1132 281 Pls
1132 281 Pls
1132 281 Pls
1133 281 Pls
1133 281 Pls
1133 281 Pls
1133 281 Pls
1134 281 Pls
1134 281 Pls
1134 281 Pls
1134 281 Pls
1134 281 Pls
1134 281 Pls
1134 281 Pls
1135 281 Pls
1135 281 Pls
1135 281 Pls
1135 281 Pls
1135 281 Pls
1136 281 Pls
1136 281 Pls
1136 281 Pls
1136 281 Pls
1136 281 Pls
1136 281 Pls
1137 281 Pls
1137 281 Pls
1137 281 Pls
1137 281 Pls
1137 281 Pls
1137 281 Pls
1137 281 Pls
1138 281 Pls
1138 281 Pls
1138 281 Pls
1138 281 Pls
1138 281 Pls
1138 281 Pls
1139 281 Pls
1139 281 Pls
1139 281 Pls
1139 281 Pls
1140 281 Pls
1140 281 Pls
1140 281 Pls
1140 281 Pls
1140 281 Pls
1140 281 Pls
1140 281 Pls
1141 281 Pls
1141 281 Pls
1141 281 Pls
1141 281 Pls
1141 281 Pls
1141 281 Pls
1141 281 Pls
1142 281 Pls
1142 281 Pls
1142 281 Pls
1142 281 Pls
1142 281 Pls
1142 281 Pls
1142 281 Pls
1143 281 Pls
1143 281 Pls
1143 281 Pls
1143 281 Pls
1143 281 Pls
1144 281 Pls
1144 281 Pls
1144 281 Pls
1144 281 Pls
1144 281 Pls
1145 281 Pls
1145 281 Pls
1145 281 Pls
1145 281 Pls
1146 281 Pls
1146 281 Pls
1146 281 Pls
1146 281 Pls
1146 281 Pls
1147 281 Pls
1147 281 Pls
1147 281 Pls
1147 281 Pls
1147 281 Pls
1147 281 Pls
1148 281 Pls
1148 281 Pls
1148 281 Pls
1148 281 Pls
1148 281 Pls
1148 281 Pls
1148 281 Pls
1149 281 Pls
1149 281 Pls
1149 281 Pls
1149 281 Pls
1149 281 Pls
1150 281 Pls
1150 281 Pls
1150 281 Pls
1150 281 Pls
1150 281 Pls
1151 281 Pls
1151 281 Pls
1151 281 Pls
1151 281 Pls
1151 281 Pls
1151 281 Pls
1151 281 Pls
1152 281 Pls
1152 281 Pls
1152 281 Pls
1152 281 Pls
1153 281 Pls
1153 281 Pls
1153 281 Pls
1153 281 Pls
1153 281 Pls
1154 281 Pls
1154 281 Pls
1154 281 Pls
1154 281 Pls
1154 281 Pls
1154 281 Pls
1154 281 Pls
1154 281 Pls
1155 281 Pls
1155 281 Pls
1155 281 Pls
1155 281 Pls
1156 281 Pls
1156 281 Pls
1156 281 Pls
1156 281 Pls
1156 281 Pls
1156 281 Pls
1156 281 Pls
1156 281 Pls
1157 281 Pls
1157 281 Pls
1157 281 Pls
1157 281 Pls
1157 281 Pls
1157 281 Pls
1157 281 Pls
1157 281 Pls
1158 281 Pls
1158 281 Pls
1158 281 Pls
1158 281 Pls
1158 281 Pls
1158 281 Pls
1158 281 Pls
1159 281 Pls
1159 281 Pls
1159 281 Pls
1159 281 Pls
1159 281 Pls
1159 281 Pls
1159 281 Pls
1160 281 Pls
1160 281 Pls
1160 281 Pls
1160 281 Pls
1160 281 Pls
1161 281 Pls
1161 281 Pls
1161 281 Pls
1161 281 Pls
1161 281 Pls
1161 281 Pls
1162 281 Pls
1162 281 Pls
1162 281 Pls
1162 281 Pls
1162 281 Pls
1162 281 Pls
1162 281 Pls
1163 281 Pls
1163 281 Pls
1163 281 Pls
1163 281 Pls
1163 281 Pls
1163 281 Pls
1164 281 Pls
1164 281 Pls
1164 281 Pls
1164 281 Pls
1164 281 Pls
1164 281 Pls
1165 281 Pls
1165 281 Pls
1165 281 Pls
1165 281 Pls
1165 281 Pls
1165 281 Pls
1165 281 Pls
1166 281 Pls
1166 281 Pls
1166 281 Pls
1166 281 Pls
1166 281 Pls
1166 281 Pls
1166 281 Pls
1167 281 Pls
1167 281 Pls
1167 281 Pls
1167 281 Pls
1167 281 Pls
1167 281 Pls
1167 281 Pls
1168 281 Pls
1168 281 Pls
1168 281 Pls
1168 281 Pls
1168 281 Pls
1168 281 Pls
1168 281 Pls
1168 281 Pls
1169 281 Pls
1169 281 Pls
1169 281 Pls
1169 281 Pls
1169 281 Pls
1169 281 Pls
1170 281 Pls
1170 281 Pls
1170 281 Pls
1170 281 Pls
1170 281 Pls
1170 281 Pls
1170 281 Pls
1171 281 Pls
1171 281 Pls
1171 281 Pls
1171 281 Pls
1172 281 Pls
1172 281 Pls
1172 281 Pls
1172 281 Pls
1172 281 Pls
1172 281 Pls
1172 281 Pls
1173 281 Pls
1173 281 Pls
1173 281 Pls
1173 281 Pls
1174 281 Pls
1174 281 Pls
1174 281 Pls
1174 281 Pls
1174 281 Pls
1174 281 Pls
1175 281 Pls
1175 281 Pls
1175 281 Pls
1175 281 Pls
1175 281 Pls
1175 281 Pls
1176 281 Pls
1176 281 Pls
1176 281 Pls
1176 281 Pls
1177 281 Pls
1177 281 Pls
1177 281 Pls
1177 281 Pls
1178 281 Pls
1178 281 Pls
1178 281 Pls
1178 281 Pls
1178 281 Pls
1179 281 Pls
1179 281 Pls
1179 281 Pls
1179 281 Pls
1179 281 Pls
1179 281 Pls
1179 281 Pls
1180 281 Pls
1180 281 Pls
1180 281 Pls
1180 281 Pls
1180 281 Pls
1180 281 Pls
1180 281 Pls
1181 281 Pls
1181 281 Pls
1181 281 Pls
1181 281 Pls
1181 281 Pls
1181 281 Pls
1181 281 Pls
1182 281 Pls
1182 281 Pls
1182 281 Pls
1182 281 Pls
1182 281 Pls
1182 281 Pls
1183 281 Pls
1183 281 Pls
1183 281 Pls
1183 281 Pls
1183 281 Pls
1183 281 Pls
1183 281 Pls
1183 281 Pls
1184 281 Pls
1184 281 Pls
1184 281 Pls
1184 281 Pls
1184 281 Pls
1184 281 Pls
1185 281 Pls
1185 281 Pls
1185 281 Pls
1185 281 Pls
1185 281 Pls
1185 281 Pls
1185 281 Pls
1186 281 Pls
1186 281 Pls
1186 281 Pls
1186 281 Pls
1186 281 Pls
1187 281 Pls
1187 281 Pls
1187 281 Pls
1187 281 Pls
1187 281 Pls
1187 281 Pls
1187 281 Pls
1188 281 Pls
1188 281 Pls
1188 281 Pls
1188 281 Pls
1188 281 Pls
1189 281 Pls
1189 281 Pls
1189 281 Pls
1189 281 Pls
1189 281 Pls
1189 281 Pls
1189 281 Pls
1190 281 Pls
1190 281 Pls
1190 281 Pls
1190 281 Pls
1190 281 Pls
1190 281 Pls
1190 281 Pls
1190 281 Pls
1191 281 Pls
1191 281 Pls
1191 281 Pls
1191 281 Pls
1191 281 Pls
1191 281 Pls
1192 281 Pls
1192 281 Pls
1193 281 Pls
1193 281 Pls
1193 281 Pls
1193 281 Pls
1193 281 Pls
1194 281 Pls
1194 281 Pls
1194 281 Pls
1194 281 Pls
1194 281 Pls
1194 281 Pls
1194 281 Pls
1194 281 Pls
1195 281 Pls
1195 281 Pls
1195 281 Pls
1195 281 Pls
1195 281 Pls
1195 281 Pls
1195 281 Pls
1196 281 Pls
1196 281 Pls
1196 281 Pls
1196 281 Pls
1196 281 Pls
1197 281 Pls
1197 281 Pls
1197 281 Pls
1197 281 Pls
1197 281 Pls
1197 281 Pls
1198 281 Pls
1198 281 Pls
1199 281 Pls
1199 281 Pls
1199 281 Pls
1199 281 Pls
1199 281 Pls
1199 281 Pls
1199 281 Pls
1200 281 Pls
1200 281 Pls
1200 281 Pls
1200 281 Pls
1201 281 Pls
1201 281 Pls
1201 281 Pls
1201 281 Pls
1201 281 Pls
1202 281 Pls
1202 281 Pls
1202 281 Pls
1202 281 Pls
1202 281 Pls
1202 281 Pls
1202 281 Pls
1203 281 Pls
1203 281 Pls
1203 281 Pls
1203 281 Pls
1203 281 Pls
1203 281 Pls
1204 281 Pls
1204 281 Pls
1204 281 Pls
1204 281 Pls
1204 281 Pls
1205 281 Pls
1205 281 Pls
1205 281 Pls
1205 281 Pls
1205 281 Pls
1205 281 Pls
1205 281 Pls
1205 281 Pls
1206 281 Pls
1206 281 Pls
1206 281 Pls
1206 281 Pls
1206 281 Pls
1206 281 Pls
1206 281 Pls
1206 281 Pls
1207 281 Pls
1207 281 Pls
1207 281 Pls
1207 281 Pls
1208 281 Pls
1208 281 Pls
1208 281 Pls
1208 281 Pls
1209 281 Pls
1209 281 Pls
1209 281 Pls
1209 281 Pls
1209 281 Pls
1209 281 Pls
1210 281 Pls
1210 281 Pls
1210 281 Pls
1210 281 Pls
1210 281 Pls
1210 281 Pls
1211 281 Pls
1211 281 Pls
1211 281 Pls
1211 281 Pls
1211 281 Pls
1211 281 Pls
1212 281 Pls
1212 281 Pls
1212 281 Pls
1212 281 Pls
1212 281 Pls
1212 281 Pls
1212 281 Pls
1213 281 Pls
1213 281 Pls
1213 281 Pls
1213 281 Pls
1213 281 Pls
1214 281 Pls
1214 281 Pls
1214 281 Pls
1214 281 Pls
1215 281 Pls
1215 281 Pls
1215 281 Pls
1215 281 Pls
1215 281 Pls
1216 281 Pls
1216 281 Pls
1216 281 Pls
1216 281 Pls
1216 281 Pls
1216 281 Pls
1216 281 Pls
1216 281 Pls
1217 281 Pls
1217 281 Pls
1217 281 Pls
1217 281 Pls
1217 281 Pls
1218 281 Pls
1218 281 Pls
1218 281 Pls
1218 281 Pls
1218 281 Pls
1218 281 Pls
1219 281 Pls
1219 281 Pls
1219 281 Pls
1219 281 Pls
1220 281 Pls
1220 281 Pls
1220 281 Pls
1220 281 Pls
1220 281 Pls
1221 281 Pls
1221 281 Pls
1221 281 Pls
1221 281 Pls
1221 281 Pls
1221 281 Pls
1221 281 Pls
1222 281 Pls
1222 281 Pls
1222 281 Pls
1222 281 Pls
1222 281 Pls
1222 281 Pls
1222 281 Pls
1223 281 Pls
1223 281 Pls
1223 281 Pls
1224 281 Pls
1224 281 Pls
1225 281 Pls
1225 281 Pls
1225 281 Pls
1225 281 Pls
1225 281 Pls
1225 281 Pls
1226 281 Pls
1226 281 Pls
1226 281 Pls
1226 281 Pls
1226 281 Pls
1226 281 Pls
1227 281 Pls
1227 281 Pls
1227 281 Pls
1227 281 Pls
1228 281 Pls
1228 281 Pls
1228 281 Pls
1228 281 Pls
1229 281 Pls
1229 281 Pls
1229 281 Pls
1229 281 Pls
1229 281 Pls
1230 281 Pls
1230 281 Pls
1230 281 Pls
1230 281 Pls
1230 281 Pls
1231 281 Pls
1231 281 Pls
1231 281 Pls
1231 281 Pls
1232 281 Pls
1232 281 Pls
1232 281 Pls
1232 281 Pls
1232 281 Pls
1232 281 Pls
1233 281 Pls
1233 281 Pls
1234 281 Pls
1234 281 Pls
1234 281 Pls
1234 281 Pls
1234 281 Pls
1235 281 Pls
1235 281 Pls
1235 281 Pls
1235 281 Pls
1235 281 Pls
1236 281 Pls
1236 281 Pls
1236 281 Pls
1236 281 Pls
1237 281 Pls
1237 281 Pls
1237 281 Pls
1237 281 Pls
1237 281 Pls
1238 281 Pls
1238 281 Pls
1238 281 Pls
1238 281 Pls
1238 281 Pls
1238 281 Pls
1239 281 Pls
1239 281 Pls
1239 281 Pls
1239 281 Pls
1239 281 Pls
1240 281 Pls
1240 281 Pls
1240 281 Pls
1240 281 Pls
1241 281 Pls
1241 281 Pls
1241 281 Pls
1241 281 Pls
1241 281 Pls
1241 281 Pls
1242 281 Pls
1242 281 Pls
1242 281 Pls
1242 281 Pls
1242 281 Pls
1243 281 Pls
1243 281 Pls
1243 281 Pls
1243 281 Pls
1243 281 Pls
1243 281 Pls
1243 281 Pls
1243 281 Pls
1244 281 Pls
1244 281 Pls
1244 281 Pls
1244 281 Pls
1244 281 Pls
1244 281 Pls
1245 281 Pls
1245 281 Pls
1245 281 Pls
1245 281 Pls
1245 281 Pls
1246 281 Pls
1246 281 Pls
1246 281 Pls
1246 281 Pls
1246 281 Pls
1246 281 Pls
1247 281 Pls
1247 281 Pls
1247 281 Pls
1247 281 Pls
1247 281 Pls
1247 281 Pls
1247 281 Pls
1248 281 Pls
1248 281 Pls
1248 281 Pls
1248 281 Pls
1248 281 Pls
1248 281 Pls
1249 281 Pls
1249 281 Pls
1249 281 Pls
1249 281 Pls
1249 281 Pls
1250 281 Pls
1250 281 Pls
1250 281 Pls
1250 281 Pls
1250 281 Pls
1251 281 Pls
1251 281 Pls
1251 281 Pls
1251 281 Pls
1251 281 Pls
1252 281 Pls
1252 281 Pls
1252 281 Pls
1252 281 Pls
1252 281 Pls
1252 281 Pls
1253 281 Pls
1253 281 Pls
1253 281 Pls
1253 281 Pls
1253 281 Pls
1253 281 Pls
1254 281 Pls
1254 281 Pls
1254 281 Pls
1254 281 Pls
1255 281 Pls
1255 281 Pls
1255 281 Pls
1255 281 Pls
1255 281 Pls
1256 281 Pls
1256 281 Pls
1256 281 Pls
1256 281 Pls
1256 281 Pls
1256 281 Pls
1257 281 Pls
1257 281 Pls
1257 281 Pls
1257 281 Pls
1257 281 Pls
1258 281 Pls
1258 281 Pls
1258 281 Pls
1258 281 Pls
1258 281 Pls
1258 281 Pls
1259 281 Pls
1259 281 Pls
1259 281 Pls
1259 281 Pls
1259 281 Pls
1260 281 Pls
1260 281 Pls
1260 281 Pls
1260 281 Pls
1260 281 Pls
1261 281 Pls
1261 281 Pls
1261 281 Pls
1262 281 Pls
1262 281 Pls
1262 281 Pls
1262 281 Pls
1262 281 Pls
1263 281 Pls
1263 281 Pls
1263 281 Pls
1263 281 Pls
1264 281 Pls
1264 281 Pls
1264 281 Pls
1265 281 Pls
1265 281 Pls
1265 281 Pls
1266 281 Pls
1266 281 Pls
1266 281 Pls
1266 281 Pls
1266 281 Pls
1267 281 Pls
1267 281 Pls
1267 281 Pls
1268 281 Pls
1268 281 Pls
1268 281 Pls
1268 281 Pls
1268 281 Pls
1268 281 Pls
1268 281 Pls
1269 281 Pls
1269 281 Pls
1269 281 Pls
1269 281 Pls
1269 281 Pls
1270 281 Pls
1270 281 Pls
1270 281 Pls
1270 281 Pls
1270 281 Pls
1271 281 Pls
1271 281 Pls
1271 281 Pls
1271 281 Pls
1271 281 Pls
1272 281 Pls
1272 281 Pls
1272 281 Pls
1272 281 Pls
1272 281 Pls
1273 281 Pls
1273 281 Pls
1273 281 Pls
1274 281 Pls
1274 281 Pls
1274 281 Pls
1274 281 Pls
1274 281 Pls
1274 281 Pls
1274 281 Pls
1275 281 Pls
1275 281 Pls
1275 280 Pls
1275 280 Pls
1276 280 Pls
1276 280 Pls
1276 280 Pls
1276 280 Pls
1276 280 Pls
1276 280 Pls
1277 280 Pls
1277 280 Pls
1278 280 Pls
1278 280 Pls
1278 280 Pls
1278 280 Pls
1278 280 Pls
1279 280 Pls
1279 280 Pls
1279 280 Pls
1279 280 Pls
1280 280 Pls
1280 280 Pls
1280 280 Pls
1280 280 Pls
1280 280 Pls
1280 280 Pls
1281 280 Pls
1281 280 Pls
1281 280 Pls
1281 280 Pls
1281 280 Pls
1281 280 Pls
1281 280 Pls
1281 280 Pls
1282 280 Pls
1282 280 Pls
1283 280 Pls
1283 280 Pls
1283 280 Pls
1283 280 Pls
1283 280 Pls
1283 280 Pls
1283 280 Pls
1284 280 Pls
1284 280 Pls
1284 280 Pls
1285 280 Pls
1285 280 Pls
1285 280 Pls
1285 280 Pls
1286 280 Pls
1286 280 Pls
1286 280 Pls
1286 280 Pls
1287 280 Pls
1287 280 Pls
1287 280 Pls
1287 280 Pls
1287 280 Pls
1288 280 Pls
1288 280 Pls
1289 280 Pls
1289 280 Pls
1289 280 Pls
1289 280 Pls
1289 280 Pls
1290 280 Pls
1291 280 Pls
1291 280 Pls
1291 280 Pls
1291 280 Pls
1291 280 Pls
1292 280 Pls
1292 280 Pls
1292 280 Pls
1292 280 Pls
1293 280 Pls
1293 280 Pls
1294 280 Pls
1294 280 Pls
1294 280 Pls
1294 280 Pls
1294 280 Pls
1294 280 Pls
1295 280 Pls
1295 280 Pls
1295 280 Pls
1295 280 Pls
1296 280 Pls
1296 280 Pls
1296 280 Pls
1296 280 Pls
1296 280 Pls
1296 280 Pls
1297 280 Pls
1297 280 Pls
1297 280 Pls
1297 280 Pls
1297 280 Pls
1298 280 Pls
1298 280 Pls
1298 280 Pls
1298 280 Pls
1298 280 Pls
1298 280 Pls
1299 280 Pls
1299 280 Pls
1299 280 Pls
1300 280 Pls
1300 280 Pls
1300 280 Pls
1300 280 Pls
1300 280 Pls
1301 280 Pls
1301 280 Pls
1301 280 Pls
1301 280 Pls
1301 280 Pls
1302 280 Pls
1302 280 Pls
1302 280 Pls
1303 280 Pls
1303 280 Pls
1303 280 Pls
1303 280 Pls
1303 280 Pls
1304 280 Pls
1304 280 Pls
1304 280 Pls
1304 280 Pls
1304 280 Pls
1304 280 Pls
1304 280 Pls
1305 280 Pls
1305 280 Pls
1305 280 Pls
1305 280 Pls
1305 280 Pls
1305 280 Pls
1305 280 Pls
1306 280 Pls
1306 280 Pls
1306 280 Pls
1306 280 Pls
1306 280 Pls
1307 280 Pls
1308 280 Pls
1308 280 Pls
1308 280 Pls
1309 280 Pls
1309 280 Pls
1310 280 Pls
1310 280 Pls
1311 280 Pls
1311 280 Pls
1311 280 Pls
1312 280 Pls
1312 280 Pls
1312 280 Pls
1313 280 Pls
1313 280 Pls
1313 280 Pls
1314 280 Pls
1314 280 Pls
1314 280 Pls
1315 280 Pls
1315 280 Pls
1315 280 Pls
1315 280 Pls
1315 280 Pls
1316 280 Pls
1316 280 Pls
1316 280 Pls
1316 280 Pls
1317 280 Pls
1317 280 Pls
1318 280 Pls
1318 280 Pls
1318 280 Pls
1318 280 Pls
1318 280 Pls
1319 280 Pls
1319 280 Pls
1319 280 Pls
1319 280 Pls
1320 280 Pls
1320 280 Pls
1320 280 Pls
1320 280 Pls
1320 280 Pls
1320 280 Pls
1321 280 Pls
1321 280 Pls
1321 280 Pls
1321 280 Pls
1322 280 Pls
1322 280 Pls
1322 280 Pls
1322 280 Pls
1322 280 Pls
1323 280 Pls
1323 280 Pls
1323 280 Pls
1323 280 Pls
1323 280 Pls
1323 280 Pls
1324 280 Pls
1324 280 Pls
1324 280 Pls
1325 280 Pls
1325 280 Pls
1325 280 Pls
1326 280 Pls
1326 280 Pls
1326 280 Pls
1327 280 Pls
1327 280 Pls
1327 280 Pls
1328 280 Pls
1328 280 Pls
1329 280 Pls
1329 280 Pls
1330 280 Pls
1330 280 Pls
1330 280 Pls
1331 280 Pls
1331 280 Pls
1331 280 Pls
1332 280 Pls
1332 280 Pls
1332 280 Pls
1333 280 Pls
1333 280 Pls
1334 280 Pls
1334 280 Pls
1335 280 Pls
1335 280 Pls
1335 280 Pls
1335 280 Pls
1335 280 Pls
1335 280 Pls
1336 280 Pls
1336 280 Pls
1336 280 Pls
1336 280 Pls
1337 280 Pls
1337 280 Pls
1337 280 Pls
1337 280 Pls
1338 280 Pls
1338 280 Pls
1338 280 Pls
1338 280 Pls
1338 280 Pls
1339 280 Pls
1339 280 Pls
1339 280 Pls
1340 280 Pls
1340 280 Pls
1340 280 Pls
1341 280 Pls
1341 280 Pls
1341 280 Pls
1341 280 Pls
1342 280 Pls
1342 280 Pls
1342 280 Pls
1343 280 Pls
1344 280 Pls
1344 280 Pls
1344 280 Pls
1344 280 Pls
1345 280 Pls
1345 280 Pls
1345 280 Pls
1346 280 Pls
1346 280 Pls
1346 280 Pls
1347 280 Pls
1347 280 Pls
1347 280 Pls
1347 280 Pls
1348 280 Pls
1348 280 Pls
1349 280 Pls
1349 280 Pls
1349 280 Pls
1350 280 Pls
1350 280 Pls
1350 280 Pls
1351 280 Pls
1351 280 Pls
1351 280 Pls
1352 280 Pls
1352 280 Pls
1352 280 Pls
1353 280 Pls
1353 280 Pls
1353 280 Pls
1353 280 Pls
1354 280 Pls
1354 280 Pls
1354 280 Pls
1354 280 Pls
1355 280 Pls
1355 280 Pls
1355 280 Pls
1355 280 Pls
1356 280 Pls
1357 280 Pls
1357 280 Pls
1357 280 Pls
1357 280 Pls
1357 280 Pls
1358 280 Pls
1358 280 Pls
1358 280 Pls
1358 280 Pls
1358 280 Pls
1359 280 Pls
1359 280 Pls
1360 280 Pls
1360 280 Pls
1360 280 Pls
1360 280 Pls
1360 280 Pls
1361 280 Pls
1361 280 Pls
1362 280 Pls
1363 280 Pls
1363 280 Pls
1363 280 Pls
1363 280 Pls
1364 280 Pls
1364 280 Pls
1364 280 Pls
1364 280 Pls
1365 280 Pls
1365 280 Pls
1366 280 Pls
1366 280 Pls
1366 280 Pls
1367 280 Pls
1367 280 Pls
1368 280 Pls
1368 280 Pls
1369 280 Pls
1369 280 Pls
1370 280 Pls
1370 280 Pls
1371 280 Pls
1371 280 Pls
1371 280 Pls
1372 280 Pls
1373 280 Pls
1373 280 Pls
1373 280 Pls
1374 280 Pls
1374 280 Pls
1375 280 Pls
1375 280 Pls
1375 280 Pls
1376 280 Pls
1376 280 Pls
1376 280 Pls
1377 280 Pls
1377 280 Pls
1377 280 Pls
1378 280 Pls
1379 280 Pls
1379 280 Pls
1380 280 Pls
1381 280 Pls
1381 280 Pls
1381 280 Pls
1381 280 Pls
1382 280 Pls
1383 280 Pls
1383 280 Pls
1384 280 Pls
1385 280 Pls
1385 280 Pls
1386 280 Pls
1386 280 Pls
1386 280 Pls
1386 280 Pls
1386 280 Pls
1387 280 Pls
1387 280 Pls
1387 280 Pls
1387 280 Pls
1388 280 Pls
1388 280 Pls
1389 280 Pls
1389 280 Pls
1389 280 Pls
1390 280 Pls
1390 280 Pls
1390 280 Pls
1391 280 Pls
1391 280 Pls
1391 280 Pls
1391 280 Pls
1391 280 Pls
1391 280 Pls
1391 280 Pls
1392 280 Pls
1392 280 Pls
1392 280 Pls
1392 280 Pls
1393 280 Pls
1393 280 Pls
1393 280 Pls
1393 280 Pls
1393 280 Pls
1394 280 Pls
1395 280 Pls
1396 280 Pls
1396 280 Pls
1397 280 Pls
1397 280 Pls
1397 280 Pls
1398 280 Pls
1398 280 Pls
1398 280 Pls
1398 280 Pls
1399 280 Pls
1400 280 Pls
1401 280 Pls
1401 280 Pls
1401 280 Pls
1401 280 Pls
1401 280 Pls
1402 280 Pls
1402 280 Pls
1402 280 Pls
1402 280 Pls
1403 280 Pls
1403 280 Pls
1404 280 Pls
1404 280 Pls
1404 280 Pls
1405 280 Pls
1405 280 Pls
1405 280 Pls
1405 280 Pls
1405 280 Pls
1406 280 Pls
1406 280 Pls
1407 280 Pls
1408 280 Pls
1408 280 Pls
1408 280 Pls
1408 280 Pls
1408 280 Pls
1409 280 Pls
1410 280 Pls
1410 280 Pls
1410 280 Pls
1410 280 Pls
1411 280 Pls
1412 280 Pls
1412 280 Pls
1412 280 Pls
1413 280 Pls
1413 280 Pls
1413 280 Pls
1414 280 Pls
1415 280 Pls
1416 280 Pls
1416 280 Pls
1417 280 Pls
1417 280 Pls
1417 280 Pls
1418 280 Pls
1418 280 Pls
1418 280 Pls
1419 280 Pls
1419 280 Pls
1420 280 Pls
1420 280 Pls
1420 280 Pls
1420 280 Pls
1421 280 Pls
1421 280 Pls
1421 280 Pls
1422 280 Pls
1422 280 Pls
1423 280 Pls
1423 280 Pls
1424 280 Pls
1424 280 Pls
1426 280 Pls
1426 280 Pls
1426 280 Pls
1427 280 Pls
1427 280 Pls
1427 280 Pls
1427 280 Pls
1428 280 Pls
1428 280 Pls
1428 280 Pls
1428 280 Pls
1428 280 Pls
1428 280 Pls
1428 280 Pls
1429 280 Pls
1429 280 Pls
1429 280 Pls
1429 280 Pls
1430 280 Pls
1430 280 Pls
1431 280 Pls
1431 280 Pls
1432 280 Pls
1432 280 Pls
1432 280 Pls
1433 280 Pls
1433 280 Pls
1433 280 Pls
1434 280 Pls
1434 280 Pls
1434 280 Pls
1435 280 Pls
1435 280 Pls
1435 280 Pls
1436 280 Pls
1436 280 Pls
1437 280 Pls
1438 280 Pls
1438 280 Pls
1439 280 Pls
1439 280 Pls
1439 280 Pls
1439 280 Pls
1440 280 Pls
1440 280 Pls
1440 280 Pls
1441 280 Pls
1442 280 Pls
1442 280 Pls
1442 280 Pls
1443 280 Pls
1444 280 Pls
1445 280 Pls
1445 280 Pls
1445 280 Pls
1447 280 Pls
1447 280 Pls
1447 280 Pls
1447 280 Pls
1448 280 Pls
1448 280 Pls
1448 280 Pls
1448 280 Pls
1449 280 Pls
1449 280 Pls
1450 280 Pls
1450 280 Pls
1451 280 Pls
1452 280 Pls
1453 280 Pls
1453 280 Pls
1454 280 Pls
1454 280 Pls
1454 280 Pls
1455 280 Pls
1455 280 Pls
1456 280 Pls
1456 280 Pls
1456 280 Pls
1456 280 Pls
1456 280 Pls
1457 280 Pls
1457 280 Pls
1457 280 Pls
1457 280 Pls
1457 280 Pls
1457 280 Pls
1458 280 Pls
1459 280 Pls
1460 280 Pls
1461 280 Pls
1461 280 Pls
1462 280 Pls
1462 280 Pls
1463 280 Pls
1464 280 Pls
1465 280 Pls
1467 280 Pls
1467 280 Pls
1468 280 Pls
1468 280 Pls
1468 280 Pls
1468 280 Pls
1469 280 Pls
1469 280 Pls
1469 280 Pls
1469 280 Pls
1470 280 Pls
1471 280 Pls
1471 280 Pls
1472 280 Pls
1472 280 Pls
1472 280 Pls
1474 280 Pls
1474 280 Pls
1475 280 Pls
1475 280 Pls
1475 280 Pls
1475 280 Pls
1475 280 Pls
1475 280 Pls
1476 280 Pls
1476 280 Pls
1476 280 Pls
1476 280 Pls
1476 280 Pls
1477 280 Pls
1477 280 Pls
1477 280 Pls
1477 280 Pls
1478 280 Pls
1479 280 Pls
1479 280 Pls
1480 280 Pls
1480 280 Pls
1480 280 Pls
1481 280 Pls
1481 280 Pls
1481 280 Pls
1481 280 Pls
1482 280 Pls
1483 280 Pls
1483 280 Pls
1483 280 Pls
1484 280 Pls
1484 280 Pls
1485 280 Pls
1485 280 Pls
1486 280 Pls
1486 280 Pls
1487 280 Pls
1488 280 Pls
1488 280 Pls
1489 280 Pls
1489 280 Pls
1490 280 Pls
1490 280 Pls
1490 280 Pls
1491 280 Pls
1491 280 Pls
1492 280 Pls
1492 280 Pls
1492 280 Pls
1492 280 Pls
1492 280 Pls
1493 280 Pls
1494 280 Pls
1494 280 Pls
1494 280 Pls
1495 280 Pls
1496 280 Pls
1496 280 Pls
1496 280 Pls
1496 280 Pls
1497 280 Pls
1497 280 Pls
1497 280 Pls
1498 280 Pls
1499 280 Pls
1499 280 Pls
1500 280 Pls
1500 280 Pls
1501 280 Pls
1502 280 Pls
1502 280 Pls
1503 280 Pls
1504 280 Pls
1504 280 Pls
1504 280 Pls
1504 280 Pls
1504 280 Pls
1504 280 Pls
1505 280 Pls
1505 280 Pls
1506 280 Pls
1507 280 Pls
1507 280 Pls
1507 280 Pls
1508 280 Pls
1508 280 Pls
1508 280 Pls
1508 280 Pls
1509 280 Pls
1510 280 Pls
1510 280 Pls
1511 280 Pls
1511 280 Pls
1512 280 Pls
1512 280 Pls
1514 280 Pls
1514 280 Pls
1515 280 Pls
1515 280 Pls
1516 280 Pls
1516 280 Pls
1517 280 Pls
1517 280 Pls
1517 280 Pls
1518 280 Pls
1518 280 Pls
1519 280 Pls
1519 280 Pls
1519 280 Pls
1519 280 Pls
1522 280 Pls
1523 280 Pls
1524 280 Pls
1524 280 Pls
1524 280 Pls
1525 280 Pls
1526 280 Pls
1527 280 Pls
1528 280 Pls
1529 280 Pls
1529 280 Pls
1530 280 Pls
1530 280 Pls
1532 280 Pls
1532 280 Pls
1532 280 Pls
1533 280 Pls
1533 280 Pls
1533 280 Pls
1534 280 Pls
1534 280 Pls
1534 280 Pls
1535 280 Pls
1535 280 Pls
1535 280 Pls
1536 280 Pls
1536 280 Pls
1537 280 Pls
1537 280 Pls
1538 280 Pls
1538 280 Pls
1538 280 Pls
1539 280 Pls
1540 280 Pls
1542 280 Pls
1543 280 Pls
1544 280 Pls
1544 280 Pls
1544 280 Pls
1544 280 Pls
1545 280 Pls
1545 280 Pls
1545 280 Pls
1548 280 Pls
1549 280 Pls
1549 280 Pls
1550 280 Pls
1550 280 Pls
1551 280 Pls
1551 280 Pls
1556 280 Pls
1556 280 Pls
1556 280 Pls
1557 280 Pls
1558 280 Pls
1560 280 Pls
1561 280 Pls
1561 280 Pls
1561 280 Pls
1562 280 Pls
1563 280 Pls
1564 280 Pls
1564 280 Pls
1567 280 Pls
1568 280 Pls
1569 280 Pls
1570 280 Pls
1570 280 Pls
1571 280 Pls
1572 280 Pls
1573 280 Pls
1574 280 Pls
1575 280 Pls
1575 280 Pls
1576 280 Pls
1577 280 Pls
1577 280 Pls
1577 280 Pls
1578 280 Pls
1581 280 Pls
1581 280 Pls
1583 280 Pls
1583 280 Pls
1583 280 Pls
1584 280 Pls
1586 280 Pls
1587 280 Pls
1587 280 Pls
1588 280 Pls
1589 280 Pls
1589 280 Pls
1590 280 Pls
1591 280 Pls
1593 280 Pls
1594 280 Pls
1594 280 Pls
1595 280 Pls
1598 280 Pls
1599 280 Pls
1599 280 Pls
1602 280 Pls
1602 280 Pls
1604 280 Pls
1604 280 Pls
1605 280 Pls
1608 280 Pls
1609 280 Pls
1610 280 Pls
1611 280 Pls
1612 280 Pls
1612 280 Pls
1612 280 Pls
1612 280 Pls
1612 280 Pls
1613 280 Pls
1616 280 Pls
1619 280 Pls
1621 280 Pls
1622 280 Pls
1622 280 Pls
1623 280 Pls
1623 280 Pls
1623 280 Pls
1624 280 Pls
1624 280 Pls
1625 280 Pls
1626 280 Pls
1626 280 Pls
1628 280 Pls
1629 280 Pls
1629 280 Pls
1629 280 Pls
1630 280 Pls
1631 280 Pls
1633 280 Pls
1635 280 Pls
1636 280 Pls
1637 280 Pls
1640 280 Pls
1642 280 Pls
1643 280 Pls
1645 280 Pls
1646 280 Pls
1647 280 Pls
1647 280 Pls
1652 280 Pls
1654 280 Pls
1655 280 Pls
1655 280 Pls
1658 280 Pls
1660 280 Pls
1661 280 Pls
1661 280 Pls
1661 280 Pls
1662 280 Pls
1664 280 Pls
1667 280 Pls
1668 280 Pls
1668 280 Pls
1670 280 Pls
1674 280 Pls
1675 280 Pls
1675 280 Pls
1677 280 Pls
1678 280 Pls
1678 280 Pls
1678 280 Pls
1679 280 Pls
1680 280 Pls
1681 280 Pls
1682 280 Pls
1685 280 Pls
1686 280 Pls
1687 280 Pls
1689 280 Pls
1690 280 Pls
1691 280 Pls
1692 280 Pls
1692 280 Pls
1693 280 Pls
1693 280 Pls
1695 280 Pls
1695 280 Pls
1697 280 Pls
1697 280 Pls
1698 280 Pls
1708 280 Pls
1710 280 Pls
1713 280 Pls
1715 280 Pls
1715 280 Pls
1719 280 Pls
1719 280 Pls
1720 280 Pls
1721 280 Pls
1723 280 Pls
1723 280 Pls
1725 280 Pls
1726 280 Pls
1727 280 Pls
1733 280 Pls
1734 280 Pls
1736 280 Pls
1736 280 Pls
1739 280 Pls
1741 280 Pls
1743 280 Pls
1745 280 Pls
1747 280 Pls
1748 280 Pls
1751 280 Pls
1752 280 Pls
1754 280 Pls
1757 280 Pls
1761 280 Pls
1761 280 Pls
1763 280 Pls
1765 280 Pls
1768 280 Pls
1776 280 Pls
1780 280 Pls
1787 280 Pls
1789 280 Pls
1791 280 Pls
1793 280 Pls
1794 280 Pls
1794 280 Pls
1802 280 Pls
1806 280 Pls
1806 280 Pls
1808 280 Pls
1815 280 Pls
1821 280 Pls
1822 280 Pls
1837 280 Pls
1841 280 Pls
1841 280 Pls
1843 280 Pls
1845 280 Pls
1853 280 Pls
1861 280 Pls
1861 280 Pls
1862 280 Pls
1866 280 Pls
1868 280 Pls
1879 280 Pls
1883 280 Pls
1884 280 Pls
1885 280 Pls
1888 280 Pls
1890 280 Pls
1894 280 Pls
1900 280 Pls
1904 280 Pls
1908 280 Pls
1912 280 Pls
1921 280 Pls
1924 280 Pls
1929 280 Pls
1979 280 Pls
1987 280 Pls
1987 280 Pls
2007 280 Pls
2020 280 Pls
2023 280 Pls
2023 280 Pls
2025 280 Pls
2039 280 Pls
2052 280 Pls
2062 280 Pls
2063 280 Pls
2063 280 Pls
2088 280 Pls
2095 280 Pls
2115 280 Pls
2124 280 Pls
2129 280 Pls
2132 280 Pls
2137 280 Pls
2150 280 Pls
2173 280 Pls
2174 280 Pls
2179 280 Pls
2192 280 Pls
2200 280 Pls
2206 280 Pls
2229 280 Pls
2240 280 Pls
2269 280 Pls
2272 280 Pls
2298 280 Pls
2331 280 Pls
2332 280 Pls
2360 280 Pls
2375 280 Pls
2385 280 Pls
2408 280 Pls
2433 280 Pls
2460 280 Pls
2468 280 Pls
2476 280 Pls
2503 280 Pls
2545 280 Pls
2546 280 Pls
2572 280 Pls
2637 280 Pls
2794 280 Pls
2808 280 Pls
2812 280 Pls
2869 280 Pls
2885 280 Pls
2893 280 Pls
2898 280 Pls
2910 280 Pls
2967 280 Pls
2968 280 Pls
2992 280 Pls
3019 280 Pls
3021 280 Pls
3023 280 Pls
3035 280 Pls
3040 280 Pls
3098 280 Pls
3098 280 Pls
3126 280 Pls
3138 280 Pls
3184 280 Pls
3197 280 Pls
3253 280 Pls
3260 280 Pls
3263 280 Pls
3341 280 Pls
3362 280 Pls
3462 280 Pls
3482 280 Pls
3484 280 Pls
3503 280 Pls
3563 280 Pls
3610 280 Pls
3631 280 Pls
3671 280 Pls
3790 280 Pls
3794 280 Pls
3814 280 Pls
3816 280 Pls
3823 280 Pls
3835 280 Pls
3956 280 Pls
3968 280 Pls
4031 280 Pls
4048 280 Pls
4450 280 Pls
4470 280 Pls
4685 280 Pls
4699 280 Pls
4883 280 Pls
4904 280 Pls
5001 280 Pls
5014 280 Pls
5237 280 Pls
5263 280 Pls
5591 280 Pls
5602 280 Pls
6236 280 Pls
6255 280 Pls
6806 280 Pls
6810 280 Pls
6819 280 Pls
6833 280 Pls
% End plot #1
2.000 UL
LTb
LCb setrgbcolor
1.000 UL
LTB
LCb setrgbcolor
546 4871 N
546 280 L
6401 0 V
0 4591 V
-6401 0 V
Z stroke
1.000 UP
1.000 UL
LTb
LCb setrgbcolor
stroke
grestore
end
showpage
%%Trailer
%%DocumentFonts: Helvetica
%%Pages: 1
