%!PS-Adobe-2.0
%%Title: packets-s-ccdf-linlog.eps
%%Creator: gnuplot 5.0 patchlevel 3
%%CreationDate: Mon May 29 11:05:49 2017
%%DocumentFonts: (atend)
%%BoundingBox: 50 50 554 770
%%Orientation: Landscape
%%Pages: (atend)
%%EndComments
%%BeginProlog
/gnudict 256 dict def
gnudict begin
%
% The following true/false flags may be edited by hand if desired.
% The unit line width and grayscale image gamma correction may also be changed.
%
/Color true def
/Blacktext false def
/Solid false def
/Dashlength 1 def
/Landscape true def
/Level1 false def
/Level3 false def
/Rounded false def
/ClipToBoundingBox false def
/SuppressPDFMark false def
/TransparentPatterns false def
/gnulinewidth 5.000 def
/userlinewidth gnulinewidth def
/Gamma 1.0 def
/BackgroundColor {-1.000 -1.000 -1.000} def
%
/vshift -46 def
/dl1 {
  10.0 Dashlength userlinewidth gnulinewidth div mul mul mul
  Rounded { currentlinewidth 0.75 mul sub dup 0 le { pop 0.01 } if } if
} def
/dl2 {
  10.0 Dashlength userlinewidth gnulinewidth div mul mul mul
  Rounded { currentlinewidth 0.75 mul add } if
} def
/hpt_ 31.5 def
/vpt_ 31.5 def
/hpt hpt_ def
/vpt vpt_ def
/doclip {
  ClipToBoundingBox {
    newpath 50 50 moveto 554 50 lineto 554 770 lineto 50 770 lineto closepath
    clip
  } if
} def
%
% Gnuplot Prolog Version 5.1 (Oct 2015)
%
%/SuppressPDFMark true def
%
/M {moveto} bind def
/L {lineto} bind def
/R {rmoveto} bind def
/V {rlineto} bind def
/N {newpath moveto} bind def
/Z {closepath} bind def
/C {setrgbcolor} bind def
/f {rlineto fill} bind def
/g {setgray} bind def
/Gshow {show} def   % May be redefined later in the file to support UTF-8
/vpt2 vpt 2 mul def
/hpt2 hpt 2 mul def
/Lshow {currentpoint stroke M 0 vshift R 
	Blacktext {gsave 0 setgray textshow grestore} {textshow} ifelse} def
/Rshow {currentpoint stroke M dup stringwidth pop neg vshift R
	Blacktext {gsave 0 setgray textshow grestore} {textshow} ifelse} def
/Cshow {currentpoint stroke M dup stringwidth pop -2 div vshift R 
	Blacktext {gsave 0 setgray textshow grestore} {textshow} ifelse} def
/UP {dup vpt_ mul /vpt exch def hpt_ mul /hpt exch def
  /hpt2 hpt 2 mul def /vpt2 vpt 2 mul def} def
/DL {Color {setrgbcolor Solid {pop []} if 0 setdash}
 {pop pop pop 0 setgray Solid {pop []} if 0 setdash} ifelse} def
/BL {stroke userlinewidth 2 mul setlinewidth
	Rounded {1 setlinejoin 1 setlinecap} if} def
/AL {stroke userlinewidth 2 div setlinewidth
	Rounded {1 setlinejoin 1 setlinecap} if} def
/UL {dup gnulinewidth mul /userlinewidth exch def
	dup 1 lt {pop 1} if 10 mul /udl exch def} def
/PL {stroke userlinewidth setlinewidth
	Rounded {1 setlinejoin 1 setlinecap} if} def
3.8 setmiterlimit
% Classic Line colors (version 5.0)
/LCw {1 1 1} def
/LCb {0 0 0} def
/LCa {0 0 0} def
/LC0 {1 0 0} def
/LC1 {0 1 0} def
/LC2 {0 0 1} def
/LC3 {1 0 1} def
/LC4 {0 1 1} def
/LC5 {1 1 0} def
/LC6 {0 0 0} def
/LC7 {1 0.3 0} def
/LC8 {0.5 0.5 0.5} def
% Default dash patterns (version 5.0)
/LTB {BL [] LCb DL} def
/LTw {PL [] 1 setgray} def
/LTb {PL [] LCb DL} def
/LTa {AL [1 udl mul 2 udl mul] 0 setdash LCa setrgbcolor} def
/LT0 {PL [] LC0 DL} def
/LT1 {PL [2 dl1 3 dl2] LC1 DL} def
/LT2 {PL [1 dl1 1.5 dl2] LC2 DL} def
/LT3 {PL [6 dl1 2 dl2 1 dl1 2 dl2] LC3 DL} def
/LT4 {PL [1 dl1 2 dl2 6 dl1 2 dl2 1 dl1 2 dl2] LC4 DL} def
/LT5 {PL [4 dl1 2 dl2] LC5 DL} def
/LT6 {PL [1.5 dl1 1.5 dl2 1.5 dl1 1.5 dl2 1.5 dl1 6 dl2] LC6 DL} def
/LT7 {PL [3 dl1 3 dl2 1 dl1 3 dl2] LC7 DL} def
/LT8 {PL [2 dl1 2 dl2 2 dl1 6 dl2] LC8 DL} def
/SL {[] 0 setdash} def
/Pnt {stroke [] 0 setdash gsave 1 setlinecap M 0 0 V stroke grestore} def
/Dia {stroke [] 0 setdash 2 copy vpt add M
  hpt neg vpt neg V hpt vpt neg V
  hpt vpt V hpt neg vpt V closepath stroke
  Pnt} def
/Pls {stroke [] 0 setdash vpt sub M 0 vpt2 V
  currentpoint stroke M
  hpt neg vpt neg R hpt2 0 V stroke
 } def
/Box {stroke [] 0 setdash 2 copy exch hpt sub exch vpt add M
  0 vpt2 neg V hpt2 0 V 0 vpt2 V
  hpt2 neg 0 V closepath stroke
  Pnt} def
/Crs {stroke [] 0 setdash exch hpt sub exch vpt add M
  hpt2 vpt2 neg V currentpoint stroke M
  hpt2 neg 0 R hpt2 vpt2 V stroke} def
/TriU {stroke [] 0 setdash 2 copy vpt 1.12 mul add M
  hpt neg vpt -1.62 mul V
  hpt 2 mul 0 V
  hpt neg vpt 1.62 mul V closepath stroke
  Pnt} def
/Star {2 copy Pls Crs} def
/BoxF {stroke [] 0 setdash exch hpt sub exch vpt add M
  0 vpt2 neg V hpt2 0 V 0 vpt2 V
  hpt2 neg 0 V closepath fill} def
/TriUF {stroke [] 0 setdash vpt 1.12 mul add M
  hpt neg vpt -1.62 mul V
  hpt 2 mul 0 V
  hpt neg vpt 1.62 mul V closepath fill} def
/TriD {stroke [] 0 setdash 2 copy vpt 1.12 mul sub M
  hpt neg vpt 1.62 mul V
  hpt 2 mul 0 V
  hpt neg vpt -1.62 mul V closepath stroke
  Pnt} def
/TriDF {stroke [] 0 setdash vpt 1.12 mul sub M
  hpt neg vpt 1.62 mul V
  hpt 2 mul 0 V
  hpt neg vpt -1.62 mul V closepath fill} def
/DiaF {stroke [] 0 setdash vpt add M
  hpt neg vpt neg V hpt vpt neg V
  hpt vpt V hpt neg vpt V closepath fill} def
/Pent {stroke [] 0 setdash 2 copy gsave
  translate 0 hpt M 4 {72 rotate 0 hpt L} repeat
  closepath stroke grestore Pnt} def
/PentF {stroke [] 0 setdash gsave
  translate 0 hpt M 4 {72 rotate 0 hpt L} repeat
  closepath fill grestore} def
/Circle {stroke [] 0 setdash 2 copy
  hpt 0 360 arc stroke Pnt} def
/CircleF {stroke [] 0 setdash hpt 0 360 arc fill} def
/C0 {BL [] 0 setdash 2 copy moveto vpt 90 450 arc} bind def
/C1 {BL [] 0 setdash 2 copy moveto
	2 copy vpt 0 90 arc closepath fill
	vpt 0 360 arc closepath} bind def
/C2 {BL [] 0 setdash 2 copy moveto
	2 copy vpt 90 180 arc closepath fill
	vpt 0 360 arc closepath} bind def
/C3 {BL [] 0 setdash 2 copy moveto
	2 copy vpt 0 180 arc closepath fill
	vpt 0 360 arc closepath} bind def
/C4 {BL [] 0 setdash 2 copy moveto
	2 copy vpt 180 270 arc closepath fill
	vpt 0 360 arc closepath} bind def
/C5 {BL [] 0 setdash 2 copy moveto
	2 copy vpt 0 90 arc
	2 copy moveto
	2 copy vpt 180 270 arc closepath fill
	vpt 0 360 arc} bind def
/C6 {BL [] 0 setdash 2 copy moveto
	2 copy vpt 90 270 arc closepath fill
	vpt 0 360 arc closepath} bind def
/C7 {BL [] 0 setdash 2 copy moveto
	2 copy vpt 0 270 arc closepath fill
	vpt 0 360 arc closepath} bind def
/C8 {BL [] 0 setdash 2 copy moveto
	2 copy vpt 270 360 arc closepath fill
	vpt 0 360 arc closepath} bind def
/C9 {BL [] 0 setdash 2 copy moveto
	2 copy vpt 270 450 arc closepath fill
	vpt 0 360 arc closepath} bind def
/C10 {BL [] 0 setdash 2 copy 2 copy moveto vpt 270 360 arc closepath fill
	2 copy moveto
	2 copy vpt 90 180 arc closepath fill
	vpt 0 360 arc closepath} bind def
/C11 {BL [] 0 setdash 2 copy moveto
	2 copy vpt 0 180 arc closepath fill
	2 copy moveto
	2 copy vpt 270 360 arc closepath fill
	vpt 0 360 arc closepath} bind def
/C12 {BL [] 0 setdash 2 copy moveto
	2 copy vpt 180 360 arc closepath fill
	vpt 0 360 arc closepath} bind def
/C13 {BL [] 0 setdash 2 copy moveto
	2 copy vpt 0 90 arc closepath fill
	2 copy moveto
	2 copy vpt 180 360 arc closepath fill
	vpt 0 360 arc closepath} bind def
/C14 {BL [] 0 setdash 2 copy moveto
	2 copy vpt 90 360 arc closepath fill
	vpt 0 360 arc} bind def
/C15 {BL [] 0 setdash 2 copy vpt 0 360 arc closepath fill
	vpt 0 360 arc closepath} bind def
/Rec {newpath 4 2 roll moveto 1 index 0 rlineto 0 exch rlineto
	neg 0 rlineto closepath} bind def
/Square {dup Rec} bind def
/Bsquare {vpt sub exch vpt sub exch vpt2 Square} bind def
/S0 {BL [] 0 setdash 2 copy moveto 0 vpt rlineto BL Bsquare} bind def
/S1 {BL [] 0 setdash 2 copy vpt Square fill Bsquare} bind def
/S2 {BL [] 0 setdash 2 copy exch vpt sub exch vpt Square fill Bsquare} bind def
/S3 {BL [] 0 setdash 2 copy exch vpt sub exch vpt2 vpt Rec fill Bsquare} bind def
/S4 {BL [] 0 setdash 2 copy exch vpt sub exch vpt sub vpt Square fill Bsquare} bind def
/S5 {BL [] 0 setdash 2 copy 2 copy vpt Square fill
	exch vpt sub exch vpt sub vpt Square fill Bsquare} bind def
/S6 {BL [] 0 setdash 2 copy exch vpt sub exch vpt sub vpt vpt2 Rec fill Bsquare} bind def
/S7 {BL [] 0 setdash 2 copy exch vpt sub exch vpt sub vpt vpt2 Rec fill
	2 copy vpt Square fill Bsquare} bind def
/S8 {BL [] 0 setdash 2 copy vpt sub vpt Square fill Bsquare} bind def
/S9 {BL [] 0 setdash 2 copy vpt sub vpt vpt2 Rec fill Bsquare} bind def
/S10 {BL [] 0 setdash 2 copy vpt sub vpt Square fill 2 copy exch vpt sub exch vpt Square fill
	Bsquare} bind def
/S11 {BL [] 0 setdash 2 copy vpt sub vpt Square fill 2 copy exch vpt sub exch vpt2 vpt Rec fill
	Bsquare} bind def
/S12 {BL [] 0 setdash 2 copy exch vpt sub exch vpt sub vpt2 vpt Rec fill Bsquare} bind def
/S13 {BL [] 0 setdash 2 copy exch vpt sub exch vpt sub vpt2 vpt Rec fill
	2 copy vpt Square fill Bsquare} bind def
/S14 {BL [] 0 setdash 2 copy exch vpt sub exch vpt sub vpt2 vpt Rec fill
	2 copy exch vpt sub exch vpt Square fill Bsquare} bind def
/S15 {BL [] 0 setdash 2 copy Bsquare fill Bsquare} bind def
/D0 {gsave translate 45 rotate 0 0 S0 stroke grestore} bind def
/D1 {gsave translate 45 rotate 0 0 S1 stroke grestore} bind def
/D2 {gsave translate 45 rotate 0 0 S2 stroke grestore} bind def
/D3 {gsave translate 45 rotate 0 0 S3 stroke grestore} bind def
/D4 {gsave translate 45 rotate 0 0 S4 stroke grestore} bind def
/D5 {gsave translate 45 rotate 0 0 S5 stroke grestore} bind def
/D6 {gsave translate 45 rotate 0 0 S6 stroke grestore} bind def
/D7 {gsave translate 45 rotate 0 0 S7 stroke grestore} bind def
/D8 {gsave translate 45 rotate 0 0 S8 stroke grestore} bind def
/D9 {gsave translate 45 rotate 0 0 S9 stroke grestore} bind def
/D10 {gsave translate 45 rotate 0 0 S10 stroke grestore} bind def
/D11 {gsave translate 45 rotate 0 0 S11 stroke grestore} bind def
/D12 {gsave translate 45 rotate 0 0 S12 stroke grestore} bind def
/D13 {gsave translate 45 rotate 0 0 S13 stroke grestore} bind def
/D14 {gsave translate 45 rotate 0 0 S14 stroke grestore} bind def
/D15 {gsave translate 45 rotate 0 0 S15 stroke grestore} bind def
/DiaE {stroke [] 0 setdash vpt add M
  hpt neg vpt neg V hpt vpt neg V
  hpt vpt V hpt neg vpt V closepath stroke} def
/BoxE {stroke [] 0 setdash exch hpt sub exch vpt add M
  0 vpt2 neg V hpt2 0 V 0 vpt2 V
  hpt2 neg 0 V closepath stroke} def
/TriUE {stroke [] 0 setdash vpt 1.12 mul add M
  hpt neg vpt -1.62 mul V
  hpt 2 mul 0 V
  hpt neg vpt 1.62 mul V closepath stroke} def
/TriDE {stroke [] 0 setdash vpt 1.12 mul sub M
  hpt neg vpt 1.62 mul V
  hpt 2 mul 0 V
  hpt neg vpt -1.62 mul V closepath stroke} def
/PentE {stroke [] 0 setdash gsave
  translate 0 hpt M 4 {72 rotate 0 hpt L} repeat
  closepath stroke grestore} def
/CircE {stroke [] 0 setdash 
  hpt 0 360 arc stroke} def
/Opaque {gsave closepath 1 setgray fill grestore 0 setgray closepath} def
/DiaW {stroke [] 0 setdash vpt add M
  hpt neg vpt neg V hpt vpt neg V
  hpt vpt V hpt neg vpt V Opaque stroke} def
/BoxW {stroke [] 0 setdash exch hpt sub exch vpt add M
  0 vpt2 neg V hpt2 0 V 0 vpt2 V
  hpt2 neg 0 V Opaque stroke} def
/TriUW {stroke [] 0 setdash vpt 1.12 mul add M
  hpt neg vpt -1.62 mul V
  hpt 2 mul 0 V
  hpt neg vpt 1.62 mul V Opaque stroke} def
/TriDW {stroke [] 0 setdash vpt 1.12 mul sub M
  hpt neg vpt 1.62 mul V
  hpt 2 mul 0 V
  hpt neg vpt -1.62 mul V Opaque stroke} def
/PentW {stroke [] 0 setdash gsave
  translate 0 hpt M 4 {72 rotate 0 hpt L} repeat
  Opaque stroke grestore} def
/CircW {stroke [] 0 setdash 
  hpt 0 360 arc Opaque stroke} def
/BoxFill {gsave Rec 1 setgray fill grestore} def
/Density {
  /Fillden exch def
  currentrgbcolor
  /ColB exch def /ColG exch def /ColR exch def
  /ColR ColR Fillden mul Fillden sub 1 add def
  /ColG ColG Fillden mul Fillden sub 1 add def
  /ColB ColB Fillden mul Fillden sub 1 add def
  ColR ColG ColB setrgbcolor} def
/BoxColFill {gsave Rec PolyFill} def
/PolyFill {gsave Density fill grestore grestore} def
/h {rlineto rlineto rlineto gsave closepath fill grestore} bind def
%
% PostScript Level 1 Pattern Fill routine for rectangles
% Usage: x y w h s a XX PatternFill
%	x,y = lower left corner of box to be filled
%	w,h = width and height of box
%	  a = angle in degrees between lines and x-axis
%	 XX = 0/1 for no/yes cross-hatch
%
/PatternFill {gsave /PFa [ 9 2 roll ] def
  PFa 0 get PFa 2 get 2 div add PFa 1 get PFa 3 get 2 div add translate
  PFa 2 get -2 div PFa 3 get -2 div PFa 2 get PFa 3 get Rec
  TransparentPatterns {} {gsave 1 setgray fill grestore} ifelse
  clip
  currentlinewidth 0.5 mul setlinewidth
  /PFs PFa 2 get dup mul PFa 3 get dup mul add sqrt def
  0 0 M PFa 5 get rotate PFs -2 div dup translate
  0 1 PFs PFa 4 get div 1 add floor cvi
	{PFa 4 get mul 0 M 0 PFs V} for
  0 PFa 6 get ne {
	0 1 PFs PFa 4 get div 1 add floor cvi
	{PFa 4 get mul 0 2 1 roll M PFs 0 V} for
 } if
  stroke grestore} def
%
/languagelevel where
 {pop languagelevel} {1} ifelse
dup 2 lt
	{/InterpretLevel1 true def
	 /InterpretLevel3 false def}
	{/InterpretLevel1 Level1 def
	 2 gt
	    {/InterpretLevel3 Level3 def}
	    {/InterpretLevel3 false def}
	 ifelse }
 ifelse
%
% PostScript level 2 pattern fill definitions
%
/Level2PatternFill {
/Tile8x8 {/PaintType 2 /PatternType 1 /TilingType 1 /BBox [0 0 8 8] /XStep 8 /YStep 8}
	bind def
/KeepColor {currentrgbcolor [/Pattern /DeviceRGB] setcolorspace} bind def
<< Tile8x8
 /PaintProc {0.5 setlinewidth pop 0 0 M 8 8 L 0 8 M 8 0 L stroke} 
>> matrix makepattern
/Pat1 exch def
<< Tile8x8
 /PaintProc {0.5 setlinewidth pop 0 0 M 8 8 L 0 8 M 8 0 L stroke
	0 4 M 4 8 L 8 4 L 4 0 L 0 4 L stroke}
>> matrix makepattern
/Pat2 exch def
<< Tile8x8
 /PaintProc {0.5 setlinewidth pop 0 0 M 0 8 L
	8 8 L 8 0 L 0 0 L fill}
>> matrix makepattern
/Pat3 exch def
<< Tile8x8
 /PaintProc {0.5 setlinewidth pop -4 8 M 8 -4 L
	0 12 M 12 0 L stroke}
>> matrix makepattern
/Pat4 exch def
<< Tile8x8
 /PaintProc {0.5 setlinewidth pop -4 0 M 8 12 L
	0 -4 M 12 8 L stroke}
>> matrix makepattern
/Pat5 exch def
<< Tile8x8
 /PaintProc {0.5 setlinewidth pop -2 8 M 4 -4 L
	0 12 M 8 -4 L 4 12 M 10 0 L stroke}
>> matrix makepattern
/Pat6 exch def
<< Tile8x8
 /PaintProc {0.5 setlinewidth pop -2 0 M 4 12 L
	0 -4 M 8 12 L 4 -4 M 10 8 L stroke}
>> matrix makepattern
/Pat7 exch def
<< Tile8x8
 /PaintProc {0.5 setlinewidth pop 8 -2 M -4 4 L
	12 0 M -4 8 L 12 4 M 0 10 L stroke}
>> matrix makepattern
/Pat8 exch def
<< Tile8x8
 /PaintProc {0.5 setlinewidth pop 0 -2 M 12 4 L
	-4 0 M 12 8 L -4 4 M 8 10 L stroke}
>> matrix makepattern
/Pat9 exch def
/Pattern1 {PatternBgnd KeepColor Pat1 setpattern} bind def
/Pattern2 {PatternBgnd KeepColor Pat2 setpattern} bind def
/Pattern3 {PatternBgnd KeepColor Pat3 setpattern} bind def
/Pattern4 {PatternBgnd KeepColor Landscape {Pat5} {Pat4} ifelse setpattern} bind def
/Pattern5 {PatternBgnd KeepColor Landscape {Pat4} {Pat5} ifelse setpattern} bind def
/Pattern6 {PatternBgnd KeepColor Landscape {Pat9} {Pat6} ifelse setpattern} bind def
/Pattern7 {PatternBgnd KeepColor Landscape {Pat8} {Pat7} ifelse setpattern} bind def
} def
%
%
%End of PostScript Level 2 code
%
/PatternBgnd {
  TransparentPatterns {} {gsave 1 setgray fill grestore} ifelse
} def
%
% Substitute for Level 2 pattern fill codes with
% grayscale if Level 2 support is not selected.
%
/Level1PatternFill {
/Pattern1 {0.250 Density} bind def
/Pattern2 {0.500 Density} bind def
/Pattern3 {0.750 Density} bind def
/Pattern4 {0.125 Density} bind def
/Pattern5 {0.375 Density} bind def
/Pattern6 {0.625 Density} bind def
/Pattern7 {0.875 Density} bind def
} def
%
% Now test for support of Level 2 code
%
Level1 {Level1PatternFill} {Level2PatternFill} ifelse
%
/Symbol-Oblique /Symbol findfont [1 0 .167 1 0 0] makefont
dup length dict begin {1 index /FID eq {pop pop} {def} ifelse} forall
currentdict end definefont pop
%
/MFshow {
   { dup 5 get 3 ge
     { 5 get 3 eq {gsave} {grestore} ifelse }
     {dup dup 0 get findfont exch 1 get scalefont setfont
     [ currentpoint ] exch dup 2 get 0 exch R dup 5 get 2 ne {dup dup 6
     get exch 4 get {textshow} {stringwidth pop 0 R} ifelse }if dup 5 get 0 eq
     {dup 3 get {2 get neg 0 exch R pop} {pop aload pop M} ifelse} {dup 5
     get 1 eq {dup 2 get exch dup 3 get exch 6 get stringwidth pop -2 div
     dup 0 R} {dup 6 get stringwidth pop -2 div 0 R 6 get
     textshow 2 index {aload pop M neg 3 -1 roll neg R pop pop} {pop pop pop
     pop aload pop M} ifelse }ifelse }ifelse }
     ifelse }
   forall} def
/Gswidth {dup type /stringtype eq {stringwidth} {pop (n) stringwidth} ifelse} def
/MFwidth {0 exch { dup 5 get 3 ge { 5 get 3 eq { 0 } { pop } ifelse }
 {dup 3 get{dup dup 0 get findfont exch 1 get scalefont setfont
     6 get Gswidth pop add} {pop} ifelse} ifelse} forall} def
/MLshow { currentpoint stroke M
  0 exch R
  Blacktext {gsave 0 setgray MFshow grestore} {MFshow} ifelse } bind def
/MRshow { currentpoint stroke M
  exch dup MFwidth neg 3 -1 roll R
  Blacktext {gsave 0 setgray MFshow grestore} {MFshow} ifelse } bind def
/MCshow { currentpoint stroke M
  exch dup MFwidth -2 div 3 -1 roll R
  Blacktext {gsave 0 setgray MFshow grestore} {MFshow} ifelse } bind def
/XYsave    { [( ) 1 2 true false 3 ()] } bind def
/XYrestore { [( ) 1 2 true false 4 ()] } bind def
Level1 SuppressPDFMark or 
{} {
/SDict 10 dict def
systemdict /pdfmark known not {
  userdict /pdfmark systemdict /cleartomark get put
} if
SDict begin [
  /Title (packets-s-ccdf-linlog.eps)
  /Subject (gnuplot plot)
  /Creator (gnuplot 5.0 patchlevel 3)
  /Author (tiphaine)
%  /Producer (gnuplot)
%  /Keywords ()
  /CreationDate (Mon May 29 11:05:49 2017)
  /DOCINFO pdfmark
end
} ifelse
%
% Support for boxed text - Ethan A Merritt May 2005
%
/InitTextBox { userdict /TBy2 3 -1 roll put userdict /TBx2 3 -1 roll put
           userdict /TBy1 3 -1 roll put userdict /TBx1 3 -1 roll put
	   /Boxing true def } def
/ExtendTextBox { Boxing
    { gsave dup false charpath pathbbox
      dup TBy2 gt {userdict /TBy2 3 -1 roll put} {pop} ifelse
      dup TBx2 gt {userdict /TBx2 3 -1 roll put} {pop} ifelse
      dup TBy1 lt {userdict /TBy1 3 -1 roll put} {pop} ifelse
      dup TBx1 lt {userdict /TBx1 3 -1 roll put} {pop} ifelse
      grestore } if } def
/PopTextBox { newpath TBx1 TBxmargin sub TBy1 TBymargin sub M
               TBx1 TBxmargin sub TBy2 TBymargin add L
	       TBx2 TBxmargin add TBy2 TBymargin add L
	       TBx2 TBxmargin add TBy1 TBymargin sub L closepath } def
/DrawTextBox { PopTextBox stroke /Boxing false def} def
/FillTextBox { gsave PopTextBox 1 1 1 setrgbcolor fill grestore /Boxing false def} def
0 0 0 0 InitTextBox
/TBxmargin 20 def
/TBymargin 20 def
/Boxing false def
/textshow { ExtendTextBox Gshow } def
%
% redundant definitions for compatibility with prologue.ps older than 5.0.2
/LTB {BL [] LCb DL} def
/LTb {PL [] LCb DL} def
end
%%EndProlog
%%Page: 1 1
gnudict begin
gsave
doclip
50 50 translate
0.100 0.100 scale
90 rotate
0 -5040 translate
0 setgray
newpath
(Helvetica) findfont 140 scalefont setfont
BackgroundColor 0 lt 3 1 roll 0 lt exch 0 lt or or not {gsave BackgroundColor C clippath fill grestore} if
1.000 UL
LTb
LCb setrgbcolor
798 280 M
63 0 V
6086 0 R
-63 0 V
stroke
714 280 M
[ [(Helvetica) 140.0 0.0 true true 0 ( 0.0001)]
] -46.7 MRshow
1.000 UL
LTb
LCb setrgbcolor
798 626 M
31 0 V
6118 0 R
-31 0 V
798 828 M
31 0 V
6118 0 R
-31 0 V
798 971 M
31 0 V
6118 0 R
-31 0 V
798 1082 M
31 0 V
6118 0 R
-31 0 V
798 1173 M
31 0 V
6118 0 R
-31 0 V
798 1250 M
31 0 V
6118 0 R
-31 0 V
798 1317 M
31 0 V
6118 0 R
-31 0 V
798 1375 M
31 0 V
6118 0 R
-31 0 V
798 1428 M
63 0 V
6086 0 R
-63 0 V
stroke
714 1428 M
[ [(Helvetica) 140.0 0.0 true true 0 ( 0.001)]
] -46.7 MRshow
1.000 UL
LTb
LCb setrgbcolor
798 1773 M
31 0 V
6118 0 R
-31 0 V
798 1975 M
31 0 V
6118 0 R
-31 0 V
798 2119 M
31 0 V
6118 0 R
-31 0 V
798 2230 M
31 0 V
6118 0 R
-31 0 V
798 2321 M
31 0 V
6118 0 R
-31 0 V
798 2398 M
31 0 V
6118 0 R
-31 0 V
798 2464 M
31 0 V
6118 0 R
-31 0 V
798 2523 M
31 0 V
6118 0 R
-31 0 V
798 2576 M
63 0 V
6086 0 R
-63 0 V
stroke
714 2576 M
[ [(Helvetica) 140.0 0.0 true true 0 ( 0.01)]
] -46.7 MRshow
1.000 UL
LTb
LCb setrgbcolor
798 2921 M
31 0 V
6118 0 R
-31 0 V
798 3123 M
31 0 V
6118 0 R
-31 0 V
798 3267 M
31 0 V
6118 0 R
-31 0 V
798 3378 M
31 0 V
6118 0 R
-31 0 V
798 3469 M
31 0 V
6118 0 R
-31 0 V
798 3545 M
31 0 V
6118 0 R
-31 0 V
798 3612 M
31 0 V
6118 0 R
-31 0 V
798 3671 M
31 0 V
6118 0 R
-31 0 V
798 3723 M
63 0 V
6086 0 R
-63 0 V
stroke
714 3723 M
[ [(Helvetica) 140.0 0.0 true true 0 ( 0.1)]
] -46.7 MRshow
1.000 UL
LTb
LCb setrgbcolor
798 4069 M
31 0 V
6118 0 R
-31 0 V
798 4271 M
31 0 V
6118 0 R
-31 0 V
798 4414 M
31 0 V
6118 0 R
-31 0 V
798 4525 M
31 0 V
6118 0 R
-31 0 V
798 4616 M
31 0 V
6118 0 R
-31 0 V
798 4693 M
31 0 V
6118 0 R
-31 0 V
798 4760 M
31 0 V
6118 0 R
-31 0 V
798 4818 M
31 0 V
6118 0 R
-31 0 V
798 4871 M
63 0 V
6086 0 R
-63 0 V
stroke
714 4871 M
[ [(Helvetica) 140.0 0.0 true true 0 ( 1)]
] -46.7 MRshow
1.000 UL
LTb
LCb setrgbcolor
798 280 M
0 63 V
0 4528 R
0 -63 V
stroke
798 140 M
[ [(Helvetica) 140.0 0.0 true true 0 ( 0)]
] -46.7 MCshow
1.000 UL
LTb
LCb setrgbcolor
1676 280 M
0 63 V
0 4528 R
0 -63 V
stroke
1676 140 M
[ [(Helvetica) 140.0 0.0 true true 0 ( 10000)]
] -46.7 MCshow
1.000 UL
LTb
LCb setrgbcolor
2555 280 M
0 63 V
0 4528 R
0 -63 V
stroke
2555 140 M
[ [(Helvetica) 140.0 0.0 true true 0 ( 20000)]
] -46.7 MCshow
1.000 UL
LTb
LCb setrgbcolor
3433 280 M
0 63 V
0 4528 R
0 -63 V
stroke
3433 140 M
[ [(Helvetica) 140.0 0.0 true true 0 ( 30000)]
] -46.7 MCshow
1.000 UL
LTb
LCb setrgbcolor
4312 280 M
0 63 V
0 4528 R
0 -63 V
stroke
4312 140 M
[ [(Helvetica) 140.0 0.0 true true 0 ( 40000)]
] -46.7 MCshow
1.000 UL
LTb
LCb setrgbcolor
5190 280 M
0 63 V
0 4528 R
0 -63 V
stroke
5190 140 M
[ [(Helvetica) 140.0 0.0 true true 0 ( 50000)]
] -46.7 MCshow
1.000 UL
LTb
LCb setrgbcolor
6069 280 M
0 63 V
0 4528 R
0 -63 V
stroke
6069 140 M
[ [(Helvetica) 140.0 0.0 true true 0 ( 60000)]
] -46.7 MCshow
1.000 UL
LTb
LCb setrgbcolor
6947 280 M
0 63 V
0 4528 R
0 -63 V
stroke
6947 140 M
[ [(Helvetica) 140.0 0.0 true true 0 ( 70000)]
] -46.7 MCshow
1.000 UL
LTb
LCb setrgbcolor
1.000 UL
LTB
LCb setrgbcolor
798 4871 N
798 280 L
6149 0 V
0 4591 V
-6149 0 V
Z stroke
1.000 UP
1.000 UL
LTb
LCb setrgbcolor
% Begin plot #1
1.000 UP
1.000 UL
LTb
0.58 0.00 0.83 C 1431 4871 Pls
2145 4871 Pls
2181 4871 Pls
2206 4871 Pls
2275 4870 Pls
2300 4870 Pls
2301 4870 Pls
2313 4870 Pls
2319 4870 Pls
2322 4870 Pls
2328 4870 Pls
2341 4869 Pls
2343 4869 Pls
2345 4869 Pls
2347 4869 Pls
2349 4869 Pls
2352 4869 Pls
2353 4869 Pls
2356 4869 Pls
2358 4868 Pls
2359 4868 Pls
2362 4868 Pls
2362 4868 Pls
2363 4868 Pls
2363 4868 Pls
2368 4868 Pls
2369 4867 Pls
2375 4867 Pls
2375 4867 Pls
2382 4867 Pls
2385 4867 Pls
2385 4867 Pls
2386 4867 Pls
2387 4866 Pls
2387 4866 Pls
2388 4866 Pls
2389 4866 Pls
2391 4866 Pls
2391 4866 Pls
2393 4866 Pls
2397 4865 Pls
2398 4865 Pls
2400 4865 Pls
2400 4865 Pls
2401 4865 Pls
2401 4865 Pls
2401 4864 Pls
2403 4864 Pls
2403 4864 Pls
2404 4864 Pls
2404 4864 Pls
2407 4864 Pls
2407 4864 Pls
2408 4863 Pls
2408 4863 Pls
2411 4863 Pls
2411 4863 Pls
2412 4863 Pls
2414 4863 Pls
2414 4862 Pls
2415 4862 Pls
2416 4862 Pls
2417 4862 Pls
2418 4862 Pls
2419 4862 Pls
2419 4862 Pls
2421 4861 Pls
2422 4861 Pls
2423 4861 Pls
2423 4861 Pls
2424 4861 Pls
2425 4861 Pls
2426 4861 Pls
2426 4860 Pls
2427 4860 Pls
2428 4860 Pls
2429 4860 Pls
2430 4860 Pls
2430 4860 Pls
2430 4860 Pls
2432 4859 Pls
2432 4859 Pls
2433 4859 Pls
2433 4859 Pls
2434 4859 Pls
2435 4859 Pls
2436 4858 Pls
2437 4858 Pls
2438 4858 Pls
2438 4858 Pls
2438 4858 Pls
2441 4858 Pls
2442 4858 Pls
2444 4857 Pls
2445 4857 Pls
2446 4857 Pls
2448 4857 Pls
2449 4857 Pls
2450 4857 Pls
2451 4857 Pls
2451 4856 Pls
2452 4856 Pls
2454 4856 Pls
2455 4856 Pls
2456 4856 Pls
2456 4856 Pls
2457 4856 Pls
2458 4855 Pls
2459 4855 Pls
2461 4855 Pls
2461 4855 Pls
2462 4855 Pls
2463 4855 Pls
2463 4855 Pls
2464 4854 Pls
2465 4854 Pls
2468 4854 Pls
2468 4854 Pls
2470 4854 Pls
2470 4854 Pls
2472 4854 Pls
2473 4853 Pls
2473 4853 Pls
2473 4853 Pls
2474 4853 Pls
2474 4853 Pls
2477 4853 Pls
2478 4853 Pls
2478 4852 Pls
2479 4852 Pls
2480 4852 Pls
2481 4852 Pls
2481 4852 Pls
2481 4852 Pls
2481 4852 Pls
2481 4851 Pls
2482 4851 Pls
2482 4851 Pls
2483 4851 Pls
2483 4851 Pls
2484 4851 Pls
2484 4850 Pls
2486 4850 Pls
2487 4850 Pls
2487 4850 Pls
2488 4850 Pls
2488 4849 Pls
2488 4849 Pls
2490 4849 Pls
2490 4849 Pls
2490 4849 Pls
2490 4849 Pls
2491 4848 Pls
2491 4848 Pls
2492 4848 Pls
2492 4848 Pls
2493 4848 Pls
2493 4848 Pls
2493 4848 Pls
2493 4847 Pls
2493 4847 Pls
2495 4847 Pls
2495 4847 Pls
2496 4847 Pls
2497 4847 Pls
2498 4847 Pls
2498 4846 Pls
2499 4846 Pls
2501 4846 Pls
2502 4846 Pls
2503 4846 Pls
2504 4846 Pls
2504 4845 Pls
2504 4845 Pls
2505 4845 Pls
2506 4845 Pls
2506 4845 Pls
2507 4845 Pls
2508 4845 Pls
2509 4844 Pls
2509 4844 Pls
2511 4844 Pls
2512 4844 Pls
2513 4844 Pls
2514 4844 Pls
2515 4844 Pls
2515 4843 Pls
2515 4843 Pls
2516 4843 Pls
2516 4843 Pls
2516 4843 Pls
2517 4843 Pls
2517 4842 Pls
2517 4842 Pls
2518 4842 Pls
2518 4842 Pls
2519 4842 Pls
2519 4842 Pls
2520 4841 Pls
2520 4841 Pls
2521 4841 Pls
2521 4841 Pls
2522 4841 Pls
2522 4841 Pls
2523 4840 Pls
2523 4840 Pls
2523 4840 Pls
2524 4840 Pls
2525 4840 Pls
2525 4840 Pls
2525 4839 Pls
2526 4839 Pls
2526 4839 Pls
2526 4839 Pls
2526 4839 Pls
2527 4839 Pls
2527 4839 Pls
2527 4838 Pls
2528 4838 Pls
2528 4838 Pls
2528 4838 Pls
2528 4838 Pls
2529 4837 Pls
2529 4837 Pls
2530 4837 Pls
2531 4837 Pls
2531 4837 Pls
2532 4837 Pls
2532 4837 Pls
2532 4836 Pls
2533 4836 Pls
2534 4836 Pls
2534 4836 Pls
2534 4836 Pls
2534 4836 Pls
2535 4836 Pls
2536 4835 Pls
2536 4835 Pls
2537 4835 Pls
2537 4835 Pls
2537 4835 Pls
2538 4835 Pls
2538 4834 Pls
2539 4834 Pls
2539 4834 Pls
2539 4834 Pls
2541 4834 Pls
2541 4833 Pls
2542 4833 Pls
2542 4833 Pls
2542 4833 Pls
2542 4833 Pls
2543 4833 Pls
2543 4832 Pls
2544 4832 Pls
2544 4832 Pls
2544 4832 Pls
2544 4832 Pls
2545 4832 Pls
2546 4831 Pls
2546 4831 Pls
2546 4831 Pls
2547 4831 Pls
2547 4831 Pls
2547 4830 Pls
2548 4830 Pls
2549 4830 Pls
2549 4830 Pls
2549 4830 Pls
2549 4830 Pls
2549 4829 Pls
2550 4829 Pls
2550 4829 Pls
2550 4829 Pls
2551 4829 Pls
2552 4828 Pls
2552 4828 Pls
2552 4828 Pls
2552 4828 Pls
2554 4828 Pls
2554 4827 Pls
2554 4827 Pls
2555 4827 Pls
2555 4827 Pls
2556 4827 Pls
2556 4827 Pls
2557 4827 Pls
2557 4826 Pls
2557 4826 Pls
2558 4826 Pls
2558 4826 Pls
2558 4826 Pls
2559 4826 Pls
2559 4825 Pls
2559 4825 Pls
2559 4825 Pls
2559 4825 Pls
2559 4825 Pls
2560 4824 Pls
2560 4824 Pls
2561 4824 Pls
2561 4824 Pls
2561 4824 Pls
2562 4824 Pls
2562 4823 Pls
2562 4823 Pls
2562 4823 Pls
2563 4823 Pls
2563 4823 Pls
2563 4823 Pls
2564 4822 Pls
2564 4822 Pls
2565 4822 Pls
2566 4822 Pls
2566 4822 Pls
2567 4822 Pls
2568 4821 Pls
2568 4821 Pls
2568 4821 Pls
2568 4821 Pls
2569 4821 Pls
2570 4821 Pls
2570 4820 Pls
2570 4820 Pls
2571 4820 Pls
2572 4820 Pls
2572 4820 Pls
2572 4820 Pls
2573 4819 Pls
2573 4819 Pls
2573 4819 Pls
2573 4819 Pls
2573 4818 Pls
2574 4818 Pls
2574 4818 Pls
2575 4818 Pls
2576 4818 Pls
2576 4818 Pls
2576 4818 Pls
2577 4817 Pls
2577 4817 Pls
2577 4817 Pls
2578 4817 Pls
2578 4816 Pls
2578 4816 Pls
2578 4816 Pls
2578 4816 Pls
2579 4816 Pls
2580 4816 Pls
2580 4816 Pls
2581 4815 Pls
2581 4815 Pls
2582 4815 Pls
2582 4815 Pls
2582 4815 Pls
2583 4815 Pls
2583 4814 Pls
2583 4814 Pls
2583 4814 Pls
2584 4814 Pls
2585 4814 Pls
2585 4813 Pls
2585 4813 Pls
2585 4813 Pls
2586 4813 Pls
2586 4813 Pls
2586 4813 Pls
2586 4812 Pls
2587 4812 Pls
2587 4812 Pls
2587 4812 Pls
2588 4812 Pls
2588 4812 Pls
2589 4811 Pls
2589 4811 Pls
2589 4811 Pls
2589 4811 Pls
2589 4811 Pls
2589 4811 Pls
2589 4810 Pls
2590 4810 Pls
2590 4810 Pls
2590 4810 Pls
2591 4810 Pls
2591 4809 Pls
2591 4809 Pls
2591 4809 Pls
2593 4809 Pls
2595 4809 Pls
2596 4809 Pls
2596 4809 Pls
2596 4808 Pls
2597 4808 Pls
2598 4808 Pls
2598 4808 Pls
2598 4808 Pls
2598 4808 Pls
2599 4807 Pls
2599 4807 Pls
2600 4807 Pls
2600 4807 Pls
2600 4807 Pls
2600 4806 Pls
2601 4806 Pls
2601 4806 Pls
2601 4806 Pls
2601 4806 Pls
2601 4806 Pls
2601 4805 Pls
2602 4805 Pls
2602 4805 Pls
2602 4805 Pls
2603 4805 Pls
2603 4804 Pls
2603 4804 Pls
2603 4804 Pls
2604 4804 Pls
2604 4804 Pls
2604 4803 Pls
2604 4803 Pls
2605 4803 Pls
2606 4803 Pls
2606 4803 Pls
2606 4803 Pls
2606 4803 Pls
2607 4802 Pls
2607 4802 Pls
2607 4802 Pls
2608 4802 Pls
2608 4802 Pls
2609 4801 Pls
2609 4801 Pls
2610 4801 Pls
2611 4801 Pls
2611 4801 Pls
2611 4800 Pls
2611 4800 Pls
2612 4800 Pls
2612 4800 Pls
2613 4800 Pls
2613 4800 Pls
2613 4799 Pls
2613 4799 Pls
2614 4799 Pls
2614 4798 Pls
2614 4798 Pls
2614 4798 Pls
2615 4798 Pls
2616 4798 Pls
2616 4797 Pls
2616 4797 Pls
2617 4797 Pls
2617 4797 Pls
2617 4797 Pls
2618 4796 Pls
2618 4796 Pls
2619 4796 Pls
2620 4796 Pls
2620 4796 Pls
2621 4795 Pls
2621 4795 Pls
2622 4795 Pls
2623 4795 Pls
2623 4795 Pls
2623 4794 Pls
2623 4794 Pls
2623 4794 Pls
2624 4794 Pls
2625 4794 Pls
2625 4794 Pls
2625 4793 Pls
2625 4793 Pls
2626 4793 Pls
2626 4793 Pls
2627 4793 Pls
2627 4792 Pls
2627 4792 Pls
2627 4792 Pls
2627 4792 Pls
2627 4792 Pls
2627 4791 Pls
2628 4791 Pls
2628 4791 Pls
2628 4791 Pls
2628 4791 Pls
2629 4790 Pls
2629 4790 Pls
2629 4790 Pls
2630 4790 Pls
2630 4790 Pls
2630 4790 Pls
2631 4789 Pls
2631 4789 Pls
2631 4789 Pls
2631 4789 Pls
2632 4789 Pls
2632 4788 Pls
2633 4788 Pls
2633 4788 Pls
2633 4788 Pls
2633 4787 Pls
2633 4787 Pls
2634 4787 Pls
2634 4787 Pls
2634 4786 Pls
2634 4786 Pls
2634 4786 Pls
2635 4786 Pls
2635 4786 Pls
2635 4785 Pls
2635 4785 Pls
2636 4785 Pls
2636 4785 Pls
2636 4784 Pls
2637 4784 Pls
2637 4784 Pls
2638 4784 Pls
2638 4784 Pls
2638 4784 Pls
2639 4783 Pls
2639 4783 Pls
2640 4783 Pls
2640 4783 Pls
2640 4783 Pls
2641 4783 Pls
2641 4782 Pls
2641 4782 Pls
2642 4782 Pls
2642 4782 Pls
2642 4782 Pls
2642 4781 Pls
2643 4781 Pls
2643 4781 Pls
2643 4781 Pls
2644 4781 Pls
2644 4780 Pls
2644 4780 Pls
2644 4780 Pls
2645 4780 Pls
2645 4779 Pls
2645 4779 Pls
2645 4779 Pls
2645 4779 Pls
2646 4779 Pls
2646 4778 Pls
2646 4778 Pls
2646 4778 Pls
2646 4778 Pls
2646 4778 Pls
2648 4777 Pls
2649 4777 Pls
2649 4777 Pls
2649 4777 Pls
2649 4777 Pls
2650 4776 Pls
2650 4776 Pls
2650 4776 Pls
2650 4776 Pls
2651 4776 Pls
2651 4776 Pls
2651 4775 Pls
2651 4775 Pls
2651 4775 Pls
2652 4775 Pls
2652 4775 Pls
2652 4775 Pls
2652 4774 Pls
2653 4774 Pls
2653 4774 Pls
2653 4774 Pls
2654 4774 Pls
2654 4773 Pls
2654 4773 Pls
2655 4773 Pls
2655 4773 Pls
2655 4773 Pls
2655 4773 Pls
2655 4772 Pls
2656 4772 Pls
2656 4772 Pls
2656 4772 Pls
2656 4772 Pls
2657 4771 Pls
2657 4771 Pls
2658 4771 Pls
2658 4771 Pls
2659 4771 Pls
2659 4771 Pls
2660 4770 Pls
2660 4770 Pls
2660 4770 Pls
2661 4770 Pls
2661 4770 Pls
2661 4770 Pls
2662 4769 Pls
2662 4769 Pls
2662 4769 Pls
2663 4769 Pls
2663 4769 Pls
2663 4768 Pls
2663 4768 Pls
2664 4768 Pls
2664 4768 Pls
2664 4768 Pls
2665 4767 Pls
2665 4767 Pls
2665 4767 Pls
2666 4767 Pls
2666 4767 Pls
2666 4767 Pls
2666 4766 Pls
2667 4766 Pls
2667 4766 Pls
2668 4766 Pls
2668 4765 Pls
2669 4765 Pls
2670 4765 Pls
2670 4765 Pls
2670 4765 Pls
2670 4765 Pls
2671 4764 Pls
2671 4764 Pls
2671 4764 Pls
2671 4764 Pls
2671 4763 Pls
2672 4763 Pls
2672 4763 Pls
2672 4763 Pls
2673 4763 Pls
2674 4763 Pls
2674 4762 Pls
2674 4762 Pls
2675 4762 Pls
2675 4761 Pls
2675 4761 Pls
2675 4761 Pls
2676 4761 Pls
2676 4760 Pls
2676 4760 Pls
2676 4760 Pls
2676 4760 Pls
2677 4760 Pls
2677 4760 Pls
2677 4759 Pls
2677 4759 Pls
2677 4759 Pls
2677 4759 Pls
2678 4759 Pls
2678 4758 Pls
2679 4758 Pls
2679 4758 Pls
2679 4758 Pls
2679 4758 Pls
2680 4757 Pls
2680 4757 Pls
2680 4756 Pls
2680 4756 Pls
2681 4756 Pls
2681 4756 Pls
2681 4756 Pls
2681 4756 Pls
2682 4755 Pls
2682 4755 Pls
2682 4755 Pls
2682 4755 Pls
2682 4755 Pls
2683 4754 Pls
2683 4754 Pls
2683 4754 Pls
2684 4754 Pls
2684 4753 Pls
2684 4753 Pls
2684 4753 Pls
2684 4753 Pls
2685 4752 Pls
2685 4752 Pls
2685 4752 Pls
2685 4751 Pls
2686 4751 Pls
2686 4751 Pls
2686 4751 Pls
2686 4751 Pls
2687 4750 Pls
2687 4750 Pls
2688 4750 Pls
2688 4750 Pls
2689 4750 Pls
2689 4749 Pls
2689 4749 Pls
2689 4749 Pls
2690 4749 Pls
2690 4749 Pls
2691 4748 Pls
2691 4748 Pls
2691 4748 Pls
2691 4748 Pls
2692 4748 Pls
2692 4748 Pls
2693 4747 Pls
2693 4747 Pls
2693 4747 Pls
2693 4747 Pls
2694 4747 Pls
2694 4746 Pls
2694 4746 Pls
2694 4746 Pls
2695 4746 Pls
2695 4746 Pls
2696 4745 Pls
2696 4745 Pls
2696 4745 Pls
2696 4745 Pls
2696 4744 Pls
2697 4744 Pls
2697 4744 Pls
2697 4744 Pls
2697 4743 Pls
2698 4743 Pls
2698 4743 Pls
2698 4743 Pls
2699 4742 Pls
2699 4742 Pls
2699 4742 Pls
2700 4741 Pls
2700 4741 Pls
2700 4741 Pls
2700 4741 Pls
2701 4741 Pls
2701 4741 Pls
2701 4740 Pls
2701 4740 Pls
2701 4740 Pls
2702 4739 Pls
2702 4739 Pls
2702 4739 Pls
2702 4739 Pls
2702 4739 Pls
2703 4739 Pls
2703 4738 Pls
2703 4738 Pls
2703 4738 Pls
2704 4738 Pls
2704 4737 Pls
2704 4737 Pls
2704 4737 Pls
2705 4737 Pls
2705 4737 Pls
2705 4736 Pls
2705 4736 Pls
2705 4736 Pls
2705 4736 Pls
2706 4736 Pls
2706 4735 Pls
2706 4735 Pls
2706 4735 Pls
2707 4735 Pls
2707 4735 Pls
2708 4735 Pls
2708 4734 Pls
2708 4734 Pls
2708 4734 Pls
2709 4734 Pls
2709 4733 Pls
2709 4733 Pls
2709 4733 Pls
2710 4733 Pls
2710 4733 Pls
2710 4733 Pls
2710 4732 Pls
2711 4732 Pls
2711 4732 Pls
2711 4732 Pls
2711 4732 Pls
2711 4731 Pls
2712 4731 Pls
2712 4731 Pls
2712 4731 Pls
2712 4731 Pls
2712 4730 Pls
2712 4730 Pls
2713 4730 Pls
2713 4730 Pls
2713 4730 Pls
2714 4729 Pls
2714 4729 Pls
2714 4729 Pls
2715 4729 Pls
2715 4729 Pls
2715 4728 Pls
2715 4728 Pls
2716 4728 Pls
2716 4728 Pls
2716 4727 Pls
2716 4727 Pls
2716 4727 Pls
2717 4727 Pls
2717 4727 Pls
2717 4726 Pls
2717 4726 Pls
2717 4726 Pls
2717 4726 Pls
2718 4726 Pls
2718 4725 Pls
2718 4725 Pls
2718 4725 Pls
2719 4725 Pls
2719 4724 Pls
2719 4724 Pls
2719 4724 Pls
2719 4724 Pls
2720 4724 Pls
2720 4723 Pls
2721 4723 Pls
2721 4723 Pls
2721 4722 Pls
2721 4722 Pls
2722 4722 Pls
2722 4722 Pls
2722 4721 Pls
2722 4721 Pls
2722 4721 Pls
2722 4720 Pls
2722 4720 Pls
2723 4720 Pls
2723 4720 Pls
2724 4720 Pls
2724 4719 Pls
2724 4719 Pls
2724 4719 Pls
2724 4719 Pls
2725 4719 Pls
2725 4718 Pls
2725 4718 Pls
2726 4718 Pls
2726 4718 Pls
2726 4718 Pls
2726 4717 Pls
2726 4717 Pls
2727 4717 Pls
2727 4716 Pls
2727 4716 Pls
2727 4716 Pls
2727 4716 Pls
2727 4716 Pls
2727 4715 Pls
2728 4715 Pls
2728 4715 Pls
2728 4715 Pls
2728 4714 Pls
2728 4714 Pls
2729 4714 Pls
2729 4714 Pls
2729 4713 Pls
2729 4713 Pls
2729 4713 Pls
2729 4713 Pls
2730 4712 Pls
2730 4712 Pls
2730 4712 Pls
2730 4712 Pls
2731 4711 Pls
2731 4711 Pls
2731 4711 Pls
2732 4711 Pls
2732 4711 Pls
2732 4710 Pls
2732 4710 Pls
2733 4710 Pls
2733 4710 Pls
2733 4710 Pls
2733 4709 Pls
2733 4709 Pls
2733 4709 Pls
2734 4708 Pls
2734 4708 Pls
2734 4708 Pls
2734 4708 Pls
2735 4707 Pls
2735 4707 Pls
2735 4707 Pls
2735 4706 Pls
2735 4706 Pls
2735 4706 Pls
2736 4706 Pls
2736 4706 Pls
2736 4706 Pls
2737 4705 Pls
2737 4705 Pls
2737 4705 Pls
2737 4705 Pls
2737 4705 Pls
2738 4704 Pls
2738 4704 Pls
2738 4704 Pls
2738 4704 Pls
2739 4703 Pls
2739 4703 Pls
2739 4703 Pls
2739 4703 Pls
2740 4702 Pls
2740 4702 Pls
2741 4702 Pls
2741 4702 Pls
2742 4701 Pls
2742 4701 Pls
2742 4701 Pls
2742 4701 Pls
2742 4700 Pls
2743 4700 Pls
2743 4700 Pls
2744 4700 Pls
2744 4700 Pls
2744 4699 Pls
2745 4699 Pls
2745 4699 Pls
2745 4699 Pls
2745 4699 Pls
2746 4698 Pls
2746 4698 Pls
2746 4698 Pls
2747 4698 Pls
2747 4697 Pls
2747 4697 Pls
2747 4697 Pls
2747 4697 Pls
2747 4697 Pls
2747 4696 Pls
2748 4696 Pls
2748 4696 Pls
2748 4696 Pls
2748 4696 Pls
2749 4695 Pls
2749 4695 Pls
2749 4695 Pls
2749 4695 Pls
2749 4694 Pls
2750 4694 Pls
2750 4694 Pls
2750 4694 Pls
2750 4694 Pls
2751 4693 Pls
2751 4693 Pls
2751 4693 Pls
2751 4693 Pls
2752 4693 Pls
2752 4692 Pls
2753 4692 Pls
2753 4692 Pls
2753 4691 Pls
2753 4691 Pls
2754 4691 Pls
2754 4690 Pls
2755 4690 Pls
2755 4690 Pls
2756 4690 Pls
2756 4689 Pls
2756 4689 Pls
2756 4689 Pls
2756 4689 Pls
2756 4688 Pls
2756 4688 Pls
2757 4688 Pls
2757 4688 Pls
2757 4687 Pls
2757 4687 Pls
2757 4687 Pls
2758 4687 Pls
2758 4687 Pls
2759 4686 Pls
2759 4686 Pls
2759 4685 Pls
2760 4685 Pls
2760 4684 Pls
2760 4684 Pls
2760 4684 Pls
2760 4684 Pls
2760 4683 Pls
2761 4683 Pls
2761 4683 Pls
2761 4683 Pls
2761 4682 Pls
2761 4682 Pls
2761 4682 Pls
2762 4682 Pls
2762 4681 Pls
2762 4681 Pls
2763 4681 Pls
2763 4680 Pls
2764 4680 Pls
2764 4680 Pls
2764 4680 Pls
2764 4679 Pls
2764 4679 Pls
2764 4679 Pls
2764 4679 Pls
2765 4679 Pls
2765 4678 Pls
2765 4678 Pls
2765 4678 Pls
2765 4678 Pls
2765 4678 Pls
2766 4677 Pls
2766 4677 Pls
2766 4677 Pls
2766 4677 Pls
2766 4676 Pls
2766 4676 Pls
2766 4676 Pls
2767 4676 Pls
2767 4675 Pls
2767 4675 Pls
2767 4675 Pls
2767 4675 Pls
2767 4674 Pls
2768 4674 Pls
2768 4674 Pls
2768 4673 Pls
2768 4673 Pls
2768 4673 Pls
2768 4672 Pls
2768 4672 Pls
2768 4672 Pls
2769 4672 Pls
2769 4672 Pls
2769 4671 Pls
2769 4671 Pls
2770 4671 Pls
2770 4671 Pls
2770 4671 Pls
2770 4670 Pls
2771 4670 Pls
2771 4670 Pls
2771 4670 Pls
2771 4669 Pls
2771 4669 Pls
2772 4669 Pls
2772 4668 Pls
2772 4668 Pls
2773 4668 Pls
2773 4668 Pls
2773 4668 Pls
2774 4667 Pls
2774 4667 Pls
2774 4667 Pls
2775 4667 Pls
2775 4666 Pls
2775 4666 Pls
2775 4666 Pls
2775 4666 Pls
2776 4665 Pls
2776 4665 Pls
2776 4665 Pls
2776 4664 Pls
2776 4664 Pls
2777 4664 Pls
2777 4663 Pls
2777 4663 Pls
2777 4663 Pls
2778 4663 Pls
2778 4662 Pls
2778 4662 Pls
2778 4662 Pls
2779 4662 Pls
2779 4662 Pls
2779 4661 Pls
2779 4661 Pls
2779 4661 Pls
2780 4661 Pls
2780 4660 Pls
2780 4660 Pls
2781 4660 Pls
2781 4659 Pls
2781 4659 Pls
2781 4659 Pls
2782 4659 Pls
2782 4659 Pls
2783 4658 Pls
2783 4658 Pls
2783 4658 Pls
2783 4658 Pls
2783 4657 Pls
2783 4657 Pls
2784 4657 Pls
2784 4657 Pls
2784 4656 Pls
2784 4656 Pls
2784 4656 Pls
2784 4656 Pls
2785 4656 Pls
2785 4655 Pls
2785 4655 Pls
2785 4655 Pls
2785 4654 Pls
2785 4654 Pls
2786 4653 Pls
2786 4653 Pls
2786 4653 Pls
2786 4652 Pls
2786 4652 Pls
2786 4652 Pls
2787 4652 Pls
2787 4651 Pls
2787 4651 Pls
2787 4650 Pls
2788 4650 Pls
2788 4650 Pls
2788 4649 Pls
2788 4649 Pls
2789 4649 Pls
2789 4649 Pls
2789 4649 Pls
2789 4648 Pls
2789 4648 Pls
2789 4648 Pls
2790 4647 Pls
2790 4647 Pls
2790 4647 Pls
2790 4647 Pls
2790 4646 Pls
2790 4646 Pls
2791 4645 Pls
2791 4645 Pls
2792 4644 Pls
2792 4644 Pls
2792 4644 Pls
2792 4644 Pls
2792 4644 Pls
2792 4643 Pls
2793 4643 Pls
2793 4643 Pls
2793 4643 Pls
2793 4642 Pls
2793 4642 Pls
2793 4642 Pls
2794 4642 Pls
2794 4641 Pls
2794 4641 Pls
2794 4641 Pls
2794 4640 Pls
2794 4640 Pls
2796 4640 Pls
2796 4640 Pls
2797 4639 Pls
2797 4639 Pls
2797 4639 Pls
2797 4638 Pls
2798 4638 Pls
2798 4637 Pls
2798 4637 Pls
2798 4637 Pls
2798 4637 Pls
2798 4636 Pls
2799 4636 Pls
2799 4636 Pls
2799 4635 Pls
2799 4635 Pls
2800 4635 Pls
2800 4635 Pls
2801 4635 Pls
2801 4634 Pls
2801 4634 Pls
2802 4634 Pls
2802 4634 Pls
2802 4633 Pls
2803 4633 Pls
2803 4633 Pls
2803 4633 Pls
2803 4632 Pls
2803 4632 Pls
2803 4632 Pls
2803 4631 Pls
2803 4631 Pls
2804 4631 Pls
2805 4630 Pls
2805 4630 Pls
2805 4630 Pls
2806 4630 Pls
2806 4630 Pls
2807 4629 Pls
2807 4629 Pls
2807 4628 Pls
2807 4628 Pls
2807 4628 Pls
2807 4628 Pls
2808 4627 Pls
2808 4626 Pls
2808 4626 Pls
2808 4626 Pls
2809 4626 Pls
2809 4626 Pls
2809 4625 Pls
2810 4625 Pls
2810 4625 Pls
2810 4625 Pls
2810 4624 Pls
2811 4624 Pls
2811 4624 Pls
2811 4623 Pls
2811 4623 Pls
2811 4623 Pls
2811 4622 Pls
2811 4622 Pls
2812 4622 Pls
2812 4622 Pls
2812 4621 Pls
2812 4621 Pls
2812 4621 Pls
2812 4621 Pls
2812 4621 Pls
2813 4620 Pls
2813 4620 Pls
2813 4620 Pls
2813 4619 Pls
2814 4619 Pls
2814 4619 Pls
2814 4619 Pls
2814 4618 Pls
2814 4618 Pls
2815 4618 Pls
2815 4618 Pls
2815 4617 Pls
2815 4617 Pls
2816 4617 Pls
2816 4617 Pls
2816 4616 Pls
2816 4616 Pls
2816 4616 Pls
2817 4615 Pls
2817 4615 Pls
2817 4615 Pls
2817 4615 Pls
2817 4614 Pls
2818 4614 Pls
2818 4614 Pls
2818 4614 Pls
2818 4613 Pls
2819 4613 Pls
2819 4612 Pls
2820 4612 Pls
2820 4612 Pls
2820 4611 Pls
2820 4611 Pls
2821 4611 Pls
2821 4610 Pls
2821 4610 Pls
2821 4610 Pls
2821 4609 Pls
2822 4609 Pls
2822 4609 Pls
2822 4608 Pls
2822 4608 Pls
2822 4608 Pls
2822 4608 Pls
2822 4607 Pls
2823 4607 Pls
2823 4607 Pls
2823 4606 Pls
2824 4606 Pls
2824 4606 Pls
2825 4605 Pls
2825 4605 Pls
2825 4605 Pls
2825 4604 Pls
2826 4604 Pls
2826 4604 Pls
2826 4603 Pls
2826 4603 Pls
2827 4603 Pls
2827 4602 Pls
2827 4602 Pls
2827 4602 Pls
2828 4602 Pls
2828 4601 Pls
2828 4601 Pls
2828 4601 Pls
2829 4601 Pls
2829 4600 Pls
2829 4600 Pls
2829 4599 Pls
2829 4599 Pls
2830 4599 Pls
2830 4599 Pls
2830 4599 Pls
2830 4598 Pls
2830 4598 Pls
2830 4598 Pls
2830 4597 Pls
2830 4597 Pls
2831 4597 Pls
2831 4597 Pls
2831 4596 Pls
2831 4596 Pls
2831 4595 Pls
2831 4595 Pls
2832 4594 Pls
2832 4594 Pls
2832 4594 Pls
2833 4593 Pls
2833 4593 Pls
2833 4593 Pls
2833 4593 Pls
2833 4592 Pls
2834 4592 Pls
2834 4592 Pls
2834 4592 Pls
2834 4591 Pls
2834 4591 Pls
2834 4591 Pls
2835 4590 Pls
2835 4590 Pls
2835 4590 Pls
2835 4589 Pls
2835 4589 Pls
2836 4589 Pls
2836 4588 Pls
2836 4588 Pls
2836 4587 Pls
2836 4587 Pls
2836 4587 Pls
2837 4586 Pls
2837 4586 Pls
2838 4585 Pls
2838 4585 Pls
2838 4585 Pls
2839 4584 Pls
2839 4584 Pls
2839 4584 Pls
2839 4583 Pls
2839 4583 Pls
2839 4583 Pls
2839 4583 Pls
2840 4582 Pls
2840 4582 Pls
2840 4581 Pls
2840 4581 Pls
2840 4580 Pls
2841 4580 Pls
2841 4580 Pls
2841 4580 Pls
2841 4579 Pls
2841 4579 Pls
2842 4579 Pls
2842 4578 Pls
2843 4578 Pls
2843 4578 Pls
2843 4577 Pls
2844 4577 Pls
2844 4577 Pls
2844 4576 Pls
2844 4576 Pls
2844 4576 Pls
2844 4575 Pls
2845 4575 Pls
2845 4575 Pls
2846 4575 Pls
2846 4574 Pls
2846 4574 Pls
2847 4573 Pls
2847 4573 Pls
2847 4573 Pls
2848 4572 Pls
2848 4572 Pls
2848 4572 Pls
2848 4571 Pls
2848 4571 Pls
2848 4571 Pls
2849 4570 Pls
2849 4570 Pls
2849 4570 Pls
2849 4569 Pls
2850 4569 Pls
2850 4569 Pls
2850 4568 Pls
2850 4568 Pls
2851 4568 Pls
2851 4568 Pls
2851 4567 Pls
2852 4567 Pls
2852 4567 Pls
2852 4567 Pls
2853 4566 Pls
2853 4566 Pls
2853 4566 Pls
2853 4565 Pls
2854 4565 Pls
2854 4565 Pls
2854 4565 Pls
2854 4564 Pls
2854 4564 Pls
2854 4564 Pls
2855 4563 Pls
2855 4563 Pls
2855 4563 Pls
2855 4563 Pls
2856 4562 Pls
2856 4562 Pls
2857 4561 Pls
2857 4561 Pls
2857 4560 Pls
2857 4560 Pls
2857 4559 Pls
2857 4559 Pls
2857 4559 Pls
2858 4558 Pls
2858 4558 Pls
2858 4558 Pls
2858 4557 Pls
2859 4557 Pls
2859 4557 Pls
2859 4557 Pls
2859 4556 Pls
2860 4556 Pls
2860 4556 Pls
2860 4556 Pls
2860 4555 Pls
2860 4555 Pls
2860 4555 Pls
2861 4554 Pls
2861 4554 Pls
2861 4554 Pls
2861 4553 Pls
2861 4553 Pls
2862 4553 Pls
2862 4552 Pls
2862 4552 Pls
2862 4552 Pls
2862 4551 Pls
2862 4551 Pls
2862 4551 Pls
2863 4550 Pls
2863 4550 Pls
2863 4550 Pls
2864 4549 Pls
2864 4549 Pls
2864 4548 Pls
2864 4548 Pls
2865 4548 Pls
2865 4548 Pls
2865 4547 Pls
2866 4547 Pls
2866 4547 Pls
2867 4546 Pls
2867 4546 Pls
2867 4545 Pls
2867 4545 Pls
2867 4545 Pls
2867 4544 Pls
2868 4544 Pls
2868 4544 Pls
2868 4543 Pls
2868 4543 Pls
2869 4543 Pls
2869 4542 Pls
2870 4542 Pls
2870 4542 Pls
2870 4542 Pls
2871 4541 Pls
2871 4541 Pls
2871 4540 Pls
2871 4540 Pls
2871 4540 Pls
2872 4540 Pls
2872 4539 Pls
2872 4539 Pls
2872 4539 Pls
2873 4539 Pls
2873 4538 Pls
2873 4538 Pls
2873 4538 Pls
2873 4538 Pls
2874 4537 Pls
2874 4537 Pls
2874 4537 Pls
2874 4536 Pls
2874 4536 Pls
2875 4536 Pls
2875 4536 Pls
2875 4535 Pls
2875 4535 Pls
2875 4535 Pls
2875 4534 Pls
2876 4534 Pls
2876 4534 Pls
2876 4533 Pls
2876 4533 Pls
2877 4533 Pls
2877 4532 Pls
2878 4532 Pls
2878 4531 Pls
2878 4531 Pls
2878 4531 Pls
2879 4530 Pls
2880 4530 Pls
2880 4530 Pls
2880 4529 Pls
2880 4529 Pls
2881 4529 Pls
2881 4528 Pls
2881 4528 Pls
2881 4527 Pls
2882 4527 Pls
2882 4527 Pls
2883 4526 Pls
2883 4525 Pls
2883 4525 Pls
2883 4525 Pls
2883 4525 Pls
2883 4524 Pls
2883 4524 Pls
2884 4524 Pls
2884 4524 Pls
2884 4523 Pls
2885 4523 Pls
2885 4523 Pls
2885 4522 Pls
2885 4522 Pls
2885 4522 Pls
2886 4522 Pls
2886 4521 Pls
2886 4521 Pls
2886 4521 Pls
2886 4520 Pls
2886 4520 Pls
2887 4520 Pls
2887 4519 Pls
2887 4519 Pls
2888 4519 Pls
2888 4518 Pls
2889 4518 Pls
2889 4518 Pls
2889 4517 Pls
2889 4517 Pls
2889 4517 Pls
2890 4517 Pls
2890 4516 Pls
2890 4516 Pls
2890 4516 Pls
2890 4515 Pls
2890 4515 Pls
2891 4515 Pls
2891 4515 Pls
2891 4514 Pls
2891 4514 Pls
2892 4514 Pls
2892 4513 Pls
2892 4513 Pls
2892 4513 Pls
2893 4512 Pls
2893 4512 Pls
2893 4512 Pls
2894 4511 Pls
2894 4511 Pls
2894 4511 Pls
2895 4510 Pls
2895 4510 Pls
2895 4509 Pls
2895 4509 Pls
2895 4509 Pls
2895 4509 Pls
2896 4508 Pls
2896 4508 Pls
2896 4508 Pls
2896 4507 Pls
2897 4507 Pls
2897 4507 Pls
2897 4507 Pls
2897 4506 Pls
2897 4506 Pls
2897 4506 Pls
2898 4505 Pls
2898 4505 Pls
2898 4505 Pls
2898 4504 Pls
2898 4504 Pls
2899 4504 Pls
2899 4503 Pls
2899 4503 Pls
2899 4503 Pls
2899 4503 Pls
2900 4502 Pls
2900 4501 Pls
2900 4501 Pls
2900 4501 Pls
2901 4501 Pls
2901 4500 Pls
2901 4500 Pls
2901 4499 Pls
2901 4499 Pls
2901 4499 Pls
2902 4498 Pls
2902 4498 Pls
2902 4497 Pls
2902 4497 Pls
2903 4496 Pls
2903 4496 Pls
2903 4496 Pls
2903 4495 Pls
2903 4495 Pls
2904 4494 Pls
2904 4494 Pls
2904 4494 Pls
2904 4493 Pls
2904 4493 Pls
2905 4493 Pls
2905 4492 Pls
2905 4492 Pls
2905 4492 Pls
2906 4491 Pls
2906 4491 Pls
2906 4491 Pls
2907 4490 Pls
2907 4490 Pls
2908 4489 Pls
2908 4489 Pls
2909 4489 Pls
2909 4488 Pls
2909 4488 Pls
2909 4488 Pls
2909 4488 Pls
2910 4487 Pls
2910 4486 Pls
2910 4485 Pls
2911 4485 Pls
2911 4485 Pls
2911 4484 Pls
2911 4484 Pls
2912 4483 Pls
2912 4482 Pls
2912 4482 Pls
2912 4482 Pls
2912 4482 Pls
2912 4481 Pls
2913 4481 Pls
2913 4481 Pls
2913 4480 Pls
2913 4480 Pls
2913 4479 Pls
2914 4479 Pls
2914 4478 Pls
2914 4478 Pls
2914 4478 Pls
2914 4478 Pls
2915 4477 Pls
2915 4477 Pls
2915 4476 Pls
2915 4476 Pls
2916 4476 Pls
2917 4475 Pls
2917 4475 Pls
2917 4474 Pls
2917 4474 Pls
2917 4473 Pls
2918 4473 Pls
2918 4472 Pls
2918 4472 Pls
2918 4471 Pls
2918 4471 Pls
2919 4471 Pls
2919 4471 Pls
2919 4470 Pls
2919 4470 Pls
2919 4469 Pls
2920 4469 Pls
2920 4468 Pls
2920 4468 Pls
2920 4468 Pls
2921 4467 Pls
2921 4467 Pls
2922 4466 Pls
2922 4466 Pls
2922 4466 Pls
2923 4465 Pls
2923 4465 Pls
2923 4464 Pls
2924 4464 Pls
2924 4464 Pls
2924 4463 Pls
2925 4463 Pls
2925 4463 Pls
2925 4462 Pls
2925 4462 Pls
2925 4461 Pls
2925 4461 Pls
2926 4461 Pls
2926 4461 Pls
2926 4460 Pls
2927 4460 Pls
2927 4459 Pls
2927 4459 Pls
2927 4459 Pls
2928 4458 Pls
2928 4458 Pls
2928 4457 Pls
2929 4457 Pls
2929 4457 Pls
2929 4456 Pls
2929 4456 Pls
2929 4455 Pls
2929 4454 Pls
2931 4454 Pls
2931 4453 Pls
2931 4452 Pls
2931 4452 Pls
2932 4452 Pls
2932 4451 Pls
2932 4451 Pls
2932 4450 Pls
2932 4450 Pls
2932 4450 Pls
2933 4449 Pls
2933 4449 Pls
2933 4449 Pls
2933 4448 Pls
2933 4448 Pls
2933 4448 Pls
2934 4447 Pls
2934 4447 Pls
2934 4447 Pls
2935 4446 Pls
2935 4446 Pls
2935 4445 Pls
2935 4445 Pls
2935 4444 Pls
2936 4444 Pls
2936 4443 Pls
2936 4443 Pls
2936 4442 Pls
2937 4442 Pls
2937 4441 Pls
2937 4441 Pls
2938 4441 Pls
2938 4440 Pls
2939 4440 Pls
2939 4440 Pls
2939 4439 Pls
2940 4439 Pls
2940 4439 Pls
2940 4438 Pls
2940 4438 Pls
2941 4437 Pls
2941 4437 Pls
2942 4437 Pls
2942 4436 Pls
2942 4436 Pls
2943 4435 Pls
2943 4435 Pls
2943 4435 Pls
2944 4434 Pls
2944 4434 Pls
2944 4433 Pls
2944 4433 Pls
2945 4433 Pls
2945 4432 Pls
2946 4432 Pls
2946 4431 Pls
2946 4431 Pls
2946 4431 Pls
2946 4430 Pls
2947 4429 Pls
2947 4429 Pls
2947 4428 Pls
2948 4428 Pls
2948 4427 Pls
2948 4427 Pls
2948 4426 Pls
2948 4426 Pls
2949 4425 Pls
2949 4425 Pls
2949 4424 Pls
2950 4424 Pls
2950 4423 Pls
2950 4423 Pls
2950 4422 Pls
2950 4422 Pls
2951 4421 Pls
2951 4421 Pls
2951 4421 Pls
2951 4420 Pls
2951 4420 Pls
2951 4420 Pls
2952 4419 Pls
2952 4419 Pls
2952 4419 Pls
2953 4418 Pls
2953 4418 Pls
2953 4418 Pls
2954 4417 Pls
2954 4417 Pls
2954 4417 Pls
2955 4416 Pls
2955 4416 Pls
2956 4415 Pls
2956 4415 Pls
2956 4415 Pls
2956 4414 Pls
2956 4413 Pls
2957 4413 Pls
2957 4412 Pls
2957 4411 Pls
2957 4411 Pls
2957 4410 Pls
2957 4410 Pls
2958 4410 Pls
2958 4409 Pls
2958 4409 Pls
2958 4409 Pls
2959 4408 Pls
2959 4408 Pls
2959 4408 Pls
2960 4407 Pls
2960 4407 Pls
2960 4406 Pls
2961 4406 Pls
2961 4405 Pls
2962 4404 Pls
2962 4404 Pls
2962 4404 Pls
2962 4403 Pls
2962 4403 Pls
2962 4402 Pls
2962 4402 Pls
2963 4402 Pls
2963 4401 Pls
2963 4400 Pls
2963 4400 Pls
2964 4400 Pls
2964 4399 Pls
2964 4399 Pls
2965 4398 Pls
2965 4398 Pls
2965 4398 Pls
2965 4397 Pls
2966 4397 Pls
2967 4397 Pls
2967 4396 Pls
2967 4396 Pls
2968 4396 Pls
2968 4395 Pls
2968 4394 Pls
2968 4394 Pls
2969 4393 Pls
2969 4393 Pls
2970 4393 Pls
2970 4392 Pls
2970 4392 Pls
2970 4391 Pls
2971 4391 Pls
2971 4390 Pls
2971 4390 Pls
2972 4389 Pls
2972 4389 Pls
2972 4389 Pls
2972 4388 Pls
2972 4388 Pls
2973 4388 Pls
2973 4387 Pls
2973 4387 Pls
2973 4387 Pls
2974 4386 Pls
2974 4385 Pls
2974 4385 Pls
2974 4384 Pls
2975 4384 Pls
2975 4384 Pls
2975 4383 Pls
2975 4383 Pls
2976 4382 Pls
2976 4382 Pls
2976 4382 Pls
2976 4381 Pls
2976 4381 Pls
2976 4380 Pls
2977 4380 Pls
2977 4379 Pls
2977 4379 Pls
2977 4378 Pls
2977 4378 Pls
2978 4378 Pls
2978 4377 Pls
2979 4377 Pls
2979 4377 Pls
2980 4376 Pls
2980 4375 Pls
2981 4375 Pls
2982 4375 Pls
2982 4374 Pls
2983 4372 Pls
2984 4372 Pls
2984 4372 Pls
2984 4371 Pls
2984 4371 Pls
2984 4371 Pls
2985 4370 Pls
2985 4370 Pls
2985 4369 Pls
2985 4369 Pls
2986 4368 Pls
2986 4368 Pls
2986 4367 Pls
2986 4367 Pls
2986 4367 Pls
2986 4366 Pls
2987 4366 Pls
2987 4365 Pls
2987 4365 Pls
2987 4364 Pls
2988 4364 Pls
2988 4364 Pls
2989 4363 Pls
2989 4363 Pls
2989 4363 Pls
2989 4362 Pls
2989 4362 Pls
2989 4361 Pls
2990 4361 Pls
2990 4360 Pls
2990 4360 Pls
2991 4359 Pls
2991 4359 Pls
2992 4358 Pls
2992 4358 Pls
2993 4357 Pls
2994 4357 Pls
2994 4357 Pls
2994 4356 Pls
2994 4356 Pls
2995 4355 Pls
2995 4355 Pls
2995 4354 Pls
2995 4354 Pls
2995 4354 Pls
2995 4353 Pls
2996 4353 Pls
2996 4352 Pls
2997 4352 Pls
2997 4352 Pls
2997 4351 Pls
2997 4350 Pls
2998 4350 Pls
2998 4349 Pls
2998 4349 Pls
2998 4348 Pls
2998 4348 Pls
2998 4348 Pls
2999 4347 Pls
2999 4347 Pls
2999 4347 Pls
2999 4346 Pls
2999 4346 Pls
2999 4345 Pls
3000 4345 Pls
3000 4345 Pls
3000 4344 Pls
3000 4344 Pls
3000 4343 Pls
3000 4343 Pls
3000 4342 Pls
3001 4341 Pls
3001 4341 Pls
3001 4341 Pls
3001 4340 Pls
3002 4340 Pls
3002 4339 Pls
3003 4339 Pls
3004 4339 Pls
3004 4338 Pls
3004 4337 Pls
3005 4337 Pls
3005 4336 Pls
3005 4335 Pls
3006 4335 Pls
3006 4334 Pls
3006 4334 Pls
3006 4334 Pls
3007 4333 Pls
3007 4333 Pls
3007 4332 Pls
3007 4332 Pls
3008 4332 Pls
3008 4331 Pls
3009 4330 Pls
3009 4330 Pls
3009 4330 Pls
3009 4329 Pls
3009 4329 Pls
3010 4328 Pls
3010 4328 Pls
3010 4328 Pls
3010 4327 Pls
3010 4327 Pls
3011 4326 Pls
3011 4326 Pls
3012 4325 Pls
3013 4325 Pls
3013 4325 Pls
3013 4324 Pls
3014 4324 Pls
3014 4323 Pls
3014 4323 Pls
3014 4323 Pls
3014 4322 Pls
3015 4321 Pls
3015 4321 Pls
3015 4320 Pls
3016 4320 Pls
3016 4319 Pls
3017 4319 Pls
3017 4318 Pls
3017 4318 Pls
3017 4317 Pls
3018 4317 Pls
3018 4316 Pls
3018 4315 Pls
3018 4315 Pls
3018 4315 Pls
3019 4314 Pls
3019 4314 Pls
3019 4313 Pls
3019 4313 Pls
3020 4312 Pls
3020 4311 Pls
3020 4310 Pls
3020 4310 Pls
3021 4309 Pls
3021 4309 Pls
3021 4309 Pls
3022 4308 Pls
3022 4308 Pls
3022 4306 Pls
3023 4306 Pls
3023 4306 Pls
3023 4305 Pls
3024 4305 Pls
3024 4304 Pls
3024 4304 Pls
3024 4303 Pls
3025 4303 Pls
3025 4303 Pls
3025 4302 Pls
3025 4301 Pls
3026 4301 Pls
3026 4300 Pls
3026 4300 Pls
3026 4299 Pls
3026 4299 Pls
3026 4298 Pls
3027 4298 Pls
3027 4297 Pls
3027 4297 Pls
3028 4297 Pls
3028 4296 Pls
3028 4296 Pls
3029 4295 Pls
3029 4295 Pls
3029 4294 Pls
3029 4294 Pls
3029 4293 Pls
3030 4293 Pls
3030 4293 Pls
3030 4292 Pls
3031 4292 Pls
3031 4291 Pls
3031 4291 Pls
3032 4290 Pls
3032 4290 Pls
3032 4289 Pls
3032 4289 Pls
3033 4289 Pls
3033 4288 Pls
3034 4288 Pls
3034 4287 Pls
3035 4287 Pls
3035 4286 Pls
3035 4286 Pls
3035 4285 Pls
3036 4284 Pls
3036 4283 Pls
3036 4283 Pls
3037 4282 Pls
3037 4281 Pls
3037 4281 Pls
3037 4280 Pls
3037 4280 Pls
3038 4280 Pls
3038 4279 Pls
3039 4279 Pls
3039 4278 Pls
3040 4278 Pls
3040 4277 Pls
3040 4277 Pls
3040 4276 Pls
3040 4276 Pls
3040 4275 Pls
3041 4275 Pls
3041 4274 Pls
3041 4274 Pls
3041 4273 Pls
3041 4273 Pls
3042 4272 Pls
3042 4271 Pls
3042 4271 Pls
3042 4270 Pls
3042 4270 Pls
3042 4269 Pls
3042 4269 Pls
3043 4268 Pls
3043 4268 Pls
3043 4267 Pls
3043 4267 Pls
3043 4266 Pls
3044 4265 Pls
3044 4264 Pls
3044 4264 Pls
3045 4263 Pls
3046 4263 Pls
3046 4262 Pls
3047 4262 Pls
3047 4261 Pls
3047 4260 Pls
3047 4260 Pls
3047 4259 Pls
3047 4258 Pls
3047 4258 Pls
3048 4257 Pls
3048 4257 Pls
3048 4256 Pls
3048 4254 Pls
3049 4254 Pls
3049 4253 Pls
3049 4253 Pls
3050 4252 Pls
3050 4252 Pls
3050 4251 Pls
3050 4250 Pls
3051 4250 Pls
3051 4249 Pls
3051 4249 Pls
3051 4248 Pls
3052 4248 Pls
3052 4247 Pls
3052 4246 Pls
3053 4245 Pls
3053 4244 Pls
3053 4244 Pls
3053 4243 Pls
3054 4242 Pls
3055 4240 Pls
3056 4239 Pls
3056 4238 Pls
3056 4238 Pls
3056 4237 Pls
3056 4237 Pls
3057 4236 Pls
3057 4236 Pls
3057 4235 Pls
3058 4235 Pls
3058 4234 Pls
3059 4234 Pls
3059 4233 Pls
3059 4233 Pls
3060 4233 Pls
3060 4232 Pls
3060 4231 Pls
3061 4231 Pls
3061 4230 Pls
3062 4229 Pls
3062 4228 Pls
3062 4227 Pls
3063 4227 Pls
3063 4226 Pls
3063 4226 Pls
3064 4225 Pls
3065 4225 Pls
3065 4224 Pls
3066 4223 Pls
3067 4223 Pls
3067 4222 Pls
3067 4221 Pls
3067 4220 Pls
3067 4220 Pls
3068 4219 Pls
3068 4219 Pls
3068 4218 Pls
3069 4218 Pls
3069 4217 Pls
3069 4216 Pls
3070 4215 Pls
3070 4215 Pls
3070 4214 Pls
3070 4214 Pls
3071 4213 Pls
3072 4213 Pls
3072 4212 Pls
3072 4212 Pls
3072 4211 Pls
3073 4211 Pls
3074 4210 Pls
3074 4210 Pls
3075 4209 Pls
3075 4209 Pls
3075 4208 Pls
3075 4207 Pls
3075 4207 Pls
3076 4206 Pls
3076 4205 Pls
3076 4205 Pls
3076 4204 Pls
3076 4204 Pls
3077 4203 Pls
3077 4202 Pls
3077 4202 Pls
3078 4200 Pls
3078 4200 Pls
3079 4199 Pls
3079 4198 Pls
3080 4197 Pls
3080 4197 Pls
3080 4196 Pls
3080 4196 Pls
3081 4195 Pls
3081 4195 Pls
3082 4194 Pls
3082 4194 Pls
3083 4193 Pls
3083 4192 Pls
3083 4191 Pls
3083 4191 Pls
3083 4190 Pls
3083 4190 Pls
3084 4189 Pls
3084 4189 Pls
3084 4188 Pls
3084 4188 Pls
3085 4187 Pls
3085 4187 Pls
3085 4186 Pls
3086 4185 Pls
3086 4185 Pls
3087 4184 Pls
3087 4184 Pls
3087 4183 Pls
3088 4183 Pls
3088 4182 Pls
3089 4181 Pls
3089 4181 Pls
3089 4180 Pls
3089 4179 Pls
3089 4179 Pls
3089 4178 Pls
3090 4178 Pls
3090 4177 Pls
3091 4177 Pls
3091 4176 Pls
3091 4176 Pls
3091 4175 Pls
3092 4174 Pls
3092 4174 Pls
3092 4173 Pls
3093 4173 Pls
3093 4172 Pls
3093 4171 Pls
3094 4170 Pls
3094 4169 Pls
3094 4169 Pls
3094 4168 Pls
3095 4168 Pls
3096 4167 Pls
3096 4167 Pls
3097 4166 Pls
3098 4165 Pls
3099 4165 Pls
3099 4164 Pls
3099 4164 Pls
3100 4163 Pls
3101 4163 Pls
3101 4162 Pls
3101 4161 Pls
3102 4161 Pls
3102 4160 Pls
3102 4160 Pls
3103 4159 Pls
3103 4158 Pls
3104 4157 Pls
3104 4157 Pls
3105 4156 Pls
3105 4156 Pls
3105 4154 Pls
3106 4154 Pls
3106 4153 Pls
3106 4152 Pls
3107 4151 Pls
3107 4151 Pls
3107 4150 Pls
3108 4150 Pls
3108 4149 Pls
3109 4149 Pls
3109 4148 Pls
3110 4147 Pls
3111 4147 Pls
3111 4146 Pls
3112 4145 Pls
3112 4144 Pls
3112 4144 Pls
3112 4143 Pls
3113 4143 Pls
3113 4142 Pls
3114 4141 Pls
3114 4140 Pls
3114 4140 Pls
3115 4139 Pls
3115 4138 Pls
3116 4138 Pls
3117 4137 Pls
3117 4137 Pls
3117 4136 Pls
3117 4135 Pls
3117 4135 Pls
3118 4134 Pls
3118 4134 Pls
3118 4133 Pls
3118 4132 Pls
3118 4132 Pls
3119 4131 Pls
3119 4131 Pls
3119 4130 Pls
3120 4129 Pls
3120 4129 Pls
3121 4128 Pls
3121 4127 Pls
3121 4127 Pls
3122 4126 Pls
3122 4126 Pls
3123 4125 Pls
3123 4124 Pls
3123 4123 Pls
3123 4123 Pls
3123 4122 Pls
3124 4121 Pls
3124 4121 Pls
3124 4120 Pls
3124 4119 Pls
3125 4119 Pls
3125 4118 Pls
3125 4118 Pls
3126 4117 Pls
3126 4116 Pls
3126 4116 Pls
3127 4115 Pls
3128 4114 Pls
3128 4114 Pls
3129 4113 Pls
3129 4112 Pls
3129 4111 Pls
3130 4111 Pls
3130 4110 Pls
3131 4109 Pls
3131 4109 Pls
3131 4108 Pls
3132 4107 Pls
3133 4107 Pls
3133 4106 Pls
3134 4105 Pls
3134 4105 Pls
3135 4104 Pls
3135 4104 Pls
3136 4103 Pls
3136 4102 Pls
3136 4102 Pls
3136 4101 Pls
3139 4100 Pls
3139 4099 Pls
3140 4098 Pls
3140 4098 Pls
3141 4097 Pls
3142 4096 Pls
3142 4095 Pls
3142 4094 Pls
3143 4094 Pls
3143 4093 Pls
3144 4092 Pls
3144 4092 Pls
3145 4089 Pls
3145 4088 Pls
3146 4088 Pls
3146 4087 Pls
3146 4086 Pls
3146 4086 Pls
3147 4085 Pls
3148 4084 Pls
3148 4084 Pls
3148 4083 Pls
3148 4082 Pls
3149 4082 Pls
3149 4081 Pls
3150 4080 Pls
3151 4080 Pls
3151 4079 Pls
3152 4078 Pls
3153 4077 Pls
3154 4076 Pls
3154 4076 Pls
3154 4074 Pls
3155 4074 Pls
3155 4072 Pls
3155 4071 Pls
3155 4069 Pls
3156 4068 Pls
3156 4067 Pls
3156 4067 Pls
3156 4066 Pls
3157 4065 Pls
3157 4064 Pls
3158 4062 Pls
3158 4062 Pls
3159 4061 Pls
3159 4060 Pls
3160 4060 Pls
3161 4059 Pls
3162 4058 Pls
3162 4057 Pls
3163 4055 Pls
3163 4055 Pls
3163 4054 Pls
3163 4053 Pls
3164 4053 Pls
3164 4050 Pls
3165 4050 Pls
3165 4049 Pls
3165 4048 Pls
3165 4048 Pls
3166 4047 Pls
3166 4046 Pls
3167 4045 Pls
3167 4045 Pls
3169 4044 Pls
3169 4043 Pls
3169 4042 Pls
3169 4041 Pls
3170 4040 Pls
3171 4040 Pls
3171 4039 Pls
3172 4038 Pls
3172 4037 Pls
3172 4037 Pls
3173 4036 Pls
3174 4035 Pls
3175 4034 Pls
3175 4034 Pls
3175 4033 Pls
3176 4032 Pls
3176 4031 Pls
3176 4031 Pls
3176 4030 Pls
3177 4029 Pls
3177 4028 Pls
3177 4028 Pls
3178 4027 Pls
3178 4026 Pls
3178 4025 Pls
3179 4025 Pls
3179 4024 Pls
3180 4023 Pls
3180 4022 Pls
3180 4021 Pls
3180 4020 Pls
3181 4019 Pls
3182 4019 Pls
3182 4018 Pls
3182 4017 Pls
3182 4016 Pls
3183 4015 Pls
3183 4015 Pls
3184 4014 Pls
3184 4013 Pls
3185 4012 Pls
3185 4012 Pls
3185 4011 Pls
3185 4010 Pls
3185 4009 Pls
3187 4008 Pls
3189 4008 Pls
3190 4007 Pls
3190 4006 Pls
3191 4005 Pls
3192 4005 Pls
3192 4004 Pls
3193 4003 Pls
3194 4001 Pls
3194 4001 Pls
3196 4000 Pls
3197 3999 Pls
3198 3998 Pls
3199 3997 Pls
3200 3996 Pls
3200 3995 Pls
3200 3994 Pls
3200 3993 Pls
3201 3993 Pls
3201 3992 Pls
3203 3991 Pls
3204 3989 Pls
3204 3989 Pls
3205 3988 Pls
3205 3987 Pls
3205 3986 Pls
3207 3985 Pls
3208 3984 Pls
3208 3984 Pls
3208 3983 Pls
3208 3982 Pls
3209 3981 Pls
3210 3980 Pls
3210 3980 Pls
3210 3979 Pls
3210 3978 Pls
3210 3977 Pls
3211 3976 Pls
3212 3975 Pls
3212 3975 Pls
3213 3974 Pls
3213 3973 Pls
3214 3972 Pls
3214 3971 Pls
3214 3970 Pls
3214 3969 Pls
3215 3969 Pls
3216 3968 Pls
3216 3966 Pls
3217 3965 Pls
3217 3964 Pls
3218 3964 Pls
3218 3963 Pls
3219 3962 Pls
3219 3961 Pls
3221 3960 Pls
3224 3959 Pls
3226 3958 Pls
3226 3958 Pls
3226 3957 Pls
3226 3956 Pls
3228 3955 Pls
3228 3954 Pls
3228 3952 Pls
3229 3951 Pls
3230 3951 Pls
3230 3950 Pls
3231 3949 Pls
3231 3946 Pls
3232 3945 Pls
3232 3944 Pls
3233 3943 Pls
3233 3943 Pls
3234 3942 Pls
3234 3941 Pls
3234 3940 Pls
3235 3939 Pls
3236 3938 Pls
3237 3937 Pls
3238 3936 Pls
3238 3935 Pls
3239 3934 Pls
3240 3933 Pls
3240 3932 Pls
3240 3931 Pls
3242 3930 Pls
3242 3929 Pls
3242 3928 Pls
3243 3927 Pls
3244 3926 Pls
3246 3925 Pls
3246 3924 Pls
3247 3924 Pls
3248 3923 Pls
3249 3922 Pls
3249 3921 Pls
3250 3920 Pls
3250 3919 Pls
3252 3918 Pls
3252 3916 Pls
3253 3915 Pls
3253 3914 Pls
3253 3912 Pls
3253 3911 Pls
3254 3908 Pls
3255 3908 Pls
3255 3907 Pls
3256 3906 Pls
3257 3905 Pls
3258 3903 Pls
3258 3902 Pls
3258 3901 Pls
3258 3900 Pls
3258 3899 Pls
3259 3898 Pls
3261 3897 Pls
3261 3896 Pls
3262 3895 Pls
3262 3894 Pls
3262 3893 Pls
3264 3892 Pls
3265 3891 Pls
3265 3890 Pls
3265 3889 Pls
3266 3888 Pls
3266 3887 Pls
3266 3886 Pls
3266 3885 Pls
3267 3884 Pls
3267 3883 Pls
3268 3882 Pls
3268 3881 Pls
3270 3880 Pls
3272 3879 Pls
3272 3878 Pls
3273 3877 Pls
3273 3875 Pls
3275 3873 Pls
3276 3872 Pls
3276 3871 Pls
3278 3870 Pls
3279 3869 Pls
3280 3868 Pls
3280 3867 Pls
3281 3866 Pls
3281 3865 Pls
3282 3864 Pls
3282 3862 Pls
3282 3861 Pls
3284 3860 Pls
3286 3859 Pls
3286 3858 Pls
3288 3857 Pls
3289 3856 Pls
3290 3855 Pls
3290 3853 Pls
3291 3852 Pls
3291 3850 Pls
3291 3849 Pls
3292 3848 Pls
3293 3847 Pls
3294 3845 Pls
3294 3844 Pls
3294 3843 Pls
3294 3842 Pls
3296 3840 Pls
3297 3839 Pls
3298 3838 Pls
3298 3837 Pls
3299 3836 Pls
3299 3834 Pls
3300 3833 Pls
3300 3832 Pls
3300 3830 Pls
3301 3829 Pls
3301 3828 Pls
3302 3827 Pls
3303 3826 Pls
3305 3823 Pls
3305 3822 Pls
3306 3821 Pls
3306 3820 Pls
3307 3819 Pls
3307 3818 Pls
3307 3816 Pls
3309 3815 Pls
3309 3814 Pls
3310 3813 Pls
3310 3812 Pls
3311 3811 Pls
3314 3809 Pls
3317 3808 Pls
3318 3807 Pls
3318 3806 Pls
3319 3805 Pls
3321 3804 Pls
3321 3802 Pls
3322 3801 Pls
3324 3800 Pls
3325 3799 Pls
3325 3798 Pls
3327 3797 Pls
3327 3795 Pls
3328 3794 Pls
3328 3793 Pls
3329 3792 Pls
3329 3791 Pls
3331 3789 Pls
3331 3788 Pls
3332 3787 Pls
3332 3786 Pls
3333 3784 Pls
3333 3783 Pls
3335 3782 Pls
3336 3781 Pls
3341 3779 Pls
3341 3778 Pls
3341 3777 Pls
3342 3775 Pls
3343 3773 Pls
3343 3772 Pls
3343 3771 Pls
3344 3769 Pls
3344 3768 Pls
3344 3767 Pls
3346 3766 Pls
3347 3764 Pls
3347 3763 Pls
3349 3762 Pls
3350 3761 Pls
3352 3759 Pls
3352 3758 Pls
3353 3757 Pls
3355 3755 Pls
3356 3754 Pls
3357 3753 Pls
3358 3752 Pls
3358 3749 Pls
3361 3748 Pls
3362 3746 Pls
3362 3745 Pls
3362 3744 Pls
3363 3742 Pls
3363 3741 Pls
3364 3740 Pls
3365 3738 Pls
3365 3737 Pls
3366 3736 Pls
3366 3734 Pls
3367 3733 Pls
3370 3731 Pls
3371 3730 Pls
3371 3729 Pls
3373 3727 Pls
3374 3726 Pls
3375 3725 Pls
3375 3723 Pls
3376 3722 Pls
3377 3719 Pls
3378 3718 Pls
3379 3716 Pls
3380 3715 Pls
3381 3713 Pls
3382 3712 Pls
3384 3711 Pls
3385 3709 Pls
3385 3708 Pls
3385 3706 Pls
3386 3705 Pls
3391 3702 Pls
3391 3701 Pls
3392 3699 Pls
3392 3698 Pls
3393 3696 Pls
3394 3695 Pls
3395 3693 Pls
3397 3692 Pls
3398 3690 Pls
3399 3689 Pls
3401 3687 Pls
3406 3686 Pls
3406 3684 Pls
3407 3683 Pls
3409 3681 Pls
3409 3680 Pls
3409 3678 Pls
3410 3677 Pls
3411 3675 Pls
3411 3674 Pls
3413 3672 Pls
3414 3671 Pls
3414 3668 Pls
3416 3666 Pls
3419 3665 Pls
3421 3663 Pls
3421 3661 Pls
3422 3660 Pls
3424 3658 Pls
3425 3657 Pls
3426 3655 Pls
3426 3654 Pls
3428 3652 Pls
3428 3650 Pls
3428 3649 Pls
3429 3647 Pls
3433 3645 Pls
3436 3644 Pls
3436 3642 Pls
3436 3641 Pls
3437 3637 Pls
3441 3636 Pls
3442 3634 Pls
3443 3632 Pls
3443 3631 Pls
3443 3629 Pls
3444 3627 Pls
3446 3624 Pls
3446 3622 Pls
3449 3621 Pls
3453 3619 Pls
3454 3617 Pls
3455 3615 Pls
3458 3614 Pls
3458 3612 Pls
3459 3610 Pls
3461 3609 Pls
3461 3607 Pls
3462 3605 Pls
3466 3603 Pls
3469 3602 Pls
3469 3600 Pls
3469 3598 Pls
3470 3596 Pls
3471 3594 Pls
3471 3593 Pls
3471 3591 Pls
3472 3589 Pls
3472 3587 Pls
3476 3585 Pls
3478 3584 Pls
3479 3582 Pls
3483 3580 Pls
3484 3578 Pls
3485 3576 Pls
3485 3574 Pls
3489 3572 Pls
3491 3571 Pls
3492 3569 Pls
3494 3565 Pls
3496 3563 Pls
3498 3561 Pls
3500 3559 Pls
3502 3557 Pls
3504 3555 Pls
3505 3553 Pls
3506 3551 Pls
3509 3549 Pls
3511 3547 Pls
3511 3545 Pls
3511 3543 Pls
3511 3541 Pls
3511 3539 Pls
3514 3537 Pls
3515 3535 Pls
3515 3533 Pls
3519 3531 Pls
3520 3529 Pls
3522 3527 Pls
3523 3525 Pls
3523 3523 Pls
3525 3521 Pls
3534 3517 Pls
3535 3515 Pls
3539 3513 Pls
3540 3511 Pls
3542 3509 Pls
3543 3506 Pls
3544 3504 Pls
3545 3502 Pls
3546 3500 Pls
3547 3498 Pls
3547 3496 Pls
3549 3493 Pls
3550 3491 Pls
3551 3489 Pls
3551 3487 Pls
3555 3485 Pls
3556 3482 Pls
3557 3480 Pls
3557 3478 Pls
3557 3475 Pls
3561 3473 Pls
3563 3471 Pls
3564 3469 Pls
3565 3466 Pls
3569 3464 Pls
3569 3462 Pls
3576 3457 Pls
3578 3455 Pls
3580 3452 Pls
3580 3450 Pls
3586 3447 Pls
3587 3445 Pls
3592 3443 Pls
3593 3440 Pls
3593 3438 Pls
3594 3435 Pls
3594 3433 Pls
3597 3430 Pls
3599 3428 Pls
3601 3425 Pls
3601 3423 Pls
3602 3420 Pls
3602 3418 Pls
3603 3415 Pls
3605 3413 Pls
3606 3410 Pls
3608 3407 Pls
3608 3405 Pls
3610 3402 Pls
3615 3399 Pls
3617 3397 Pls
3617 3394 Pls
3619 3391 Pls
3620 3389 Pls
3622 3386 Pls
3625 3383 Pls
3628 3381 Pls
3630 3378 Pls
3630 3375 Pls
3633 3372 Pls
3633 3369 Pls
3634 3367 Pls
3635 3364 Pls
3637 3361 Pls
3637 3358 Pls
3639 3355 Pls
3643 3352 Pls
3645 3349 Pls
3645 3346 Pls
3651 3343 Pls
3652 3340 Pls
3656 3337 Pls
3659 3334 Pls
3659 3331 Pls
3660 3328 Pls
3660 3325 Pls
3669 3322 Pls
3669 3319 Pls
3670 3316 Pls
3680 3313 Pls
3681 3310 Pls
3683 3306 Pls
3686 3303 Pls
3688 3300 Pls
3689 3297 Pls
3693 3293 Pls
3699 3290 Pls
3704 3287 Pls
3708 3284 Pls
3710 3280 Pls
3714 3277 Pls
3717 3273 Pls
3718 3270 Pls
3719 3267 Pls
3721 3263 Pls
3722 3260 Pls
3726 3256 Pls
3726 3252 Pls
3727 3249 Pls
3727 3245 Pls
3727 3242 Pls
3728 3238 Pls
3730 3234 Pls
3731 3231 Pls
3732 3227 Pls
3740 3223 Pls
3743 3219 Pls
3750 3216 Pls
3755 3212 Pls
3762 3208 Pls
3763 3204 Pls
3765 3200 Pls
3766 3196 Pls
3766 3192 Pls
3770 3188 Pls
3771 3184 Pls
3774 3180 Pls
3777 3176 Pls
3777 3171 Pls
3778 3167 Pls
3779 3163 Pls
3780 3159 Pls
3781 3154 Pls
3788 3150 Pls
3796 3146 Pls
3799 3137 Pls
3803 3132 Pls
3804 3128 Pls
3806 3123 Pls
3809 3118 Pls
3829 3114 Pls
3831 3109 Pls
3835 3104 Pls
3842 3099 Pls
3843 3095 Pls
3847 3090 Pls
3850 3085 Pls
3858 3080 Pls
3864 3075 Pls
3881 3070 Pls
3887 3064 Pls
3898 3059 Pls
3900 3054 Pls
3906 3049 Pls
3915 3043 Pls
3919 3038 Pls
3920 3032 Pls
3923 3027 Pls
3923 3021 Pls
3933 3015 Pls
3945 3010 Pls
3945 3004 Pls
3946 2998 Pls
3963 2992 Pls
3978 2986 Pls
3987 2980 Pls
3987 2974 Pls
4003 2967 Pls
4013 2961 Pls
4016 2954 Pls
4036 2948 Pls
4040 2941 Pls
4047 2935 Pls
4070 2928 Pls
4070 2921 Pls
4071 2914 Pls
4072 2907 Pls
4076 2900 Pls
4080 2893 Pls
4100 2885 Pls
4110 2878 Pls
4115 2870 Pls
4116 2862 Pls
4128 2854 Pls
4128 2846 Pls
4129 2838 Pls
4139 2830 Pls
4144 2822 Pls
4151 2813 Pls
4162 2805 Pls
4166 2796 Pls
4176 2787 Pls
4188 2778 Pls
4190 2768 Pls
4210 2759 Pls
4240 2749 Pls
4242 2739 Pls
4290 2729 Pls
4297 2719 Pls
4302 2708 Pls
4327 2698 Pls
4328 2687 Pls
4330 2676 Pls
4355 2664 Pls
4357 2652 Pls
4362 2640 Pls
4376 2628 Pls
4386 2615 Pls
4407 2602 Pls
4419 2589 Pls
4443 2576 Pls
4467 2561 Pls
4476 2547 Pls
4478 2532 Pls
4498 2517 Pls
4517 2501 Pls
4529 2485 Pls
4542 2468 Pls
4550 2450 Pls
4554 2432 Pls
4556 2413 Pls
4560 2394 Pls
4569 2373 Pls
4586 2352 Pls
4588 2330 Pls
4619 2307 Pls
4711 2283 Pls
4724 2257 Pls
4752 2230 Pls
4791 2202 Pls
4820 2171 Pls
4884 2139 Pls
4901 2105 Pls
4911 2068 Pls
5165 2028 Pls
5194 1985 Pls
5369 1937 Pls
5438 1884 Pls
5480 1826 Pls
5625 1759 Pls
5709 1682 Pls
5880 1591 Pls
6358 1480 Pls
6551 1337 Pls
6779 1135 Pls
6783 789 Pls
% End plot #1
2.000 UL
LTb
LCb setrgbcolor
1.000 UL
LTB
LCb setrgbcolor
798 4871 N
798 280 L
6149 0 V
0 4591 V
-6149 0 V
Z stroke
1.000 UP
1.000 UL
LTb
LCb setrgbcolor
stroke
grestore
end
showpage
%%Trailer
%%DocumentFonts: Helvetica
%%Pages: 1
