%!PS-Adobe-2.0
%%Title: packets-s-ccdf-linlin.eps
%%Creator: gnuplot 5.0 patchlevel 3
%%CreationDate: Mon May 29 11:05:49 2017
%%DocumentFonts: (atend)
%%BoundingBox: 50 50 554 770
%%Orientation: Landscape
%%Pages: (atend)
%%EndComments
%%BeginProlog
/gnudict 256 dict def
gnudict begin
%
% The following true/false flags may be edited by hand if desired.
% The unit line width and grayscale image gamma correction may also be changed.
%
/Color true def
/Blacktext false def
/Solid false def
/Dashlength 1 def
/Landscape true def
/Level1 false def
/Level3 false def
/Rounded false def
/ClipToBoundingBox false def
/SuppressPDFMark false def
/TransparentPatterns false def
/gnulinewidth 5.000 def
/userlinewidth gnulinewidth def
/Gamma 1.0 def
/BackgroundColor {-1.000 -1.000 -1.000} def
%
/vshift -46 def
/dl1 {
  10.0 Dashlength userlinewidth gnulinewidth div mul mul mul
  Rounded { currentlinewidth 0.75 mul sub dup 0 le { pop 0.01 } if } if
} def
/dl2 {
  10.0 Dashlength userlinewidth gnulinewidth div mul mul mul
  Rounded { currentlinewidth 0.75 mul add } if
} def
/hpt_ 31.5 def
/vpt_ 31.5 def
/hpt hpt_ def
/vpt vpt_ def
/doclip {
  ClipToBoundingBox {
    newpath 50 50 moveto 554 50 lineto 554 770 lineto 50 770 lineto closepath
    clip
  } if
} def
%
% Gnuplot Prolog Version 5.1 (Oct 2015)
%
%/SuppressPDFMark true def
%
/M {moveto} bind def
/L {lineto} bind def
/R {rmoveto} bind def
/V {rlineto} bind def
/N {newpath moveto} bind def
/Z {closepath} bind def
/C {setrgbcolor} bind def
/f {rlineto fill} bind def
/g {setgray} bind def
/Gshow {show} def   % May be redefined later in the file to support UTF-8
/vpt2 vpt 2 mul def
/hpt2 hpt 2 mul def
/Lshow {currentpoint stroke M 0 vshift R 
	Blacktext {gsave 0 setgray textshow grestore} {textshow} ifelse} def
/Rshow {currentpoint stroke M dup stringwidth pop neg vshift R
	Blacktext {gsave 0 setgray textshow grestore} {textshow} ifelse} def
/Cshow {currentpoint stroke M dup stringwidth pop -2 div vshift R 
	Blacktext {gsave 0 setgray textshow grestore} {textshow} ifelse} def
/UP {dup vpt_ mul /vpt exch def hpt_ mul /hpt exch def
  /hpt2 hpt 2 mul def /vpt2 vpt 2 mul def} def
/DL {Color {setrgbcolor Solid {pop []} if 0 setdash}
 {pop pop pop 0 setgray Solid {pop []} if 0 setdash} ifelse} def
/BL {stroke userlinewidth 2 mul setlinewidth
	Rounded {1 setlinejoin 1 setlinecap} if} def
/AL {stroke userlinewidth 2 div setlinewidth
	Rounded {1 setlinejoin 1 setlinecap} if} def
/UL {dup gnulinewidth mul /userlinewidth exch def
	dup 1 lt {pop 1} if 10 mul /udl exch def} def
/PL {stroke userlinewidth setlinewidth
	Rounded {1 setlinejoin 1 setlinecap} if} def
3.8 setmiterlimit
% Classic Line colors (version 5.0)
/LCw {1 1 1} def
/LCb {0 0 0} def
/LCa {0 0 0} def
/LC0 {1 0 0} def
/LC1 {0 1 0} def
/LC2 {0 0 1} def
/LC3 {1 0 1} def
/LC4 {0 1 1} def
/LC5 {1 1 0} def
/LC6 {0 0 0} def
/LC7 {1 0.3 0} def
/LC8 {0.5 0.5 0.5} def
% Default dash patterns (version 5.0)
/LTB {BL [] LCb DL} def
/LTw {PL [] 1 setgray} def
/LTb {PL [] LCb DL} def
/LTa {AL [1 udl mul 2 udl mul] 0 setdash LCa setrgbcolor} def
/LT0 {PL [] LC0 DL} def
/LT1 {PL [2 dl1 3 dl2] LC1 DL} def
/LT2 {PL [1 dl1 1.5 dl2] LC2 DL} def
/LT3 {PL [6 dl1 2 dl2 1 dl1 2 dl2] LC3 DL} def
/LT4 {PL [1 dl1 2 dl2 6 dl1 2 dl2 1 dl1 2 dl2] LC4 DL} def
/LT5 {PL [4 dl1 2 dl2] LC5 DL} def
/LT6 {PL [1.5 dl1 1.5 dl2 1.5 dl1 1.5 dl2 1.5 dl1 6 dl2] LC6 DL} def
/LT7 {PL [3 dl1 3 dl2 1 dl1 3 dl2] LC7 DL} def
/LT8 {PL [2 dl1 2 dl2 2 dl1 6 dl2] LC8 DL} def
/SL {[] 0 setdash} def
/Pnt {stroke [] 0 setdash gsave 1 setlinecap M 0 0 V stroke grestore} def
/Dia {stroke [] 0 setdash 2 copy vpt add M
  hpt neg vpt neg V hpt vpt neg V
  hpt vpt V hpt neg vpt V closepath stroke
  Pnt} def
/Pls {stroke [] 0 setdash vpt sub M 0 vpt2 V
  currentpoint stroke M
  hpt neg vpt neg R hpt2 0 V stroke
 } def
/Box {stroke [] 0 setdash 2 copy exch hpt sub exch vpt add M
  0 vpt2 neg V hpt2 0 V 0 vpt2 V
  hpt2 neg 0 V closepath stroke
  Pnt} def
/Crs {stroke [] 0 setdash exch hpt sub exch vpt add M
  hpt2 vpt2 neg V currentpoint stroke M
  hpt2 neg 0 R hpt2 vpt2 V stroke} def
/TriU {stroke [] 0 setdash 2 copy vpt 1.12 mul add M
  hpt neg vpt -1.62 mul V
  hpt 2 mul 0 V
  hpt neg vpt 1.62 mul V closepath stroke
  Pnt} def
/Star {2 copy Pls Crs} def
/BoxF {stroke [] 0 setdash exch hpt sub exch vpt add M
  0 vpt2 neg V hpt2 0 V 0 vpt2 V
  hpt2 neg 0 V closepath fill} def
/TriUF {stroke [] 0 setdash vpt 1.12 mul add M
  hpt neg vpt -1.62 mul V
  hpt 2 mul 0 V
  hpt neg vpt 1.62 mul V closepath fill} def
/TriD {stroke [] 0 setdash 2 copy vpt 1.12 mul sub M
  hpt neg vpt 1.62 mul V
  hpt 2 mul 0 V
  hpt neg vpt -1.62 mul V closepath stroke
  Pnt} def
/TriDF {stroke [] 0 setdash vpt 1.12 mul sub M
  hpt neg vpt 1.62 mul V
  hpt 2 mul 0 V
  hpt neg vpt -1.62 mul V closepath fill} def
/DiaF {stroke [] 0 setdash vpt add M
  hpt neg vpt neg V hpt vpt neg V
  hpt vpt V hpt neg vpt V closepath fill} def
/Pent {stroke [] 0 setdash 2 copy gsave
  translate 0 hpt M 4 {72 rotate 0 hpt L} repeat
  closepath stroke grestore Pnt} def
/PentF {stroke [] 0 setdash gsave
  translate 0 hpt M 4 {72 rotate 0 hpt L} repeat
  closepath fill grestore} def
/Circle {stroke [] 0 setdash 2 copy
  hpt 0 360 arc stroke Pnt} def
/CircleF {stroke [] 0 setdash hpt 0 360 arc fill} def
/C0 {BL [] 0 setdash 2 copy moveto vpt 90 450 arc} bind def
/C1 {BL [] 0 setdash 2 copy moveto
	2 copy vpt 0 90 arc closepath fill
	vpt 0 360 arc closepath} bind def
/C2 {BL [] 0 setdash 2 copy moveto
	2 copy vpt 90 180 arc closepath fill
	vpt 0 360 arc closepath} bind def
/C3 {BL [] 0 setdash 2 copy moveto
	2 copy vpt 0 180 arc closepath fill
	vpt 0 360 arc closepath} bind def
/C4 {BL [] 0 setdash 2 copy moveto
	2 copy vpt 180 270 arc closepath fill
	vpt 0 360 arc closepath} bind def
/C5 {BL [] 0 setdash 2 copy moveto
	2 copy vpt 0 90 arc
	2 copy moveto
	2 copy vpt 180 270 arc closepath fill
	vpt 0 360 arc} bind def
/C6 {BL [] 0 setdash 2 copy moveto
	2 copy vpt 90 270 arc closepath fill
	vpt 0 360 arc closepath} bind def
/C7 {BL [] 0 setdash 2 copy moveto
	2 copy vpt 0 270 arc closepath fill
	vpt 0 360 arc closepath} bind def
/C8 {BL [] 0 setdash 2 copy moveto
	2 copy vpt 270 360 arc closepath fill
	vpt 0 360 arc closepath} bind def
/C9 {BL [] 0 setdash 2 copy moveto
	2 copy vpt 270 450 arc closepath fill
	vpt 0 360 arc closepath} bind def
/C10 {BL [] 0 setdash 2 copy 2 copy moveto vpt 270 360 arc closepath fill
	2 copy moveto
	2 copy vpt 90 180 arc closepath fill
	vpt 0 360 arc closepath} bind def
/C11 {BL [] 0 setdash 2 copy moveto
	2 copy vpt 0 180 arc closepath fill
	2 copy moveto
	2 copy vpt 270 360 arc closepath fill
	vpt 0 360 arc closepath} bind def
/C12 {BL [] 0 setdash 2 copy moveto
	2 copy vpt 180 360 arc closepath fill
	vpt 0 360 arc closepath} bind def
/C13 {BL [] 0 setdash 2 copy moveto
	2 copy vpt 0 90 arc closepath fill
	2 copy moveto
	2 copy vpt 180 360 arc closepath fill
	vpt 0 360 arc closepath} bind def
/C14 {BL [] 0 setdash 2 copy moveto
	2 copy vpt 90 360 arc closepath fill
	vpt 0 360 arc} bind def
/C15 {BL [] 0 setdash 2 copy vpt 0 360 arc closepath fill
	vpt 0 360 arc closepath} bind def
/Rec {newpath 4 2 roll moveto 1 index 0 rlineto 0 exch rlineto
	neg 0 rlineto closepath} bind def
/Square {dup Rec} bind def
/Bsquare {vpt sub exch vpt sub exch vpt2 Square} bind def
/S0 {BL [] 0 setdash 2 copy moveto 0 vpt rlineto BL Bsquare} bind def
/S1 {BL [] 0 setdash 2 copy vpt Square fill Bsquare} bind def
/S2 {BL [] 0 setdash 2 copy exch vpt sub exch vpt Square fill Bsquare} bind def
/S3 {BL [] 0 setdash 2 copy exch vpt sub exch vpt2 vpt Rec fill Bsquare} bind def
/S4 {BL [] 0 setdash 2 copy exch vpt sub exch vpt sub vpt Square fill Bsquare} bind def
/S5 {BL [] 0 setdash 2 copy 2 copy vpt Square fill
	exch vpt sub exch vpt sub vpt Square fill Bsquare} bind def
/S6 {BL [] 0 setdash 2 copy exch vpt sub exch vpt sub vpt vpt2 Rec fill Bsquare} bind def
/S7 {BL [] 0 setdash 2 copy exch vpt sub exch vpt sub vpt vpt2 Rec fill
	2 copy vpt Square fill Bsquare} bind def
/S8 {BL [] 0 setdash 2 copy vpt sub vpt Square fill Bsquare} bind def
/S9 {BL [] 0 setdash 2 copy vpt sub vpt vpt2 Rec fill Bsquare} bind def
/S10 {BL [] 0 setdash 2 copy vpt sub vpt Square fill 2 copy exch vpt sub exch vpt Square fill
	Bsquare} bind def
/S11 {BL [] 0 setdash 2 copy vpt sub vpt Square fill 2 copy exch vpt sub exch vpt2 vpt Rec fill
	Bsquare} bind def
/S12 {BL [] 0 setdash 2 copy exch vpt sub exch vpt sub vpt2 vpt Rec fill Bsquare} bind def
/S13 {BL [] 0 setdash 2 copy exch vpt sub exch vpt sub vpt2 vpt Rec fill
	2 copy vpt Square fill Bsquare} bind def
/S14 {BL [] 0 setdash 2 copy exch vpt sub exch vpt sub vpt2 vpt Rec fill
	2 copy exch vpt sub exch vpt Square fill Bsquare} bind def
/S15 {BL [] 0 setdash 2 copy Bsquare fill Bsquare} bind def
/D0 {gsave translate 45 rotate 0 0 S0 stroke grestore} bind def
/D1 {gsave translate 45 rotate 0 0 S1 stroke grestore} bind def
/D2 {gsave translate 45 rotate 0 0 S2 stroke grestore} bind def
/D3 {gsave translate 45 rotate 0 0 S3 stroke grestore} bind def
/D4 {gsave translate 45 rotate 0 0 S4 stroke grestore} bind def
/D5 {gsave translate 45 rotate 0 0 S5 stroke grestore} bind def
/D6 {gsave translate 45 rotate 0 0 S6 stroke grestore} bind def
/D7 {gsave translate 45 rotate 0 0 S7 stroke grestore} bind def
/D8 {gsave translate 45 rotate 0 0 S8 stroke grestore} bind def
/D9 {gsave translate 45 rotate 0 0 S9 stroke grestore} bind def
/D10 {gsave translate 45 rotate 0 0 S10 stroke grestore} bind def
/D11 {gsave translate 45 rotate 0 0 S11 stroke grestore} bind def
/D12 {gsave translate 45 rotate 0 0 S12 stroke grestore} bind def
/D13 {gsave translate 45 rotate 0 0 S13 stroke grestore} bind def
/D14 {gsave translate 45 rotate 0 0 S14 stroke grestore} bind def
/D15 {gsave translate 45 rotate 0 0 S15 stroke grestore} bind def
/DiaE {stroke [] 0 setdash vpt add M
  hpt neg vpt neg V hpt vpt neg V
  hpt vpt V hpt neg vpt V closepath stroke} def
/BoxE {stroke [] 0 setdash exch hpt sub exch vpt add M
  0 vpt2 neg V hpt2 0 V 0 vpt2 V
  hpt2 neg 0 V closepath stroke} def
/TriUE {stroke [] 0 setdash vpt 1.12 mul add M
  hpt neg vpt -1.62 mul V
  hpt 2 mul 0 V
  hpt neg vpt 1.62 mul V closepath stroke} def
/TriDE {stroke [] 0 setdash vpt 1.12 mul sub M
  hpt neg vpt 1.62 mul V
  hpt 2 mul 0 V
  hpt neg vpt -1.62 mul V closepath stroke} def
/PentE {stroke [] 0 setdash gsave
  translate 0 hpt M 4 {72 rotate 0 hpt L} repeat
  closepath stroke grestore} def
/CircE {stroke [] 0 setdash 
  hpt 0 360 arc stroke} def
/Opaque {gsave closepath 1 setgray fill grestore 0 setgray closepath} def
/DiaW {stroke [] 0 setdash vpt add M
  hpt neg vpt neg V hpt vpt neg V
  hpt vpt V hpt neg vpt V Opaque stroke} def
/BoxW {stroke [] 0 setdash exch hpt sub exch vpt add M
  0 vpt2 neg V hpt2 0 V 0 vpt2 V
  hpt2 neg 0 V Opaque stroke} def
/TriUW {stroke [] 0 setdash vpt 1.12 mul add M
  hpt neg vpt -1.62 mul V
  hpt 2 mul 0 V
  hpt neg vpt 1.62 mul V Opaque stroke} def
/TriDW {stroke [] 0 setdash vpt 1.12 mul sub M
  hpt neg vpt 1.62 mul V
  hpt 2 mul 0 V
  hpt neg vpt -1.62 mul V Opaque stroke} def
/PentW {stroke [] 0 setdash gsave
  translate 0 hpt M 4 {72 rotate 0 hpt L} repeat
  Opaque stroke grestore} def
/CircW {stroke [] 0 setdash 
  hpt 0 360 arc Opaque stroke} def
/BoxFill {gsave Rec 1 setgray fill grestore} def
/Density {
  /Fillden exch def
  currentrgbcolor
  /ColB exch def /ColG exch def /ColR exch def
  /ColR ColR Fillden mul Fillden sub 1 add def
  /ColG ColG Fillden mul Fillden sub 1 add def
  /ColB ColB Fillden mul Fillden sub 1 add def
  ColR ColG ColB setrgbcolor} def
/BoxColFill {gsave Rec PolyFill} def
/PolyFill {gsave Density fill grestore grestore} def
/h {rlineto rlineto rlineto gsave closepath fill grestore} bind def
%
% PostScript Level 1 Pattern Fill routine for rectangles
% Usage: x y w h s a XX PatternFill
%	x,y = lower left corner of box to be filled
%	w,h = width and height of box
%	  a = angle in degrees between lines and x-axis
%	 XX = 0/1 for no/yes cross-hatch
%
/PatternFill {gsave /PFa [ 9 2 roll ] def
  PFa 0 get PFa 2 get 2 div add PFa 1 get PFa 3 get 2 div add translate
  PFa 2 get -2 div PFa 3 get -2 div PFa 2 get PFa 3 get Rec
  TransparentPatterns {} {gsave 1 setgray fill grestore} ifelse
  clip
  currentlinewidth 0.5 mul setlinewidth
  /PFs PFa 2 get dup mul PFa 3 get dup mul add sqrt def
  0 0 M PFa 5 get rotate PFs -2 div dup translate
  0 1 PFs PFa 4 get div 1 add floor cvi
	{PFa 4 get mul 0 M 0 PFs V} for
  0 PFa 6 get ne {
	0 1 PFs PFa 4 get div 1 add floor cvi
	{PFa 4 get mul 0 2 1 roll M PFs 0 V} for
 } if
  stroke grestore} def
%
/languagelevel where
 {pop languagelevel} {1} ifelse
dup 2 lt
	{/InterpretLevel1 true def
	 /InterpretLevel3 false def}
	{/InterpretLevel1 Level1 def
	 2 gt
	    {/InterpretLevel3 Level3 def}
	    {/InterpretLevel3 false def}
	 ifelse }
 ifelse
%
% PostScript level 2 pattern fill definitions
%
/Level2PatternFill {
/Tile8x8 {/PaintType 2 /PatternType 1 /TilingType 1 /BBox [0 0 8 8] /XStep 8 /YStep 8}
	bind def
/KeepColor {currentrgbcolor [/Pattern /DeviceRGB] setcolorspace} bind def
<< Tile8x8
 /PaintProc {0.5 setlinewidth pop 0 0 M 8 8 L 0 8 M 8 0 L stroke} 
>> matrix makepattern
/Pat1 exch def
<< Tile8x8
 /PaintProc {0.5 setlinewidth pop 0 0 M 8 8 L 0 8 M 8 0 L stroke
	0 4 M 4 8 L 8 4 L 4 0 L 0 4 L stroke}
>> matrix makepattern
/Pat2 exch def
<< Tile8x8
 /PaintProc {0.5 setlinewidth pop 0 0 M 0 8 L
	8 8 L 8 0 L 0 0 L fill}
>> matrix makepattern
/Pat3 exch def
<< Tile8x8
 /PaintProc {0.5 setlinewidth pop -4 8 M 8 -4 L
	0 12 M 12 0 L stroke}
>> matrix makepattern
/Pat4 exch def
<< Tile8x8
 /PaintProc {0.5 setlinewidth pop -4 0 M 8 12 L
	0 -4 M 12 8 L stroke}
>> matrix makepattern
/Pat5 exch def
<< Tile8x8
 /PaintProc {0.5 setlinewidth pop -2 8 M 4 -4 L
	0 12 M 8 -4 L 4 12 M 10 0 L stroke}
>> matrix makepattern
/Pat6 exch def
<< Tile8x8
 /PaintProc {0.5 setlinewidth pop -2 0 M 4 12 L
	0 -4 M 8 12 L 4 -4 M 10 8 L stroke}
>> matrix makepattern
/Pat7 exch def
<< Tile8x8
 /PaintProc {0.5 setlinewidth pop 8 -2 M -4 4 L
	12 0 M -4 8 L 12 4 M 0 10 L stroke}
>> matrix makepattern
/Pat8 exch def
<< Tile8x8
 /PaintProc {0.5 setlinewidth pop 0 -2 M 12 4 L
	-4 0 M 12 8 L -4 4 M 8 10 L stroke}
>> matrix makepattern
/Pat9 exch def
/Pattern1 {PatternBgnd KeepColor Pat1 setpattern} bind def
/Pattern2 {PatternBgnd KeepColor Pat2 setpattern} bind def
/Pattern3 {PatternBgnd KeepColor Pat3 setpattern} bind def
/Pattern4 {PatternBgnd KeepColor Landscape {Pat5} {Pat4} ifelse setpattern} bind def
/Pattern5 {PatternBgnd KeepColor Landscape {Pat4} {Pat5} ifelse setpattern} bind def
/Pattern6 {PatternBgnd KeepColor Landscape {Pat9} {Pat6} ifelse setpattern} bind def
/Pattern7 {PatternBgnd KeepColor Landscape {Pat8} {Pat7} ifelse setpattern} bind def
} def
%
%
%End of PostScript Level 2 code
%
/PatternBgnd {
  TransparentPatterns {} {gsave 1 setgray fill grestore} ifelse
} def
%
% Substitute for Level 2 pattern fill codes with
% grayscale if Level 2 support is not selected.
%
/Level1PatternFill {
/Pattern1 {0.250 Density} bind def
/Pattern2 {0.500 Density} bind def
/Pattern3 {0.750 Density} bind def
/Pattern4 {0.125 Density} bind def
/Pattern5 {0.375 Density} bind def
/Pattern6 {0.625 Density} bind def
/Pattern7 {0.875 Density} bind def
} def
%
% Now test for support of Level 2 code
%
Level1 {Level1PatternFill} {Level2PatternFill} ifelse
%
/Symbol-Oblique /Symbol findfont [1 0 .167 1 0 0] makefont
dup length dict begin {1 index /FID eq {pop pop} {def} ifelse} forall
currentdict end definefont pop
%
/MFshow {
   { dup 5 get 3 ge
     { 5 get 3 eq {gsave} {grestore} ifelse }
     {dup dup 0 get findfont exch 1 get scalefont setfont
     [ currentpoint ] exch dup 2 get 0 exch R dup 5 get 2 ne {dup dup 6
     get exch 4 get {textshow} {stringwidth pop 0 R} ifelse }if dup 5 get 0 eq
     {dup 3 get {2 get neg 0 exch R pop} {pop aload pop M} ifelse} {dup 5
     get 1 eq {dup 2 get exch dup 3 get exch 6 get stringwidth pop -2 div
     dup 0 R} {dup 6 get stringwidth pop -2 div 0 R 6 get
     textshow 2 index {aload pop M neg 3 -1 roll neg R pop pop} {pop pop pop
     pop aload pop M} ifelse }ifelse }ifelse }
     ifelse }
   forall} def
/Gswidth {dup type /stringtype eq {stringwidth} {pop (n) stringwidth} ifelse} def
/MFwidth {0 exch { dup 5 get 3 ge { 5 get 3 eq { 0 } { pop } ifelse }
 {dup 3 get{dup dup 0 get findfont exch 1 get scalefont setfont
     6 get Gswidth pop add} {pop} ifelse} ifelse} forall} def
/MLshow { currentpoint stroke M
  0 exch R
  Blacktext {gsave 0 setgray MFshow grestore} {MFshow} ifelse } bind def
/MRshow { currentpoint stroke M
  exch dup MFwidth neg 3 -1 roll R
  Blacktext {gsave 0 setgray MFshow grestore} {MFshow} ifelse } bind def
/MCshow { currentpoint stroke M
  exch dup MFwidth -2 div 3 -1 roll R
  Blacktext {gsave 0 setgray MFshow grestore} {MFshow} ifelse } bind def
/XYsave    { [( ) 1 2 true false 3 ()] } bind def
/XYrestore { [( ) 1 2 true false 4 ()] } bind def
Level1 SuppressPDFMark or 
{} {
/SDict 10 dict def
systemdict /pdfmark known not {
  userdict /pdfmark systemdict /cleartomark get put
} if
SDict begin [
  /Title (packets-s-ccdf-linlin.eps)
  /Subject (gnuplot plot)
  /Creator (gnuplot 5.0 patchlevel 3)
  /Author (tiphaine)
%  /Producer (gnuplot)
%  /Keywords ()
  /CreationDate (Mon May 29 11:05:49 2017)
  /DOCINFO pdfmark
end
} ifelse
%
% Support for boxed text - Ethan A Merritt May 2005
%
/InitTextBox { userdict /TBy2 3 -1 roll put userdict /TBx2 3 -1 roll put
           userdict /TBy1 3 -1 roll put userdict /TBx1 3 -1 roll put
	   /Boxing true def } def
/ExtendTextBox { Boxing
    { gsave dup false charpath pathbbox
      dup TBy2 gt {userdict /TBy2 3 -1 roll put} {pop} ifelse
      dup TBx2 gt {userdict /TBx2 3 -1 roll put} {pop} ifelse
      dup TBy1 lt {userdict /TBy1 3 -1 roll put} {pop} ifelse
      dup TBx1 lt {userdict /TBx1 3 -1 roll put} {pop} ifelse
      grestore } if } def
/PopTextBox { newpath TBx1 TBxmargin sub TBy1 TBymargin sub M
               TBx1 TBxmargin sub TBy2 TBymargin add L
	       TBx2 TBxmargin add TBy2 TBymargin add L
	       TBx2 TBxmargin add TBy1 TBymargin sub L closepath } def
/DrawTextBox { PopTextBox stroke /Boxing false def} def
/FillTextBox { gsave PopTextBox 1 1 1 setrgbcolor fill grestore /Boxing false def} def
0 0 0 0 InitTextBox
/TBxmargin 20 def
/TBymargin 20 def
/Boxing false def
/textshow { ExtendTextBox Gshow } def
%
% redundant definitions for compatibility with prologue.ps older than 5.0.2
/LTB {BL [] LCb DL} def
/LTb {PL [] LCb DL} def
end
%%EndProlog
%%Page: 1 1
gnudict begin
gsave
doclip
50 50 translate
0.100 0.100 scale
90 rotate
0 -5040 translate
0 setgray
newpath
(Helvetica) findfont 140 scalefont setfont
BackgroundColor 0 lt 3 1 roll 0 lt exch 0 lt or or not {gsave BackgroundColor C clippath fill grestore} if
1.000 UL
LTb
LCb setrgbcolor
546 280 M
63 0 V
6338 0 R
-63 0 V
stroke
462 280 M
[ [(Helvetica) 140.0 0.0 true true 0 ( 0)]
] -46.7 MRshow
1.000 UL
LTb
LCb setrgbcolor
546 739 M
63 0 V
6338 0 R
-63 0 V
stroke
462 739 M
[ [(Helvetica) 140.0 0.0 true true 0 ( 0.1)]
] -46.7 MRshow
1.000 UL
LTb
LCb setrgbcolor
546 1198 M
63 0 V
6338 0 R
-63 0 V
stroke
462 1198 M
[ [(Helvetica) 140.0 0.0 true true 0 ( 0.2)]
] -46.7 MRshow
1.000 UL
LTb
LCb setrgbcolor
546 1657 M
63 0 V
6338 0 R
-63 0 V
stroke
462 1657 M
[ [(Helvetica) 140.0 0.0 true true 0 ( 0.3)]
] -46.7 MRshow
1.000 UL
LTb
LCb setrgbcolor
546 2116 M
63 0 V
6338 0 R
-63 0 V
stroke
462 2116 M
[ [(Helvetica) 140.0 0.0 true true 0 ( 0.4)]
] -46.7 MRshow
1.000 UL
LTb
LCb setrgbcolor
546 2576 M
63 0 V
6338 0 R
-63 0 V
stroke
462 2576 M
[ [(Helvetica) 140.0 0.0 true true 0 ( 0.5)]
] -46.7 MRshow
1.000 UL
LTb
LCb setrgbcolor
546 3035 M
63 0 V
6338 0 R
-63 0 V
stroke
462 3035 M
[ [(Helvetica) 140.0 0.0 true true 0 ( 0.6)]
] -46.7 MRshow
1.000 UL
LTb
LCb setrgbcolor
546 3494 M
63 0 V
6338 0 R
-63 0 V
stroke
462 3494 M
[ [(Helvetica) 140.0 0.0 true true 0 ( 0.7)]
] -46.7 MRshow
1.000 UL
LTb
LCb setrgbcolor
546 3953 M
63 0 V
6338 0 R
-63 0 V
stroke
462 3953 M
[ [(Helvetica) 140.0 0.0 true true 0 ( 0.8)]
] -46.7 MRshow
1.000 UL
LTb
LCb setrgbcolor
546 4412 M
63 0 V
6338 0 R
-63 0 V
stroke
462 4412 M
[ [(Helvetica) 140.0 0.0 true true 0 ( 0.9)]
] -46.7 MRshow
1.000 UL
LTb
LCb setrgbcolor
546 4871 M
63 0 V
6338 0 R
-63 0 V
stroke
462 4871 M
[ [(Helvetica) 140.0 0.0 true true 0 ( 1)]
] -46.7 MRshow
1.000 UL
LTb
LCb setrgbcolor
546 280 M
0 63 V
0 4528 R
0 -63 V
stroke
546 140 M
[ [(Helvetica) 140.0 0.0 true true 0 ( 0)]
] -46.7 MCshow
1.000 UL
LTb
LCb setrgbcolor
1460 280 M
0 63 V
0 4528 R
0 -63 V
stroke
1460 140 M
[ [(Helvetica) 140.0 0.0 true true 0 ( 10000)]
] -46.7 MCshow
1.000 UL
LTb
LCb setrgbcolor
2375 280 M
0 63 V
0 4528 R
0 -63 V
stroke
2375 140 M
[ [(Helvetica) 140.0 0.0 true true 0 ( 20000)]
] -46.7 MCshow
1.000 UL
LTb
LCb setrgbcolor
3289 280 M
0 63 V
0 4528 R
0 -63 V
stroke
3289 140 M
[ [(Helvetica) 140.0 0.0 true true 0 ( 30000)]
] -46.7 MCshow
1.000 UL
LTb
LCb setrgbcolor
4204 280 M
0 63 V
0 4528 R
0 -63 V
stroke
4204 140 M
[ [(Helvetica) 140.0 0.0 true true 0 ( 40000)]
] -46.7 MCshow
1.000 UL
LTb
LCb setrgbcolor
5118 280 M
0 63 V
0 4528 R
0 -63 V
stroke
5118 140 M
[ [(Helvetica) 140.0 0.0 true true 0 ( 50000)]
] -46.7 MCshow
1.000 UL
LTb
LCb setrgbcolor
6033 280 M
0 63 V
0 4528 R
0 -63 V
stroke
6033 140 M
[ [(Helvetica) 140.0 0.0 true true 0 ( 60000)]
] -46.7 MCshow
1.000 UL
LTb
LCb setrgbcolor
6947 280 M
0 63 V
0 4528 R
0 -63 V
stroke
6947 140 M
[ [(Helvetica) 140.0 0.0 true true 0 ( 70000)]
] -46.7 MCshow
1.000 UL
LTb
LCb setrgbcolor
1.000 UL
LTB
LCb setrgbcolor
546 4871 N
546 280 L
6401 0 V
0 4591 V
-6401 0 V
Z stroke
1.000 UP
1.000 UL
LTb
LCb setrgbcolor
% Begin plot #1
1.000 UP
1.000 UL
LTb
0.58 0.00 0.83 C 1205 4871 Pls
1948 4870 Pls
1986 4868 Pls
2012 4867 Pls
2083 4866 Pls
2109 4865 Pls
2110 4863 Pls
2123 4862 Pls
2129 4861 Pls
2133 4860 Pls
2139 4858 Pls
2152 4857 Pls
2154 4856 Pls
2156 4854 Pls
2158 4853 Pls
2160 4852 Pls
2164 4851 Pls
2165 4849 Pls
2168 4848 Pls
2170 4847 Pls
2171 4845 Pls
2174 4844 Pls
2175 4843 Pls
2175 4842 Pls
2175 4840 Pls
2181 4839 Pls
2181 4838 Pls
2187 4837 Pls
2188 4835 Pls
2195 4834 Pls
2198 4833 Pls
2198 4831 Pls
2199 4830 Pls
2200 4829 Pls
2200 4828 Pls
2201 4826 Pls
2202 4825 Pls
2204 4824 Pls
2204 4823 Pls
2206 4821 Pls
2211 4820 Pls
2212 4817 Pls
2213 4816 Pls
2214 4815 Pls
2214 4814 Pls
2214 4812 Pls
2215 4811 Pls
2217 4810 Pls
2217 4809 Pls
2217 4807 Pls
2218 4806 Pls
2221 4805 Pls
2221 4803 Pls
2222 4802 Pls
2222 4801 Pls
2225 4800 Pls
2225 4798 Pls
2227 4797 Pls
2228 4796 Pls
2229 4793 Pls
2229 4792 Pls
2230 4791 Pls
2231 4789 Pls
2232 4788 Pls
2233 4787 Pls
2233 4786 Pls
2236 4784 Pls
2237 4782 Pls
2238 4780 Pls
2238 4779 Pls
2238 4778 Pls
2240 4777 Pls
2241 4775 Pls
2241 4774 Pls
2242 4773 Pls
2243 4772 Pls
2244 4770 Pls
2244 4769 Pls
2245 4768 Pls
2245 4766 Pls
2246 4765 Pls
2247 4764 Pls
2248 4763 Pls
2248 4761 Pls
2249 4760 Pls
2250 4758 Pls
2251 4756 Pls
2252 4755 Pls
2253 4754 Pls
2253 4752 Pls
2254 4751 Pls
2256 4750 Pls
2258 4749 Pls
2260 4747 Pls
2260 4746 Pls
2262 4745 Pls
2263 4743 Pls
2264 4742 Pls
2265 4741 Pls
2266 4740 Pls
2267 4738 Pls
2267 4737 Pls
2270 4736 Pls
2271 4735 Pls
2271 4733 Pls
2272 4732 Pls
2273 4731 Pls
2274 4729 Pls
2275 4728 Pls
2277 4727 Pls
2277 4726 Pls
2278 4724 Pls
2279 4723 Pls
2279 4722 Pls
2281 4721 Pls
2281 4719 Pls
2284 4718 Pls
2285 4717 Pls
2287 4715 Pls
2287 4714 Pls
2289 4713 Pls
2289 4712 Pls
2290 4710 Pls
2290 4709 Pls
2290 4708 Pls
2291 4706 Pls
2294 4705 Pls
2295 4704 Pls
2295 4703 Pls
2296 4701 Pls
2297 4700 Pls
2298 4699 Pls
2298 4698 Pls
2298 4696 Pls
2298 4695 Pls
2298 4694 Pls
2299 4692 Pls
2299 4691 Pls
2300 4690 Pls
2300 4687 Pls
2301 4686 Pls
2301 4685 Pls
2303 4682 Pls
2304 4681 Pls
2305 4680 Pls
2305 4678 Pls
2305 4677 Pls
2306 4676 Pls
2307 4675 Pls
2307 4673 Pls
2308 4672 Pls
2308 4670 Pls
2308 4668 Pls
2309 4667 Pls
2309 4666 Pls
2310 4664 Pls
2310 4663 Pls
2310 4662 Pls
2311 4661 Pls
2311 4659 Pls
2311 4658 Pls
2312 4657 Pls
2313 4655 Pls
2313 4654 Pls
2315 4653 Pls
2315 4652 Pls
2316 4650 Pls
2317 4649 Pls
2319 4648 Pls
2320 4645 Pls
2321 4644 Pls
2321 4643 Pls
2322 4641 Pls
2322 4640 Pls
2323 4639 Pls
2324 4638 Pls
2324 4636 Pls
2325 4635 Pls
2326 4634 Pls
2327 4633 Pls
2328 4631 Pls
2330 4630 Pls
2331 4629 Pls
2332 4627 Pls
2332 4626 Pls
2333 4625 Pls
2333 4624 Pls
2334 4622 Pls
2334 4621 Pls
2334 4620 Pls
2335 4618 Pls
2335 4617 Pls
2335 4615 Pls
2336 4613 Pls
2337 4612 Pls
2337 4611 Pls
2337 4610 Pls
2338 4608 Pls
2338 4607 Pls
2339 4606 Pls
2339 4604 Pls
2340 4603 Pls
2341 4602 Pls
2341 4601 Pls
2341 4598 Pls
2342 4597 Pls
2342 4596 Pls
2342 4594 Pls
2344 4592 Pls
2344 4590 Pls
2344 4589 Pls
2344 4588 Pls
2345 4587 Pls
2345 4585 Pls
2345 4584 Pls
2346 4583 Pls
2346 4582 Pls
2346 4580 Pls
2347 4579 Pls
2347 4578 Pls
2347 4575 Pls
2347 4574 Pls
2348 4573 Pls
2348 4571 Pls
2349 4570 Pls
2350 4569 Pls
2350 4567 Pls
2351 4566 Pls
2351 4565 Pls
2351 4564 Pls
2352 4562 Pls
2353 4561 Pls
2353 4560 Pls
2353 4559 Pls
2353 4557 Pls
2355 4556 Pls
2355 4555 Pls
2355 4552 Pls
2356 4551 Pls
2356 4550 Pls
2357 4548 Pls
2357 4547 Pls
2358 4545 Pls
2358 4543 Pls
2358 4542 Pls
2358 4541 Pls
2360 4539 Pls
2361 4538 Pls
2361 4536 Pls
2361 4534 Pls
2362 4533 Pls
2362 4532 Pls
2363 4530 Pls
2363 4529 Pls
2363 4527 Pls
2363 4525 Pls
2364 4524 Pls
2364 4523 Pls
2365 4522 Pls
2365 4520 Pls
2365 4519 Pls
2366 4516 Pls
2367 4515 Pls
2367 4514 Pls
2367 4513 Pls
2367 4511 Pls
2368 4510 Pls
2369 4508 Pls
2369 4506 Pls
2369 4505 Pls
2369 4504 Pls
2370 4502 Pls
2370 4501 Pls
2370 4500 Pls
2371 4497 Pls
2371 4495 Pls
2372 4494 Pls
2372 4492 Pls
2372 4491 Pls
2374 4490 Pls
2374 4487 Pls
2374 4486 Pls
2375 4485 Pls
2375 4483 Pls
2376 4482 Pls
2376 4481 Pls
2377 4479 Pls
2377 4478 Pls
2377 4477 Pls
2378 4474 Pls
2378 4473 Pls
2379 4472 Pls
2379 4471 Pls
2379 4468 Pls
2379 4467 Pls
2379 4465 Pls
2379 4464 Pls
2380 4463 Pls
2380 4462 Pls
2381 4459 Pls
2381 4458 Pls
2381 4457 Pls
2382 4455 Pls
2382 4454 Pls
2382 4453 Pls
2382 4451 Pls
2382 4450 Pls
2383 4449 Pls
2383 4448 Pls
2384 4446 Pls
2385 4444 Pls
2385 4443 Pls
2385 4441 Pls
2386 4440 Pls
2387 4439 Pls
2387 4437 Pls
2388 4436 Pls
2389 4435 Pls
2389 4434 Pls
2389 4432 Pls
2389 4431 Pls
2390 4430 Pls
2390 4427 Pls
2391 4426 Pls
2392 4425 Pls
2393 4423 Pls
2393 4422 Pls
2393 4421 Pls
2393 4420 Pls
2393 4417 Pls
2393 4416 Pls
2394 4413 Pls
2394 4412 Pls
2395 4411 Pls
2395 4409 Pls
2396 4408 Pls
2397 4407 Pls
2397 4406 Pls
2397 4404 Pls
2398 4403 Pls
2398 4402 Pls
2398 4400 Pls
2399 4397 Pls
2399 4395 Pls
2399 4394 Pls
2399 4393 Pls
2399 4391 Pls
2400 4390 Pls
2401 4389 Pls
2401 4388 Pls
2402 4386 Pls
2402 4385 Pls
2403 4384 Pls
2403 4383 Pls
2403 4381 Pls
2404 4380 Pls
2404 4379 Pls
2404 4377 Pls
2405 4375 Pls
2405 4374 Pls
2406 4371 Pls
2406 4370 Pls
2406 4369 Pls
2407 4367 Pls
2407 4366 Pls
2407 4365 Pls
2407 4363 Pls
2408 4362 Pls
2408 4361 Pls
2408 4360 Pls
2409 4358 Pls
2409 4357 Pls
2410 4356 Pls
2410 4353 Pls
2410 4352 Pls
2410 4351 Pls
2410 4349 Pls
2410 4348 Pls
2411 4347 Pls
2411 4344 Pls
2411 4343 Pls
2411 4342 Pls
2412 4340 Pls
2412 4339 Pls
2413 4338 Pls
2413 4337 Pls
2413 4335 Pls
2415 4334 Pls
2417 4333 Pls
2417 4332 Pls
2418 4330 Pls
2418 4329 Pls
2419 4328 Pls
2419 4326 Pls
2419 4325 Pls
2420 4324 Pls
2420 4323 Pls
2421 4321 Pls
2421 4320 Pls
2422 4319 Pls
2422 4318 Pls
2422 4316 Pls
2422 4314 Pls
2422 4312 Pls
2423 4311 Pls
2423 4310 Pls
2423 4309 Pls
2423 4306 Pls
2423 4305 Pls
2424 4304 Pls
2424 4302 Pls
2424 4301 Pls
2425 4298 Pls
2425 4296 Pls
2425 4295 Pls
2425 4293 Pls
2426 4292 Pls
2426 4291 Pls
2426 4289 Pls
2427 4288 Pls
2428 4287 Pls
2428 4286 Pls
2428 4284 Pls
2428 4283 Pls
2428 4282 Pls
2429 4281 Pls
2430 4279 Pls
2430 4277 Pls
2430 4275 Pls
2431 4274 Pls
2431 4273 Pls
2432 4270 Pls
2432 4269 Pls
2433 4268 Pls
2433 4267 Pls
2433 4264 Pls
2434 4263 Pls
2434 4261 Pls
2434 4260 Pls
2435 4259 Pls
2435 4258 Pls
2435 4256 Pls
2436 4254 Pls
2436 4250 Pls
2436 4249 Pls
2437 4247 Pls
2437 4246 Pls
2438 4244 Pls
2438 4242 Pls
2439 4240 Pls
2439 4238 Pls
2439 4237 Pls
2440 4236 Pls
2440 4235 Pls
2440 4232 Pls
2441 4231 Pls
2442 4230 Pls
2443 4228 Pls
2443 4227 Pls
2443 4226 Pls
2444 4223 Pls
2444 4222 Pls
2445 4221 Pls
2445 4219 Pls
2446 4217 Pls
2446 4216 Pls
2446 4214 Pls
2447 4213 Pls
2447 4212 Pls
2447 4210 Pls
2448 4209 Pls
2448 4208 Pls
2449 4207 Pls
2449 4205 Pls
2449 4204 Pls
2450 4200 Pls
2450 4199 Pls
2450 4198 Pls
2450 4196 Pls
2450 4195 Pls
2450 4194 Pls
2451 4193 Pls
2451 4190 Pls
2451 4189 Pls
2451 4187 Pls
2452 4185 Pls
2452 4184 Pls
2452 4182 Pls
2453 4181 Pls
2453 4180 Pls
2453 4179 Pls
2454 4177 Pls
2454 4176 Pls
2454 4173 Pls
2455 4172 Pls
2455 4171 Pls
2455 4168 Pls
2456 4167 Pls
2456 4164 Pls
2456 4163 Pls
2456 4162 Pls
2456 4159 Pls
2457 4158 Pls
2457 4156 Pls
2457 4154 Pls
2457 4153 Pls
2458 4150 Pls
2458 4149 Pls
2458 4148 Pls
2458 4145 Pls
2459 4144 Pls
2459 4143 Pls
2459 4140 Pls
2460 4139 Pls
2461 4138 Pls
2461 4136 Pls
2461 4135 Pls
2461 4134 Pls
2462 4133 Pls
2462 4131 Pls
2463 4130 Pls
2463 4129 Pls
2464 4128 Pls
2464 4126 Pls
2464 4125 Pls
2465 4124 Pls
2465 4122 Pls
2465 4121 Pls
2466 4120 Pls
2466 4117 Pls
2466 4115 Pls
2466 4113 Pls
2466 4112 Pls
2467 4111 Pls
2467 4110 Pls
2468 4108 Pls
2468 4106 Pls
2468 4105 Pls
2468 4102 Pls
2468 4101 Pls
2469 4099 Pls
2469 4098 Pls
2469 4097 Pls
2469 4096 Pls
2470 4093 Pls
2470 4092 Pls
2470 4091 Pls
2470 4089 Pls
2470 4088 Pls
2471 4085 Pls
2473 4084 Pls
2473 4083 Pls
2473 4082 Pls
2473 4079 Pls
2474 4078 Pls
2474 4076 Pls
2474 4075 Pls
2474 4074 Pls
2474 4073 Pls
2475 4071 Pls
2475 4070 Pls
2475 4069 Pls
2475 4068 Pls
2476 4066 Pls
2476 4065 Pls
2476 4064 Pls
2476 4062 Pls
2477 4061 Pls
2477 4060 Pls
2477 4057 Pls
2478 4056 Pls
2478 4055 Pls
2478 4054 Pls
2479 4052 Pls
2479 4051 Pls
2479 4050 Pls
2479 4048 Pls
2479 4047 Pls
2480 4046 Pls
2480 4045 Pls
2480 4042 Pls
2480 4041 Pls
2481 4040 Pls
2481 4038 Pls
2482 4037 Pls
2483 4036 Pls
2483 4034 Pls
2484 4033 Pls
2484 4032 Pls
2484 4031 Pls
2484 4029 Pls
2485 4028 Pls
2485 4027 Pls
2485 4025 Pls
2486 4024 Pls
2486 4022 Pls
2486 4020 Pls
2487 4019 Pls
2487 4018 Pls
2488 4017 Pls
2488 4015 Pls
2488 4014 Pls
2488 4013 Pls
2489 4011 Pls
2489 4010 Pls
2490 4009 Pls
2490 4008 Pls
2490 4006 Pls
2490 4005 Pls
2491 4004 Pls
2491 4001 Pls
2491 4000 Pls
2492 3997 Pls
2492 3996 Pls
2492 3995 Pls
2493 3994 Pls
2494 3992 Pls
2495 3991 Pls
2495 3990 Pls
2495 3989 Pls
2496 3987 Pls
2496 3986 Pls
2496 3985 Pls
2496 3982 Pls
2496 3980 Pls
2496 3978 Pls
2497 3977 Pls
2497 3976 Pls
2498 3974 Pls
2499 3973 Pls
2499 3971 Pls
2499 3969 Pls
2500 3967 Pls
2500 3966 Pls
2500 3964 Pls
2500 3963 Pls
2500 3959 Pls
2501 3958 Pls
2501 3957 Pls
2501 3955 Pls
2501 3954 Pls
2502 3953 Pls
2502 3952 Pls
2502 3950 Pls
2502 3949 Pls
2502 3948 Pls
2502 3945 Pls
2503 3944 Pls
2503 3943 Pls
2504 3940 Pls
2504 3939 Pls
2504 3937 Pls
2504 3936 Pls
2505 3932 Pls
2505 3931 Pls
2505 3929 Pls
2506 3927 Pls
2506 3926 Pls
2506 3925 Pls
2506 3923 Pls
2507 3922 Pls
2507 3921 Pls
2507 3920 Pls
2507 3918 Pls
2508 3916 Pls
2508 3915 Pls
2508 3913 Pls
2509 3911 Pls
2509 3909 Pls
2509 3907 Pls
2509 3906 Pls
2509 3904 Pls
2510 3902 Pls
2510 3901 Pls
2510 3898 Pls
2510 3895 Pls
2511 3893 Pls
2511 3892 Pls
2511 3890 Pls
2511 3889 Pls
2512 3886 Pls
2512 3885 Pls
2512 3884 Pls
2513 3883 Pls
2513 3881 Pls
2514 3880 Pls
2514 3879 Pls
2514 3876 Pls
2514 3875 Pls
2515 3874 Pls
2515 3872 Pls
2516 3871 Pls
2516 3870 Pls
2517 3869 Pls
2517 3867 Pls
2517 3866 Pls
2518 3865 Pls
2518 3864 Pls
2518 3862 Pls
2519 3861 Pls
2519 3860 Pls
2519 3858 Pls
2520 3857 Pls
2520 3856 Pls
2520 3855 Pls
2520 3852 Pls
2521 3851 Pls
2521 3850 Pls
2522 3848 Pls
2522 3847 Pls
2522 3846 Pls
2522 3843 Pls
2522 3842 Pls
2522 3839 Pls
2523 3838 Pls
2523 3835 Pls
2523 3834 Pls
2523 3833 Pls
2524 3830 Pls
2524 3829 Pls
2525 3827 Pls
2525 3825 Pls
2525 3824 Pls
2526 3820 Pls
2526 3819 Pls
2526 3818 Pls
2526 3816 Pls
2526 3815 Pls
2527 3814 Pls
2527 3813 Pls
2527 3809 Pls
2527 3807 Pls
2528 3806 Pls
2528 3805 Pls
2528 3804 Pls
2528 3802 Pls
2528 3801 Pls
2529 3800 Pls
2529 3798 Pls
2529 3797 Pls
2529 3795 Pls
2530 3793 Pls
2530 3792 Pls
2530 3791 Pls
2531 3790 Pls
2531 3788 Pls
2531 3787 Pls
2531 3784 Pls
2531 3783 Pls
2531 3782 Pls
2532 3781 Pls
2532 3779 Pls
2532 3778 Pls
2532 3777 Pls
2533 3776 Pls
2533 3774 Pls
2533 3773 Pls
2534 3772 Pls
2534 3770 Pls
2535 3769 Pls
2535 3768 Pls
2535 3765 Pls
2535 3764 Pls
2535 3763 Pls
2536 3762 Pls
2536 3760 Pls
2536 3759 Pls
2536 3758 Pls
2537 3756 Pls
2537 3755 Pls
2537 3754 Pls
2537 3753 Pls
2537 3751 Pls
2538 3749 Pls
2538 3747 Pls
2538 3746 Pls
2538 3745 Pls
2539 3744 Pls
2539 3742 Pls
2539 3741 Pls
2539 3740 Pls
2540 3739 Pls
2540 3737 Pls
2540 3735 Pls
2540 3733 Pls
2541 3732 Pls
2541 3731 Pls
2541 3730 Pls
2542 3727 Pls
2542 3726 Pls
2542 3725 Pls
2542 3723 Pls
2543 3722 Pls
2543 3721 Pls
2543 3719 Pls
2543 3718 Pls
2543 3717 Pls
2544 3714 Pls
2544 3713 Pls
2544 3712 Pls
2544 3710 Pls
2544 3709 Pls
2545 3708 Pls
2545 3707 Pls
2545 3705 Pls
2545 3704 Pls
2545 3702 Pls
2546 3699 Pls
2546 3698 Pls
2546 3696 Pls
2546 3695 Pls
2547 3694 Pls
2547 3690 Pls
2548 3689 Pls
2548 3688 Pls
2548 3686 Pls
2549 3684 Pls
2549 3682 Pls
2549 3681 Pls
2549 3679 Pls
2549 3676 Pls
2549 3674 Pls
2549 3672 Pls
2550 3671 Pls
2550 3670 Pls
2550 3668 Pls
2551 3667 Pls
2551 3666 Pls
2551 3665 Pls
2551 3663 Pls
2552 3662 Pls
2552 3661 Pls
2552 3659 Pls
2553 3657 Pls
2553 3656 Pls
2553 3654 Pls
2553 3653 Pls
2553 3652 Pls
2554 3651 Pls
2554 3647 Pls
2554 3645 Pls
2554 3644 Pls
2554 3643 Pls
2554 3642 Pls
2555 3640 Pls
2555 3637 Pls
2555 3635 Pls
2555 3634 Pls
2555 3631 Pls
2555 3630 Pls
2556 3629 Pls
2556 3628 Pls
2556 3626 Pls
2556 3625 Pls
2556 3624 Pls
2557 3623 Pls
2557 3619 Pls
2557 3617 Pls
2557 3616 Pls
2557 3615 Pls
2558 3614 Pls
2558 3612 Pls
2559 3611 Pls
2559 3610 Pls
2559 3608 Pls
2559 3606 Pls
2559 3605 Pls
2560 3603 Pls
2560 3602 Pls
2560 3601 Pls
2560 3600 Pls
2561 3598 Pls
2561 3597 Pls
2561 3593 Pls
2561 3592 Pls
2562 3589 Pls
2562 3588 Pls
2562 3587 Pls
2562 3584 Pls
2562 3582 Pls
2562 3580 Pls
2563 3579 Pls
2563 3578 Pls
2563 3577 Pls
2563 3575 Pls
2564 3574 Pls
2564 3573 Pls
2564 3571 Pls
2565 3570 Pls
2565 3569 Pls
2565 3568 Pls
2565 3566 Pls
2565 3565 Pls
2566 3563 Pls
2566 3561 Pls
2566 3560 Pls
2566 3559 Pls
2566 3556 Pls
2567 3555 Pls
2567 3554 Pls
2568 3552 Pls
2568 3551 Pls
2568 3549 Pls
2569 3547 Pls
2570 3546 Pls
2570 3545 Pls
2570 3542 Pls
2570 3541 Pls
2571 3540 Pls
2571 3538 Pls
2571 3536 Pls
2572 3535 Pls
2572 3533 Pls
2572 3532 Pls
2573 3531 Pls
2573 3529 Pls
2573 3528 Pls
2574 3527 Pls
2574 3526 Pls
2574 3524 Pls
2574 3523 Pls
2574 3520 Pls
2575 3519 Pls
2575 3518 Pls
2575 3517 Pls
2575 3515 Pls
2575 3514 Pls
2575 3513 Pls
2576 3512 Pls
2576 3510 Pls
2576 3509 Pls
2577 3508 Pls
2577 3506 Pls
2577 3505 Pls
2577 3503 Pls
2577 3501 Pls
2578 3500 Pls
2578 3499 Pls
2578 3498 Pls
2578 3496 Pls
2579 3495 Pls
2579 3494 Pls
2579 3492 Pls
2579 3491 Pls
2580 3490 Pls
2580 3487 Pls
2581 3485 Pls
2581 3483 Pls
2581 3482 Pls
2582 3480 Pls
2582 3477 Pls
2583 3476 Pls
2583 3473 Pls
2583 3472 Pls
2584 3471 Pls
2584 3469 Pls
2584 3468 Pls
2584 3467 Pls
2584 3466 Pls
2585 3462 Pls
2585 3461 Pls
2585 3459 Pls
2585 3458 Pls
2585 3457 Pls
2585 3455 Pls
2585 3454 Pls
2586 3453 Pls
2586 3452 Pls
2587 3449 Pls
2587 3447 Pls
2588 3444 Pls
2588 3441 Pls
2588 3438 Pls
2588 3436 Pls
2589 3435 Pls
2589 3432 Pls
2589 3430 Pls
2589 3429 Pls
2589 3427 Pls
2589 3426 Pls
2589 3425 Pls
2590 3424 Pls
2590 3422 Pls
2590 3420 Pls
2591 3418 Pls
2591 3417 Pls
2591 3416 Pls
2592 3412 Pls
2592 3410 Pls
2592 3408 Pls
2592 3407 Pls
2593 3406 Pls
2593 3404 Pls
2593 3403 Pls
2593 3402 Pls
2593 3401 Pls
2593 3399 Pls
2593 3398 Pls
2593 3397 Pls
2594 3396 Pls
2594 3394 Pls
2594 3393 Pls
2594 3392 Pls
2595 3390 Pls
2595 3388 Pls
2595 3387 Pls
2595 3385 Pls
2595 3384 Pls
2595 3383 Pls
2595 3380 Pls
2596 3379 Pls
2596 3378 Pls
2596 3376 Pls
2596 3375 Pls
2596 3373 Pls
2596 3370 Pls
2597 3367 Pls
2597 3366 Pls
2597 3364 Pls
2597 3362 Pls
2597 3361 Pls
2597 3360 Pls
2597 3359 Pls
2598 3357 Pls
2598 3356 Pls
2598 3355 Pls
2598 3353 Pls
2599 3352 Pls
2599 3351 Pls
2599 3350 Pls
2599 3348 Pls
2600 3347 Pls
2600 3346 Pls
2600 3343 Pls
2600 3341 Pls
2601 3339 Pls
2601 3338 Pls
2601 3337 Pls
2602 3336 Pls
2602 3334 Pls
2602 3333 Pls
2603 3330 Pls
2603 3329 Pls
2603 3328 Pls
2604 3327 Pls
2604 3325 Pls
2604 3323 Pls
2604 3322 Pls
2604 3320 Pls
2605 3319 Pls
2605 3318 Pls
2605 3314 Pls
2605 3313 Pls
2606 3311 Pls
2606 3309 Pls
2606 3308 Pls
2606 3305 Pls
2606 3304 Pls
2607 3302 Pls
2607 3301 Pls
2607 3300 Pls
2608 3299 Pls
2608 3297 Pls
2608 3296 Pls
2608 3295 Pls
2608 3292 Pls
2609 3291 Pls
2609 3290 Pls
2609 3288 Pls
2609 3286 Pls
2610 3285 Pls
2610 3283 Pls
2610 3282 Pls
2610 3281 Pls
2611 3279 Pls
2611 3278 Pls
2612 3277 Pls
2612 3276 Pls
2612 3274 Pls
2612 3273 Pls
2613 3271 Pls
2613 3269 Pls
2613 3268 Pls
2613 3267 Pls
2614 3265 Pls
2614 3264 Pls
2614 3263 Pls
2614 3262 Pls
2614 3260 Pls
2614 3259 Pls
2614 3258 Pls
2614 3255 Pls
2615 3253 Pls
2615 3249 Pls
2615 3246 Pls
2615 3245 Pls
2615 3242 Pls
2616 3241 Pls
2616 3239 Pls
2616 3237 Pls
2617 3236 Pls
2617 3235 Pls
2617 3234 Pls
2617 3228 Pls
2617 3227 Pls
2617 3226 Pls
2618 3223 Pls
2618 3222 Pls
2618 3221 Pls
2618 3220 Pls
2618 3218 Pls
2619 3216 Pls
2619 3214 Pls
2619 3213 Pls
2619 3212 Pls
2619 3209 Pls
2619 3208 Pls
2620 3207 Pls
2620 3203 Pls
2620 3202 Pls
2621 3197 Pls
2621 3195 Pls
2621 3194 Pls
2621 3193 Pls
2622 3191 Pls
2622 3190 Pls
2622 3189 Pls
2622 3188 Pls
2622 3186 Pls
2622 3185 Pls
2623 3184 Pls
2623 3183 Pls
2623 3181 Pls
2623 3179 Pls
2623 3177 Pls
2623 3175 Pls
2624 3174 Pls
2624 3172 Pls
2624 3171 Pls
2624 3170 Pls
2626 3169 Pls
2626 3166 Pls
2626 3165 Pls
2627 3163 Pls
2627 3162 Pls
2627 3160 Pls
2628 3157 Pls
2628 3153 Pls
2628 3152 Pls
2628 3151 Pls
2628 3149 Pls
2628 3148 Pls
2629 3147 Pls
2629 3146 Pls
2629 3142 Pls
2630 3140 Pls
2630 3139 Pls
2630 3138 Pls
2631 3137 Pls
2631 3135 Pls
2632 3134 Pls
2632 3133 Pls
2632 3132 Pls
2633 3130 Pls
2633 3129 Pls
2633 3128 Pls
2633 3126 Pls
2633 3125 Pls
2633 3123 Pls
2633 3121 Pls
2634 3119 Pls
2634 3116 Pls
2635 3115 Pls
2635 3114 Pls
2636 3112 Pls
2636 3111 Pls
2636 3110 Pls
2636 3109 Pls
2637 3106 Pls
2637 3103 Pls
2637 3102 Pls
2637 3101 Pls
2637 3098 Pls
2638 3097 Pls
2638 3095 Pls
2638 3091 Pls
2638 3089 Pls
2639 3088 Pls
2639 3087 Pls
2640 3086 Pls
2640 3084 Pls
2640 3083 Pls
2640 3082 Pls
2641 3081 Pls
2641 3079 Pls
2641 3077 Pls
2641 3075 Pls
2641 3074 Pls
2641 3070 Pls
2642 3069 Pls
2642 3068 Pls
2642 3066 Pls
2642 3065 Pls
2642 3064 Pls
2642 3063 Pls
2643 3061 Pls
2643 3060 Pls
2643 3059 Pls
2643 3058 Pls
2643 3056 Pls
2644 3055 Pls
2644 3054 Pls
2644 3051 Pls
2644 3050 Pls
2645 3049 Pls
2645 3047 Pls
2645 3046 Pls
2645 3045 Pls
2645 3044 Pls
2645 3042 Pls
2646 3040 Pls
2646 3038 Pls
2647 3037 Pls
2647 3036 Pls
2647 3035 Pls
2647 3032 Pls
2647 3031 Pls
2648 3028 Pls
2648 3027 Pls
2648 3026 Pls
2648 3024 Pls
2648 3023 Pls
2648 3022 Pls
2648 3021 Pls
2649 3019 Pls
2649 3017 Pls
2650 3015 Pls
2650 3013 Pls
2651 3012 Pls
2651 3009 Pls
2651 3007 Pls
2651 3005 Pls
2651 3003 Pls
2652 3001 Pls
2652 2999 Pls
2652 2998 Pls
2652 2995 Pls
2653 2994 Pls
2653 2993 Pls
2653 2990 Pls
2653 2989 Pls
2653 2987 Pls
2653 2986 Pls
2653 2985 Pls
2654 2984 Pls
2654 2981 Pls
2654 2978 Pls
2655 2977 Pls
2655 2976 Pls
2656 2975 Pls
2656 2973 Pls
2656 2971 Pls
2656 2968 Pls
2657 2967 Pls
2657 2964 Pls
2657 2962 Pls
2657 2961 Pls
2658 2959 Pls
2658 2958 Pls
2658 2957 Pls
2659 2956 Pls
2659 2954 Pls
2659 2953 Pls
2659 2952 Pls
2660 2950 Pls
2660 2949 Pls
2660 2948 Pls
2660 2947 Pls
2660 2943 Pls
2661 2942 Pls
2661 2940 Pls
2661 2939 Pls
2661 2938 Pls
2661 2936 Pls
2661 2935 Pls
2661 2934 Pls
2662 2931 Pls
2662 2930 Pls
2662 2929 Pls
2662 2927 Pls
2662 2926 Pls
2662 2924 Pls
2663 2920 Pls
2663 2919 Pls
2663 2916 Pls
2663 2913 Pls
2664 2912 Pls
2664 2911 Pls
2664 2910 Pls
2665 2907 Pls
2665 2906 Pls
2665 2905 Pls
2665 2903 Pls
2665 2902 Pls
2665 2901 Pls
2665 2899 Pls
2666 2898 Pls
2666 2896 Pls
2666 2894 Pls
2666 2892 Pls
2666 2890 Pls
2667 2889 Pls
2667 2888 Pls
2667 2887 Pls
2667 2883 Pls
2668 2882 Pls
2668 2879 Pls
2668 2878 Pls
2668 2875 Pls
2668 2873 Pls
2669 2871 Pls
2669 2869 Pls
2669 2868 Pls
2670 2865 Pls
2670 2864 Pls
2670 2861 Pls
2670 2860 Pls
2671 2859 Pls
2671 2857 Pls
2671 2856 Pls
2671 2855 Pls
2671 2852 Pls
2671 2850 Pls
2672 2846 Pls
2672 2845 Pls
2672 2842 Pls
2672 2841 Pls
2672 2839 Pls
2672 2838 Pls
2673 2837 Pls
2673 2834 Pls
2674 2833 Pls
2674 2832 Pls
2675 2831 Pls
2675 2828 Pls
2675 2825 Pls
2676 2824 Pls
2676 2823 Pls
2676 2822 Pls
2676 2820 Pls
2676 2819 Pls
2676 2817 Pls
2677 2815 Pls
2677 2814 Pls
2678 2813 Pls
2678 2810 Pls
2678 2809 Pls
2679 2806 Pls
2679 2805 Pls
2679 2804 Pls
2680 2802 Pls
2680 2801 Pls
2680 2800 Pls
2680 2796 Pls
2680 2795 Pls
2680 2794 Pls
2681 2791 Pls
2681 2790 Pls
2681 2788 Pls
2682 2786 Pls
2682 2785 Pls
2682 2783 Pls
2682 2782 Pls
2682 2781 Pls
2683 2780 Pls
2683 2778 Pls
2683 2777 Pls
2684 2776 Pls
2684 2774 Pls
2685 2773 Pls
2685 2771 Pls
2685 2769 Pls
2685 2768 Pls
2686 2767 Pls
2686 2766 Pls
2686 2764 Pls
2686 2763 Pls
2687 2762 Pls
2687 2760 Pls
2687 2759 Pls
2687 2757 Pls
2687 2755 Pls
2688 2754 Pls
2688 2753 Pls
2688 2750 Pls
2689 2748 Pls
2689 2746 Pls
2689 2744 Pls
2689 2741 Pls
2689 2739 Pls
2689 2737 Pls
2690 2736 Pls
2690 2735 Pls
2690 2732 Pls
2690 2731 Pls
2691 2729 Pls
2691 2727 Pls
2691 2726 Pls
2691 2725 Pls
2691 2723 Pls
2692 2722 Pls
2692 2721 Pls
2692 2720 Pls
2692 2718 Pls
2693 2717 Pls
2693 2716 Pls
2693 2715 Pls
2693 2712 Pls
2693 2711 Pls
2693 2709 Pls
2694 2707 Pls
2694 2706 Pls
2694 2704 Pls
2694 2703 Pls
2694 2700 Pls
2695 2699 Pls
2695 2698 Pls
2695 2695 Pls
2695 2694 Pls
2695 2693 Pls
2696 2692 Pls
2696 2689 Pls
2696 2688 Pls
2696 2686 Pls
2697 2684 Pls
2697 2683 Pls
2697 2681 Pls
2698 2680 Pls
2698 2679 Pls
2699 2678 Pls
2699 2676 Pls
2699 2674 Pls
2700 2671 Pls
2700 2669 Pls
2700 2667 Pls
2700 2665 Pls
2700 2663 Pls
2701 2662 Pls
2701 2661 Pls
2701 2660 Pls
2701 2658 Pls
2702 2656 Pls
2702 2655 Pls
2702 2653 Pls
2703 2652 Pls
2703 2651 Pls
2704 2649 Pls
2704 2647 Pls
2704 2646 Pls
2704 2644 Pls
2704 2643 Pls
2705 2642 Pls
2705 2641 Pls
2705 2639 Pls
2706 2638 Pls
2706 2637 Pls
2706 2635 Pls
2706 2634 Pls
2706 2633 Pls
2706 2632 Pls
2707 2630 Pls
2707 2629 Pls
2707 2628 Pls
2707 2627 Pls
2707 2625 Pls
2708 2624 Pls
2708 2623 Pls
2708 2621 Pls
2708 2620 Pls
2708 2619 Pls
2708 2616 Pls
2709 2615 Pls
2709 2614 Pls
2709 2612 Pls
2710 2610 Pls
2710 2609 Pls
2710 2607 Pls
2711 2605 Pls
2711 2602 Pls
2711 2601 Pls
2712 2600 Pls
2712 2598 Pls
2713 2597 Pls
2713 2595 Pls
2713 2593 Pls
2714 2592 Pls
2714 2591 Pls
2714 2588 Pls
2715 2587 Pls
2715 2584 Pls
2716 2583 Pls
2716 2582 Pls
2716 2579 Pls
2716 2576 Pls
2716 2574 Pls
2717 2573 Pls
2717 2572 Pls
2717 2570 Pls
2717 2569 Pls
2717 2568 Pls
2718 2567 Pls
2718 2565 Pls
2718 2564 Pls
2718 2563 Pls
2718 2561 Pls
2719 2560 Pls
2719 2559 Pls
2719 2558 Pls
2719 2556 Pls
2720 2555 Pls
2720 2554 Pls
2720 2551 Pls
2720 2550 Pls
2720 2549 Pls
2721 2546 Pls
2721 2545 Pls
2722 2544 Pls
2722 2542 Pls
2722 2541 Pls
2722 2540 Pls
2723 2539 Pls
2723 2537 Pls
2723 2536 Pls
2723 2535 Pls
2724 2533 Pls
2724 2532 Pls
2724 2531 Pls
2724 2530 Pls
2724 2528 Pls
2724 2527 Pls
2724 2526 Pls
2725 2524 Pls
2725 2523 Pls
2726 2522 Pls
2726 2521 Pls
2726 2518 Pls
2726 2517 Pls
2726 2516 Pls
2727 2514 Pls
2727 2513 Pls
2728 2512 Pls
2728 2509 Pls
2728 2508 Pls
2728 2505 Pls
2729 2504 Pls
2729 2503 Pls
2729 2502 Pls
2729 2500 Pls
2729 2499 Pls
2730 2498 Pls
2730 2496 Pls
2730 2495 Pls
2730 2494 Pls
2731 2493 Pls
2731 2491 Pls
2731 2490 Pls
2731 2489 Pls
2731 2488 Pls
2731 2486 Pls
2732 2485 Pls
2732 2482 Pls
2732 2481 Pls
2732 2480 Pls
2732 2479 Pls
2733 2477 Pls
2733 2476 Pls
2733 2475 Pls
2733 2473 Pls
2733 2472 Pls
2734 2468 Pls
2734 2467 Pls
2734 2466 Pls
2734 2465 Pls
2735 2463 Pls
2735 2461 Pls
2735 2459 Pls
2735 2458 Pls
2735 2457 Pls
2736 2456 Pls
2736 2453 Pls
2736 2452 Pls
2736 2449 Pls
2736 2447 Pls
2737 2445 Pls
2737 2444 Pls
2737 2443 Pls
2737 2440 Pls
2738 2439 Pls
2738 2436 Pls
2738 2435 Pls
2738 2434 Pls
2739 2433 Pls
2739 2431 Pls
2739 2429 Pls
2739 2428 Pls
2740 2426 Pls
2740 2425 Pls
2740 2424 Pls
2740 2421 Pls
2741 2420 Pls
2742 2417 Pls
2742 2416 Pls
2743 2415 Pls
2743 2414 Pls
2744 2412 Pls
2744 2411 Pls
2744 2410 Pls
2744 2408 Pls
2744 2407 Pls
2744 2405 Pls
2745 2400 Pls
2745 2398 Pls
2745 2397 Pls
2746 2394 Pls
2746 2393 Pls
2746 2392 Pls
2746 2387 Pls
2747 2385 Pls
2747 2384 Pls
2747 2383 Pls
2747 2382 Pls
2747 2380 Pls
2747 2379 Pls
2747 2378 Pls
2748 2375 Pls
2748 2374 Pls
2748 2371 Pls
2748 2370 Pls
2748 2369 Pls
2748 2368 Pls
2749 2366 Pls
2749 2365 Pls
2749 2364 Pls
2750 2363 Pls
2750 2360 Pls
2750 2359 Pls
2751 2357 Pls
2751 2355 Pls
2752 2352 Pls
2752 2350 Pls
2752 2349 Pls
2752 2347 Pls
2753 2345 Pls
2753 2342 Pls
2753 2341 Pls
2753 2340 Pls
2753 2338 Pls
2753 2337 Pls
2754 2336 Pls
2754 2334 Pls
2754 2333 Pls
2754 2329 Pls
2755 2328 Pls
2755 2327 Pls
2755 2326 Pls
2755 2324 Pls
2756 2323 Pls
2756 2320 Pls
2757 2318 Pls
2757 2317 Pls
2757 2315 Pls
2758 2313 Pls
2758 2312 Pls
2758 2310 Pls
2759 2309 Pls
2759 2308 Pls
2760 2306 Pls
2760 2305 Pls
2760 2304 Pls
2760 2303 Pls
2760 2301 Pls
2760 2299 Pls
2761 2297 Pls
2761 2296 Pls
2761 2295 Pls
2761 2294 Pls
2762 2291 Pls
2762 2290 Pls
2762 2289 Pls
2763 2287 Pls
2763 2286 Pls
2763 2285 Pls
2763 2282 Pls
2764 2281 Pls
2764 2280 Pls
2764 2278 Pls
2764 2277 Pls
2765 2273 Pls
2765 2268 Pls
2766 2267 Pls
2766 2263 Pls
2766 2262 Pls
2767 2261 Pls
2767 2259 Pls
2767 2258 Pls
2767 2257 Pls
2768 2254 Pls
2768 2253 Pls
2768 2252 Pls
2768 2250 Pls
2768 2249 Pls
2769 2248 Pls
2769 2246 Pls
2769 2245 Pls
2769 2244 Pls
2769 2243 Pls
2770 2241 Pls
2770 2240 Pls
2770 2239 Pls
2770 2236 Pls
2771 2235 Pls
2771 2232 Pls
2771 2231 Pls
2771 2229 Pls
2771 2226 Pls
2771 2225 Pls
2772 2222 Pls
2772 2221 Pls
2773 2218 Pls
2773 2217 Pls
2774 2216 Pls
2774 2215 Pls
2774 2213 Pls
2775 2212 Pls
2775 2211 Pls
2775 2209 Pls
2776 2208 Pls
2776 2207 Pls
2776 2206 Pls
2777 2203 Pls
2777 2202 Pls
2778 2201 Pls
2778 2199 Pls
2778 2198 Pls
2779 2195 Pls
2779 2194 Pls
2779 2193 Pls
2780 2192 Pls
2780 2190 Pls
2780 2188 Pls
2780 2187 Pls
2781 2185 Pls
2781 2184 Pls
2782 2181 Pls
2782 2180 Pls
2782 2179 Pls
2782 2178 Pls
2782 2175 Pls
2783 2173 Pls
2783 2171 Pls
2783 2169 Pls
2784 2167 Pls
2784 2164 Pls
2784 2162 Pls
2784 2161 Pls
2784 2160 Pls
2785 2157 Pls
2785 2156 Pls
2785 2153 Pls
2786 2152 Pls
2786 2150 Pls
2786 2147 Pls
2786 2146 Pls
2787 2144 Pls
2787 2143 Pls
2787 2142 Pls
2787 2141 Pls
2788 2139 Pls
2788 2138 Pls
2788 2137 Pls
2788 2136 Pls
2788 2134 Pls
2789 2133 Pls
2789 2132 Pls
2789 2130 Pls
2789 2129 Pls
2790 2128 Pls
2790 2127 Pls
2791 2125 Pls
2791 2123 Pls
2791 2122 Pls
2792 2120 Pls
2792 2119 Pls
2793 2118 Pls
2793 2115 Pls
2793 2113 Pls
2793 2111 Pls
2793 2107 Pls
2793 2106 Pls
2793 2104 Pls
2794 2102 Pls
2794 2101 Pls
2794 2100 Pls
2794 2099 Pls
2794 2097 Pls
2795 2096 Pls
2795 2095 Pls
2796 2093 Pls
2796 2092 Pls
2797 2090 Pls
2797 2088 Pls
2797 2087 Pls
2798 2086 Pls
2798 2083 Pls
2798 2081 Pls
2798 2079 Pls
2799 2078 Pls
2799 2077 Pls
2799 2074 Pls
2799 2073 Pls
2799 2072 Pls
2799 2070 Pls
2800 2068 Pls
2800 2065 Pls
2800 2064 Pls
2800 2063 Pls
2801 2062 Pls
2801 2060 Pls
2802 2059 Pls
2802 2058 Pls
2802 2056 Pls
2802 2055 Pls
2803 2054 Pls
2804 2053 Pls
2804 2051 Pls
2804 2050 Pls
2805 2049 Pls
2805 2046 Pls
2805 2044 Pls
2805 2042 Pls
2806 2041 Pls
2806 2040 Pls
2807 2039 Pls
2807 2037 Pls
2807 2036 Pls
2807 2032 Pls
2808 2031 Pls
2808 2030 Pls
2808 2028 Pls
2809 2027 Pls
2809 2026 Pls
2809 2025 Pls
2809 2023 Pls
2809 2022 Pls
2810 2021 Pls
2810 2019 Pls
2810 2018 Pls
2810 2017 Pls
2811 2016 Pls
2811 2013 Pls
2811 2012 Pls
2811 2009 Pls
2812 2008 Pls
2812 2007 Pls
2813 2005 Pls
2813 2004 Pls
2813 2003 Pls
2813 2002 Pls
2813 2000 Pls
2813 1999 Pls
2813 1998 Pls
2814 1995 Pls
2814 1994 Pls
2814 1991 Pls
2814 1990 Pls
2815 1989 Pls
2815 1988 Pls
2815 1986 Pls
2816 1985 Pls
2816 1984 Pls
2817 1982 Pls
2817 1980 Pls
2818 1979 Pls
2818 1977 Pls
2819 1976 Pls
2820 1975 Pls
2821 1968 Pls
2821 1967 Pls
2821 1966 Pls
2822 1965 Pls
2822 1963 Pls
2822 1962 Pls
2822 1961 Pls
2822 1960 Pls
2822 1958 Pls
2823 1956 Pls
2823 1954 Pls
2823 1953 Pls
2823 1952 Pls
2824 1951 Pls
2824 1949 Pls
2824 1947 Pls
2824 1946 Pls
2824 1944 Pls
2825 1943 Pls
2825 1942 Pls
2826 1940 Pls
2826 1939 Pls
2826 1938 Pls
2826 1937 Pls
2826 1935 Pls
2827 1934 Pls
2827 1933 Pls
2827 1930 Pls
2827 1929 Pls
2827 1928 Pls
2828 1926 Pls
2828 1925 Pls
2829 1924 Pls
2830 1921 Pls
2830 1920 Pls
2831 1919 Pls
2832 1917 Pls
2832 1916 Pls
2832 1914 Pls
2832 1912 Pls
2833 1911 Pls
2833 1910 Pls
2833 1909 Pls
2833 1907 Pls
2833 1906 Pls
2834 1905 Pls
2834 1903 Pls
2834 1902 Pls
2835 1901 Pls
2835 1900 Pls
2835 1898 Pls
2836 1896 Pls
2836 1895 Pls
2836 1892 Pls
2836 1891 Pls
2836 1889 Pls
2836 1888 Pls
2837 1887 Pls
2837 1886 Pls
2837 1884 Pls
2837 1883 Pls
2837 1882 Pls
2837 1880 Pls
2838 1879 Pls
2838 1878 Pls
2838 1877 Pls
2838 1875 Pls
2838 1874 Pls
2838 1873 Pls
2839 1872 Pls
2839 1868 Pls
2839 1866 Pls
2839 1865 Pls
2839 1864 Pls
2840 1863 Pls
2840 1861 Pls
2840 1860 Pls
2842 1859 Pls
2842 1858 Pls
2842 1856 Pls
2843 1854 Pls
2843 1851 Pls
2844 1849 Pls
2844 1847 Pls
2844 1846 Pls
2845 1845 Pls
2845 1843 Pls
2845 1842 Pls
2845 1841 Pls
2845 1840 Pls
2846 1838 Pls
2846 1837 Pls
2846 1836 Pls
2846 1835 Pls
2847 1832 Pls
2848 1831 Pls
2848 1829 Pls
2848 1828 Pls
2848 1827 Pls
2848 1826 Pls
2848 1824 Pls
2848 1823 Pls
2849 1822 Pls
2849 1821 Pls
2850 1819 Pls
2850 1818 Pls
2851 1817 Pls
2851 1815 Pls
2851 1814 Pls
2852 1813 Pls
2852 1812 Pls
2852 1810 Pls
2853 1809 Pls
2853 1808 Pls
2853 1805 Pls
2853 1804 Pls
2854 1803 Pls
2854 1801 Pls
2855 1800 Pls
2855 1798 Pls
2855 1796 Pls
2856 1794 Pls
2856 1792 Pls
2856 1791 Pls
2857 1790 Pls
2857 1787 Pls
2857 1786 Pls
2857 1785 Pls
2857 1784 Pls
2858 1782 Pls
2858 1781 Pls
2858 1780 Pls
2858 1778 Pls
2859 1777 Pls
2859 1773 Pls
2859 1771 Pls
2859 1770 Pls
2860 1768 Pls
2860 1767 Pls
2860 1766 Pls
2861 1764 Pls
2861 1763 Pls
2862 1759 Pls
2862 1758 Pls
2862 1757 Pls
2862 1755 Pls
2863 1754 Pls
2863 1753 Pls
2863 1752 Pls
2864 1750 Pls
2864 1749 Pls
2864 1748 Pls
2864 1745 Pls
2865 1744 Pls
2865 1743 Pls
2865 1741 Pls
2865 1739 Pls
2865 1738 Pls
2866 1736 Pls
2866 1735 Pls
2866 1734 Pls
2867 1733 Pls
2867 1731 Pls
2867 1730 Pls
2867 1729 Pls
2868 1727 Pls
2868 1726 Pls
2869 1725 Pls
2869 1724 Pls
2869 1722 Pls
2869 1721 Pls
2869 1720 Pls
2870 1719 Pls
2870 1717 Pls
2871 1716 Pls
2871 1715 Pls
2871 1713 Pls
2871 1712 Pls
2872 1711 Pls
2872 1710 Pls
2872 1708 Pls
2872 1707 Pls
2873 1706 Pls
2873 1704 Pls
2874 1703 Pls
2875 1702 Pls
2875 1701 Pls
2875 1699 Pls
2875 1696 Pls
2875 1693 Pls
2876 1692 Pls
2876 1690 Pls
2876 1688 Pls
2877 1687 Pls
2877 1685 Pls
2877 1684 Pls
2877 1683 Pls
2878 1682 Pls
2878 1680 Pls
2878 1679 Pls
2879 1678 Pls
2880 1676 Pls
2880 1675 Pls
2880 1674 Pls
2880 1673 Pls
2880 1671 Pls
2880 1670 Pls
2880 1668 Pls
2881 1666 Pls
2881 1665 Pls
2881 1664 Pls
2881 1662 Pls
2881 1660 Pls
2882 1659 Pls
2882 1657 Pls
2882 1656 Pls
2882 1655 Pls
2882 1653 Pls
2882 1651 Pls
2883 1650 Pls
2883 1648 Pls
2883 1647 Pls
2883 1646 Pls
2883 1643 Pls
2884 1641 Pls
2884 1639 Pls
2885 1638 Pls
2885 1637 Pls
2886 1636 Pls
2886 1633 Pls
2887 1632 Pls
2887 1629 Pls
2887 1628 Pls
2887 1627 Pls
2887 1625 Pls
2888 1623 Pls
2888 1622 Pls
2888 1620 Pls
2888 1619 Pls
2888 1618 Pls
2888 1613 Pls
2889 1611 Pls
2889 1610 Pls
2889 1609 Pls
2890 1606 Pls
2890 1605 Pls
2890 1604 Pls
2891 1601 Pls
2891 1600 Pls
2891 1599 Pls
2891 1597 Pls
2892 1596 Pls
2892 1595 Pls
2893 1592 Pls
2893 1590 Pls
2893 1588 Pls
2893 1586 Pls
2893 1585 Pls
2894 1583 Pls
2895 1580 Pls
2896 1574 Pls
2896 1573 Pls
2896 1571 Pls
2897 1569 Pls
2897 1568 Pls
2897 1567 Pls
2897 1565 Pls
2898 1564 Pls
2898 1563 Pls
2898 1562 Pls
2899 1560 Pls
2899 1559 Pls
2900 1558 Pls
2900 1557 Pls
2900 1555 Pls
2900 1554 Pls
2901 1551 Pls
2901 1550 Pls
2902 1548 Pls
2902 1545 Pls
2903 1544 Pls
2903 1543 Pls
2903 1541 Pls
2904 1540 Pls
2904 1539 Pls
2905 1537 Pls
2906 1536 Pls
2906 1535 Pls
2907 1532 Pls
2908 1531 Pls
2908 1528 Pls
2908 1526 Pls
2908 1525 Pls
2908 1523 Pls
2909 1522 Pls
2909 1521 Pls
2909 1520 Pls
2910 1518 Pls
2910 1517 Pls
2911 1513 Pls
2911 1512 Pls
2911 1511 Pls
2911 1509 Pls
2911 1508 Pls
2912 1507 Pls
2913 1506 Pls
2913 1504 Pls
2913 1503 Pls
2914 1502 Pls
2914 1500 Pls
2915 1499 Pls
2916 1498 Pls
2916 1497 Pls
2916 1495 Pls
2916 1494 Pls
2916 1493 Pls
2917 1492 Pls
2917 1490 Pls
2917 1488 Pls
2918 1486 Pls
2918 1485 Pls
2918 1484 Pls
2918 1483 Pls
2918 1480 Pls
2918 1479 Pls
2920 1475 Pls
2920 1474 Pls
2920 1472 Pls
2921 1471 Pls
2921 1469 Pls
2922 1467 Pls
2922 1466 Pls
2922 1465 Pls
2922 1463 Pls
2923 1462 Pls
2924 1461 Pls
2924 1460 Pls
2924 1457 Pls
2925 1456 Pls
2925 1455 Pls
2925 1453 Pls
2925 1452 Pls
2925 1451 Pls
2925 1449 Pls
2925 1448 Pls
2926 1447 Pls
2926 1446 Pls
2927 1444 Pls
2927 1443 Pls
2927 1442 Pls
2927 1441 Pls
2928 1439 Pls
2929 1438 Pls
2929 1437 Pls
2929 1435 Pls
2929 1434 Pls
2930 1433 Pls
2930 1430 Pls
2931 1429 Pls
2931 1428 Pls
2931 1426 Pls
2931 1425 Pls
2931 1424 Pls
2932 1423 Pls
2932 1421 Pls
2933 1420 Pls
2933 1419 Pls
2933 1418 Pls
2933 1416 Pls
2934 1415 Pls
2934 1414 Pls
2934 1412 Pls
2935 1411 Pls
2935 1410 Pls
2935 1407 Pls
2936 1406 Pls
2936 1404 Pls
2936 1402 Pls
2936 1401 Pls
2937 1400 Pls
2938 1398 Pls
2939 1397 Pls
2939 1396 Pls
2941 1395 Pls
2941 1393 Pls
2941 1392 Pls
2941 1391 Pls
2942 1389 Pls
2943 1388 Pls
2943 1387 Pls
2943 1386 Pls
2944 1384 Pls
2944 1383 Pls
2945 1382 Pls
2945 1381 Pls
2946 1379 Pls
2947 1377 Pls
2947 1375 Pls
2947 1374 Pls
2948 1373 Pls
2948 1370 Pls
2948 1369 Pls
2948 1368 Pls
2948 1365 Pls
2949 1364 Pls
2949 1363 Pls
2950 1361 Pls
2951 1360 Pls
2951 1359 Pls
2951 1358 Pls
2952 1356 Pls
2952 1355 Pls
2954 1354 Pls
2954 1351 Pls
2954 1350 Pls
2955 1349 Pls
2955 1347 Pls
2955 1346 Pls
2956 1345 Pls
2956 1344 Pls
2957 1341 Pls
2957 1340 Pls
2957 1338 Pls
2957 1337 Pls
2958 1336 Pls
2959 1335 Pls
2960 1333 Pls
2960 1332 Pls
2960 1331 Pls
2960 1330 Pls
2961 1328 Pls
2961 1327 Pls
2961 1326 Pls
2961 1324 Pls
2961 1323 Pls
2961 1322 Pls
2962 1321 Pls
2962 1319 Pls
2962 1318 Pls
2963 1317 Pls
2963 1316 Pls
2964 1314 Pls
2964 1313 Pls
2965 1312 Pls
2965 1310 Pls
2965 1309 Pls
2966 1308 Pls
2966 1305 Pls
2966 1304 Pls
2967 1303 Pls
2967 1301 Pls
2967 1300 Pls
2967 1299 Pls
2967 1298 Pls
2968 1296 Pls
2968 1295 Pls
2968 1294 Pls
2969 1293 Pls
2969 1291 Pls
2969 1290 Pls
2969 1289 Pls
2971 1287 Pls
2971 1286 Pls
2972 1285 Pls
2972 1284 Pls
2973 1282 Pls
2973 1280 Pls
2974 1279 Pls
2974 1277 Pls
2974 1276 Pls
2975 1275 Pls
2975 1273 Pls
2976 1272 Pls
2976 1271 Pls
2976 1270 Pls
2977 1268 Pls
2977 1267 Pls
2979 1266 Pls
2979 1265 Pls
2980 1263 Pls
2980 1262 Pls
2980 1261 Pls
2980 1259 Pls
2982 1258 Pls
2983 1256 Pls
2984 1254 Pls
2984 1253 Pls
2985 1252 Pls
2986 1250 Pls
2986 1248 Pls
2986 1247 Pls
2987 1245 Pls
2988 1244 Pls
2988 1243 Pls
2989 1242 Pls
2989 1236 Pls
2989 1235 Pls
2990 1234 Pls
2990 1233 Pls
2991 1231 Pls
2991 1230 Pls
2992 1229 Pls
2992 1228 Pls
2992 1226 Pls
2993 1225 Pls
2993 1224 Pls
2993 1222 Pls
2993 1221 Pls
2994 1220 Pls
2995 1219 Pls
2995 1217 Pls
2996 1215 Pls
2997 1214 Pls
2998 1212 Pls
2998 1211 Pls
2999 1208 Pls
2999 1207 Pls
2999 1205 Pls
3000 1202 Pls
3000 1198 Pls
3000 1197 Pls
3001 1196 Pls
3001 1194 Pls
3001 1193 Pls
3002 1192 Pls
3002 1189 Pls
3003 1187 Pls
3003 1185 Pls
3004 1184 Pls
3004 1183 Pls
3005 1182 Pls
3006 1180 Pls
3007 1178 Pls
3007 1177 Pls
3007 1174 Pls
3008 1173 Pls
3008 1171 Pls
3008 1170 Pls
3008 1169 Pls
3009 1165 Pls
3010 1164 Pls
3010 1162 Pls
3010 1161 Pls
3010 1160 Pls
3011 1159 Pls
3011 1157 Pls
3012 1156 Pls
3013 1155 Pls
3014 1154 Pls
3014 1152 Pls
3014 1151 Pls
3014 1148 Pls
3015 1147 Pls
3016 1146 Pls
3016 1145 Pls
3017 1143 Pls
3017 1142 Pls
3017 1141 Pls
3019 1140 Pls
3019 1138 Pls
3020 1137 Pls
3020 1136 Pls
3020 1134 Pls
3021 1133 Pls
3021 1132 Pls
3022 1131 Pls
3022 1129 Pls
3022 1128 Pls
3022 1127 Pls
3023 1126 Pls
3023 1124 Pls
3024 1123 Pls
3024 1122 Pls
3024 1120 Pls
3025 1119 Pls
3025 1118 Pls
3025 1115 Pls
3025 1114 Pls
3026 1113 Pls
3027 1111 Pls
3027 1110 Pls
3028 1109 Pls
3028 1108 Pls
3028 1106 Pls
3028 1105 Pls
3029 1104 Pls
3029 1103 Pls
3030 1101 Pls
3031 1100 Pls
3031 1099 Pls
3031 1097 Pls
3031 1096 Pls
3031 1095 Pls
3032 1094 Pls
3035 1092 Pls
3036 1091 Pls
3036 1090 Pls
3037 1089 Pls
3038 1087 Pls
3038 1086 Pls
3039 1085 Pls
3040 1082 Pls
3040 1081 Pls
3042 1080 Pls
3043 1078 Pls
3044 1077 Pls
3045 1075 Pls
3046 1073 Pls
3046 1072 Pls
3046 1071 Pls
3047 1069 Pls
3048 1068 Pls
3048 1067 Pls
3050 1066 Pls
3050 1063 Pls
3051 1062 Pls
3052 1060 Pls
3052 1059 Pls
3052 1058 Pls
3054 1057 Pls
3055 1055 Pls
3055 1054 Pls
3055 1053 Pls
3055 1052 Pls
3056 1050 Pls
3056 1049 Pls
3057 1048 Pls
3057 1046 Pls
3057 1045 Pls
3057 1044 Pls
3058 1043 Pls
3059 1041 Pls
3059 1040 Pls
3060 1039 Pls
3060 1038 Pls
3060 1036 Pls
3061 1035 Pls
3061 1034 Pls
3062 1032 Pls
3063 1031 Pls
3063 1030 Pls
3064 1027 Pls
3064 1026 Pls
3064 1025 Pls
3065 1023 Pls
3065 1022 Pls
3066 1021 Pls
3067 1020 Pls
3068 1018 Pls
3071 1017 Pls
3073 1016 Pls
3073 1015 Pls
3074 1013 Pls
3074 1012 Pls
3075 1011 Pls
3075 1009 Pls
3076 1007 Pls
3077 1006 Pls
3078 1004 Pls
3078 1003 Pls
3078 1002 Pls
3079 998 Pls
3079 997 Pls
3079 995 Pls
3080 994 Pls
3080 993 Pls
3082 992 Pls
3082 990 Pls
3082 989 Pls
3083 988 Pls
3083 987 Pls
3085 985 Pls
3086 984 Pls
3086 983 Pls
3087 980 Pls
3088 979 Pls
3088 978 Pls
3088 976 Pls
3090 975 Pls
3090 974 Pls
3091 972 Pls
3091 971 Pls
3092 970 Pls
3094 969 Pls
3095 967 Pls
3096 966 Pls
3097 965 Pls
3097 964 Pls
3097 962 Pls
3099 961 Pls
3099 960 Pls
3100 958 Pls
3101 956 Pls
3101 955 Pls
3101 953 Pls
3101 951 Pls
3102 950 Pls
3102 946 Pls
3103 944 Pls
3104 943 Pls
3104 942 Pls
3105 941 Pls
3106 938 Pls
3106 937 Pls
3107 935 Pls
3107 934 Pls
3107 933 Pls
3107 932 Pls
3110 930 Pls
3110 929 Pls
3111 928 Pls
3111 927 Pls
3111 925 Pls
3113 924 Pls
3114 923 Pls
3114 921 Pls
3115 920 Pls
3115 919 Pls
3115 918 Pls
3115 916 Pls
3115 915 Pls
3116 914 Pls
3116 913 Pls
3117 911 Pls
3117 910 Pls
3120 909 Pls
3121 907 Pls
3122 906 Pls
3122 905 Pls
3123 902 Pls
3125 900 Pls
3126 899 Pls
3126 897 Pls
3128 896 Pls
3128 895 Pls
3129 893 Pls
3130 892 Pls
3130 891 Pls
3131 890 Pls
3132 888 Pls
3132 887 Pls
3132 886 Pls
3134 884 Pls
3136 883 Pls
3136 882 Pls
3138 881 Pls
3139 879 Pls
3140 878 Pls
3141 876 Pls
3141 874 Pls
3141 872 Pls
3142 870 Pls
3142 869 Pls
3144 868 Pls
3144 867 Pls
3144 865 Pls
3144 864 Pls
3144 863 Pls
3147 860 Pls
3147 859 Pls
3148 858 Pls
3149 856 Pls
3150 855 Pls
3150 854 Pls
3150 853 Pls
3151 851 Pls
3151 849 Pls
3151 847 Pls
3152 846 Pls
3153 845 Pls
3154 844 Pls
3156 841 Pls
3156 840 Pls
3157 839 Pls
3157 837 Pls
3157 836 Pls
3158 835 Pls
3158 833 Pls
3160 832 Pls
3160 831 Pls
3161 830 Pls
3161 828 Pls
3162 827 Pls
3165 826 Pls
3168 825 Pls
3169 823 Pls
3169 822 Pls
3170 821 Pls
3172 819 Pls
3172 818 Pls
3173 817 Pls
3175 816 Pls
3177 814 Pls
3177 813 Pls
3178 812 Pls
3178 811 Pls
3179 809 Pls
3180 808 Pls
3181 807 Pls
3181 805 Pls
3183 804 Pls
3183 803 Pls
3184 802 Pls
3184 800 Pls
3184 799 Pls
3185 798 Pls
3187 796 Pls
3188 795 Pls
3193 794 Pls
3193 793 Pls
3193 791 Pls
3195 789 Pls
3195 788 Pls
3196 786 Pls
3196 785 Pls
3196 784 Pls
3196 782 Pls
3196 781 Pls
3198 780 Pls
3199 779 Pls
3200 777 Pls
3201 776 Pls
3203 775 Pls
3204 774 Pls
3204 772 Pls
3205 771 Pls
3208 770 Pls
3208 768 Pls
3210 767 Pls
3210 766 Pls
3211 763 Pls
3214 762 Pls
3215 761 Pls
3215 760 Pls
3215 758 Pls
3216 757 Pls
3216 756 Pls
3217 754 Pls
3219 753 Pls
3219 752 Pls
3219 751 Pls
3219 749 Pls
3220 748 Pls
3223 747 Pls
3224 745 Pls
3225 744 Pls
3227 743 Pls
3227 742 Pls
3228 740 Pls
3229 739 Pls
3230 738 Pls
3231 735 Pls
3232 734 Pls
3233 733 Pls
3233 731 Pls
3235 730 Pls
3236 729 Pls
3238 728 Pls
3239 726 Pls
3239 725 Pls
3239 724 Pls
3240 723 Pls
3245 720 Pls
3246 719 Pls
3246 717 Pls
3246 716 Pls
3247 715 Pls
3248 714 Pls
3249 712 Pls
3251 711 Pls
3253 710 Pls
3254 708 Pls
3255 707 Pls
3261 706 Pls
3261 705 Pls
3262 703 Pls
3263 702 Pls
3264 701 Pls
3264 700 Pls
3266 698 Pls
3266 697 Pls
3266 696 Pls
3269 694 Pls
3269 693 Pls
3270 691 Pls
3271 689 Pls
3275 688 Pls
3276 687 Pls
3277 686 Pls
3277 684 Pls
3280 683 Pls
3281 682 Pls
3281 680 Pls
3282 679 Pls
3283 678 Pls
3284 677 Pls
3284 675 Pls
3284 674 Pls
3289 673 Pls
3292 672 Pls
3292 670 Pls
3293 669 Pls
3293 666 Pls
3297 665 Pls
3298 664 Pls
3299 663 Pls
3299 661 Pls
3300 660 Pls
3301 659 Pls
3302 656 Pls
3303 655 Pls
3306 654 Pls
3309 652 Pls
3311 651 Pls
3312 650 Pls
3315 649 Pls
3315 647 Pls
3316 646 Pls
3318 645 Pls
3319 643 Pls
3319 642 Pls
3323 641 Pls
3326 640 Pls
3326 638 Pls
3327 637 Pls
3327 636 Pls
3328 635 Pls
3328 633 Pls
3329 632 Pls
3330 631 Pls
3330 629 Pls
3334 628 Pls
3335 627 Pls
3337 626 Pls
3341 624 Pls
3342 623 Pls
3343 622 Pls
3343 620 Pls
3347 619 Pls
3349 618 Pls
3350 617 Pls
3353 614 Pls
3354 613 Pls
3357 612 Pls
3359 610 Pls
3361 609 Pls
3363 608 Pls
3364 606 Pls
3365 605 Pls
3368 604 Pls
3370 603 Pls
3370 601 Pls
3370 600 Pls
3370 599 Pls
3370 598 Pls
3373 596 Pls
3374 595 Pls
3374 594 Pls
3379 592 Pls
3380 591 Pls
3381 590 Pls
3383 589 Pls
3383 587 Pls
3384 586 Pls
3394 584 Pls
3396 582 Pls
3399 581 Pls
3400 580 Pls
3402 578 Pls
3403 577 Pls
3405 576 Pls
3405 575 Pls
3406 573 Pls
3407 572 Pls
3408 571 Pls
3410 569 Pls
3411 568 Pls
3412 567 Pls
3412 566 Pls
3416 564 Pls
3417 563 Pls
3418 562 Pls
3418 561 Pls
3419 559 Pls
3423 558 Pls
3424 557 Pls
3425 555 Pls
3426 554 Pls
3431 553 Pls
3431 552 Pls
3438 549 Pls
3440 548 Pls
3442 547 Pls
3442 545 Pls
3449 544 Pls
3449 543 Pls
3455 541 Pls
3455 540 Pls
3456 539 Pls
3456 538 Pls
3457 536 Pls
3459 535 Pls
3462 534 Pls
3464 533 Pls
3464 531 Pls
3465 530 Pls
3465 529 Pls
3466 527 Pls
3468 526 Pls
3469 525 Pls
3471 524 Pls
3471 522 Pls
3474 521 Pls
3479 520 Pls
3480 518 Pls
3481 517 Pls
3483 516 Pls
3484 515 Pls
3486 513 Pls
3489 512 Pls
3492 511 Pls
3494 510 Pls
3494 508 Pls
3497 507 Pls
3498 506 Pls
3499 504 Pls
3500 503 Pls
3501 502 Pls
3502 501 Pls
3503 499 Pls
3507 498 Pls
3509 497 Pls
3510 496 Pls
3516 494 Pls
3517 493 Pls
3521 492 Pls
3524 490 Pls
3524 489 Pls
3525 488 Pls
3526 487 Pls
3534 485 Pls
3535 484 Pls
3536 483 Pls
3546 481 Pls
3547 480 Pls
3549 479 Pls
3552 478 Pls
3555 476 Pls
3556 475 Pls
3560 474 Pls
3566 473 Pls
3571 471 Pls
3575 470 Pls
3577 469 Pls
3582 467 Pls
3585 466 Pls
3586 465 Pls
3586 464 Pls
3589 462 Pls
3590 461 Pls
3594 460 Pls
3594 459 Pls
3595 457 Pls
3595 456 Pls
3595 455 Pls
3596 453 Pls
3598 452 Pls
3600 451 Pls
3600 450 Pls
3608 448 Pls
3612 447 Pls
3619 446 Pls
3624 445 Pls
3631 443 Pls
3632 442 Pls
3634 441 Pls
3635 439 Pls
3635 438 Pls
3640 437 Pls
3641 436 Pls
3644 434 Pls
3647 433 Pls
3648 432 Pls
3648 430 Pls
3649 429 Pls
3650 428 Pls
3651 427 Pls
3659 425 Pls
3666 424 Pls
3670 422 Pls
3674 420 Pls
3676 419 Pls
3677 418 Pls
3680 416 Pls
3701 415 Pls
3703 414 Pls
3708 413 Pls
3714 411 Pls
3715 410 Pls
3720 409 Pls
3723 408 Pls
3731 406 Pls
3738 405 Pls
3755 404 Pls
3762 402 Pls
3773 401 Pls
3775 400 Pls
3781 399 Pls
3791 397 Pls
3795 396 Pls
3796 395 Pls
3799 393 Pls
3799 392 Pls
3810 391 Pls
3822 390 Pls
3822 388 Pls
3823 387 Pls
3841 386 Pls
3857 385 Pls
3865 383 Pls
3866 382 Pls
3882 381 Pls
3892 379 Pls
3896 378 Pls
3916 377 Pls
3921 376 Pls
3928 374 Pls
3952 373 Pls
3952 372 Pls
3953 371 Pls
3955 369 Pls
3958 368 Pls
3962 367 Pls
3983 365 Pls
3994 364 Pls
3999 363 Pls
4000 362 Pls
4012 360 Pls
4012 359 Pls
4014 358 Pls
4024 357 Pls
4029 355 Pls
4037 354 Pls
4048 353 Pls
4052 351 Pls
4062 350 Pls
4075 349 Pls
4078 348 Pls
4098 346 Pls
4129 345 Pls
4132 344 Pls
4181 342 Pls
4188 341 Pls
4193 340 Pls
4219 339 Pls
4220 337 Pls
4223 336 Pls
4248 335 Pls
4250 334 Pls
4256 332 Pls
4270 331 Pls
4281 330 Pls
4303 328 Pls
4315 327 Pls
4340 326 Pls
4365 325 Pls
4375 323 Pls
4377 322 Pls
4398 321 Pls
4418 320 Pls
4430 318 Pls
4444 317 Pls
4452 316 Pls
4456 314 Pls
4458 313 Pls
4462 312 Pls
4472 311 Pls
4490 309 Pls
4491 308 Pls
4523 307 Pls
4619 306 Pls
4633 304 Pls
4662 303 Pls
4703 302 Pls
4733 300 Pls
4799 299 Pls
4817 298 Pls
4828 297 Pls
5092 295 Pls
5122 294 Pls
5304 293 Pls
5376 291 Pls
5420 290 Pls
5571 289 Pls
5659 288 Pls
5836 286 Pls
6334 285 Pls
6535 284 Pls
6772 283 Pls
6777 281 Pls
% End plot #1
2.000 UL
LTb
LCb setrgbcolor
1.000 UL
LTB
LCb setrgbcolor
546 4871 N
546 280 L
6401 0 V
0 4591 V
-6401 0 V
Z stroke
1.000 UP
1.000 UL
LTb
LCb setrgbcolor
stroke
grestore
end
showpage
%%Trailer
%%DocumentFonts: Helvetica
%%Pages: 1
