%!PS-Adobe-2.0
%%Title: packets-s-dist-linlog.eps
%%Creator: gnuplot 5.0 patchlevel 3
%%CreationDate: Mon May 29 11:05:49 2017
%%DocumentFonts: (atend)
%%BoundingBox: 50 50 554 770
%%Orientation: Landscape
%%Pages: (atend)
%%EndComments
%%BeginProlog
/gnudict 256 dict def
gnudict begin
%
% The following true/false flags may be edited by hand if desired.
% The unit line width and grayscale image gamma correction may also be changed.
%
/Color true def
/Blacktext false def
/Solid false def
/Dashlength 1 def
/Landscape true def
/Level1 false def
/Level3 false def
/Rounded false def
/ClipToBoundingBox false def
/SuppressPDFMark false def
/TransparentPatterns false def
/gnulinewidth 5.000 def
/userlinewidth gnulinewidth def
/Gamma 1.0 def
/BackgroundColor {-1.000 -1.000 -1.000} def
%
/vshift -46 def
/dl1 {
  10.0 Dashlength userlinewidth gnulinewidth div mul mul mul
  Rounded { currentlinewidth 0.75 mul sub dup 0 le { pop 0.01 } if } if
} def
/dl2 {
  10.0 Dashlength userlinewidth gnulinewidth div mul mul mul
  Rounded { currentlinewidth 0.75 mul add } if
} def
/hpt_ 31.5 def
/vpt_ 31.5 def
/hpt hpt_ def
/vpt vpt_ def
/doclip {
  ClipToBoundingBox {
    newpath 50 50 moveto 554 50 lineto 554 770 lineto 50 770 lineto closepath
    clip
  } if
} def
%
% Gnuplot Prolog Version 5.1 (Oct 2015)
%
%/SuppressPDFMark true def
%
/M {moveto} bind def
/L {lineto} bind def
/R {rmoveto} bind def
/V {rlineto} bind def
/N {newpath moveto} bind def
/Z {closepath} bind def
/C {setrgbcolor} bind def
/f {rlineto fill} bind def
/g {setgray} bind def
/Gshow {show} def   % May be redefined later in the file to support UTF-8
/vpt2 vpt 2 mul def
/hpt2 hpt 2 mul def
/Lshow {currentpoint stroke M 0 vshift R 
	Blacktext {gsave 0 setgray textshow grestore} {textshow} ifelse} def
/Rshow {currentpoint stroke M dup stringwidth pop neg vshift R
	Blacktext {gsave 0 setgray textshow grestore} {textshow} ifelse} def
/Cshow {currentpoint stroke M dup stringwidth pop -2 div vshift R 
	Blacktext {gsave 0 setgray textshow grestore} {textshow} ifelse} def
/UP {dup vpt_ mul /vpt exch def hpt_ mul /hpt exch def
  /hpt2 hpt 2 mul def /vpt2 vpt 2 mul def} def
/DL {Color {setrgbcolor Solid {pop []} if 0 setdash}
 {pop pop pop 0 setgray Solid {pop []} if 0 setdash} ifelse} def
/BL {stroke userlinewidth 2 mul setlinewidth
	Rounded {1 setlinejoin 1 setlinecap} if} def
/AL {stroke userlinewidth 2 div setlinewidth
	Rounded {1 setlinejoin 1 setlinecap} if} def
/UL {dup gnulinewidth mul /userlinewidth exch def
	dup 1 lt {pop 1} if 10 mul /udl exch def} def
/PL {stroke userlinewidth setlinewidth
	Rounded {1 setlinejoin 1 setlinecap} if} def
3.8 setmiterlimit
% Classic Line colors (version 5.0)
/LCw {1 1 1} def
/LCb {0 0 0} def
/LCa {0 0 0} def
/LC0 {1 0 0} def
/LC1 {0 1 0} def
/LC2 {0 0 1} def
/LC3 {1 0 1} def
/LC4 {0 1 1} def
/LC5 {1 1 0} def
/LC6 {0 0 0} def
/LC7 {1 0.3 0} def
/LC8 {0.5 0.5 0.5} def
% Default dash patterns (version 5.0)
/LTB {BL [] LCb DL} def
/LTw {PL [] 1 setgray} def
/LTb {PL [] LCb DL} def
/LTa {AL [1 udl mul 2 udl mul] 0 setdash LCa setrgbcolor} def
/LT0 {PL [] LC0 DL} def
/LT1 {PL [2 dl1 3 dl2] LC1 DL} def
/LT2 {PL [1 dl1 1.5 dl2] LC2 DL} def
/LT3 {PL [6 dl1 2 dl2 1 dl1 2 dl2] LC3 DL} def
/LT4 {PL [1 dl1 2 dl2 6 dl1 2 dl2 1 dl1 2 dl2] LC4 DL} def
/LT5 {PL [4 dl1 2 dl2] LC5 DL} def
/LT6 {PL [1.5 dl1 1.5 dl2 1.5 dl1 1.5 dl2 1.5 dl1 6 dl2] LC6 DL} def
/LT7 {PL [3 dl1 3 dl2 1 dl1 3 dl2] LC7 DL} def
/LT8 {PL [2 dl1 2 dl2 2 dl1 6 dl2] LC8 DL} def
/SL {[] 0 setdash} def
/Pnt {stroke [] 0 setdash gsave 1 setlinecap M 0 0 V stroke grestore} def
/Dia {stroke [] 0 setdash 2 copy vpt add M
  hpt neg vpt neg V hpt vpt neg V
  hpt vpt V hpt neg vpt V closepath stroke
  Pnt} def
/Pls {stroke [] 0 setdash vpt sub M 0 vpt2 V
  currentpoint stroke M
  hpt neg vpt neg R hpt2 0 V stroke
 } def
/Box {stroke [] 0 setdash 2 copy exch hpt sub exch vpt add M
  0 vpt2 neg V hpt2 0 V 0 vpt2 V
  hpt2 neg 0 V closepath stroke
  Pnt} def
/Crs {stroke [] 0 setdash exch hpt sub exch vpt add M
  hpt2 vpt2 neg V currentpoint stroke M
  hpt2 neg 0 R hpt2 vpt2 V stroke} def
/TriU {stroke [] 0 setdash 2 copy vpt 1.12 mul add M
  hpt neg vpt -1.62 mul V
  hpt 2 mul 0 V
  hpt neg vpt 1.62 mul V closepath stroke
  Pnt} def
/Star {2 copy Pls Crs} def
/BoxF {stroke [] 0 setdash exch hpt sub exch vpt add M
  0 vpt2 neg V hpt2 0 V 0 vpt2 V
  hpt2 neg 0 V closepath fill} def
/TriUF {stroke [] 0 setdash vpt 1.12 mul add M
  hpt neg vpt -1.62 mul V
  hpt 2 mul 0 V
  hpt neg vpt 1.62 mul V closepath fill} def
/TriD {stroke [] 0 setdash 2 copy vpt 1.12 mul sub M
  hpt neg vpt 1.62 mul V
  hpt 2 mul 0 V
  hpt neg vpt -1.62 mul V closepath stroke
  Pnt} def
/TriDF {stroke [] 0 setdash vpt 1.12 mul sub M
  hpt neg vpt 1.62 mul V
  hpt 2 mul 0 V
  hpt neg vpt -1.62 mul V closepath fill} def
/DiaF {stroke [] 0 setdash vpt add M
  hpt neg vpt neg V hpt vpt neg V
  hpt vpt V hpt neg vpt V closepath fill} def
/Pent {stroke [] 0 setdash 2 copy gsave
  translate 0 hpt M 4 {72 rotate 0 hpt L} repeat
  closepath stroke grestore Pnt} def
/PentF {stroke [] 0 setdash gsave
  translate 0 hpt M 4 {72 rotate 0 hpt L} repeat
  closepath fill grestore} def
/Circle {stroke [] 0 setdash 2 copy
  hpt 0 360 arc stroke Pnt} def
/CircleF {stroke [] 0 setdash hpt 0 360 arc fill} def
/C0 {BL [] 0 setdash 2 copy moveto vpt 90 450 arc} bind def
/C1 {BL [] 0 setdash 2 copy moveto
	2 copy vpt 0 90 arc closepath fill
	vpt 0 360 arc closepath} bind def
/C2 {BL [] 0 setdash 2 copy moveto
	2 copy vpt 90 180 arc closepath fill
	vpt 0 360 arc closepath} bind def
/C3 {BL [] 0 setdash 2 copy moveto
	2 copy vpt 0 180 arc closepath fill
	vpt 0 360 arc closepath} bind def
/C4 {BL [] 0 setdash 2 copy moveto
	2 copy vpt 180 270 arc closepath fill
	vpt 0 360 arc closepath} bind def
/C5 {BL [] 0 setdash 2 copy moveto
	2 copy vpt 0 90 arc
	2 copy moveto
	2 copy vpt 180 270 arc closepath fill
	vpt 0 360 arc} bind def
/C6 {BL [] 0 setdash 2 copy moveto
	2 copy vpt 90 270 arc closepath fill
	vpt 0 360 arc closepath} bind def
/C7 {BL [] 0 setdash 2 copy moveto
	2 copy vpt 0 270 arc closepath fill
	vpt 0 360 arc closepath} bind def
/C8 {BL [] 0 setdash 2 copy moveto
	2 copy vpt 270 360 arc closepath fill
	vpt 0 360 arc closepath} bind def
/C9 {BL [] 0 setdash 2 copy moveto
	2 copy vpt 270 450 arc closepath fill
	vpt 0 360 arc closepath} bind def
/C10 {BL [] 0 setdash 2 copy 2 copy moveto vpt 270 360 arc closepath fill
	2 copy moveto
	2 copy vpt 90 180 arc closepath fill
	vpt 0 360 arc closepath} bind def
/C11 {BL [] 0 setdash 2 copy moveto
	2 copy vpt 0 180 arc closepath fill
	2 copy moveto
	2 copy vpt 270 360 arc closepath fill
	vpt 0 360 arc closepath} bind def
/C12 {BL [] 0 setdash 2 copy moveto
	2 copy vpt 180 360 arc closepath fill
	vpt 0 360 arc closepath} bind def
/C13 {BL [] 0 setdash 2 copy moveto
	2 copy vpt 0 90 arc closepath fill
	2 copy moveto
	2 copy vpt 180 360 arc closepath fill
	vpt 0 360 arc closepath} bind def
/C14 {BL [] 0 setdash 2 copy moveto
	2 copy vpt 90 360 arc closepath fill
	vpt 0 360 arc} bind def
/C15 {BL [] 0 setdash 2 copy vpt 0 360 arc closepath fill
	vpt 0 360 arc closepath} bind def
/Rec {newpath 4 2 roll moveto 1 index 0 rlineto 0 exch rlineto
	neg 0 rlineto closepath} bind def
/Square {dup Rec} bind def
/Bsquare {vpt sub exch vpt sub exch vpt2 Square} bind def
/S0 {BL [] 0 setdash 2 copy moveto 0 vpt rlineto BL Bsquare} bind def
/S1 {BL [] 0 setdash 2 copy vpt Square fill Bsquare} bind def
/S2 {BL [] 0 setdash 2 copy exch vpt sub exch vpt Square fill Bsquare} bind def
/S3 {BL [] 0 setdash 2 copy exch vpt sub exch vpt2 vpt Rec fill Bsquare} bind def
/S4 {BL [] 0 setdash 2 copy exch vpt sub exch vpt sub vpt Square fill Bsquare} bind def
/S5 {BL [] 0 setdash 2 copy 2 copy vpt Square fill
	exch vpt sub exch vpt sub vpt Square fill Bsquare} bind def
/S6 {BL [] 0 setdash 2 copy exch vpt sub exch vpt sub vpt vpt2 Rec fill Bsquare} bind def
/S7 {BL [] 0 setdash 2 copy exch vpt sub exch vpt sub vpt vpt2 Rec fill
	2 copy vpt Square fill Bsquare} bind def
/S8 {BL [] 0 setdash 2 copy vpt sub vpt Square fill Bsquare} bind def
/S9 {BL [] 0 setdash 2 copy vpt sub vpt vpt2 Rec fill Bsquare} bind def
/S10 {BL [] 0 setdash 2 copy vpt sub vpt Square fill 2 copy exch vpt sub exch vpt Square fill
	Bsquare} bind def
/S11 {BL [] 0 setdash 2 copy vpt sub vpt Square fill 2 copy exch vpt sub exch vpt2 vpt Rec fill
	Bsquare} bind def
/S12 {BL [] 0 setdash 2 copy exch vpt sub exch vpt sub vpt2 vpt Rec fill Bsquare} bind def
/S13 {BL [] 0 setdash 2 copy exch vpt sub exch vpt sub vpt2 vpt Rec fill
	2 copy vpt Square fill Bsquare} bind def
/S14 {BL [] 0 setdash 2 copy exch vpt sub exch vpt sub vpt2 vpt Rec fill
	2 copy exch vpt sub exch vpt Square fill Bsquare} bind def
/S15 {BL [] 0 setdash 2 copy Bsquare fill Bsquare} bind def
/D0 {gsave translate 45 rotate 0 0 S0 stroke grestore} bind def
/D1 {gsave translate 45 rotate 0 0 S1 stroke grestore} bind def
/D2 {gsave translate 45 rotate 0 0 S2 stroke grestore} bind def
/D3 {gsave translate 45 rotate 0 0 S3 stroke grestore} bind def
/D4 {gsave translate 45 rotate 0 0 S4 stroke grestore} bind def
/D5 {gsave translate 45 rotate 0 0 S5 stroke grestore} bind def
/D6 {gsave translate 45 rotate 0 0 S6 stroke grestore} bind def
/D7 {gsave translate 45 rotate 0 0 S7 stroke grestore} bind def
/D8 {gsave translate 45 rotate 0 0 S8 stroke grestore} bind def
/D9 {gsave translate 45 rotate 0 0 S9 stroke grestore} bind def
/D10 {gsave translate 45 rotate 0 0 S10 stroke grestore} bind def
/D11 {gsave translate 45 rotate 0 0 S11 stroke grestore} bind def
/D12 {gsave translate 45 rotate 0 0 S12 stroke grestore} bind def
/D13 {gsave translate 45 rotate 0 0 S13 stroke grestore} bind def
/D14 {gsave translate 45 rotate 0 0 S14 stroke grestore} bind def
/D15 {gsave translate 45 rotate 0 0 S15 stroke grestore} bind def
/DiaE {stroke [] 0 setdash vpt add M
  hpt neg vpt neg V hpt vpt neg V
  hpt vpt V hpt neg vpt V closepath stroke} def
/BoxE {stroke [] 0 setdash exch hpt sub exch vpt add M
  0 vpt2 neg V hpt2 0 V 0 vpt2 V
  hpt2 neg 0 V closepath stroke} def
/TriUE {stroke [] 0 setdash vpt 1.12 mul add M
  hpt neg vpt -1.62 mul V
  hpt 2 mul 0 V
  hpt neg vpt 1.62 mul V closepath stroke} def
/TriDE {stroke [] 0 setdash vpt 1.12 mul sub M
  hpt neg vpt 1.62 mul V
  hpt 2 mul 0 V
  hpt neg vpt -1.62 mul V closepath stroke} def
/PentE {stroke [] 0 setdash gsave
  translate 0 hpt M 4 {72 rotate 0 hpt L} repeat
  closepath stroke grestore} def
/CircE {stroke [] 0 setdash 
  hpt 0 360 arc stroke} def
/Opaque {gsave closepath 1 setgray fill grestore 0 setgray closepath} def
/DiaW {stroke [] 0 setdash vpt add M
  hpt neg vpt neg V hpt vpt neg V
  hpt vpt V hpt neg vpt V Opaque stroke} def
/BoxW {stroke [] 0 setdash exch hpt sub exch vpt add M
  0 vpt2 neg V hpt2 0 V 0 vpt2 V
  hpt2 neg 0 V Opaque stroke} def
/TriUW {stroke [] 0 setdash vpt 1.12 mul add M
  hpt neg vpt -1.62 mul V
  hpt 2 mul 0 V
  hpt neg vpt 1.62 mul V Opaque stroke} def
/TriDW {stroke [] 0 setdash vpt 1.12 mul sub M
  hpt neg vpt 1.62 mul V
  hpt 2 mul 0 V
  hpt neg vpt -1.62 mul V Opaque stroke} def
/PentW {stroke [] 0 setdash gsave
  translate 0 hpt M 4 {72 rotate 0 hpt L} repeat
  Opaque stroke grestore} def
/CircW {stroke [] 0 setdash 
  hpt 0 360 arc Opaque stroke} def
/BoxFill {gsave Rec 1 setgray fill grestore} def
/Density {
  /Fillden exch def
  currentrgbcolor
  /ColB exch def /ColG exch def /ColR exch def
  /ColR ColR Fillden mul Fillden sub 1 add def
  /ColG ColG Fillden mul Fillden sub 1 add def
  /ColB ColB Fillden mul Fillden sub 1 add def
  ColR ColG ColB setrgbcolor} def
/BoxColFill {gsave Rec PolyFill} def
/PolyFill {gsave Density fill grestore grestore} def
/h {rlineto rlineto rlineto gsave closepath fill grestore} bind def
%
% PostScript Level 1 Pattern Fill routine for rectangles
% Usage: x y w h s a XX PatternFill
%	x,y = lower left corner of box to be filled
%	w,h = width and height of box
%	  a = angle in degrees between lines and x-axis
%	 XX = 0/1 for no/yes cross-hatch
%
/PatternFill {gsave /PFa [ 9 2 roll ] def
  PFa 0 get PFa 2 get 2 div add PFa 1 get PFa 3 get 2 div add translate
  PFa 2 get -2 div PFa 3 get -2 div PFa 2 get PFa 3 get Rec
  TransparentPatterns {} {gsave 1 setgray fill grestore} ifelse
  clip
  currentlinewidth 0.5 mul setlinewidth
  /PFs PFa 2 get dup mul PFa 3 get dup mul add sqrt def
  0 0 M PFa 5 get rotate PFs -2 div dup translate
  0 1 PFs PFa 4 get div 1 add floor cvi
	{PFa 4 get mul 0 M 0 PFs V} for
  0 PFa 6 get ne {
	0 1 PFs PFa 4 get div 1 add floor cvi
	{PFa 4 get mul 0 2 1 roll M PFs 0 V} for
 } if
  stroke grestore} def
%
/languagelevel where
 {pop languagelevel} {1} ifelse
dup 2 lt
	{/InterpretLevel1 true def
	 /InterpretLevel3 false def}
	{/InterpretLevel1 Level1 def
	 2 gt
	    {/InterpretLevel3 Level3 def}
	    {/InterpretLevel3 false def}
	 ifelse }
 ifelse
%
% PostScript level 2 pattern fill definitions
%
/Level2PatternFill {
/Tile8x8 {/PaintType 2 /PatternType 1 /TilingType 1 /BBox [0 0 8 8] /XStep 8 /YStep 8}
	bind def
/KeepColor {currentrgbcolor [/Pattern /DeviceRGB] setcolorspace} bind def
<< Tile8x8
 /PaintProc {0.5 setlinewidth pop 0 0 M 8 8 L 0 8 M 8 0 L stroke} 
>> matrix makepattern
/Pat1 exch def
<< Tile8x8
 /PaintProc {0.5 setlinewidth pop 0 0 M 8 8 L 0 8 M 8 0 L stroke
	0 4 M 4 8 L 8 4 L 4 0 L 0 4 L stroke}
>> matrix makepattern
/Pat2 exch def
<< Tile8x8
 /PaintProc {0.5 setlinewidth pop 0 0 M 0 8 L
	8 8 L 8 0 L 0 0 L fill}
>> matrix makepattern
/Pat3 exch def
<< Tile8x8
 /PaintProc {0.5 setlinewidth pop -4 8 M 8 -4 L
	0 12 M 12 0 L stroke}
>> matrix makepattern
/Pat4 exch def
<< Tile8x8
 /PaintProc {0.5 setlinewidth pop -4 0 M 8 12 L
	0 -4 M 12 8 L stroke}
>> matrix makepattern
/Pat5 exch def
<< Tile8x8
 /PaintProc {0.5 setlinewidth pop -2 8 M 4 -4 L
	0 12 M 8 -4 L 4 12 M 10 0 L stroke}
>> matrix makepattern
/Pat6 exch def
<< Tile8x8
 /PaintProc {0.5 setlinewidth pop -2 0 M 4 12 L
	0 -4 M 8 12 L 4 -4 M 10 8 L stroke}
>> matrix makepattern
/Pat7 exch def
<< Tile8x8
 /PaintProc {0.5 setlinewidth pop 8 -2 M -4 4 L
	12 0 M -4 8 L 12 4 M 0 10 L stroke}
>> matrix makepattern
/Pat8 exch def
<< Tile8x8
 /PaintProc {0.5 setlinewidth pop 0 -2 M 12 4 L
	-4 0 M 12 8 L -4 4 M 8 10 L stroke}
>> matrix makepattern
/Pat9 exch def
/Pattern1 {PatternBgnd KeepColor Pat1 setpattern} bind def
/Pattern2 {PatternBgnd KeepColor Pat2 setpattern} bind def
/Pattern3 {PatternBgnd KeepColor Pat3 setpattern} bind def
/Pattern4 {PatternBgnd KeepColor Landscape {Pat5} {Pat4} ifelse setpattern} bind def
/Pattern5 {PatternBgnd KeepColor Landscape {Pat4} {Pat5} ifelse setpattern} bind def
/Pattern6 {PatternBgnd KeepColor Landscape {Pat9} {Pat6} ifelse setpattern} bind def
/Pattern7 {PatternBgnd KeepColor Landscape {Pat8} {Pat7} ifelse setpattern} bind def
} def
%
%
%End of PostScript Level 2 code
%
/PatternBgnd {
  TransparentPatterns {} {gsave 1 setgray fill grestore} ifelse
} def
%
% Substitute for Level 2 pattern fill codes with
% grayscale if Level 2 support is not selected.
%
/Level1PatternFill {
/Pattern1 {0.250 Density} bind def
/Pattern2 {0.500 Density} bind def
/Pattern3 {0.750 Density} bind def
/Pattern4 {0.125 Density} bind def
/Pattern5 {0.375 Density} bind def
/Pattern6 {0.625 Density} bind def
/Pattern7 {0.875 Density} bind def
} def
%
% Now test for support of Level 2 code
%
Level1 {Level1PatternFill} {Level2PatternFill} ifelse
%
/Symbol-Oblique /Symbol findfont [1 0 .167 1 0 0] makefont
dup length dict begin {1 index /FID eq {pop pop} {def} ifelse} forall
currentdict end definefont pop
%
/MFshow {
   { dup 5 get 3 ge
     { 5 get 3 eq {gsave} {grestore} ifelse }
     {dup dup 0 get findfont exch 1 get scalefont setfont
     [ currentpoint ] exch dup 2 get 0 exch R dup 5 get 2 ne {dup dup 6
     get exch 4 get {textshow} {stringwidth pop 0 R} ifelse }if dup 5 get 0 eq
     {dup 3 get {2 get neg 0 exch R pop} {pop aload pop M} ifelse} {dup 5
     get 1 eq {dup 2 get exch dup 3 get exch 6 get stringwidth pop -2 div
     dup 0 R} {dup 6 get stringwidth pop -2 div 0 R 6 get
     textshow 2 index {aload pop M neg 3 -1 roll neg R pop pop} {pop pop pop
     pop aload pop M} ifelse }ifelse }ifelse }
     ifelse }
   forall} def
/Gswidth {dup type /stringtype eq {stringwidth} {pop (n) stringwidth} ifelse} def
/MFwidth {0 exch { dup 5 get 3 ge { 5 get 3 eq { 0 } { pop } ifelse }
 {dup 3 get{dup dup 0 get findfont exch 1 get scalefont setfont
     6 get Gswidth pop add} {pop} ifelse} ifelse} forall} def
/MLshow { currentpoint stroke M
  0 exch R
  Blacktext {gsave 0 setgray MFshow grestore} {MFshow} ifelse } bind def
/MRshow { currentpoint stroke M
  exch dup MFwidth neg 3 -1 roll R
  Blacktext {gsave 0 setgray MFshow grestore} {MFshow} ifelse } bind def
/MCshow { currentpoint stroke M
  exch dup MFwidth -2 div 3 -1 roll R
  Blacktext {gsave 0 setgray MFshow grestore} {MFshow} ifelse } bind def
/XYsave    { [( ) 1 2 true false 3 ()] } bind def
/XYrestore { [( ) 1 2 true false 4 ()] } bind def
Level1 SuppressPDFMark or 
{} {
/SDict 10 dict def
systemdict /pdfmark known not {
  userdict /pdfmark systemdict /cleartomark get put
} if
SDict begin [
  /Title (packets-s-dist-linlog.eps)
  /Subject (gnuplot plot)
  /Creator (gnuplot 5.0 patchlevel 3)
  /Author (tiphaine)
%  /Producer (gnuplot)
%  /Keywords ()
  /CreationDate (Mon May 29 11:05:49 2017)
  /DOCINFO pdfmark
end
} ifelse
%
% Support for boxed text - Ethan A Merritt May 2005
%
/InitTextBox { userdict /TBy2 3 -1 roll put userdict /TBx2 3 -1 roll put
           userdict /TBy1 3 -1 roll put userdict /TBx1 3 -1 roll put
	   /Boxing true def } def
/ExtendTextBox { Boxing
    { gsave dup false charpath pathbbox
      dup TBy2 gt {userdict /TBy2 3 -1 roll put} {pop} ifelse
      dup TBx2 gt {userdict /TBx2 3 -1 roll put} {pop} ifelse
      dup TBy1 lt {userdict /TBy1 3 -1 roll put} {pop} ifelse
      dup TBx1 lt {userdict /TBx1 3 -1 roll put} {pop} ifelse
      grestore } if } def
/PopTextBox { newpath TBx1 TBxmargin sub TBy1 TBymargin sub M
               TBx1 TBxmargin sub TBy2 TBymargin add L
	       TBx2 TBxmargin add TBy2 TBymargin add L
	       TBx2 TBxmargin add TBy1 TBymargin sub L closepath } def
/DrawTextBox { PopTextBox stroke /Boxing false def} def
/FillTextBox { gsave PopTextBox 1 1 1 setrgbcolor fill grestore /Boxing false def} def
0 0 0 0 InitTextBox
/TBxmargin 20 def
/TBymargin 20 def
/Boxing false def
/textshow { ExtendTextBox Gshow } def
%
% redundant definitions for compatibility with prologue.ps older than 5.0.2
/LTB {BL [] LCb DL} def
/LTb {PL [] LCb DL} def
end
%%EndProlog
%%Page: 1 1
gnudict begin
gsave
doclip
50 50 translate
0.100 0.100 scale
90 rotate
0 -5040 translate
0 setgray
newpath
(Helvetica) findfont 140 scalefont setfont
BackgroundColor 0 lt 3 1 roll 0 lt exch 0 lt or or not {gsave BackgroundColor C clippath fill grestore} if
1.000 UL
LTb
LCb setrgbcolor
462 280 M
63 0 V
6422 0 R
-63 0 V
stroke
378 280 M
[ [(Helvetica) 140.0 0.0 true true 0 ( 1)]
] -46.7 MRshow
1.000 UL
LTb
LCb setrgbcolor
462 1662 M
31 0 V
6454 0 R
-31 0 V
462 2470 M
31 0 V
6454 0 R
-31 0 V
462 3044 M
31 0 V
6454 0 R
-31 0 V
462 3489 M
31 0 V
6454 0 R
-31 0 V
462 3852 M
31 0 V
6454 0 R
-31 0 V
462 4160 M
31 0 V
6454 0 R
-31 0 V
462 4426 M
31 0 V
6454 0 R
-31 0 V
462 4661 M
31 0 V
6454 0 R
-31 0 V
462 4871 M
63 0 V
6422 0 R
-63 0 V
stroke
378 4871 M
[ [(Helvetica) 140.0 0.0 true true 0 ( 10)]
] -46.7 MRshow
1.000 UL
LTb
LCb setrgbcolor
462 280 M
0 63 V
0 4528 R
0 -63 V
stroke
462 140 M
[ [(Helvetica) 140.0 0.0 true true 0 ( 0)]
] -46.7 MCshow
1.000 UL
LTb
LCb setrgbcolor
1388 280 M
0 63 V
0 4528 R
0 -63 V
stroke
1388 140 M
[ [(Helvetica) 140.0 0.0 true true 0 ( 10000)]
] -46.7 MCshow
1.000 UL
LTb
LCb setrgbcolor
2315 280 M
0 63 V
0 4528 R
0 -63 V
stroke
2315 140 M
[ [(Helvetica) 140.0 0.0 true true 0 ( 20000)]
] -46.7 MCshow
1.000 UL
LTb
LCb setrgbcolor
3241 280 M
0 63 V
0 4528 R
0 -63 V
stroke
3241 140 M
[ [(Helvetica) 140.0 0.0 true true 0 ( 30000)]
] -46.7 MCshow
1.000 UL
LTb
LCb setrgbcolor
4168 280 M
0 63 V
0 4528 R
0 -63 V
stroke
4168 140 M
[ [(Helvetica) 140.0 0.0 true true 0 ( 40000)]
] -46.7 MCshow
1.000 UL
LTb
LCb setrgbcolor
5094 280 M
0 63 V
0 4528 R
0 -63 V
stroke
5094 140 M
[ [(Helvetica) 140.0 0.0 true true 0 ( 50000)]
] -46.7 MCshow
1.000 UL
LTb
LCb setrgbcolor
6021 280 M
0 63 V
0 4528 R
0 -63 V
stroke
6021 140 M
[ [(Helvetica) 140.0 0.0 true true 0 ( 60000)]
] -46.7 MCshow
1.000 UL
LTb
LCb setrgbcolor
6947 280 M
0 63 V
0 4528 R
0 -63 V
stroke
6947 140 M
[ [(Helvetica) 140.0 0.0 true true 0 ( 70000)]
] -46.7 MCshow
1.000 UL
LTb
LCb setrgbcolor
1.000 UL
LTB
LCb setrgbcolor
462 4871 N
462 280 L
6485 0 V
0 4591 V
-6485 0 V
Z stroke
1.000 UP
1.000 UL
LTb
LCb setrgbcolor
% Begin plot #1
1.000 UP
1.000 UL
LTb
0.58 0.00 0.83 C 1130 280 Pls
1882 280 Pls
1921 280 Pls
1947 280 Pls
2020 280 Pls
2046 280 Pls
2047 280 Pls
2060 280 Pls
2066 280 Pls
2070 280 Pls
2076 280 Pls
2089 280 Pls
2091 280 Pls
2094 280 Pls
2096 280 Pls
2098 280 Pls
2101 280 Pls
2102 280 Pls
2105 280 Pls
2107 280 Pls
2109 280 Pls
2111 280 Pls
2112 280 Pls
2112 280 Pls
2113 280 Pls
2118 280 Pls
2118 280 Pls
2125 280 Pls
2125 280 Pls
2132 280 Pls
2135 280 Pls
2135 280 Pls
2137 280 Pls
2138 280 Pls
2138 280 Pls
2139 280 Pls
2140 280 Pls
2142 280 Pls
2142 280 Pls
2144 280 Pls
2149 1662 Pls
2150 280 Pls
2151 280 Pls
2152 280 Pls
2152 280 Pls
2152 280 Pls
2153 280 Pls
2155 280 Pls
2155 280 Pls
2155 280 Pls
2156 280 Pls
2159 280 Pls
2159 280 Pls
2160 280 Pls
2160 280 Pls
2163 280 Pls
2163 280 Pls
2165 280 Pls
2166 1662 Pls
2167 280 Pls
2167 280 Pls
2168 280 Pls
2169 280 Pls
2170 280 Pls
2171 280 Pls
2172 280 Pls
2174 1662 Pls
2175 280 Pls
2176 280 Pls
2176 280 Pls
2176 280 Pls
2178 280 Pls
2179 280 Pls
2179 280 Pls
2180 280 Pls
2181 280 Pls
2182 280 Pls
2183 280 Pls
2183 280 Pls
2183 280 Pls
2185 280 Pls
2185 280 Pls
2186 280 Pls
2186 280 Pls
2187 1662 Pls
2188 280 Pls
2189 280 Pls
2191 280 Pls
2191 280 Pls
2192 280 Pls
2192 280 Pls
2194 280 Pls
2196 280 Pls
2198 280 Pls
2199 280 Pls
2200 280 Pls
2202 280 Pls
2203 280 Pls
2204 280 Pls
2205 280 Pls
2205 280 Pls
2206 280 Pls
2209 280 Pls
2210 280 Pls
2210 280 Pls
2211 280 Pls
2211 280 Pls
2212 280 Pls
2214 280 Pls
2215 280 Pls
2216 280 Pls
2217 280 Pls
2218 280 Pls
2218 280 Pls
2220 280 Pls
2220 280 Pls
2223 280 Pls
2223 280 Pls
2225 280 Pls
2225 280 Pls
2227 280 Pls
2228 280 Pls
2229 280 Pls
2229 280 Pls
2229 280 Pls
2230 280 Pls
2233 280 Pls
2234 280 Pls
2234 280 Pls
2235 280 Pls
2236 280 Pls
2237 280 Pls
2237 280 Pls
2237 280 Pls
2237 280 Pls
2237 280 Pls
2238 280 Pls
2238 280 Pls
2239 1662 Pls
2239 280 Pls
2240 280 Pls
2240 1662 Pls
2242 280 Pls
2243 280 Pls
2244 280 Pls
2244 280 Pls
2245 280 Pls
2245 280 Pls
2246 280 Pls
2246 280 Pls
2247 1662 Pls
2247 280 Pls
2247 280 Pls
2248 280 Pls
2249 280 Pls
2249 280 Pls
2249 280 Pls
2250 280 Pls
2250 280 Pls
2250 280 Pls
2250 280 Pls
2251 280 Pls
2252 280 Pls
2252 280 Pls
2254 280 Pls
2254 280 Pls
2255 280 Pls
2256 280 Pls
2259 1662 Pls
2259 280 Pls
2260 280 Pls
2261 280 Pls
2261 280 Pls
2261 280 Pls
2262 280 Pls
2263 280 Pls
2263 280 Pls
2264 280 Pls
2266 280 Pls
2266 280 Pls
2267 280 Pls
2269 280 Pls
2270 280 Pls
2271 280 Pls
2272 280 Pls
2273 280 Pls
2273 280 Pls
2273 280 Pls
2274 280 Pls
2274 280 Pls
2274 280 Pls
2275 1662 Pls
2275 280 Pls
2275 280 Pls
2276 280 Pls
2277 280 Pls
2277 280 Pls
2277 280 Pls
2278 280 Pls
2279 280 Pls
2279 280 Pls
2279 280 Pls
2280 280 Pls
2281 1662 Pls
2281 280 Pls
2281 280 Pls
2282 280 Pls
2282 1662 Pls
2283 280 Pls
2283 280 Pls
2284 280 Pls
2284 280 Pls
2284 280 Pls
2284 280 Pls
2285 280 Pls
2285 280 Pls
2286 280 Pls
2286 280 Pls
2286 280 Pls
2287 1662 Pls
2287 280 Pls
2287 280 Pls
2287 280 Pls
2288 280 Pls
2289 280 Pls
2289 280 Pls
2290 280 Pls
2290 280 Pls
2291 280 Pls
2291 280 Pls
2291 280 Pls
2292 280 Pls
2293 280 Pls
2293 280 Pls
2293 280 Pls
2294 280 Pls
2295 1662 Pls
2295 280 Pls
2296 280 Pls
2296 280 Pls
2296 280 Pls
2297 1662 Pls
2297 280 Pls
2298 280 Pls
2298 280 Pls
2298 280 Pls
2300 280 Pls
2301 1662 Pls
2301 280 Pls
2301 280 Pls
2301 280 Pls
2302 280 Pls
2302 280 Pls
2303 1662 Pls
2303 280 Pls
2303 280 Pls
2304 280 Pls
2304 280 Pls
2304 280 Pls
2305 280 Pls
2305 1662 Pls
2306 280 Pls
2306 280 Pls
2307 280 Pls
2307 280 Pls
2307 280 Pls
2308 1662 Pls
2309 280 Pls
2309 280 Pls
2309 280 Pls
2309 280 Pls
2309 280 Pls
2310 280 Pls
2310 1662 Pls
2311 1662 Pls
2311 280 Pls
2312 280 Pls
2312 280 Pls
2312 280 Pls
2314 1662 Pls
2314 280 Pls
2314 280 Pls
2315 280 Pls
2315 280 Pls
2316 280 Pls
2316 280 Pls
2317 280 Pls
2317 280 Pls
2317 1662 Pls
2318 280 Pls
2318 280 Pls
2319 280 Pls
2319 1662 Pls
2319 280 Pls
2319 280 Pls
2319 280 Pls
2319 280 Pls
2320 280 Pls
2320 1662 Pls
2321 280 Pls
2321 280 Pls
2322 280 Pls
2322 280 Pls
2322 280 Pls
2322 280 Pls
2322 280 Pls
2322 280 Pls
2323 280 Pls
2323 280 Pls
2324 1662 Pls
2325 280 Pls
2325 280 Pls
2325 280 Pls
2326 280 Pls
2327 280 Pls
2327 280 Pls
2329 280 Pls
2329 280 Pls
2329 280 Pls
2329 280 Pls
2329 280 Pls
2331 1662 Pls
2331 280 Pls
2331 280 Pls
2332 280 Pls
2333 280 Pls
2333 280 Pls
2333 280 Pls
2333 1662 Pls
2334 280 Pls
2334 1662 Pls
2334 280 Pls
2334 280 Pls
2335 280 Pls
2335 280 Pls
2336 280 Pls
2337 280 Pls
2337 280 Pls
2337 280 Pls
2338 280 Pls
2338 280 Pls
2339 2470 Pls
2339 280 Pls
2339 280 Pls
2339 280 Pls
2339 280 Pls
2339 280 Pls
2340 280 Pls
2341 280 Pls
2341 280 Pls
2342 280 Pls
2342 280 Pls
2343 280 Pls
2343 280 Pls
2344 280 Pls
2344 280 Pls
2344 280 Pls
2344 1662 Pls
2345 280 Pls
2346 1662 Pls
2346 280 Pls
2346 280 Pls
2346 280 Pls
2347 280 Pls
2347 280 Pls
2347 280 Pls
2348 280 Pls
2348 280 Pls
2348 280 Pls
2349 280 Pls
2349 280 Pls
2350 280 Pls
2350 1662 Pls
2350 280 Pls
2350 280 Pls
2351 280 Pls
2351 280 Pls
2351 280 Pls
2351 1662 Pls
2351 280 Pls
2352 280 Pls
2352 280 Pls
2352 280 Pls
2353 280 Pls
2353 280 Pls
2353 280 Pls
2353 280 Pls
2355 280 Pls
2357 280 Pls
2358 280 Pls
2358 280 Pls
2359 280 Pls
2359 280 Pls
2360 280 Pls
2360 280 Pls
2361 280 Pls
2361 280 Pls
2361 280 Pls
2361 280 Pls
2362 280 Pls
2363 280 Pls
2363 1662 Pls
2363 280 Pls
2363 280 Pls
2363 280 Pls
2364 280 Pls
2364 1662 Pls
2364 280 Pls
2364 280 Pls
2364 280 Pls
2365 280 Pls
2365 1662 Pls
2365 1662 Pls
2366 280 Pls
2366 280 Pls
2366 280 Pls
2367 280 Pls
2367 280 Pls
2367 280 Pls
2367 280 Pls
2368 280 Pls
2368 280 Pls
2369 280 Pls
2369 280 Pls
2369 280 Pls
2370 280 Pls
2370 1662 Pls
2370 280 Pls
2370 280 Pls
2371 280 Pls
2372 1662 Pls
2372 280 Pls
2373 280 Pls
2374 280 Pls
2374 1662 Pls
2374 280 Pls
2375 280 Pls
2375 280 Pls
2375 280 Pls
2376 280 Pls
2376 280 Pls
2376 1662 Pls
2376 2470 Pls
2377 280 Pls
2377 280 Pls
2377 280 Pls
2378 1662 Pls
2378 280 Pls
2379 1662 Pls
2380 280 Pls
2380 280 Pls
2380 280 Pls
2381 280 Pls
2381 1662 Pls
2381 280 Pls
2382 280 Pls
2382 280 Pls
2384 280 Pls
2384 280 Pls
2384 1662 Pls
2385 280 Pls
2385 280 Pls
2386 280 Pls
2386 1662 Pls
2386 280 Pls
2387 280 Pls
2387 280 Pls
2388 280 Pls
2388 280 Pls
2388 280 Pls
2389 280 Pls
2389 280 Pls
2390 280 Pls
2390 280 Pls
2390 2470 Pls
2391 280 Pls
2391 280 Pls
2391 280 Pls
2391 280 Pls
2391 280 Pls
2391 280 Pls
2392 1662 Pls
2392 280 Pls
2392 280 Pls
2392 1662 Pls
2393 280 Pls
2393 280 Pls
2393 280 Pls
2394 280 Pls
2394 280 Pls
2394 280 Pls
2395 280 Pls
2395 1662 Pls
2395 280 Pls
2396 280 Pls
2396 1662 Pls
2396 280 Pls
2397 1662 Pls
2397 280 Pls
2397 280 Pls
2397 1662 Pls
2397 280 Pls
2398 1662 Pls
2398 280 Pls
2398 280 Pls
2398 1662 Pls
2399 280 Pls
2399 280 Pls
2399 1662 Pls
2399 280 Pls
2400 280 Pls
2400 1662 Pls
2400 280 Pls
2401 280 Pls
2402 280 Pls
2402 280 Pls
2402 280 Pls
2403 280 Pls
2403 280 Pls
2403 280 Pls
2404 280 Pls
2404 280 Pls
2405 280 Pls
2405 280 Pls
2405 280 Pls
2406 280 Pls
2406 280 Pls
2406 280 Pls
2407 1662 Pls
2407 1662 Pls
2407 280 Pls
2407 280 Pls
2408 280 Pls
2408 280 Pls
2409 280 Pls
2409 1662 Pls
2409 280 Pls
2409 1662 Pls
2410 280 Pls
2410 280 Pls
2410 280 Pls
2410 280 Pls
2410 280 Pls
2410 1662 Pls
2411 280 Pls
2411 280 Pls
2411 280 Pls
2411 280 Pls
2411 1662 Pls
2413 280 Pls
2414 280 Pls
2414 280 Pls
2414 1662 Pls
2415 280 Pls
2415 280 Pls
2415 280 Pls
2415 280 Pls
2416 280 Pls
2416 280 Pls
2416 280 Pls
2416 280 Pls
2417 280 Pls
2417 280 Pls
2417 280 Pls
2417 280 Pls
2417 280 Pls
2417 280 Pls
2418 280 Pls
2418 1662 Pls
2418 280 Pls
2419 280 Pls
2419 280 Pls
2420 280 Pls
2420 280 Pls
2420 280 Pls
2420 280 Pls
2420 280 Pls
2421 280 Pls
2421 280 Pls
2421 1662 Pls
2422 280 Pls
2422 280 Pls
2422 280 Pls
2422 280 Pls
2424 280 Pls
2424 280 Pls
2424 280 Pls
2425 280 Pls
2425 280 Pls
2426 280 Pls
2426 280 Pls
2426 280 Pls
2427 280 Pls
2427 280 Pls
2427 1662 Pls
2428 280 Pls
2428 280 Pls
2428 280 Pls
2429 280 Pls
2429 280 Pls
2429 280 Pls
2429 280 Pls
2430 280 Pls
2430 280 Pls
2431 280 Pls
2431 280 Pls
2431 280 Pls
2432 280 Pls
2432 280 Pls
2432 1662 Pls
2433 280 Pls
2433 1662 Pls
2433 280 Pls
2434 280 Pls
2434 280 Pls
2435 280 Pls
2436 280 Pls
2436 280 Pls
2436 280 Pls
2437 280 Pls
2437 280 Pls
2437 280 Pls
2437 1662 Pls
2438 1662 Pls
2438 280 Pls
2438 280 Pls
2438 280 Pls
2439 280 Pls
2440 280 Pls
2440 1662 Pls
2441 280 Pls
2441 1662 Pls
2441 280 Pls
2442 280 Pls
2442 280 Pls
2442 2470 Pls
2442 280 Pls
2443 280 Pls
2443 280 Pls
2443 280 Pls
2443 280 Pls
2443 280 Pls
2443 280 Pls
2443 280 Pls
2444 280 Pls
2444 1662 Pls
2444 280 Pls
2444 280 Pls
2445 1662 Pls
2445 280 Pls
2445 280 Pls
2446 280 Pls
2446 2470 Pls
2446 280 Pls
2447 1662 Pls
2447 280 Pls
2447 280 Pls
2448 280 Pls
2448 280 Pls
2448 280 Pls
2448 280 Pls
2449 280 Pls
2449 280 Pls
2449 1662 Pls
2449 280 Pls
2449 280 Pls
2450 1662 Pls
2450 280 Pls
2450 1662 Pls
2451 280 Pls
2451 280 Pls
2451 1662 Pls
2451 280 Pls
2452 1662 Pls
2452 1662 Pls
2452 1662 Pls
2452 280 Pls
2453 280 Pls
2453 280 Pls
2453 1662 Pls
2453 280 Pls
2454 280 Pls
2454 280 Pls
2454 280 Pls
2455 280 Pls
2455 280 Pls
2456 1662 Pls
2456 280 Pls
2456 280 Pls
2456 280 Pls
2457 280 Pls
2458 280 Pls
2458 280 Pls
2458 280 Pls
2459 280 Pls
2459 280 Pls
2459 280 Pls
2460 280 Pls
2460 280 Pls
2460 280 Pls
2461 280 Pls
2461 280 Pls
2461 280 Pls
2462 280 Pls
2462 1662 Pls
2462 280 Pls
2463 280 Pls
2463 280 Pls
2463 280 Pls
2464 280 Pls
2464 1662 Pls
2464 280 Pls
2464 1662 Pls
2464 280 Pls
2465 1662 Pls
2465 280 Pls
2465 280 Pls
2465 1662 Pls
2465 280 Pls
2466 1662 Pls
2467 280 Pls
2467 280 Pls
2467 2470 Pls
2468 280 Pls
2468 280 Pls
2468 280 Pls
2468 280 Pls
2468 280 Pls
2469 280 Pls
2469 2470 Pls
2469 280 Pls
2469 280 Pls
2470 280 Pls
2470 280 Pls
2470 280 Pls
2470 280 Pls
2470 280 Pls
2471 280 Pls
2471 280 Pls
2471 1662 Pls
2471 280 Pls
2472 280 Pls
2472 280 Pls
2472 280 Pls
2473 280 Pls
2473 280 Pls
2473 1662 Pls
2473 280 Pls
2473 280 Pls
2474 280 Pls
2474 280 Pls
2474 280 Pls
2474 280 Pls
2474 280 Pls
2475 280 Pls
2475 280 Pls
2475 280 Pls
2476 280 Pls
2476 280 Pls
2477 280 Pls
2477 1662 Pls
2477 280 Pls
2477 280 Pls
2477 280 Pls
2478 280 Pls
2478 280 Pls
2478 280 Pls
2478 280 Pls
2479 280 Pls
2479 280 Pls
2479 280 Pls
2479 280 Pls
2480 1662 Pls
2480 280 Pls
2480 280 Pls
2480 280 Pls
2480 280 Pls
2481 280 Pls
2481 280 Pls
2481 280 Pls
2481 280 Pls
2482 280 Pls
2482 1662 Pls
2482 280 Pls
2482 280 Pls
2483 280 Pls
2483 280 Pls
2484 1662 Pls
2484 280 Pls
2484 280 Pls
2484 280 Pls
2485 280 Pls
2485 280 Pls
2485 280 Pls
2485 280 Pls
2485 280 Pls
2486 1662 Pls
2486 280 Pls
2486 280 Pls
2486 280 Pls
2486 280 Pls
2487 280 Pls
2487 280 Pls
2487 280 Pls
2487 280 Pls
2488 1662 Pls
2488 1662 Pls
2488 280 Pls
2488 280 Pls
2488 280 Pls
2489 280 Pls
2489 2470 Pls
2490 280 Pls
2490 280 Pls
2490 280 Pls
2490 1662 Pls
2491 280 Pls
2491 280 Pls
2491 1662 Pls
2491 1662 Pls
2491 1662 Pls
2492 280 Pls
2492 280 Pls
2492 280 Pls
2492 280 Pls
2493 280 Pls
2493 280 Pls
2493 280 Pls
2493 280 Pls
2493 280 Pls
2494 280 Pls
2494 280 Pls
2495 1662 Pls
2495 280 Pls
2495 280 Pls
2495 280 Pls
2496 280 Pls
2496 280 Pls
2496 2470 Pls
2496 280 Pls
2496 280 Pls
2496 280 Pls
2496 280 Pls
2497 280 Pls
2497 2470 Pls
2497 280 Pls
2497 280 Pls
2497 1662 Pls
2497 280 Pls
2498 280 Pls
2498 280 Pls
2498 280 Pls
2498 280 Pls
2499 280 Pls
2499 280 Pls
2499 2470 Pls
2499 280 Pls
2499 280 Pls
2500 280 Pls
2500 280 Pls
2500 280 Pls
2501 280 Pls
2501 280 Pls
2501 280 Pls
2501 1662 Pls
2502 280 Pls
2502 280 Pls
2502 280 Pls
2503 280 Pls
2503 280 Pls
2503 280 Pls
2503 280 Pls
2503 2470 Pls
2503 280 Pls
2504 1662 Pls
2504 280 Pls
2504 280 Pls
2504 1662 Pls
2505 1662 Pls
2505 280 Pls
2505 280 Pls
2505 280 Pls
2505 280 Pls
2506 280 Pls
2506 280 Pls
2506 280 Pls
2507 280 Pls
2507 280 Pls
2507 280 Pls
2507 280 Pls
2507 280 Pls
2508 280 Pls
2508 1662 Pls
2508 280 Pls
2508 280 Pls
2509 280 Pls
2509 1662 Pls
2509 280 Pls
2509 280 Pls
2510 280 Pls
2510 280 Pls
2511 1662 Pls
2511 280 Pls
2512 280 Pls
2512 280 Pls
2512 1662 Pls
2512 280 Pls
2513 280 Pls
2513 280 Pls
2514 1662 Pls
2514 280 Pls
2515 280 Pls
2515 280 Pls
2515 280 Pls
2515 280 Pls
2515 280 Pls
2516 280 Pls
2517 280 Pls
2517 280 Pls
2517 280 Pls
2517 1662 Pls
2517 280 Pls
2517 280 Pls
2517 280 Pls
2518 280 Pls
2518 280 Pls
2518 280 Pls
2518 280 Pls
2519 280 Pls
2519 280 Pls
2519 280 Pls
2520 280 Pls
2520 280 Pls
2520 1662 Pls
2520 280 Pls
2520 280 Pls
2520 280 Pls
2521 280 Pls
2521 280 Pls
2521 280 Pls
2521 280 Pls
2521 280 Pls
2522 280 Pls
2522 280 Pls
2522 1662 Pls
2523 1662 Pls
2524 280 Pls
2524 280 Pls
2524 1662 Pls
2524 1662 Pls
2525 280 Pls
2525 1662 Pls
2526 280 Pls
2526 280 Pls
2527 280 Pls
2527 280 Pls
2527 280 Pls
2527 280 Pls
2527 2470 Pls
2527 280 Pls
2527 280 Pls
2528 280 Pls
2528 280 Pls
2528 280 Pls
2528 280 Pls
2528 280 Pls
2529 280 Pls
2529 1662 Pls
2530 1662 Pls
2530 1662 Pls
2530 1662 Pls
2531 2470 Pls
2531 280 Pls
2531 280 Pls
2531 1662 Pls
2532 1662 Pls
2532 280 Pls
2532 280 Pls
2532 280 Pls
2532 280 Pls
2532 280 Pls
2532 280 Pls
2532 1662 Pls
2533 280 Pls
2533 280 Pls
2534 280 Pls
2534 2470 Pls
2535 1662 Pls
2535 280 Pls
2535 280 Pls
2535 280 Pls
2536 280 Pls
2536 280 Pls
2536 280 Pls
2536 280 Pls
2536 280 Pls
2536 280 Pls
2536 280 Pls
2536 280 Pls
2537 280 Pls
2537 280 Pls
2537 280 Pls
2537 280 Pls
2537 1662 Pls
2538 280 Pls
2538 280 Pls
2538 280 Pls
2538 280 Pls
2538 1662 Pls
2538 280 Pls
2539 280 Pls
2539 280 Pls
2539 280 Pls
2539 1662 Pls
2539 1662 Pls
2539 1662 Pls
2539 280 Pls
2540 1662 Pls
2540 280 Pls
2540 280 Pls
2540 280 Pls
2540 280 Pls
2540 280 Pls
2541 280 Pls
2541 280 Pls
2541 280 Pls
2541 280 Pls
2542 280 Pls
2542 280 Pls
2542 280 Pls
2542 280 Pls
2543 280 Pls
2543 1662 Pls
2543 1662 Pls
2543 280 Pls
2544 280 Pls
2544 280 Pls
2544 280 Pls
2545 280 Pls
2545 280 Pls
2545 1662 Pls
2546 280 Pls
2546 280 Pls
2546 280 Pls
2547 280 Pls
2547 1662 Pls
2547 280 Pls
2547 280 Pls
2547 280 Pls
2548 280 Pls
2548 2470 Pls
2548 280 Pls
2548 280 Pls
2549 1662 Pls
2549 280 Pls
2549 1662 Pls
2549 280 Pls
2549 280 Pls
2550 280 Pls
2550 280 Pls
2550 280 Pls
2551 280 Pls
2551 280 Pls
2551 280 Pls
2551 1662 Pls
2552 280 Pls
2552 280 Pls
2552 280 Pls
2552 1662 Pls
2552 280 Pls
2553 280 Pls
2553 280 Pls
2553 280 Pls
2554 280 Pls
2554 280 Pls
2555 280 Pls
2555 280 Pls
2555 280 Pls
2555 280 Pls
2555 1662 Pls
2556 280 Pls
2556 280 Pls
2556 280 Pls
2556 280 Pls
2557 280 Pls
2557 280 Pls
2557 280 Pls
2557 280 Pls
2557 280 Pls
2557 280 Pls
2557 1662 Pls
2557 1662 Pls
2558 2470 Pls
2558 1662 Pls
2558 280 Pls
2558 1662 Pls
2559 280 Pls
2559 1662 Pls
2559 280 Pls
2559 280 Pls
2560 280 Pls
2560 280 Pls
2560 3044 Pls
2560 280 Pls
2560 280 Pls
2561 1662 Pls
2561 280 Pls
2561 280 Pls
2561 280 Pls
2561 280 Pls
2562 1662 Pls
2562 280 Pls
2562 280 Pls
2562 280 Pls
2562 1662 Pls
2562 280 Pls
2563 280 Pls
2563 2470 Pls
2563 280 Pls
2563 3044 Pls
2564 280 Pls
2564 280 Pls
2565 280 Pls
2565 280 Pls
2565 280 Pls
2565 280 Pls
2565 280 Pls
2565 280 Pls
2566 280 Pls
2566 280 Pls
2566 280 Pls
2566 280 Pls
2566 1662 Pls
2566 280 Pls
2567 1662 Pls
2567 280 Pls
2567 280 Pls
2567 280 Pls
2567 280 Pls
2568 280 Pls
2569 1662 Pls
2570 280 Pls
2570 280 Pls
2570 280 Pls
2570 1662 Pls
2571 1662 Pls
2571 2470 Pls
2571 280 Pls
2571 280 Pls
2571 280 Pls
2571 280 Pls
2572 280 Pls
2572 280 Pls
2572 2470 Pls
2573 280 Pls
2573 280 Pls
2573 280 Pls
2574 280 Pls
2574 280 Pls
2575 280 Pls
2575 280 Pls
2575 280 Pls
2576 280 Pls
2576 280 Pls
2576 280 Pls
2576 280 Pls
2576 280 Pls
2577 1662 Pls
2577 280 Pls
2577 1662 Pls
2577 1662 Pls
2577 280 Pls
2578 280 Pls
2578 280 Pls
2579 280 Pls
2579 280 Pls
2580 280 Pls
2580 1662 Pls
2580 1662 Pls
2581 280 Pls
2581 280 Pls
2581 1662 Pls
2581 280 Pls
2581 1662 Pls
2581 2470 Pls
2581 280 Pls
2582 280 Pls
2582 280 Pls
2582 280 Pls
2583 280 Pls
2583 280 Pls
2584 280 Pls
2584 280 Pls
2584 280 Pls
2584 1662 Pls
2585 280 Pls
2585 280 Pls
2585 2470 Pls
2585 280 Pls
2585 280 Pls
2585 280 Pls
2585 280 Pls
2586 280 Pls
2586 280 Pls
2586 280 Pls
2586 280 Pls
2586 280 Pls
2586 280 Pls
2586 280 Pls
2587 280 Pls
2587 280 Pls
2587 1662 Pls
2588 280 Pls
2588 280 Pls
2588 280 Pls
2588 280 Pls
2588 280 Pls
2589 280 Pls
2589 280 Pls
2589 1662 Pls
2590 280 Pls
2590 280 Pls
2590 280 Pls
2590 280 Pls
2590 1662 Pls
2591 280 Pls
2591 1662 Pls
2591 280 Pls
2591 280 Pls
2591 280 Pls
2592 280 Pls
2592 280 Pls
2592 280 Pls
2592 280 Pls
2592 1662 Pls
2593 280 Pls
2593 1662 Pls
2594 280 Pls
2594 1662 Pls
2595 1662 Pls
2595 280 Pls
2595 1662 Pls
2595 280 Pls
2595 1662 Pls
2595 280 Pls
2595 1662 Pls
2595 280 Pls
2596 280 Pls
2596 1662 Pls
2596 280 Pls
2596 280 Pls
2597 280 Pls
2597 280 Pls
2597 280 Pls
2597 1662 Pls
2597 1662 Pls
2598 280 Pls
2599 280 Pls
2599 280 Pls
2599 280 Pls
2600 1662 Pls
2600 1662 Pls
2600 280 Pls
2600 1662 Pls
2601 1662 Pls
2601 280 Pls
2601 280 Pls
2602 280 Pls
2602 280 Pls
2602 280 Pls
2602 280 Pls
2603 280 Pls
2603 280 Pls
2603 280 Pls
2603 280 Pls
2604 280 Pls
2604 280 Pls
2604 2470 Pls
2604 280 Pls
2604 280 Pls
2605 280 Pls
2605 280 Pls
2605 280 Pls
2605 280 Pls
2605 280 Pls
2605 1662 Pls
2605 280 Pls
2605 280 Pls
2606 280 Pls
2606 280 Pls
2606 1662 Pls
2606 2470 Pls
2606 280 Pls
2607 1662 Pls
2607 1662 Pls
2607 280 Pls
2607 280 Pls
2608 280 Pls
2608 1662 Pls
2608 280 Pls
2609 280 Pls
2609 280 Pls
2609 280 Pls
2609 280 Pls
2609 280 Pls
2609 280 Pls
2609 1662 Pls
2610 280 Pls
2610 1662 Pls
2610 280 Pls
2610 280 Pls
2610 280 Pls
2611 280 Pls
2611 2470 Pls
2611 280 Pls
2611 1662 Pls
2612 280 Pls
2612 1662 Pls
2612 1662 Pls
2612 280 Pls
2613 1662 Pls
2613 280 Pls
2613 1662 Pls
2614 280 Pls
2614 1662 Pls
2614 280 Pls
2614 280 Pls
2615 280 Pls
2615 280 Pls
2615 280 Pls
2615 1662 Pls
2615 1662 Pls
2615 2470 Pls
2615 280 Pls
2616 1662 Pls
2616 280 Pls
2616 280 Pls
2616 280 Pls
2616 280 Pls
2616 1662 Pls
2617 280 Pls
2618 280 Pls
2618 280 Pls
2619 1662 Pls
2619 1662 Pls
2619 280 Pls
2619 280 Pls
2620 280 Pls
2620 280 Pls
2620 280 Pls
2620 1662 Pls
2620 280 Pls
2620 280 Pls
2621 280 Pls
2622 1662 Pls
2622 280 Pls
2622 1662 Pls
2623 280 Pls
2623 280 Pls
2623 280 Pls
2624 280 Pls
2624 280 Pls
2624 2470 Pls
2624 280 Pls
2624 280 Pls
2624 1662 Pls
2625 280 Pls
2625 280 Pls
2625 1662 Pls
2626 280 Pls
2626 280 Pls
2626 280 Pls
2626 280 Pls
2626 280 Pls
2627 280 Pls
2627 280 Pls
2628 280 Pls
2628 280 Pls
2628 280 Pls
2629 1662 Pls
2629 280 Pls
2629 280 Pls
2630 280 Pls
2630 280 Pls
2630 280 Pls
2630 280 Pls
2630 280 Pls
2631 280 Pls
2631 280 Pls
2631 1662 Pls
2631 280 Pls
2631 280 Pls
2632 280 Pls
2632 1662 Pls
2632 1662 Pls
2633 280 Pls
2633 1662 Pls
2633 1662 Pls
2633 1662 Pls
2633 280 Pls
2634 280 Pls
2634 280 Pls
2634 1662 Pls
2634 280 Pls
2634 1662 Pls
2635 280 Pls
2635 280 Pls
2635 280 Pls
2635 280 Pls
2636 280 Pls
2636 280 Pls
2636 280 Pls
2636 280 Pls
2637 280 Pls
2637 280 Pls
2637 280 Pls
2637 1662 Pls
2637 280 Pls
2638 280 Pls
2638 1662 Pls
2638 280 Pls
2638 280 Pls
2638 280 Pls
2639 1662 Pls
2639 280 Pls
2639 280 Pls
2639 1662 Pls
2639 280 Pls
2639 280 Pls
2640 280 Pls
2640 1662 Pls
2640 280 Pls
2640 280 Pls
2641 1662 Pls
2641 280 Pls
2641 280 Pls
2642 280 Pls
2642 280 Pls
2642 280 Pls
2643 280 Pls
2643 1662 Pls
2644 1662 Pls
2644 1662 Pls
2644 280 Pls
2644 1662 Pls
2644 280 Pls
2645 280 Pls
2645 280 Pls
2645 280 Pls
2645 280 Pls
2645 1662 Pls
2646 280 Pls
2647 280 Pls
2647 280 Pls
2647 280 Pls
2648 280 Pls
2648 1662 Pls
2648 280 Pls
2648 280 Pls
2648 280 Pls
2649 280 Pls
2649 280 Pls
2649 280 Pls
2650 280 Pls
2650 280 Pls
2650 280 Pls
2650 280 Pls
2650 280 Pls
2650 280 Pls
2651 280 Pls
2651 280 Pls
2651 280 Pls
2652 280 Pls
2652 280 Pls
2652 280 Pls
2652 280 Pls
2652 280 Pls
2652 280 Pls
2653 280 Pls
2653 1662 Pls
2653 280 Pls
2653 280 Pls
2654 280 Pls
2654 1662 Pls
2654 280 Pls
2654 280 Pls
2655 1662 Pls
2655 1662 Pls
2655 280 Pls
2656 280 Pls
2656 280 Pls
2657 280 Pls
2658 1662 Pls
2658 280 Pls
2658 280 Pls
2658 280 Pls
2658 1662 Pls
2659 280 Pls
2659 1662 Pls
2659 280 Pls
2660 280 Pls
2660 1662 Pls
2661 2470 Pls
2661 280 Pls
2661 280 Pls
2661 280 Pls
2661 280 Pls
2661 280 Pls
2661 280 Pls
2662 280 Pls
2662 280 Pls
2662 280 Pls
2663 280 Pls
2663 280 Pls
2663 280 Pls
2663 280 Pls
2663 280 Pls
2664 280 Pls
2664 280 Pls
2664 280 Pls
2664 1662 Pls
2664 280 Pls
2664 280 Pls
2665 1662 Pls
2665 280 Pls
2665 280 Pls
2666 280 Pls
2666 280 Pls
2667 280 Pls
2667 280 Pls
2667 280 Pls
2667 280 Pls
2668 280 Pls
2668 280 Pls
2668 280 Pls
2668 280 Pls
2668 280 Pls
2668 280 Pls
2669 280 Pls
2669 280 Pls
2669 280 Pls
2669 280 Pls
2669 280 Pls
2670 280 Pls
2671 1662 Pls
2671 280 Pls
2671 280 Pls
2671 280 Pls
2672 280 Pls
2672 280 Pls
2672 1662 Pls
2672 280 Pls
2673 1662 Pls
2673 280 Pls
2673 280 Pls
2673 280 Pls
2674 280 Pls
2674 280 Pls
2674 280 Pls
2674 280 Pls
2674 280 Pls
2675 280 Pls
2675 280 Pls
2675 280 Pls
2676 280 Pls
2676 280 Pls
2676 280 Pls
2676 280 Pls
2676 280 Pls
2677 1662 Pls
2677 280 Pls
2677 280 Pls
2677 280 Pls
2677 280 Pls
2677 280 Pls
2678 280 Pls
2678 280 Pls
2678 280 Pls
2678 2470 Pls
2678 280 Pls
2678 280 Pls
2679 280 Pls
2679 280 Pls
2679 1662 Pls
2679 280 Pls
2680 280 Pls
2680 280 Pls
2680 280 Pls
2680 1662 Pls
2681 280 Pls
2681 1662 Pls
2681 1662 Pls
2681 280 Pls
2682 280 Pls
2682 280 Pls
2682 1662 Pls
2682 280 Pls
2682 1662 Pls
2683 280 Pls
2683 280 Pls
2683 280 Pls
2683 280 Pls
2683 1662 Pls
2684 280 Pls
2684 280 Pls
2684 280 Pls
2685 280 Pls
2685 1662 Pls
2685 280 Pls
2686 1662 Pls
2686 280 Pls
2687 280 Pls
2687 280 Pls
2688 280 Pls
2688 280 Pls
2688 280 Pls
2689 280 Pls
2689 280 Pls
2689 1662 Pls
2689 3044 Pls
2690 280 Pls
2690 280 Pls
2690 1662 Pls
2690 280 Pls
2691 280 Pls
2691 3044 Pls
2691 280 Pls
2691 280 Pls
2692 280 Pls
2692 280 Pls
2692 280 Pls
2692 280 Pls
2692 280 Pls
2692 1662 Pls
2693 280 Pls
2693 1662 Pls
2693 280 Pls
2693 280 Pls
2693 280 Pls
2693 280 Pls
2694 280 Pls
2694 280 Pls
2694 280 Pls
2695 1662 Pls
2695 280 Pls
2695 280 Pls
2696 1662 Pls
2696 1662 Pls
2696 1662 Pls
2697 280 Pls
2697 280 Pls
2697 1662 Pls
2697 1662 Pls
2698 280 Pls
2698 280 Pls
2698 280 Pls
2698 280 Pls
2698 280 Pls
2699 280 Pls
2699 280 Pls
2699 2470 Pls
2699 280 Pls
2700 280 Pls
2700 280 Pls
2700 280 Pls
2700 280 Pls
2701 1662 Pls
2701 1662 Pls
2702 280 Pls
2702 280 Pls
2702 1662 Pls
2703 280 Pls
2703 280 Pls
2703 280 Pls
2704 280 Pls
2705 280 Pls
2705 280 Pls
2705 280 Pls
2705 280 Pls
2705 280 Pls
2705 1662 Pls
2705 280 Pls
2706 280 Pls
2706 280 Pls
2706 280 Pls
2706 1662 Pls
2707 280 Pls
2707 280 Pls
2708 280 Pls
2708 280 Pls
2708 280 Pls
2708 1662 Pls
2708 280 Pls
2709 280 Pls
2709 280 Pls
2710 280 Pls
2710 2470 Pls
2710 3044 Pls
2710 280 Pls
2711 2470 Pls
2711 280 Pls
2712 280 Pls
2712 280 Pls
2712 280 Pls
2712 280 Pls
2712 1662 Pls
2713 280 Pls
2713 280 Pls
2713 280 Pls
2713 280 Pls
2714 280 Pls
2714 280 Pls
2714 280 Pls
2714 280 Pls
2714 280 Pls
2714 280 Pls
2715 280 Pls
2715 280 Pls
2715 1662 Pls
2715 280 Pls
2716 1662 Pls
2716 280 Pls
2716 1662 Pls
2716 1662 Pls
2717 280 Pls
2717 1662 Pls
2717 280 Pls
2718 1662 Pls
2718 280 Pls
2718 280 Pls
2719 280 Pls
2719 280 Pls
2720 280 Pls
2720 280 Pls
2720 280 Pls
2721 280 Pls
2721 280 Pls
2721 280 Pls
2721 1662 Pls
2722 280 Pls
2722 280 Pls
2723 280 Pls
2723 280 Pls
2724 1662 Pls
2724 280 Pls
2724 280 Pls
2724 280 Pls
2725 280 Pls
2725 1662 Pls
2725 280 Pls
2726 280 Pls
2726 280 Pls
2727 1662 Pls
2727 280 Pls
2727 280 Pls
2727 280 Pls
2728 1662 Pls
2728 1662 Pls
2729 280 Pls
2729 1662 Pls
2729 280 Pls
2729 2470 Pls
2729 280 Pls
2729 280 Pls
2730 280 Pls
2730 1662 Pls
2730 280 Pls
2730 1662 Pls
2731 280 Pls
2731 1662 Pls
2731 1662 Pls
2731 280 Pls
2732 280 Pls
2732 280 Pls
2732 280 Pls
2732 280 Pls
2733 280 Pls
2733 280 Pls
2733 280 Pls
2733 280 Pls
2734 280 Pls
2734 280 Pls
2734 280 Pls
2734 280 Pls
2735 280 Pls
2735 280 Pls
2735 280 Pls
2736 280 Pls
2736 1662 Pls
2736 280 Pls
2737 280 Pls
2738 280 Pls
2738 280 Pls
2738 1662 Pls
2738 1662 Pls
2738 280 Pls
2739 2470 Pls
2739 280 Pls
2739 1662 Pls
2739 280 Pls
2739 280 Pls
2739 280 Pls
2740 280 Pls
2740 280 Pls
2740 280 Pls
2740 280 Pls
2741 280 Pls
2741 280 Pls
2741 1662 Pls
2742 280 Pls
2742 280 Pls
2743 280 Pls
2743 1662 Pls
2743 1662 Pls
2744 280 Pls
2744 280 Pls
2744 280 Pls
2744 1662 Pls
2744 280 Pls
2745 280 Pls
2745 280 Pls
2745 1662 Pls
2745 1662 Pls
2745 280 Pls
2746 280 Pls
2746 280 Pls
2746 280 Pls
2746 280 Pls
2747 280 Pls
2747 280 Pls
2748 280 Pls
2748 280 Pls
2749 280 Pls
2749 280 Pls
2749 280 Pls
2750 280 Pls
2750 1662 Pls
2751 1662 Pls
2751 280 Pls
2751 280 Pls
2751 280 Pls
2752 280 Pls
2753 280 Pls
2753 280 Pls
2753 2470 Pls
2753 280 Pls
2753 280 Pls
2754 280 Pls
2754 280 Pls
2755 280 Pls
2755 280 Pls
2755 280 Pls
2755 280 Pls
2755 280 Pls
2755 280 Pls
2755 280 Pls
2756 280 Pls
2756 280 Pls
2756 1662 Pls
2757 280 Pls
2757 1662 Pls
2757 280 Pls
2758 280 Pls
2758 280 Pls
2758 280 Pls
2758 280 Pls
2759 280 Pls
2759 280 Pls
2759 280 Pls
2759 280 Pls
2759 1662 Pls
2759 280 Pls
2760 1662 Pls
2760 280 Pls
2760 280 Pls
2760 280 Pls
2761 280 Pls
2761 280 Pls
2761 280 Pls
2762 280 Pls
2763 1662 Pls
2763 280 Pls
2763 280 Pls
2764 280 Pls
2765 280 Pls
2765 3489 Pls
2767 280 Pls
2767 280 Pls
2767 280 Pls
2768 280 Pls
2768 280 Pls
2768 280 Pls
2768 280 Pls
2768 280 Pls
2768 1662 Pls
2769 280 Pls
2769 280 Pls
2769 280 Pls
2769 280 Pls
2769 280 Pls
2770 1662 Pls
2770 280 Pls
2770 280 Pls
2770 280 Pls
2770 280 Pls
2771 280 Pls
2772 280 Pls
2772 280 Pls
2772 280 Pls
2772 280 Pls
2772 280 Pls
2773 280 Pls
2773 1662 Pls
2773 280 Pls
2773 280 Pls
2773 280 Pls
2774 280 Pls
2774 280 Pls
2775 1662 Pls
2776 280 Pls
2776 280 Pls
2777 280 Pls
2778 280 Pls
2778 1662 Pls
2778 280 Pls
2778 280 Pls
2779 280 Pls
2779 280 Pls
2779 280 Pls
2779 280 Pls
2779 280 Pls
2780 280 Pls
2780 280 Pls
2780 280 Pls
2781 280 Pls
2781 280 Pls
2781 1662 Pls
2782 280 Pls
2782 1662 Pls
2782 280 Pls
2782 280 Pls
2782 280 Pls
2783 280 Pls
2783 280 Pls
2783 280 Pls
2783 280 Pls
2783 280 Pls
2783 280 Pls
2783 280 Pls
2784 280 Pls
2784 280 Pls
2784 280 Pls
2784 280 Pls
2784 280 Pls
2785 280 Pls
2785 2470 Pls
2785 280 Pls
2785 280 Pls
2785 280 Pls
2785 280 Pls
2786 280 Pls
2786 280 Pls
2786 280 Pls
2788 280 Pls
2789 280 Pls
2789 1662 Pls
2789 1662 Pls
2789 1662 Pls
2790 280 Pls
2790 280 Pls
2790 280 Pls
2791 280 Pls
2791 280 Pls
2791 280 Pls
2792 280 Pls
2792 280 Pls
2792 280 Pls
2792 280 Pls
2792 280 Pls
2793 1662 Pls
2793 280 Pls
2794 280 Pls
2794 280 Pls
2794 280 Pls
2794 280 Pls
2794 280 Pls
2795 280 Pls
2795 280 Pls
2795 280 Pls
2795 280 Pls
2796 280 Pls
2796 280 Pls
2797 280 Pls
2798 280 Pls
2798 280 Pls
2798 280 Pls
2799 280 Pls
2799 280 Pls
2799 280 Pls
2799 1662 Pls
2800 280 Pls
2800 280 Pls
2800 280 Pls
2800 280 Pls
2801 1662 Pls
2801 280 Pls
2802 1662 Pls
2802 280 Pls
2802 280 Pls
2803 280 Pls
2803 1662 Pls
2803 280 Pls
2804 280 Pls
2804 280 Pls
2804 280 Pls
2804 280 Pls
2804 280 Pls
2805 280 Pls
2805 280 Pls
2805 2470 Pls
2805 1662 Pls
2806 280 Pls
2806 280 Pls
2806 280 Pls
2807 280 Pls
2807 280 Pls
2808 280 Pls
2808 2470 Pls
2808 280 Pls
2808 280 Pls
2808 280 Pls
2808 280 Pls
2809 280 Pls
2810 280 Pls
2810 280 Pls
2810 280 Pls
2810 280 Pls
2811 1662 Pls
2811 280 Pls
2811 280 Pls
2811 280 Pls
2812 1662 Pls
2812 280 Pls
2812 280 Pls
2812 280 Pls
2812 280 Pls
2813 280 Pls
2813 280 Pls
2813 280 Pls
2814 280 Pls
2814 280 Pls
2814 280 Pls
2815 280 Pls
2815 280 Pls
2815 280 Pls
2815 280 Pls
2815 280 Pls
2816 280 Pls
2816 280 Pls
2816 280 Pls
2817 280 Pls
2817 280 Pls
2817 280 Pls
2818 280 Pls
2818 280 Pls
2818 280 Pls
2819 280 Pls
2819 280 Pls
2819 280 Pls
2820 280 Pls
2821 280 Pls
2821 280 Pls
2821 280 Pls
2822 2470 Pls
2822 1662 Pls
2822 280 Pls
2822 280 Pls
2823 1662 Pls
2823 280 Pls
2823 280 Pls
2824 280 Pls
2824 280 Pls
2824 280 Pls
2824 280 Pls
2824 280 Pls
2825 280 Pls
2826 280 Pls
2826 280 Pls
2826 280 Pls
2827 280 Pls
2827 280 Pls
2827 280 Pls
2827 1662 Pls
2827 280 Pls
2827 280 Pls
2828 280 Pls
2828 280 Pls
2828 1662 Pls
2828 280 Pls
2828 280 Pls
2828 280 Pls
2828 280 Pls
2829 280 Pls
2829 1662 Pls
2829 280 Pls
2829 280 Pls
2829 280 Pls
2830 280 Pls
2830 1662 Pls
2830 1662 Pls
2830 280 Pls
2831 280 Pls
2831 280 Pls
2831 280 Pls
2833 1662 Pls
2833 280 Pls
2833 1662 Pls
2834 280 Pls
2834 280 Pls
2834 280 Pls
2834 1662 Pls
2834 280 Pls
2834 280 Pls
2835 280 Pls
2835 280 Pls
2835 3044 Pls
2835 280 Pls
2836 280 Pls
2836 280 Pls
2836 1662 Pls
2837 280 Pls
2837 280 Pls
2837 1662 Pls
2837 280 Pls
2838 280 Pls
2838 280 Pls
2838 280 Pls
2838 280 Pls
2839 1662 Pls
2840 1662 Pls
2840 280 Pls
2840 1662 Pls
2840 280 Pls
2840 280 Pls
2841 2470 Pls
2841 3044 Pls
2842 280 Pls
2843 1662 Pls
2843 280 Pls
2843 280 Pls
2843 280 Pls
2844 280 Pls
2844 280 Pls
2845 280 Pls
2845 280 Pls
2845 280 Pls
2846 280 Pls
2846 280 Pls
2847 280 Pls
2847 280 Pls
2847 280 Pls
2847 1662 Pls
2848 280 Pls
2848 1662 Pls
2849 1662 Pls
2849 280 Pls
2850 280 Pls
2850 280 Pls
2850 280 Pls
2851 280 Pls
2851 280 Pls
2852 280 Pls
2853 280 Pls
2853 1662 Pls
2853 280 Pls
2855 1662 Pls
2855 1662 Pls
2855 280 Pls
2855 280 Pls
2855 280 Pls
2856 280 Pls
2856 280 Pls
2856 280 Pls
2857 280 Pls
2857 2470 Pls
2858 280 Pls
2858 280 Pls
2858 280 Pls
2858 280 Pls
2858 280 Pls
2859 280 Pls
2860 280 Pls
2860 280 Pls
2861 280 Pls
2861 280 Pls
2861 280 Pls
2862 280 Pls
2863 280 Pls
2863 280 Pls
2863 280 Pls
2863 280 Pls
2864 280 Pls
2864 280 Pls
2864 1662 Pls
2865 280 Pls
2865 280 Pls
2865 280 Pls
2865 280 Pls
2865 1662 Pls
2865 280 Pls
2865 2470 Pls
2867 280 Pls
2867 280 Pls
2867 280 Pls
2868 1662 Pls
2868 280 Pls
2869 280 Pls
2869 280 Pls
2869 280 Pls
2869 280 Pls
2870 280 Pls
2871 280 Pls
2871 1662 Pls
2871 280 Pls
2872 280 Pls
2872 280 Pls
2872 280 Pls
2872 280 Pls
2872 280 Pls
2872 280 Pls
2873 280 Pls
2873 280 Pls
2873 280 Pls
2874 280 Pls
2874 280 Pls
2874 280 Pls
2875 280 Pls
2875 280 Pls
2876 280 Pls
2876 280 Pls
2876 280 Pls
2877 280 Pls
2877 1662 Pls
2878 280 Pls
2878 280 Pls
2878 280 Pls
2878 280 Pls
2878 280 Pls
2879 280 Pls
2879 280 Pls
2880 280 Pls
2880 280 Pls
2880 280 Pls
2880 280 Pls
2881 280 Pls
2881 280 Pls
2881 280 Pls
2881 280 Pls
2882 280 Pls
2882 1662 Pls
2882 280 Pls
2883 1662 Pls
2883 280 Pls
2884 280 Pls
2884 280 Pls
2885 280 Pls
2885 280 Pls
2886 280 Pls
2887 280 Pls
2888 280 Pls
2888 280 Pls
2889 280 Pls
2889 280 Pls
2890 280 Pls
2890 280 Pls
2890 280 Pls
2891 280 Pls
2892 280 Pls
2892 280 Pls
2892 280 Pls
2892 280 Pls
2893 1662 Pls
2894 280 Pls
2894 280 Pls
2895 280 Pls
2895 1662 Pls
2895 280 Pls
2896 280 Pls
2896 1662 Pls
2896 280 Pls
2897 280 Pls
2897 280 Pls
2897 280 Pls
2898 280 Pls
2899 280 Pls
2899 280 Pls
2899 280 Pls
2900 280 Pls
2901 1662 Pls
2901 280 Pls
2902 280 Pls
2902 280 Pls
2903 280 Pls
2903 280 Pls
2903 280 Pls
2904 1662 Pls
2904 280 Pls
2905 280 Pls
2905 280 Pls
2905 280 Pls
2906 280 Pls
2907 280 Pls
2907 280 Pls
2907 280 Pls
2908 280 Pls
2908 280 Pls
2908 280 Pls
2909 280 Pls
2909 280 Pls
2909 280 Pls
2909 280 Pls
2909 280 Pls
2910 280 Pls
2910 280 Pls
2910 280 Pls
2911 280 Pls
2911 280 Pls
2912 280 Pls
2912 280 Pls
2912 280 Pls
2913 280 Pls
2913 280 Pls
2914 1662 Pls
2914 280 Pls
2914 280 Pls
2914 280 Pls
2915 280 Pls
2915 280 Pls
2915 280 Pls
2915 280 Pls
2916 280 Pls
2916 280 Pls
2916 280 Pls
2917 280 Pls
2917 280 Pls
2917 280 Pls
2917 280 Pls
2918 280 Pls
2919 280 Pls
2919 280 Pls
2920 280 Pls
2921 1662 Pls
2921 280 Pls
2921 280 Pls
2922 280 Pls
2922 280 Pls
2923 280 Pls
2923 280 Pls
2924 280 Pls
2924 280 Pls
2924 280 Pls
2925 280 Pls
2925 280 Pls
2927 280 Pls
2927 280 Pls
2928 280 Pls
2928 280 Pls
2928 280 Pls
2928 280 Pls
2930 1662 Pls
2931 280 Pls
2932 280 Pls
2932 280 Pls
2933 280 Pls
2934 1662 Pls
2934 280 Pls
2934 280 Pls
2935 280 Pls
2936 280 Pls
2936 280 Pls
2937 3044 Pls
2937 280 Pls
2938 280 Pls
2938 280 Pls
2938 280 Pls
2939 280 Pls
2939 280 Pls
2940 280 Pls
2940 280 Pls
2940 280 Pls
2941 280 Pls
2941 280 Pls
2941 280 Pls
2941 280 Pls
2942 280 Pls
2943 280 Pls
2944 1662 Pls
2944 280 Pls
2945 280 Pls
2946 280 Pls
2947 1662 Pls
2947 280 Pls
2947 1662 Pls
2948 1662 Pls
2948 2470 Pls
2948 280 Pls
2948 280 Pls
2949 280 Pls
2949 280 Pls
2949 280 Pls
2950 1662 Pls
2950 1662 Pls
2951 280 Pls
2951 280 Pls
2952 280 Pls
2952 280 Pls
2953 280 Pls
2954 1662 Pls
2955 280 Pls
2955 1662 Pls
2956 280 Pls
2956 280 Pls
2957 280 Pls
2957 280 Pls
2957 2470 Pls
2957 280 Pls
2958 280 Pls
2958 280 Pls
2958 280 Pls
2958 280 Pls
2959 280 Pls
2960 280 Pls
2961 280 Pls
2961 280 Pls
2962 280 Pls
2962 280 Pls
2963 1662 Pls
2963 280 Pls
2964 280 Pls
2964 280 Pls
2964 280 Pls
2965 280 Pls
2966 280 Pls
2966 280 Pls
2967 280 Pls
2968 280 Pls
2969 280 Pls
2969 280 Pls
2969 280 Pls
2970 280 Pls
2970 280 Pls
2970 280 Pls
2970 280 Pls
2970 280 Pls
2971 280 Pls
2971 280 Pls
2972 280 Pls
2972 280 Pls
2972 280 Pls
2973 280 Pls
2973 280 Pls
2974 1662 Pls
2974 280 Pls
2974 280 Pls
2974 280 Pls
2975 280 Pls
2976 280 Pls
2976 280 Pls
2976 280 Pls
2977 280 Pls
2977 280 Pls
2978 280 Pls
2978 280 Pls
2978 280 Pls
2979 280 Pls
2979 280 Pls
2980 280 Pls
2980 280 Pls
2980 280 Pls
2981 280 Pls
2984 280 Pls
2984 280 Pls
2984 280 Pls
2986 280 Pls
2986 280 Pls
2987 280 Pls
2988 1662 Pls
2989 280 Pls
2989 280 Pls
2991 280 Pls
2992 280 Pls
2993 1662 Pls
2994 280 Pls
2995 280 Pls
2995 280 Pls
2995 280 Pls
2996 280 Pls
2997 280 Pls
2997 280 Pls
2998 1662 Pls
2999 280 Pls
3000 280 Pls
3000 280 Pls
3001 280 Pls
3001 280 Pls
3003 280 Pls
3004 280 Pls
3004 280 Pls
3004 280 Pls
3004 280 Pls
3004 280 Pls
3005 280 Pls
3006 280 Pls
3006 280 Pls
3006 280 Pls
3006 280 Pls
3007 280 Pls
3008 280 Pls
3008 280 Pls
3009 280 Pls
3009 280 Pls
3009 280 Pls
3010 280 Pls
3010 280 Pls
3011 280 Pls
3012 280 Pls
3012 1662 Pls
3013 280 Pls
3013 280 Pls
3013 280 Pls
3014 280 Pls
3014 280 Pls
3015 280 Pls
3016 280 Pls
3017 280 Pls
3020 280 Pls
3022 280 Pls
3023 280 Pls
3023 280 Pls
3023 280 Pls
3024 280 Pls
3025 1662 Pls
3025 280 Pls
3026 280 Pls
3027 280 Pls
3027 280 Pls
3028 2470 Pls
3028 280 Pls
3028 280 Pls
3029 280 Pls
3030 280 Pls
3030 280 Pls
3031 280 Pls
3031 280 Pls
3032 280 Pls
3032 280 Pls
3033 280 Pls
3034 280 Pls
3035 280 Pls
3036 1662 Pls
3037 280 Pls
3037 280 Pls
3037 280 Pls
3038 280 Pls
3039 280 Pls
3040 280 Pls
3040 280 Pls
3040 280 Pls
3041 280 Pls
3043 280 Pls
3044 280 Pls
3045 280 Pls
3046 280 Pls
3047 280 Pls
3047 280 Pls
3048 280 Pls
3048 280 Pls
3050 1662 Pls
3050 280 Pls
3051 280 Pls
3051 1662 Pls
3051 280 Pls
3051 2470 Pls
3052 280 Pls
3053 280 Pls
3054 280 Pls
3054 280 Pls
3055 1662 Pls
3056 280 Pls
3056 280 Pls
3056 280 Pls
3057 280 Pls
3057 280 Pls
3057 280 Pls
3059 280 Pls
3060 280 Pls
3060 280 Pls
3061 280 Pls
3061 280 Pls
3063 280 Pls
3063 280 Pls
3064 280 Pls
3064 280 Pls
3064 280 Pls
3064 280 Pls
3065 280 Pls
3065 280 Pls
3065 280 Pls
3066 280 Pls
3067 280 Pls
3067 280 Pls
3069 280 Pls
3071 280 Pls
3072 280 Pls
3072 1662 Pls
3072 1662 Pls
3075 280 Pls
3075 280 Pls
3076 280 Pls
3078 280 Pls
3078 280 Pls
3079 280 Pls
3080 280 Pls
3080 280 Pls
3081 280 Pls
3081 280 Pls
3082 280 Pls
3082 280 Pls
3084 280 Pls
3086 280 Pls
3086 280 Pls
3088 280 Pls
3089 280 Pls
3090 1662 Pls
3091 280 Pls
3091 1662 Pls
3091 280 Pls
3092 280 Pls
3092 280 Pls
3094 280 Pls
3094 280 Pls
3094 280 Pls
3094 280 Pls
3095 1662 Pls
3097 280 Pls
3097 280 Pls
3098 280 Pls
3099 280 Pls
3100 280 Pls
3100 280 Pls
3100 280 Pls
3101 1662 Pls
3101 280 Pls
3101 280 Pls
3102 280 Pls
3103 280 Pls
3104 1662 Pls
3106 280 Pls
3106 280 Pls
3107 280 Pls
3107 280 Pls
3108 280 Pls
3108 280 Pls
3109 280 Pls
3110 280 Pls
3110 280 Pls
3111 280 Pls
3111 280 Pls
3112 280 Pls
3116 280 Pls
3119 280 Pls
3120 280 Pls
3120 280 Pls
3121 280 Pls
3123 280 Pls
3123 280 Pls
3124 280 Pls
3126 280 Pls
3127 280 Pls
3127 280 Pls
3129 280 Pls
3129 280 Pls
3130 280 Pls
3130 280 Pls
3131 280 Pls
3132 280 Pls
3133 280 Pls
3134 280 Pls
3134 280 Pls
3134 280 Pls
3135 280 Pls
3135 280 Pls
3138 280 Pls
3138 280 Pls
3144 280 Pls
3144 280 Pls
3144 1662 Pls
3145 280 Pls
3146 280 Pls
3146 280 Pls
3146 280 Pls
3147 280 Pls
3147 280 Pls
3147 280 Pls
3149 280 Pls
3150 280 Pls
3151 280 Pls
3152 280 Pls
3154 280 Pls
3155 280 Pls
3155 280 Pls
3156 280 Pls
3159 280 Pls
3159 280 Pls
3161 280 Pls
3161 1662 Pls
3162 280 Pls
3165 280 Pls
3166 280 Pls
3166 280 Pls
3166 280 Pls
3167 280 Pls
3167 280 Pls
3168 280 Pls
3170 280 Pls
3170 280 Pls
3170 280 Pls
3171 280 Pls
3171 280 Pls
3174 280 Pls
3175 280 Pls
3176 280 Pls
3178 280 Pls
3178 280 Pls
3179 280 Pls
3180 280 Pls
3181 1662 Pls
3182 280 Pls
3183 280 Pls
3184 280 Pls
3185 280 Pls
3186 280 Pls
3188 280 Pls
3189 280 Pls
3190 280 Pls
3190 280 Pls
3190 280 Pls
3191 1662 Pls
3197 280 Pls
3197 280 Pls
3198 280 Pls
3198 280 Pls
3199 280 Pls
3200 280 Pls
3201 280 Pls
3203 280 Pls
3204 280 Pls
3205 280 Pls
3207 280 Pls
3212 280 Pls
3212 280 Pls
3213 280 Pls
3215 280 Pls
3216 280 Pls
3216 280 Pls
3217 280 Pls
3217 280 Pls
3218 280 Pls
3220 280 Pls
3221 1662 Pls
3221 280 Pls
3223 280 Pls
3227 280 Pls
3228 280 Pls
3229 280 Pls
3229 280 Pls
3232 280 Pls
3233 280 Pls
3233 280 Pls
3234 280 Pls
3235 280 Pls
3235 280 Pls
3236 280 Pls
3236 280 Pls
3241 280 Pls
3244 280 Pls
3244 280 Pls
3245 1662 Pls
3245 280 Pls
3249 280 Pls
3250 280 Pls
3251 280 Pls
3251 280 Pls
3252 280 Pls
3253 1662 Pls
3254 280 Pls
3255 280 Pls
3258 280 Pls
3262 280 Pls
3263 280 Pls
3264 280 Pls
3267 280 Pls
3268 280 Pls
3268 280 Pls
3270 280 Pls
3271 280 Pls
3271 280 Pls
3276 280 Pls
3278 280 Pls
3279 280 Pls
3279 280 Pls
3280 280 Pls
3281 280 Pls
3281 280 Pls
3281 280 Pls
3282 280 Pls
3282 280 Pls
3286 280 Pls
3288 280 Pls
3290 280 Pls
3294 280 Pls
3295 280 Pls
3295 280 Pls
3296 280 Pls
3300 280 Pls
3302 280 Pls
3303 1662 Pls
3306 280 Pls
3307 280 Pls
3309 280 Pls
3312 280 Pls
3314 280 Pls
3316 280 Pls
3317 280 Pls
3318 280 Pls
3321 280 Pls
3323 280 Pls
3323 280 Pls
3323 280 Pls
3323 280 Pls
3323 280 Pls
3326 280 Pls
3327 280 Pls
3328 280 Pls
3332 280 Pls
3333 280 Pls
3334 280 Pls
3336 280 Pls
3336 280 Pls
3338 1662 Pls
3347 280 Pls
3349 280 Pls
3352 280 Pls
3354 280 Pls
3356 280 Pls
3357 280 Pls
3358 280 Pls
3359 280 Pls
3360 280 Pls
3361 280 Pls
3361 280 Pls
3364 280 Pls
3365 280 Pls
3366 280 Pls
3366 280 Pls
3370 280 Pls
3371 280 Pls
3371 280 Pls
3372 280 Pls
3372 280 Pls
3376 280 Pls
3378 280 Pls
3379 280 Pls
3380 280 Pls
3384 280 Pls
3385 1662 Pls
3392 280 Pls
3394 280 Pls
3396 280 Pls
3396 280 Pls
3403 280 Pls
3403 280 Pls
3409 280 Pls
3410 280 Pls
3410 280 Pls
3411 280 Pls
3411 280 Pls
3414 280 Pls
3416 280 Pls
3418 280 Pls
3419 280 Pls
3419 280 Pls
3419 280 Pls
3421 280 Pls
3423 280 Pls
3423 280 Pls
3425 280 Pls
3425 280 Pls
3428 280 Pls
3433 280 Pls
3435 280 Pls
3435 280 Pls
3438 280 Pls
3438 280 Pls
3441 280 Pls
3444 280 Pls
3447 280 Pls
3449 280 Pls
3449 280 Pls
3452 280 Pls
3452 280 Pls
3453 280 Pls
3454 280 Pls
3456 280 Pls
3457 280 Pls
3458 280 Pls
3462 280 Pls
3464 280 Pls
3465 280 Pls
3471 280 Pls
3472 280 Pls
3476 280 Pls
3479 280 Pls
3480 280 Pls
3480 280 Pls
3481 280 Pls
3490 280 Pls
3490 280 Pls
3491 280 Pls
3502 280 Pls
3503 280 Pls
3504 280 Pls
3508 280 Pls
3510 280 Pls
3511 280 Pls
3515 280 Pls
3522 280 Pls
3527 280 Pls
3531 280 Pls
3533 280 Pls
3538 280 Pls
3541 280 Pls
3542 280 Pls
3542 280 Pls
3545 280 Pls
3546 280 Pls
3550 280 Pls
3550 280 Pls
3551 280 Pls
3551 280 Pls
3551 280 Pls
3552 280 Pls
3554 280 Pls
3556 280 Pls
3556 280 Pls
3564 280 Pls
3568 280 Pls
3576 280 Pls
3580 280 Pls
3588 280 Pls
3589 280 Pls
3591 280 Pls
3592 280 Pls
3592 280 Pls
3597 280 Pls
3598 280 Pls
3601 280 Pls
3604 280 Pls
3604 280 Pls
3605 280 Pls
3606 280 Pls
3607 280 Pls
3608 280 Pls
3616 280 Pls
3623 1662 Pls
3627 280 Pls
3631 280 Pls
3633 280 Pls
3634 280 Pls
3637 280 Pls
3658 280 Pls
3660 280 Pls
3665 280 Pls
3672 280 Pls
3673 280 Pls
3677 280 Pls
3681 280 Pls
3689 280 Pls
3696 280 Pls
3713 280 Pls
3720 280 Pls
3731 280 Pls
3733 280 Pls
3739 280 Pls
3749 280 Pls
3754 280 Pls
3754 280 Pls
3757 280 Pls
3758 280 Pls
3769 280 Pls
3781 280 Pls
3781 280 Pls
3782 280 Pls
3800 280 Pls
3816 280 Pls
3825 280 Pls
3825 280 Pls
3842 280 Pls
3852 280 Pls
3856 280 Pls
3877 280 Pls
3881 280 Pls
3888 280 Pls
3913 280 Pls
3913 280 Pls
3914 280 Pls
3915 280 Pls
3919 280 Pls
3923 280 Pls
3944 280 Pls
3955 280 Pls
3960 280 Pls
3961 280 Pls
3974 280 Pls
3974 280 Pls
3975 280 Pls
3986 280 Pls
3991 280 Pls
3998 280 Pls
4009 280 Pls
4014 280 Pls
4024 280 Pls
4037 280 Pls
4040 280 Pls
4061 280 Pls
4092 280 Pls
4095 280 Pls
4145 280 Pls
4152 280 Pls
4157 280 Pls
4184 280 Pls
4185 280 Pls
4187 280 Pls
4213 280 Pls
4215 280 Pls
4221 280 Pls
4235 280 Pls
4246 280 Pls
4268 280 Pls
4281 280 Pls
4306 280 Pls
4331 280 Pls
4341 280 Pls
4343 280 Pls
4365 280 Pls
4384 280 Pls
4397 280 Pls
4411 280 Pls
4419 280 Pls
4423 280 Pls
4425 280 Pls
4430 280 Pls
4439 280 Pls
4457 280 Pls
4459 280 Pls
4491 280 Pls
4588 280 Pls
4602 280 Pls
4632 280 Pls
4673 280 Pls
4704 280 Pls
4771 280 Pls
4789 280 Pls
4800 280 Pls
5067 280 Pls
5098 280 Pls
5282 280 Pls
5356 280 Pls
5400 280 Pls
5553 280 Pls
5642 280 Pls
5822 280 Pls
6326 280 Pls
6529 280 Pls
6770 280 Pls
6774 280 Pls
% End plot #1
2.000 UL
LTb
LCb setrgbcolor
1.000 UL
LTB
LCb setrgbcolor
462 4871 N
462 280 L
6485 0 V
0 4591 V
-6485 0 V
Z stroke
1.000 UP
1.000 UL
LTb
LCb setrgbcolor
stroke
grestore
end
showpage
%%Trailer
%%DocumentFonts: Helvetica
%%Pages: 1
