%!PS-Adobe-2.0
%%Title: packets-s-ccdf-loglin.eps
%%Creator: gnuplot 5.0 patchlevel 3
%%CreationDate: Mon May 29 11:05:49 2017
%%DocumentFonts: (atend)
%%BoundingBox: 50 50 554 770
%%Orientation: Landscape
%%Pages: (atend)
%%EndComments
%%BeginProlog
/gnudict 256 dict def
gnudict begin
%
% The following true/false flags may be edited by hand if desired.
% The unit line width and grayscale image gamma correction may also be changed.
%
/Color true def
/Blacktext false def
/Solid false def
/Dashlength 1 def
/Landscape true def
/Level1 false def
/Level3 false def
/Rounded false def
/ClipToBoundingBox false def
/SuppressPDFMark false def
/TransparentPatterns false def
/gnulinewidth 5.000 def
/userlinewidth gnulinewidth def
/Gamma 1.0 def
/BackgroundColor {-1.000 -1.000 -1.000} def
%
/vshift -46 def
/dl1 {
  10.0 Dashlength userlinewidth gnulinewidth div mul mul mul
  Rounded { currentlinewidth 0.75 mul sub dup 0 le { pop 0.01 } if } if
} def
/dl2 {
  10.0 Dashlength userlinewidth gnulinewidth div mul mul mul
  Rounded { currentlinewidth 0.75 mul add } if
} def
/hpt_ 31.5 def
/vpt_ 31.5 def
/hpt hpt_ def
/vpt vpt_ def
/doclip {
  ClipToBoundingBox {
    newpath 50 50 moveto 554 50 lineto 554 770 lineto 50 770 lineto closepath
    clip
  } if
} def
%
% Gnuplot Prolog Version 5.1 (Oct 2015)
%
%/SuppressPDFMark true def
%
/M {moveto} bind def
/L {lineto} bind def
/R {rmoveto} bind def
/V {rlineto} bind def
/N {newpath moveto} bind def
/Z {closepath} bind def
/C {setrgbcolor} bind def
/f {rlineto fill} bind def
/g {setgray} bind def
/Gshow {show} def   % May be redefined later in the file to support UTF-8
/vpt2 vpt 2 mul def
/hpt2 hpt 2 mul def
/Lshow {currentpoint stroke M 0 vshift R 
	Blacktext {gsave 0 setgray textshow grestore} {textshow} ifelse} def
/Rshow {currentpoint stroke M dup stringwidth pop neg vshift R
	Blacktext {gsave 0 setgray textshow grestore} {textshow} ifelse} def
/Cshow {currentpoint stroke M dup stringwidth pop -2 div vshift R 
	Blacktext {gsave 0 setgray textshow grestore} {textshow} ifelse} def
/UP {dup vpt_ mul /vpt exch def hpt_ mul /hpt exch def
  /hpt2 hpt 2 mul def /vpt2 vpt 2 mul def} def
/DL {Color {setrgbcolor Solid {pop []} if 0 setdash}
 {pop pop pop 0 setgray Solid {pop []} if 0 setdash} ifelse} def
/BL {stroke userlinewidth 2 mul setlinewidth
	Rounded {1 setlinejoin 1 setlinecap} if} def
/AL {stroke userlinewidth 2 div setlinewidth
	Rounded {1 setlinejoin 1 setlinecap} if} def
/UL {dup gnulinewidth mul /userlinewidth exch def
	dup 1 lt {pop 1} if 10 mul /udl exch def} def
/PL {stroke userlinewidth setlinewidth
	Rounded {1 setlinejoin 1 setlinecap} if} def
3.8 setmiterlimit
% Classic Line colors (version 5.0)
/LCw {1 1 1} def
/LCb {0 0 0} def
/LCa {0 0 0} def
/LC0 {1 0 0} def
/LC1 {0 1 0} def
/LC2 {0 0 1} def
/LC3 {1 0 1} def
/LC4 {0 1 1} def
/LC5 {1 1 0} def
/LC6 {0 0 0} def
/LC7 {1 0.3 0} def
/LC8 {0.5 0.5 0.5} def
% Default dash patterns (version 5.0)
/LTB {BL [] LCb DL} def
/LTw {PL [] 1 setgray} def
/LTb {PL [] LCb DL} def
/LTa {AL [1 udl mul 2 udl mul] 0 setdash LCa setrgbcolor} def
/LT0 {PL [] LC0 DL} def
/LT1 {PL [2 dl1 3 dl2] LC1 DL} def
/LT2 {PL [1 dl1 1.5 dl2] LC2 DL} def
/LT3 {PL [6 dl1 2 dl2 1 dl1 2 dl2] LC3 DL} def
/LT4 {PL [1 dl1 2 dl2 6 dl1 2 dl2 1 dl1 2 dl2] LC4 DL} def
/LT5 {PL [4 dl1 2 dl2] LC5 DL} def
/LT6 {PL [1.5 dl1 1.5 dl2 1.5 dl1 1.5 dl2 1.5 dl1 6 dl2] LC6 DL} def
/LT7 {PL [3 dl1 3 dl2 1 dl1 3 dl2] LC7 DL} def
/LT8 {PL [2 dl1 2 dl2 2 dl1 6 dl2] LC8 DL} def
/SL {[] 0 setdash} def
/Pnt {stroke [] 0 setdash gsave 1 setlinecap M 0 0 V stroke grestore} def
/Dia {stroke [] 0 setdash 2 copy vpt add M
  hpt neg vpt neg V hpt vpt neg V
  hpt vpt V hpt neg vpt V closepath stroke
  Pnt} def
/Pls {stroke [] 0 setdash vpt sub M 0 vpt2 V
  currentpoint stroke M
  hpt neg vpt neg R hpt2 0 V stroke
 } def
/Box {stroke [] 0 setdash 2 copy exch hpt sub exch vpt add M
  0 vpt2 neg V hpt2 0 V 0 vpt2 V
  hpt2 neg 0 V closepath stroke
  Pnt} def
/Crs {stroke [] 0 setdash exch hpt sub exch vpt add M
  hpt2 vpt2 neg V currentpoint stroke M
  hpt2 neg 0 R hpt2 vpt2 V stroke} def
/TriU {stroke [] 0 setdash 2 copy vpt 1.12 mul add M
  hpt neg vpt -1.62 mul V
  hpt 2 mul 0 V
  hpt neg vpt 1.62 mul V closepath stroke
  Pnt} def
/Star {2 copy Pls Crs} def
/BoxF {stroke [] 0 setdash exch hpt sub exch vpt add M
  0 vpt2 neg V hpt2 0 V 0 vpt2 V
  hpt2 neg 0 V closepath fill} def
/TriUF {stroke [] 0 setdash vpt 1.12 mul add M
  hpt neg vpt -1.62 mul V
  hpt 2 mul 0 V
  hpt neg vpt 1.62 mul V closepath fill} def
/TriD {stroke [] 0 setdash 2 copy vpt 1.12 mul sub M
  hpt neg vpt 1.62 mul V
  hpt 2 mul 0 V
  hpt neg vpt -1.62 mul V closepath stroke
  Pnt} def
/TriDF {stroke [] 0 setdash vpt 1.12 mul sub M
  hpt neg vpt 1.62 mul V
  hpt 2 mul 0 V
  hpt neg vpt -1.62 mul V closepath fill} def
/DiaF {stroke [] 0 setdash vpt add M
  hpt neg vpt neg V hpt vpt neg V
  hpt vpt V hpt neg vpt V closepath fill} def
/Pent {stroke [] 0 setdash 2 copy gsave
  translate 0 hpt M 4 {72 rotate 0 hpt L} repeat
  closepath stroke grestore Pnt} def
/PentF {stroke [] 0 setdash gsave
  translate 0 hpt M 4 {72 rotate 0 hpt L} repeat
  closepath fill grestore} def
/Circle {stroke [] 0 setdash 2 copy
  hpt 0 360 arc stroke Pnt} def
/CircleF {stroke [] 0 setdash hpt 0 360 arc fill} def
/C0 {BL [] 0 setdash 2 copy moveto vpt 90 450 arc} bind def
/C1 {BL [] 0 setdash 2 copy moveto
	2 copy vpt 0 90 arc closepath fill
	vpt 0 360 arc closepath} bind def
/C2 {BL [] 0 setdash 2 copy moveto
	2 copy vpt 90 180 arc closepath fill
	vpt 0 360 arc closepath} bind def
/C3 {BL [] 0 setdash 2 copy moveto
	2 copy vpt 0 180 arc closepath fill
	vpt 0 360 arc closepath} bind def
/C4 {BL [] 0 setdash 2 copy moveto
	2 copy vpt 180 270 arc closepath fill
	vpt 0 360 arc closepath} bind def
/C5 {BL [] 0 setdash 2 copy moveto
	2 copy vpt 0 90 arc
	2 copy moveto
	2 copy vpt 180 270 arc closepath fill
	vpt 0 360 arc} bind def
/C6 {BL [] 0 setdash 2 copy moveto
	2 copy vpt 90 270 arc closepath fill
	vpt 0 360 arc closepath} bind def
/C7 {BL [] 0 setdash 2 copy moveto
	2 copy vpt 0 270 arc closepath fill
	vpt 0 360 arc closepath} bind def
/C8 {BL [] 0 setdash 2 copy moveto
	2 copy vpt 270 360 arc closepath fill
	vpt 0 360 arc closepath} bind def
/C9 {BL [] 0 setdash 2 copy moveto
	2 copy vpt 270 450 arc closepath fill
	vpt 0 360 arc closepath} bind def
/C10 {BL [] 0 setdash 2 copy 2 copy moveto vpt 270 360 arc closepath fill
	2 copy moveto
	2 copy vpt 90 180 arc closepath fill
	vpt 0 360 arc closepath} bind def
/C11 {BL [] 0 setdash 2 copy moveto
	2 copy vpt 0 180 arc closepath fill
	2 copy moveto
	2 copy vpt 270 360 arc closepath fill
	vpt 0 360 arc closepath} bind def
/C12 {BL [] 0 setdash 2 copy moveto
	2 copy vpt 180 360 arc closepath fill
	vpt 0 360 arc closepath} bind def
/C13 {BL [] 0 setdash 2 copy moveto
	2 copy vpt 0 90 arc closepath fill
	2 copy moveto
	2 copy vpt 180 360 arc closepath fill
	vpt 0 360 arc closepath} bind def
/C14 {BL [] 0 setdash 2 copy moveto
	2 copy vpt 90 360 arc closepath fill
	vpt 0 360 arc} bind def
/C15 {BL [] 0 setdash 2 copy vpt 0 360 arc closepath fill
	vpt 0 360 arc closepath} bind def
/Rec {newpath 4 2 roll moveto 1 index 0 rlineto 0 exch rlineto
	neg 0 rlineto closepath} bind def
/Square {dup Rec} bind def
/Bsquare {vpt sub exch vpt sub exch vpt2 Square} bind def
/S0 {BL [] 0 setdash 2 copy moveto 0 vpt rlineto BL Bsquare} bind def
/S1 {BL [] 0 setdash 2 copy vpt Square fill Bsquare} bind def
/S2 {BL [] 0 setdash 2 copy exch vpt sub exch vpt Square fill Bsquare} bind def
/S3 {BL [] 0 setdash 2 copy exch vpt sub exch vpt2 vpt Rec fill Bsquare} bind def
/S4 {BL [] 0 setdash 2 copy exch vpt sub exch vpt sub vpt Square fill Bsquare} bind def
/S5 {BL [] 0 setdash 2 copy 2 copy vpt Square fill
	exch vpt sub exch vpt sub vpt Square fill Bsquare} bind def
/S6 {BL [] 0 setdash 2 copy exch vpt sub exch vpt sub vpt vpt2 Rec fill Bsquare} bind def
/S7 {BL [] 0 setdash 2 copy exch vpt sub exch vpt sub vpt vpt2 Rec fill
	2 copy vpt Square fill Bsquare} bind def
/S8 {BL [] 0 setdash 2 copy vpt sub vpt Square fill Bsquare} bind def
/S9 {BL [] 0 setdash 2 copy vpt sub vpt vpt2 Rec fill Bsquare} bind def
/S10 {BL [] 0 setdash 2 copy vpt sub vpt Square fill 2 copy exch vpt sub exch vpt Square fill
	Bsquare} bind def
/S11 {BL [] 0 setdash 2 copy vpt sub vpt Square fill 2 copy exch vpt sub exch vpt2 vpt Rec fill
	Bsquare} bind def
/S12 {BL [] 0 setdash 2 copy exch vpt sub exch vpt sub vpt2 vpt Rec fill Bsquare} bind def
/S13 {BL [] 0 setdash 2 copy exch vpt sub exch vpt sub vpt2 vpt Rec fill
	2 copy vpt Square fill Bsquare} bind def
/S14 {BL [] 0 setdash 2 copy exch vpt sub exch vpt sub vpt2 vpt Rec fill
	2 copy exch vpt sub exch vpt Square fill Bsquare} bind def
/S15 {BL [] 0 setdash 2 copy Bsquare fill Bsquare} bind def
/D0 {gsave translate 45 rotate 0 0 S0 stroke grestore} bind def
/D1 {gsave translate 45 rotate 0 0 S1 stroke grestore} bind def
/D2 {gsave translate 45 rotate 0 0 S2 stroke grestore} bind def
/D3 {gsave translate 45 rotate 0 0 S3 stroke grestore} bind def
/D4 {gsave translate 45 rotate 0 0 S4 stroke grestore} bind def
/D5 {gsave translate 45 rotate 0 0 S5 stroke grestore} bind def
/D6 {gsave translate 45 rotate 0 0 S6 stroke grestore} bind def
/D7 {gsave translate 45 rotate 0 0 S7 stroke grestore} bind def
/D8 {gsave translate 45 rotate 0 0 S8 stroke grestore} bind def
/D9 {gsave translate 45 rotate 0 0 S9 stroke grestore} bind def
/D10 {gsave translate 45 rotate 0 0 S10 stroke grestore} bind def
/D11 {gsave translate 45 rotate 0 0 S11 stroke grestore} bind def
/D12 {gsave translate 45 rotate 0 0 S12 stroke grestore} bind def
/D13 {gsave translate 45 rotate 0 0 S13 stroke grestore} bind def
/D14 {gsave translate 45 rotate 0 0 S14 stroke grestore} bind def
/D15 {gsave translate 45 rotate 0 0 S15 stroke grestore} bind def
/DiaE {stroke [] 0 setdash vpt add M
  hpt neg vpt neg V hpt vpt neg V
  hpt vpt V hpt neg vpt V closepath stroke} def
/BoxE {stroke [] 0 setdash exch hpt sub exch vpt add M
  0 vpt2 neg V hpt2 0 V 0 vpt2 V
  hpt2 neg 0 V closepath stroke} def
/TriUE {stroke [] 0 setdash vpt 1.12 mul add M
  hpt neg vpt -1.62 mul V
  hpt 2 mul 0 V
  hpt neg vpt 1.62 mul V closepath stroke} def
/TriDE {stroke [] 0 setdash vpt 1.12 mul sub M
  hpt neg vpt 1.62 mul V
  hpt 2 mul 0 V
  hpt neg vpt -1.62 mul V closepath stroke} def
/PentE {stroke [] 0 setdash gsave
  translate 0 hpt M 4 {72 rotate 0 hpt L} repeat
  closepath stroke grestore} def
/CircE {stroke [] 0 setdash 
  hpt 0 360 arc stroke} def
/Opaque {gsave closepath 1 setgray fill grestore 0 setgray closepath} def
/DiaW {stroke [] 0 setdash vpt add M
  hpt neg vpt neg V hpt vpt neg V
  hpt vpt V hpt neg vpt V Opaque stroke} def
/BoxW {stroke [] 0 setdash exch hpt sub exch vpt add M
  0 vpt2 neg V hpt2 0 V 0 vpt2 V
  hpt2 neg 0 V Opaque stroke} def
/TriUW {stroke [] 0 setdash vpt 1.12 mul add M
  hpt neg vpt -1.62 mul V
  hpt 2 mul 0 V
  hpt neg vpt 1.62 mul V Opaque stroke} def
/TriDW {stroke [] 0 setdash vpt 1.12 mul sub M
  hpt neg vpt 1.62 mul V
  hpt 2 mul 0 V
  hpt neg vpt -1.62 mul V Opaque stroke} def
/PentW {stroke [] 0 setdash gsave
  translate 0 hpt M 4 {72 rotate 0 hpt L} repeat
  Opaque stroke grestore} def
/CircW {stroke [] 0 setdash 
  hpt 0 360 arc Opaque stroke} def
/BoxFill {gsave Rec 1 setgray fill grestore} def
/Density {
  /Fillden exch def
  currentrgbcolor
  /ColB exch def /ColG exch def /ColR exch def
  /ColR ColR Fillden mul Fillden sub 1 add def
  /ColG ColG Fillden mul Fillden sub 1 add def
  /ColB ColB Fillden mul Fillden sub 1 add def
  ColR ColG ColB setrgbcolor} def
/BoxColFill {gsave Rec PolyFill} def
/PolyFill {gsave Density fill grestore grestore} def
/h {rlineto rlineto rlineto gsave closepath fill grestore} bind def
%
% PostScript Level 1 Pattern Fill routine for rectangles
% Usage: x y w h s a XX PatternFill
%	x,y = lower left corner of box to be filled
%	w,h = width and height of box
%	  a = angle in degrees between lines and x-axis
%	 XX = 0/1 for no/yes cross-hatch
%
/PatternFill {gsave /PFa [ 9 2 roll ] def
  PFa 0 get PFa 2 get 2 div add PFa 1 get PFa 3 get 2 div add translate
  PFa 2 get -2 div PFa 3 get -2 div PFa 2 get PFa 3 get Rec
  TransparentPatterns {} {gsave 1 setgray fill grestore} ifelse
  clip
  currentlinewidth 0.5 mul setlinewidth
  /PFs PFa 2 get dup mul PFa 3 get dup mul add sqrt def
  0 0 M PFa 5 get rotate PFs -2 div dup translate
  0 1 PFs PFa 4 get div 1 add floor cvi
	{PFa 4 get mul 0 M 0 PFs V} for
  0 PFa 6 get ne {
	0 1 PFs PFa 4 get div 1 add floor cvi
	{PFa 4 get mul 0 2 1 roll M PFs 0 V} for
 } if
  stroke grestore} def
%
/languagelevel where
 {pop languagelevel} {1} ifelse
dup 2 lt
	{/InterpretLevel1 true def
	 /InterpretLevel3 false def}
	{/InterpretLevel1 Level1 def
	 2 gt
	    {/InterpretLevel3 Level3 def}
	    {/InterpretLevel3 false def}
	 ifelse }
 ifelse
%
% PostScript level 2 pattern fill definitions
%
/Level2PatternFill {
/Tile8x8 {/PaintType 2 /PatternType 1 /TilingType 1 /BBox [0 0 8 8] /XStep 8 /YStep 8}
	bind def
/KeepColor {currentrgbcolor [/Pattern /DeviceRGB] setcolorspace} bind def
<< Tile8x8
 /PaintProc {0.5 setlinewidth pop 0 0 M 8 8 L 0 8 M 8 0 L stroke} 
>> matrix makepattern
/Pat1 exch def
<< Tile8x8
 /PaintProc {0.5 setlinewidth pop 0 0 M 8 8 L 0 8 M 8 0 L stroke
	0 4 M 4 8 L 8 4 L 4 0 L 0 4 L stroke}
>> matrix makepattern
/Pat2 exch def
<< Tile8x8
 /PaintProc {0.5 setlinewidth pop 0 0 M 0 8 L
	8 8 L 8 0 L 0 0 L fill}
>> matrix makepattern
/Pat3 exch def
<< Tile8x8
 /PaintProc {0.5 setlinewidth pop -4 8 M 8 -4 L
	0 12 M 12 0 L stroke}
>> matrix makepattern
/Pat4 exch def
<< Tile8x8
 /PaintProc {0.5 setlinewidth pop -4 0 M 8 12 L
	0 -4 M 12 8 L stroke}
>> matrix makepattern
/Pat5 exch def
<< Tile8x8
 /PaintProc {0.5 setlinewidth pop -2 8 M 4 -4 L
	0 12 M 8 -4 L 4 12 M 10 0 L stroke}
>> matrix makepattern
/Pat6 exch def
<< Tile8x8
 /PaintProc {0.5 setlinewidth pop -2 0 M 4 12 L
	0 -4 M 8 12 L 4 -4 M 10 8 L stroke}
>> matrix makepattern
/Pat7 exch def
<< Tile8x8
 /PaintProc {0.5 setlinewidth pop 8 -2 M -4 4 L
	12 0 M -4 8 L 12 4 M 0 10 L stroke}
>> matrix makepattern
/Pat8 exch def
<< Tile8x8
 /PaintProc {0.5 setlinewidth pop 0 -2 M 12 4 L
	-4 0 M 12 8 L -4 4 M 8 10 L stroke}
>> matrix makepattern
/Pat9 exch def
/Pattern1 {PatternBgnd KeepColor Pat1 setpattern} bind def
/Pattern2 {PatternBgnd KeepColor Pat2 setpattern} bind def
/Pattern3 {PatternBgnd KeepColor Pat3 setpattern} bind def
/Pattern4 {PatternBgnd KeepColor Landscape {Pat5} {Pat4} ifelse setpattern} bind def
/Pattern5 {PatternBgnd KeepColor Landscape {Pat4} {Pat5} ifelse setpattern} bind def
/Pattern6 {PatternBgnd KeepColor Landscape {Pat9} {Pat6} ifelse setpattern} bind def
/Pattern7 {PatternBgnd KeepColor Landscape {Pat8} {Pat7} ifelse setpattern} bind def
} def
%
%
%End of PostScript Level 2 code
%
/PatternBgnd {
  TransparentPatterns {} {gsave 1 setgray fill grestore} ifelse
} def
%
% Substitute for Level 2 pattern fill codes with
% grayscale if Level 2 support is not selected.
%
/Level1PatternFill {
/Pattern1 {0.250 Density} bind def
/Pattern2 {0.500 Density} bind def
/Pattern3 {0.750 Density} bind def
/Pattern4 {0.125 Density} bind def
/Pattern5 {0.375 Density} bind def
/Pattern6 {0.625 Density} bind def
/Pattern7 {0.875 Density} bind def
} def
%
% Now test for support of Level 2 code
%
Level1 {Level1PatternFill} {Level2PatternFill} ifelse
%
/Symbol-Oblique /Symbol findfont [1 0 .167 1 0 0] makefont
dup length dict begin {1 index /FID eq {pop pop} {def} ifelse} forall
currentdict end definefont pop
%
/MFshow {
   { dup 5 get 3 ge
     { 5 get 3 eq {gsave} {grestore} ifelse }
     {dup dup 0 get findfont exch 1 get scalefont setfont
     [ currentpoint ] exch dup 2 get 0 exch R dup 5 get 2 ne {dup dup 6
     get exch 4 get {textshow} {stringwidth pop 0 R} ifelse }if dup 5 get 0 eq
     {dup 3 get {2 get neg 0 exch R pop} {pop aload pop M} ifelse} {dup 5
     get 1 eq {dup 2 get exch dup 3 get exch 6 get stringwidth pop -2 div
     dup 0 R} {dup 6 get stringwidth pop -2 div 0 R 6 get
     textshow 2 index {aload pop M neg 3 -1 roll neg R pop pop} {pop pop pop
     pop aload pop M} ifelse }ifelse }ifelse }
     ifelse }
   forall} def
/Gswidth {dup type /stringtype eq {stringwidth} {pop (n) stringwidth} ifelse} def
/MFwidth {0 exch { dup 5 get 3 ge { 5 get 3 eq { 0 } { pop } ifelse }
 {dup 3 get{dup dup 0 get findfont exch 1 get scalefont setfont
     6 get Gswidth pop add} {pop} ifelse} ifelse} forall} def
/MLshow { currentpoint stroke M
  0 exch R
  Blacktext {gsave 0 setgray MFshow grestore} {MFshow} ifelse } bind def
/MRshow { currentpoint stroke M
  exch dup MFwidth neg 3 -1 roll R
  Blacktext {gsave 0 setgray MFshow grestore} {MFshow} ifelse } bind def
/MCshow { currentpoint stroke M
  exch dup MFwidth -2 div 3 -1 roll R
  Blacktext {gsave 0 setgray MFshow grestore} {MFshow} ifelse } bind def
/XYsave    { [( ) 1 2 true false 3 ()] } bind def
/XYrestore { [( ) 1 2 true false 4 ()] } bind def
Level1 SuppressPDFMark or 
{} {
/SDict 10 dict def
systemdict /pdfmark known not {
  userdict /pdfmark systemdict /cleartomark get put
} if
SDict begin [
  /Title (packets-s-ccdf-loglin.eps)
  /Subject (gnuplot plot)
  /Creator (gnuplot 5.0 patchlevel 3)
  /Author (tiphaine)
%  /Producer (gnuplot)
%  /Keywords ()
  /CreationDate (Mon May 29 11:05:49 2017)
  /DOCINFO pdfmark
end
} ifelse
%
% Support for boxed text - Ethan A Merritt May 2005
%
/InitTextBox { userdict /TBy2 3 -1 roll put userdict /TBx2 3 -1 roll put
           userdict /TBy1 3 -1 roll put userdict /TBx1 3 -1 roll put
	   /Boxing true def } def
/ExtendTextBox { Boxing
    { gsave dup false charpath pathbbox
      dup TBy2 gt {userdict /TBy2 3 -1 roll put} {pop} ifelse
      dup TBx2 gt {userdict /TBx2 3 -1 roll put} {pop} ifelse
      dup TBy1 lt {userdict /TBy1 3 -1 roll put} {pop} ifelse
      dup TBx1 lt {userdict /TBx1 3 -1 roll put} {pop} ifelse
      grestore } if } def
/PopTextBox { newpath TBx1 TBxmargin sub TBy1 TBymargin sub M
               TBx1 TBxmargin sub TBy2 TBymargin add L
	       TBx2 TBxmargin add TBy2 TBymargin add L
	       TBx2 TBxmargin add TBy1 TBymargin sub L closepath } def
/DrawTextBox { PopTextBox stroke /Boxing false def} def
/FillTextBox { gsave PopTextBox 1 1 1 setrgbcolor fill grestore /Boxing false def} def
0 0 0 0 InitTextBox
/TBxmargin 20 def
/TBymargin 20 def
/Boxing false def
/textshow { ExtendTextBox Gshow } def
%
% redundant definitions for compatibility with prologue.ps older than 5.0.2
/LTB {BL [] LCb DL} def
/LTb {PL [] LCb DL} def
end
%%EndProlog
%%Page: 1 1
gnudict begin
gsave
doclip
50 50 translate
0.100 0.100 scale
90 rotate
0 -5040 translate
0 setgray
newpath
(Helvetica) findfont 140 scalefont setfont
BackgroundColor 0 lt 3 1 roll 0 lt exch 0 lt or or not {gsave BackgroundColor C clippath fill grestore} if
1.000 UL
LTb
LCb setrgbcolor
546 280 M
63 0 V
6338 0 R
-63 0 V
stroke
462 280 M
[ [(Helvetica) 140.0 0.0 true true 0 ( 0)]
] -46.7 MRshow
1.000 UL
LTb
LCb setrgbcolor
546 739 M
63 0 V
6338 0 R
-63 0 V
stroke
462 739 M
[ [(Helvetica) 140.0 0.0 true true 0 ( 0.1)]
] -46.7 MRshow
1.000 UL
LTb
LCb setrgbcolor
546 1198 M
63 0 V
6338 0 R
-63 0 V
stroke
462 1198 M
[ [(Helvetica) 140.0 0.0 true true 0 ( 0.2)]
] -46.7 MRshow
1.000 UL
LTb
LCb setrgbcolor
546 1657 M
63 0 V
6338 0 R
-63 0 V
stroke
462 1657 M
[ [(Helvetica) 140.0 0.0 true true 0 ( 0.3)]
] -46.7 MRshow
1.000 UL
LTb
LCb setrgbcolor
546 2116 M
63 0 V
6338 0 R
-63 0 V
stroke
462 2116 M
[ [(Helvetica) 140.0 0.0 true true 0 ( 0.4)]
] -46.7 MRshow
1.000 UL
LTb
LCb setrgbcolor
546 2576 M
63 0 V
6338 0 R
-63 0 V
stroke
462 2576 M
[ [(Helvetica) 140.0 0.0 true true 0 ( 0.5)]
] -46.7 MRshow
1.000 UL
LTb
LCb setrgbcolor
546 3035 M
63 0 V
6338 0 R
-63 0 V
stroke
462 3035 M
[ [(Helvetica) 140.0 0.0 true true 0 ( 0.6)]
] -46.7 MRshow
1.000 UL
LTb
LCb setrgbcolor
546 3494 M
63 0 V
6338 0 R
-63 0 V
stroke
462 3494 M
[ [(Helvetica) 140.0 0.0 true true 0 ( 0.7)]
] -46.7 MRshow
1.000 UL
LTb
LCb setrgbcolor
546 3953 M
63 0 V
6338 0 R
-63 0 V
stroke
462 3953 M
[ [(Helvetica) 140.0 0.0 true true 0 ( 0.8)]
] -46.7 MRshow
1.000 UL
LTb
LCb setrgbcolor
546 4412 M
63 0 V
6338 0 R
-63 0 V
stroke
462 4412 M
[ [(Helvetica) 140.0 0.0 true true 0 ( 0.9)]
] -46.7 MRshow
1.000 UL
LTb
LCb setrgbcolor
546 4871 M
63 0 V
6338 0 R
-63 0 V
stroke
462 4871 M
[ [(Helvetica) 140.0 0.0 true true 0 ( 1)]
] -46.7 MRshow
1.000 UL
LTb
LCb setrgbcolor
546 280 M
0 63 V
0 4528 R
0 -63 V
stroke
546 140 M
[ [(Helvetica) 140.0 0.0 true true 0 ( 1000)]
] -46.7 MCshow
1.000 UL
LTb
LCb setrgbcolor
1509 280 M
0 31 V
0 4560 R
0 -31 V
2073 280 M
0 31 V
0 4560 R
0 -31 V
2473 280 M
0 31 V
0 4560 R
0 -31 V
2783 280 M
0 31 V
0 4560 R
0 -31 V
3036 280 M
0 31 V
0 4560 R
0 -31 V
3251 280 M
0 31 V
0 4560 R
0 -31 V
3436 280 M
0 31 V
0 4560 R
0 -31 V
3600 280 M
0 31 V
0 4560 R
0 -31 V
3747 280 M
0 63 V
0 4528 R
0 -63 V
stroke
3747 140 M
[ [(Helvetica) 140.0 0.0 true true 0 ( 10000)]
] -46.7 MCshow
1.000 UL
LTb
LCb setrgbcolor
4710 280 M
0 31 V
0 4560 R
0 -31 V
5274 280 M
0 31 V
0 4560 R
0 -31 V
5673 280 M
0 31 V
0 4560 R
0 -31 V
5984 280 M
0 31 V
0 4560 R
0 -31 V
6237 280 M
0 31 V
0 4560 R
0 -31 V
6451 280 M
0 31 V
0 4560 R
0 -31 V
6637 280 M
0 31 V
0 4560 R
0 -31 V
6801 280 M
0 31 V
0 4560 R
0 -31 V
6947 280 M
0 63 V
0 4528 R
0 -63 V
stroke
6947 140 M
[ [(Helvetica) 140.0 0.0 true true 0 ( 100000)]
] -46.7 MCshow
1.000 UL
LTb
LCb setrgbcolor
1.000 UL
LTB
LCb setrgbcolor
546 4871 N
546 280 L
6401 0 V
0 4591 V
-6401 0 V
Z stroke
1.000 UP
1.000 UL
LTb
LCb setrgbcolor
% Begin plot #1
1.000 UP
1.000 UL
LTb
0.58 0.00 0.83 C 3292 4871 Pls
4341 4870 Pls
4378 4868 Pls
4402 4867 Pls
4469 4866 Pls
4492 4865 Pls
4493 4863 Pls
4504 4862 Pls
4509 4861 Pls
4513 4860 Pls
4518 4858 Pls
4529 4857 Pls
4531 4856 Pls
4533 4854 Pls
4535 4853 Pls
4537 4852 Pls
4540 4851 Pls
4541 4849 Pls
4543 4848 Pls
4545 4847 Pls
4546 4845 Pls
4548 4844 Pls
4549 4843 Pls
4549 4842 Pls
4549 4840 Pls
4554 4839 Pls
4554 4838 Pls
4559 4837 Pls
4560 4835 Pls
4566 4834 Pls
4568 4833 Pls
4568 4831 Pls
4570 4830 Pls
4571 4829 Pls
4571 4828 Pls
4571 4826 Pls
4572 4825 Pls
4574 4824 Pls
4574 4823 Pls
4575 4821 Pls
4579 4820 Pls
4580 4817 Pls
4581 4816 Pls
4582 4815 Pls
4582 4814 Pls
4582 4812 Pls
4583 4811 Pls
4584 4810 Pls
4585 4809 Pls
4585 4807 Pls
4585 4806 Pls
4588 4805 Pls
4588 4803 Pls
4588 4802 Pls
4589 4801 Pls
4591 4800 Pls
4591 4798 Pls
4592 4797 Pls
4594 4796 Pls
4594 4793 Pls
4594 4792 Pls
4595 4791 Pls
4596 4789 Pls
4597 4788 Pls
4598 4787 Pls
4598 4786 Pls
4600 4784 Pls
4601 4782 Pls
4602 4780 Pls
4602 4779 Pls
4602 4778 Pls
4603 4777 Pls
4604 4775 Pls
4604 4774 Pls
4605 4773 Pls
4606 4772 Pls
4606 4770 Pls
4607 4769 Pls
4608 4768 Pls
4608 4766 Pls
4609 4765 Pls
4609 4764 Pls
4610 4763 Pls
4610 4761 Pls
4611 4760 Pls
4611 4758 Pls
4612 4756 Pls
4613 4755 Pls
4614 4754 Pls
4614 4752 Pls
4615 4751 Pls
4616 4750 Pls
4618 4749 Pls
4619 4747 Pls
4620 4746 Pls
4621 4745 Pls
4623 4743 Pls
4623 4742 Pls
4624 4741 Pls
4625 4740 Pls
4625 4738 Pls
4626 4737 Pls
4628 4736 Pls
4629 4735 Pls
4629 4733 Pls
4630 4732 Pls
4630 4731 Pls
4631 4729 Pls
4632 4728 Pls
4633 4727 Pls
4633 4726 Pls
4634 4724 Pls
4635 4723 Pls
4635 4722 Pls
4637 4721 Pls
4637 4719 Pls
4639 4718 Pls
4640 4717 Pls
4641 4715 Pls
4641 4714 Pls
4643 4713 Pls
4643 4712 Pls
4644 4710 Pls
4644 4709 Pls
4644 4708 Pls
4645 4706 Pls
4647 4705 Pls
4648 4704 Pls
4648 4703 Pls
4649 4701 Pls
4650 4700 Pls
4650 4699 Pls
4650 4698 Pls
4650 4696 Pls
4650 4695 Pls
4651 4694 Pls
4651 4692 Pls
4651 4691 Pls
4652 4690 Pls
4652 4687 Pls
4653 4686 Pls
4653 4685 Pls
4654 4682 Pls
4655 4681 Pls
4655 4680 Pls
4656 4678 Pls
4656 4677 Pls
4656 4676 Pls
4657 4675 Pls
4658 4673 Pls
4658 4672 Pls
4658 4670 Pls
4658 4668 Pls
4659 4667 Pls
4659 4666 Pls
4660 4664 Pls
4660 4663 Pls
4660 4662 Pls
4660 4661 Pls
4660 4659 Pls
4660 4658 Pls
4661 4657 Pls
4662 4655 Pls
4662 4654 Pls
4664 4653 Pls
4664 4652 Pls
4664 4650 Pls
4665 4649 Pls
4667 4648 Pls
4668 4645 Pls
4668 4644 Pls
4669 4643 Pls
4669 4641 Pls
4669 4640 Pls
4670 4639 Pls
4671 4638 Pls
4671 4636 Pls
4671 4635 Pls
4673 4634 Pls
4673 4633 Pls
4674 4631 Pls
4675 4630 Pls
4676 4629 Pls
4677 4627 Pls
4677 4626 Pls
4678 4625 Pls
4678 4624 Pls
4678 4622 Pls
4679 4621 Pls
4679 4620 Pls
4679 4618 Pls
4679 4617 Pls
4680 4615 Pls
4680 4613 Pls
4681 4612 Pls
4681 4611 Pls
4681 4610 Pls
4681 4608 Pls
4682 4607 Pls
4682 4606 Pls
4683 4604 Pls
4683 4603 Pls
4684 4602 Pls
4684 4601 Pls
4684 4598 Pls
4684 4597 Pls
4685 4596 Pls
4685 4594 Pls
4686 4592 Pls
4686 4590 Pls
4686 4589 Pls
4687 4588 Pls
4687 4587 Pls
4687 4585 Pls
4687 4584 Pls
4687 4583 Pls
4688 4582 Pls
4688 4580 Pls
4688 4579 Pls
4689 4578 Pls
4689 4575 Pls
4689 4574 Pls
4689 4573 Pls
4690 4571 Pls
4690 4570 Pls
4691 4569 Pls
4691 4567 Pls
4691 4566 Pls
4692 4565 Pls
4692 4564 Pls
4692 4562 Pls
4693 4561 Pls
4693 4560 Pls
4693 4559 Pls
4694 4557 Pls
4695 4556 Pls
4695 4555 Pls
4695 4552 Pls
4696 4551 Pls
4696 4550 Pls
4696 4548 Pls
4696 4547 Pls
4697 4545 Pls
4697 4543 Pls
4697 4542 Pls
4697 4541 Pls
4699 4539 Pls
4699 4538 Pls
4699 4536 Pls
4700 4534 Pls
4700 4533 Pls
4700 4532 Pls
4701 4530 Pls
4701 4529 Pls
4701 4527 Pls
4701 4525 Pls
4701 4524 Pls
4702 4523 Pls
4702 4522 Pls
4703 4520 Pls
4703 4519 Pls
4703 4516 Pls
4704 4515 Pls
4704 4514 Pls
4704 4513 Pls
4704 4511 Pls
4705 4510 Pls
4705 4508 Pls
4705 4506 Pls
4706 4505 Pls
4706 4504 Pls
4706 4502 Pls
4706 4501 Pls
4706 4500 Pls
4707 4497 Pls
4707 4495 Pls
4708 4494 Pls
4708 4492 Pls
4708 4491 Pls
4709 4490 Pls
4709 4487 Pls
4709 4486 Pls
4710 4485 Pls
4710 4483 Pls
4711 4482 Pls
4711 4481 Pls
4711 4479 Pls
4712 4478 Pls
4712 4477 Pls
4712 4474 Pls
4712 4473 Pls
4713 4472 Pls
4713 4471 Pls
4713 4468 Pls
4713 4467 Pls
4713 4465 Pls
4713 4464 Pls
4713 4463 Pls
4714 4462 Pls
4714 4459 Pls
4715 4458 Pls
4715 4457 Pls
4715 4455 Pls
4715 4454 Pls
4715 4453 Pls
4715 4451 Pls
4715 4450 Pls
4716 4449 Pls
4716 4448 Pls
4717 4446 Pls
4717 4444 Pls
4717 4443 Pls
4718 4441 Pls
4718 4440 Pls
4719 4439 Pls
4719 4437 Pls
4720 4436 Pls
4720 4435 Pls
4721 4434 Pls
4721 4432 Pls
4721 4431 Pls
4722 4430 Pls
4722 4427 Pls
4722 4426 Pls
4723 4425 Pls
4723 4423 Pls
4724 4422 Pls
4724 4421 Pls
4724 4420 Pls
4724 4417 Pls
4724 4416 Pls
4724 4413 Pls
4725 4412 Pls
4725 4411 Pls
4725 4409 Pls
4726 4408 Pls
4726 4407 Pls
4727 4406 Pls
4727 4404 Pls
4727 4403 Pls
4727 4402 Pls
4728 4400 Pls
4728 4397 Pls
4728 4395 Pls
4728 4394 Pls
4728 4393 Pls
4728 4391 Pls
4729 4390 Pls
4729 4389 Pls
4730 4388 Pls
4730 4386 Pls
4730 4385 Pls
4731 4384 Pls
4731 4383 Pls
4731 4381 Pls
4732 4380 Pls
4732 4379 Pls
4732 4377 Pls
4732 4375 Pls
4733 4374 Pls
4733 4371 Pls
4733 4370 Pls
4733 4369 Pls
4734 4367 Pls
4734 4366 Pls
4734 4365 Pls
4734 4363 Pls
4735 4362 Pls
4735 4361 Pls
4735 4360 Pls
4735 4358 Pls
4736 4357 Pls
4736 4356 Pls
4736 4353 Pls
4736 4352 Pls
4737 4351 Pls
4737 4349 Pls
4737 4348 Pls
4737 4347 Pls
4737 4344 Pls
4737 4343 Pls
4737 4342 Pls
4738 4340 Pls
4738 4339 Pls
4738 4338 Pls
4738 4337 Pls
4739 4335 Pls
4740 4334 Pls
4741 4333 Pls
4742 4332 Pls
4742 4330 Pls
4742 4329 Pls
4743 4328 Pls
4743 4326 Pls
4743 4325 Pls
4744 4324 Pls
4744 4323 Pls
4744 4321 Pls
4744 4320 Pls
4745 4319 Pls
4745 4318 Pls
4745 4316 Pls
4746 4314 Pls
4746 4312 Pls
4746 4311 Pls
4746 4310 Pls
4746 4309 Pls
4746 4306 Pls
4746 4305 Pls
4747 4304 Pls
4747 4302 Pls
4747 4301 Pls
4747 4298 Pls
4747 4296 Pls
4748 4295 Pls
4748 4293 Pls
4748 4292 Pls
4748 4291 Pls
4748 4289 Pls
4749 4288 Pls
4749 4287 Pls
4750 4286 Pls
4750 4284 Pls
4750 4283 Pls
4750 4282 Pls
4751 4281 Pls
4751 4279 Pls
4751 4277 Pls
4751 4275 Pls
4752 4274 Pls
4752 4273 Pls
4753 4270 Pls
4753 4269 Pls
4754 4268 Pls
4754 4267 Pls
4754 4264 Pls
4754 4263 Pls
4754 4261 Pls
4754 4260 Pls
4755 4259 Pls
4755 4258 Pls
4755 4256 Pls
4755 4254 Pls
4756 4250 Pls
4756 4249 Pls
4756 4247 Pls
4756 4246 Pls
4757 4244 Pls
4757 4242 Pls
4758 4240 Pls
4758 4238 Pls
4758 4237 Pls
4758 4236 Pls
4759 4235 Pls
4759 4232 Pls
4759 4231 Pls
4760 4230 Pls
4761 4228 Pls
4761 4227 Pls
4761 4226 Pls
4761 4223 Pls
4762 4222 Pls
4763 4221 Pls
4763 4219 Pls
4763 4217 Pls
4763 4216 Pls
4763 4214 Pls
4764 4213 Pls
4764 4212 Pls
4764 4210 Pls
4764 4209 Pls
4764 4208 Pls
4765 4207 Pls
4765 4205 Pls
4766 4204 Pls
4766 4200 Pls
4766 4199 Pls
4766 4198 Pls
4766 4196 Pls
4766 4195 Pls
4766 4194 Pls
4766 4193 Pls
4766 4190 Pls
4767 4189 Pls
4767 4187 Pls
4767 4185 Pls
4768 4184 Pls
4768 4182 Pls
4768 4181 Pls
4768 4180 Pls
4768 4179 Pls
4769 4177 Pls
4769 4176 Pls
4769 4173 Pls
4769 4172 Pls
4769 4171 Pls
4769 4168 Pls
4770 4167 Pls
4770 4164 Pls
4770 4163 Pls
4771 4162 Pls
4771 4159 Pls
4771 4158 Pls
4771 4156 Pls
4771 4154 Pls
4771 4153 Pls
4771 4150 Pls
4772 4149 Pls
4772 4148 Pls
4772 4145 Pls
4772 4144 Pls
4772 4143 Pls
4773 4140 Pls
4773 4139 Pls
4774 4138 Pls
4774 4136 Pls
4774 4135 Pls
4774 4134 Pls
4774 4133 Pls
4775 4131 Pls
4775 4130 Pls
4776 4129 Pls
4776 4128 Pls
4776 4126 Pls
4776 4125 Pls
4777 4124 Pls
4777 4122 Pls
4777 4121 Pls
4777 4120 Pls
4777 4117 Pls
4778 4115 Pls
4778 4113 Pls
4778 4112 Pls
4778 4111 Pls
4778 4110 Pls
4779 4108 Pls
4779 4106 Pls
4779 4105 Pls
4779 4102 Pls
4779 4101 Pls
4779 4099 Pls
4780 4098 Pls
4780 4097 Pls
4780 4096 Pls
4780 4093 Pls
4780 4092 Pls
4780 4091 Pls
4781 4089 Pls
4781 4088 Pls
4781 4085 Pls
4782 4084 Pls
4782 4083 Pls
4782 4082 Pls
4783 4079 Pls
4783 4078 Pls
4783 4076 Pls
4783 4075 Pls
4784 4074 Pls
4784 4073 Pls
4784 4071 Pls
4784 4070 Pls
4784 4069 Pls
4784 4068 Pls
4784 4066 Pls
4785 4065 Pls
4785 4064 Pls
4785 4062 Pls
4785 4061 Pls
4785 4060 Pls
4786 4057 Pls
4786 4056 Pls
4786 4055 Pls
4786 4054 Pls
4787 4052 Pls
4787 4051 Pls
4787 4050 Pls
4787 4048 Pls
4787 4047 Pls
4787 4046 Pls
4788 4045 Pls
4788 4042 Pls
4788 4041 Pls
4788 4040 Pls
4788 4038 Pls
4789 4037 Pls
4790 4036 Pls
4790 4034 Pls
4790 4033 Pls
4791 4032 Pls
4791 4031 Pls
4791 4029 Pls
4791 4028 Pls
4791 4027 Pls
4792 4025 Pls
4792 4024 Pls
4792 4022 Pls
4792 4020 Pls
4793 4019 Pls
4793 4018 Pls
4793 4017 Pls
4793 4015 Pls
4793 4014 Pls
4793 4013 Pls
4794 4011 Pls
4794 4010 Pls
4795 4009 Pls
4795 4008 Pls
4795 4006 Pls
4795 4005 Pls
4795 4004 Pls
4796 4001 Pls
4796 4000 Pls
4796 3997 Pls
4796 3996 Pls
4797 3995 Pls
4797 3994 Pls
4798 3992 Pls
4798 3991 Pls
4798 3990 Pls
4799 3989 Pls
4799 3987 Pls
4799 3986 Pls
4799 3985 Pls
4799 3982 Pls
4799 3980 Pls
4799 3978 Pls
4800 3977 Pls
4800 3976 Pls
4801 3974 Pls
4801 3973 Pls
4801 3971 Pls
4801 3969 Pls
4802 3967 Pls
4802 3966 Pls
4802 3964 Pls
4802 3963 Pls
4802 3959 Pls
4803 3958 Pls
4803 3957 Pls
4803 3955 Pls
4803 3954 Pls
4803 3953 Pls
4803 3952 Pls
4803 3950 Pls
4803 3949 Pls
4804 3948 Pls
4804 3945 Pls
4804 3944 Pls
4804 3943 Pls
4805 3940 Pls
4805 3939 Pls
4805 3937 Pls
4805 3936 Pls
4805 3932 Pls
4805 3931 Pls
4805 3929 Pls
4806 3927 Pls
4806 3926 Pls
4806 3925 Pls
4807 3923 Pls
4807 3922 Pls
4807 3921 Pls
4807 3920 Pls
4807 3918 Pls
4807 3916 Pls
4807 3915 Pls
4808 3913 Pls
4808 3911 Pls
4808 3909 Pls
4808 3907 Pls
4808 3906 Pls
4808 3904 Pls
4809 3902 Pls
4809 3901 Pls
4809 3898 Pls
4809 3895 Pls
4809 3893 Pls
4810 3892 Pls
4810 3890 Pls
4810 3889 Pls
4810 3886 Pls
4810 3885 Pls
4811 3884 Pls
4811 3883 Pls
4811 3881 Pls
4812 3880 Pls
4812 3879 Pls
4812 3876 Pls
4812 3875 Pls
4812 3874 Pls
4813 3872 Pls
4813 3871 Pls
4814 3870 Pls
4814 3869 Pls
4814 3867 Pls
4814 3866 Pls
4814 3865 Pls
4815 3864 Pls
4815 3862 Pls
4815 3861 Pls
4815 3860 Pls
4816 3858 Pls
4816 3857 Pls
4816 3856 Pls
4816 3855 Pls
4816 3852 Pls
4817 3851 Pls
4817 3850 Pls
4817 3848 Pls
4817 3847 Pls
4817 3846 Pls
4818 3843 Pls
4818 3842 Pls
4818 3839 Pls
4818 3838 Pls
4818 3835 Pls
4818 3834 Pls
4818 3833 Pls
4819 3830 Pls
4819 3829 Pls
4819 3827 Pls
4819 3825 Pls
4820 3824 Pls
4820 3820 Pls
4820 3819 Pls
4821 3818 Pls
4821 3816 Pls
4821 3815 Pls
4821 3814 Pls
4821 3813 Pls
4821 3809 Pls
4821 3807 Pls
4821 3806 Pls
4822 3805 Pls
4822 3804 Pls
4822 3802 Pls
4822 3801 Pls
4822 3800 Pls
4822 3798 Pls
4822 3797 Pls
4822 3795 Pls
4823 3793 Pls
4823 3792 Pls
4823 3791 Pls
4824 3790 Pls
4824 3788 Pls
4824 3787 Pls
4824 3784 Pls
4824 3783 Pls
4824 3782 Pls
4824 3781 Pls
4824 3779 Pls
4824 3778 Pls
4824 3777 Pls
4825 3776 Pls
4825 3774 Pls
4825 3773 Pls
4826 3772 Pls
4826 3770 Pls
4826 3769 Pls
4826 3768 Pls
4827 3765 Pls
4827 3764 Pls
4827 3763 Pls
4827 3762 Pls
4827 3760 Pls
4827 3759 Pls
4828 3758 Pls
4828 3756 Pls
4828 3755 Pls
4828 3754 Pls
4828 3753 Pls
4828 3751 Pls
4828 3749 Pls
4829 3747 Pls
4829 3746 Pls
4829 3745 Pls
4829 3744 Pls
4829 3742 Pls
4829 3741 Pls
4829 3740 Pls
4830 3739 Pls
4830 3737 Pls
4830 3735 Pls
4830 3733 Pls
4831 3732 Pls
4831 3731 Pls
4831 3730 Pls
4831 3727 Pls
4831 3726 Pls
4832 3725 Pls
4832 3723 Pls
4832 3722 Pls
4832 3721 Pls
4832 3719 Pls
4832 3718 Pls
4832 3717 Pls
4833 3714 Pls
4833 3713 Pls
4833 3712 Pls
4833 3710 Pls
4833 3709 Pls
4833 3708 Pls
4834 3707 Pls
4834 3705 Pls
4834 3704 Pls
4834 3702 Pls
4834 3699 Pls
4834 3698 Pls
4834 3696 Pls
4835 3695 Pls
4835 3694 Pls
4835 3690 Pls
4835 3689 Pls
4835 3688 Pls
4836 3686 Pls
4836 3684 Pls
4836 3682 Pls
4836 3681 Pls
4836 3679 Pls
4836 3676 Pls
4837 3674 Pls
4837 3672 Pls
4837 3671 Pls
4837 3670 Pls
4837 3668 Pls
4838 3667 Pls
4838 3666 Pls
4838 3665 Pls
4838 3663 Pls
4838 3662 Pls
4839 3661 Pls
4839 3659 Pls
4839 3657 Pls
4839 3656 Pls
4839 3654 Pls
4839 3653 Pls
4839 3652 Pls
4840 3651 Pls
4840 3647 Pls
4840 3645 Pls
4840 3644 Pls
4840 3643 Pls
4840 3642 Pls
4840 3640 Pls
4840 3637 Pls
4840 3635 Pls
4840 3634 Pls
4841 3631 Pls
4841 3630 Pls
4841 3629 Pls
4841 3628 Pls
4841 3626 Pls
4841 3625 Pls
4841 3624 Pls
4842 3623 Pls
4842 3619 Pls
4842 3617 Pls
4842 3616 Pls
4842 3615 Pls
4843 3614 Pls
4843 3612 Pls
4843 3611 Pls
4843 3610 Pls
4843 3608 Pls
4843 3606 Pls
4843 3605 Pls
4844 3603 Pls
4844 3602 Pls
4844 3601 Pls
4844 3600 Pls
4844 3598 Pls
4845 3597 Pls
4845 3593 Pls
4845 3592 Pls
4845 3589 Pls
4845 3588 Pls
4845 3587 Pls
4845 3584 Pls
4846 3582 Pls
4846 3580 Pls
4846 3579 Pls
4846 3578 Pls
4846 3577 Pls
4846 3575 Pls
4847 3574 Pls
4847 3573 Pls
4847 3571 Pls
4847 3570 Pls
4847 3569 Pls
4847 3568 Pls
4848 3566 Pls
4848 3565 Pls
4848 3563 Pls
4848 3561 Pls
4848 3560 Pls
4848 3559 Pls
4848 3556 Pls
4849 3555 Pls
4849 3554 Pls
4849 3552 Pls
4850 3551 Pls
4850 3549 Pls
4850 3547 Pls
4851 3546 Pls
4851 3545 Pls
4851 3542 Pls
4851 3541 Pls
4851 3540 Pls
4852 3538 Pls
4852 3536 Pls
4852 3535 Pls
4852 3533 Pls
4852 3532 Pls
4853 3531 Pls
4853 3529 Pls
4853 3528 Pls
4854 3527 Pls
4854 3526 Pls
4854 3524 Pls
4854 3523 Pls
4854 3520 Pls
4854 3519 Pls
4854 3518 Pls
4854 3517 Pls
4855 3515 Pls
4855 3514 Pls
4855 3513 Pls
4855 3512 Pls
4855 3510 Pls
4855 3509 Pls
4856 3508 Pls
4856 3506 Pls
4856 3505 Pls
4856 3503 Pls
4856 3501 Pls
4856 3500 Pls
4856 3499 Pls
4856 3498 Pls
4857 3496 Pls
4857 3495 Pls
4857 3494 Pls
4857 3492 Pls
4857 3491 Pls
4858 3490 Pls
4858 3487 Pls
4858 3485 Pls
4859 3483 Pls
4859 3482 Pls
4859 3480 Pls
4859 3477 Pls
4860 3476 Pls
4860 3473 Pls
4860 3472 Pls
4860 3471 Pls
4860 3469 Pls
4860 3468 Pls
4861 3467 Pls
4861 3466 Pls
4861 3462 Pls
4861 3461 Pls
4861 3459 Pls
4861 3458 Pls
4861 3457 Pls
4861 3455 Pls
4861 3454 Pls
4862 3453 Pls
4862 3452 Pls
4862 3449 Pls
4863 3447 Pls
4863 3444 Pls
4863 3441 Pls
4863 3438 Pls
4863 3436 Pls
4864 3435 Pls
4864 3432 Pls
4864 3430 Pls
4864 3429 Pls
4864 3427 Pls
4864 3426 Pls
4864 3425 Pls
4864 3424 Pls
4864 3422 Pls
4865 3420 Pls
4865 3418 Pls
4865 3417 Pls
4865 3416 Pls
4866 3412 Pls
4866 3410 Pls
4866 3408 Pls
4866 3407 Pls
4866 3406 Pls
4866 3404 Pls
4867 3403 Pls
4867 3402 Pls
4867 3401 Pls
4867 3399 Pls
4867 3398 Pls
4867 3397 Pls
4867 3396 Pls
4867 3394 Pls
4867 3393 Pls
4868 3392 Pls
4868 3390 Pls
4868 3388 Pls
4868 3387 Pls
4868 3385 Pls
4868 3384 Pls
4868 3383 Pls
4868 3380 Pls
4868 3379 Pls
4868 3378 Pls
4869 3376 Pls
4869 3375 Pls
4869 3373 Pls
4869 3370 Pls
4869 3367 Pls
4869 3366 Pls
4869 3364 Pls
4869 3362 Pls
4869 3361 Pls
4869 3360 Pls
4870 3359 Pls
4870 3357 Pls
4870 3356 Pls
4870 3355 Pls
4870 3353 Pls
4870 3352 Pls
4871 3351 Pls
4871 3350 Pls
4871 3348 Pls
4871 3347 Pls
4871 3346 Pls
4871 3343 Pls
4872 3341 Pls
4872 3339 Pls
4872 3338 Pls
4872 3337 Pls
4872 3336 Pls
4873 3334 Pls
4873 3333 Pls
4873 3330 Pls
4873 3329 Pls
4873 3328 Pls
4874 3327 Pls
4874 3325 Pls
4874 3323 Pls
4874 3322 Pls
4874 3320 Pls
4874 3319 Pls
4875 3318 Pls
4875 3314 Pls
4875 3313 Pls
4875 3311 Pls
4875 3309 Pls
4875 3308 Pls
4875 3305 Pls
4876 3304 Pls
4876 3302 Pls
4876 3301 Pls
4876 3300 Pls
4876 3299 Pls
4877 3297 Pls
4877 3296 Pls
4877 3295 Pls
4877 3292 Pls
4877 3291 Pls
4877 3290 Pls
4878 3288 Pls
4878 3286 Pls
4878 3285 Pls
4878 3283 Pls
4878 3282 Pls
4878 3281 Pls
4879 3279 Pls
4879 3278 Pls
4879 3277 Pls
4879 3276 Pls
4880 3274 Pls
4880 3273 Pls
4880 3271 Pls
4880 3269 Pls
4880 3268 Pls
4880 3267 Pls
4880 3265 Pls
4881 3264 Pls
4881 3263 Pls
4881 3262 Pls
4881 3260 Pls
4881 3259 Pls
4881 3258 Pls
4881 3255 Pls
4881 3253 Pls
4881 3249 Pls
4881 3246 Pls
4882 3245 Pls
4882 3242 Pls
4882 3241 Pls
4882 3239 Pls
4882 3237 Pls
4883 3236 Pls
4883 3235 Pls
4883 3234 Pls
4883 3228 Pls
4883 3227 Pls
4883 3226 Pls
4883 3223 Pls
4883 3222 Pls
4884 3221 Pls
4884 3220 Pls
4884 3218 Pls
4884 3216 Pls
4884 3214 Pls
4884 3213 Pls
4884 3212 Pls
4884 3209 Pls
4884 3208 Pls
4884 3207 Pls
4885 3203 Pls
4885 3202 Pls
4885 3197 Pls
4885 3195 Pls
4886 3194 Pls
4886 3193 Pls
4886 3191 Pls
4886 3190 Pls
4886 3189 Pls
4886 3188 Pls
4886 3186 Pls
4886 3185 Pls
4887 3184 Pls
4887 3183 Pls
4887 3181 Pls
4887 3179 Pls
4887 3177 Pls
4887 3175 Pls
4887 3174 Pls
4887 3172 Pls
4888 3171 Pls
4888 3170 Pls
4888 3169 Pls
4889 3166 Pls
4889 3165 Pls
4889 3163 Pls
4889 3162 Pls
4890 3160 Pls
4890 3157 Pls
4890 3153 Pls
4890 3152 Pls
4890 3151 Pls
4890 3149 Pls
4890 3148 Pls
4890 3147 Pls
4891 3146 Pls
4891 3142 Pls
4891 3140 Pls
4891 3139 Pls
4892 3138 Pls
4892 3137 Pls
4892 3135 Pls
4892 3134 Pls
4893 3133 Pls
4893 3132 Pls
4893 3130 Pls
4893 3129 Pls
4893 3128 Pls
4893 3126 Pls
4894 3125 Pls
4894 3123 Pls
4894 3121 Pls
4894 3119 Pls
4894 3116 Pls
4895 3115 Pls
4895 3114 Pls
4895 3112 Pls
4895 3111 Pls
4896 3110 Pls
4896 3109 Pls
4896 3106 Pls
4896 3103 Pls
4896 3102 Pls
4896 3101 Pls
4896 3098 Pls
4897 3097 Pls
4897 3095 Pls
4897 3091 Pls
4897 3089 Pls
4897 3088 Pls
4897 3087 Pls
4898 3086 Pls
4898 3084 Pls
4898 3083 Pls
4898 3082 Pls
4899 3081 Pls
4899 3079 Pls
4899 3077 Pls
4899 3075 Pls
4899 3074 Pls
4899 3070 Pls
4899 3069 Pls
4899 3068 Pls
4899 3066 Pls
4900 3065 Pls
4900 3064 Pls
4900 3063 Pls
4900 3061 Pls
4900 3060 Pls
4900 3059 Pls
4900 3058 Pls
4900 3056 Pls
4900 3055 Pls
4901 3054 Pls
4901 3051 Pls
4901 3050 Pls
4901 3049 Pls
4901 3047 Pls
4901 3046 Pls
4901 3045 Pls
4902 3044 Pls
4902 3042 Pls
4902 3040 Pls
4902 3038 Pls
4902 3037 Pls
4903 3036 Pls
4903 3035 Pls
4903 3032 Pls
4903 3031 Pls
4903 3028 Pls
4903 3027 Pls
4903 3026 Pls
4903 3024 Pls
4904 3023 Pls
4904 3022 Pls
4904 3021 Pls
4904 3019 Pls
4904 3017 Pls
4905 3015 Pls
4905 3013 Pls
4905 3012 Pls
4905 3009 Pls
4906 3007 Pls
4906 3005 Pls
4906 3003 Pls
4906 3001 Pls
4906 2999 Pls
4906 2998 Pls
4906 2995 Pls
4906 2994 Pls
4907 2993 Pls
4907 2990 Pls
4907 2989 Pls
4907 2987 Pls
4907 2986 Pls
4907 2985 Pls
4907 2984 Pls
4907 2981 Pls
4908 2978 Pls
4908 2977 Pls
4908 2976 Pls
4908 2975 Pls
4909 2973 Pls
4909 2971 Pls
4909 2968 Pls
4909 2967 Pls
4909 2964 Pls
4910 2962 Pls
4910 2961 Pls
4910 2959 Pls
4910 2958 Pls
4910 2957 Pls
4910 2956 Pls
4911 2954 Pls
4911 2953 Pls
4911 2952 Pls
4911 2950 Pls
4911 2949 Pls
4911 2948 Pls
4912 2947 Pls
4912 2943 Pls
4912 2942 Pls
4912 2940 Pls
4912 2939 Pls
4912 2938 Pls
4912 2936 Pls
4912 2935 Pls
4912 2934 Pls
4912 2931 Pls
4912 2930 Pls
4913 2929 Pls
4913 2927 Pls
4913 2926 Pls
4913 2924 Pls
4913 2920 Pls
4913 2919 Pls
4913 2916 Pls
4914 2913 Pls
4914 2912 Pls
4914 2911 Pls
4914 2910 Pls
4914 2907 Pls
4914 2906 Pls
4915 2905 Pls
4915 2903 Pls
4915 2902 Pls
4915 2901 Pls
4915 2899 Pls
4915 2898 Pls
4915 2896 Pls
4915 2894 Pls
4915 2892 Pls
4916 2890 Pls
4916 2889 Pls
4916 2888 Pls
4916 2887 Pls
4916 2883 Pls
4916 2882 Pls
4916 2879 Pls
4916 2878 Pls
4917 2875 Pls
4917 2873 Pls
4917 2871 Pls
4917 2869 Pls
4917 2868 Pls
4918 2865 Pls
4918 2864 Pls
4918 2861 Pls
4918 2860 Pls
4918 2859 Pls
4919 2857 Pls
4919 2856 Pls
4919 2855 Pls
4919 2852 Pls
4919 2850 Pls
4919 2846 Pls
4919 2845 Pls
4919 2842 Pls
4919 2841 Pls
4919 2839 Pls
4919 2838 Pls
4920 2837 Pls
4920 2834 Pls
4920 2833 Pls
4921 2832 Pls
4921 2831 Pls
4921 2828 Pls
4921 2825 Pls
4922 2824 Pls
4922 2823 Pls
4922 2822 Pls
4922 2820 Pls
4922 2819 Pls
4922 2817 Pls
4922 2815 Pls
4922 2814 Pls
4923 2813 Pls
4923 2810 Pls
4923 2809 Pls
4924 2806 Pls
4924 2805 Pls
4924 2804 Pls
4924 2802 Pls
4924 2801 Pls
4924 2800 Pls
4924 2796 Pls
4925 2795 Pls
4925 2794 Pls
4925 2791 Pls
4925 2790 Pls
4925 2788 Pls
4925 2786 Pls
4925 2785 Pls
4926 2783 Pls
4926 2782 Pls
4926 2781 Pls
4926 2780 Pls
4926 2778 Pls
4927 2777 Pls
4927 2776 Pls
4927 2774 Pls
4927 2773 Pls
4928 2771 Pls
4928 2769 Pls
4928 2768 Pls
4928 2767 Pls
4928 2766 Pls
4928 2764 Pls
4929 2763 Pls
4929 2762 Pls
4929 2760 Pls
4929 2759 Pls
4929 2757 Pls
4929 2755 Pls
4929 2754 Pls
4929 2753 Pls
4930 2750 Pls
4930 2748 Pls
4930 2746 Pls
4930 2744 Pls
4930 2741 Pls
4930 2739 Pls
4931 2737 Pls
4931 2736 Pls
4931 2735 Pls
4931 2732 Pls
4931 2731 Pls
4931 2729 Pls
4931 2727 Pls
4932 2726 Pls
4932 2725 Pls
4932 2723 Pls
4932 2722 Pls
4932 2721 Pls
4932 2720 Pls
4932 2718 Pls
4933 2717 Pls
4933 2716 Pls
4933 2715 Pls
4933 2712 Pls
4933 2711 Pls
4933 2709 Pls
4933 2707 Pls
4933 2706 Pls
4934 2704 Pls
4934 2703 Pls
4934 2700 Pls
4934 2699 Pls
4934 2698 Pls
4934 2695 Pls
4934 2694 Pls
4934 2693 Pls
4935 2692 Pls
4935 2689 Pls
4935 2688 Pls
4935 2686 Pls
4935 2684 Pls
4935 2683 Pls
4936 2681 Pls
4936 2680 Pls
4936 2679 Pls
4936 2678 Pls
4937 2676 Pls
4937 2674 Pls
4937 2671 Pls
4937 2669 Pls
4937 2667 Pls
4937 2665 Pls
4938 2663 Pls
4938 2662 Pls
4938 2661 Pls
4938 2660 Pls
4938 2658 Pls
4938 2656 Pls
4939 2655 Pls
4939 2653 Pls
4939 2652 Pls
4940 2651 Pls
4940 2649 Pls
4940 2647 Pls
4940 2646 Pls
4940 2644 Pls
4940 2643 Pls
4940 2642 Pls
4941 2641 Pls
4941 2639 Pls
4941 2638 Pls
4941 2637 Pls
4941 2635 Pls
4941 2634 Pls
4941 2633 Pls
4941 2632 Pls
4942 2630 Pls
4942 2629 Pls
4942 2628 Pls
4942 2627 Pls
4942 2625 Pls
4942 2624 Pls
4943 2623 Pls
4943 2621 Pls
4943 2620 Pls
4943 2619 Pls
4943 2616 Pls
4943 2615 Pls
4943 2614 Pls
4943 2612 Pls
4944 2610 Pls
4944 2609 Pls
4944 2607 Pls
4944 2605 Pls
4944 2602 Pls
4945 2601 Pls
4945 2600 Pls
4945 2598 Pls
4946 2597 Pls
4946 2595 Pls
4946 2593 Pls
4946 2592 Pls
4946 2591 Pls
4947 2588 Pls
4947 2587 Pls
4947 2584 Pls
4947 2583 Pls
4948 2582 Pls
4948 2579 Pls
4948 2576 Pls
4948 2574 Pls
4948 2573 Pls
4948 2572 Pls
4948 2570 Pls
4948 2569 Pls
4949 2568 Pls
4949 2567 Pls
4949 2565 Pls
4949 2564 Pls
4949 2563 Pls
4949 2561 Pls
4949 2560 Pls
4950 2559 Pls
4950 2558 Pls
4950 2556 Pls
4950 2555 Pls
4950 2554 Pls
4950 2551 Pls
4950 2550 Pls
4950 2549 Pls
4951 2546 Pls
4951 2545 Pls
4951 2544 Pls
4951 2542 Pls
4952 2541 Pls
4952 2540 Pls
4952 2539 Pls
4952 2537 Pls
4952 2536 Pls
4952 2535 Pls
4953 2533 Pls
4953 2532 Pls
4953 2531 Pls
4953 2530 Pls
4953 2528 Pls
4953 2527 Pls
4953 2526 Pls
4953 2524 Pls
4953 2523 Pls
4954 2522 Pls
4954 2521 Pls
4954 2518 Pls
4954 2517 Pls
4954 2516 Pls
4955 2514 Pls
4955 2513 Pls
4955 2512 Pls
4955 2509 Pls
4955 2508 Pls
4956 2505 Pls
4956 2504 Pls
4956 2503 Pls
4956 2502 Pls
4956 2500 Pls
4956 2499 Pls
4956 2498 Pls
4956 2496 Pls
4957 2495 Pls
4957 2494 Pls
4957 2493 Pls
4957 2491 Pls
4957 2490 Pls
4957 2489 Pls
4957 2488 Pls
4958 2486 Pls
4958 2485 Pls
4958 2482 Pls
4958 2481 Pls
4958 2480 Pls
4958 2479 Pls
4958 2477 Pls
4958 2476 Pls
4959 2475 Pls
4959 2473 Pls
4959 2472 Pls
4959 2468 Pls
4959 2467 Pls
4959 2466 Pls
4959 2465 Pls
4960 2463 Pls
4960 2461 Pls
4960 2459 Pls
4960 2458 Pls
4960 2457 Pls
4960 2456 Pls
4960 2453 Pls
4960 2452 Pls
4961 2449 Pls
4961 2447 Pls
4961 2445 Pls
4961 2444 Pls
4961 2443 Pls
4961 2440 Pls
4961 2439 Pls
4962 2436 Pls
4962 2435 Pls
4962 2434 Pls
4962 2433 Pls
4962 2431 Pls
4962 2429 Pls
4963 2428 Pls
4963 2426 Pls
4963 2425 Pls
4963 2424 Pls
4963 2421 Pls
4963 2420 Pls
4964 2417 Pls
4964 2416 Pls
4965 2415 Pls
4965 2414 Pls
4965 2412 Pls
4965 2411 Pls
4965 2410 Pls
4965 2408 Pls
4966 2407 Pls
4966 2405 Pls
4966 2400 Pls
4966 2398 Pls
4966 2397 Pls
4966 2394 Pls
4967 2393 Pls
4967 2392 Pls
4967 2387 Pls
4967 2385 Pls
4967 2384 Pls
4967 2383 Pls
4967 2382 Pls
4967 2380 Pls
4968 2379 Pls
4968 2378 Pls
4968 2375 Pls
4968 2374 Pls
4968 2371 Pls
4968 2370 Pls
4968 2369 Pls
4968 2368 Pls
4969 2366 Pls
4969 2365 Pls
4969 2364 Pls
4969 2363 Pls
4969 2360 Pls
4969 2359 Pls
4970 2357 Pls
4970 2355 Pls
4970 2352 Pls
4970 2350 Pls
4971 2349 Pls
4971 2347 Pls
4971 2345 Pls
4971 2342 Pls
4971 2341 Pls
4971 2340 Pls
4971 2338 Pls
4971 2337 Pls
4972 2336 Pls
4972 2334 Pls
4972 2333 Pls
4972 2329 Pls
4972 2328 Pls
4972 2327 Pls
4973 2326 Pls
4973 2324 Pls
4973 2323 Pls
4973 2320 Pls
4974 2318 Pls
4974 2317 Pls
4974 2315 Pls
4974 2313 Pls
4974 2312 Pls
4974 2310 Pls
4975 2309 Pls
4975 2308 Pls
4975 2306 Pls
4975 2305 Pls
4975 2304 Pls
4976 2303 Pls
4976 2301 Pls
4976 2299 Pls
4976 2297 Pls
4976 2296 Pls
4976 2295 Pls
4976 2294 Pls
4977 2291 Pls
4977 2290 Pls
4977 2289 Pls
4977 2287 Pls
4977 2286 Pls
4978 2285 Pls
4978 2282 Pls
4978 2281 Pls
4978 2280 Pls
4978 2278 Pls
4978 2277 Pls
4978 2273 Pls
4979 2268 Pls
4979 2267 Pls
4980 2263 Pls
4980 2262 Pls
4980 2261 Pls
4980 2259 Pls
4980 2258 Pls
4980 2257 Pls
4980 2254 Pls
4981 2253 Pls
4981 2252 Pls
4981 2250 Pls
4981 2249 Pls
4981 2248 Pls
4981 2246 Pls
4981 2245 Pls
4981 2244 Pls
4981 2243 Pls
4982 2241 Pls
4982 2240 Pls
4982 2239 Pls
4982 2236 Pls
4982 2235 Pls
4982 2232 Pls
4983 2231 Pls
4983 2229 Pls
4983 2226 Pls
4983 2225 Pls
4983 2222 Pls
4983 2221 Pls
4984 2218 Pls
4984 2217 Pls
4984 2216 Pls
4984 2215 Pls
4985 2213 Pls
4985 2212 Pls
4985 2211 Pls
4985 2209 Pls
4985 2208 Pls
4985 2207 Pls
4986 2206 Pls
4986 2203 Pls
4986 2202 Pls
4987 2201 Pls
4987 2199 Pls
4987 2198 Pls
4987 2195 Pls
4987 2194 Pls
4988 2193 Pls
4988 2192 Pls
4988 2190 Pls
4988 2188 Pls
4988 2187 Pls
4989 2185 Pls
4989 2184 Pls
4989 2181 Pls
4989 2180 Pls
4989 2179 Pls
4989 2178 Pls
4990 2175 Pls
4990 2173 Pls
4990 2171 Pls
4990 2169 Pls
4990 2167 Pls
4990 2164 Pls
4990 2162 Pls
4991 2161 Pls
4991 2160 Pls
4991 2157 Pls
4991 2156 Pls
4991 2153 Pls
4992 2152 Pls
4992 2150 Pls
4992 2147 Pls
4992 2146 Pls
4992 2144 Pls
4992 2143 Pls
4992 2142 Pls
4993 2141 Pls
4993 2139 Pls
4993 2138 Pls
4993 2137 Pls
4993 2136 Pls
4993 2134 Pls
4993 2133 Pls
4994 2132 Pls
4994 2130 Pls
4994 2129 Pls
4994 2128 Pls
4995 2127 Pls
4995 2125 Pls
4995 2123 Pls
4995 2122 Pls
4996 2120 Pls
4996 2119 Pls
4996 2118 Pls
4996 2115 Pls
4996 2113 Pls
4996 2111 Pls
4996 2107 Pls
4996 2106 Pls
4996 2104 Pls
4997 2102 Pls
4997 2101 Pls
4997 2100 Pls
4997 2099 Pls
4997 2097 Pls
4997 2096 Pls
4998 2095 Pls
4998 2093 Pls
4998 2092 Pls
4998 2090 Pls
4999 2088 Pls
4999 2087 Pls
4999 2086 Pls
4999 2083 Pls
4999 2081 Pls
4999 2079 Pls
5000 2078 Pls
5000 2077 Pls
5000 2074 Pls
5000 2073 Pls
5000 2072 Pls
5000 2070 Pls
5000 2068 Pls
5000 2065 Pls
5001 2064 Pls
5001 2063 Pls
5001 2062 Pls
5001 2060 Pls
5001 2059 Pls
5002 2058 Pls
5002 2056 Pls
5002 2055 Pls
5002 2054 Pls
5003 2053 Pls
5003 2051 Pls
5003 2050 Pls
5003 2049 Pls
5003 2046 Pls
5004 2044 Pls
5004 2042 Pls
5004 2041 Pls
5004 2040 Pls
5005 2039 Pls
5005 2037 Pls
5005 2036 Pls
5005 2032 Pls
5005 2031 Pls
5005 2030 Pls
5006 2028 Pls
5006 2027 Pls
5006 2026 Pls
5006 2025 Pls
5006 2023 Pls
5006 2022 Pls
5006 2021 Pls
5006 2019 Pls
5007 2018 Pls
5007 2017 Pls
5007 2016 Pls
5007 2013 Pls
5007 2012 Pls
5007 2009 Pls
5008 2008 Pls
5008 2007 Pls
5008 2005 Pls
5008 2004 Pls
5008 2003 Pls
5008 2002 Pls
5009 2000 Pls
5009 1999 Pls
5009 1998 Pls
5009 1995 Pls
5009 1994 Pls
5009 1991 Pls
5009 1990 Pls
5009 1989 Pls
5010 1988 Pls
5010 1986 Pls
5010 1985 Pls
5011 1984 Pls
5011 1982 Pls
5011 1980 Pls
5011 1979 Pls
5012 1977 Pls
5012 1976 Pls
5013 1975 Pls
5013 1968 Pls
5013 1967 Pls
5014 1966 Pls
5014 1965 Pls
5014 1963 Pls
5014 1962 Pls
5014 1961 Pls
5014 1960 Pls
5014 1958 Pls
5015 1956 Pls
5015 1954 Pls
5015 1953 Pls
5015 1952 Pls
5015 1951 Pls
5015 1949 Pls
5015 1947 Pls
5015 1946 Pls
5015 1944 Pls
5016 1943 Pls
5016 1942 Pls
5016 1940 Pls
5017 1939 Pls
5017 1938 Pls
5017 1937 Pls
5017 1935 Pls
5017 1934 Pls
5017 1933 Pls
5017 1930 Pls
5017 1929 Pls
5017 1928 Pls
5017 1926 Pls
5018 1925 Pls
5018 1924 Pls
5019 1921 Pls
5019 1920 Pls
5020 1919 Pls
5020 1917 Pls
5020 1916 Pls
5020 1914 Pls
5020 1912 Pls
5021 1911 Pls
5021 1910 Pls
5021 1909 Pls
5021 1907 Pls
5021 1906 Pls
5021 1905 Pls
5021 1903 Pls
5021 1902 Pls
5022 1901 Pls
5022 1900 Pls
5022 1898 Pls
5022 1896 Pls
5022 1895 Pls
5023 1892 Pls
5023 1891 Pls
5023 1889 Pls
5023 1888 Pls
5023 1887 Pls
5023 1886 Pls
5023 1884 Pls
5023 1883 Pls
5023 1882 Pls
5023 1880 Pls
5023 1879 Pls
5024 1878 Pls
5024 1877 Pls
5024 1875 Pls
5024 1874 Pls
5024 1873 Pls
5024 1872 Pls
5024 1868 Pls
5024 1866 Pls
5024 1865 Pls
5024 1864 Pls
5025 1863 Pls
5025 1861 Pls
5025 1860 Pls
5026 1859 Pls
5026 1858 Pls
5026 1856 Pls
5027 1854 Pls
5027 1851 Pls
5027 1849 Pls
5027 1847 Pls
5027 1846 Pls
5028 1845 Pls
5028 1843 Pls
5028 1842 Pls
5028 1841 Pls
5028 1840 Pls
5028 1838 Pls
5028 1837 Pls
5029 1836 Pls
5029 1835 Pls
5029 1832 Pls
5030 1831 Pls
5030 1829 Pls
5030 1828 Pls
5030 1827 Pls
5030 1826 Pls
5030 1824 Pls
5030 1823 Pls
5030 1822 Pls
5030 1821 Pls
5031 1819 Pls
5031 1818 Pls
5031 1817 Pls
5032 1815 Pls
5032 1814 Pls
5032 1813 Pls
5032 1812 Pls
5032 1810 Pls
5033 1809 Pls
5033 1808 Pls
5033 1805 Pls
5033 1804 Pls
5033 1803 Pls
5033 1801 Pls
5034 1800 Pls
5034 1798 Pls
5034 1796 Pls
5034 1794 Pls
5035 1792 Pls
5035 1791 Pls
5035 1790 Pls
5035 1787 Pls
5035 1786 Pls
5035 1785 Pls
5035 1784 Pls
5036 1782 Pls
5036 1781 Pls
5036 1780 Pls
5036 1778 Pls
5036 1777 Pls
5036 1773 Pls
5037 1771 Pls
5037 1770 Pls
5037 1768 Pls
5037 1767 Pls
5037 1766 Pls
5038 1764 Pls
5038 1763 Pls
5038 1759 Pls
5038 1758 Pls
5038 1757 Pls
5038 1755 Pls
5039 1754 Pls
5039 1753 Pls
5039 1752 Pls
5039 1750 Pls
5039 1749 Pls
5039 1748 Pls
5040 1745 Pls
5040 1744 Pls
5040 1743 Pls
5040 1741 Pls
5040 1739 Pls
5040 1738 Pls
5040 1736 Pls
5040 1735 Pls
5041 1734 Pls
5041 1733 Pls
5041 1731 Pls
5041 1730 Pls
5041 1729 Pls
5042 1727 Pls
5042 1726 Pls
5042 1725 Pls
5042 1724 Pls
5042 1722 Pls
5042 1721 Pls
5043 1720 Pls
5043 1719 Pls
5043 1717 Pls
5043 1716 Pls
5043 1715 Pls
5044 1713 Pls
5044 1712 Pls
5044 1711 Pls
5044 1710 Pls
5044 1708 Pls
5044 1707 Pls
5045 1706 Pls
5045 1704 Pls
5045 1703 Pls
5046 1702 Pls
5046 1701 Pls
5046 1699 Pls
5046 1696 Pls
5046 1693 Pls
5046 1692 Pls
5047 1690 Pls
5047 1688 Pls
5047 1687 Pls
5047 1685 Pls
5047 1684 Pls
5047 1683 Pls
5048 1682 Pls
5048 1680 Pls
5048 1679 Pls
5048 1678 Pls
5049 1676 Pls
5049 1675 Pls
5049 1674 Pls
5049 1673 Pls
5049 1671 Pls
5049 1670 Pls
5049 1668 Pls
5049 1666 Pls
5050 1665 Pls
5050 1664 Pls
5050 1662 Pls
5050 1660 Pls
5050 1659 Pls
5050 1657 Pls
5050 1656 Pls
5050 1655 Pls
5050 1653 Pls
5050 1651 Pls
5051 1650 Pls
5051 1648 Pls
5051 1647 Pls
5051 1646 Pls
5051 1643 Pls
5051 1641 Pls
5051 1639 Pls
5052 1638 Pls
5052 1637 Pls
5053 1636 Pls
5053 1633 Pls
5053 1632 Pls
5053 1629 Pls
5053 1628 Pls
5053 1627 Pls
5053 1625 Pls
5053 1623 Pls
5054 1622 Pls
5054 1620 Pls
5054 1619 Pls
5054 1618 Pls
5054 1613 Pls
5054 1611 Pls
5054 1610 Pls
5055 1609 Pls
5055 1606 Pls
5055 1605 Pls
5055 1604 Pls
5055 1601 Pls
5055 1600 Pls
5056 1599 Pls
5056 1597 Pls
5056 1596 Pls
5056 1595 Pls
5057 1592 Pls
5057 1590 Pls
5057 1588 Pls
5057 1586 Pls
5057 1585 Pls
5057 1583 Pls
5058 1580 Pls
5058 1574 Pls
5059 1573 Pls
5059 1571 Pls
5059 1569 Pls
5059 1568 Pls
5059 1567 Pls
5059 1565 Pls
5060 1564 Pls
5060 1563 Pls
5060 1562 Pls
5060 1560 Pls
5060 1559 Pls
5061 1558 Pls
5061 1557 Pls
5061 1555 Pls
5061 1554 Pls
5061 1551 Pls
5062 1550 Pls
5062 1548 Pls
5062 1545 Pls
5062 1544 Pls
5062 1543 Pls
5063 1541 Pls
5063 1540 Pls
5063 1539 Pls
5064 1537 Pls
5064 1536 Pls
5064 1535 Pls
5065 1532 Pls
5065 1531 Pls
5065 1528 Pls
5066 1526 Pls
5066 1525 Pls
5066 1523 Pls
5066 1522 Pls
5066 1521 Pls
5066 1520 Pls
5067 1518 Pls
5067 1517 Pls
5067 1513 Pls
5067 1512 Pls
5067 1511 Pls
5067 1509 Pls
5068 1508 Pls
5068 1507 Pls
5068 1506 Pls
5068 1504 Pls
5069 1503 Pls
5069 1502 Pls
5069 1500 Pls
5070 1499 Pls
5070 1498 Pls
5070 1497 Pls
5070 1495 Pls
5070 1494 Pls
5070 1493 Pls
5071 1492 Pls
5071 1490 Pls
5071 1488 Pls
5071 1486 Pls
5071 1485 Pls
5071 1484 Pls
5071 1483 Pls
5071 1480 Pls
5072 1479 Pls
5072 1475 Pls
5072 1474 Pls
5073 1472 Pls
5073 1471 Pls
5073 1469 Pls
5073 1467 Pls
5074 1466 Pls
5074 1465 Pls
5074 1463 Pls
5074 1462 Pls
5075 1461 Pls
5075 1460 Pls
5075 1457 Pls
5075 1456 Pls
5075 1455 Pls
5075 1453 Pls
5076 1452 Pls
5076 1451 Pls
5076 1449 Pls
5076 1448 Pls
5076 1447 Pls
5076 1446 Pls
5076 1444 Pls
5077 1443 Pls
5077 1442 Pls
5077 1441 Pls
5077 1439 Pls
5078 1438 Pls
5078 1437 Pls
5078 1435 Pls
5078 1434 Pls
5078 1433 Pls
5079 1430 Pls
5079 1429 Pls
5079 1428 Pls
5079 1426 Pls
5079 1425 Pls
5079 1424 Pls
5080 1423 Pls
5080 1421 Pls
5080 1420 Pls
5080 1419 Pls
5080 1418 Pls
5080 1416 Pls
5081 1415 Pls
5081 1414 Pls
5081 1412 Pls
5081 1411 Pls
5081 1410 Pls
5081 1407 Pls
5082 1406 Pls
5082 1404 Pls
5082 1402 Pls
5082 1401 Pls
5083 1400 Pls
5083 1398 Pls
5083 1397 Pls
5084 1396 Pls
5085 1395 Pls
5085 1393 Pls
5085 1392 Pls
5085 1391 Pls
5085 1389 Pls
5086 1388 Pls
5086 1387 Pls
5086 1386 Pls
5087 1384 Pls
5087 1383 Pls
5087 1382 Pls
5087 1381 Pls
5088 1379 Pls
5088 1377 Pls
5088 1375 Pls
5089 1374 Pls
5089 1373 Pls
5089 1370 Pls
5089 1369 Pls
5089 1368 Pls
5089 1365 Pls
5090 1364 Pls
5090 1363 Pls
5090 1361 Pls
5090 1360 Pls
5091 1359 Pls
5091 1358 Pls
5091 1356 Pls
5091 1355 Pls
5092 1354 Pls
5092 1351 Pls
5093 1350 Pls
5093 1349 Pls
5093 1347 Pls
5093 1346 Pls
5093 1345 Pls
5094 1344 Pls
5094 1341 Pls
5094 1340 Pls
5094 1338 Pls
5094 1337 Pls
5095 1336 Pls
5095 1335 Pls
5096 1333 Pls
5096 1332 Pls
5096 1331 Pls
5096 1330 Pls
5096 1328 Pls
5096 1327 Pls
5096 1326 Pls
5096 1324 Pls
5096 1323 Pls
5097 1322 Pls
5097 1321 Pls
5097 1319 Pls
5097 1318 Pls
5097 1317 Pls
5098 1316 Pls
5098 1314 Pls
5098 1313 Pls
5098 1312 Pls
5099 1310 Pls
5099 1309 Pls
5099 1308 Pls
5099 1305 Pls
5099 1304 Pls
5100 1303 Pls
5100 1301 Pls
5100 1300 Pls
5100 1299 Pls
5100 1298 Pls
5100 1296 Pls
5100 1295 Pls
5100 1294 Pls
5101 1293 Pls
5101 1291 Pls
5101 1290 Pls
5101 1289 Pls
5102 1287 Pls
5102 1286 Pls
5102 1285 Pls
5103 1284 Pls
5103 1282 Pls
5103 1280 Pls
5104 1279 Pls
5104 1277 Pls
5104 1276 Pls
5104 1275 Pls
5104 1273 Pls
5105 1272 Pls
5105 1271 Pls
5105 1270 Pls
5106 1268 Pls
5106 1267 Pls
5107 1266 Pls
5107 1265 Pls
5107 1263 Pls
5107 1262 Pls
5107 1261 Pls
5107 1259 Pls
5109 1258 Pls
5109 1256 Pls
5109 1254 Pls
5110 1253 Pls
5110 1252 Pls
5111 1250 Pls
5111 1248 Pls
5111 1247 Pls
5111 1245 Pls
5112 1244 Pls
5112 1243 Pls
5112 1242 Pls
5112 1236 Pls
5113 1235 Pls
5113 1234 Pls
5113 1233 Pls
5113 1231 Pls
5113 1230 Pls
5114 1229 Pls
5114 1228 Pls
5114 1226 Pls
5114 1225 Pls
5115 1224 Pls
5115 1222 Pls
5115 1221 Pls
5115 1220 Pls
5116 1219 Pls
5116 1217 Pls
5116 1215 Pls
5117 1214 Pls
5118 1212 Pls
5118 1211 Pls
5118 1208 Pls
5118 1207 Pls
5118 1205 Pls
5118 1202 Pls
5119 1198 Pls
5119 1197 Pls
5119 1196 Pls
5119 1194 Pls
5119 1193 Pls
5120 1192 Pls
5120 1189 Pls
5120 1187 Pls
5120 1185 Pls
5121 1184 Pls
5121 1183 Pls
5122 1182 Pls
5122 1180 Pls
5122 1178 Pls
5123 1177 Pls
5123 1174 Pls
5123 1173 Pls
5123 1171 Pls
5123 1170 Pls
5123 1169 Pls
5124 1165 Pls
5124 1164 Pls
5124 1162 Pls
5124 1161 Pls
5124 1160 Pls
5125 1159 Pls
5125 1157 Pls
5126 1156 Pls
5126 1155 Pls
5126 1154 Pls
5126 1152 Pls
5127 1151 Pls
5127 1148 Pls
5127 1147 Pls
5128 1146 Pls
5128 1145 Pls
5128 1143 Pls
5128 1142 Pls
5128 1141 Pls
5129 1140 Pls
5130 1138 Pls
5130 1137 Pls
5130 1136 Pls
5130 1134 Pls
5131 1133 Pls
5131 1132 Pls
5131 1131 Pls
5131 1129 Pls
5131 1128 Pls
5131 1127 Pls
5131 1126 Pls
5132 1124 Pls
5132 1123 Pls
5132 1122 Pls
5132 1120 Pls
5133 1119 Pls
5133 1118 Pls
5133 1115 Pls
5133 1114 Pls
5133 1113 Pls
5134 1111 Pls
5134 1110 Pls
5134 1109 Pls
5134 1108 Pls
5134 1106 Pls
5135 1105 Pls
5135 1104 Pls
5135 1103 Pls
5135 1101 Pls
5136 1100 Pls
5136 1099 Pls
5136 1097 Pls
5136 1096 Pls
5136 1095 Pls
5137 1094 Pls
5139 1092 Pls
5139 1091 Pls
5139 1090 Pls
5139 1089 Pls
5140 1087 Pls
5140 1086 Pls
5141 1085 Pls
5141 1082 Pls
5141 1081 Pls
5142 1080 Pls
5143 1078 Pls
5144 1077 Pls
5144 1075 Pls
5144 1073 Pls
5145 1072 Pls
5145 1071 Pls
5145 1069 Pls
5145 1068 Pls
5145 1067 Pls
5146 1066 Pls
5147 1063 Pls
5147 1062 Pls
5148 1060 Pls
5148 1059 Pls
5148 1058 Pls
5149 1057 Pls
5149 1055 Pls
5149 1054 Pls
5149 1053 Pls
5150 1052 Pls
5150 1050 Pls
5150 1049 Pls
5150 1048 Pls
5150 1046 Pls
5151 1045 Pls
5151 1044 Pls
5151 1043 Pls
5152 1041 Pls
5152 1040 Pls
5152 1039 Pls
5152 1038 Pls
5152 1036 Pls
5153 1035 Pls
5153 1034 Pls
5153 1032 Pls
5154 1031 Pls
5154 1030 Pls
5154 1027 Pls
5154 1026 Pls
5155 1025 Pls
5155 1023 Pls
5155 1022 Pls
5156 1021 Pls
5156 1020 Pls
5157 1018 Pls
5158 1017 Pls
5160 1016 Pls
5160 1015 Pls
5160 1013 Pls
5160 1012 Pls
5161 1011 Pls
5161 1009 Pls
5161 1007 Pls
5162 1006 Pls
5162 1004 Pls
5162 1003 Pls
5162 1002 Pls
5163 998 Pls
5163 997 Pls
5163 995 Pls
5163 994 Pls
5163 993 Pls
5164 992 Pls
5164 990 Pls
5164 989 Pls
5165 988 Pls
5165 987 Pls
5166 985 Pls
5166 984 Pls
5167 983 Pls
5167 980 Pls
5168 979 Pls
5168 978 Pls
5168 976 Pls
5169 975 Pls
5169 974 Pls
5169 972 Pls
5169 971 Pls
5170 970 Pls
5171 969 Pls
5171 967 Pls
5172 966 Pls
5172 965 Pls
5173 964 Pls
5173 962 Pls
5173 961 Pls
5173 960 Pls
5174 958 Pls
5174 956 Pls
5175 955 Pls
5175 953 Pls
5175 951 Pls
5175 950 Pls
5175 946 Pls
5176 944 Pls
5176 943 Pls
5177 942 Pls
5177 941 Pls
5178 938 Pls
5178 937 Pls
5178 935 Pls
5178 934 Pls
5178 933 Pls
5178 932 Pls
5179 930 Pls
5180 929 Pls
5180 928 Pls
5180 927 Pls
5180 925 Pls
5181 924 Pls
5182 923 Pls
5182 921 Pls
5182 920 Pls
5182 919 Pls
5182 918 Pls
5182 916 Pls
5182 915 Pls
5183 914 Pls
5183 913 Pls
5183 911 Pls
5184 910 Pls
5185 909 Pls
5186 907 Pls
5186 906 Pls
5186 905 Pls
5186 902 Pls
5188 900 Pls
5188 899 Pls
5188 897 Pls
5189 896 Pls
5189 895 Pls
5190 893 Pls
5190 892 Pls
5191 891 Pls
5191 890 Pls
5191 888 Pls
5191 887 Pls
5192 886 Pls
5192 884 Pls
5193 883 Pls
5194 882 Pls
5195 881 Pls
5195 879 Pls
5196 878 Pls
5196 876 Pls
5196 874 Pls
5196 872 Pls
5197 870 Pls
5197 869 Pls
5198 868 Pls
5198 867 Pls
5198 865 Pls
5198 864 Pls
5198 863 Pls
5199 860 Pls
5200 859 Pls
5200 858 Pls
5200 856 Pls
5201 855 Pls
5201 854 Pls
5201 853 Pls
5201 851 Pls
5201 849 Pls
5202 847 Pls
5202 846 Pls
5203 845 Pls
5203 844 Pls
5204 841 Pls
5204 840 Pls
5205 839 Pls
5205 837 Pls
5205 836 Pls
5205 835 Pls
5205 833 Pls
5206 832 Pls
5207 831 Pls
5207 830 Pls
5207 828 Pls
5207 827 Pls
5209 826 Pls
5211 825 Pls
5211 823 Pls
5211 822 Pls
5212 821 Pls
5213 819 Pls
5213 818 Pls
5213 817 Pls
5215 816 Pls
5215 814 Pls
5215 813 Pls
5216 812 Pls
5216 811 Pls
5217 809 Pls
5217 808 Pls
5217 807 Pls
5218 805 Pls
5218 804 Pls
5219 803 Pls
5219 802 Pls
5219 800 Pls
5219 799 Pls
5220 798 Pls
5221 796 Pls
5221 795 Pls
5224 794 Pls
5224 793 Pls
5224 791 Pls
5225 789 Pls
5225 788 Pls
5225 786 Pls
5225 785 Pls
5225 784 Pls
5225 782 Pls
5225 781 Pls
5227 780 Pls
5227 779 Pls
5228 777 Pls
5228 776 Pls
5229 775 Pls
5230 774 Pls
5230 772 Pls
5230 771 Pls
5232 770 Pls
5232 768 Pls
5233 767 Pls
5233 766 Pls
5233 763 Pls
5235 762 Pls
5235 761 Pls
5235 760 Pls
5235 758 Pls
5236 757 Pls
5236 756 Pls
5237 754 Pls
5237 753 Pls
5237 752 Pls
5237 751 Pls
5238 749 Pls
5238 748 Pls
5240 747 Pls
5240 745 Pls
5240 744 Pls
5242 743 Pls
5242 742 Pls
5242 740 Pls
5242 739 Pls
5243 738 Pls
5244 735 Pls
5244 734 Pls
5245 733 Pls
5245 731 Pls
5246 730 Pls
5246 729 Pls
5247 728 Pls
5248 726 Pls
5248 725 Pls
5248 724 Pls
5248 723 Pls
5251 720 Pls
5251 719 Pls
5251 717 Pls
5252 716 Pls
5252 715 Pls
5252 714 Pls
5253 712 Pls
5254 711 Pls
5255 710 Pls
5255 708 Pls
5256 707 Pls
5259 706 Pls
5259 705 Pls
5259 703 Pls
5260 702 Pls
5261 701 Pls
5261 700 Pls
5261 698 Pls
5262 697 Pls
5262 696 Pls
5263 694 Pls
5263 693 Pls
5264 691 Pls
5264 689 Pls
5266 688 Pls
5267 687 Pls
5267 686 Pls
5267 684 Pls
5269 683 Pls
5269 682 Pls
5269 680 Pls
5270 679 Pls
5271 678 Pls
5271 677 Pls
5271 675 Pls
5271 674 Pls
5273 673 Pls
5275 672 Pls
5275 670 Pls
5275 669 Pls
5275 666 Pls
5277 665 Pls
5278 664 Pls
5278 663 Pls
5279 661 Pls
5279 660 Pls
5279 659 Pls
5280 656 Pls
5280 655 Pls
5282 654 Pls
5284 652 Pls
5284 651 Pls
5285 650 Pls
5287 649 Pls
5287 647 Pls
5287 646 Pls
5288 645 Pls
5288 643 Pls
5288 642 Pls
5291 641 Pls
5292 640 Pls
5292 638 Pls
5292 637 Pls
5293 636 Pls
5293 635 Pls
5293 633 Pls
5293 632 Pls
5294 631 Pls
5294 629 Pls
5296 628 Pls
5297 627 Pls
5297 626 Pls
5299 624 Pls
5300 623 Pls
5300 622 Pls
5300 620 Pls
5302 619 Pls
5304 618 Pls
5304 617 Pls
5305 614 Pls
5306 613 Pls
5307 612 Pls
5308 610 Pls
5309 609 Pls
5310 608 Pls
5311 606 Pls
5311 605 Pls
5313 604 Pls
5314 603 Pls
5314 601 Pls
5314 600 Pls
5314 599 Pls
5314 598 Pls
5315 596 Pls
5316 595 Pls
5316 594 Pls
5318 592 Pls
5319 591 Pls
5319 590 Pls
5320 589 Pls
5320 587 Pls
5321 586 Pls
5326 584 Pls
5326 582 Pls
5328 581 Pls
5329 580 Pls
5330 578 Pls
5330 577 Pls
5331 576 Pls
5331 575 Pls
5332 573 Pls
5332 572 Pls
5332 571 Pls
5333 569 Pls
5334 568 Pls
5334 567 Pls
5334 566 Pls
5336 564 Pls
5337 563 Pls
5337 562 Pls
5337 561 Pls
5338 559 Pls
5340 558 Pls
5340 557 Pls
5341 555 Pls
5341 554 Pls
5343 553 Pls
5343 552 Pls
5347 549 Pls
5348 548 Pls
5349 547 Pls
5349 545 Pls
5352 544 Pls
5352 543 Pls
5355 541 Pls
5355 540 Pls
5355 539 Pls
5356 538 Pls
5356 536 Pls
5357 535 Pls
5358 534 Pls
5359 533 Pls
5359 531 Pls
5360 530 Pls
5360 529 Pls
5360 527 Pls
5361 526 Pls
5362 525 Pls
5363 524 Pls
5363 522 Pls
5364 521 Pls
5366 520 Pls
5367 518 Pls
5367 517 Pls
5368 516 Pls
5369 515 Pls
5370 513 Pls
5371 512 Pls
5373 511 Pls
5374 510 Pls
5374 508 Pls
5375 507 Pls
5375 506 Pls
5376 504 Pls
5376 503 Pls
5377 502 Pls
5377 501 Pls
5378 499 Pls
5380 498 Pls
5381 497 Pls
5381 496 Pls
5384 494 Pls
5384 493 Pls
5386 492 Pls
5388 490 Pls
5388 489 Pls
5388 488 Pls
5388 487 Pls
5392 485 Pls
5393 484 Pls
5393 483 Pls
5398 481 Pls
5399 480 Pls
5399 479 Pls
5401 478 Pls
5402 476 Pls
5402 475 Pls
5404 474 Pls
5407 473 Pls
5409 471 Pls
5411 470 Pls
5412 469 Pls
5414 467 Pls
5416 466 Pls
5416 465 Pls
5416 464 Pls
5418 462 Pls
5418 461 Pls
5420 460 Pls
5420 459 Pls
5420 457 Pls
5420 456 Pls
5421 455 Pls
5421 453 Pls
5422 452 Pls
5423 451 Pls
5423 450 Pls
5426 448 Pls
5428 447 Pls
5431 446 Pls
5433 445 Pls
5437 443 Pls
5437 442 Pls
5438 441 Pls
5439 439 Pls
5439 438 Pls
5441 437 Pls
5441 436 Pls
5443 434 Pls
5444 433 Pls
5444 432 Pls
5444 430 Pls
5445 429 Pls
5445 428 Pls
5446 427 Pls
5449 425 Pls
5453 424 Pls
5454 422 Pls
5456 420 Pls
5457 419 Pls
5457 418 Pls
5459 416 Pls
5468 415 Pls
5469 414 Pls
5471 413 Pls
5474 411 Pls
5474 410 Pls
5476 409 Pls
5477 408 Pls
5481 406 Pls
5484 405 Pls
5492 404 Pls
5494 402 Pls
5499 401 Pls
5500 400 Pls
5503 399 Pls
5507 397 Pls
5509 396 Pls
5509 395 Pls
5510 393 Pls
5510 392 Pls
5515 391 Pls
5520 390 Pls
5520 388 Pls
5520 387 Pls
5528 386 Pls
5535 385 Pls
5538 383 Pls
5539 382 Pls
5545 381 Pls
5550 379 Pls
5551 378 Pls
5560 377 Pls
5562 376 Pls
5564 374 Pls
5574 373 Pls
5574 372 Pls
5575 371 Pls
5575 369 Pls
5577 368 Pls
5578 367 Pls
5587 365 Pls
5591 364 Pls
5593 363 Pls
5594 362 Pls
5599 360 Pls
5599 359 Pls
5599 358 Pls
5603 357 Pls
5606 355 Pls
5608 354 Pls
5613 353 Pls
5615 351 Pls
5619 350 Pls
5624 349 Pls
5625 348 Pls
5633 346 Pls
5645 345 Pls
5646 344 Pls
5665 342 Pls
5667 341 Pls
5669 340 Pls
5679 339 Pls
5680 337 Pls
5681 336 Pls
5690 335 Pls
5691 334 Pls
5693 332 Pls
5698 331 Pls
5702 330 Pls
5710 328 Pls
5715 327 Pls
5724 326 Pls
5733 325 Pls
5737 323 Pls
5738 322 Pls
5745 321 Pls
5752 320 Pls
5757 318 Pls
5762 317 Pls
5765 316 Pls
5766 314 Pls
5767 313 Pls
5768 312 Pls
5772 311 Pls
5778 309 Pls
5778 308 Pls
5790 307 Pls
5823 306 Pls
5828 304 Pls
5837 303 Pls
5851 302 Pls
5861 300 Pls
5883 299 Pls
5889 298 Pls
5892 297 Pls
5976 295 Pls
5985 294 Pls
6039 293 Pls
6060 291 Pls
6072 290 Pls
6115 289 Pls
6139 288 Pls
6186 286 Pls
6311 285 Pls
6359 284 Pls
6413 283 Pls
6414 281 Pls
% End plot #1
2.000 UL
LTb
LCb setrgbcolor
1.000 UL
LTB
LCb setrgbcolor
546 4871 N
546 280 L
6401 0 V
0 4591 V
-6401 0 V
Z stroke
1.000 UP
1.000 UL
LTb
LCb setrgbcolor
stroke
grestore
end
showpage
%%Trailer
%%DocumentFonts: Helvetica
%%Pages: 1
