%!PS-Adobe-2.0
%%Title: packets-s-dist-loglin.eps
%%Creator: gnuplot 5.0 patchlevel 3
%%CreationDate: Mon May 29 11:05:49 2017
%%DocumentFonts: (atend)
%%BoundingBox: 50 50 554 770
%%Orientation: Landscape
%%Pages: (atend)
%%EndComments
%%BeginProlog
/gnudict 256 dict def
gnudict begin
%
% The following true/false flags may be edited by hand if desired.
% The unit line width and grayscale image gamma correction may also be changed.
%
/Color true def
/Blacktext false def
/Solid false def
/Dashlength 1 def
/Landscape true def
/Level1 false def
/Level3 false def
/Rounded false def
/ClipToBoundingBox false def
/SuppressPDFMark false def
/TransparentPatterns false def
/gnulinewidth 5.000 def
/userlinewidth gnulinewidth def
/Gamma 1.0 def
/BackgroundColor {-1.000 -1.000 -1.000} def
%
/vshift -46 def
/dl1 {
  10.0 Dashlength userlinewidth gnulinewidth div mul mul mul
  Rounded { currentlinewidth 0.75 mul sub dup 0 le { pop 0.01 } if } if
} def
/dl2 {
  10.0 Dashlength userlinewidth gnulinewidth div mul mul mul
  Rounded { currentlinewidth 0.75 mul add } if
} def
/hpt_ 31.5 def
/vpt_ 31.5 def
/hpt hpt_ def
/vpt vpt_ def
/doclip {
  ClipToBoundingBox {
    newpath 50 50 moveto 554 50 lineto 554 770 lineto 50 770 lineto closepath
    clip
  } if
} def
%
% Gnuplot Prolog Version 5.1 (Oct 2015)
%
%/SuppressPDFMark true def
%
/M {moveto} bind def
/L {lineto} bind def
/R {rmoveto} bind def
/V {rlineto} bind def
/N {newpath moveto} bind def
/Z {closepath} bind def
/C {setrgbcolor} bind def
/f {rlineto fill} bind def
/g {setgray} bind def
/Gshow {show} def   % May be redefined later in the file to support UTF-8
/vpt2 vpt 2 mul def
/hpt2 hpt 2 mul def
/Lshow {currentpoint stroke M 0 vshift R 
	Blacktext {gsave 0 setgray textshow grestore} {textshow} ifelse} def
/Rshow {currentpoint stroke M dup stringwidth pop neg vshift R
	Blacktext {gsave 0 setgray textshow grestore} {textshow} ifelse} def
/Cshow {currentpoint stroke M dup stringwidth pop -2 div vshift R 
	Blacktext {gsave 0 setgray textshow grestore} {textshow} ifelse} def
/UP {dup vpt_ mul /vpt exch def hpt_ mul /hpt exch def
  /hpt2 hpt 2 mul def /vpt2 vpt 2 mul def} def
/DL {Color {setrgbcolor Solid {pop []} if 0 setdash}
 {pop pop pop 0 setgray Solid {pop []} if 0 setdash} ifelse} def
/BL {stroke userlinewidth 2 mul setlinewidth
	Rounded {1 setlinejoin 1 setlinecap} if} def
/AL {stroke userlinewidth 2 div setlinewidth
	Rounded {1 setlinejoin 1 setlinecap} if} def
/UL {dup gnulinewidth mul /userlinewidth exch def
	dup 1 lt {pop 1} if 10 mul /udl exch def} def
/PL {stroke userlinewidth setlinewidth
	Rounded {1 setlinejoin 1 setlinecap} if} def
3.8 setmiterlimit
% Classic Line colors (version 5.0)
/LCw {1 1 1} def
/LCb {0 0 0} def
/LCa {0 0 0} def
/LC0 {1 0 0} def
/LC1 {0 1 0} def
/LC2 {0 0 1} def
/LC3 {1 0 1} def
/LC4 {0 1 1} def
/LC5 {1 1 0} def
/LC6 {0 0 0} def
/LC7 {1 0.3 0} def
/LC8 {0.5 0.5 0.5} def
% Default dash patterns (version 5.0)
/LTB {BL [] LCb DL} def
/LTw {PL [] 1 setgray} def
/LTb {PL [] LCb DL} def
/LTa {AL [1 udl mul 2 udl mul] 0 setdash LCa setrgbcolor} def
/LT0 {PL [] LC0 DL} def
/LT1 {PL [2 dl1 3 dl2] LC1 DL} def
/LT2 {PL [1 dl1 1.5 dl2] LC2 DL} def
/LT3 {PL [6 dl1 2 dl2 1 dl1 2 dl2] LC3 DL} def
/LT4 {PL [1 dl1 2 dl2 6 dl1 2 dl2 1 dl1 2 dl2] LC4 DL} def
/LT5 {PL [4 dl1 2 dl2] LC5 DL} def
/LT6 {PL [1.5 dl1 1.5 dl2 1.5 dl1 1.5 dl2 1.5 dl1 6 dl2] LC6 DL} def
/LT7 {PL [3 dl1 3 dl2 1 dl1 3 dl2] LC7 DL} def
/LT8 {PL [2 dl1 2 dl2 2 dl1 6 dl2] LC8 DL} def
/SL {[] 0 setdash} def
/Pnt {stroke [] 0 setdash gsave 1 setlinecap M 0 0 V stroke grestore} def
/Dia {stroke [] 0 setdash 2 copy vpt add M
  hpt neg vpt neg V hpt vpt neg V
  hpt vpt V hpt neg vpt V closepath stroke
  Pnt} def
/Pls {stroke [] 0 setdash vpt sub M 0 vpt2 V
  currentpoint stroke M
  hpt neg vpt neg R hpt2 0 V stroke
 } def
/Box {stroke [] 0 setdash 2 copy exch hpt sub exch vpt add M
  0 vpt2 neg V hpt2 0 V 0 vpt2 V
  hpt2 neg 0 V closepath stroke
  Pnt} def
/Crs {stroke [] 0 setdash exch hpt sub exch vpt add M
  hpt2 vpt2 neg V currentpoint stroke M
  hpt2 neg 0 R hpt2 vpt2 V stroke} def
/TriU {stroke [] 0 setdash 2 copy vpt 1.12 mul add M
  hpt neg vpt -1.62 mul V
  hpt 2 mul 0 V
  hpt neg vpt 1.62 mul V closepath stroke
  Pnt} def
/Star {2 copy Pls Crs} def
/BoxF {stroke [] 0 setdash exch hpt sub exch vpt add M
  0 vpt2 neg V hpt2 0 V 0 vpt2 V
  hpt2 neg 0 V closepath fill} def
/TriUF {stroke [] 0 setdash vpt 1.12 mul add M
  hpt neg vpt -1.62 mul V
  hpt 2 mul 0 V
  hpt neg vpt 1.62 mul V closepath fill} def
/TriD {stroke [] 0 setdash 2 copy vpt 1.12 mul sub M
  hpt neg vpt 1.62 mul V
  hpt 2 mul 0 V
  hpt neg vpt -1.62 mul V closepath stroke
  Pnt} def
/TriDF {stroke [] 0 setdash vpt 1.12 mul sub M
  hpt neg vpt 1.62 mul V
  hpt 2 mul 0 V
  hpt neg vpt -1.62 mul V closepath fill} def
/DiaF {stroke [] 0 setdash vpt add M
  hpt neg vpt neg V hpt vpt neg V
  hpt vpt V hpt neg vpt V closepath fill} def
/Pent {stroke [] 0 setdash 2 copy gsave
  translate 0 hpt M 4 {72 rotate 0 hpt L} repeat
  closepath stroke grestore Pnt} def
/PentF {stroke [] 0 setdash gsave
  translate 0 hpt M 4 {72 rotate 0 hpt L} repeat
  closepath fill grestore} def
/Circle {stroke [] 0 setdash 2 copy
  hpt 0 360 arc stroke Pnt} def
/CircleF {stroke [] 0 setdash hpt 0 360 arc fill} def
/C0 {BL [] 0 setdash 2 copy moveto vpt 90 450 arc} bind def
/C1 {BL [] 0 setdash 2 copy moveto
	2 copy vpt 0 90 arc closepath fill
	vpt 0 360 arc closepath} bind def
/C2 {BL [] 0 setdash 2 copy moveto
	2 copy vpt 90 180 arc closepath fill
	vpt 0 360 arc closepath} bind def
/C3 {BL [] 0 setdash 2 copy moveto
	2 copy vpt 0 180 arc closepath fill
	vpt 0 360 arc closepath} bind def
/C4 {BL [] 0 setdash 2 copy moveto
	2 copy vpt 180 270 arc closepath fill
	vpt 0 360 arc closepath} bind def
/C5 {BL [] 0 setdash 2 copy moveto
	2 copy vpt 0 90 arc
	2 copy moveto
	2 copy vpt 180 270 arc closepath fill
	vpt 0 360 arc} bind def
/C6 {BL [] 0 setdash 2 copy moveto
	2 copy vpt 90 270 arc closepath fill
	vpt 0 360 arc closepath} bind def
/C7 {BL [] 0 setdash 2 copy moveto
	2 copy vpt 0 270 arc closepath fill
	vpt 0 360 arc closepath} bind def
/C8 {BL [] 0 setdash 2 copy moveto
	2 copy vpt 270 360 arc closepath fill
	vpt 0 360 arc closepath} bind def
/C9 {BL [] 0 setdash 2 copy moveto
	2 copy vpt 270 450 arc closepath fill
	vpt 0 360 arc closepath} bind def
/C10 {BL [] 0 setdash 2 copy 2 copy moveto vpt 270 360 arc closepath fill
	2 copy moveto
	2 copy vpt 90 180 arc closepath fill
	vpt 0 360 arc closepath} bind def
/C11 {BL [] 0 setdash 2 copy moveto
	2 copy vpt 0 180 arc closepath fill
	2 copy moveto
	2 copy vpt 270 360 arc closepath fill
	vpt 0 360 arc closepath} bind def
/C12 {BL [] 0 setdash 2 copy moveto
	2 copy vpt 180 360 arc closepath fill
	vpt 0 360 arc closepath} bind def
/C13 {BL [] 0 setdash 2 copy moveto
	2 copy vpt 0 90 arc closepath fill
	2 copy moveto
	2 copy vpt 180 360 arc closepath fill
	vpt 0 360 arc closepath} bind def
/C14 {BL [] 0 setdash 2 copy moveto
	2 copy vpt 90 360 arc closepath fill
	vpt 0 360 arc} bind def
/C15 {BL [] 0 setdash 2 copy vpt 0 360 arc closepath fill
	vpt 0 360 arc closepath} bind def
/Rec {newpath 4 2 roll moveto 1 index 0 rlineto 0 exch rlineto
	neg 0 rlineto closepath} bind def
/Square {dup Rec} bind def
/Bsquare {vpt sub exch vpt sub exch vpt2 Square} bind def
/S0 {BL [] 0 setdash 2 copy moveto 0 vpt rlineto BL Bsquare} bind def
/S1 {BL [] 0 setdash 2 copy vpt Square fill Bsquare} bind def
/S2 {BL [] 0 setdash 2 copy exch vpt sub exch vpt Square fill Bsquare} bind def
/S3 {BL [] 0 setdash 2 copy exch vpt sub exch vpt2 vpt Rec fill Bsquare} bind def
/S4 {BL [] 0 setdash 2 copy exch vpt sub exch vpt sub vpt Square fill Bsquare} bind def
/S5 {BL [] 0 setdash 2 copy 2 copy vpt Square fill
	exch vpt sub exch vpt sub vpt Square fill Bsquare} bind def
/S6 {BL [] 0 setdash 2 copy exch vpt sub exch vpt sub vpt vpt2 Rec fill Bsquare} bind def
/S7 {BL [] 0 setdash 2 copy exch vpt sub exch vpt sub vpt vpt2 Rec fill
	2 copy vpt Square fill Bsquare} bind def
/S8 {BL [] 0 setdash 2 copy vpt sub vpt Square fill Bsquare} bind def
/S9 {BL [] 0 setdash 2 copy vpt sub vpt vpt2 Rec fill Bsquare} bind def
/S10 {BL [] 0 setdash 2 copy vpt sub vpt Square fill 2 copy exch vpt sub exch vpt Square fill
	Bsquare} bind def
/S11 {BL [] 0 setdash 2 copy vpt sub vpt Square fill 2 copy exch vpt sub exch vpt2 vpt Rec fill
	Bsquare} bind def
/S12 {BL [] 0 setdash 2 copy exch vpt sub exch vpt sub vpt2 vpt Rec fill Bsquare} bind def
/S13 {BL [] 0 setdash 2 copy exch vpt sub exch vpt sub vpt2 vpt Rec fill
	2 copy vpt Square fill Bsquare} bind def
/S14 {BL [] 0 setdash 2 copy exch vpt sub exch vpt sub vpt2 vpt Rec fill
	2 copy exch vpt sub exch vpt Square fill Bsquare} bind def
/S15 {BL [] 0 setdash 2 copy Bsquare fill Bsquare} bind def
/D0 {gsave translate 45 rotate 0 0 S0 stroke grestore} bind def
/D1 {gsave translate 45 rotate 0 0 S1 stroke grestore} bind def
/D2 {gsave translate 45 rotate 0 0 S2 stroke grestore} bind def
/D3 {gsave translate 45 rotate 0 0 S3 stroke grestore} bind def
/D4 {gsave translate 45 rotate 0 0 S4 stroke grestore} bind def
/D5 {gsave translate 45 rotate 0 0 S5 stroke grestore} bind def
/D6 {gsave translate 45 rotate 0 0 S6 stroke grestore} bind def
/D7 {gsave translate 45 rotate 0 0 S7 stroke grestore} bind def
/D8 {gsave translate 45 rotate 0 0 S8 stroke grestore} bind def
/D9 {gsave translate 45 rotate 0 0 S9 stroke grestore} bind def
/D10 {gsave translate 45 rotate 0 0 S10 stroke grestore} bind def
/D11 {gsave translate 45 rotate 0 0 S11 stroke grestore} bind def
/D12 {gsave translate 45 rotate 0 0 S12 stroke grestore} bind def
/D13 {gsave translate 45 rotate 0 0 S13 stroke grestore} bind def
/D14 {gsave translate 45 rotate 0 0 S14 stroke grestore} bind def
/D15 {gsave translate 45 rotate 0 0 S15 stroke grestore} bind def
/DiaE {stroke [] 0 setdash vpt add M
  hpt neg vpt neg V hpt vpt neg V
  hpt vpt V hpt neg vpt V closepath stroke} def
/BoxE {stroke [] 0 setdash exch hpt sub exch vpt add M
  0 vpt2 neg V hpt2 0 V 0 vpt2 V
  hpt2 neg 0 V closepath stroke} def
/TriUE {stroke [] 0 setdash vpt 1.12 mul add M
  hpt neg vpt -1.62 mul V
  hpt 2 mul 0 V
  hpt neg vpt 1.62 mul V closepath stroke} def
/TriDE {stroke [] 0 setdash vpt 1.12 mul sub M
  hpt neg vpt 1.62 mul V
  hpt 2 mul 0 V
  hpt neg vpt -1.62 mul V closepath stroke} def
/PentE {stroke [] 0 setdash gsave
  translate 0 hpt M 4 {72 rotate 0 hpt L} repeat
  closepath stroke grestore} def
/CircE {stroke [] 0 setdash 
  hpt 0 360 arc stroke} def
/Opaque {gsave closepath 1 setgray fill grestore 0 setgray closepath} def
/DiaW {stroke [] 0 setdash vpt add M
  hpt neg vpt neg V hpt vpt neg V
  hpt vpt V hpt neg vpt V Opaque stroke} def
/BoxW {stroke [] 0 setdash exch hpt sub exch vpt add M
  0 vpt2 neg V hpt2 0 V 0 vpt2 V
  hpt2 neg 0 V Opaque stroke} def
/TriUW {stroke [] 0 setdash vpt 1.12 mul add M
  hpt neg vpt -1.62 mul V
  hpt 2 mul 0 V
  hpt neg vpt 1.62 mul V Opaque stroke} def
/TriDW {stroke [] 0 setdash vpt 1.12 mul sub M
  hpt neg vpt 1.62 mul V
  hpt 2 mul 0 V
  hpt neg vpt -1.62 mul V Opaque stroke} def
/PentW {stroke [] 0 setdash gsave
  translate 0 hpt M 4 {72 rotate 0 hpt L} repeat
  Opaque stroke grestore} def
/CircW {stroke [] 0 setdash 
  hpt 0 360 arc Opaque stroke} def
/BoxFill {gsave Rec 1 setgray fill grestore} def
/Density {
  /Fillden exch def
  currentrgbcolor
  /ColB exch def /ColG exch def /ColR exch def
  /ColR ColR Fillden mul Fillden sub 1 add def
  /ColG ColG Fillden mul Fillden sub 1 add def
  /ColB ColB Fillden mul Fillden sub 1 add def
  ColR ColG ColB setrgbcolor} def
/BoxColFill {gsave Rec PolyFill} def
/PolyFill {gsave Density fill grestore grestore} def
/h {rlineto rlineto rlineto gsave closepath fill grestore} bind def
%
% PostScript Level 1 Pattern Fill routine for rectangles
% Usage: x y w h s a XX PatternFill
%	x,y = lower left corner of box to be filled
%	w,h = width and height of box
%	  a = angle in degrees between lines and x-axis
%	 XX = 0/1 for no/yes cross-hatch
%
/PatternFill {gsave /PFa [ 9 2 roll ] def
  PFa 0 get PFa 2 get 2 div add PFa 1 get PFa 3 get 2 div add translate
  PFa 2 get -2 div PFa 3 get -2 div PFa 2 get PFa 3 get Rec
  TransparentPatterns {} {gsave 1 setgray fill grestore} ifelse
  clip
  currentlinewidth 0.5 mul setlinewidth
  /PFs PFa 2 get dup mul PFa 3 get dup mul add sqrt def
  0 0 M PFa 5 get rotate PFs -2 div dup translate
  0 1 PFs PFa 4 get div 1 add floor cvi
	{PFa 4 get mul 0 M 0 PFs V} for
  0 PFa 6 get ne {
	0 1 PFs PFa 4 get div 1 add floor cvi
	{PFa 4 get mul 0 2 1 roll M PFs 0 V} for
 } if
  stroke grestore} def
%
/languagelevel where
 {pop languagelevel} {1} ifelse
dup 2 lt
	{/InterpretLevel1 true def
	 /InterpretLevel3 false def}
	{/InterpretLevel1 Level1 def
	 2 gt
	    {/InterpretLevel3 Level3 def}
	    {/InterpretLevel3 false def}
	 ifelse }
 ifelse
%
% PostScript level 2 pattern fill definitions
%
/Level2PatternFill {
/Tile8x8 {/PaintType 2 /PatternType 1 /TilingType 1 /BBox [0 0 8 8] /XStep 8 /YStep 8}
	bind def
/KeepColor {currentrgbcolor [/Pattern /DeviceRGB] setcolorspace} bind def
<< Tile8x8
 /PaintProc {0.5 setlinewidth pop 0 0 M 8 8 L 0 8 M 8 0 L stroke} 
>> matrix makepattern
/Pat1 exch def
<< Tile8x8
 /PaintProc {0.5 setlinewidth pop 0 0 M 8 8 L 0 8 M 8 0 L stroke
	0 4 M 4 8 L 8 4 L 4 0 L 0 4 L stroke}
>> matrix makepattern
/Pat2 exch def
<< Tile8x8
 /PaintProc {0.5 setlinewidth pop 0 0 M 0 8 L
	8 8 L 8 0 L 0 0 L fill}
>> matrix makepattern
/Pat3 exch def
<< Tile8x8
 /PaintProc {0.5 setlinewidth pop -4 8 M 8 -4 L
	0 12 M 12 0 L stroke}
>> matrix makepattern
/Pat4 exch def
<< Tile8x8
 /PaintProc {0.5 setlinewidth pop -4 0 M 8 12 L
	0 -4 M 12 8 L stroke}
>> matrix makepattern
/Pat5 exch def
<< Tile8x8
 /PaintProc {0.5 setlinewidth pop -2 8 M 4 -4 L
	0 12 M 8 -4 L 4 12 M 10 0 L stroke}
>> matrix makepattern
/Pat6 exch def
<< Tile8x8
 /PaintProc {0.5 setlinewidth pop -2 0 M 4 12 L
	0 -4 M 8 12 L 4 -4 M 10 8 L stroke}
>> matrix makepattern
/Pat7 exch def
<< Tile8x8
 /PaintProc {0.5 setlinewidth pop 8 -2 M -4 4 L
	12 0 M -4 8 L 12 4 M 0 10 L stroke}
>> matrix makepattern
/Pat8 exch def
<< Tile8x8
 /PaintProc {0.5 setlinewidth pop 0 -2 M 12 4 L
	-4 0 M 12 8 L -4 4 M 8 10 L stroke}
>> matrix makepattern
/Pat9 exch def
/Pattern1 {PatternBgnd KeepColor Pat1 setpattern} bind def
/Pattern2 {PatternBgnd KeepColor Pat2 setpattern} bind def
/Pattern3 {PatternBgnd KeepColor Pat3 setpattern} bind def
/Pattern4 {PatternBgnd KeepColor Landscape {Pat5} {Pat4} ifelse setpattern} bind def
/Pattern5 {PatternBgnd KeepColor Landscape {Pat4} {Pat5} ifelse setpattern} bind def
/Pattern6 {PatternBgnd KeepColor Landscape {Pat9} {Pat6} ifelse setpattern} bind def
/Pattern7 {PatternBgnd KeepColor Landscape {Pat8} {Pat7} ifelse setpattern} bind def
} def
%
%
%End of PostScript Level 2 code
%
/PatternBgnd {
  TransparentPatterns {} {gsave 1 setgray fill grestore} ifelse
} def
%
% Substitute for Level 2 pattern fill codes with
% grayscale if Level 2 support is not selected.
%
/Level1PatternFill {
/Pattern1 {0.250 Density} bind def
/Pattern2 {0.500 Density} bind def
/Pattern3 {0.750 Density} bind def
/Pattern4 {0.125 Density} bind def
/Pattern5 {0.375 Density} bind def
/Pattern6 {0.625 Density} bind def
/Pattern7 {0.875 Density} bind def
} def
%
% Now test for support of Level 2 code
%
Level1 {Level1PatternFill} {Level2PatternFill} ifelse
%
/Symbol-Oblique /Symbol findfont [1 0 .167 1 0 0] makefont
dup length dict begin {1 index /FID eq {pop pop} {def} ifelse} forall
currentdict end definefont pop
%
/MFshow {
   { dup 5 get 3 ge
     { 5 get 3 eq {gsave} {grestore} ifelse }
     {dup dup 0 get findfont exch 1 get scalefont setfont
     [ currentpoint ] exch dup 2 get 0 exch R dup 5 get 2 ne {dup dup 6
     get exch 4 get {textshow} {stringwidth pop 0 R} ifelse }if dup 5 get 0 eq
     {dup 3 get {2 get neg 0 exch R pop} {pop aload pop M} ifelse} {dup 5
     get 1 eq {dup 2 get exch dup 3 get exch 6 get stringwidth pop -2 div
     dup 0 R} {dup 6 get stringwidth pop -2 div 0 R 6 get
     textshow 2 index {aload pop M neg 3 -1 roll neg R pop pop} {pop pop pop
     pop aload pop M} ifelse }ifelse }ifelse }
     ifelse }
   forall} def
/Gswidth {dup type /stringtype eq {stringwidth} {pop (n) stringwidth} ifelse} def
/MFwidth {0 exch { dup 5 get 3 ge { 5 get 3 eq { 0 } { pop } ifelse }
 {dup 3 get{dup dup 0 get findfont exch 1 get scalefont setfont
     6 get Gswidth pop add} {pop} ifelse} ifelse} forall} def
/MLshow { currentpoint stroke M
  0 exch R
  Blacktext {gsave 0 setgray MFshow grestore} {MFshow} ifelse } bind def
/MRshow { currentpoint stroke M
  exch dup MFwidth neg 3 -1 roll R
  Blacktext {gsave 0 setgray MFshow grestore} {MFshow} ifelse } bind def
/MCshow { currentpoint stroke M
  exch dup MFwidth -2 div 3 -1 roll R
  Blacktext {gsave 0 setgray MFshow grestore} {MFshow} ifelse } bind def
/XYsave    { [( ) 1 2 true false 3 ()] } bind def
/XYrestore { [( ) 1 2 true false 4 ()] } bind def
Level1 SuppressPDFMark or 
{} {
/SDict 10 dict def
systemdict /pdfmark known not {
  userdict /pdfmark systemdict /cleartomark get put
} if
SDict begin [
  /Title (packets-s-dist-loglin.eps)
  /Subject (gnuplot plot)
  /Creator (gnuplot 5.0 patchlevel 3)
  /Author (tiphaine)
%  /Producer (gnuplot)
%  /Keywords ()
  /CreationDate (Mon May 29 11:05:49 2017)
  /DOCINFO pdfmark
end
} ifelse
%
% Support for boxed text - Ethan A Merritt May 2005
%
/InitTextBox { userdict /TBy2 3 -1 roll put userdict /TBx2 3 -1 roll put
           userdict /TBy1 3 -1 roll put userdict /TBx1 3 -1 roll put
	   /Boxing true def } def
/ExtendTextBox { Boxing
    { gsave dup false charpath pathbbox
      dup TBy2 gt {userdict /TBy2 3 -1 roll put} {pop} ifelse
      dup TBx2 gt {userdict /TBx2 3 -1 roll put} {pop} ifelse
      dup TBy1 lt {userdict /TBy1 3 -1 roll put} {pop} ifelse
      dup TBx1 lt {userdict /TBx1 3 -1 roll put} {pop} ifelse
      grestore } if } def
/PopTextBox { newpath TBx1 TBxmargin sub TBy1 TBymargin sub M
               TBx1 TBxmargin sub TBy2 TBymargin add L
	       TBx2 TBxmargin add TBy2 TBymargin add L
	       TBx2 TBxmargin add TBy1 TBymargin sub L closepath } def
/DrawTextBox { PopTextBox stroke /Boxing false def} def
/FillTextBox { gsave PopTextBox 1 1 1 setrgbcolor fill grestore /Boxing false def} def
0 0 0 0 InitTextBox
/TBxmargin 20 def
/TBymargin 20 def
/Boxing false def
/textshow { ExtendTextBox Gshow } def
%
% redundant definitions for compatibility with prologue.ps older than 5.0.2
/LTB {BL [] LCb DL} def
/LTb {PL [] LCb DL} def
end
%%EndProlog
%%Page: 1 1
gnudict begin
gsave
doclip
50 50 translate
0.100 0.100 scale
90 rotate
0 -5040 translate
0 setgray
newpath
(Helvetica) findfont 140 scalefont setfont
BackgroundColor 0 lt 3 1 roll 0 lt exch 0 lt or or not {gsave BackgroundColor C clippath fill grestore} if
1.000 UL
LTb
LCb setrgbcolor
546 280 M
63 0 V
6338 0 R
-63 0 V
stroke
462 280 M
[ [(Helvetica) 140.0 0.0 true true 0 ( 1)]
] -46.7 MRshow
1.000 UL
LTb
LCb setrgbcolor
546 854 M
63 0 V
6338 0 R
-63 0 V
stroke
462 854 M
[ [(Helvetica) 140.0 0.0 true true 0 ( 1.5)]
] -46.7 MRshow
1.000 UL
LTb
LCb setrgbcolor
546 1428 M
63 0 V
6338 0 R
-63 0 V
stroke
462 1428 M
[ [(Helvetica) 140.0 0.0 true true 0 ( 2)]
] -46.7 MRshow
1.000 UL
LTb
LCb setrgbcolor
546 2002 M
63 0 V
6338 0 R
-63 0 V
stroke
462 2002 M
[ [(Helvetica) 140.0 0.0 true true 0 ( 2.5)]
] -46.7 MRshow
1.000 UL
LTb
LCb setrgbcolor
546 2576 M
63 0 V
6338 0 R
-63 0 V
stroke
462 2576 M
[ [(Helvetica) 140.0 0.0 true true 0 ( 3)]
] -46.7 MRshow
1.000 UL
LTb
LCb setrgbcolor
546 3149 M
63 0 V
6338 0 R
-63 0 V
stroke
462 3149 M
[ [(Helvetica) 140.0 0.0 true true 0 ( 3.5)]
] -46.7 MRshow
1.000 UL
LTb
LCb setrgbcolor
546 3723 M
63 0 V
6338 0 R
-63 0 V
stroke
462 3723 M
[ [(Helvetica) 140.0 0.0 true true 0 ( 4)]
] -46.7 MRshow
1.000 UL
LTb
LCb setrgbcolor
546 4297 M
63 0 V
6338 0 R
-63 0 V
stroke
462 4297 M
[ [(Helvetica) 140.0 0.0 true true 0 ( 4.5)]
] -46.7 MRshow
1.000 UL
LTb
LCb setrgbcolor
546 4871 M
63 0 V
6338 0 R
-63 0 V
stroke
462 4871 M
[ [(Helvetica) 140.0 0.0 true true 0 ( 5)]
] -46.7 MRshow
1.000 UL
LTb
LCb setrgbcolor
546 280 M
0 63 V
0 4528 R
0 -63 V
stroke
546 140 M
[ [(Helvetica) 140.0 0.0 true true 0 ( 1000)]
] -46.7 MCshow
1.000 UL
LTb
LCb setrgbcolor
1509 280 M
0 31 V
0 4560 R
0 -31 V
2073 280 M
0 31 V
0 4560 R
0 -31 V
2473 280 M
0 31 V
0 4560 R
0 -31 V
2783 280 M
0 31 V
0 4560 R
0 -31 V
3036 280 M
0 31 V
0 4560 R
0 -31 V
3251 280 M
0 31 V
0 4560 R
0 -31 V
3436 280 M
0 31 V
0 4560 R
0 -31 V
3600 280 M
0 31 V
0 4560 R
0 -31 V
3747 280 M
0 63 V
0 4528 R
0 -63 V
stroke
3747 140 M
[ [(Helvetica) 140.0 0.0 true true 0 ( 10000)]
] -46.7 MCshow
1.000 UL
LTb
LCb setrgbcolor
4710 280 M
0 31 V
0 4560 R
0 -31 V
5274 280 M
0 31 V
0 4560 R
0 -31 V
5673 280 M
0 31 V
0 4560 R
0 -31 V
5984 280 M
0 31 V
0 4560 R
0 -31 V
6237 280 M
0 31 V
0 4560 R
0 -31 V
6451 280 M
0 31 V
0 4560 R
0 -31 V
6637 280 M
0 31 V
0 4560 R
0 -31 V
6801 280 M
0 31 V
0 4560 R
0 -31 V
6947 280 M
0 63 V
0 4528 R
0 -63 V
stroke
6947 140 M
[ [(Helvetica) 140.0 0.0 true true 0 ( 100000)]
] -46.7 MCshow
1.000 UL
LTb
LCb setrgbcolor
1.000 UL
LTB
LCb setrgbcolor
546 4871 N
546 280 L
6401 0 V
0 4591 V
-6401 0 V
Z stroke
1.000 UP
1.000 UL
LTb
LCb setrgbcolor
% Begin plot #1
1.000 UP
1.000 UL
LTb
0.58 0.00 0.83 C 3292 280 Pls
4341 280 Pls
4378 280 Pls
4402 280 Pls
4469 280 Pls
4492 280 Pls
4493 280 Pls
4504 280 Pls
4509 280 Pls
4513 280 Pls
4518 280 Pls
4529 280 Pls
4531 280 Pls
4533 280 Pls
4535 280 Pls
4537 280 Pls
4540 280 Pls
4541 280 Pls
4543 280 Pls
4545 280 Pls
4546 280 Pls
4548 280 Pls
4549 280 Pls
4549 280 Pls
4549 280 Pls
4554 280 Pls
4554 280 Pls
4559 280 Pls
4560 280 Pls
4566 280 Pls
4568 280 Pls
4568 280 Pls
4570 280 Pls
4571 280 Pls
4571 280 Pls
4571 280 Pls
4572 280 Pls
4574 280 Pls
4574 280 Pls
4575 280 Pls
4579 1428 Pls
4580 280 Pls
4581 280 Pls
4582 280 Pls
4582 280 Pls
4582 280 Pls
4583 280 Pls
4584 280 Pls
4585 280 Pls
4585 280 Pls
4585 280 Pls
4588 280 Pls
4588 280 Pls
4588 280 Pls
4589 280 Pls
4591 280 Pls
4591 280 Pls
4592 280 Pls
4594 1428 Pls
4594 280 Pls
4594 280 Pls
4595 280 Pls
4596 280 Pls
4597 280 Pls
4598 280 Pls
4598 280 Pls
4600 1428 Pls
4601 280 Pls
4602 280 Pls
4602 280 Pls
4602 280 Pls
4603 280 Pls
4604 280 Pls
4604 280 Pls
4605 280 Pls
4606 280 Pls
4606 280 Pls
4607 280 Pls
4608 280 Pls
4608 280 Pls
4609 280 Pls
4609 280 Pls
4610 280 Pls
4610 280 Pls
4611 1428 Pls
4611 280 Pls
4612 280 Pls
4613 280 Pls
4614 280 Pls
4614 280 Pls
4615 280 Pls
4616 280 Pls
4618 280 Pls
4619 280 Pls
4620 280 Pls
4621 280 Pls
4623 280 Pls
4623 280 Pls
4624 280 Pls
4625 280 Pls
4625 280 Pls
4626 280 Pls
4628 280 Pls
4629 280 Pls
4629 280 Pls
4630 280 Pls
4630 280 Pls
4631 280 Pls
4632 280 Pls
4633 280 Pls
4633 280 Pls
4634 280 Pls
4635 280 Pls
4635 280 Pls
4637 280 Pls
4637 280 Pls
4639 280 Pls
4640 280 Pls
4641 280 Pls
4641 280 Pls
4643 280 Pls
4643 280 Pls
4644 280 Pls
4644 280 Pls
4644 280 Pls
4645 280 Pls
4647 280 Pls
4648 280 Pls
4648 280 Pls
4649 280 Pls
4650 280 Pls
4650 280 Pls
4650 280 Pls
4650 280 Pls
4650 280 Pls
4651 280 Pls
4651 280 Pls
4651 280 Pls
4652 1428 Pls
4652 280 Pls
4653 280 Pls
4653 1428 Pls
4654 280 Pls
4655 280 Pls
4655 280 Pls
4656 280 Pls
4656 280 Pls
4656 280 Pls
4657 280 Pls
4658 280 Pls
4658 1428 Pls
4658 280 Pls
4658 280 Pls
4659 280 Pls
4659 280 Pls
4660 280 Pls
4660 280 Pls
4660 280 Pls
4660 280 Pls
4660 280 Pls
4660 280 Pls
4661 280 Pls
4662 280 Pls
4662 280 Pls
4664 280 Pls
4664 280 Pls
4664 280 Pls
4665 280 Pls
4667 1428 Pls
4668 280 Pls
4668 280 Pls
4669 280 Pls
4669 280 Pls
4669 280 Pls
4670 280 Pls
4671 280 Pls
4671 280 Pls
4671 280 Pls
4673 280 Pls
4673 280 Pls
4674 280 Pls
4675 280 Pls
4676 280 Pls
4677 280 Pls
4677 280 Pls
4678 280 Pls
4678 280 Pls
4678 280 Pls
4679 280 Pls
4679 280 Pls
4679 280 Pls
4679 1428 Pls
4680 280 Pls
4680 280 Pls
4681 280 Pls
4681 280 Pls
4681 280 Pls
4681 280 Pls
4682 280 Pls
4682 280 Pls
4683 280 Pls
4683 280 Pls
4684 280 Pls
4684 1428 Pls
4684 280 Pls
4684 280 Pls
4685 280 Pls
4685 1428 Pls
4686 280 Pls
4686 280 Pls
4686 280 Pls
4687 280 Pls
4687 280 Pls
4687 280 Pls
4687 280 Pls
4687 280 Pls
4688 280 Pls
4688 280 Pls
4688 280 Pls
4689 1428 Pls
4689 280 Pls
4689 280 Pls
4689 280 Pls
4690 280 Pls
4690 280 Pls
4691 280 Pls
4691 280 Pls
4691 280 Pls
4692 280 Pls
4692 280 Pls
4692 280 Pls
4693 280 Pls
4693 280 Pls
4693 280 Pls
4694 280 Pls
4695 280 Pls
4695 1428 Pls
4695 280 Pls
4696 280 Pls
4696 280 Pls
4696 280 Pls
4696 1428 Pls
4697 280 Pls
4697 280 Pls
4697 280 Pls
4697 280 Pls
4699 280 Pls
4699 1428 Pls
4699 280 Pls
4700 280 Pls
4700 280 Pls
4700 280 Pls
4701 280 Pls
4701 1428 Pls
4701 280 Pls
4701 280 Pls
4701 280 Pls
4702 280 Pls
4702 280 Pls
4703 280 Pls
4703 1428 Pls
4703 280 Pls
4704 280 Pls
4704 280 Pls
4704 280 Pls
4704 280 Pls
4705 1428 Pls
4705 280 Pls
4705 280 Pls
4706 280 Pls
4706 280 Pls
4706 280 Pls
4706 280 Pls
4706 1428 Pls
4707 1428 Pls
4707 280 Pls
4708 280 Pls
4708 280 Pls
4708 280 Pls
4709 1428 Pls
4709 280 Pls
4709 280 Pls
4710 280 Pls
4710 280 Pls
4711 280 Pls
4711 280 Pls
4711 280 Pls
4712 280 Pls
4712 1428 Pls
4712 280 Pls
4712 280 Pls
4713 280 Pls
4713 1428 Pls
4713 280 Pls
4713 280 Pls
4713 280 Pls
4713 280 Pls
4713 280 Pls
4714 1428 Pls
4714 280 Pls
4715 280 Pls
4715 280 Pls
4715 280 Pls
4715 280 Pls
4715 280 Pls
4715 280 Pls
4715 280 Pls
4716 280 Pls
4716 280 Pls
4717 1428 Pls
4717 280 Pls
4717 280 Pls
4718 280 Pls
4718 280 Pls
4719 280 Pls
4719 280 Pls
4720 280 Pls
4720 280 Pls
4721 280 Pls
4721 280 Pls
4721 280 Pls
4722 1428 Pls
4722 280 Pls
4722 280 Pls
4723 280 Pls
4723 280 Pls
4724 280 Pls
4724 280 Pls
4724 1428 Pls
4724 280 Pls
4724 1428 Pls
4724 280 Pls
4725 280 Pls
4725 280 Pls
4725 280 Pls
4726 280 Pls
4726 280 Pls
4727 280 Pls
4727 280 Pls
4727 280 Pls
4727 280 Pls
4728 2576 Pls
4728 280 Pls
4728 280 Pls
4728 280 Pls
4728 280 Pls
4728 280 Pls
4729 280 Pls
4729 280 Pls
4730 280 Pls
4730 280 Pls
4730 280 Pls
4731 280 Pls
4731 280 Pls
4731 280 Pls
4732 280 Pls
4732 280 Pls
4732 1428 Pls
4732 280 Pls
4733 1428 Pls
4733 280 Pls
4733 280 Pls
4733 280 Pls
4734 280 Pls
4734 280 Pls
4734 280 Pls
4734 280 Pls
4735 280 Pls
4735 280 Pls
4735 280 Pls
4735 280 Pls
4736 280 Pls
4736 1428 Pls
4736 280 Pls
4736 280 Pls
4737 280 Pls
4737 280 Pls
4737 280 Pls
4737 1428 Pls
4737 280 Pls
4737 280 Pls
4737 280 Pls
4738 280 Pls
4738 280 Pls
4738 280 Pls
4738 280 Pls
4739 280 Pls
4740 280 Pls
4741 280 Pls
4742 280 Pls
4742 280 Pls
4742 280 Pls
4743 280 Pls
4743 280 Pls
4743 280 Pls
4744 280 Pls
4744 280 Pls
4744 280 Pls
4744 280 Pls
4745 280 Pls
4745 280 Pls
4745 1428 Pls
4746 280 Pls
4746 280 Pls
4746 280 Pls
4746 280 Pls
4746 1428 Pls
4746 280 Pls
4746 280 Pls
4747 280 Pls
4747 280 Pls
4747 1428 Pls
4747 1428 Pls
4747 280 Pls
4748 280 Pls
4748 280 Pls
4748 280 Pls
4748 280 Pls
4748 280 Pls
4749 280 Pls
4749 280 Pls
4750 280 Pls
4750 280 Pls
4750 280 Pls
4750 280 Pls
4751 280 Pls
4751 1428 Pls
4751 280 Pls
4751 280 Pls
4752 280 Pls
4752 1428 Pls
4753 280 Pls
4753 280 Pls
4754 280 Pls
4754 1428 Pls
4754 280 Pls
4754 280 Pls
4754 280 Pls
4754 280 Pls
4755 280 Pls
4755 280 Pls
4755 1428 Pls
4755 2576 Pls
4756 280 Pls
4756 280 Pls
4756 280 Pls
4756 1428 Pls
4757 280 Pls
4757 1428 Pls
4758 280 Pls
4758 280 Pls
4758 280 Pls
4758 280 Pls
4759 1428 Pls
4759 280 Pls
4759 280 Pls
4760 280 Pls
4761 280 Pls
4761 280 Pls
4761 1428 Pls
4761 280 Pls
4762 280 Pls
4763 280 Pls
4763 1428 Pls
4763 280 Pls
4763 280 Pls
4763 280 Pls
4764 280 Pls
4764 280 Pls
4764 280 Pls
4764 280 Pls
4764 280 Pls
4765 280 Pls
4765 280 Pls
4766 2576 Pls
4766 280 Pls
4766 280 Pls
4766 280 Pls
4766 280 Pls
4766 280 Pls
4766 280 Pls
4766 1428 Pls
4766 280 Pls
4767 280 Pls
4767 1428 Pls
4767 280 Pls
4768 280 Pls
4768 280 Pls
4768 280 Pls
4768 280 Pls
4768 280 Pls
4769 280 Pls
4769 1428 Pls
4769 280 Pls
4769 280 Pls
4769 1428 Pls
4769 280 Pls
4770 1428 Pls
4770 280 Pls
4770 280 Pls
4771 1428 Pls
4771 280 Pls
4771 1428 Pls
4771 280 Pls
4771 280 Pls
4771 1428 Pls
4771 280 Pls
4772 280 Pls
4772 1428 Pls
4772 280 Pls
4772 280 Pls
4772 1428 Pls
4773 280 Pls
4773 280 Pls
4774 280 Pls
4774 280 Pls
4774 280 Pls
4774 280 Pls
4774 280 Pls
4775 280 Pls
4775 280 Pls
4776 280 Pls
4776 280 Pls
4776 280 Pls
4776 280 Pls
4777 280 Pls
4777 280 Pls
4777 280 Pls
4777 1428 Pls
4777 1428 Pls
4778 280 Pls
4778 280 Pls
4778 280 Pls
4778 280 Pls
4778 280 Pls
4779 1428 Pls
4779 280 Pls
4779 1428 Pls
4779 280 Pls
4779 280 Pls
4779 280 Pls
4780 280 Pls
4780 280 Pls
4780 1428 Pls
4780 280 Pls
4780 280 Pls
4780 280 Pls
4781 280 Pls
4781 1428 Pls
4781 280 Pls
4782 280 Pls
4782 280 Pls
4782 1428 Pls
4783 280 Pls
4783 280 Pls
4783 280 Pls
4783 280 Pls
4784 280 Pls
4784 280 Pls
4784 280 Pls
4784 280 Pls
4784 280 Pls
4784 280 Pls
4784 280 Pls
4785 280 Pls
4785 280 Pls
4785 280 Pls
4785 280 Pls
4785 1428 Pls
4786 280 Pls
4786 280 Pls
4786 280 Pls
4786 280 Pls
4787 280 Pls
4787 280 Pls
4787 280 Pls
4787 280 Pls
4787 280 Pls
4787 280 Pls
4788 1428 Pls
4788 280 Pls
4788 280 Pls
4788 280 Pls
4788 280 Pls
4789 280 Pls
4790 280 Pls
4790 280 Pls
4790 280 Pls
4791 280 Pls
4791 280 Pls
4791 280 Pls
4791 280 Pls
4791 280 Pls
4792 280 Pls
4792 1428 Pls
4792 280 Pls
4792 280 Pls
4793 280 Pls
4793 280 Pls
4793 280 Pls
4793 280 Pls
4793 280 Pls
4793 280 Pls
4794 280 Pls
4794 280 Pls
4795 280 Pls
4795 280 Pls
4795 280 Pls
4795 280 Pls
4795 1428 Pls
4796 280 Pls
4796 1428 Pls
4796 280 Pls
4796 280 Pls
4797 280 Pls
4797 280 Pls
4798 280 Pls
4798 280 Pls
4798 280 Pls
4799 280 Pls
4799 280 Pls
4799 280 Pls
4799 1428 Pls
4799 1428 Pls
4799 280 Pls
4799 280 Pls
4800 280 Pls
4800 280 Pls
4801 280 Pls
4801 1428 Pls
4801 280 Pls
4801 1428 Pls
4802 280 Pls
4802 280 Pls
4802 280 Pls
4802 2576 Pls
4802 280 Pls
4803 280 Pls
4803 280 Pls
4803 280 Pls
4803 280 Pls
4803 280 Pls
4803 280 Pls
4803 280 Pls
4803 280 Pls
4804 1428 Pls
4804 280 Pls
4804 280 Pls
4804 1428 Pls
4805 280 Pls
4805 280 Pls
4805 280 Pls
4805 2576 Pls
4805 280 Pls
4805 1428 Pls
4805 280 Pls
4806 280 Pls
4806 280 Pls
4806 280 Pls
4807 280 Pls
4807 280 Pls
4807 280 Pls
4807 280 Pls
4807 1428 Pls
4807 280 Pls
4807 280 Pls
4808 1428 Pls
4808 280 Pls
4808 1428 Pls
4808 280 Pls
4808 280 Pls
4808 1428 Pls
4809 280 Pls
4809 1428 Pls
4809 1428 Pls
4809 1428 Pls
4809 280 Pls
4810 280 Pls
4810 280 Pls
4810 1428 Pls
4810 280 Pls
4810 280 Pls
4811 280 Pls
4811 280 Pls
4811 280 Pls
4812 280 Pls
4812 1428 Pls
4812 280 Pls
4812 280 Pls
4812 280 Pls
4813 280 Pls
4813 280 Pls
4814 280 Pls
4814 280 Pls
4814 280 Pls
4814 280 Pls
4814 280 Pls
4815 280 Pls
4815 280 Pls
4815 280 Pls
4815 280 Pls
4816 280 Pls
4816 280 Pls
4816 280 Pls
4816 1428 Pls
4816 280 Pls
4817 280 Pls
4817 280 Pls
4817 280 Pls
4817 280 Pls
4817 1428 Pls
4818 280 Pls
4818 1428 Pls
4818 280 Pls
4818 1428 Pls
4818 280 Pls
4818 280 Pls
4818 1428 Pls
4819 280 Pls
4819 1428 Pls
4819 280 Pls
4819 280 Pls
4820 2576 Pls
4820 280 Pls
4820 280 Pls
4821 280 Pls
4821 280 Pls
4821 280 Pls
4821 280 Pls
4821 2576 Pls
4821 280 Pls
4821 280 Pls
4821 280 Pls
4822 280 Pls
4822 280 Pls
4822 280 Pls
4822 280 Pls
4822 280 Pls
4822 280 Pls
4822 1428 Pls
4822 280 Pls
4823 280 Pls
4823 280 Pls
4823 280 Pls
4824 280 Pls
4824 280 Pls
4824 1428 Pls
4824 280 Pls
4824 280 Pls
4824 280 Pls
4824 280 Pls
4824 280 Pls
4824 280 Pls
4824 280 Pls
4825 280 Pls
4825 280 Pls
4825 280 Pls
4826 280 Pls
4826 280 Pls
4826 280 Pls
4826 1428 Pls
4827 280 Pls
4827 280 Pls
4827 280 Pls
4827 280 Pls
4827 280 Pls
4827 280 Pls
4828 280 Pls
4828 280 Pls
4828 280 Pls
4828 280 Pls
4828 280 Pls
4828 1428 Pls
4828 280 Pls
4829 280 Pls
4829 280 Pls
4829 280 Pls
4829 280 Pls
4829 280 Pls
4829 280 Pls
4829 280 Pls
4830 280 Pls
4830 1428 Pls
4830 280 Pls
4830 280 Pls
4831 280 Pls
4831 280 Pls
4831 1428 Pls
4831 280 Pls
4831 280 Pls
4832 280 Pls
4832 280 Pls
4832 280 Pls
4832 280 Pls
4832 280 Pls
4832 280 Pls
4832 1428 Pls
4833 280 Pls
4833 280 Pls
4833 280 Pls
4833 280 Pls
4833 280 Pls
4833 280 Pls
4834 280 Pls
4834 280 Pls
4834 1428 Pls
4834 1428 Pls
4834 280 Pls
4834 280 Pls
4834 280 Pls
4835 280 Pls
4835 2576 Pls
4835 280 Pls
4835 280 Pls
4835 280 Pls
4836 1428 Pls
4836 280 Pls
4836 280 Pls
4836 1428 Pls
4836 1428 Pls
4836 1428 Pls
4837 280 Pls
4837 280 Pls
4837 280 Pls
4837 280 Pls
4837 280 Pls
4838 280 Pls
4838 280 Pls
4838 280 Pls
4838 280 Pls
4838 280 Pls
4839 280 Pls
4839 1428 Pls
4839 280 Pls
4839 280 Pls
4839 280 Pls
4839 280 Pls
4839 280 Pls
4840 2576 Pls
4840 280 Pls
4840 280 Pls
4840 280 Pls
4840 280 Pls
4840 280 Pls
4840 2576 Pls
4840 280 Pls
4840 280 Pls
4840 1428 Pls
4841 280 Pls
4841 280 Pls
4841 280 Pls
4841 280 Pls
4841 280 Pls
4841 280 Pls
4841 280 Pls
4842 2576 Pls
4842 280 Pls
4842 280 Pls
4842 280 Pls
4842 280 Pls
4843 280 Pls
4843 280 Pls
4843 280 Pls
4843 280 Pls
4843 1428 Pls
4843 280 Pls
4843 280 Pls
4844 280 Pls
4844 280 Pls
4844 280 Pls
4844 280 Pls
4844 280 Pls
4845 2576 Pls
4845 280 Pls
4845 1428 Pls
4845 280 Pls
4845 280 Pls
4845 1428 Pls
4845 1428 Pls
4846 280 Pls
4846 280 Pls
4846 280 Pls
4846 280 Pls
4846 280 Pls
4846 280 Pls
4847 280 Pls
4847 280 Pls
4847 280 Pls
4847 280 Pls
4847 280 Pls
4847 280 Pls
4848 280 Pls
4848 1428 Pls
4848 280 Pls
4848 280 Pls
4848 280 Pls
4848 1428 Pls
4848 280 Pls
4849 280 Pls
4849 280 Pls
4849 280 Pls
4850 1428 Pls
4850 280 Pls
4850 280 Pls
4851 280 Pls
4851 1428 Pls
4851 280 Pls
4851 280 Pls
4851 280 Pls
4852 1428 Pls
4852 280 Pls
4852 280 Pls
4852 280 Pls
4852 280 Pls
4853 280 Pls
4853 280 Pls
4853 280 Pls
4854 280 Pls
4854 280 Pls
4854 280 Pls
4854 1428 Pls
4854 280 Pls
4854 280 Pls
4854 280 Pls
4854 280 Pls
4855 280 Pls
4855 280 Pls
4855 280 Pls
4855 280 Pls
4855 280 Pls
4855 280 Pls
4856 280 Pls
4856 280 Pls
4856 1428 Pls
4856 280 Pls
4856 280 Pls
4856 280 Pls
4856 280 Pls
4856 280 Pls
4857 280 Pls
4857 280 Pls
4857 280 Pls
4857 280 Pls
4857 280 Pls
4858 1428 Pls
4858 1428 Pls
4858 280 Pls
4859 280 Pls
4859 1428 Pls
4859 1428 Pls
4859 280 Pls
4860 1428 Pls
4860 280 Pls
4860 280 Pls
4860 280 Pls
4860 280 Pls
4860 280 Pls
4861 280 Pls
4861 2576 Pls
4861 280 Pls
4861 280 Pls
4861 280 Pls
4861 280 Pls
4861 280 Pls
4861 280 Pls
4861 280 Pls
4862 280 Pls
4862 1428 Pls
4862 1428 Pls
4863 1428 Pls
4863 1428 Pls
4863 2576 Pls
4863 280 Pls
4863 280 Pls
4864 1428 Pls
4864 1428 Pls
4864 280 Pls
4864 280 Pls
4864 280 Pls
4864 280 Pls
4864 280 Pls
4864 280 Pls
4864 1428 Pls
4865 280 Pls
4865 280 Pls
4865 280 Pls
4865 2576 Pls
4866 1428 Pls
4866 280 Pls
4866 280 Pls
4866 280 Pls
4866 280 Pls
4866 280 Pls
4867 280 Pls
4867 280 Pls
4867 280 Pls
4867 280 Pls
4867 280 Pls
4867 280 Pls
4867 280 Pls
4867 280 Pls
4867 280 Pls
4868 280 Pls
4868 1428 Pls
4868 280 Pls
4868 280 Pls
4868 280 Pls
4868 280 Pls
4868 1428 Pls
4868 280 Pls
4868 280 Pls
4868 280 Pls
4869 280 Pls
4869 1428 Pls
4869 1428 Pls
4869 1428 Pls
4869 280 Pls
4869 1428 Pls
4869 280 Pls
4869 280 Pls
4869 280 Pls
4869 280 Pls
4870 280 Pls
4870 280 Pls
4870 280 Pls
4870 280 Pls
4870 280 Pls
4870 280 Pls
4871 280 Pls
4871 280 Pls
4871 280 Pls
4871 280 Pls
4871 1428 Pls
4871 1428 Pls
4872 280 Pls
4872 280 Pls
4872 280 Pls
4872 280 Pls
4872 280 Pls
4873 280 Pls
4873 1428 Pls
4873 280 Pls
4873 280 Pls
4873 280 Pls
4874 280 Pls
4874 1428 Pls
4874 280 Pls
4874 280 Pls
4874 280 Pls
4874 280 Pls
4875 2576 Pls
4875 280 Pls
4875 280 Pls
4875 1428 Pls
4875 280 Pls
4875 1428 Pls
4875 280 Pls
4876 280 Pls
4876 280 Pls
4876 280 Pls
4876 280 Pls
4876 280 Pls
4877 280 Pls
4877 280 Pls
4877 1428 Pls
4877 280 Pls
4877 280 Pls
4877 280 Pls
4878 1428 Pls
4878 280 Pls
4878 280 Pls
4878 280 Pls
4878 280 Pls
4878 280 Pls
4879 280 Pls
4879 280 Pls
4879 280 Pls
4879 280 Pls
4880 280 Pls
4880 1428 Pls
4880 280 Pls
4880 280 Pls
4880 280 Pls
4880 280 Pls
4880 280 Pls
4881 280 Pls
4881 280 Pls
4881 280 Pls
4881 280 Pls
4881 280 Pls
4881 1428 Pls
4881 1428 Pls
4881 2576 Pls
4881 1428 Pls
4881 280 Pls
4882 1428 Pls
4882 280 Pls
4882 1428 Pls
4882 280 Pls
4882 280 Pls
4883 280 Pls
4883 280 Pls
4883 3723 Pls
4883 280 Pls
4883 280 Pls
4883 1428 Pls
4883 280 Pls
4883 280 Pls
4884 280 Pls
4884 280 Pls
4884 1428 Pls
4884 280 Pls
4884 280 Pls
4884 280 Pls
4884 1428 Pls
4884 280 Pls
4884 280 Pls
4884 2576 Pls
4885 280 Pls
4885 3723 Pls
4885 280 Pls
4885 280 Pls
4886 280 Pls
4886 280 Pls
4886 280 Pls
4886 280 Pls
4886 280 Pls
4886 280 Pls
4886 280 Pls
4886 280 Pls
4887 280 Pls
4887 280 Pls
4887 1428 Pls
4887 280 Pls
4887 1428 Pls
4887 280 Pls
4887 280 Pls
4887 280 Pls
4888 280 Pls
4888 280 Pls
4888 1428 Pls
4889 280 Pls
4889 280 Pls
4889 280 Pls
4889 1428 Pls
4890 1428 Pls
4890 2576 Pls
4890 280 Pls
4890 280 Pls
4890 280 Pls
4890 280 Pls
4890 280 Pls
4890 280 Pls
4891 2576 Pls
4891 280 Pls
4891 280 Pls
4891 280 Pls
4892 280 Pls
4892 280 Pls
4892 280 Pls
4892 280 Pls
4893 280 Pls
4893 280 Pls
4893 280 Pls
4893 280 Pls
4893 280 Pls
4893 280 Pls
4894 1428 Pls
4894 280 Pls
4894 1428 Pls
4894 1428 Pls
4894 280 Pls
4895 280 Pls
4895 280 Pls
4895 280 Pls
4895 280 Pls
4896 280 Pls
4896 1428 Pls
4896 1428 Pls
4896 280 Pls
4896 280 Pls
4896 1428 Pls
4896 280 Pls
4897 1428 Pls
4897 2576 Pls
4897 280 Pls
4897 280 Pls
4897 280 Pls
4897 280 Pls
4898 280 Pls
4898 280 Pls
4898 280 Pls
4898 280 Pls
4899 280 Pls
4899 1428 Pls
4899 280 Pls
4899 280 Pls
4899 2576 Pls
4899 280 Pls
4899 280 Pls
4899 280 Pls
4899 280 Pls
4900 280 Pls
4900 280 Pls
4900 280 Pls
4900 280 Pls
4900 280 Pls
4900 280 Pls
4900 280 Pls
4900 280 Pls
4900 280 Pls
4901 1428 Pls
4901 280 Pls
4901 280 Pls
4901 280 Pls
4901 280 Pls
4901 280 Pls
4901 280 Pls
4902 280 Pls
4902 1428 Pls
4902 280 Pls
4902 280 Pls
4902 280 Pls
4903 280 Pls
4903 1428 Pls
4903 280 Pls
4903 1428 Pls
4903 280 Pls
4903 280 Pls
4903 280 Pls
4903 280 Pls
4904 280 Pls
4904 280 Pls
4904 280 Pls
4904 1428 Pls
4904 280 Pls
4905 1428 Pls
4905 280 Pls
4905 1428 Pls
4905 1428 Pls
4906 280 Pls
4906 1428 Pls
4906 280 Pls
4906 1428 Pls
4906 280 Pls
4906 1428 Pls
4906 280 Pls
4906 280 Pls
4907 1428 Pls
4907 280 Pls
4907 280 Pls
4907 280 Pls
4907 280 Pls
4907 280 Pls
4907 1428 Pls
4907 1428 Pls
4908 280 Pls
4908 280 Pls
4908 280 Pls
4908 280 Pls
4909 1428 Pls
4909 1428 Pls
4909 280 Pls
4909 1428 Pls
4909 1428 Pls
4910 280 Pls
4910 280 Pls
4910 280 Pls
4910 280 Pls
4910 280 Pls
4910 280 Pls
4911 280 Pls
4911 280 Pls
4911 280 Pls
4911 280 Pls
4911 280 Pls
4911 280 Pls
4912 2576 Pls
4912 280 Pls
4912 280 Pls
4912 280 Pls
4912 280 Pls
4912 280 Pls
4912 280 Pls
4912 280 Pls
4912 1428 Pls
4912 280 Pls
4912 280 Pls
4913 280 Pls
4913 280 Pls
4913 1428 Pls
4913 2576 Pls
4913 280 Pls
4913 1428 Pls
4913 1428 Pls
4914 280 Pls
4914 280 Pls
4914 280 Pls
4914 1428 Pls
4914 280 Pls
4914 280 Pls
4915 280 Pls
4915 280 Pls
4915 280 Pls
4915 280 Pls
4915 280 Pls
4915 1428 Pls
4915 280 Pls
4915 1428 Pls
4915 280 Pls
4916 280 Pls
4916 280 Pls
4916 280 Pls
4916 2576 Pls
4916 280 Pls
4916 1428 Pls
4916 280 Pls
4916 1428 Pls
4917 1428 Pls
4917 280 Pls
4917 1428 Pls
4917 280 Pls
4917 1428 Pls
4918 280 Pls
4918 1428 Pls
4918 280 Pls
4918 280 Pls
4918 280 Pls
4919 280 Pls
4919 280 Pls
4919 1428 Pls
4919 1428 Pls
4919 2576 Pls
4919 280 Pls
4919 1428 Pls
4919 280 Pls
4919 280 Pls
4919 280 Pls
4919 280 Pls
4920 1428 Pls
4920 280 Pls
4920 280 Pls
4921 280 Pls
4921 1428 Pls
4921 1428 Pls
4921 280 Pls
4922 280 Pls
4922 280 Pls
4922 280 Pls
4922 280 Pls
4922 1428 Pls
4922 280 Pls
4922 280 Pls
4922 280 Pls
4923 1428 Pls
4923 280 Pls
4923 1428 Pls
4924 280 Pls
4924 280 Pls
4924 280 Pls
4924 280 Pls
4924 280 Pls
4924 2576 Pls
4924 280 Pls
4925 280 Pls
4925 1428 Pls
4925 280 Pls
4925 280 Pls
4925 1428 Pls
4925 280 Pls
4925 280 Pls
4926 280 Pls
4926 280 Pls
4926 280 Pls
4926 280 Pls
4926 280 Pls
4927 280 Pls
4927 280 Pls
4927 280 Pls
4927 1428 Pls
4928 280 Pls
4928 280 Pls
4928 280 Pls
4928 280 Pls
4928 280 Pls
4928 280 Pls
4929 280 Pls
4929 280 Pls
4929 280 Pls
4929 1428 Pls
4929 280 Pls
4929 280 Pls
4929 280 Pls
4929 1428 Pls
4930 1428 Pls
4930 280 Pls
4930 1428 Pls
4930 1428 Pls
4930 1428 Pls
4930 280 Pls
4931 280 Pls
4931 280 Pls
4931 1428 Pls
4931 280 Pls
4931 1428 Pls
4931 280 Pls
4931 280 Pls
4932 280 Pls
4932 280 Pls
4932 280 Pls
4932 280 Pls
4932 280 Pls
4932 280 Pls
4932 280 Pls
4933 280 Pls
4933 280 Pls
4933 1428 Pls
4933 280 Pls
4933 280 Pls
4933 1428 Pls
4933 280 Pls
4933 280 Pls
4934 280 Pls
4934 1428 Pls
4934 280 Pls
4934 280 Pls
4934 1428 Pls
4934 280 Pls
4934 280 Pls
4934 280 Pls
4935 1428 Pls
4935 280 Pls
4935 280 Pls
4935 1428 Pls
4935 280 Pls
4935 280 Pls
4936 280 Pls
4936 280 Pls
4936 280 Pls
4936 280 Pls
4937 1428 Pls
4937 1428 Pls
4937 1428 Pls
4937 280 Pls
4937 1428 Pls
4937 280 Pls
4938 280 Pls
4938 280 Pls
4938 280 Pls
4938 280 Pls
4938 1428 Pls
4938 280 Pls
4939 280 Pls
4939 280 Pls
4939 280 Pls
4940 280 Pls
4940 1428 Pls
4940 280 Pls
4940 280 Pls
4940 280 Pls
4940 280 Pls
4940 280 Pls
4941 280 Pls
4941 280 Pls
4941 280 Pls
4941 280 Pls
4941 280 Pls
4941 280 Pls
4941 280 Pls
4941 280 Pls
4942 280 Pls
4942 280 Pls
4942 280 Pls
4942 280 Pls
4942 280 Pls
4942 280 Pls
4943 280 Pls
4943 280 Pls
4943 280 Pls
4943 1428 Pls
4943 280 Pls
4943 280 Pls
4943 280 Pls
4943 1428 Pls
4944 280 Pls
4944 280 Pls
4944 1428 Pls
4944 1428 Pls
4944 280 Pls
4945 280 Pls
4945 280 Pls
4945 280 Pls
4946 1428 Pls
4946 280 Pls
4946 280 Pls
4946 280 Pls
4946 1428 Pls
4947 280 Pls
4947 1428 Pls
4947 280 Pls
4947 280 Pls
4948 1428 Pls
4948 2576 Pls
4948 280 Pls
4948 280 Pls
4948 280 Pls
4948 280 Pls
4948 280 Pls
4948 280 Pls
4949 280 Pls
4949 280 Pls
4949 280 Pls
4949 280 Pls
4949 280 Pls
4949 280 Pls
4949 280 Pls
4950 280 Pls
4950 280 Pls
4950 280 Pls
4950 280 Pls
4950 1428 Pls
4950 280 Pls
4950 280 Pls
4950 1428 Pls
4951 280 Pls
4951 280 Pls
4951 280 Pls
4951 280 Pls
4952 280 Pls
4952 280 Pls
4952 280 Pls
4952 280 Pls
4952 280 Pls
4952 280 Pls
4953 280 Pls
4953 280 Pls
4953 280 Pls
4953 280 Pls
4953 280 Pls
4953 280 Pls
4953 280 Pls
4953 280 Pls
4953 280 Pls
4954 280 Pls
4954 1428 Pls
4954 280 Pls
4954 280 Pls
4954 280 Pls
4955 280 Pls
4955 280 Pls
4955 1428 Pls
4955 280 Pls
4955 1428 Pls
4956 280 Pls
4956 280 Pls
4956 280 Pls
4956 280 Pls
4956 280 Pls
4956 280 Pls
4956 280 Pls
4956 280 Pls
4957 280 Pls
4957 280 Pls
4957 280 Pls
4957 280 Pls
4957 280 Pls
4957 280 Pls
4957 280 Pls
4958 280 Pls
4958 1428 Pls
4958 280 Pls
4958 280 Pls
4958 280 Pls
4958 280 Pls
4958 280 Pls
4958 280 Pls
4959 280 Pls
4959 280 Pls
4959 2576 Pls
4959 280 Pls
4959 280 Pls
4959 280 Pls
4959 280 Pls
4960 1428 Pls
4960 280 Pls
4960 280 Pls
4960 280 Pls
4960 280 Pls
4960 1428 Pls
4960 280 Pls
4960 1428 Pls
4961 1428 Pls
4961 280 Pls
4961 280 Pls
4961 280 Pls
4961 1428 Pls
4961 280 Pls
4961 1428 Pls
4962 280 Pls
4962 280 Pls
4962 280 Pls
4962 280 Pls
4962 1428 Pls
4962 280 Pls
4963 280 Pls
4963 280 Pls
4963 280 Pls
4963 1428 Pls
4963 280 Pls
4963 1428 Pls
4964 280 Pls
4964 280 Pls
4965 280 Pls
4965 280 Pls
4965 280 Pls
4965 280 Pls
4965 280 Pls
4965 280 Pls
4966 1428 Pls
4966 3723 Pls
4966 280 Pls
4966 280 Pls
4966 1428 Pls
4966 280 Pls
4967 280 Pls
4967 3723 Pls
4967 280 Pls
4967 280 Pls
4967 280 Pls
4967 280 Pls
4967 280 Pls
4967 280 Pls
4968 280 Pls
4968 1428 Pls
4968 280 Pls
4968 1428 Pls
4968 280 Pls
4968 280 Pls
4968 280 Pls
4968 280 Pls
4969 280 Pls
4969 280 Pls
4969 280 Pls
4969 1428 Pls
4969 280 Pls
4969 280 Pls
4970 1428 Pls
4970 1428 Pls
4970 1428 Pls
4970 280 Pls
4971 280 Pls
4971 1428 Pls
4971 1428 Pls
4971 280 Pls
4971 280 Pls
4971 280 Pls
4971 280 Pls
4971 280 Pls
4972 280 Pls
4972 280 Pls
4972 2576 Pls
4972 280 Pls
4972 280 Pls
4972 280 Pls
4973 280 Pls
4973 280 Pls
4973 1428 Pls
4973 1428 Pls
4974 280 Pls
4974 280 Pls
4974 1428 Pls
4974 280 Pls
4974 280 Pls
4974 280 Pls
4975 280 Pls
4975 280 Pls
4975 280 Pls
4975 280 Pls
4975 280 Pls
4976 280 Pls
4976 1428 Pls
4976 280 Pls
4976 280 Pls
4976 280 Pls
4976 280 Pls
4976 1428 Pls
4977 280 Pls
4977 280 Pls
4977 280 Pls
4977 280 Pls
4977 280 Pls
4978 1428 Pls
4978 280 Pls
4978 280 Pls
4978 280 Pls
4978 280 Pls
4978 2576 Pls
4978 3723 Pls
4979 280 Pls
4979 2576 Pls
4980 280 Pls
4980 280 Pls
4980 280 Pls
4980 280 Pls
4980 280 Pls
4980 1428 Pls
4980 280 Pls
4981 280 Pls
4981 280 Pls
4981 280 Pls
4981 280 Pls
4981 280 Pls
4981 280 Pls
4981 280 Pls
4981 280 Pls
4981 280 Pls
4982 280 Pls
4982 280 Pls
4982 1428 Pls
4982 280 Pls
4982 1428 Pls
4982 280 Pls
4983 1428 Pls
4983 1428 Pls
4983 280 Pls
4983 1428 Pls
4983 280 Pls
4983 1428 Pls
4984 280 Pls
4984 280 Pls
4984 280 Pls
4984 280 Pls
4985 280 Pls
4985 280 Pls
4985 280 Pls
4985 280 Pls
4985 280 Pls
4985 280 Pls
4986 1428 Pls
4986 280 Pls
4986 280 Pls
4987 280 Pls
4987 280 Pls
4987 1428 Pls
4987 280 Pls
4987 280 Pls
4988 280 Pls
4988 280 Pls
4988 1428 Pls
4988 280 Pls
4988 280 Pls
4989 280 Pls
4989 1428 Pls
4989 280 Pls
4989 280 Pls
4989 280 Pls
4989 1428 Pls
4990 1428 Pls
4990 280 Pls
4990 1428 Pls
4990 280 Pls
4990 2576 Pls
4990 280 Pls
4990 280 Pls
4991 280 Pls
4991 1428 Pls
4991 280 Pls
4991 1428 Pls
4991 280 Pls
4992 1428 Pls
4992 1428 Pls
4992 280 Pls
4992 280 Pls
4992 280 Pls
4992 280 Pls
4992 280 Pls
4993 280 Pls
4993 280 Pls
4993 280 Pls
4993 280 Pls
4993 280 Pls
4993 280 Pls
4993 280 Pls
4994 280 Pls
4994 280 Pls
4994 280 Pls
4994 280 Pls
4995 280 Pls
4995 1428 Pls
4995 280 Pls
4995 280 Pls
4996 280 Pls
4996 280 Pls
4996 1428 Pls
4996 1428 Pls
4996 280 Pls
4996 2576 Pls
4996 280 Pls
4996 1428 Pls
4996 280 Pls
4997 280 Pls
4997 280 Pls
4997 280 Pls
4997 280 Pls
4997 280 Pls
4997 280 Pls
4998 280 Pls
4998 280 Pls
4998 1428 Pls
4998 280 Pls
4999 280 Pls
4999 280 Pls
4999 1428 Pls
4999 1428 Pls
4999 280 Pls
4999 280 Pls
5000 280 Pls
5000 1428 Pls
5000 280 Pls
5000 280 Pls
5000 280 Pls
5000 1428 Pls
5000 1428 Pls
5000 280 Pls
5001 280 Pls
5001 280 Pls
5001 280 Pls
5001 280 Pls
5001 280 Pls
5002 280 Pls
5002 280 Pls
5002 280 Pls
5002 280 Pls
5003 280 Pls
5003 280 Pls
5003 280 Pls
5003 1428 Pls
5003 1428 Pls
5004 280 Pls
5004 280 Pls
5004 280 Pls
5004 280 Pls
5005 280 Pls
5005 280 Pls
5005 2576 Pls
5005 280 Pls
5005 280 Pls
5005 280 Pls
5006 280 Pls
5006 280 Pls
5006 280 Pls
5006 280 Pls
5006 280 Pls
5006 280 Pls
5006 280 Pls
5006 280 Pls
5007 280 Pls
5007 280 Pls
5007 1428 Pls
5007 280 Pls
5007 1428 Pls
5007 280 Pls
5008 280 Pls
5008 280 Pls
5008 280 Pls
5008 280 Pls
5008 280 Pls
5008 280 Pls
5009 280 Pls
5009 280 Pls
5009 1428 Pls
5009 280 Pls
5009 1428 Pls
5009 280 Pls
5009 280 Pls
5009 280 Pls
5010 280 Pls
5010 280 Pls
5010 280 Pls
5011 280 Pls
5011 1428 Pls
5011 280 Pls
5011 280 Pls
5012 280 Pls
5012 280 Pls
5013 4871 Pls
5013 280 Pls
5013 280 Pls
5014 280 Pls
5014 280 Pls
5014 280 Pls
5014 280 Pls
5014 280 Pls
5014 280 Pls
5014 1428 Pls
5015 280 Pls
5015 280 Pls
5015 280 Pls
5015 280 Pls
5015 280 Pls
5015 1428 Pls
5015 280 Pls
5015 280 Pls
5015 280 Pls
5016 280 Pls
5016 280 Pls
5016 280 Pls
5017 280 Pls
5017 280 Pls
5017 280 Pls
5017 280 Pls
5017 280 Pls
5017 1428 Pls
5017 280 Pls
5017 280 Pls
5017 280 Pls
5017 280 Pls
5018 280 Pls
5018 1428 Pls
5019 280 Pls
5019 280 Pls
5020 280 Pls
5020 280 Pls
5020 1428 Pls
5020 280 Pls
5020 280 Pls
5021 280 Pls
5021 280 Pls
5021 280 Pls
5021 280 Pls
5021 280 Pls
5021 280 Pls
5021 280 Pls
5021 280 Pls
5022 280 Pls
5022 280 Pls
5022 1428 Pls
5022 280 Pls
5022 1428 Pls
5023 280 Pls
5023 280 Pls
5023 280 Pls
5023 280 Pls
5023 280 Pls
5023 280 Pls
5023 280 Pls
5023 280 Pls
5023 280 Pls
5023 280 Pls
5023 280 Pls
5024 280 Pls
5024 280 Pls
5024 280 Pls
5024 280 Pls
5024 280 Pls
5024 2576 Pls
5024 280 Pls
5024 280 Pls
5024 280 Pls
5024 280 Pls
5025 280 Pls
5025 280 Pls
5025 280 Pls
5026 280 Pls
5026 280 Pls
5026 1428 Pls
5027 1428 Pls
5027 1428 Pls
5027 280 Pls
5027 280 Pls
5027 280 Pls
5028 280 Pls
5028 280 Pls
5028 280 Pls
5028 280 Pls
5028 280 Pls
5028 280 Pls
5028 280 Pls
5029 280 Pls
5029 1428 Pls
5029 280 Pls
5030 280 Pls
5030 280 Pls
5030 280 Pls
5030 280 Pls
5030 280 Pls
5030 280 Pls
5030 280 Pls
5030 280 Pls
5030 280 Pls
5031 280 Pls
5031 280 Pls
5031 280 Pls
5032 280 Pls
5032 280 Pls
5032 280 Pls
5032 280 Pls
5032 280 Pls
5033 280 Pls
5033 1428 Pls
5033 280 Pls
5033 280 Pls
5033 280 Pls
5033 280 Pls
5034 1428 Pls
5034 280 Pls
5034 1428 Pls
5034 280 Pls
5035 280 Pls
5035 280 Pls
5035 1428 Pls
5035 280 Pls
5035 280 Pls
5035 280 Pls
5035 280 Pls
5036 280 Pls
5036 280 Pls
5036 280 Pls
5036 280 Pls
5036 2576 Pls
5036 1428 Pls
5037 280 Pls
5037 280 Pls
5037 280 Pls
5037 280 Pls
5037 280 Pls
5038 280 Pls
5038 2576 Pls
5038 280 Pls
5038 280 Pls
5038 280 Pls
5038 280 Pls
5039 280 Pls
5039 280 Pls
5039 280 Pls
5039 280 Pls
5039 280 Pls
5039 1428 Pls
5040 280 Pls
5040 280 Pls
5040 280 Pls
5040 1428 Pls
5040 280 Pls
5040 280 Pls
5040 280 Pls
5040 280 Pls
5041 280 Pls
5041 280 Pls
5041 280 Pls
5041 280 Pls
5041 280 Pls
5042 280 Pls
5042 280 Pls
5042 280 Pls
5042 280 Pls
5042 280 Pls
5042 280 Pls
5043 280 Pls
5043 280 Pls
5043 280 Pls
5043 280 Pls
5043 280 Pls
5044 280 Pls
5044 280 Pls
5044 280 Pls
5044 280 Pls
5044 280 Pls
5044 280 Pls
5045 280 Pls
5045 280 Pls
5045 280 Pls
5046 280 Pls
5046 280 Pls
5046 2576 Pls
5046 1428 Pls
5046 280 Pls
5046 280 Pls
5047 1428 Pls
5047 280 Pls
5047 280 Pls
5047 280 Pls
5047 280 Pls
5047 280 Pls
5048 280 Pls
5048 280 Pls
5048 280 Pls
5048 280 Pls
5049 280 Pls
5049 280 Pls
5049 280 Pls
5049 280 Pls
5049 280 Pls
5049 1428 Pls
5049 280 Pls
5049 280 Pls
5050 280 Pls
5050 280 Pls
5050 1428 Pls
5050 280 Pls
5050 280 Pls
5050 280 Pls
5050 280 Pls
5050 280 Pls
5050 1428 Pls
5050 280 Pls
5051 280 Pls
5051 280 Pls
5051 280 Pls
5051 1428 Pls
5051 1428 Pls
5051 280 Pls
5051 280 Pls
5052 280 Pls
5052 280 Pls
5053 1428 Pls
5053 280 Pls
5053 1428 Pls
5053 280 Pls
5053 280 Pls
5053 280 Pls
5053 1428 Pls
5053 280 Pls
5054 280 Pls
5054 280 Pls
5054 280 Pls
5054 3723 Pls
5054 280 Pls
5054 280 Pls
5054 280 Pls
5055 1428 Pls
5055 280 Pls
5055 280 Pls
5055 1428 Pls
5055 280 Pls
5055 280 Pls
5056 280 Pls
5056 280 Pls
5056 280 Pls
5056 1428 Pls
5057 1428 Pls
5057 280 Pls
5057 1428 Pls
5057 280 Pls
5057 280 Pls
5057 2576 Pls
5058 3723 Pls
5058 280 Pls
5059 1428 Pls
5059 280 Pls
5059 280 Pls
5059 280 Pls
5059 280 Pls
5059 280 Pls
5060 280 Pls
5060 280 Pls
5060 280 Pls
5060 280 Pls
5060 280 Pls
5061 280 Pls
5061 280 Pls
5061 280 Pls
5061 1428 Pls
5061 280 Pls
5062 1428 Pls
5062 1428 Pls
5062 280 Pls
5062 280 Pls
5062 280 Pls
5063 280 Pls
5063 280 Pls
5063 280 Pls
5064 280 Pls
5064 280 Pls
5064 1428 Pls
5065 280 Pls
5065 1428 Pls
5065 1428 Pls
5066 280 Pls
5066 280 Pls
5066 280 Pls
5066 280 Pls
5066 280 Pls
5066 280 Pls
5067 280 Pls
5067 2576 Pls
5067 280 Pls
5067 280 Pls
5067 280 Pls
5067 280 Pls
5068 280 Pls
5068 280 Pls
5068 280 Pls
5068 280 Pls
5069 280 Pls
5069 280 Pls
5069 280 Pls
5070 280 Pls
5070 280 Pls
5070 280 Pls
5070 280 Pls
5070 280 Pls
5070 280 Pls
5071 280 Pls
5071 1428 Pls
5071 280 Pls
5071 280 Pls
5071 280 Pls
5071 280 Pls
5071 1428 Pls
5071 280 Pls
5072 2576 Pls
5072 280 Pls
5072 280 Pls
5073 280 Pls
5073 1428 Pls
5073 280 Pls
5073 280 Pls
5074 280 Pls
5074 280 Pls
5074 280 Pls
5074 280 Pls
5075 280 Pls
5075 1428 Pls
5075 280 Pls
5075 280 Pls
5075 280 Pls
5075 280 Pls
5076 280 Pls
5076 280 Pls
5076 280 Pls
5076 280 Pls
5076 280 Pls
5076 280 Pls
5076 280 Pls
5077 280 Pls
5077 280 Pls
5077 280 Pls
5077 280 Pls
5078 280 Pls
5078 280 Pls
5078 280 Pls
5078 280 Pls
5078 1428 Pls
5079 280 Pls
5079 280 Pls
5079 280 Pls
5079 280 Pls
5079 280 Pls
5079 280 Pls
5080 280 Pls
5080 280 Pls
5080 280 Pls
5080 280 Pls
5080 280 Pls
5080 280 Pls
5081 280 Pls
5081 280 Pls
5081 280 Pls
5081 280 Pls
5081 1428 Pls
5081 280 Pls
5082 1428 Pls
5082 280 Pls
5082 280 Pls
5082 280 Pls
5083 280 Pls
5083 280 Pls
5083 280 Pls
5084 280 Pls
5085 280 Pls
5085 280 Pls
5085 280 Pls
5085 280 Pls
5085 280 Pls
5086 280 Pls
5086 280 Pls
5086 280 Pls
5087 280 Pls
5087 280 Pls
5087 280 Pls
5087 280 Pls
5088 1428 Pls
5088 280 Pls
5088 280 Pls
5089 280 Pls
5089 1428 Pls
5089 280 Pls
5089 280 Pls
5089 1428 Pls
5089 280 Pls
5090 280 Pls
5090 280 Pls
5090 280 Pls
5090 280 Pls
5091 280 Pls
5091 280 Pls
5091 280 Pls
5091 280 Pls
5092 1428 Pls
5092 280 Pls
5093 280 Pls
5093 280 Pls
5093 280 Pls
5093 280 Pls
5093 280 Pls
5094 1428 Pls
5094 280 Pls
5094 280 Pls
5094 280 Pls
5094 280 Pls
5095 280 Pls
5095 280 Pls
5096 280 Pls
5096 280 Pls
5096 280 Pls
5096 280 Pls
5096 280 Pls
5096 280 Pls
5096 280 Pls
5096 280 Pls
5096 280 Pls
5097 280 Pls
5097 280 Pls
5097 280 Pls
5097 280 Pls
5097 280 Pls
5098 280 Pls
5098 280 Pls
5098 280 Pls
5098 280 Pls
5099 280 Pls
5099 280 Pls
5099 1428 Pls
5099 280 Pls
5099 280 Pls
5100 280 Pls
5100 280 Pls
5100 280 Pls
5100 280 Pls
5100 280 Pls
5100 280 Pls
5100 280 Pls
5100 280 Pls
5101 280 Pls
5101 280 Pls
5101 280 Pls
5101 280 Pls
5102 280 Pls
5102 280 Pls
5102 280 Pls
5103 280 Pls
5103 1428 Pls
5103 280 Pls
5104 280 Pls
5104 280 Pls
5104 280 Pls
5104 280 Pls
5104 280 Pls
5105 280 Pls
5105 280 Pls
5105 280 Pls
5106 280 Pls
5106 280 Pls
5107 280 Pls
5107 280 Pls
5107 280 Pls
5107 280 Pls
5107 280 Pls
5107 280 Pls
5109 1428 Pls
5109 280 Pls
5109 280 Pls
5110 280 Pls
5110 280 Pls
5111 1428 Pls
5111 280 Pls
5111 280 Pls
5111 280 Pls
5112 280 Pls
5112 280 Pls
5112 3723 Pls
5112 280 Pls
5113 280 Pls
5113 280 Pls
5113 280 Pls
5113 280 Pls
5113 280 Pls
5114 280 Pls
5114 280 Pls
5114 280 Pls
5114 280 Pls
5115 280 Pls
5115 280 Pls
5115 280 Pls
5115 280 Pls
5116 280 Pls
5116 1428 Pls
5116 280 Pls
5117 280 Pls
5118 280 Pls
5118 1428 Pls
5118 280 Pls
5118 1428 Pls
5118 1428 Pls
5118 2576 Pls
5119 280 Pls
5119 280 Pls
5119 280 Pls
5119 280 Pls
5119 280 Pls
5120 1428 Pls
5120 1428 Pls
5120 280 Pls
5120 280 Pls
5121 280 Pls
5121 280 Pls
5122 280 Pls
5122 1428 Pls
5122 280 Pls
5123 1428 Pls
5123 280 Pls
5123 280 Pls
5123 280 Pls
5123 280 Pls
5123 2576 Pls
5124 280 Pls
5124 280 Pls
5124 280 Pls
5124 280 Pls
5124 280 Pls
5125 280 Pls
5125 280 Pls
5126 280 Pls
5126 280 Pls
5126 280 Pls
5126 280 Pls
5127 1428 Pls
5127 280 Pls
5127 280 Pls
5128 280 Pls
5128 280 Pls
5128 280 Pls
5128 280 Pls
5128 280 Pls
5129 280 Pls
5130 280 Pls
5130 280 Pls
5130 280 Pls
5130 280 Pls
5131 280 Pls
5131 280 Pls
5131 280 Pls
5131 280 Pls
5131 280 Pls
5131 280 Pls
5131 280 Pls
5132 280 Pls
5132 280 Pls
5132 280 Pls
5132 280 Pls
5133 280 Pls
5133 1428 Pls
5133 280 Pls
5133 280 Pls
5133 280 Pls
5134 280 Pls
5134 280 Pls
5134 280 Pls
5134 280 Pls
5134 280 Pls
5135 280 Pls
5135 280 Pls
5135 280 Pls
5135 280 Pls
5136 280 Pls
5136 280 Pls
5136 280 Pls
5136 280 Pls
5136 280 Pls
5137 280 Pls
5139 280 Pls
5139 280 Pls
5139 280 Pls
5139 280 Pls
5140 280 Pls
5140 280 Pls
5141 1428 Pls
5141 280 Pls
5141 280 Pls
5142 280 Pls
5143 280 Pls
5144 1428 Pls
5144 280 Pls
5144 280 Pls
5145 280 Pls
5145 280 Pls
5145 280 Pls
5145 280 Pls
5145 280 Pls
5146 1428 Pls
5147 280 Pls
5147 280 Pls
5148 280 Pls
5148 280 Pls
5148 280 Pls
5149 280 Pls
5149 280 Pls
5149 280 Pls
5149 280 Pls
5150 280 Pls
5150 280 Pls
5150 280 Pls
5150 280 Pls
5150 280 Pls
5151 280 Pls
5151 280 Pls
5151 280 Pls
5152 280 Pls
5152 280 Pls
5152 280 Pls
5152 280 Pls
5152 280 Pls
5153 280 Pls
5153 280 Pls
5153 280 Pls
5154 280 Pls
5154 1428 Pls
5154 280 Pls
5154 280 Pls
5155 280 Pls
5155 280 Pls
5155 280 Pls
5156 280 Pls
5156 280 Pls
5157 280 Pls
5158 280 Pls
5160 280 Pls
5160 280 Pls
5160 280 Pls
5160 280 Pls
5161 280 Pls
5161 1428 Pls
5161 280 Pls
5162 280 Pls
5162 280 Pls
5162 280 Pls
5162 2576 Pls
5163 280 Pls
5163 280 Pls
5163 280 Pls
5163 280 Pls
5163 280 Pls
5164 280 Pls
5164 280 Pls
5164 280 Pls
5165 280 Pls
5165 280 Pls
5166 280 Pls
5166 280 Pls
5167 1428 Pls
5167 280 Pls
5168 280 Pls
5168 280 Pls
5168 280 Pls
5169 280 Pls
5169 280 Pls
5169 280 Pls
5169 280 Pls
5170 280 Pls
5171 280 Pls
5171 280 Pls
5172 280 Pls
5172 280 Pls
5173 280 Pls
5173 280 Pls
5173 280 Pls
5173 280 Pls
5174 1428 Pls
5174 280 Pls
5175 280 Pls
5175 1428 Pls
5175 280 Pls
5175 2576 Pls
5175 280 Pls
5176 280 Pls
5176 280 Pls
5177 280 Pls
5177 1428 Pls
5178 280 Pls
5178 280 Pls
5178 280 Pls
5178 280 Pls
5178 280 Pls
5178 280 Pls
5179 280 Pls
5180 280 Pls
5180 280 Pls
5180 280 Pls
5180 280 Pls
5181 280 Pls
5182 280 Pls
5182 280 Pls
5182 280 Pls
5182 280 Pls
5182 280 Pls
5182 280 Pls
5182 280 Pls
5183 280 Pls
5183 280 Pls
5183 280 Pls
5184 280 Pls
5185 280 Pls
5186 280 Pls
5186 280 Pls
5186 1428 Pls
5186 1428 Pls
5188 280 Pls
5188 280 Pls
5188 280 Pls
5189 280 Pls
5189 280 Pls
5190 280 Pls
5190 280 Pls
5191 280 Pls
5191 280 Pls
5191 280 Pls
5191 280 Pls
5192 280 Pls
5192 280 Pls
5193 280 Pls
5194 280 Pls
5195 280 Pls
5195 280 Pls
5196 1428 Pls
5196 280 Pls
5196 1428 Pls
5196 280 Pls
5197 280 Pls
5197 280 Pls
5198 280 Pls
5198 280 Pls
5198 280 Pls
5198 280 Pls
5198 1428 Pls
5199 280 Pls
5200 280 Pls
5200 280 Pls
5200 280 Pls
5201 280 Pls
5201 280 Pls
5201 280 Pls
5201 1428 Pls
5201 280 Pls
5202 280 Pls
5202 280 Pls
5203 280 Pls
5203 1428 Pls
5204 280 Pls
5204 280 Pls
5205 280 Pls
5205 280 Pls
5205 280 Pls
5205 280 Pls
5205 280 Pls
5206 280 Pls
5207 280 Pls
5207 280 Pls
5207 280 Pls
5207 280 Pls
5209 280 Pls
5211 280 Pls
5211 280 Pls
5211 280 Pls
5212 280 Pls
5213 280 Pls
5213 280 Pls
5213 280 Pls
5215 280 Pls
5215 280 Pls
5215 280 Pls
5216 280 Pls
5216 280 Pls
5217 280 Pls
5217 280 Pls
5217 280 Pls
5218 280 Pls
5218 280 Pls
5219 280 Pls
5219 280 Pls
5219 280 Pls
5219 280 Pls
5220 280 Pls
5221 280 Pls
5221 280 Pls
5224 280 Pls
5224 280 Pls
5224 1428 Pls
5225 280 Pls
5225 280 Pls
5225 280 Pls
5225 280 Pls
5225 280 Pls
5225 280 Pls
5225 280 Pls
5227 280 Pls
5227 280 Pls
5228 280 Pls
5228 280 Pls
5229 280 Pls
5230 280 Pls
5230 280 Pls
5230 280 Pls
5232 280 Pls
5232 280 Pls
5233 280 Pls
5233 1428 Pls
5233 280 Pls
5235 280 Pls
5235 280 Pls
5235 280 Pls
5235 280 Pls
5236 280 Pls
5236 280 Pls
5237 280 Pls
5237 280 Pls
5237 280 Pls
5237 280 Pls
5238 280 Pls
5238 280 Pls
5240 280 Pls
5240 280 Pls
5240 280 Pls
5242 280 Pls
5242 280 Pls
5242 280 Pls
5242 280 Pls
5243 1428 Pls
5244 280 Pls
5244 280 Pls
5245 280 Pls
5245 280 Pls
5246 280 Pls
5246 280 Pls
5247 280 Pls
5248 280 Pls
5248 280 Pls
5248 280 Pls
5248 1428 Pls
5251 280 Pls
5251 280 Pls
5251 280 Pls
5252 280 Pls
5252 280 Pls
5252 280 Pls
5253 280 Pls
5254 280 Pls
5255 280 Pls
5255 280 Pls
5256 280 Pls
5259 280 Pls
5259 280 Pls
5259 280 Pls
5260 280 Pls
5261 280 Pls
5261 280 Pls
5261 280 Pls
5262 280 Pls
5262 280 Pls
5263 280 Pls
5263 1428 Pls
5264 280 Pls
5264 280 Pls
5266 280 Pls
5267 280 Pls
5267 280 Pls
5267 280 Pls
5269 280 Pls
5269 280 Pls
5269 280 Pls
5270 280 Pls
5271 280 Pls
5271 280 Pls
5271 280 Pls
5271 280 Pls
5273 280 Pls
5275 280 Pls
5275 280 Pls
5275 1428 Pls
5275 280 Pls
5277 280 Pls
5278 280 Pls
5278 280 Pls
5279 280 Pls
5279 280 Pls
5279 1428 Pls
5280 280 Pls
5280 280 Pls
5282 280 Pls
5284 280 Pls
5284 280 Pls
5285 280 Pls
5287 280 Pls
5287 280 Pls
5287 280 Pls
5288 280 Pls
5288 280 Pls
5288 280 Pls
5291 280 Pls
5292 280 Pls
5292 280 Pls
5292 280 Pls
5293 280 Pls
5293 280 Pls
5293 280 Pls
5293 280 Pls
5294 280 Pls
5294 280 Pls
5296 280 Pls
5297 280 Pls
5297 280 Pls
5299 280 Pls
5300 280 Pls
5300 280 Pls
5300 280 Pls
5302 280 Pls
5304 280 Pls
5304 1428 Pls
5305 280 Pls
5306 280 Pls
5307 280 Pls
5308 280 Pls
5309 280 Pls
5310 280 Pls
5311 280 Pls
5311 280 Pls
5313 280 Pls
5314 280 Pls
5314 280 Pls
5314 280 Pls
5314 280 Pls
5314 280 Pls
5315 280 Pls
5316 280 Pls
5316 280 Pls
5318 280 Pls
5319 280 Pls
5319 280 Pls
5320 280 Pls
5320 280 Pls
5321 1428 Pls
5326 280 Pls
5326 280 Pls
5328 280 Pls
5329 280 Pls
5330 280 Pls
5330 280 Pls
5331 280 Pls
5331 280 Pls
5332 280 Pls
5332 280 Pls
5332 280 Pls
5333 280 Pls
5334 280 Pls
5334 280 Pls
5334 280 Pls
5336 280 Pls
5337 280 Pls
5337 280 Pls
5337 280 Pls
5338 280 Pls
5340 280 Pls
5340 280 Pls
5341 280 Pls
5341 280 Pls
5343 280 Pls
5343 1428 Pls
5347 280 Pls
5348 280 Pls
5349 280 Pls
5349 280 Pls
5352 280 Pls
5352 280 Pls
5355 280 Pls
5355 280 Pls
5355 280 Pls
5356 280 Pls
5356 280 Pls
5357 280 Pls
5358 280 Pls
5359 280 Pls
5359 280 Pls
5360 280 Pls
5360 280 Pls
5360 280 Pls
5361 280 Pls
5362 280 Pls
5363 280 Pls
5363 280 Pls
5364 280 Pls
5366 280 Pls
5367 280 Pls
5367 280 Pls
5368 280 Pls
5369 280 Pls
5370 280 Pls
5371 280 Pls
5373 280 Pls
5374 280 Pls
5374 280 Pls
5375 280 Pls
5375 280 Pls
5376 280 Pls
5376 280 Pls
5377 280 Pls
5377 280 Pls
5378 280 Pls
5380 280 Pls
5381 280 Pls
5381 280 Pls
5384 280 Pls
5384 280 Pls
5386 280 Pls
5388 280 Pls
5388 280 Pls
5388 280 Pls
5388 280 Pls
5392 280 Pls
5393 280 Pls
5393 280 Pls
5398 280 Pls
5399 280 Pls
5399 280 Pls
5401 280 Pls
5402 280 Pls
5402 280 Pls
5404 280 Pls
5407 280 Pls
5409 280 Pls
5411 280 Pls
5412 280 Pls
5414 280 Pls
5416 280 Pls
5416 280 Pls
5416 280 Pls
5418 280 Pls
5418 280 Pls
5420 280 Pls
5420 280 Pls
5420 280 Pls
5420 280 Pls
5421 280 Pls
5421 280 Pls
5422 280 Pls
5423 280 Pls
5423 280 Pls
5426 280 Pls
5428 280 Pls
5431 280 Pls
5433 280 Pls
5437 280 Pls
5437 280 Pls
5438 280 Pls
5439 280 Pls
5439 280 Pls
5441 280 Pls
5441 280 Pls
5443 280 Pls
5444 280 Pls
5444 280 Pls
5444 280 Pls
5445 280 Pls
5445 280 Pls
5446 280 Pls
5449 280 Pls
5453 1428 Pls
5454 280 Pls
5456 280 Pls
5457 280 Pls
5457 280 Pls
5459 280 Pls
5468 280 Pls
5469 280 Pls
5471 280 Pls
5474 280 Pls
5474 280 Pls
5476 280 Pls
5477 280 Pls
5481 280 Pls
5484 280 Pls
5492 280 Pls
5494 280 Pls
5499 280 Pls
5500 280 Pls
5503 280 Pls
5507 280 Pls
5509 280 Pls
5509 280 Pls
5510 280 Pls
5510 280 Pls
5515 280 Pls
5520 280 Pls
5520 280 Pls
5520 280 Pls
5528 280 Pls
5535 280 Pls
5538 280 Pls
5539 280 Pls
5545 280 Pls
5550 280 Pls
5551 280 Pls
5560 280 Pls
5562 280 Pls
5564 280 Pls
5574 280 Pls
5574 280 Pls
5575 280 Pls
5575 280 Pls
5577 280 Pls
5578 280 Pls
5587 280 Pls
5591 280 Pls
5593 280 Pls
5594 280 Pls
5599 280 Pls
5599 280 Pls
5599 280 Pls
5603 280 Pls
5606 280 Pls
5608 280 Pls
5613 280 Pls
5615 280 Pls
5619 280 Pls
5624 280 Pls
5625 280 Pls
5633 280 Pls
5645 280 Pls
5646 280 Pls
5665 280 Pls
5667 280 Pls
5669 280 Pls
5679 280 Pls
5680 280 Pls
5681 280 Pls
5690 280 Pls
5691 280 Pls
5693 280 Pls
5698 280 Pls
5702 280 Pls
5710 280 Pls
5715 280 Pls
5724 280 Pls
5733 280 Pls
5737 280 Pls
5738 280 Pls
5745 280 Pls
5752 280 Pls
5757 280 Pls
5762 280 Pls
5765 280 Pls
5766 280 Pls
5767 280 Pls
5768 280 Pls
5772 280 Pls
5778 280 Pls
5778 280 Pls
5790 280 Pls
5823 280 Pls
5828 280 Pls
5837 280 Pls
5851 280 Pls
5861 280 Pls
5883 280 Pls
5889 280 Pls
5892 280 Pls
5976 280 Pls
5985 280 Pls
6039 280 Pls
6060 280 Pls
6072 280 Pls
6115 280 Pls
6139 280 Pls
6186 280 Pls
6311 280 Pls
6359 280 Pls
6413 280 Pls
6414 280 Pls
% End plot #1
2.000 UL
LTb
LCb setrgbcolor
1.000 UL
LTB
LCb setrgbcolor
546 4871 N
546 280 L
6401 0 V
0 4591 V
-6401 0 V
Z stroke
1.000 UP
1.000 UL
LTb
LCb setrgbcolor
stroke
grestore
end
showpage
%%Trailer
%%DocumentFonts: Helvetica
%%Pages: 1
