%!PS-Adobe-2.0
%%Title: packets-s-ccdf-loglog.eps
%%Creator: gnuplot 5.0 patchlevel 3
%%CreationDate: Mon May 29 11:05:49 2017
%%DocumentFonts: (atend)
%%BoundingBox: 50 50 554 770
%%Orientation: Landscape
%%Pages: (atend)
%%EndComments
%%BeginProlog
/gnudict 256 dict def
gnudict begin
%
% The following true/false flags may be edited by hand if desired.
% The unit line width and grayscale image gamma correction may also be changed.
%
/Color true def
/Blacktext false def
/Solid false def
/Dashlength 1 def
/Landscape true def
/Level1 false def
/Level3 false def
/Rounded false def
/ClipToBoundingBox false def
/SuppressPDFMark false def
/TransparentPatterns false def
/gnulinewidth 5.000 def
/userlinewidth gnulinewidth def
/Gamma 1.0 def
/BackgroundColor {-1.000 -1.000 -1.000} def
%
/vshift -46 def
/dl1 {
  10.0 Dashlength userlinewidth gnulinewidth div mul mul mul
  Rounded { currentlinewidth 0.75 mul sub dup 0 le { pop 0.01 } if } if
} def
/dl2 {
  10.0 Dashlength userlinewidth gnulinewidth div mul mul mul
  Rounded { currentlinewidth 0.75 mul add } if
} def
/hpt_ 31.5 def
/vpt_ 31.5 def
/hpt hpt_ def
/vpt vpt_ def
/doclip {
  ClipToBoundingBox {
    newpath 50 50 moveto 554 50 lineto 554 770 lineto 50 770 lineto closepath
    clip
  } if
} def
%
% Gnuplot Prolog Version 5.1 (Oct 2015)
%
%/SuppressPDFMark true def
%
/M {moveto} bind def
/L {lineto} bind def
/R {rmoveto} bind def
/V {rlineto} bind def
/N {newpath moveto} bind def
/Z {closepath} bind def
/C {setrgbcolor} bind def
/f {rlineto fill} bind def
/g {setgray} bind def
/Gshow {show} def   % May be redefined later in the file to support UTF-8
/vpt2 vpt 2 mul def
/hpt2 hpt 2 mul def
/Lshow {currentpoint stroke M 0 vshift R 
	Blacktext {gsave 0 setgray textshow grestore} {textshow} ifelse} def
/Rshow {currentpoint stroke M dup stringwidth pop neg vshift R
	Blacktext {gsave 0 setgray textshow grestore} {textshow} ifelse} def
/Cshow {currentpoint stroke M dup stringwidth pop -2 div vshift R 
	Blacktext {gsave 0 setgray textshow grestore} {textshow} ifelse} def
/UP {dup vpt_ mul /vpt exch def hpt_ mul /hpt exch def
  /hpt2 hpt 2 mul def /vpt2 vpt 2 mul def} def
/DL {Color {setrgbcolor Solid {pop []} if 0 setdash}
 {pop pop pop 0 setgray Solid {pop []} if 0 setdash} ifelse} def
/BL {stroke userlinewidth 2 mul setlinewidth
	Rounded {1 setlinejoin 1 setlinecap} if} def
/AL {stroke userlinewidth 2 div setlinewidth
	Rounded {1 setlinejoin 1 setlinecap} if} def
/UL {dup gnulinewidth mul /userlinewidth exch def
	dup 1 lt {pop 1} if 10 mul /udl exch def} def
/PL {stroke userlinewidth setlinewidth
	Rounded {1 setlinejoin 1 setlinecap} if} def
3.8 setmiterlimit
% Classic Line colors (version 5.0)
/LCw {1 1 1} def
/LCb {0 0 0} def
/LCa {0 0 0} def
/LC0 {1 0 0} def
/LC1 {0 1 0} def
/LC2 {0 0 1} def
/LC3 {1 0 1} def
/LC4 {0 1 1} def
/LC5 {1 1 0} def
/LC6 {0 0 0} def
/LC7 {1 0.3 0} def
/LC8 {0.5 0.5 0.5} def
% Default dash patterns (version 5.0)
/LTB {BL [] LCb DL} def
/LTw {PL [] 1 setgray} def
/LTb {PL [] LCb DL} def
/LTa {AL [1 udl mul 2 udl mul] 0 setdash LCa setrgbcolor} def
/LT0 {PL [] LC0 DL} def
/LT1 {PL [2 dl1 3 dl2] LC1 DL} def
/LT2 {PL [1 dl1 1.5 dl2] LC2 DL} def
/LT3 {PL [6 dl1 2 dl2 1 dl1 2 dl2] LC3 DL} def
/LT4 {PL [1 dl1 2 dl2 6 dl1 2 dl2 1 dl1 2 dl2] LC4 DL} def
/LT5 {PL [4 dl1 2 dl2] LC5 DL} def
/LT6 {PL [1.5 dl1 1.5 dl2 1.5 dl1 1.5 dl2 1.5 dl1 6 dl2] LC6 DL} def
/LT7 {PL [3 dl1 3 dl2 1 dl1 3 dl2] LC7 DL} def
/LT8 {PL [2 dl1 2 dl2 2 dl1 6 dl2] LC8 DL} def
/SL {[] 0 setdash} def
/Pnt {stroke [] 0 setdash gsave 1 setlinecap M 0 0 V stroke grestore} def
/Dia {stroke [] 0 setdash 2 copy vpt add M
  hpt neg vpt neg V hpt vpt neg V
  hpt vpt V hpt neg vpt V closepath stroke
  Pnt} def
/Pls {stroke [] 0 setdash vpt sub M 0 vpt2 V
  currentpoint stroke M
  hpt neg vpt neg R hpt2 0 V stroke
 } def
/Box {stroke [] 0 setdash 2 copy exch hpt sub exch vpt add M
  0 vpt2 neg V hpt2 0 V 0 vpt2 V
  hpt2 neg 0 V closepath stroke
  Pnt} def
/Crs {stroke [] 0 setdash exch hpt sub exch vpt add M
  hpt2 vpt2 neg V currentpoint stroke M
  hpt2 neg 0 R hpt2 vpt2 V stroke} def
/TriU {stroke [] 0 setdash 2 copy vpt 1.12 mul add M
  hpt neg vpt -1.62 mul V
  hpt 2 mul 0 V
  hpt neg vpt 1.62 mul V closepath stroke
  Pnt} def
/Star {2 copy Pls Crs} def
/BoxF {stroke [] 0 setdash exch hpt sub exch vpt add M
  0 vpt2 neg V hpt2 0 V 0 vpt2 V
  hpt2 neg 0 V closepath fill} def
/TriUF {stroke [] 0 setdash vpt 1.12 mul add M
  hpt neg vpt -1.62 mul V
  hpt 2 mul 0 V
  hpt neg vpt 1.62 mul V closepath fill} def
/TriD {stroke [] 0 setdash 2 copy vpt 1.12 mul sub M
  hpt neg vpt 1.62 mul V
  hpt 2 mul 0 V
  hpt neg vpt -1.62 mul V closepath stroke
  Pnt} def
/TriDF {stroke [] 0 setdash vpt 1.12 mul sub M
  hpt neg vpt 1.62 mul V
  hpt 2 mul 0 V
  hpt neg vpt -1.62 mul V closepath fill} def
/DiaF {stroke [] 0 setdash vpt add M
  hpt neg vpt neg V hpt vpt neg V
  hpt vpt V hpt neg vpt V closepath fill} def
/Pent {stroke [] 0 setdash 2 copy gsave
  translate 0 hpt M 4 {72 rotate 0 hpt L} repeat
  closepath stroke grestore Pnt} def
/PentF {stroke [] 0 setdash gsave
  translate 0 hpt M 4 {72 rotate 0 hpt L} repeat
  closepath fill grestore} def
/Circle {stroke [] 0 setdash 2 copy
  hpt 0 360 arc stroke Pnt} def
/CircleF {stroke [] 0 setdash hpt 0 360 arc fill} def
/C0 {BL [] 0 setdash 2 copy moveto vpt 90 450 arc} bind def
/C1 {BL [] 0 setdash 2 copy moveto
	2 copy vpt 0 90 arc closepath fill
	vpt 0 360 arc closepath} bind def
/C2 {BL [] 0 setdash 2 copy moveto
	2 copy vpt 90 180 arc closepath fill
	vpt 0 360 arc closepath} bind def
/C3 {BL [] 0 setdash 2 copy moveto
	2 copy vpt 0 180 arc closepath fill
	vpt 0 360 arc closepath} bind def
/C4 {BL [] 0 setdash 2 copy moveto
	2 copy vpt 180 270 arc closepath fill
	vpt 0 360 arc closepath} bind def
/C5 {BL [] 0 setdash 2 copy moveto
	2 copy vpt 0 90 arc
	2 copy moveto
	2 copy vpt 180 270 arc closepath fill
	vpt 0 360 arc} bind def
/C6 {BL [] 0 setdash 2 copy moveto
	2 copy vpt 90 270 arc closepath fill
	vpt 0 360 arc closepath} bind def
/C7 {BL [] 0 setdash 2 copy moveto
	2 copy vpt 0 270 arc closepath fill
	vpt 0 360 arc closepath} bind def
/C8 {BL [] 0 setdash 2 copy moveto
	2 copy vpt 270 360 arc closepath fill
	vpt 0 360 arc closepath} bind def
/C9 {BL [] 0 setdash 2 copy moveto
	2 copy vpt 270 450 arc closepath fill
	vpt 0 360 arc closepath} bind def
/C10 {BL [] 0 setdash 2 copy 2 copy moveto vpt 270 360 arc closepath fill
	2 copy moveto
	2 copy vpt 90 180 arc closepath fill
	vpt 0 360 arc closepath} bind def
/C11 {BL [] 0 setdash 2 copy moveto
	2 copy vpt 0 180 arc closepath fill
	2 copy moveto
	2 copy vpt 270 360 arc closepath fill
	vpt 0 360 arc closepath} bind def
/C12 {BL [] 0 setdash 2 copy moveto
	2 copy vpt 180 360 arc closepath fill
	vpt 0 360 arc closepath} bind def
/C13 {BL [] 0 setdash 2 copy moveto
	2 copy vpt 0 90 arc closepath fill
	2 copy moveto
	2 copy vpt 180 360 arc closepath fill
	vpt 0 360 arc closepath} bind def
/C14 {BL [] 0 setdash 2 copy moveto
	2 copy vpt 90 360 arc closepath fill
	vpt 0 360 arc} bind def
/C15 {BL [] 0 setdash 2 copy vpt 0 360 arc closepath fill
	vpt 0 360 arc closepath} bind def
/Rec {newpath 4 2 roll moveto 1 index 0 rlineto 0 exch rlineto
	neg 0 rlineto closepath} bind def
/Square {dup Rec} bind def
/Bsquare {vpt sub exch vpt sub exch vpt2 Square} bind def
/S0 {BL [] 0 setdash 2 copy moveto 0 vpt rlineto BL Bsquare} bind def
/S1 {BL [] 0 setdash 2 copy vpt Square fill Bsquare} bind def
/S2 {BL [] 0 setdash 2 copy exch vpt sub exch vpt Square fill Bsquare} bind def
/S3 {BL [] 0 setdash 2 copy exch vpt sub exch vpt2 vpt Rec fill Bsquare} bind def
/S4 {BL [] 0 setdash 2 copy exch vpt sub exch vpt sub vpt Square fill Bsquare} bind def
/S5 {BL [] 0 setdash 2 copy 2 copy vpt Square fill
	exch vpt sub exch vpt sub vpt Square fill Bsquare} bind def
/S6 {BL [] 0 setdash 2 copy exch vpt sub exch vpt sub vpt vpt2 Rec fill Bsquare} bind def
/S7 {BL [] 0 setdash 2 copy exch vpt sub exch vpt sub vpt vpt2 Rec fill
	2 copy vpt Square fill Bsquare} bind def
/S8 {BL [] 0 setdash 2 copy vpt sub vpt Square fill Bsquare} bind def
/S9 {BL [] 0 setdash 2 copy vpt sub vpt vpt2 Rec fill Bsquare} bind def
/S10 {BL [] 0 setdash 2 copy vpt sub vpt Square fill 2 copy exch vpt sub exch vpt Square fill
	Bsquare} bind def
/S11 {BL [] 0 setdash 2 copy vpt sub vpt Square fill 2 copy exch vpt sub exch vpt2 vpt Rec fill
	Bsquare} bind def
/S12 {BL [] 0 setdash 2 copy exch vpt sub exch vpt sub vpt2 vpt Rec fill Bsquare} bind def
/S13 {BL [] 0 setdash 2 copy exch vpt sub exch vpt sub vpt2 vpt Rec fill
	2 copy vpt Square fill Bsquare} bind def
/S14 {BL [] 0 setdash 2 copy exch vpt sub exch vpt sub vpt2 vpt Rec fill
	2 copy exch vpt sub exch vpt Square fill Bsquare} bind def
/S15 {BL [] 0 setdash 2 copy Bsquare fill Bsquare} bind def
/D0 {gsave translate 45 rotate 0 0 S0 stroke grestore} bind def
/D1 {gsave translate 45 rotate 0 0 S1 stroke grestore} bind def
/D2 {gsave translate 45 rotate 0 0 S2 stroke grestore} bind def
/D3 {gsave translate 45 rotate 0 0 S3 stroke grestore} bind def
/D4 {gsave translate 45 rotate 0 0 S4 stroke grestore} bind def
/D5 {gsave translate 45 rotate 0 0 S5 stroke grestore} bind def
/D6 {gsave translate 45 rotate 0 0 S6 stroke grestore} bind def
/D7 {gsave translate 45 rotate 0 0 S7 stroke grestore} bind def
/D8 {gsave translate 45 rotate 0 0 S8 stroke grestore} bind def
/D9 {gsave translate 45 rotate 0 0 S9 stroke grestore} bind def
/D10 {gsave translate 45 rotate 0 0 S10 stroke grestore} bind def
/D11 {gsave translate 45 rotate 0 0 S11 stroke grestore} bind def
/D12 {gsave translate 45 rotate 0 0 S12 stroke grestore} bind def
/D13 {gsave translate 45 rotate 0 0 S13 stroke grestore} bind def
/D14 {gsave translate 45 rotate 0 0 S14 stroke grestore} bind def
/D15 {gsave translate 45 rotate 0 0 S15 stroke grestore} bind def
/DiaE {stroke [] 0 setdash vpt add M
  hpt neg vpt neg V hpt vpt neg V
  hpt vpt V hpt neg vpt V closepath stroke} def
/BoxE {stroke [] 0 setdash exch hpt sub exch vpt add M
  0 vpt2 neg V hpt2 0 V 0 vpt2 V
  hpt2 neg 0 V closepath stroke} def
/TriUE {stroke [] 0 setdash vpt 1.12 mul add M
  hpt neg vpt -1.62 mul V
  hpt 2 mul 0 V
  hpt neg vpt 1.62 mul V closepath stroke} def
/TriDE {stroke [] 0 setdash vpt 1.12 mul sub M
  hpt neg vpt 1.62 mul V
  hpt 2 mul 0 V
  hpt neg vpt -1.62 mul V closepath stroke} def
/PentE {stroke [] 0 setdash gsave
  translate 0 hpt M 4 {72 rotate 0 hpt L} repeat
  closepath stroke grestore} def
/CircE {stroke [] 0 setdash 
  hpt 0 360 arc stroke} def
/Opaque {gsave closepath 1 setgray fill grestore 0 setgray closepath} def
/DiaW {stroke [] 0 setdash vpt add M
  hpt neg vpt neg V hpt vpt neg V
  hpt vpt V hpt neg vpt V Opaque stroke} def
/BoxW {stroke [] 0 setdash exch hpt sub exch vpt add M
  0 vpt2 neg V hpt2 0 V 0 vpt2 V
  hpt2 neg 0 V Opaque stroke} def
/TriUW {stroke [] 0 setdash vpt 1.12 mul add M
  hpt neg vpt -1.62 mul V
  hpt 2 mul 0 V
  hpt neg vpt 1.62 mul V Opaque stroke} def
/TriDW {stroke [] 0 setdash vpt 1.12 mul sub M
  hpt neg vpt 1.62 mul V
  hpt 2 mul 0 V
  hpt neg vpt -1.62 mul V Opaque stroke} def
/PentW {stroke [] 0 setdash gsave
  translate 0 hpt M 4 {72 rotate 0 hpt L} repeat
  Opaque stroke grestore} def
/CircW {stroke [] 0 setdash 
  hpt 0 360 arc Opaque stroke} def
/BoxFill {gsave Rec 1 setgray fill grestore} def
/Density {
  /Fillden exch def
  currentrgbcolor
  /ColB exch def /ColG exch def /ColR exch def
  /ColR ColR Fillden mul Fillden sub 1 add def
  /ColG ColG Fillden mul Fillden sub 1 add def
  /ColB ColB Fillden mul Fillden sub 1 add def
  ColR ColG ColB setrgbcolor} def
/BoxColFill {gsave Rec PolyFill} def
/PolyFill {gsave Density fill grestore grestore} def
/h {rlineto rlineto rlineto gsave closepath fill grestore} bind def
%
% PostScript Level 1 Pattern Fill routine for rectangles
% Usage: x y w h s a XX PatternFill
%	x,y = lower left corner of box to be filled
%	w,h = width and height of box
%	  a = angle in degrees between lines and x-axis
%	 XX = 0/1 for no/yes cross-hatch
%
/PatternFill {gsave /PFa [ 9 2 roll ] def
  PFa 0 get PFa 2 get 2 div add PFa 1 get PFa 3 get 2 div add translate
  PFa 2 get -2 div PFa 3 get -2 div PFa 2 get PFa 3 get Rec
  TransparentPatterns {} {gsave 1 setgray fill grestore} ifelse
  clip
  currentlinewidth 0.5 mul setlinewidth
  /PFs PFa 2 get dup mul PFa 3 get dup mul add sqrt def
  0 0 M PFa 5 get rotate PFs -2 div dup translate
  0 1 PFs PFa 4 get div 1 add floor cvi
	{PFa 4 get mul 0 M 0 PFs V} for
  0 PFa 6 get ne {
	0 1 PFs PFa 4 get div 1 add floor cvi
	{PFa 4 get mul 0 2 1 roll M PFs 0 V} for
 } if
  stroke grestore} def
%
/languagelevel where
 {pop languagelevel} {1} ifelse
dup 2 lt
	{/InterpretLevel1 true def
	 /InterpretLevel3 false def}
	{/InterpretLevel1 Level1 def
	 2 gt
	    {/InterpretLevel3 Level3 def}
	    {/InterpretLevel3 false def}
	 ifelse }
 ifelse
%
% PostScript level 2 pattern fill definitions
%
/Level2PatternFill {
/Tile8x8 {/PaintType 2 /PatternType 1 /TilingType 1 /BBox [0 0 8 8] /XStep 8 /YStep 8}
	bind def
/KeepColor {currentrgbcolor [/Pattern /DeviceRGB] setcolorspace} bind def
<< Tile8x8
 /PaintProc {0.5 setlinewidth pop 0 0 M 8 8 L 0 8 M 8 0 L stroke} 
>> matrix makepattern
/Pat1 exch def
<< Tile8x8
 /PaintProc {0.5 setlinewidth pop 0 0 M 8 8 L 0 8 M 8 0 L stroke
	0 4 M 4 8 L 8 4 L 4 0 L 0 4 L stroke}
>> matrix makepattern
/Pat2 exch def
<< Tile8x8
 /PaintProc {0.5 setlinewidth pop 0 0 M 0 8 L
	8 8 L 8 0 L 0 0 L fill}
>> matrix makepattern
/Pat3 exch def
<< Tile8x8
 /PaintProc {0.5 setlinewidth pop -4 8 M 8 -4 L
	0 12 M 12 0 L stroke}
>> matrix makepattern
/Pat4 exch def
<< Tile8x8
 /PaintProc {0.5 setlinewidth pop -4 0 M 8 12 L
	0 -4 M 12 8 L stroke}
>> matrix makepattern
/Pat5 exch def
<< Tile8x8
 /PaintProc {0.5 setlinewidth pop -2 8 M 4 -4 L
	0 12 M 8 -4 L 4 12 M 10 0 L stroke}
>> matrix makepattern
/Pat6 exch def
<< Tile8x8
 /PaintProc {0.5 setlinewidth pop -2 0 M 4 12 L
	0 -4 M 8 12 L 4 -4 M 10 8 L stroke}
>> matrix makepattern
/Pat7 exch def
<< Tile8x8
 /PaintProc {0.5 setlinewidth pop 8 -2 M -4 4 L
	12 0 M -4 8 L 12 4 M 0 10 L stroke}
>> matrix makepattern
/Pat8 exch def
<< Tile8x8
 /PaintProc {0.5 setlinewidth pop 0 -2 M 12 4 L
	-4 0 M 12 8 L -4 4 M 8 10 L stroke}
>> matrix makepattern
/Pat9 exch def
/Pattern1 {PatternBgnd KeepColor Pat1 setpattern} bind def
/Pattern2 {PatternBgnd KeepColor Pat2 setpattern} bind def
/Pattern3 {PatternBgnd KeepColor Pat3 setpattern} bind def
/Pattern4 {PatternBgnd KeepColor Landscape {Pat5} {Pat4} ifelse setpattern} bind def
/Pattern5 {PatternBgnd KeepColor Landscape {Pat4} {Pat5} ifelse setpattern} bind def
/Pattern6 {PatternBgnd KeepColor Landscape {Pat9} {Pat6} ifelse setpattern} bind def
/Pattern7 {PatternBgnd KeepColor Landscape {Pat8} {Pat7} ifelse setpattern} bind def
} def
%
%
%End of PostScript Level 2 code
%
/PatternBgnd {
  TransparentPatterns {} {gsave 1 setgray fill grestore} ifelse
} def
%
% Substitute for Level 2 pattern fill codes with
% grayscale if Level 2 support is not selected.
%
/Level1PatternFill {
/Pattern1 {0.250 Density} bind def
/Pattern2 {0.500 Density} bind def
/Pattern3 {0.750 Density} bind def
/Pattern4 {0.125 Density} bind def
/Pattern5 {0.375 Density} bind def
/Pattern6 {0.625 Density} bind def
/Pattern7 {0.875 Density} bind def
} def
%
% Now test for support of Level 2 code
%
Level1 {Level1PatternFill} {Level2PatternFill} ifelse
%
/Symbol-Oblique /Symbol findfont [1 0 .167 1 0 0] makefont
dup length dict begin {1 index /FID eq {pop pop} {def} ifelse} forall
currentdict end definefont pop
%
/MFshow {
   { dup 5 get 3 ge
     { 5 get 3 eq {gsave} {grestore} ifelse }
     {dup dup 0 get findfont exch 1 get scalefont setfont
     [ currentpoint ] exch dup 2 get 0 exch R dup 5 get 2 ne {dup dup 6
     get exch 4 get {textshow} {stringwidth pop 0 R} ifelse }if dup 5 get 0 eq
     {dup 3 get {2 get neg 0 exch R pop} {pop aload pop M} ifelse} {dup 5
     get 1 eq {dup 2 get exch dup 3 get exch 6 get stringwidth pop -2 div
     dup 0 R} {dup 6 get stringwidth pop -2 div 0 R 6 get
     textshow 2 index {aload pop M neg 3 -1 roll neg R pop pop} {pop pop pop
     pop aload pop M} ifelse }ifelse }ifelse }
     ifelse }
   forall} def
/Gswidth {dup type /stringtype eq {stringwidth} {pop (n) stringwidth} ifelse} def
/MFwidth {0 exch { dup 5 get 3 ge { 5 get 3 eq { 0 } { pop } ifelse }
 {dup 3 get{dup dup 0 get findfont exch 1 get scalefont setfont
     6 get Gswidth pop add} {pop} ifelse} ifelse} forall} def
/MLshow { currentpoint stroke M
  0 exch R
  Blacktext {gsave 0 setgray MFshow grestore} {MFshow} ifelse } bind def
/MRshow { currentpoint stroke M
  exch dup MFwidth neg 3 -1 roll R
  Blacktext {gsave 0 setgray MFshow grestore} {MFshow} ifelse } bind def
/MCshow { currentpoint stroke M
  exch dup MFwidth -2 div 3 -1 roll R
  Blacktext {gsave 0 setgray MFshow grestore} {MFshow} ifelse } bind def
/XYsave    { [( ) 1 2 true false 3 ()] } bind def
/XYrestore { [( ) 1 2 true false 4 ()] } bind def
Level1 SuppressPDFMark or 
{} {
/SDict 10 dict def
systemdict /pdfmark known not {
  userdict /pdfmark systemdict /cleartomark get put
} if
SDict begin [
  /Title (packets-s-ccdf-loglog.eps)
  /Subject (gnuplot plot)
  /Creator (gnuplot 5.0 patchlevel 3)
  /Author (tiphaine)
%  /Producer (gnuplot)
%  /Keywords ()
  /CreationDate (Mon May 29 11:05:49 2017)
  /DOCINFO pdfmark
end
} ifelse
%
% Support for boxed text - Ethan A Merritt May 2005
%
/InitTextBox { userdict /TBy2 3 -1 roll put userdict /TBx2 3 -1 roll put
           userdict /TBy1 3 -1 roll put userdict /TBx1 3 -1 roll put
	   /Boxing true def } def
/ExtendTextBox { Boxing
    { gsave dup false charpath pathbbox
      dup TBy2 gt {userdict /TBy2 3 -1 roll put} {pop} ifelse
      dup TBx2 gt {userdict /TBx2 3 -1 roll put} {pop} ifelse
      dup TBy1 lt {userdict /TBy1 3 -1 roll put} {pop} ifelse
      dup TBx1 lt {userdict /TBx1 3 -1 roll put} {pop} ifelse
      grestore } if } def
/PopTextBox { newpath TBx1 TBxmargin sub TBy1 TBymargin sub M
               TBx1 TBxmargin sub TBy2 TBymargin add L
	       TBx2 TBxmargin add TBy2 TBymargin add L
	       TBx2 TBxmargin add TBy1 TBymargin sub L closepath } def
/DrawTextBox { PopTextBox stroke /Boxing false def} def
/FillTextBox { gsave PopTextBox 1 1 1 setrgbcolor fill grestore /Boxing false def} def
0 0 0 0 InitTextBox
/TBxmargin 20 def
/TBymargin 20 def
/Boxing false def
/textshow { ExtendTextBox Gshow } def
%
% redundant definitions for compatibility with prologue.ps older than 5.0.2
/LTB {BL [] LCb DL} def
/LTb {PL [] LCb DL} def
end
%%EndProlog
%%Page: 1 1
gnudict begin
gsave
doclip
50 50 translate
0.100 0.100 scale
90 rotate
0 -5040 translate
0 setgray
newpath
(Helvetica) findfont 140 scalefont setfont
BackgroundColor 0 lt 3 1 roll 0 lt exch 0 lt or or not {gsave BackgroundColor C clippath fill grestore} if
1.000 UL
LTb
LCb setrgbcolor
798 280 M
63 0 V
6086 0 R
-63 0 V
stroke
714 280 M
[ [(Helvetica) 140.0 0.0 true true 0 ( 0.0001)]
] -46.7 MRshow
1.000 UL
LTb
LCb setrgbcolor
798 626 M
31 0 V
6118 0 R
-31 0 V
798 828 M
31 0 V
6118 0 R
-31 0 V
798 971 M
31 0 V
6118 0 R
-31 0 V
798 1082 M
31 0 V
6118 0 R
-31 0 V
798 1173 M
31 0 V
6118 0 R
-31 0 V
798 1250 M
31 0 V
6118 0 R
-31 0 V
798 1317 M
31 0 V
6118 0 R
-31 0 V
798 1375 M
31 0 V
6118 0 R
-31 0 V
798 1428 M
63 0 V
6086 0 R
-63 0 V
stroke
714 1428 M
[ [(Helvetica) 140.0 0.0 true true 0 ( 0.001)]
] -46.7 MRshow
1.000 UL
LTb
LCb setrgbcolor
798 1773 M
31 0 V
6118 0 R
-31 0 V
798 1975 M
31 0 V
6118 0 R
-31 0 V
798 2119 M
31 0 V
6118 0 R
-31 0 V
798 2230 M
31 0 V
6118 0 R
-31 0 V
798 2321 M
31 0 V
6118 0 R
-31 0 V
798 2398 M
31 0 V
6118 0 R
-31 0 V
798 2464 M
31 0 V
6118 0 R
-31 0 V
798 2523 M
31 0 V
6118 0 R
-31 0 V
798 2576 M
63 0 V
6086 0 R
-63 0 V
stroke
714 2576 M
[ [(Helvetica) 140.0 0.0 true true 0 ( 0.01)]
] -46.7 MRshow
1.000 UL
LTb
LCb setrgbcolor
798 2921 M
31 0 V
6118 0 R
-31 0 V
798 3123 M
31 0 V
6118 0 R
-31 0 V
798 3267 M
31 0 V
6118 0 R
-31 0 V
798 3378 M
31 0 V
6118 0 R
-31 0 V
798 3469 M
31 0 V
6118 0 R
-31 0 V
798 3545 M
31 0 V
6118 0 R
-31 0 V
798 3612 M
31 0 V
6118 0 R
-31 0 V
798 3671 M
31 0 V
6118 0 R
-31 0 V
798 3723 M
63 0 V
6086 0 R
-63 0 V
stroke
714 3723 M
[ [(Helvetica) 140.0 0.0 true true 0 ( 0.1)]
] -46.7 MRshow
1.000 UL
LTb
LCb setrgbcolor
798 4069 M
31 0 V
6118 0 R
-31 0 V
798 4271 M
31 0 V
6118 0 R
-31 0 V
798 4414 M
31 0 V
6118 0 R
-31 0 V
798 4525 M
31 0 V
6118 0 R
-31 0 V
798 4616 M
31 0 V
6118 0 R
-31 0 V
798 4693 M
31 0 V
6118 0 R
-31 0 V
798 4760 M
31 0 V
6118 0 R
-31 0 V
798 4818 M
31 0 V
6118 0 R
-31 0 V
798 4871 M
63 0 V
6086 0 R
-63 0 V
stroke
714 4871 M
[ [(Helvetica) 140.0 0.0 true true 0 ( 1)]
] -46.7 MRshow
1.000 UL
LTb
LCb setrgbcolor
798 280 M
0 63 V
0 4528 R
0 -63 V
stroke
798 140 M
[ [(Helvetica) 140.0 0.0 true true 0 ( 1000)]
] -46.7 MCshow
1.000 UL
LTb
LCb setrgbcolor
1724 280 M
0 31 V
0 4560 R
0 -31 V
2265 280 M
0 31 V
0 4560 R
0 -31 V
2649 280 M
0 31 V
0 4560 R
0 -31 V
2947 280 M
0 31 V
0 4560 R
0 -31 V
3190 280 M
0 31 V
0 4560 R
0 -31 V
3396 280 M
0 31 V
0 4560 R
0 -31 V
3575 280 M
0 31 V
0 4560 R
0 -31 V
3732 280 M
0 31 V
0 4560 R
0 -31 V
3873 280 M
0 63 V
0 4528 R
0 -63 V
stroke
3873 140 M
[ [(Helvetica) 140.0 0.0 true true 0 ( 10000)]
] -46.7 MCshow
1.000 UL
LTb
LCb setrgbcolor
4798 280 M
0 31 V
0 4560 R
0 -31 V
5339 280 M
0 31 V
0 4560 R
0 -31 V
5724 280 M
0 31 V
0 4560 R
0 -31 V
6021 280 M
0 31 V
0 4560 R
0 -31 V
6265 280 M
0 31 V
0 4560 R
0 -31 V
6471 280 M
0 31 V
0 4560 R
0 -31 V
6649 280 M
0 31 V
0 4560 R
0 -31 V
6806 280 M
0 31 V
0 4560 R
0 -31 V
6947 280 M
0 63 V
0 4528 R
0 -63 V
stroke
6947 140 M
[ [(Helvetica) 140.0 0.0 true true 0 ( 100000)]
] -46.7 MCshow
1.000 UL
LTb
LCb setrgbcolor
1.000 UL
LTB
LCb setrgbcolor
798 4871 N
798 280 L
6149 0 V
0 4591 V
-6149 0 V
Z stroke
1.000 UP
1.000 UL
LTb
LCb setrgbcolor
% Begin plot #1
1.000 UP
1.000 UL
LTb
0.58 0.00 0.83 C 3436 4871 Pls
4443 4871 Pls
4479 4871 Pls
4503 4871 Pls
4566 4870 Pls
4588 4870 Pls
4589 4870 Pls
4601 4870 Pls
4605 4870 Pls
4609 4870 Pls
4614 4870 Pls
4625 4869 Pls
4626 4869 Pls
4628 4869 Pls
4630 4869 Pls
4631 4869 Pls
4634 4869 Pls
4635 4869 Pls
4637 4869 Pls
4639 4868 Pls
4641 4868 Pls
4642 4868 Pls
4643 4868 Pls
4644 4868 Pls
4644 4868 Pls
4648 4868 Pls
4648 4867 Pls
4653 4867 Pls
4654 4867 Pls
4659 4867 Pls
4662 4867 Pls
4662 4867 Pls
4663 4867 Pls
4664 4866 Pls
4664 4866 Pls
4665 4866 Pls
4666 4866 Pls
4667 4866 Pls
4667 4866 Pls
4669 4866 Pls
4673 4865 Pls
4674 4865 Pls
4675 4865 Pls
4675 4865 Pls
4675 4865 Pls
4675 4865 Pls
4676 4864 Pls
4677 4864 Pls
4678 4864 Pls
4678 4864 Pls
4678 4864 Pls
4681 4864 Pls
4681 4864 Pls
4681 4863 Pls
4682 4863 Pls
4684 4863 Pls
4684 4863 Pls
4685 4863 Pls
4687 4863 Pls
4687 4862 Pls
4687 4862 Pls
4688 4862 Pls
4688 4862 Pls
4690 4862 Pls
4690 4862 Pls
4691 4862 Pls
4692 4861 Pls
4693 4861 Pls
4694 4861 Pls
4694 4861 Pls
4694 4861 Pls
4696 4861 Pls
4696 4861 Pls
4696 4860 Pls
4697 4860 Pls
4698 4860 Pls
4699 4860 Pls
4699 4860 Pls
4700 4860 Pls
4700 4860 Pls
4701 4859 Pls
4701 4859 Pls
4702 4859 Pls
4702 4859 Pls
4703 4859 Pls
4703 4859 Pls
4704 4858 Pls
4705 4858 Pls
4706 4858 Pls
4706 4858 Pls
4706 4858 Pls
4708 4858 Pls
4710 4858 Pls
4711 4857 Pls
4712 4857 Pls
4713 4857 Pls
4714 4857 Pls
4715 4857 Pls
4715 4857 Pls
4716 4857 Pls
4717 4856 Pls
4717 4856 Pls
4719 4856 Pls
4720 4856 Pls
4720 4856 Pls
4721 4856 Pls
4721 4856 Pls
4722 4855 Pls
4723 4855 Pls
4724 4855 Pls
4725 4855 Pls
4725 4855 Pls
4726 4855 Pls
4726 4855 Pls
4727 4854 Pls
4728 4854 Pls
4730 4854 Pls
4730 4854 Pls
4732 4854 Pls
4732 4854 Pls
4734 4854 Pls
4734 4853 Pls
4734 4853 Pls
4735 4853 Pls
4735 4853 Pls
4735 4853 Pls
4737 4853 Pls
4738 4853 Pls
4739 4852 Pls
4739 4852 Pls
4740 4852 Pls
4740 4852 Pls
4740 4852 Pls
4741 4852 Pls
4741 4852 Pls
4741 4851 Pls
4742 4851 Pls
4742 4851 Pls
4742 4851 Pls
4742 4851 Pls
4743 4851 Pls
4743 4850 Pls
4744 4850 Pls
4746 4850 Pls
4746 4850 Pls
4746 4850 Pls
4746 4849 Pls
4746 4849 Pls
4748 4849 Pls
4748 4849 Pls
4748 4849 Pls
4748 4849 Pls
4748 4848 Pls
4749 4848 Pls
4749 4848 Pls
4750 4848 Pls
4750 4848 Pls
4750 4848 Pls
4750 4848 Pls
4750 4847 Pls
4750 4847 Pls
4751 4847 Pls
4752 4847 Pls
4752 4847 Pls
4753 4847 Pls
4754 4847 Pls
4754 4846 Pls
4755 4846 Pls
4757 4846 Pls
4757 4846 Pls
4758 4846 Pls
4758 4846 Pls
4759 4845 Pls
4759 4845 Pls
4760 4845 Pls
4760 4845 Pls
4760 4845 Pls
4761 4845 Pls
4762 4845 Pls
4762 4844 Pls
4763 4844 Pls
4765 4844 Pls
4765 4844 Pls
4766 4844 Pls
4767 4844 Pls
4767 4844 Pls
4767 4843 Pls
4767 4843 Pls
4768 4843 Pls
4768 4843 Pls
4769 4843 Pls
4769 4843 Pls
4769 4842 Pls
4769 4842 Pls
4770 4842 Pls
4770 4842 Pls
4770 4842 Pls
4770 4842 Pls
4771 4841 Pls
4772 4841 Pls
4772 4841 Pls
4772 4841 Pls
4773 4841 Pls
4773 4841 Pls
4773 4840 Pls
4773 4840 Pls
4774 4840 Pls
4774 4840 Pls
4775 4840 Pls
4775 4840 Pls
4775 4839 Pls
4776 4839 Pls
4776 4839 Pls
4776 4839 Pls
4776 4839 Pls
4776 4839 Pls
4777 4839 Pls
4777 4838 Pls
4777 4838 Pls
4777 4838 Pls
4778 4838 Pls
4778 4838 Pls
4778 4837 Pls
4779 4837 Pls
4779 4837 Pls
4779 4837 Pls
4780 4837 Pls
4780 4837 Pls
4781 4837 Pls
4781 4836 Pls
4781 4836 Pls
4782 4836 Pls
4782 4836 Pls
4782 4836 Pls
4782 4836 Pls
4783 4836 Pls
4783 4835 Pls
4783 4835 Pls
4784 4835 Pls
4784 4835 Pls
4785 4835 Pls
4785 4835 Pls
4785 4834 Pls
4786 4834 Pls
4786 4834 Pls
4786 4834 Pls
4787 4834 Pls
4788 4833 Pls
4788 4833 Pls
4788 4833 Pls
4788 4833 Pls
4789 4833 Pls
4789 4833 Pls
4789 4832 Pls
4789 4832 Pls
4790 4832 Pls
4790 4832 Pls
4790 4832 Pls
4790 4832 Pls
4791 4831 Pls
4791 4831 Pls
4792 4831 Pls
4792 4831 Pls
4792 4831 Pls
4792 4830 Pls
4792 4830 Pls
4793 4830 Pls
4794 4830 Pls
4794 4830 Pls
4794 4830 Pls
4794 4829 Pls
4794 4829 Pls
4794 4829 Pls
4794 4829 Pls
4795 4829 Pls
4795 4828 Pls
4796 4828 Pls
4796 4828 Pls
4796 4828 Pls
4797 4828 Pls
4797 4827 Pls
4798 4827 Pls
4798 4827 Pls
4798 4827 Pls
4799 4827 Pls
4799 4827 Pls
4799 4827 Pls
4800 4826 Pls
4800 4826 Pls
4800 4826 Pls
4800 4826 Pls
4801 4826 Pls
4801 4826 Pls
4801 4825 Pls
4801 4825 Pls
4801 4825 Pls
4801 4825 Pls
4801 4825 Pls
4802 4824 Pls
4802 4824 Pls
4802 4824 Pls
4803 4824 Pls
4803 4824 Pls
4803 4824 Pls
4803 4823 Pls
4803 4823 Pls
4803 4823 Pls
4804 4823 Pls
4804 4823 Pls
4804 4823 Pls
4805 4822 Pls
4805 4822 Pls
4806 4822 Pls
4806 4822 Pls
4807 4822 Pls
4807 4822 Pls
4808 4821 Pls
4808 4821 Pls
4808 4821 Pls
4808 4821 Pls
4808 4821 Pls
4809 4821 Pls
4809 4820 Pls
4810 4820 Pls
4810 4820 Pls
4811 4820 Pls
4811 4820 Pls
4811 4820 Pls
4811 4819 Pls
4811 4819 Pls
4812 4819 Pls
4812 4819 Pls
4812 4818 Pls
4812 4818 Pls
4813 4818 Pls
4813 4818 Pls
4814 4818 Pls
4814 4818 Pls
4814 4818 Pls
4815 4817 Pls
4815 4817 Pls
4815 4817 Pls
4815 4817 Pls
4815 4816 Pls
4815 4816 Pls
4815 4816 Pls
4816 4816 Pls
4816 4816 Pls
4817 4816 Pls
4817 4816 Pls
4817 4815 Pls
4818 4815 Pls
4818 4815 Pls
4818 4815 Pls
4819 4815 Pls
4819 4815 Pls
4819 4814 Pls
4819 4814 Pls
4820 4814 Pls
4820 4814 Pls
4820 4814 Pls
4821 4813 Pls
4821 4813 Pls
4821 4813 Pls
4821 4813 Pls
4821 4813 Pls
4821 4813 Pls
4822 4812 Pls
4822 4812 Pls
4822 4812 Pls
4822 4812 Pls
4823 4812 Pls
4823 4812 Pls
4823 4811 Pls
4823 4811 Pls
4824 4811 Pls
4824 4811 Pls
4824 4811 Pls
4824 4811 Pls
4824 4810 Pls
4824 4810 Pls
4824 4810 Pls
4825 4810 Pls
4825 4810 Pls
4825 4809 Pls
4825 4809 Pls
4826 4809 Pls
4827 4809 Pls
4828 4809 Pls
4829 4809 Pls
4829 4809 Pls
4829 4808 Pls
4830 4808 Pls
4830 4808 Pls
4830 4808 Pls
4831 4808 Pls
4831 4808 Pls
4831 4807 Pls
4831 4807 Pls
4832 4807 Pls
4832 4807 Pls
4832 4807 Pls
4832 4806 Pls
4832 4806 Pls
4832 4806 Pls
4833 4806 Pls
4833 4806 Pls
4833 4806 Pls
4833 4805 Pls
4833 4805 Pls
4833 4805 Pls
4833 4805 Pls
4834 4805 Pls
4834 4804 Pls
4834 4804 Pls
4834 4804 Pls
4835 4804 Pls
4835 4804 Pls
4835 4803 Pls
4835 4803 Pls
4836 4803 Pls
4836 4803 Pls
4836 4803 Pls
4836 4803 Pls
4837 4803 Pls
4837 4802 Pls
4837 4802 Pls
4837 4802 Pls
4837 4802 Pls
4838 4802 Pls
4838 4801 Pls
4839 4801 Pls
4839 4801 Pls
4840 4801 Pls
4840 4801 Pls
4840 4800 Pls
4840 4800 Pls
4840 4800 Pls
4841 4800 Pls
4841 4800 Pls
4841 4800 Pls
4841 4799 Pls
4842 4799 Pls
4842 4799 Pls
4842 4798 Pls
4842 4798 Pls
4843 4798 Pls
4843 4798 Pls
4843 4798 Pls
4844 4797 Pls
4844 4797 Pls
4844 4797 Pls
4845 4797 Pls
4845 4797 Pls
4845 4796 Pls
4845 4796 Pls
4846 4796 Pls
4847 4796 Pls
4847 4796 Pls
4847 4795 Pls
4847 4795 Pls
4848 4795 Pls
4849 4795 Pls
4849 4795 Pls
4849 4794 Pls
4849 4794 Pls
4849 4794 Pls
4850 4794 Pls
4850 4794 Pls
4850 4794 Pls
4850 4793 Pls
4850 4793 Pls
4851 4793 Pls
4851 4793 Pls
4851 4793 Pls
4851 4792 Pls
4852 4792 Pls
4852 4792 Pls
4852 4792 Pls
4852 4792 Pls
4852 4791 Pls
4852 4791 Pls
4852 4791 Pls
4853 4791 Pls
4853 4791 Pls
4853 4790 Pls
4853 4790 Pls
4853 4790 Pls
4854 4790 Pls
4854 4790 Pls
4854 4790 Pls
4855 4789 Pls
4855 4789 Pls
4855 4789 Pls
4855 4789 Pls
4855 4789 Pls
4855 4788 Pls
4856 4788 Pls
4856 4788 Pls
4856 4788 Pls
4856 4787 Pls
4856 4787 Pls
4857 4787 Pls
4857 4787 Pls
4857 4786 Pls
4857 4786 Pls
4857 4786 Pls
4857 4786 Pls
4857 4786 Pls
4857 4785 Pls
4858 4785 Pls
4858 4785 Pls
4858 4785 Pls
4859 4784 Pls
4859 4784 Pls
4859 4784 Pls
4859 4784 Pls
4860 4784 Pls
4860 4784 Pls
4860 4783 Pls
4861 4783 Pls
4861 4783 Pls
4861 4783 Pls
4862 4783 Pls
4862 4783 Pls
4862 4782 Pls
4862 4782 Pls
4862 4782 Pls
4863 4782 Pls
4863 4782 Pls
4863 4781 Pls
4863 4781 Pls
4863 4781 Pls
4864 4781 Pls
4864 4781 Pls
4864 4780 Pls
4864 4780 Pls
4864 4780 Pls
4865 4780 Pls
4865 4779 Pls
4865 4779 Pls
4865 4779 Pls
4865 4779 Pls
4865 4779 Pls
4865 4778 Pls
4866 4778 Pls
4866 4778 Pls
4866 4778 Pls
4866 4778 Pls
4867 4777 Pls
4867 4777 Pls
4868 4777 Pls
4868 4777 Pls
4868 4777 Pls
4868 4776 Pls
4869 4776 Pls
4869 4776 Pls
4869 4776 Pls
4869 4776 Pls
4869 4776 Pls
4869 4775 Pls
4869 4775 Pls
4869 4775 Pls
4870 4775 Pls
4870 4775 Pls
4870 4775 Pls
4870 4774 Pls
4871 4774 Pls
4871 4774 Pls
4871 4774 Pls
4871 4774 Pls
4871 4773 Pls
4871 4773 Pls
4872 4773 Pls
4872 4773 Pls
4872 4773 Pls
4872 4773 Pls
4872 4772 Pls
4872 4772 Pls
4873 4772 Pls
4873 4772 Pls
4873 4772 Pls
4873 4771 Pls
4873 4771 Pls
4874 4771 Pls
4874 4771 Pls
4875 4771 Pls
4875 4771 Pls
4875 4770 Pls
4876 4770 Pls
4876 4770 Pls
4876 4770 Pls
4876 4770 Pls
4876 4770 Pls
4877 4769 Pls
4877 4769 Pls
4877 4769 Pls
4877 4769 Pls
4878 4769 Pls
4878 4768 Pls
4878 4768 Pls
4878 4768 Pls
4878 4768 Pls
4879 4768 Pls
4879 4767 Pls
4879 4767 Pls
4879 4767 Pls
4880 4767 Pls
4880 4767 Pls
4880 4767 Pls
4880 4766 Pls
4880 4766 Pls
4881 4766 Pls
4881 4766 Pls
4881 4765 Pls
4882 4765 Pls
4883 4765 Pls
4883 4765 Pls
4883 4765 Pls
4883 4765 Pls
4883 4764 Pls
4883 4764 Pls
4884 4764 Pls
4884 4764 Pls
4884 4763 Pls
4884 4763 Pls
4884 4763 Pls
4884 4763 Pls
4885 4763 Pls
4886 4763 Pls
4886 4762 Pls
4886 4762 Pls
4886 4762 Pls
4886 4761 Pls
4887 4761 Pls
4887 4761 Pls
4887 4761 Pls
4887 4760 Pls
4887 4760 Pls
4887 4760 Pls
4887 4760 Pls
4887 4760 Pls
4887 4760 Pls
4888 4759 Pls
4888 4759 Pls
4888 4759 Pls
4888 4759 Pls
4888 4759 Pls
4888 4758 Pls
4889 4758 Pls
4889 4758 Pls
4889 4758 Pls
4889 4758 Pls
4890 4757 Pls
4890 4757 Pls
4890 4756 Pls
4890 4756 Pls
4890 4756 Pls
4890 4756 Pls
4891 4756 Pls
4891 4756 Pls
4891 4755 Pls
4891 4755 Pls
4891 4755 Pls
4892 4755 Pls
4892 4755 Pls
4892 4754 Pls
4892 4754 Pls
4892 4754 Pls
4892 4754 Pls
4893 4753 Pls
4893 4753 Pls
4893 4753 Pls
4893 4753 Pls
4893 4752 Pls
4894 4752 Pls
4894 4752 Pls
4894 4751 Pls
4894 4751 Pls
4894 4751 Pls
4894 4751 Pls
4894 4751 Pls
4895 4750 Pls
4895 4750 Pls
4895 4750 Pls
4896 4750 Pls
4896 4750 Pls
4896 4749 Pls
4896 4749 Pls
4896 4749 Pls
4897 4749 Pls
4897 4749 Pls
4898 4748 Pls
4898 4748 Pls
4898 4748 Pls
4898 4748 Pls
4898 4748 Pls
4899 4748 Pls
4899 4747 Pls
4899 4747 Pls
4899 4747 Pls
4899 4747 Pls
4900 4747 Pls
4900 4746 Pls
4900 4746 Pls
4900 4746 Pls
4900 4746 Pls
4901 4746 Pls
4901 4745 Pls
4901 4745 Pls
4901 4745 Pls
4901 4745 Pls
4901 4744 Pls
4902 4744 Pls
4902 4744 Pls
4902 4744 Pls
4902 4743 Pls
4902 4743 Pls
4902 4743 Pls
4903 4743 Pls
4903 4742 Pls
4903 4742 Pls
4903 4742 Pls
4904 4741 Pls
4904 4741 Pls
4904 4741 Pls
4904 4741 Pls
4904 4741 Pls
4904 4741 Pls
4905 4740 Pls
4905 4740 Pls
4905 4740 Pls
4905 4739 Pls
4905 4739 Pls
4905 4739 Pls
4906 4739 Pls
4906 4739 Pls
4906 4739 Pls
4906 4738 Pls
4906 4738 Pls
4906 4738 Pls
4907 4738 Pls
4907 4737 Pls
4907 4737 Pls
4907 4737 Pls
4907 4737 Pls
4907 4737 Pls
4907 4736 Pls
4907 4736 Pls
4908 4736 Pls
4908 4736 Pls
4908 4736 Pls
4908 4735 Pls
4908 4735 Pls
4908 4735 Pls
4909 4735 Pls
4909 4735 Pls
4909 4735 Pls
4910 4734 Pls
4910 4734 Pls
4910 4734 Pls
4910 4734 Pls
4910 4733 Pls
4910 4733 Pls
4911 4733 Pls
4911 4733 Pls
4911 4733 Pls
4911 4733 Pls
4911 4732 Pls
4911 4732 Pls
4912 4732 Pls
4912 4732 Pls
4912 4732 Pls
4912 4731 Pls
4912 4731 Pls
4912 4731 Pls
4912 4731 Pls
4913 4731 Pls
4913 4730 Pls
4913 4730 Pls
4913 4730 Pls
4913 4730 Pls
4913 4730 Pls
4914 4729 Pls
4914 4729 Pls
4914 4729 Pls
4914 4729 Pls
4914 4729 Pls
4915 4728 Pls
4915 4728 Pls
4915 4728 Pls
4915 4728 Pls
4915 4727 Pls
4915 4727 Pls
4915 4727 Pls
4916 4727 Pls
4916 4727 Pls
4916 4726 Pls
4916 4726 Pls
4916 4726 Pls
4916 4726 Pls
4916 4726 Pls
4917 4725 Pls
4917 4725 Pls
4917 4725 Pls
4917 4725 Pls
4917 4724 Pls
4917 4724 Pls
4917 4724 Pls
4917 4724 Pls
4918 4724 Pls
4918 4723 Pls
4918 4723 Pls
4918 4723 Pls
4919 4722 Pls
4919 4722 Pls
4919 4722 Pls
4919 4722 Pls
4919 4721 Pls
4920 4721 Pls
4920 4721 Pls
4920 4720 Pls
4920 4720 Pls
4920 4720 Pls
4920 4720 Pls
4920 4720 Pls
4921 4719 Pls
4921 4719 Pls
4921 4719 Pls
4921 4719 Pls
4921 4719 Pls
4922 4718 Pls
4922 4718 Pls
4922 4718 Pls
4922 4718 Pls
4922 4718 Pls
4922 4717 Pls
4922 4717 Pls
4922 4717 Pls
4923 4716 Pls
4923 4716 Pls
4923 4716 Pls
4923 4716 Pls
4923 4716 Pls
4923 4715 Pls
4923 4715 Pls
4923 4715 Pls
4923 4715 Pls
4923 4714 Pls
4924 4714 Pls
4924 4714 Pls
4924 4714 Pls
4924 4713 Pls
4924 4713 Pls
4924 4713 Pls
4924 4713 Pls
4925 4712 Pls
4925 4712 Pls
4925 4712 Pls
4925 4712 Pls
4925 4711 Pls
4926 4711 Pls
4926 4711 Pls
4926 4711 Pls
4926 4711 Pls
4926 4710 Pls
4926 4710 Pls
4927 4710 Pls
4927 4710 Pls
4927 4710 Pls
4927 4709 Pls
4927 4709 Pls
4927 4709 Pls
4927 4708 Pls
4928 4708 Pls
4928 4708 Pls
4928 4708 Pls
4928 4707 Pls
4928 4707 Pls
4928 4707 Pls
4928 4706 Pls
4928 4706 Pls
4929 4706 Pls
4929 4706 Pls
4929 4706 Pls
4929 4706 Pls
4929 4705 Pls
4930 4705 Pls
4930 4705 Pls
4930 4705 Pls
4930 4705 Pls
4930 4704 Pls
4930 4704 Pls
4930 4704 Pls
4931 4704 Pls
4931 4703 Pls
4931 4703 Pls
4931 4703 Pls
4931 4703 Pls
4932 4702 Pls
4932 4702 Pls
4932 4702 Pls
4932 4702 Pls
4933 4701 Pls
4933 4701 Pls
4933 4701 Pls
4933 4701 Pls
4933 4700 Pls
4934 4700 Pls
4934 4700 Pls
4934 4700 Pls
4935 4700 Pls
4935 4699 Pls
4935 4699 Pls
4935 4699 Pls
4935 4699 Pls
4936 4699 Pls
4936 4698 Pls
4936 4698 Pls
4936 4698 Pls
4936 4698 Pls
4936 4697 Pls
4936 4697 Pls
4937 4697 Pls
4937 4697 Pls
4937 4697 Pls
4937 4696 Pls
4937 4696 Pls
4937 4696 Pls
4937 4696 Pls
4938 4696 Pls
4938 4695 Pls
4938 4695 Pls
4938 4695 Pls
4938 4695 Pls
4938 4694 Pls
4938 4694 Pls
4939 4694 Pls
4939 4694 Pls
4939 4694 Pls
4939 4693 Pls
4939 4693 Pls
4939 4693 Pls
4939 4693 Pls
4940 4693 Pls
4940 4692 Pls
4941 4692 Pls
4941 4692 Pls
4941 4691 Pls
4941 4691 Pls
4941 4691 Pls
4942 4690 Pls
4942 4690 Pls
4942 4690 Pls
4942 4690 Pls
4943 4689 Pls
4943 4689 Pls
4943 4689 Pls
4943 4689 Pls
4943 4688 Pls
4943 4688 Pls
4943 4688 Pls
4943 4688 Pls
4943 4687 Pls
4943 4687 Pls
4943 4687 Pls
4944 4687 Pls
4944 4687 Pls
4945 4686 Pls
4945 4686 Pls
4945 4685 Pls
4945 4685 Pls
4945 4684 Pls
4945 4684 Pls
4946 4684 Pls
4946 4684 Pls
4946 4683 Pls
4946 4683 Pls
4946 4683 Pls
4946 4683 Pls
4946 4682 Pls
4946 4682 Pls
4946 4682 Pls
4947 4682 Pls
4947 4681 Pls
4947 4681 Pls
4947 4681 Pls
4948 4680 Pls
4948 4680 Pls
4948 4680 Pls
4948 4680 Pls
4948 4679 Pls
4948 4679 Pls
4948 4679 Pls
4949 4679 Pls
4949 4679 Pls
4949 4678 Pls
4949 4678 Pls
4949 4678 Pls
4949 4678 Pls
4949 4678 Pls
4949 4677 Pls
4949 4677 Pls
4950 4677 Pls
4950 4677 Pls
4950 4676 Pls
4950 4676 Pls
4950 4676 Pls
4950 4676 Pls
4950 4675 Pls
4950 4675 Pls
4950 4675 Pls
4950 4675 Pls
4950 4674 Pls
4951 4674 Pls
4951 4674 Pls
4951 4673 Pls
4951 4673 Pls
4951 4673 Pls
4951 4672 Pls
4951 4672 Pls
4951 4672 Pls
4951 4672 Pls
4952 4672 Pls
4952 4671 Pls
4952 4671 Pls
4952 4671 Pls
4952 4671 Pls
4952 4671 Pls
4953 4670 Pls
4953 4670 Pls
4953 4670 Pls
4953 4670 Pls
4953 4669 Pls
4953 4669 Pls
4954 4669 Pls
4954 4668 Pls
4954 4668 Pls
4954 4668 Pls
4954 4668 Pls
4954 4668 Pls
4955 4667 Pls
4955 4667 Pls
4955 4667 Pls
4955 4667 Pls
4955 4666 Pls
4956 4666 Pls
4956 4666 Pls
4956 4666 Pls
4956 4665 Pls
4956 4665 Pls
4956 4665 Pls
4956 4664 Pls
4957 4664 Pls
4957 4664 Pls
4957 4663 Pls
4957 4663 Pls
4957 4663 Pls
4958 4663 Pls
4958 4662 Pls
4958 4662 Pls
4958 4662 Pls
4958 4662 Pls
4958 4662 Pls
4958 4661 Pls
4959 4661 Pls
4959 4661 Pls
4959 4661 Pls
4959 4660 Pls
4959 4660 Pls
4959 4660 Pls
4960 4659 Pls
4960 4659 Pls
4960 4659 Pls
4960 4659 Pls
4960 4659 Pls
4961 4658 Pls
4961 4658 Pls
4961 4658 Pls
4961 4658 Pls
4961 4657 Pls
4961 4657 Pls
4962 4657 Pls
4962 4657 Pls
4962 4656 Pls
4962 4656 Pls
4962 4656 Pls
4962 4656 Pls
4962 4656 Pls
4962 4655 Pls
4962 4655 Pls
4962 4655 Pls
4963 4654 Pls
4963 4654 Pls
4963 4653 Pls
4963 4653 Pls
4963 4653 Pls
4963 4652 Pls
4963 4652 Pls
4963 4652 Pls
4964 4652 Pls
4964 4651 Pls
4964 4651 Pls
4964 4650 Pls
4964 4650 Pls
4964 4650 Pls
4964 4649 Pls
4965 4649 Pls
4965 4649 Pls
4965 4649 Pls
4965 4649 Pls
4965 4648 Pls
4965 4648 Pls
4965 4648 Pls
4965 4647 Pls
4966 4647 Pls
4966 4647 Pls
4966 4647 Pls
4966 4646 Pls
4966 4646 Pls
4967 4645 Pls
4967 4645 Pls
4967 4644 Pls
4967 4644 Pls
4967 4644 Pls
4967 4644 Pls
4967 4644 Pls
4967 4643 Pls
4967 4643 Pls
4968 4643 Pls
4968 4643 Pls
4968 4642 Pls
4968 4642 Pls
4968 4642 Pls
4968 4642 Pls
4968 4641 Pls
4968 4641 Pls
4968 4641 Pls
4969 4640 Pls
4969 4640 Pls
4970 4640 Pls
4970 4640 Pls
4970 4639 Pls
4970 4639 Pls
4970 4639 Pls
4971 4638 Pls
4971 4638 Pls
4971 4637 Pls
4971 4637 Pls
4971 4637 Pls
4971 4637 Pls
4971 4636 Pls
4971 4636 Pls
4972 4636 Pls
4972 4635 Pls
4972 4635 Pls
4972 4635 Pls
4973 4635 Pls
4973 4635 Pls
4973 4634 Pls
4973 4634 Pls
4973 4634 Pls
4974 4634 Pls
4974 4633 Pls
4974 4633 Pls
4974 4633 Pls
4974 4633 Pls
4974 4632 Pls
4974 4632 Pls
4975 4632 Pls
4975 4631 Pls
4975 4631 Pls
4975 4631 Pls
4976 4630 Pls
4976 4630 Pls
4976 4630 Pls
4976 4630 Pls
4977 4630 Pls
4977 4629 Pls
4977 4629 Pls
4977 4628 Pls
4977 4628 Pls
4977 4628 Pls
4977 4628 Pls
4977 4627 Pls
4978 4626 Pls
4978 4626 Pls
4978 4626 Pls
4978 4626 Pls
4979 4626 Pls
4979 4625 Pls
4979 4625 Pls
4979 4625 Pls
4979 4625 Pls
4979 4624 Pls
4979 4624 Pls
4980 4624 Pls
4980 4623 Pls
4980 4623 Pls
4980 4623 Pls
4980 4622 Pls
4980 4622 Pls
4980 4622 Pls
4980 4622 Pls
4980 4621 Pls
4980 4621 Pls
4981 4621 Pls
4981 4621 Pls
4981 4621 Pls
4981 4620 Pls
4981 4620 Pls
4981 4620 Pls
4981 4619 Pls
4982 4619 Pls
4982 4619 Pls
4982 4619 Pls
4982 4618 Pls
4982 4618 Pls
4982 4618 Pls
4982 4618 Pls
4983 4617 Pls
4983 4617 Pls
4983 4617 Pls
4983 4617 Pls
4983 4616 Pls
4983 4616 Pls
4983 4616 Pls
4984 4615 Pls
4984 4615 Pls
4984 4615 Pls
4984 4615 Pls
4984 4614 Pls
4984 4614 Pls
4984 4614 Pls
4984 4614 Pls
4984 4613 Pls
4985 4613 Pls
4985 4612 Pls
4986 4612 Pls
4986 4612 Pls
4986 4611 Pls
4986 4611 Pls
4986 4611 Pls
4986 4610 Pls
4986 4610 Pls
4986 4610 Pls
4986 4609 Pls
4987 4609 Pls
4987 4609 Pls
4987 4608 Pls
4987 4608 Pls
4987 4608 Pls
4987 4608 Pls
4987 4607 Pls
4987 4607 Pls
4988 4607 Pls
4988 4606 Pls
4988 4606 Pls
4989 4606 Pls
4989 4605 Pls
4989 4605 Pls
4989 4605 Pls
4989 4604 Pls
4989 4604 Pls
4990 4604 Pls
4990 4603 Pls
4990 4603 Pls
4990 4603 Pls
4990 4602 Pls
4990 4602 Pls
4991 4602 Pls
4991 4602 Pls
4991 4601 Pls
4991 4601 Pls
4991 4601 Pls
4991 4601 Pls
4992 4600 Pls
4992 4600 Pls
4992 4599 Pls
4992 4599 Pls
4992 4599 Pls
4992 4599 Pls
4992 4599 Pls
4992 4598 Pls
4992 4598 Pls
4992 4598 Pls
4993 4597 Pls
4993 4597 Pls
4993 4597 Pls
4993 4597 Pls
4993 4596 Pls
4993 4596 Pls
4993 4595 Pls
4993 4595 Pls
4994 4594 Pls
4994 4594 Pls
4994 4594 Pls
4994 4593 Pls
4994 4593 Pls
4994 4593 Pls
4994 4593 Pls
4995 4592 Pls
4995 4592 Pls
4995 4592 Pls
4995 4592 Pls
4995 4591 Pls
4995 4591 Pls
4995 4591 Pls
4995 4590 Pls
4995 4590 Pls
4996 4590 Pls
4996 4589 Pls
4996 4589 Pls
4996 4589 Pls
4996 4588 Pls
4996 4588 Pls
4996 4587 Pls
4996 4587 Pls
4997 4587 Pls
4997 4586 Pls
4997 4586 Pls
4997 4585 Pls
4997 4585 Pls
4998 4585 Pls
4998 4584 Pls
4998 4584 Pls
4998 4584 Pls
4998 4583 Pls
4998 4583 Pls
4998 4583 Pls
4998 4583 Pls
4999 4582 Pls
4999 4582 Pls
4999 4581 Pls
4999 4581 Pls
4999 4580 Pls
4999 4580 Pls
4999 4580 Pls
4999 4580 Pls
4999 4579 Pls
5000 4579 Pls
5000 4579 Pls
5000 4578 Pls
5001 4578 Pls
5001 4578 Pls
5001 4577 Pls
5001 4577 Pls
5001 4577 Pls
5001 4576 Pls
5002 4576 Pls
5002 4576 Pls
5002 4575 Pls
5002 4575 Pls
5002 4575 Pls
5003 4575 Pls
5003 4574 Pls
5003 4574 Pls
5003 4573 Pls
5003 4573 Pls
5004 4573 Pls
5004 4572 Pls
5004 4572 Pls
5004 4572 Pls
5004 4571 Pls
5004 4571 Pls
5004 4571 Pls
5004 4570 Pls
5005 4570 Pls
5005 4570 Pls
5005 4569 Pls
5005 4569 Pls
5005 4569 Pls
5005 4568 Pls
5006 4568 Pls
5006 4568 Pls
5006 4568 Pls
5006 4567 Pls
5006 4567 Pls
5007 4567 Pls
5007 4567 Pls
5007 4566 Pls
5007 4566 Pls
5007 4566 Pls
5008 4565 Pls
5008 4565 Pls
5008 4565 Pls
5008 4565 Pls
5008 4564 Pls
5008 4564 Pls
5008 4564 Pls
5009 4563 Pls
5009 4563 Pls
5009 4563 Pls
5009 4563 Pls
5009 4562 Pls
5010 4562 Pls
5010 4561 Pls
5010 4561 Pls
5010 4560 Pls
5010 4560 Pls
5010 4559 Pls
5010 4559 Pls
5010 4559 Pls
5010 4558 Pls
5011 4558 Pls
5011 4558 Pls
5011 4557 Pls
5011 4557 Pls
5011 4557 Pls
5011 4557 Pls
5011 4556 Pls
5012 4556 Pls
5012 4556 Pls
5012 4556 Pls
5012 4555 Pls
5012 4555 Pls
5012 4555 Pls
5012 4554 Pls
5012 4554 Pls
5012 4554 Pls
5013 4553 Pls
5013 4553 Pls
5013 4553 Pls
5013 4552 Pls
5013 4552 Pls
5013 4552 Pls
5013 4551 Pls
5013 4551 Pls
5013 4551 Pls
5014 4550 Pls
5014 4550 Pls
5014 4550 Pls
5014 4549 Pls
5014 4549 Pls
5014 4548 Pls
5015 4548 Pls
5015 4548 Pls
5015 4548 Pls
5015 4547 Pls
5016 4547 Pls
5016 4547 Pls
5016 4546 Pls
5016 4546 Pls
5016 4545 Pls
5016 4545 Pls
5017 4545 Pls
5017 4544 Pls
5017 4544 Pls
5017 4544 Pls
5017 4543 Pls
5017 4543 Pls
5017 4543 Pls
5018 4542 Pls
5018 4542 Pls
5018 4542 Pls
5019 4542 Pls
5019 4541 Pls
5019 4541 Pls
5019 4540 Pls
5019 4540 Pls
5019 4540 Pls
5019 4540 Pls
5020 4539 Pls
5020 4539 Pls
5020 4539 Pls
5020 4539 Pls
5020 4538 Pls
5020 4538 Pls
5020 4538 Pls
5020 4538 Pls
5021 4537 Pls
5021 4537 Pls
5021 4537 Pls
5021 4536 Pls
5021 4536 Pls
5021 4536 Pls
5021 4536 Pls
5022 4535 Pls
5022 4535 Pls
5022 4535 Pls
5022 4534 Pls
5022 4534 Pls
5022 4534 Pls
5022 4533 Pls
5022 4533 Pls
5023 4533 Pls
5023 4532 Pls
5023 4532 Pls
5023 4531 Pls
5023 4531 Pls
5024 4531 Pls
5024 4530 Pls
5025 4530 Pls
5025 4530 Pls
5025 4529 Pls
5025 4529 Pls
5025 4529 Pls
5025 4528 Pls
5026 4528 Pls
5026 4527 Pls
5026 4527 Pls
5026 4527 Pls
5026 4526 Pls
5026 4525 Pls
5027 4525 Pls
5027 4525 Pls
5027 4525 Pls
5027 4524 Pls
5027 4524 Pls
5027 4524 Pls
5027 4524 Pls
5027 4523 Pls
5028 4523 Pls
5028 4523 Pls
5028 4522 Pls
5028 4522 Pls
5028 4522 Pls
5028 4522 Pls
5028 4521 Pls
5029 4521 Pls
5029 4521 Pls
5029 4520 Pls
5029 4520 Pls
5029 4520 Pls
5029 4519 Pls
5029 4519 Pls
5030 4519 Pls
5030 4518 Pls
5030 4518 Pls
5030 4518 Pls
5031 4517 Pls
5031 4517 Pls
5031 4517 Pls
5031 4517 Pls
5031 4516 Pls
5031 4516 Pls
5031 4516 Pls
5031 4515 Pls
5031 4515 Pls
5032 4515 Pls
5032 4515 Pls
5032 4514 Pls
5032 4514 Pls
5032 4514 Pls
5033 4513 Pls
5033 4513 Pls
5033 4513 Pls
5033 4512 Pls
5033 4512 Pls
5033 4512 Pls
5034 4511 Pls
5034 4511 Pls
5034 4511 Pls
5034 4510 Pls
5034 4510 Pls
5034 4509 Pls
5034 4509 Pls
5034 4509 Pls
5035 4509 Pls
5035 4508 Pls
5035 4508 Pls
5035 4508 Pls
5035 4507 Pls
5035 4507 Pls
5035 4507 Pls
5036 4507 Pls
5036 4506 Pls
5036 4506 Pls
5036 4506 Pls
5036 4505 Pls
5036 4505 Pls
5036 4505 Pls
5036 4504 Pls
5036 4504 Pls
5037 4504 Pls
5037 4503 Pls
5037 4503 Pls
5037 4503 Pls
5037 4503 Pls
5037 4502 Pls
5037 4501 Pls
5037 4501 Pls
5037 4501 Pls
5038 4501 Pls
5038 4500 Pls
5038 4500 Pls
5038 4499 Pls
5038 4499 Pls
5038 4499 Pls
5039 4498 Pls
5039 4498 Pls
5039 4497 Pls
5039 4497 Pls
5039 4496 Pls
5039 4496 Pls
5039 4496 Pls
5039 4495 Pls
5040 4495 Pls
5040 4494 Pls
5040 4494 Pls
5040 4494 Pls
5040 4493 Pls
5040 4493 Pls
5041 4493 Pls
5041 4492 Pls
5041 4492 Pls
5041 4492 Pls
5041 4491 Pls
5041 4491 Pls
5042 4491 Pls
5042 4490 Pls
5042 4490 Pls
5043 4489 Pls
5043 4489 Pls
5043 4489 Pls
5043 4488 Pls
5043 4488 Pls
5043 4488 Pls
5044 4488 Pls
5044 4487 Pls
5044 4486 Pls
5044 4485 Pls
5044 4485 Pls
5044 4485 Pls
5045 4484 Pls
5045 4484 Pls
5045 4483 Pls
5045 4482 Pls
5045 4482 Pls
5045 4482 Pls
5045 4482 Pls
5045 4481 Pls
5046 4481 Pls
5046 4481 Pls
5046 4480 Pls
5046 4480 Pls
5046 4479 Pls
5046 4479 Pls
5046 4478 Pls
5046 4478 Pls
5047 4478 Pls
5047 4478 Pls
5047 4477 Pls
5047 4477 Pls
5047 4476 Pls
5047 4476 Pls
5048 4476 Pls
5048 4475 Pls
5048 4475 Pls
5048 4474 Pls
5048 4474 Pls
5049 4473 Pls
5049 4473 Pls
5049 4472 Pls
5049 4472 Pls
5049 4471 Pls
5049 4471 Pls
5049 4471 Pls
5049 4471 Pls
5049 4470 Pls
5050 4470 Pls
5050 4469 Pls
5050 4469 Pls
5050 4468 Pls
5050 4468 Pls
5050 4468 Pls
5051 4467 Pls
5051 4467 Pls
5051 4466 Pls
5051 4466 Pls
5052 4466 Pls
5052 4465 Pls
5052 4465 Pls
5052 4464 Pls
5052 4464 Pls
5053 4464 Pls
5053 4463 Pls
5053 4463 Pls
5053 4463 Pls
5053 4462 Pls
5053 4462 Pls
5053 4461 Pls
5054 4461 Pls
5054 4461 Pls
5054 4461 Pls
5054 4460 Pls
5054 4460 Pls
5055 4459 Pls
5055 4459 Pls
5055 4459 Pls
5055 4458 Pls
5055 4458 Pls
5055 4457 Pls
5056 4457 Pls
5056 4457 Pls
5056 4456 Pls
5056 4456 Pls
5056 4455 Pls
5056 4454 Pls
5057 4454 Pls
5057 4453 Pls
5057 4452 Pls
5057 4452 Pls
5057 4452 Pls
5057 4451 Pls
5058 4451 Pls
5058 4450 Pls
5058 4450 Pls
5058 4450 Pls
5058 4449 Pls
5058 4449 Pls
5058 4449 Pls
5058 4448 Pls
5058 4448 Pls
5058 4448 Pls
5059 4447 Pls
5059 4447 Pls
5059 4447 Pls
5059 4446 Pls
5059 4446 Pls
5060 4445 Pls
5060 4445 Pls
5060 4444 Pls
5060 4444 Pls
5060 4443 Pls
5060 4443 Pls
5060 4442 Pls
5061 4442 Pls
5061 4441 Pls
5061 4441 Pls
5062 4441 Pls
5062 4440 Pls
5062 4440 Pls
5062 4440 Pls
5062 4439 Pls
5062 4439 Pls
5063 4439 Pls
5063 4438 Pls
5063 4438 Pls
5063 4437 Pls
5063 4437 Pls
5064 4437 Pls
5064 4436 Pls
5064 4436 Pls
5064 4435 Pls
5065 4435 Pls
5065 4435 Pls
5065 4434 Pls
5065 4434 Pls
5065 4433 Pls
5065 4433 Pls
5066 4433 Pls
5066 4432 Pls
5066 4432 Pls
5066 4431 Pls
5066 4431 Pls
5067 4431 Pls
5067 4430 Pls
5067 4429 Pls
5067 4429 Pls
5067 4428 Pls
5067 4428 Pls
5067 4427 Pls
5068 4427 Pls
5068 4426 Pls
5068 4426 Pls
5068 4425 Pls
5068 4425 Pls
5068 4424 Pls
5069 4424 Pls
5069 4423 Pls
5069 4423 Pls
5069 4422 Pls
5069 4422 Pls
5069 4421 Pls
5069 4421 Pls
5069 4421 Pls
5070 4420 Pls
5070 4420 Pls
5070 4420 Pls
5070 4419 Pls
5070 4419 Pls
5070 4419 Pls
5071 4418 Pls
5071 4418 Pls
5071 4418 Pls
5071 4417 Pls
5071 4417 Pls
5072 4417 Pls
5072 4416 Pls
5072 4416 Pls
5072 4415 Pls
5073 4415 Pls
5073 4415 Pls
5073 4414 Pls
5073 4413 Pls
5073 4413 Pls
5073 4412 Pls
5073 4411 Pls
5073 4411 Pls
5073 4410 Pls
5073 4410 Pls
5074 4410 Pls
5074 4409 Pls
5074 4409 Pls
5074 4409 Pls
5074 4408 Pls
5074 4408 Pls
5075 4408 Pls
5075 4407 Pls
5075 4407 Pls
5075 4406 Pls
5076 4406 Pls
5076 4405 Pls
5076 4404 Pls
5076 4404 Pls
5076 4404 Pls
5076 4403 Pls
5076 4403 Pls
5076 4402 Pls
5077 4402 Pls
5077 4402 Pls
5077 4401 Pls
5077 4400 Pls
5077 4400 Pls
5077 4400 Pls
5077 4399 Pls
5078 4399 Pls
5078 4398 Pls
5078 4398 Pls
5078 4398 Pls
5078 4397 Pls
5079 4397 Pls
5079 4397 Pls
5079 4396 Pls
5080 4396 Pls
5080 4396 Pls
5080 4395 Pls
5080 4394 Pls
5080 4394 Pls
5080 4393 Pls
5081 4393 Pls
5081 4393 Pls
5081 4392 Pls
5081 4392 Pls
5082 4391 Pls
5082 4391 Pls
5082 4390 Pls
5082 4390 Pls
5082 4389 Pls
5083 4389 Pls
5083 4389 Pls
5083 4388 Pls
5083 4388 Pls
5083 4388 Pls
5083 4387 Pls
5083 4387 Pls
5083 4387 Pls
5083 4386 Pls
5084 4385 Pls
5084 4385 Pls
5084 4384 Pls
5084 4384 Pls
5084 4384 Pls
5084 4383 Pls
5085 4383 Pls
5085 4382 Pls
5085 4382 Pls
5085 4382 Pls
5085 4381 Pls
5085 4381 Pls
5085 4380 Pls
5085 4380 Pls
5085 4379 Pls
5086 4379 Pls
5086 4378 Pls
5086 4378 Pls
5086 4378 Pls
5086 4377 Pls
5087 4377 Pls
5087 4377 Pls
5087 4376 Pls
5088 4375 Pls
5088 4375 Pls
5089 4375 Pls
5089 4374 Pls
5089 4372 Pls
5090 4372 Pls
5090 4372 Pls
5090 4371 Pls
5090 4371 Pls
5090 4371 Pls
5090 4370 Pls
5090 4370 Pls
5090 4369 Pls
5091 4369 Pls
5091 4368 Pls
5091 4368 Pls
5091 4367 Pls
5091 4367 Pls
5091 4367 Pls
5091 4366 Pls
5091 4366 Pls
5092 4365 Pls
5092 4365 Pls
5092 4364 Pls
5092 4364 Pls
5093 4364 Pls
5093 4363 Pls
5093 4363 Pls
5093 4363 Pls
5093 4362 Pls
5093 4362 Pls
5093 4361 Pls
5093 4361 Pls
5093 4360 Pls
5093 4360 Pls
5094 4359 Pls
5094 4359 Pls
5095 4358 Pls
5095 4358 Pls
5095 4357 Pls
5096 4357 Pls
5096 4357 Pls
5096 4356 Pls
5096 4356 Pls
5096 4355 Pls
5097 4355 Pls
5097 4354 Pls
5097 4354 Pls
5097 4354 Pls
5097 4353 Pls
5097 4353 Pls
5097 4352 Pls
5098 4352 Pls
5098 4352 Pls
5098 4351 Pls
5098 4350 Pls
5098 4350 Pls
5098 4349 Pls
5098 4349 Pls
5098 4348 Pls
5099 4348 Pls
5099 4348 Pls
5099 4347 Pls
5099 4347 Pls
5099 4347 Pls
5099 4346 Pls
5099 4346 Pls
5099 4345 Pls
5099 4345 Pls
5099 4345 Pls
5099 4344 Pls
5100 4344 Pls
5100 4343 Pls
5100 4343 Pls
5100 4342 Pls
5100 4341 Pls
5100 4341 Pls
5100 4341 Pls
5100 4340 Pls
5101 4340 Pls
5101 4339 Pls
5102 4339 Pls
5102 4339 Pls
5102 4338 Pls
5102 4337 Pls
5102 4337 Pls
5103 4336 Pls
5103 4335 Pls
5103 4335 Pls
5103 4334 Pls
5103 4334 Pls
5103 4334 Pls
5104 4333 Pls
5104 4333 Pls
5104 4332 Pls
5104 4332 Pls
5104 4332 Pls
5104 4331 Pls
5105 4330 Pls
5105 4330 Pls
5105 4330 Pls
5105 4329 Pls
5105 4329 Pls
5105 4328 Pls
5105 4328 Pls
5105 4328 Pls
5106 4327 Pls
5106 4327 Pls
5106 4326 Pls
5106 4326 Pls
5107 4325 Pls
5107 4325 Pls
5107 4325 Pls
5108 4324 Pls
5108 4324 Pls
5108 4323 Pls
5108 4323 Pls
5108 4323 Pls
5108 4322 Pls
5108 4321 Pls
5108 4321 Pls
5109 4320 Pls
5109 4320 Pls
5109 4319 Pls
5110 4319 Pls
5110 4318 Pls
5110 4318 Pls
5110 4317 Pls
5110 4317 Pls
5111 4316 Pls
5111 4315 Pls
5111 4315 Pls
5111 4315 Pls
5111 4314 Pls
5111 4314 Pls
5111 4313 Pls
5111 4313 Pls
5111 4312 Pls
5112 4311 Pls
5112 4310 Pls
5112 4310 Pls
5112 4309 Pls
5112 4309 Pls
5112 4309 Pls
5113 4308 Pls
5113 4308 Pls
5113 4306 Pls
5113 4306 Pls
5113 4306 Pls
5113 4305 Pls
5114 4305 Pls
5114 4304 Pls
5114 4304 Pls
5114 4303 Pls
5115 4303 Pls
5115 4303 Pls
5115 4302 Pls
5115 4301 Pls
5115 4301 Pls
5115 4300 Pls
5115 4300 Pls
5115 4299 Pls
5115 4299 Pls
5115 4298 Pls
5116 4298 Pls
5116 4297 Pls
5116 4297 Pls
5116 4297 Pls
5116 4296 Pls
5117 4296 Pls
5117 4295 Pls
5117 4295 Pls
5117 4294 Pls
5117 4294 Pls
5117 4293 Pls
5118 4293 Pls
5118 4293 Pls
5118 4292 Pls
5118 4292 Pls
5118 4291 Pls
5118 4291 Pls
5119 4290 Pls
5119 4290 Pls
5119 4289 Pls
5119 4289 Pls
5119 4289 Pls
5120 4288 Pls
5120 4288 Pls
5120 4287 Pls
5121 4287 Pls
5121 4286 Pls
5121 4286 Pls
5121 4285 Pls
5121 4284 Pls
5121 4283 Pls
5122 4283 Pls
5122 4282 Pls
5122 4281 Pls
5122 4281 Pls
5122 4280 Pls
5122 4280 Pls
5122 4280 Pls
5122 4279 Pls
5123 4279 Pls
5123 4278 Pls
5123 4278 Pls
5124 4277 Pls
5124 4277 Pls
5124 4276 Pls
5124 4276 Pls
5124 4275 Pls
5124 4275 Pls
5124 4274 Pls
5124 4274 Pls
5124 4273 Pls
5124 4273 Pls
5125 4272 Pls
5125 4271 Pls
5125 4271 Pls
5125 4270 Pls
5125 4270 Pls
5125 4269 Pls
5125 4269 Pls
5125 4268 Pls
5125 4268 Pls
5125 4267 Pls
5126 4267 Pls
5126 4266 Pls
5126 4265 Pls
5126 4264 Pls
5126 4264 Pls
5126 4263 Pls
5127 4263 Pls
5127 4262 Pls
5128 4262 Pls
5128 4261 Pls
5128 4260 Pls
5128 4260 Pls
5128 4259 Pls
5128 4258 Pls
5128 4258 Pls
5128 4257 Pls
5128 4257 Pls
5128 4256 Pls
5128 4254 Pls
5129 4254 Pls
5129 4253 Pls
5129 4253 Pls
5129 4252 Pls
5130 4252 Pls
5130 4251 Pls
5130 4250 Pls
5130 4250 Pls
5130 4249 Pls
5130 4249 Pls
5130 4248 Pls
5131 4248 Pls
5131 4247 Pls
5131 4246 Pls
5131 4245 Pls
5131 4244 Pls
5131 4244 Pls
5132 4243 Pls
5132 4242 Pls
5133 4240 Pls
5133 4239 Pls
5133 4238 Pls
5133 4238 Pls
5133 4237 Pls
5133 4237 Pls
5133 4236 Pls
5134 4236 Pls
5134 4235 Pls
5134 4235 Pls
5134 4234 Pls
5135 4234 Pls
5135 4233 Pls
5135 4233 Pls
5135 4233 Pls
5135 4232 Pls
5136 4231 Pls
5136 4231 Pls
5136 4230 Pls
5136 4229 Pls
5137 4228 Pls
5137 4227 Pls
5137 4227 Pls
5137 4226 Pls
5137 4226 Pls
5138 4225 Pls
5138 4225 Pls
5139 4224 Pls
5139 4223 Pls
5139 4223 Pls
5139 4222 Pls
5140 4221 Pls
5140 4220 Pls
5140 4220 Pls
5140 4219 Pls
5140 4219 Pls
5140 4218 Pls
5141 4218 Pls
5141 4217 Pls
5141 4216 Pls
5141 4215 Pls
5141 4215 Pls
5141 4214 Pls
5142 4214 Pls
5142 4213 Pls
5142 4213 Pls
5142 4212 Pls
5143 4212 Pls
5143 4211 Pls
5143 4211 Pls
5144 4210 Pls
5144 4210 Pls
5144 4209 Pls
5144 4209 Pls
5144 4208 Pls
5144 4207 Pls
5144 4207 Pls
5145 4206 Pls
5145 4205 Pls
5145 4205 Pls
5145 4204 Pls
5145 4204 Pls
5145 4203 Pls
5145 4202 Pls
5145 4202 Pls
5146 4200 Pls
5146 4200 Pls
5146 4199 Pls
5147 4198 Pls
5147 4197 Pls
5147 4197 Pls
5147 4196 Pls
5147 4196 Pls
5148 4195 Pls
5148 4195 Pls
5148 4194 Pls
5148 4194 Pls
5149 4193 Pls
5149 4192 Pls
5149 4191 Pls
5149 4191 Pls
5149 4190 Pls
5149 4190 Pls
5149 4189 Pls
5149 4189 Pls
5150 4188 Pls
5150 4188 Pls
5150 4187 Pls
5150 4187 Pls
5150 4186 Pls
5150 4185 Pls
5151 4185 Pls
5151 4184 Pls
5151 4184 Pls
5152 4183 Pls
5152 4183 Pls
5152 4182 Pls
5152 4181 Pls
5152 4181 Pls
5152 4180 Pls
5152 4179 Pls
5153 4179 Pls
5153 4178 Pls
5153 4178 Pls
5153 4177 Pls
5153 4177 Pls
5154 4176 Pls
5154 4176 Pls
5154 4175 Pls
5154 4174 Pls
5154 4174 Pls
5154 4173 Pls
5155 4173 Pls
5155 4172 Pls
5155 4171 Pls
5155 4170 Pls
5155 4169 Pls
5156 4169 Pls
5156 4168 Pls
5156 4168 Pls
5156 4167 Pls
5157 4167 Pls
5157 4166 Pls
5158 4165 Pls
5158 4165 Pls
5158 4164 Pls
5158 4164 Pls
5159 4163 Pls
5159 4163 Pls
5159 4162 Pls
5159 4161 Pls
5160 4161 Pls
5160 4160 Pls
5160 4160 Pls
5160 4159 Pls
5161 4158 Pls
5161 4157 Pls
5161 4157 Pls
5162 4156 Pls
5162 4156 Pls
5162 4154 Pls
5162 4154 Pls
5162 4153 Pls
5162 4152 Pls
5163 4151 Pls
5163 4151 Pls
5163 4150 Pls
5164 4150 Pls
5164 4149 Pls
5164 4149 Pls
5164 4148 Pls
5164 4147 Pls
5165 4147 Pls
5165 4146 Pls
5166 4145 Pls
5166 4144 Pls
5166 4144 Pls
5166 4143 Pls
5166 4143 Pls
5167 4142 Pls
5167 4141 Pls
5167 4140 Pls
5167 4140 Pls
5167 4139 Pls
5168 4138 Pls
5168 4138 Pls
5168 4137 Pls
5169 4137 Pls
5169 4136 Pls
5169 4135 Pls
5169 4135 Pls
5169 4134 Pls
5169 4134 Pls
5169 4133 Pls
5169 4132 Pls
5169 4132 Pls
5170 4131 Pls
5170 4131 Pls
5170 4130 Pls
5170 4129 Pls
5171 4129 Pls
5171 4128 Pls
5171 4127 Pls
5171 4127 Pls
5171 4126 Pls
5172 4126 Pls
5172 4125 Pls
5172 4124 Pls
5172 4123 Pls
5172 4123 Pls
5172 4122 Pls
5173 4121 Pls
5173 4121 Pls
5173 4120 Pls
5173 4119 Pls
5173 4119 Pls
5173 4118 Pls
5174 4118 Pls
5174 4117 Pls
5174 4116 Pls
5174 4116 Pls
5174 4115 Pls
5175 4114 Pls
5175 4114 Pls
5176 4113 Pls
5176 4112 Pls
5176 4111 Pls
5176 4111 Pls
5176 4110 Pls
5176 4109 Pls
5177 4109 Pls
5177 4108 Pls
5177 4107 Pls
5178 4107 Pls
5178 4106 Pls
5178 4105 Pls
5178 4105 Pls
5179 4104 Pls
5179 4104 Pls
5179 4103 Pls
5180 4102 Pls
5180 4102 Pls
5180 4101 Pls
5181 4100 Pls
5181 4099 Pls
5182 4098 Pls
5182 4098 Pls
5182 4097 Pls
5183 4096 Pls
5183 4095 Pls
5183 4094 Pls
5184 4094 Pls
5184 4093 Pls
5184 4092 Pls
5184 4092 Pls
5185 4089 Pls
5185 4088 Pls
5185 4088 Pls
5185 4087 Pls
5185 4086 Pls
5186 4086 Pls
5186 4085 Pls
5186 4084 Pls
5186 4084 Pls
5187 4083 Pls
5187 4082 Pls
5187 4082 Pls
5187 4081 Pls
5187 4080 Pls
5188 4080 Pls
5188 4079 Pls
5189 4078 Pls
5189 4077 Pls
5190 4076 Pls
5190 4076 Pls
5190 4074 Pls
5190 4074 Pls
5190 4072 Pls
5190 4071 Pls
5191 4069 Pls
5191 4068 Pls
5191 4067 Pls
5191 4067 Pls
5191 4066 Pls
5192 4065 Pls
5192 4064 Pls
5192 4062 Pls
5192 4062 Pls
5193 4061 Pls
5193 4060 Pls
5193 4060 Pls
5194 4059 Pls
5194 4058 Pls
5195 4057 Pls
5195 4055 Pls
5195 4055 Pls
5195 4054 Pls
5195 4053 Pls
5195 4053 Pls
5195 4050 Pls
5196 4050 Pls
5196 4049 Pls
5196 4048 Pls
5196 4048 Pls
5196 4047 Pls
5197 4046 Pls
5197 4045 Pls
5197 4045 Pls
5198 4044 Pls
5198 4043 Pls
5198 4042 Pls
5198 4041 Pls
5199 4040 Pls
5199 4040 Pls
5199 4039 Pls
5200 4038 Pls
5200 4037 Pls
5200 4037 Pls
5201 4036 Pls
5201 4035 Pls
5201 4034 Pls
5202 4034 Pls
5202 4033 Pls
5202 4032 Pls
5202 4031 Pls
5202 4031 Pls
5202 4030 Pls
5203 4029 Pls
5203 4028 Pls
5203 4028 Pls
5203 4027 Pls
5203 4026 Pls
5203 4025 Pls
5204 4025 Pls
5204 4024 Pls
5204 4023 Pls
5204 4022 Pls
5204 4021 Pls
5205 4020 Pls
5205 4019 Pls
5205 4019 Pls
5206 4018 Pls
5206 4017 Pls
5206 4016 Pls
5206 4015 Pls
5206 4015 Pls
5207 4014 Pls
5207 4013 Pls
5207 4012 Pls
5207 4012 Pls
5207 4011 Pls
5207 4010 Pls
5208 4009 Pls
5208 4008 Pls
5210 4008 Pls
5210 4007 Pls
5210 4006 Pls
5211 4005 Pls
5211 4005 Pls
5211 4004 Pls
5212 4003 Pls
5212 4001 Pls
5212 4001 Pls
5214 4000 Pls
5214 3999 Pls
5215 3998 Pls
5215 3997 Pls
5215 3996 Pls
5216 3995 Pls
5216 3994 Pls
5216 3993 Pls
5216 3993 Pls
5216 3992 Pls
5217 3991 Pls
5218 3989 Pls
5218 3989 Pls
5218 3988 Pls
5218 3987 Pls
5218 3986 Pls
5220 3985 Pls
5220 3984 Pls
5220 3984 Pls
5220 3983 Pls
5220 3982 Pls
5221 3981 Pls
5221 3980 Pls
5221 3980 Pls
5221 3979 Pls
5221 3978 Pls
5221 3977 Pls
5222 3976 Pls
5222 3975 Pls
5222 3975 Pls
5223 3974 Pls
5223 3973 Pls
5223 3972 Pls
5224 3971 Pls
5224 3970 Pls
5224 3969 Pls
5224 3969 Pls
5224 3968 Pls
5225 3966 Pls
5225 3965 Pls
5225 3964 Pls
5225 3964 Pls
5225 3963 Pls
5226 3962 Pls
5226 3961 Pls
5227 3960 Pls
5229 3959 Pls
5230 3958 Pls
5230 3958 Pls
5230 3957 Pls
5230 3956 Pls
5231 3955 Pls
5231 3954 Pls
5231 3952 Pls
5232 3951 Pls
5232 3951 Pls
5232 3950 Pls
5233 3949 Pls
5233 3946 Pls
5233 3945 Pls
5233 3944 Pls
5234 3943 Pls
5234 3943 Pls
5234 3942 Pls
5234 3941 Pls
5235 3940 Pls
5235 3939 Pls
5235 3938 Pls
5236 3937 Pls
5237 3936 Pls
5237 3935 Pls
5237 3934 Pls
5238 3933 Pls
5238 3932 Pls
5238 3931 Pls
5239 3930 Pls
5239 3929 Pls
5239 3928 Pls
5239 3927 Pls
5240 3926 Pls
5241 3925 Pls
5241 3924 Pls
5242 3924 Pls
5242 3923 Pls
5242 3922 Pls
5243 3921 Pls
5243 3920 Pls
5243 3919 Pls
5244 3918 Pls
5244 3916 Pls
5245 3915 Pls
5245 3914 Pls
5245 3912 Pls
5245 3911 Pls
5245 3908 Pls
5246 3908 Pls
5246 3907 Pls
5246 3906 Pls
5247 3905 Pls
5247 3903 Pls
5247 3902 Pls
5247 3901 Pls
5248 3900 Pls
5248 3899 Pls
5248 3898 Pls
5249 3897 Pls
5249 3896 Pls
5249 3895 Pls
5250 3894 Pls
5250 3893 Pls
5251 3892 Pls
5251 3891 Pls
5251 3890 Pls
5252 3889 Pls
5252 3888 Pls
5252 3887 Pls
5252 3886 Pls
5252 3885 Pls
5252 3884 Pls
5252 3883 Pls
5253 3882 Pls
5253 3881 Pls
5254 3880 Pls
5255 3879 Pls
5255 3878 Pls
5256 3877 Pls
5256 3875 Pls
5257 3873 Pls
5257 3872 Pls
5257 3871 Pls
5259 3870 Pls
5259 3869 Pls
5259 3868 Pls
5259 3867 Pls
5260 3866 Pls
5260 3865 Pls
5260 3864 Pls
5260 3862 Pls
5261 3861 Pls
5261 3860 Pls
5262 3859 Pls
5263 3858 Pls
5264 3857 Pls
5264 3856 Pls
5265 3855 Pls
5265 3853 Pls
5265 3852 Pls
5265 3850 Pls
5265 3849 Pls
5266 3848 Pls
5267 3847 Pls
5267 3845 Pls
5267 3844 Pls
5267 3843 Pls
5267 3842 Pls
5268 3840 Pls
5268 3839 Pls
5269 3838 Pls
5269 3837 Pls
5270 3836 Pls
5270 3834 Pls
5270 3833 Pls
5270 3832 Pls
5270 3830 Pls
5270 3829 Pls
5271 3828 Pls
5271 3827 Pls
5272 3826 Pls
5273 3823 Pls
5273 3822 Pls
5273 3821 Pls
5273 3820 Pls
5274 3819 Pls
5274 3818 Pls
5274 3816 Pls
5275 3815 Pls
5275 3814 Pls
5275 3813 Pls
5276 3812 Pls
5276 3811 Pls
5278 3809 Pls
5279 3808 Pls
5280 3807 Pls
5280 3806 Pls
5280 3805 Pls
5281 3804 Pls
5281 3802 Pls
5282 3801 Pls
5283 3800 Pls
5283 3799 Pls
5284 3798 Pls
5284 3797 Pls
5284 3795 Pls
5285 3794 Pls
5285 3793 Pls
5285 3792 Pls
5286 3791 Pls
5287 3789 Pls
5287 3788 Pls
5287 3787 Pls
5287 3786 Pls
5287 3784 Pls
5288 3783 Pls
5289 3782 Pls
5289 3781 Pls
5292 3779 Pls
5292 3778 Pls
5292 3777 Pls
5293 3775 Pls
5293 3773 Pls
5293 3772 Pls
5293 3771 Pls
5293 3769 Pls
5293 3768 Pls
5293 3767 Pls
5294 3766 Pls
5295 3764 Pls
5295 3763 Pls
5296 3762 Pls
5297 3761 Pls
5297 3759 Pls
5297 3758 Pls
5298 3757 Pls
5299 3755 Pls
5299 3754 Pls
5300 3753 Pls
5300 3752 Pls
5301 3749 Pls
5302 3748 Pls
5303 3746 Pls
5303 3745 Pls
5303 3744 Pls
5303 3742 Pls
5303 3741 Pls
5304 3740 Pls
5305 3738 Pls
5305 3737 Pls
5305 3736 Pls
5305 3734 Pls
5305 3733 Pls
5307 3731 Pls
5307 3730 Pls
5308 3729 Pls
5309 3727 Pls
5309 3726 Pls
5309 3725 Pls
5310 3723 Pls
5310 3722 Pls
5311 3719 Pls
5311 3718 Pls
5312 3716 Pls
5312 3715 Pls
5313 3713 Pls
5313 3712 Pls
5314 3711 Pls
5314 3709 Pls
5315 3708 Pls
5315 3706 Pls
5315 3705 Pls
5318 3702 Pls
5318 3701 Pls
5318 3699 Pls
5318 3698 Pls
5319 3696 Pls
5319 3695 Pls
5320 3693 Pls
5321 3692 Pls
5322 3690 Pls
5322 3689 Pls
5323 3687 Pls
5325 3686 Pls
5325 3684 Pls
5326 3683 Pls
5327 3681 Pls
5327 3680 Pls
5327 3678 Pls
5328 3677 Pls
5328 3675 Pls
5328 3674 Pls
5329 3672 Pls
5330 3671 Pls
5330 3668 Pls
5330 3666 Pls
5332 3665 Pls
5333 3663 Pls
5333 3661 Pls
5334 3660 Pls
5335 3658 Pls
5335 3657 Pls
5335 3655 Pls
5336 3654 Pls
5337 3652 Pls
5337 3650 Pls
5337 3649 Pls
5337 3647 Pls
5339 3645 Pls
5341 3644 Pls
5341 3642 Pls
5341 3641 Pls
5341 3637 Pls
5343 3636 Pls
5344 3634 Pls
5344 3632 Pls
5344 3631 Pls
5345 3629 Pls
5345 3627 Pls
5346 3624 Pls
5346 3622 Pls
5347 3621 Pls
5349 3619 Pls
5350 3617 Pls
5350 3615 Pls
5352 3614 Pls
5352 3612 Pls
5352 3610 Pls
5353 3609 Pls
5354 3607 Pls
5354 3605 Pls
5356 3603 Pls
5357 3602 Pls
5357 3600 Pls
5357 3598 Pls
5358 3596 Pls
5358 3594 Pls
5358 3593 Pls
5358 3591 Pls
5359 3589 Pls
5359 3587 Pls
5361 3585 Pls
5362 3584 Pls
5362 3582 Pls
5364 3580 Pls
5365 3578 Pls
5365 3576 Pls
5365 3574 Pls
5367 3572 Pls
5368 3571 Pls
5369 3569 Pls
5370 3565 Pls
5371 3563 Pls
5372 3561 Pls
5373 3559 Pls
5374 3557 Pls
5375 3555 Pls
5375 3553 Pls
5376 3551 Pls
5377 3549 Pls
5378 3547 Pls
5378 3545 Pls
5378 3543 Pls
5378 3541 Pls
5378 3539 Pls
5380 3537 Pls
5380 3535 Pls
5380 3533 Pls
5382 3531 Pls
5383 3529 Pls
5383 3527 Pls
5384 3525 Pls
5384 3523 Pls
5385 3521 Pls
5389 3517 Pls
5390 3515 Pls
5392 3513 Pls
5392 3511 Pls
5393 3509 Pls
5394 3506 Pls
5395 3504 Pls
5395 3502 Pls
5395 3500 Pls
5396 3498 Pls
5396 3496 Pls
5397 3493 Pls
5397 3491 Pls
5398 3489 Pls
5398 3487 Pls
5400 3485 Pls
5400 3482 Pls
5400 3480 Pls
5401 3478 Pls
5401 3475 Pls
5403 3473 Pls
5403 3471 Pls
5404 3469 Pls
5404 3466 Pls
5406 3464 Pls
5407 3462 Pls
5410 3457 Pls
5411 3455 Pls
5412 3452 Pls
5412 3450 Pls
5415 3447 Pls
5415 3445 Pls
5418 3443 Pls
5418 3440 Pls
5418 3438 Pls
5418 3435 Pls
5419 3433 Pls
5420 3430 Pls
5421 3428 Pls
5422 3425 Pls
5422 3423 Pls
5422 3420 Pls
5422 3418 Pls
5423 3415 Pls
5424 3413 Pls
5424 3410 Pls
5425 3407 Pls
5425 3405 Pls
5426 3402 Pls
5429 3399 Pls
5429 3397 Pls
5430 3394 Pls
5430 3391 Pls
5431 3389 Pls
5432 3386 Pls
5433 3383 Pls
5435 3381 Pls
5436 3378 Pls
5436 3375 Pls
5437 3372 Pls
5437 3369 Pls
5438 3367 Pls
5438 3364 Pls
5439 3361 Pls
5439 3358 Pls
5440 3355 Pls
5442 3352 Pls
5442 3349 Pls
5443 3346 Pls
5445 3343 Pls
5446 3340 Pls
5448 3337 Pls
5449 3334 Pls
5449 3331 Pls
5450 3328 Pls
5450 3325 Pls
5454 3322 Pls
5454 3319 Pls
5454 3316 Pls
5459 3313 Pls
5459 3310 Pls
5460 3306 Pls
5462 3303 Pls
5463 3300 Pls
5463 3297 Pls
5465 3293 Pls
5468 3290 Pls
5470 3287 Pls
5472 3284 Pls
5473 3280 Pls
5475 3277 Pls
5476 3273 Pls
5476 3270 Pls
5477 3267 Pls
5478 3263 Pls
5478 3260 Pls
5480 3256 Pls
5480 3252 Pls
5480 3249 Pls
5481 3245 Pls
5481 3242 Pls
5481 3238 Pls
5482 3234 Pls
5483 3231 Pls
5483 3227 Pls
5486 3223 Pls
5488 3219 Pls
5491 3216 Pls
5493 3212 Pls
5496 3208 Pls
5497 3204 Pls
5498 3200 Pls
5498 3196 Pls
5498 3192 Pls
5500 3188 Pls
5501 3184 Pls
5502 3180 Pls
5503 3176 Pls
5503 3171 Pls
5504 3167 Pls
5504 3163 Pls
5504 3159 Pls
5505 3154 Pls
5508 3150 Pls
5511 3146 Pls
5513 3137 Pls
5515 3132 Pls
5515 3128 Pls
5516 3123 Pls
5517 3118 Pls
5526 3114 Pls
5527 3109 Pls
5529 3104 Pls
5532 3099 Pls
5532 3095 Pls
5534 3090 Pls
5535 3085 Pls
5539 3080 Pls
5542 3075 Pls
5549 3070 Pls
5552 3064 Pls
5556 3059 Pls
5557 3054 Pls
5560 3049 Pls
5563 3043 Pls
5565 3038 Pls
5566 3032 Pls
5567 3027 Pls
5567 3021 Pls
5571 3015 Pls
5576 3010 Pls
5576 3004 Pls
5577 2998 Pls
5584 2992 Pls
5590 2986 Pls
5594 2980 Pls
5594 2974 Pls
5601 2967 Pls
5605 2961 Pls
5606 2954 Pls
5614 2948 Pls
5616 2941 Pls
5619 2935 Pls
5628 2928 Pls
5628 2921 Pls
5629 2914 Pls
5629 2907 Pls
5631 2900 Pls
5632 2893 Pls
5641 2885 Pls
5645 2878 Pls
5647 2870 Pls
5647 2862 Pls
5652 2854 Pls
5652 2846 Pls
5652 2838 Pls
5656 2830 Pls
5658 2822 Pls
5661 2813 Pls
5665 2805 Pls
5667 2796 Pls
5671 2787 Pls
5676 2778 Pls
5677 2768 Pls
5684 2759 Pls
5696 2749 Pls
5697 2739 Pls
5715 2729 Pls
5718 2719 Pls
5720 2708 Pls
5729 2698 Pls
5730 2687 Pls
5731 2676 Pls
5740 2664 Pls
5740 2652 Pls
5743 2640 Pls
5748 2628 Pls
5751 2615 Pls
5759 2602 Pls
5764 2589 Pls
5772 2576 Pls
5781 2561 Pls
5785 2547 Pls
5785 2532 Pls
5793 2517 Pls
5799 2501 Pls
5804 2485 Pls
5808 2468 Pls
5811 2450 Pls
5813 2432 Pls
5813 2413 Pls
5815 2394 Pls
5818 2373 Pls
5824 2352 Pls
5824 2330 Pls
5835 2307 Pls
5867 2283 Pls
5872 2257 Pls
5881 2230 Pls
5894 2202 Pls
5904 2171 Pls
5925 2139 Pls
5931 2105 Pls
5934 2068 Pls
6014 2028 Pls
6023 1985 Pls
6075 1937 Pls
6095 1884 Pls
6107 1826 Pls
6148 1759 Pls
6171 1682 Pls
6216 1591 Pls
6336 1480 Pls
6382 1337 Pls
6434 1135 Pls
6435 789 Pls
% End plot #1
2.000 UL
LTb
LCb setrgbcolor
1.000 UL
LTB
LCb setrgbcolor
798 4871 N
798 280 L
6149 0 V
0 4591 V
-6149 0 V
Z stroke
1.000 UP
1.000 UL
LTb
LCb setrgbcolor
stroke
grestore
end
showpage
%%Trailer
%%DocumentFonts: Helvetica
%%Pages: 1
