%!PS-Adobe-2.0
%%Title: packets-uv-s-log-packets-s-ccdf-linlin.eps
%%Creator: gnuplot 5.0 patchlevel 3
%%CreationDate: Mon May 29 11:07:44 2017
%%DocumentFonts: (atend)
%%BoundingBox: 50 50 554 770
%%Orientation: Landscape
%%Pages: (atend)
%%EndComments
%%BeginProlog
/gnudict 256 dict def
gnudict begin
%
% The following true/false flags may be edited by hand if desired.
% The unit line width and grayscale image gamma correction may also be changed.
%
/Color true def
/Blacktext false def
/Solid false def
/Dashlength 1 def
/Landscape true def
/Level1 false def
/Level3 false def
/Rounded false def
/ClipToBoundingBox false def
/SuppressPDFMark false def
/TransparentPatterns false def
/gnulinewidth 5.000 def
/userlinewidth gnulinewidth def
/Gamma 1.0 def
/BackgroundColor {-1.000 -1.000 -1.000} def
%
/vshift -46 def
/dl1 {
  10.0 Dashlength userlinewidth gnulinewidth div mul mul mul
  Rounded { currentlinewidth 0.75 mul sub dup 0 le { pop 0.01 } if } if
} def
/dl2 {
  10.0 Dashlength userlinewidth gnulinewidth div mul mul mul
  Rounded { currentlinewidth 0.75 mul add } if
} def
/hpt_ 31.5 def
/vpt_ 31.5 def
/hpt hpt_ def
/vpt vpt_ def
/doclip {
  ClipToBoundingBox {
    newpath 50 50 moveto 554 50 lineto 554 770 lineto 50 770 lineto closepath
    clip
  } if
} def
%
% Gnuplot Prolog Version 5.1 (Oct 2015)
%
%/SuppressPDFMark true def
%
/M {moveto} bind def
/L {lineto} bind def
/R {rmoveto} bind def
/V {rlineto} bind def
/N {newpath moveto} bind def
/Z {closepath} bind def
/C {setrgbcolor} bind def
/f {rlineto fill} bind def
/g {setgray} bind def
/Gshow {show} def   % May be redefined later in the file to support UTF-8
/vpt2 vpt 2 mul def
/hpt2 hpt 2 mul def
/Lshow {currentpoint stroke M 0 vshift R 
	Blacktext {gsave 0 setgray textshow grestore} {textshow} ifelse} def
/Rshow {currentpoint stroke M dup stringwidth pop neg vshift R
	Blacktext {gsave 0 setgray textshow grestore} {textshow} ifelse} def
/Cshow {currentpoint stroke M dup stringwidth pop -2 div vshift R 
	Blacktext {gsave 0 setgray textshow grestore} {textshow} ifelse} def
/UP {dup vpt_ mul /vpt exch def hpt_ mul /hpt exch def
  /hpt2 hpt 2 mul def /vpt2 vpt 2 mul def} def
/DL {Color {setrgbcolor Solid {pop []} if 0 setdash}
 {pop pop pop 0 setgray Solid {pop []} if 0 setdash} ifelse} def
/BL {stroke userlinewidth 2 mul setlinewidth
	Rounded {1 setlinejoin 1 setlinecap} if} def
/AL {stroke userlinewidth 2 div setlinewidth
	Rounded {1 setlinejoin 1 setlinecap} if} def
/UL {dup gnulinewidth mul /userlinewidth exch def
	dup 1 lt {pop 1} if 10 mul /udl exch def} def
/PL {stroke userlinewidth setlinewidth
	Rounded {1 setlinejoin 1 setlinecap} if} def
3.8 setmiterlimit
% Classic Line colors (version 5.0)
/LCw {1 1 1} def
/LCb {0 0 0} def
/LCa {0 0 0} def
/LC0 {1 0 0} def
/LC1 {0 1 0} def
/LC2 {0 0 1} def
/LC3 {1 0 1} def
/LC4 {0 1 1} def
/LC5 {1 1 0} def
/LC6 {0 0 0} def
/LC7 {1 0.3 0} def
/LC8 {0.5 0.5 0.5} def
% Default dash patterns (version 5.0)
/LTB {BL [] LCb DL} def
/LTw {PL [] 1 setgray} def
/LTb {PL [] LCb DL} def
/LTa {AL [1 udl mul 2 udl mul] 0 setdash LCa setrgbcolor} def
/LT0 {PL [] LC0 DL} def
/LT1 {PL [2 dl1 3 dl2] LC1 DL} def
/LT2 {PL [1 dl1 1.5 dl2] LC2 DL} def
/LT3 {PL [6 dl1 2 dl2 1 dl1 2 dl2] LC3 DL} def
/LT4 {PL [1 dl1 2 dl2 6 dl1 2 dl2 1 dl1 2 dl2] LC4 DL} def
/LT5 {PL [4 dl1 2 dl2] LC5 DL} def
/LT6 {PL [1.5 dl1 1.5 dl2 1.5 dl1 1.5 dl2 1.5 dl1 6 dl2] LC6 DL} def
/LT7 {PL [3 dl1 3 dl2 1 dl1 3 dl2] LC7 DL} def
/LT8 {PL [2 dl1 2 dl2 2 dl1 6 dl2] LC8 DL} def
/SL {[] 0 setdash} def
/Pnt {stroke [] 0 setdash gsave 1 setlinecap M 0 0 V stroke grestore} def
/Dia {stroke [] 0 setdash 2 copy vpt add M
  hpt neg vpt neg V hpt vpt neg V
  hpt vpt V hpt neg vpt V closepath stroke
  Pnt} def
/Pls {stroke [] 0 setdash vpt sub M 0 vpt2 V
  currentpoint stroke M
  hpt neg vpt neg R hpt2 0 V stroke
 } def
/Box {stroke [] 0 setdash 2 copy exch hpt sub exch vpt add M
  0 vpt2 neg V hpt2 0 V 0 vpt2 V
  hpt2 neg 0 V closepath stroke
  Pnt} def
/Crs {stroke [] 0 setdash exch hpt sub exch vpt add M
  hpt2 vpt2 neg V currentpoint stroke M
  hpt2 neg 0 R hpt2 vpt2 V stroke} def
/TriU {stroke [] 0 setdash 2 copy vpt 1.12 mul add M
  hpt neg vpt -1.62 mul V
  hpt 2 mul 0 V
  hpt neg vpt 1.62 mul V closepath stroke
  Pnt} def
/Star {2 copy Pls Crs} def
/BoxF {stroke [] 0 setdash exch hpt sub exch vpt add M
  0 vpt2 neg V hpt2 0 V 0 vpt2 V
  hpt2 neg 0 V closepath fill} def
/TriUF {stroke [] 0 setdash vpt 1.12 mul add M
  hpt neg vpt -1.62 mul V
  hpt 2 mul 0 V
  hpt neg vpt 1.62 mul V closepath fill} def
/TriD {stroke [] 0 setdash 2 copy vpt 1.12 mul sub M
  hpt neg vpt 1.62 mul V
  hpt 2 mul 0 V
  hpt neg vpt -1.62 mul V closepath stroke
  Pnt} def
/TriDF {stroke [] 0 setdash vpt 1.12 mul sub M
  hpt neg vpt 1.62 mul V
  hpt 2 mul 0 V
  hpt neg vpt -1.62 mul V closepath fill} def
/DiaF {stroke [] 0 setdash vpt add M
  hpt neg vpt neg V hpt vpt neg V
  hpt vpt V hpt neg vpt V closepath fill} def
/Pent {stroke [] 0 setdash 2 copy gsave
  translate 0 hpt M 4 {72 rotate 0 hpt L} repeat
  closepath stroke grestore Pnt} def
/PentF {stroke [] 0 setdash gsave
  translate 0 hpt M 4 {72 rotate 0 hpt L} repeat
  closepath fill grestore} def
/Circle {stroke [] 0 setdash 2 copy
  hpt 0 360 arc stroke Pnt} def
/CircleF {stroke [] 0 setdash hpt 0 360 arc fill} def
/C0 {BL [] 0 setdash 2 copy moveto vpt 90 450 arc} bind def
/C1 {BL [] 0 setdash 2 copy moveto
	2 copy vpt 0 90 arc closepath fill
	vpt 0 360 arc closepath} bind def
/C2 {BL [] 0 setdash 2 copy moveto
	2 copy vpt 90 180 arc closepath fill
	vpt 0 360 arc closepath} bind def
/C3 {BL [] 0 setdash 2 copy moveto
	2 copy vpt 0 180 arc closepath fill
	vpt 0 360 arc closepath} bind def
/C4 {BL [] 0 setdash 2 copy moveto
	2 copy vpt 180 270 arc closepath fill
	vpt 0 360 arc closepath} bind def
/C5 {BL [] 0 setdash 2 copy moveto
	2 copy vpt 0 90 arc
	2 copy moveto
	2 copy vpt 180 270 arc closepath fill
	vpt 0 360 arc} bind def
/C6 {BL [] 0 setdash 2 copy moveto
	2 copy vpt 90 270 arc closepath fill
	vpt 0 360 arc closepath} bind def
/C7 {BL [] 0 setdash 2 copy moveto
	2 copy vpt 0 270 arc closepath fill
	vpt 0 360 arc closepath} bind def
/C8 {BL [] 0 setdash 2 copy moveto
	2 copy vpt 270 360 arc closepath fill
	vpt 0 360 arc closepath} bind def
/C9 {BL [] 0 setdash 2 copy moveto
	2 copy vpt 270 450 arc closepath fill
	vpt 0 360 arc closepath} bind def
/C10 {BL [] 0 setdash 2 copy 2 copy moveto vpt 270 360 arc closepath fill
	2 copy moveto
	2 copy vpt 90 180 arc closepath fill
	vpt 0 360 arc closepath} bind def
/C11 {BL [] 0 setdash 2 copy moveto
	2 copy vpt 0 180 arc closepath fill
	2 copy moveto
	2 copy vpt 270 360 arc closepath fill
	vpt 0 360 arc closepath} bind def
/C12 {BL [] 0 setdash 2 copy moveto
	2 copy vpt 180 360 arc closepath fill
	vpt 0 360 arc closepath} bind def
/C13 {BL [] 0 setdash 2 copy moveto
	2 copy vpt 0 90 arc closepath fill
	2 copy moveto
	2 copy vpt 180 360 arc closepath fill
	vpt 0 360 arc closepath} bind def
/C14 {BL [] 0 setdash 2 copy moveto
	2 copy vpt 90 360 arc closepath fill
	vpt 0 360 arc} bind def
/C15 {BL [] 0 setdash 2 copy vpt 0 360 arc closepath fill
	vpt 0 360 arc closepath} bind def
/Rec {newpath 4 2 roll moveto 1 index 0 rlineto 0 exch rlineto
	neg 0 rlineto closepath} bind def
/Square {dup Rec} bind def
/Bsquare {vpt sub exch vpt sub exch vpt2 Square} bind def
/S0 {BL [] 0 setdash 2 copy moveto 0 vpt rlineto BL Bsquare} bind def
/S1 {BL [] 0 setdash 2 copy vpt Square fill Bsquare} bind def
/S2 {BL [] 0 setdash 2 copy exch vpt sub exch vpt Square fill Bsquare} bind def
/S3 {BL [] 0 setdash 2 copy exch vpt sub exch vpt2 vpt Rec fill Bsquare} bind def
/S4 {BL [] 0 setdash 2 copy exch vpt sub exch vpt sub vpt Square fill Bsquare} bind def
/S5 {BL [] 0 setdash 2 copy 2 copy vpt Square fill
	exch vpt sub exch vpt sub vpt Square fill Bsquare} bind def
/S6 {BL [] 0 setdash 2 copy exch vpt sub exch vpt sub vpt vpt2 Rec fill Bsquare} bind def
/S7 {BL [] 0 setdash 2 copy exch vpt sub exch vpt sub vpt vpt2 Rec fill
	2 copy vpt Square fill Bsquare} bind def
/S8 {BL [] 0 setdash 2 copy vpt sub vpt Square fill Bsquare} bind def
/S9 {BL [] 0 setdash 2 copy vpt sub vpt vpt2 Rec fill Bsquare} bind def
/S10 {BL [] 0 setdash 2 copy vpt sub vpt Square fill 2 copy exch vpt sub exch vpt Square fill
	Bsquare} bind def
/S11 {BL [] 0 setdash 2 copy vpt sub vpt Square fill 2 copy exch vpt sub exch vpt2 vpt Rec fill
	Bsquare} bind def
/S12 {BL [] 0 setdash 2 copy exch vpt sub exch vpt sub vpt2 vpt Rec fill Bsquare} bind def
/S13 {BL [] 0 setdash 2 copy exch vpt sub exch vpt sub vpt2 vpt Rec fill
	2 copy vpt Square fill Bsquare} bind def
/S14 {BL [] 0 setdash 2 copy exch vpt sub exch vpt sub vpt2 vpt Rec fill
	2 copy exch vpt sub exch vpt Square fill Bsquare} bind def
/S15 {BL [] 0 setdash 2 copy Bsquare fill Bsquare} bind def
/D0 {gsave translate 45 rotate 0 0 S0 stroke grestore} bind def
/D1 {gsave translate 45 rotate 0 0 S1 stroke grestore} bind def
/D2 {gsave translate 45 rotate 0 0 S2 stroke grestore} bind def
/D3 {gsave translate 45 rotate 0 0 S3 stroke grestore} bind def
/D4 {gsave translate 45 rotate 0 0 S4 stroke grestore} bind def
/D5 {gsave translate 45 rotate 0 0 S5 stroke grestore} bind def
/D6 {gsave translate 45 rotate 0 0 S6 stroke grestore} bind def
/D7 {gsave translate 45 rotate 0 0 S7 stroke grestore} bind def
/D8 {gsave translate 45 rotate 0 0 S8 stroke grestore} bind def
/D9 {gsave translate 45 rotate 0 0 S9 stroke grestore} bind def
/D10 {gsave translate 45 rotate 0 0 S10 stroke grestore} bind def
/D11 {gsave translate 45 rotate 0 0 S11 stroke grestore} bind def
/D12 {gsave translate 45 rotate 0 0 S12 stroke grestore} bind def
/D13 {gsave translate 45 rotate 0 0 S13 stroke grestore} bind def
/D14 {gsave translate 45 rotate 0 0 S14 stroke grestore} bind def
/D15 {gsave translate 45 rotate 0 0 S15 stroke grestore} bind def
/DiaE {stroke [] 0 setdash vpt add M
  hpt neg vpt neg V hpt vpt neg V
  hpt vpt V hpt neg vpt V closepath stroke} def
/BoxE {stroke [] 0 setdash exch hpt sub exch vpt add M
  0 vpt2 neg V hpt2 0 V 0 vpt2 V
  hpt2 neg 0 V closepath stroke} def
/TriUE {stroke [] 0 setdash vpt 1.12 mul add M
  hpt neg vpt -1.62 mul V
  hpt 2 mul 0 V
  hpt neg vpt 1.62 mul V closepath stroke} def
/TriDE {stroke [] 0 setdash vpt 1.12 mul sub M
  hpt neg vpt 1.62 mul V
  hpt 2 mul 0 V
  hpt neg vpt -1.62 mul V closepath stroke} def
/PentE {stroke [] 0 setdash gsave
  translate 0 hpt M 4 {72 rotate 0 hpt L} repeat
  closepath stroke grestore} def
/CircE {stroke [] 0 setdash 
  hpt 0 360 arc stroke} def
/Opaque {gsave closepath 1 setgray fill grestore 0 setgray closepath} def
/DiaW {stroke [] 0 setdash vpt add M
  hpt neg vpt neg V hpt vpt neg V
  hpt vpt V hpt neg vpt V Opaque stroke} def
/BoxW {stroke [] 0 setdash exch hpt sub exch vpt add M
  0 vpt2 neg V hpt2 0 V 0 vpt2 V
  hpt2 neg 0 V Opaque stroke} def
/TriUW {stroke [] 0 setdash vpt 1.12 mul add M
  hpt neg vpt -1.62 mul V
  hpt 2 mul 0 V
  hpt neg vpt 1.62 mul V Opaque stroke} def
/TriDW {stroke [] 0 setdash vpt 1.12 mul sub M
  hpt neg vpt 1.62 mul V
  hpt 2 mul 0 V
  hpt neg vpt -1.62 mul V Opaque stroke} def
/PentW {stroke [] 0 setdash gsave
  translate 0 hpt M 4 {72 rotate 0 hpt L} repeat
  Opaque stroke grestore} def
/CircW {stroke [] 0 setdash 
  hpt 0 360 arc Opaque stroke} def
/BoxFill {gsave Rec 1 setgray fill grestore} def
/Density {
  /Fillden exch def
  currentrgbcolor
  /ColB exch def /ColG exch def /ColR exch def
  /ColR ColR Fillden mul Fillden sub 1 add def
  /ColG ColG Fillden mul Fillden sub 1 add def
  /ColB ColB Fillden mul Fillden sub 1 add def
  ColR ColG ColB setrgbcolor} def
/BoxColFill {gsave Rec PolyFill} def
/PolyFill {gsave Density fill grestore grestore} def
/h {rlineto rlineto rlineto gsave closepath fill grestore} bind def
%
% PostScript Level 1 Pattern Fill routine for rectangles
% Usage: x y w h s a XX PatternFill
%	x,y = lower left corner of box to be filled
%	w,h = width and height of box
%	  a = angle in degrees between lines and x-axis
%	 XX = 0/1 for no/yes cross-hatch
%
/PatternFill {gsave /PFa [ 9 2 roll ] def
  PFa 0 get PFa 2 get 2 div add PFa 1 get PFa 3 get 2 div add translate
  PFa 2 get -2 div PFa 3 get -2 div PFa 2 get PFa 3 get Rec
  TransparentPatterns {} {gsave 1 setgray fill grestore} ifelse
  clip
  currentlinewidth 0.5 mul setlinewidth
  /PFs PFa 2 get dup mul PFa 3 get dup mul add sqrt def
  0 0 M PFa 5 get rotate PFs -2 div dup translate
  0 1 PFs PFa 4 get div 1 add floor cvi
	{PFa 4 get mul 0 M 0 PFs V} for
  0 PFa 6 get ne {
	0 1 PFs PFa 4 get div 1 add floor cvi
	{PFa 4 get mul 0 2 1 roll M PFs 0 V} for
 } if
  stroke grestore} def
%
/languagelevel where
 {pop languagelevel} {1} ifelse
dup 2 lt
	{/InterpretLevel1 true def
	 /InterpretLevel3 false def}
	{/InterpretLevel1 Level1 def
	 2 gt
	    {/InterpretLevel3 Level3 def}
	    {/InterpretLevel3 false def}
	 ifelse }
 ifelse
%
% PostScript level 2 pattern fill definitions
%
/Level2PatternFill {
/Tile8x8 {/PaintType 2 /PatternType 1 /TilingType 1 /BBox [0 0 8 8] /XStep 8 /YStep 8}
	bind def
/KeepColor {currentrgbcolor [/Pattern /DeviceRGB] setcolorspace} bind def
<< Tile8x8
 /PaintProc {0.5 setlinewidth pop 0 0 M 8 8 L 0 8 M 8 0 L stroke} 
>> matrix makepattern
/Pat1 exch def
<< Tile8x8
 /PaintProc {0.5 setlinewidth pop 0 0 M 8 8 L 0 8 M 8 0 L stroke
	0 4 M 4 8 L 8 4 L 4 0 L 0 4 L stroke}
>> matrix makepattern
/Pat2 exch def
<< Tile8x8
 /PaintProc {0.5 setlinewidth pop 0 0 M 0 8 L
	8 8 L 8 0 L 0 0 L fill}
>> matrix makepattern
/Pat3 exch def
<< Tile8x8
 /PaintProc {0.5 setlinewidth pop -4 8 M 8 -4 L
	0 12 M 12 0 L stroke}
>> matrix makepattern
/Pat4 exch def
<< Tile8x8
 /PaintProc {0.5 setlinewidth pop -4 0 M 8 12 L
	0 -4 M 12 8 L stroke}
>> matrix makepattern
/Pat5 exch def
<< Tile8x8
 /PaintProc {0.5 setlinewidth pop -2 8 M 4 -4 L
	0 12 M 8 -4 L 4 12 M 10 0 L stroke}
>> matrix makepattern
/Pat6 exch def
<< Tile8x8
 /PaintProc {0.5 setlinewidth pop -2 0 M 4 12 L
	0 -4 M 8 12 L 4 -4 M 10 8 L stroke}
>> matrix makepattern
/Pat7 exch def
<< Tile8x8
 /PaintProc {0.5 setlinewidth pop 8 -2 M -4 4 L
	12 0 M -4 8 L 12 4 M 0 10 L stroke}
>> matrix makepattern
/Pat8 exch def
<< Tile8x8
 /PaintProc {0.5 setlinewidth pop 0 -2 M 12 4 L
	-4 0 M 12 8 L -4 4 M 8 10 L stroke}
>> matrix makepattern
/Pat9 exch def
/Pattern1 {PatternBgnd KeepColor Pat1 setpattern} bind def
/Pattern2 {PatternBgnd KeepColor Pat2 setpattern} bind def
/Pattern3 {PatternBgnd KeepColor Pat3 setpattern} bind def
/Pattern4 {PatternBgnd KeepColor Landscape {Pat5} {Pat4} ifelse setpattern} bind def
/Pattern5 {PatternBgnd KeepColor Landscape {Pat4} {Pat5} ifelse setpattern} bind def
/Pattern6 {PatternBgnd KeepColor Landscape {Pat9} {Pat6} ifelse setpattern} bind def
/Pattern7 {PatternBgnd KeepColor Landscape {Pat8} {Pat7} ifelse setpattern} bind def
} def
%
%
%End of PostScript Level 2 code
%
/PatternBgnd {
  TransparentPatterns {} {gsave 1 setgray fill grestore} ifelse
} def
%
% Substitute for Level 2 pattern fill codes with
% grayscale if Level 2 support is not selected.
%
/Level1PatternFill {
/Pattern1 {0.250 Density} bind def
/Pattern2 {0.500 Density} bind def
/Pattern3 {0.750 Density} bind def
/Pattern4 {0.125 Density} bind def
/Pattern5 {0.375 Density} bind def
/Pattern6 {0.625 Density} bind def
/Pattern7 {0.875 Density} bind def
} def
%
% Now test for support of Level 2 code
%
Level1 {Level1PatternFill} {Level2PatternFill} ifelse
%
/Symbol-Oblique /Symbol findfont [1 0 .167 1 0 0] makefont
dup length dict begin {1 index /FID eq {pop pop} {def} ifelse} forall
currentdict end definefont pop
%
/MFshow {
   { dup 5 get 3 ge
     { 5 get 3 eq {gsave} {grestore} ifelse }
     {dup dup 0 get findfont exch 1 get scalefont setfont
     [ currentpoint ] exch dup 2 get 0 exch R dup 5 get 2 ne {dup dup 6
     get exch 4 get {textshow} {stringwidth pop 0 R} ifelse }if dup 5 get 0 eq
     {dup 3 get {2 get neg 0 exch R pop} {pop aload pop M} ifelse} {dup 5
     get 1 eq {dup 2 get exch dup 3 get exch 6 get stringwidth pop -2 div
     dup 0 R} {dup 6 get stringwidth pop -2 div 0 R 6 get
     textshow 2 index {aload pop M neg 3 -1 roll neg R pop pop} {pop pop pop
     pop aload pop M} ifelse }ifelse }ifelse }
     ifelse }
   forall} def
/Gswidth {dup type /stringtype eq {stringwidth} {pop (n) stringwidth} ifelse} def
/MFwidth {0 exch { dup 5 get 3 ge { 5 get 3 eq { 0 } { pop } ifelse }
 {dup 3 get{dup dup 0 get findfont exch 1 get scalefont setfont
     6 get Gswidth pop add} {pop} ifelse} ifelse} forall} def
/MLshow { currentpoint stroke M
  0 exch R
  Blacktext {gsave 0 setgray MFshow grestore} {MFshow} ifelse } bind def
/MRshow { currentpoint stroke M
  exch dup MFwidth neg 3 -1 roll R
  Blacktext {gsave 0 setgray MFshow grestore} {MFshow} ifelse } bind def
/MCshow { currentpoint stroke M
  exch dup MFwidth -2 div 3 -1 roll R
  Blacktext {gsave 0 setgray MFshow grestore} {MFshow} ifelse } bind def
/XYsave    { [( ) 1 2 true false 3 ()] } bind def
/XYrestore { [( ) 1 2 true false 4 ()] } bind def
Level1 SuppressPDFMark or 
{} {
/SDict 10 dict def
systemdict /pdfmark known not {
  userdict /pdfmark systemdict /cleartomark get put
} if
SDict begin [
  /Title (packets-uv-s-log-packets-s-ccdf-linlin.eps)
  /Subject (gnuplot plot)
  /Creator (gnuplot 5.0 patchlevel 3)
  /Author (tiphaine)
%  /Producer (gnuplot)
%  /Keywords ()
  /CreationDate (Mon May 29 11:07:44 2017)
  /DOCINFO pdfmark
end
} ifelse
%
% Support for boxed text - Ethan A Merritt May 2005
%
/InitTextBox { userdict /TBy2 3 -1 roll put userdict /TBx2 3 -1 roll put
           userdict /TBy1 3 -1 roll put userdict /TBx1 3 -1 roll put
	   /Boxing true def } def
/ExtendTextBox { Boxing
    { gsave dup false charpath pathbbox
      dup TBy2 gt {userdict /TBy2 3 -1 roll put} {pop} ifelse
      dup TBx2 gt {userdict /TBx2 3 -1 roll put} {pop} ifelse
      dup TBy1 lt {userdict /TBy1 3 -1 roll put} {pop} ifelse
      dup TBx1 lt {userdict /TBx1 3 -1 roll put} {pop} ifelse
      grestore } if } def
/PopTextBox { newpath TBx1 TBxmargin sub TBy1 TBymargin sub M
               TBx1 TBxmargin sub TBy2 TBymargin add L
	       TBx2 TBxmargin add TBy2 TBymargin add L
	       TBx2 TBxmargin add TBy1 TBymargin sub L closepath } def
/DrawTextBox { PopTextBox stroke /Boxing false def} def
/FillTextBox { gsave PopTextBox 1 1 1 setrgbcolor fill grestore /Boxing false def} def
0 0 0 0 InitTextBox
/TBxmargin 20 def
/TBymargin 20 def
/Boxing false def
/textshow { ExtendTextBox Gshow } def
%
% redundant definitions for compatibility with prologue.ps older than 5.0.2
/LTB {BL [] LCb DL} def
/LTb {PL [] LCb DL} def
end
%%EndProlog
%%Page: 1 1
gnudict begin
gsave
doclip
50 50 translate
0.100 0.100 scale
90 rotate
0 -5040 translate
0 setgray
newpath
(Helvetica) findfont 140 scalefont setfont
BackgroundColor 0 lt 3 1 roll 0 lt exch 0 lt or or not {gsave BackgroundColor C clippath fill grestore} if
1.000 UL
LTb
LCb setrgbcolor
546 280 M
63 0 V
6338 0 R
-63 0 V
stroke
462 280 M
[ [(Helvetica) 140.0 0.0 true true 0 ( 0)]
] -46.7 MRshow
1.000 UL
LTb
LCb setrgbcolor
546 739 M
63 0 V
6338 0 R
-63 0 V
stroke
462 739 M
[ [(Helvetica) 140.0 0.0 true true 0 ( 0.1)]
] -46.7 MRshow
1.000 UL
LTb
LCb setrgbcolor
546 1198 M
63 0 V
6338 0 R
-63 0 V
stroke
462 1198 M
[ [(Helvetica) 140.0 0.0 true true 0 ( 0.2)]
] -46.7 MRshow
1.000 UL
LTb
LCb setrgbcolor
546 1657 M
63 0 V
6338 0 R
-63 0 V
stroke
462 1657 M
[ [(Helvetica) 140.0 0.0 true true 0 ( 0.3)]
] -46.7 MRshow
1.000 UL
LTb
LCb setrgbcolor
546 2116 M
63 0 V
6338 0 R
-63 0 V
stroke
462 2116 M
[ [(Helvetica) 140.0 0.0 true true 0 ( 0.4)]
] -46.7 MRshow
1.000 UL
LTb
LCb setrgbcolor
546 2576 M
63 0 V
6338 0 R
-63 0 V
stroke
462 2576 M
[ [(Helvetica) 140.0 0.0 true true 0 ( 0.5)]
] -46.7 MRshow
1.000 UL
LTb
LCb setrgbcolor
546 3035 M
63 0 V
6338 0 R
-63 0 V
stroke
462 3035 M
[ [(Helvetica) 140.0 0.0 true true 0 ( 0.6)]
] -46.7 MRshow
1.000 UL
LTb
LCb setrgbcolor
546 3494 M
63 0 V
6338 0 R
-63 0 V
stroke
462 3494 M
[ [(Helvetica) 140.0 0.0 true true 0 ( 0.7)]
] -46.7 MRshow
1.000 UL
LTb
LCb setrgbcolor
546 3953 M
63 0 V
6338 0 R
-63 0 V
stroke
462 3953 M
[ [(Helvetica) 140.0 0.0 true true 0 ( 0.8)]
] -46.7 MRshow
1.000 UL
LTb
LCb setrgbcolor
546 4412 M
63 0 V
6338 0 R
-63 0 V
stroke
462 4412 M
[ [(Helvetica) 140.0 0.0 true true 0 ( 0.9)]
] -46.7 MRshow
1.000 UL
LTb
LCb setrgbcolor
546 4871 M
63 0 V
6338 0 R
-63 0 V
stroke
462 4871 M
[ [(Helvetica) 140.0 0.0 true true 0 ( 1)]
] -46.7 MRshow
1.000 UL
LTb
LCb setrgbcolor
546 280 M
0 63 V
0 4528 R
0 -63 V
stroke
546 140 M
[ [(Helvetica) 140.0 0.0 true true 0 ( 0)]
] -46.7 MCshow
1.000 UL
LTb
LCb setrgbcolor
1460 280 M
0 63 V
0 4528 R
0 -63 V
stroke
1460 140 M
[ [(Helvetica) 140.0 0.0 true true 0 ( 50000)]
] -46.7 MCshow
1.000 UL
LTb
LCb setrgbcolor
2375 280 M
0 63 V
0 4528 R
0 -63 V
stroke
2375 140 M
[ [(Helvetica) 140.0 0.0 true true 0 ( 100000)]
] -46.7 MCshow
1.000 UL
LTb
LCb setrgbcolor
3289 280 M
0 63 V
0 4528 R
0 -63 V
stroke
3289 140 M
[ [(Helvetica) 140.0 0.0 true true 0 ( 150000)]
] -46.7 MCshow
1.000 UL
LTb
LCb setrgbcolor
4204 280 M
0 63 V
0 4528 R
0 -63 V
stroke
4204 140 M
[ [(Helvetica) 140.0 0.0 true true 0 ( 200000)]
] -46.7 MCshow
1.000 UL
LTb
LCb setrgbcolor
5118 280 M
0 63 V
0 4528 R
0 -63 V
stroke
5118 140 M
[ [(Helvetica) 140.0 0.0 true true 0 ( 250000)]
] -46.7 MCshow
1.000 UL
LTb
LCb setrgbcolor
6033 280 M
0 63 V
0 4528 R
0 -63 V
stroke
6033 140 M
[ [(Helvetica) 140.0 0.0 true true 0 ( 300000)]
] -46.7 MCshow
1.000 UL
LTb
LCb setrgbcolor
6947 280 M
0 63 V
0 4528 R
0 -63 V
stroke
6947 140 M
[ [(Helvetica) 140.0 0.0 true true 0 ( 350000)]
] -46.7 MCshow
1.000 UL
LTb
LCb setrgbcolor
1.000 UL
LTB
LCb setrgbcolor
546 4871 N
546 280 L
6401 0 V
0 4591 V
-6401 0 V
Z stroke
1.000 UP
1.000 UL
LTb
LCb setrgbcolor
% Begin plot #1
1.000 UP
1.000 UL
LTb
0.58 0.00 0.83 C 546 4871 Pls
749 1989 Pls
763 1988 Pls
770 1986 Pls
774 1985 Pls
775 1984 Pls
775 1982 Pls
776 1981 Pls
776 1980 Pls
776 1979 Pls
777 1977 Pls
778 1976 Pls
778 1975 Pls
780 1974 Pls
781 1972 Pls
782 1971 Pls
783 1970 Pls
785 1968 Pls
786 1967 Pls
786 1966 Pls
788 1965 Pls
789 1963 Pls
789 1962 Pls
790 1961 Pls
790 1960 Pls
790 1958 Pls
791 1957 Pls
791 1956 Pls
791 1954 Pls
791 1953 Pls
791 1952 Pls
792 1951 Pls
792 1948 Pls
792 1947 Pls
792 1946 Pls
793 1944 Pls
794 1943 Pls
794 1942 Pls
794 1940 Pls
795 1939 Pls
795 1938 Pls
796 1937 Pls
797 1935 Pls
797 1934 Pls
797 1933 Pls
797 1931 Pls
797 1930 Pls
798 1929 Pls
798 1928 Pls
798 1926 Pls
798 1925 Pls
798 1924 Pls
798 1923 Pls
799 1921 Pls
799 1920 Pls
799 1917 Pls
799 1916 Pls
799 1915 Pls
799 1914 Pls
800 1912 Pls
800 1911 Pls
800 1910 Pls
800 1909 Pls
801 1907 Pls
801 1906 Pls
801 1905 Pls
801 1903 Pls
802 1902 Pls
802 1901 Pls
802 1900 Pls
803 1898 Pls
803 1897 Pls
804 1896 Pls
804 1895 Pls
804 1893 Pls
804 1892 Pls
804 1891 Pls
804 1889 Pls
804 1888 Pls
804 1887 Pls
804 1886 Pls
804 1884 Pls
804 1883 Pls
805 1882 Pls
806 1880 Pls
806 1879 Pls
806 1878 Pls
807 1877 Pls
807 1875 Pls
807 1874 Pls
807 1873 Pls
807 1872 Pls
807 1870 Pls
808 1869 Pls
808 1868 Pls
808 1866 Pls
809 1865 Pls
809 1864 Pls
809 1863 Pls
809 1861 Pls
810 1860 Pls
810 1859 Pls
810 1858 Pls
810 1855 Pls
810 1854 Pls
810 1852 Pls
811 1851 Pls
811 1850 Pls
811 1849 Pls
811 1847 Pls
812 1846 Pls
812 1845 Pls
812 1843 Pls
813 1842 Pls
813 1841 Pls
813 1840 Pls
813 1838 Pls
813 1837 Pls
813 1836 Pls
813 1835 Pls
814 1833 Pls
814 1832 Pls
814 1831 Pls
814 1829 Pls
814 1828 Pls
814 1827 Pls
815 1824 Pls
815 1823 Pls
815 1822 Pls
815 1821 Pls
815 1819 Pls
816 1818 Pls
816 1817 Pls
816 1815 Pls
816 1814 Pls
816 1813 Pls
816 1812 Pls
816 1810 Pls
817 1809 Pls
817 1808 Pls
817 1807 Pls
817 1805 Pls
818 1804 Pls
818 1803 Pls
818 1801 Pls
818 1800 Pls
818 1799 Pls
818 1798 Pls
818 1796 Pls
818 1795 Pls
818 1792 Pls
818 1791 Pls
818 1790 Pls
819 1789 Pls
819 1787 Pls
819 1786 Pls
819 1785 Pls
819 1784 Pls
819 1782 Pls
819 1781 Pls
820 1780 Pls
820 1778 Pls
820 1777 Pls
820 1776 Pls
820 1775 Pls
820 1773 Pls
820 1772 Pls
821 1771 Pls
821 1770 Pls
821 1768 Pls
821 1767 Pls
822 1766 Pls
822 1764 Pls
822 1763 Pls
822 1761 Pls
823 1759 Pls
823 1758 Pls
823 1757 Pls
823 1755 Pls
823 1754 Pls
823 1753 Pls
824 1752 Pls
824 1750 Pls
824 1749 Pls
824 1748 Pls
824 1747 Pls
824 1745 Pls
824 1744 Pls
825 1743 Pls
825 1741 Pls
825 1740 Pls
825 1738 Pls
825 1736 Pls
825 1735 Pls
825 1734 Pls
825 1733 Pls
825 1731 Pls
825 1730 Pls
825 1729 Pls
826 1727 Pls
826 1726 Pls
827 1725 Pls
827 1724 Pls
827 1722 Pls
827 1721 Pls
827 1720 Pls
828 1719 Pls
828 1717 Pls
828 1716 Pls
828 1715 Pls
828 1713 Pls
829 1712 Pls
829 1711 Pls
829 1710 Pls
829 1708 Pls
829 1707 Pls
829 1706 Pls
829 1704 Pls
829 1703 Pls
830 1702 Pls
830 1701 Pls
830 1699 Pls
830 1698 Pls
830 1697 Pls
830 1696 Pls
830 1694 Pls
830 1692 Pls
830 1690 Pls
831 1689 Pls
831 1688 Pls
831 1687 Pls
831 1685 Pls
831 1684 Pls
831 1683 Pls
831 1682 Pls
831 1680 Pls
831 1679 Pls
831 1678 Pls
832 1676 Pls
832 1675 Pls
832 1673 Pls
832 1671 Pls
832 1670 Pls
832 1669 Pls
833 1668 Pls
833 1665 Pls
833 1664 Pls
833 1662 Pls
833 1661 Pls
834 1660 Pls
834 1659 Pls
834 1657 Pls
834 1656 Pls
834 1655 Pls
834 1653 Pls
835 1652 Pls
835 1650 Pls
835 1648 Pls
835 1647 Pls
835 1646 Pls
835 1645 Pls
835 1643 Pls
835 1642 Pls
835 1641 Pls
835 1639 Pls
835 1638 Pls
836 1637 Pls
836 1636 Pls
836 1634 Pls
836 1633 Pls
836 1631 Pls
836 1629 Pls
836 1628 Pls
837 1627 Pls
837 1625 Pls
837 1624 Pls
837 1623 Pls
838 1622 Pls
838 1620 Pls
838 1619 Pls
838 1618 Pls
838 1616 Pls
838 1615 Pls
838 1614 Pls
839 1613 Pls
839 1611 Pls
839 1610 Pls
839 1609 Pls
839 1608 Pls
839 1606 Pls
840 1605 Pls
840 1604 Pls
840 1602 Pls
840 1601 Pls
840 1600 Pls
840 1599 Pls
840 1597 Pls
841 1596 Pls
841 1595 Pls
841 1594 Pls
841 1592 Pls
841 1591 Pls
841 1590 Pls
841 1588 Pls
841 1587 Pls
842 1586 Pls
842 1585 Pls
842 1583 Pls
842 1582 Pls
842 1580 Pls
842 1578 Pls
842 1577 Pls
842 1576 Pls
843 1574 Pls
843 1573 Pls
843 1572 Pls
843 1571 Pls
843 1569 Pls
843 1568 Pls
843 1567 Pls
843 1565 Pls
844 1564 Pls
844 1563 Pls
844 1562 Pls
844 1560 Pls
844 1559 Pls
844 1558 Pls
844 1557 Pls
844 1555 Pls
844 1554 Pls
844 1553 Pls
845 1551 Pls
845 1550 Pls
845 1549 Pls
845 1548 Pls
845 1546 Pls
845 1545 Pls
845 1544 Pls
845 1543 Pls
845 1541 Pls
845 1540 Pls
846 1539 Pls
846 1537 Pls
846 1536 Pls
846 1535 Pls
846 1534 Pls
846 1532 Pls
847 1531 Pls
847 1530 Pls
847 1528 Pls
847 1527 Pls
847 1526 Pls
847 1525 Pls
847 1523 Pls
847 1522 Pls
848 1521 Pls
848 1520 Pls
848 1518 Pls
848 1517 Pls
848 1516 Pls
848 1514 Pls
848 1513 Pls
849 1512 Pls
849 1511 Pls
849 1509 Pls
849 1508 Pls
849 1507 Pls
849 1506 Pls
849 1504 Pls
849 1503 Pls
849 1500 Pls
850 1499 Pls
850 1498 Pls
850 1497 Pls
850 1495 Pls
850 1494 Pls
851 1493 Pls
851 1492 Pls
851 1490 Pls
851 1489 Pls
851 1488 Pls
851 1486 Pls
851 1485 Pls
852 1484 Pls
852 1483 Pls
852 1481 Pls
852 1480 Pls
852 1477 Pls
853 1476 Pls
853 1475 Pls
853 1474 Pls
853 1472 Pls
853 1471 Pls
854 1470 Pls
854 1469 Pls
854 1467 Pls
854 1466 Pls
854 1465 Pls
854 1463 Pls
854 1462 Pls
854 1461 Pls
854 1460 Pls
855 1458 Pls
855 1457 Pls
855 1456 Pls
855 1455 Pls
856 1453 Pls
856 1452 Pls
856 1451 Pls
856 1449 Pls
856 1448 Pls
856 1447 Pls
856 1446 Pls
857 1444 Pls
857 1442 Pls
858 1441 Pls
858 1439 Pls
858 1438 Pls
858 1437 Pls
858 1435 Pls
858 1434 Pls
858 1432 Pls
858 1430 Pls
858 1428 Pls
858 1426 Pls
858 1425 Pls
859 1424 Pls
859 1423 Pls
859 1421 Pls
859 1420 Pls
859 1419 Pls
859 1418 Pls
859 1416 Pls
860 1415 Pls
860 1414 Pls
860 1412 Pls
860 1411 Pls
861 1410 Pls
861 1409 Pls
861 1407 Pls
862 1406 Pls
862 1405 Pls
863 1404 Pls
863 1402 Pls
863 1401 Pls
864 1400 Pls
864 1398 Pls
864 1397 Pls
864 1396 Pls
864 1395 Pls
864 1393 Pls
864 1392 Pls
864 1391 Pls
864 1389 Pls
865 1388 Pls
865 1387 Pls
865 1386 Pls
865 1384 Pls
866 1383 Pls
866 1382 Pls
866 1381 Pls
866 1379 Pls
867 1378 Pls
867 1377 Pls
867 1375 Pls
868 1374 Pls
868 1373 Pls
868 1372 Pls
868 1370 Pls
869 1369 Pls
869 1368 Pls
869 1367 Pls
869 1365 Pls
869 1364 Pls
870 1363 Pls
870 1361 Pls
870 1360 Pls
870 1359 Pls
870 1358 Pls
870 1356 Pls
870 1355 Pls
870 1353 Pls
870 1351 Pls
871 1350 Pls
871 1349 Pls
871 1347 Pls
871 1346 Pls
871 1345 Pls
871 1341 Pls
871 1340 Pls
871 1338 Pls
871 1337 Pls
871 1335 Pls
872 1333 Pls
872 1331 Pls
872 1330 Pls
872 1328 Pls
872 1327 Pls
873 1326 Pls
873 1324 Pls
873 1323 Pls
873 1322 Pls
873 1321 Pls
874 1319 Pls
874 1318 Pls
874 1317 Pls
874 1316 Pls
875 1314 Pls
875 1313 Pls
875 1312 Pls
875 1310 Pls
875 1309 Pls
875 1308 Pls
875 1307 Pls
876 1305 Pls
876 1304 Pls
876 1303 Pls
876 1301 Pls
876 1300 Pls
876 1299 Pls
876 1298 Pls
877 1296 Pls
877 1295 Pls
877 1294 Pls
877 1293 Pls
877 1291 Pls
877 1290 Pls
877 1287 Pls
878 1286 Pls
878 1285 Pls
878 1284 Pls
879 1282 Pls
879 1281 Pls
879 1280 Pls
879 1279 Pls
879 1277 Pls
879 1276 Pls
880 1275 Pls
881 1272 Pls
881 1271 Pls
881 1270 Pls
881 1268 Pls
882 1267 Pls
882 1266 Pls
883 1265 Pls
883 1263 Pls
884 1262 Pls
884 1261 Pls
885 1259 Pls
885 1258 Pls
885 1257 Pls
885 1256 Pls
885 1254 Pls
886 1253 Pls
886 1252 Pls
886 1250 Pls
886 1249 Pls
886 1248 Pls
886 1247 Pls
886 1245 Pls
886 1244 Pls
886 1243 Pls
886 1242 Pls
887 1240 Pls
887 1239 Pls
888 1238 Pls
889 1236 Pls
890 1235 Pls
890 1234 Pls
890 1233 Pls
890 1231 Pls
891 1230 Pls
892 1229 Pls
892 1228 Pls
893 1226 Pls
893 1225 Pls
894 1224 Pls
894 1222 Pls
894 1221 Pls
894 1220 Pls
894 1219 Pls
894 1217 Pls
895 1216 Pls
895 1215 Pls
897 1214 Pls
897 1212 Pls
898 1211 Pls
898 1210 Pls
899 1208 Pls
899 1207 Pls
900 1206 Pls
900 1205 Pls
900 1203 Pls
901 1202 Pls
902 1201 Pls
902 1199 Pls
903 1198 Pls
903 1197 Pls
904 1196 Pls
904 1194 Pls
905 1193 Pls
906 1192 Pls
907 1191 Pls
907 1189 Pls
907 1188 Pls
907 1187 Pls
908 1185 Pls
909 1184 Pls
910 1183 Pls
910 1182 Pls
911 1180 Pls
913 1179 Pls
913 1178 Pls
913 1177 Pls
914 1175 Pls
914 1174 Pls
916 1173 Pls
916 1171 Pls
917 1170 Pls
917 1169 Pls
919 1168 Pls
919 1166 Pls
919 1165 Pls
919 1164 Pls
920 1162 Pls
920 1161 Pls
920 1160 Pls
920 1159 Pls
921 1157 Pls
922 1156 Pls
922 1155 Pls
923 1154 Pls
923 1152 Pls
923 1151 Pls
924 1150 Pls
925 1148 Pls
926 1147 Pls
927 1146 Pls
927 1145 Pls
927 1143 Pls
927 1142 Pls
930 1141 Pls
931 1140 Pls
931 1138 Pls
931 1137 Pls
931 1136 Pls
943 1134 Pls
944 1133 Pls
944 1132 Pls
945 1131 Pls
946 1129 Pls
947 1127 Pls
947 1126 Pls
949 1124 Pls
949 1123 Pls
950 1122 Pls
950 1120 Pls
950 1119 Pls
951 1118 Pls
952 1117 Pls
952 1115 Pls
952 1114 Pls
953 1113 Pls
953 1111 Pls
953 1110 Pls
954 1109 Pls
955 1108 Pls
955 1106 Pls
956 1105 Pls
958 1104 Pls
958 1103 Pls
959 1101 Pls
959 1100 Pls
961 1099 Pls
961 1097 Pls
961 1096 Pls
963 1095 Pls
964 1094 Pls
964 1092 Pls
964 1091 Pls
964 1090 Pls
965 1089 Pls
965 1087 Pls
965 1086 Pls
966 1085 Pls
966 1083 Pls
966 1082 Pls
967 1081 Pls
967 1080 Pls
967 1078 Pls
969 1077 Pls
969 1076 Pls
969 1075 Pls
969 1073 Pls
970 1072 Pls
970 1071 Pls
971 1069 Pls
971 1068 Pls
972 1067 Pls
972 1066 Pls
973 1064 Pls
974 1063 Pls
975 1062 Pls
975 1060 Pls
975 1059 Pls
977 1058 Pls
977 1057 Pls
979 1055 Pls
979 1054 Pls
979 1053 Pls
980 1052 Pls
980 1050 Pls
981 1049 Pls
981 1048 Pls
983 1046 Pls
984 1045 Pls
985 1044 Pls
985 1043 Pls
986 1041 Pls
986 1040 Pls
986 1038 Pls
986 1036 Pls
987 1035 Pls
989 1034 Pls
989 1032 Pls
991 1031 Pls
991 1030 Pls
994 1029 Pls
994 1027 Pls
994 1026 Pls
995 1025 Pls
995 1023 Pls
996 1022 Pls
996 1021 Pls
996 1020 Pls
997 1018 Pls
998 1017 Pls
998 1016 Pls
999 1015 Pls
999 1013 Pls
1000 1012 Pls
1001 1011 Pls
1001 1009 Pls
1002 1008 Pls
1002 1007 Pls
1002 1006 Pls
1003 1004 Pls
1003 1003 Pls
1004 1002 Pls
1004 1001 Pls
1005 999 Pls
1005 998 Pls
1005 997 Pls
1005 995 Pls
1006 994 Pls
1006 993 Pls
1006 992 Pls
1007 990 Pls
1009 989 Pls
1010 988 Pls
1010 987 Pls
1010 985 Pls
1010 984 Pls
1010 983 Pls
1011 981 Pls
1012 980 Pls
1013 979 Pls
1013 978 Pls
1013 976 Pls
1014 975 Pls
1014 974 Pls
1015 972 Pls
1016 971 Pls
1016 970 Pls
1016 969 Pls
1017 967 Pls
1017 966 Pls
1018 965 Pls
1018 964 Pls
1019 962 Pls
1020 961 Pls
1020 960 Pls
1021 958 Pls
1021 957 Pls
1022 956 Pls
1023 955 Pls
1024 953 Pls
1024 952 Pls
1026 951 Pls
1026 950 Pls
1027 948 Pls
1027 947 Pls
1028 946 Pls
1029 944 Pls
1029 943 Pls
1029 942 Pls
1030 941 Pls
1030 939 Pls
1030 938 Pls
1031 937 Pls
1031 935 Pls
1031 934 Pls
1031 933 Pls
1032 932 Pls
1032 930 Pls
1032 929 Pls
1033 928 Pls
1033 927 Pls
1033 925 Pls
1033 924 Pls
1034 923 Pls
1036 921 Pls
1037 920 Pls
1037 919 Pls
1039 918 Pls
1040 916 Pls
1040 915 Pls
1041 914 Pls
1042 913 Pls
1042 911 Pls
1043 910 Pls
1044 909 Pls
1044 906 Pls
1044 905 Pls
1045 904 Pls
1046 902 Pls
1046 901 Pls
1046 900 Pls
1046 899 Pls
1047 897 Pls
1047 896 Pls
1047 895 Pls
1048 893 Pls
1048 892 Pls
1048 891 Pls
1049 890 Pls
1049 888 Pls
1049 887 Pls
1049 886 Pls
1050 884 Pls
1051 883 Pls
1051 882 Pls
1052 881 Pls
1052 879 Pls
1053 878 Pls
1053 877 Pls
1054 876 Pls
1054 874 Pls
1054 873 Pls
1055 872 Pls
1055 870 Pls
1057 869 Pls
1057 868 Pls
1058 867 Pls
1058 865 Pls
1058 864 Pls
1059 863 Pls
1059 862 Pls
1059 860 Pls
1059 859 Pls
1060 858 Pls
1060 856 Pls
1061 855 Pls
1062 854 Pls
1062 853 Pls
1062 851 Pls
1062 850 Pls
1063 849 Pls
1063 847 Pls
1067 846 Pls
1067 845 Pls
1068 844 Pls
1068 842 Pls
1068 841 Pls
1068 840 Pls
1070 839 Pls
1071 837 Pls
1071 836 Pls
1071 835 Pls
1072 833 Pls
1072 832 Pls
1073 831 Pls
1073 830 Pls
1073 828 Pls
1074 827 Pls
1074 826 Pls
1075 825 Pls
1076 823 Pls
1076 822 Pls
1076 821 Pls
1076 819 Pls
1077 818 Pls
1078 817 Pls
1078 816 Pls
1080 814 Pls
1080 813 Pls
1082 812 Pls
1083 811 Pls
1083 809 Pls
1085 808 Pls
1085 807 Pls
1085 805 Pls
1085 804 Pls
1086 803 Pls
1088 802 Pls
1088 800 Pls
1088 798 Pls
1089 796 Pls
1090 795 Pls
1090 794 Pls
1095 793 Pls
1095 791 Pls
1096 790 Pls
1098 789 Pls
1100 788 Pls
1100 786 Pls
1101 785 Pls
1102 784 Pls
1102 782 Pls
1105 781 Pls
1105 780 Pls
1105 779 Pls
1107 777 Pls
1108 776 Pls
1109 775 Pls
1109 774 Pls
1110 772 Pls
1110 771 Pls
1110 770 Pls
1110 768 Pls
1111 767 Pls
1111 766 Pls
1112 765 Pls
1113 763 Pls
1113 762 Pls
1114 761 Pls
1114 760 Pls
1115 758 Pls
1116 757 Pls
1117 756 Pls
1120 754 Pls
1121 753 Pls
1122 752 Pls
1123 751 Pls
1125 749 Pls
1126 748 Pls
1130 747 Pls
1134 745 Pls
1135 744 Pls
1135 743 Pls
1135 742 Pls
1136 740 Pls
1137 739 Pls
1137 738 Pls
1138 737 Pls
1140 735 Pls
1144 734 Pls
1145 733 Pls
1147 731 Pls
1151 730 Pls
1152 729 Pls
1154 728 Pls
1154 726 Pls
1155 725 Pls
1155 724 Pls
1158 723 Pls
1158 721 Pls
1160 720 Pls
1160 719 Pls
1162 717 Pls
1162 716 Pls
1164 715 Pls
1164 714 Pls
1165 712 Pls
1165 711 Pls
1165 710 Pls
1165 708 Pls
1165 707 Pls
1166 706 Pls
1170 705 Pls
1170 703 Pls
1172 702 Pls
1173 701 Pls
1175 700 Pls
1179 698 Pls
1179 697 Pls
1180 696 Pls
1180 694 Pls
1182 693 Pls
1183 692 Pls
1184 691 Pls
1185 689 Pls
1186 688 Pls
1187 687 Pls
1188 686 Pls
1188 684 Pls
1188 683 Pls
1189 682 Pls
1192 680 Pls
1194 679 Pls
1195 678 Pls
1195 677 Pls
1199 675 Pls
1200 674 Pls
1201 673 Pls
1206 672 Pls
1206 670 Pls
1209 669 Pls
1211 668 Pls
1213 666 Pls
1213 665 Pls
1214 664 Pls
1215 663 Pls
1216 661 Pls
1216 660 Pls
1220 659 Pls
1220 657 Pls
1224 656 Pls
1224 655 Pls
1225 654 Pls
1226 652 Pls
1227 651 Pls
1228 650 Pls
1231 649 Pls
1232 647 Pls
1232 646 Pls
1232 645 Pls
1235 643 Pls
1236 642 Pls
1237 641 Pls
1242 640 Pls
1242 638 Pls
1246 637 Pls
1250 636 Pls
1253 635 Pls
1255 633 Pls
1255 632 Pls
1257 631 Pls
1258 629 Pls
1260 628 Pls
1266 627 Pls
1272 626 Pls
1274 624 Pls
1276 623 Pls
1277 622 Pls
1278 620 Pls
1280 619 Pls
1282 618 Pls
1286 617 Pls
1288 615 Pls
1289 614 Pls
1290 613 Pls
1290 612 Pls
1293 610 Pls
1294 609 Pls
1295 608 Pls
1295 606 Pls
1296 605 Pls
1298 604 Pls
1299 603 Pls
1303 601 Pls
1304 600 Pls
1305 599 Pls
1308 598 Pls
1310 596 Pls
1312 595 Pls
1313 594 Pls
1315 592 Pls
1316 591 Pls
1317 590 Pls
1318 589 Pls
1319 587 Pls
1320 586 Pls
1321 585 Pls
1321 584 Pls
1322 582 Pls
1322 581 Pls
1323 580 Pls
1326 578 Pls
1328 577 Pls
1329 576 Pls
1330 575 Pls
1331 573 Pls
1336 572 Pls
1336 571 Pls
1338 569 Pls
1338 568 Pls
1339 566 Pls
1341 564 Pls
1343 563 Pls
1345 562 Pls
1347 561 Pls
1348 559 Pls
1348 558 Pls
1355 557 Pls
1357 555 Pls
1360 554 Pls
1361 553 Pls
1364 552 Pls
1366 550 Pls
1367 549 Pls
1369 548 Pls
1370 547 Pls
1370 545 Pls
1372 544 Pls
1373 543 Pls
1376 541 Pls
1378 540 Pls
1379 539 Pls
1379 538 Pls
1379 536 Pls
1380 535 Pls
1380 534 Pls
1382 533 Pls
1387 531 Pls
1388 530 Pls
1392 529 Pls
1392 527 Pls
1392 526 Pls
1394 525 Pls
1394 524 Pls
1395 522 Pls
1396 521 Pls
1399 520 Pls
1399 518 Pls
1402 517 Pls
1403 516 Pls
1403 515 Pls
1405 513 Pls
1407 512 Pls
1407 511 Pls
1410 510 Pls
1412 508 Pls
1415 507 Pls
1416 506 Pls
1418 504 Pls
1419 503 Pls
1423 502 Pls
1424 501 Pls
1425 499 Pls
1432 498 Pls
1435 497 Pls
1436 496 Pls
1437 494 Pls
1442 493 Pls
1442 492 Pls
1446 490 Pls
1446 489 Pls
1447 488 Pls
1448 487 Pls
1448 485 Pls
1449 484 Pls
1449 483 Pls
1450 481 Pls
1451 480 Pls
1455 479 Pls
1458 478 Pls
1459 476 Pls
1462 475 Pls
1465 474 Pls
1466 473 Pls
1475 471 Pls
1475 470 Pls
1478 469 Pls
1479 467 Pls
1480 466 Pls
1481 465 Pls
1483 464 Pls
1485 462 Pls
1486 461 Pls
1487 460 Pls
1488 459 Pls
1488 457 Pls
1492 456 Pls
1496 455 Pls
1500 453 Pls
1501 452 Pls
1504 451 Pls
1505 450 Pls
1506 448 Pls
1508 447 Pls
1511 446 Pls
1511 445 Pls
1513 443 Pls
1515 442 Pls
1516 441 Pls
1517 439 Pls
1524 438 Pls
1530 437 Pls
1532 436 Pls
1533 434 Pls
1534 433 Pls
1534 432 Pls
1535 430 Pls
1539 429 Pls
1540 428 Pls
1542 427 Pls
1546 425 Pls
1552 424 Pls
1554 423 Pls
1554 422 Pls
1555 420 Pls
1555 419 Pls
1556 418 Pls
1560 416 Pls
1562 415 Pls
1564 414 Pls
1568 413 Pls
1572 411 Pls
1576 410 Pls
1576 409 Pls
1577 408 Pls
1582 406 Pls
1584 405 Pls
1585 404 Pls
1596 402 Pls
1597 401 Pls
1599 400 Pls
1604 399 Pls
1604 397 Pls
1604 396 Pls
1608 395 Pls
1614 393 Pls
1617 392 Pls
1617 391 Pls
1619 390 Pls
1627 388 Pls
1634 387 Pls
1638 386 Pls
1640 385 Pls
1645 383 Pls
1647 382 Pls
1652 381 Pls
1658 379 Pls
1660 378 Pls
1663 377 Pls
1665 376 Pls
1670 374 Pls
1678 373 Pls
1681 372 Pls
1682 371 Pls
1689 369 Pls
1692 368 Pls
1699 367 Pls
1700 365 Pls
1701 364 Pls
1703 363 Pls
1704 362 Pls
1705 360 Pls
1708 359 Pls
1723 358 Pls
1729 357 Pls
1732 355 Pls
1732 354 Pls
1733 353 Pls
1738 351 Pls
1738 350 Pls
1750 349 Pls
1751 348 Pls
1761 346 Pls
1763 345 Pls
1770 344 Pls
1771 342 Pls
1792 341 Pls
1803 340 Pls
1803 339 Pls
1839 337 Pls
1853 336 Pls
1859 335 Pls
1898 334 Pls
1916 332 Pls
1917 331 Pls
1974 330 Pls
1975 328 Pls
2013 327 Pls
2042 326 Pls
2044 325 Pls
2056 323 Pls
2058 322 Pls
2065 321 Pls
2089 320 Pls
2094 318 Pls
2095 317 Pls
2095 316 Pls
2128 314 Pls
2189 313 Pls
2190 312 Pls
2240 311 Pls
2246 309 Pls
2301 308 Pls
2303 307 Pls
2316 306 Pls
2349 304 Pls
2363 303 Pls
2409 302 Pls
2480 300 Pls
2515 299 Pls
2545 298 Pls
2576 297 Pls
2615 295 Pls
2651 294 Pls
2656 293 Pls
2848 291 Pls
2854 290 Pls
2864 289 Pls
3848 288 Pls
3934 286 Pls
4146 285 Pls
5189 284 Pls
5343 283 Pls
6323 281 Pls
% End plot #1
2.000 UL
LTb
LCb setrgbcolor
1.000 UL
LTB
LCb setrgbcolor
546 4871 N
546 280 L
6401 0 V
0 4591 V
-6401 0 V
Z stroke
1.000 UP
1.000 UL
LTb
LCb setrgbcolor
stroke
grestore
end
showpage
%%Trailer
%%DocumentFonts: Helvetica
%%Pages: 1
