%!PS-Adobe-2.0
%%Title: packets-uv-s-log-packets-s-dist-loglog.eps
%%Creator: gnuplot 5.0 patchlevel 3
%%CreationDate: Mon May 29 11:07:44 2017
%%DocumentFonts: (atend)
%%BoundingBox: 50 50 554 770
%%Orientation: Landscape
%%Pages: (atend)
%%EndComments
%%BeginProlog
/gnudict 256 dict def
gnudict begin
%
% The following true/false flags may be edited by hand if desired.
% The unit line width and grayscale image gamma correction may also be changed.
%
/Color true def
/Blacktext false def
/Solid false def
/Dashlength 1 def
/Landscape true def
/Level1 false def
/Level3 false def
/Rounded false def
/ClipToBoundingBox false def
/SuppressPDFMark false def
/TransparentPatterns false def
/gnulinewidth 5.000 def
/userlinewidth gnulinewidth def
/Gamma 1.0 def
/BackgroundColor {-1.000 -1.000 -1.000} def
%
/vshift -46 def
/dl1 {
  10.0 Dashlength userlinewidth gnulinewidth div mul mul mul
  Rounded { currentlinewidth 0.75 mul sub dup 0 le { pop 0.01 } if } if
} def
/dl2 {
  10.0 Dashlength userlinewidth gnulinewidth div mul mul mul
  Rounded { currentlinewidth 0.75 mul add } if
} def
/hpt_ 31.5 def
/vpt_ 31.5 def
/hpt hpt_ def
/vpt vpt_ def
/doclip {
  ClipToBoundingBox {
    newpath 50 50 moveto 554 50 lineto 554 770 lineto 50 770 lineto closepath
    clip
  } if
} def
%
% Gnuplot Prolog Version 5.1 (Oct 2015)
%
%/SuppressPDFMark true def
%
/M {moveto} bind def
/L {lineto} bind def
/R {rmoveto} bind def
/V {rlineto} bind def
/N {newpath moveto} bind def
/Z {closepath} bind def
/C {setrgbcolor} bind def
/f {rlineto fill} bind def
/g {setgray} bind def
/Gshow {show} def   % May be redefined later in the file to support UTF-8
/vpt2 vpt 2 mul def
/hpt2 hpt 2 mul def
/Lshow {currentpoint stroke M 0 vshift R 
	Blacktext {gsave 0 setgray textshow grestore} {textshow} ifelse} def
/Rshow {currentpoint stroke M dup stringwidth pop neg vshift R
	Blacktext {gsave 0 setgray textshow grestore} {textshow} ifelse} def
/Cshow {currentpoint stroke M dup stringwidth pop -2 div vshift R 
	Blacktext {gsave 0 setgray textshow grestore} {textshow} ifelse} def
/UP {dup vpt_ mul /vpt exch def hpt_ mul /hpt exch def
  /hpt2 hpt 2 mul def /vpt2 vpt 2 mul def} def
/DL {Color {setrgbcolor Solid {pop []} if 0 setdash}
 {pop pop pop 0 setgray Solid {pop []} if 0 setdash} ifelse} def
/BL {stroke userlinewidth 2 mul setlinewidth
	Rounded {1 setlinejoin 1 setlinecap} if} def
/AL {stroke userlinewidth 2 div setlinewidth
	Rounded {1 setlinejoin 1 setlinecap} if} def
/UL {dup gnulinewidth mul /userlinewidth exch def
	dup 1 lt {pop 1} if 10 mul /udl exch def} def
/PL {stroke userlinewidth setlinewidth
	Rounded {1 setlinejoin 1 setlinecap} if} def
3.8 setmiterlimit
% Classic Line colors (version 5.0)
/LCw {1 1 1} def
/LCb {0 0 0} def
/LCa {0 0 0} def
/LC0 {1 0 0} def
/LC1 {0 1 0} def
/LC2 {0 0 1} def
/LC3 {1 0 1} def
/LC4 {0 1 1} def
/LC5 {1 1 0} def
/LC6 {0 0 0} def
/LC7 {1 0.3 0} def
/LC8 {0.5 0.5 0.5} def
% Default dash patterns (version 5.0)
/LTB {BL [] LCb DL} def
/LTw {PL [] 1 setgray} def
/LTb {PL [] LCb DL} def
/LTa {AL [1 udl mul 2 udl mul] 0 setdash LCa setrgbcolor} def
/LT0 {PL [] LC0 DL} def
/LT1 {PL [2 dl1 3 dl2] LC1 DL} def
/LT2 {PL [1 dl1 1.5 dl2] LC2 DL} def
/LT3 {PL [6 dl1 2 dl2 1 dl1 2 dl2] LC3 DL} def
/LT4 {PL [1 dl1 2 dl2 6 dl1 2 dl2 1 dl1 2 dl2] LC4 DL} def
/LT5 {PL [4 dl1 2 dl2] LC5 DL} def
/LT6 {PL [1.5 dl1 1.5 dl2 1.5 dl1 1.5 dl2 1.5 dl1 6 dl2] LC6 DL} def
/LT7 {PL [3 dl1 3 dl2 1 dl1 3 dl2] LC7 DL} def
/LT8 {PL [2 dl1 2 dl2 2 dl1 6 dl2] LC8 DL} def
/SL {[] 0 setdash} def
/Pnt {stroke [] 0 setdash gsave 1 setlinecap M 0 0 V stroke grestore} def
/Dia {stroke [] 0 setdash 2 copy vpt add M
  hpt neg vpt neg V hpt vpt neg V
  hpt vpt V hpt neg vpt V closepath stroke
  Pnt} def
/Pls {stroke [] 0 setdash vpt sub M 0 vpt2 V
  currentpoint stroke M
  hpt neg vpt neg R hpt2 0 V stroke
 } def
/Box {stroke [] 0 setdash 2 copy exch hpt sub exch vpt add M
  0 vpt2 neg V hpt2 0 V 0 vpt2 V
  hpt2 neg 0 V closepath stroke
  Pnt} def
/Crs {stroke [] 0 setdash exch hpt sub exch vpt add M
  hpt2 vpt2 neg V currentpoint stroke M
  hpt2 neg 0 R hpt2 vpt2 V stroke} def
/TriU {stroke [] 0 setdash 2 copy vpt 1.12 mul add M
  hpt neg vpt -1.62 mul V
  hpt 2 mul 0 V
  hpt neg vpt 1.62 mul V closepath stroke
  Pnt} def
/Star {2 copy Pls Crs} def
/BoxF {stroke [] 0 setdash exch hpt sub exch vpt add M
  0 vpt2 neg V hpt2 0 V 0 vpt2 V
  hpt2 neg 0 V closepath fill} def
/TriUF {stroke [] 0 setdash vpt 1.12 mul add M
  hpt neg vpt -1.62 mul V
  hpt 2 mul 0 V
  hpt neg vpt 1.62 mul V closepath fill} def
/TriD {stroke [] 0 setdash 2 copy vpt 1.12 mul sub M
  hpt neg vpt 1.62 mul V
  hpt 2 mul 0 V
  hpt neg vpt -1.62 mul V closepath stroke
  Pnt} def
/TriDF {stroke [] 0 setdash vpt 1.12 mul sub M
  hpt neg vpt 1.62 mul V
  hpt 2 mul 0 V
  hpt neg vpt -1.62 mul V closepath fill} def
/DiaF {stroke [] 0 setdash vpt add M
  hpt neg vpt neg V hpt vpt neg V
  hpt vpt V hpt neg vpt V closepath fill} def
/Pent {stroke [] 0 setdash 2 copy gsave
  translate 0 hpt M 4 {72 rotate 0 hpt L} repeat
  closepath stroke grestore Pnt} def
/PentF {stroke [] 0 setdash gsave
  translate 0 hpt M 4 {72 rotate 0 hpt L} repeat
  closepath fill grestore} def
/Circle {stroke [] 0 setdash 2 copy
  hpt 0 360 arc stroke Pnt} def
/CircleF {stroke [] 0 setdash hpt 0 360 arc fill} def
/C0 {BL [] 0 setdash 2 copy moveto vpt 90 450 arc} bind def
/C1 {BL [] 0 setdash 2 copy moveto
	2 copy vpt 0 90 arc closepath fill
	vpt 0 360 arc closepath} bind def
/C2 {BL [] 0 setdash 2 copy moveto
	2 copy vpt 90 180 arc closepath fill
	vpt 0 360 arc closepath} bind def
/C3 {BL [] 0 setdash 2 copy moveto
	2 copy vpt 0 180 arc closepath fill
	vpt 0 360 arc closepath} bind def
/C4 {BL [] 0 setdash 2 copy moveto
	2 copy vpt 180 270 arc closepath fill
	vpt 0 360 arc closepath} bind def
/C5 {BL [] 0 setdash 2 copy moveto
	2 copy vpt 0 90 arc
	2 copy moveto
	2 copy vpt 180 270 arc closepath fill
	vpt 0 360 arc} bind def
/C6 {BL [] 0 setdash 2 copy moveto
	2 copy vpt 90 270 arc closepath fill
	vpt 0 360 arc closepath} bind def
/C7 {BL [] 0 setdash 2 copy moveto
	2 copy vpt 0 270 arc closepath fill
	vpt 0 360 arc closepath} bind def
/C8 {BL [] 0 setdash 2 copy moveto
	2 copy vpt 270 360 arc closepath fill
	vpt 0 360 arc closepath} bind def
/C9 {BL [] 0 setdash 2 copy moveto
	2 copy vpt 270 450 arc closepath fill
	vpt 0 360 arc closepath} bind def
/C10 {BL [] 0 setdash 2 copy 2 copy moveto vpt 270 360 arc closepath fill
	2 copy moveto
	2 copy vpt 90 180 arc closepath fill
	vpt 0 360 arc closepath} bind def
/C11 {BL [] 0 setdash 2 copy moveto
	2 copy vpt 0 180 arc closepath fill
	2 copy moveto
	2 copy vpt 270 360 arc closepath fill
	vpt 0 360 arc closepath} bind def
/C12 {BL [] 0 setdash 2 copy moveto
	2 copy vpt 180 360 arc closepath fill
	vpt 0 360 arc closepath} bind def
/C13 {BL [] 0 setdash 2 copy moveto
	2 copy vpt 0 90 arc closepath fill
	2 copy moveto
	2 copy vpt 180 360 arc closepath fill
	vpt 0 360 arc closepath} bind def
/C14 {BL [] 0 setdash 2 copy moveto
	2 copy vpt 90 360 arc closepath fill
	vpt 0 360 arc} bind def
/C15 {BL [] 0 setdash 2 copy vpt 0 360 arc closepath fill
	vpt 0 360 arc closepath} bind def
/Rec {newpath 4 2 roll moveto 1 index 0 rlineto 0 exch rlineto
	neg 0 rlineto closepath} bind def
/Square {dup Rec} bind def
/Bsquare {vpt sub exch vpt sub exch vpt2 Square} bind def
/S0 {BL [] 0 setdash 2 copy moveto 0 vpt rlineto BL Bsquare} bind def
/S1 {BL [] 0 setdash 2 copy vpt Square fill Bsquare} bind def
/S2 {BL [] 0 setdash 2 copy exch vpt sub exch vpt Square fill Bsquare} bind def
/S3 {BL [] 0 setdash 2 copy exch vpt sub exch vpt2 vpt Rec fill Bsquare} bind def
/S4 {BL [] 0 setdash 2 copy exch vpt sub exch vpt sub vpt Square fill Bsquare} bind def
/S5 {BL [] 0 setdash 2 copy 2 copy vpt Square fill
	exch vpt sub exch vpt sub vpt Square fill Bsquare} bind def
/S6 {BL [] 0 setdash 2 copy exch vpt sub exch vpt sub vpt vpt2 Rec fill Bsquare} bind def
/S7 {BL [] 0 setdash 2 copy exch vpt sub exch vpt sub vpt vpt2 Rec fill
	2 copy vpt Square fill Bsquare} bind def
/S8 {BL [] 0 setdash 2 copy vpt sub vpt Square fill Bsquare} bind def
/S9 {BL [] 0 setdash 2 copy vpt sub vpt vpt2 Rec fill Bsquare} bind def
/S10 {BL [] 0 setdash 2 copy vpt sub vpt Square fill 2 copy exch vpt sub exch vpt Square fill
	Bsquare} bind def
/S11 {BL [] 0 setdash 2 copy vpt sub vpt Square fill 2 copy exch vpt sub exch vpt2 vpt Rec fill
	Bsquare} bind def
/S12 {BL [] 0 setdash 2 copy exch vpt sub exch vpt sub vpt2 vpt Rec fill Bsquare} bind def
/S13 {BL [] 0 setdash 2 copy exch vpt sub exch vpt sub vpt2 vpt Rec fill
	2 copy vpt Square fill Bsquare} bind def
/S14 {BL [] 0 setdash 2 copy exch vpt sub exch vpt sub vpt2 vpt Rec fill
	2 copy exch vpt sub exch vpt Square fill Bsquare} bind def
/S15 {BL [] 0 setdash 2 copy Bsquare fill Bsquare} bind def
/D0 {gsave translate 45 rotate 0 0 S0 stroke grestore} bind def
/D1 {gsave translate 45 rotate 0 0 S1 stroke grestore} bind def
/D2 {gsave translate 45 rotate 0 0 S2 stroke grestore} bind def
/D3 {gsave translate 45 rotate 0 0 S3 stroke grestore} bind def
/D4 {gsave translate 45 rotate 0 0 S4 stroke grestore} bind def
/D5 {gsave translate 45 rotate 0 0 S5 stroke grestore} bind def
/D6 {gsave translate 45 rotate 0 0 S6 stroke grestore} bind def
/D7 {gsave translate 45 rotate 0 0 S7 stroke grestore} bind def
/D8 {gsave translate 45 rotate 0 0 S8 stroke grestore} bind def
/D9 {gsave translate 45 rotate 0 0 S9 stroke grestore} bind def
/D10 {gsave translate 45 rotate 0 0 S10 stroke grestore} bind def
/D11 {gsave translate 45 rotate 0 0 S11 stroke grestore} bind def
/D12 {gsave translate 45 rotate 0 0 S12 stroke grestore} bind def
/D13 {gsave translate 45 rotate 0 0 S13 stroke grestore} bind def
/D14 {gsave translate 45 rotate 0 0 S14 stroke grestore} bind def
/D15 {gsave translate 45 rotate 0 0 S15 stroke grestore} bind def
/DiaE {stroke [] 0 setdash vpt add M
  hpt neg vpt neg V hpt vpt neg V
  hpt vpt V hpt neg vpt V closepath stroke} def
/BoxE {stroke [] 0 setdash exch hpt sub exch vpt add M
  0 vpt2 neg V hpt2 0 V 0 vpt2 V
  hpt2 neg 0 V closepath stroke} def
/TriUE {stroke [] 0 setdash vpt 1.12 mul add M
  hpt neg vpt -1.62 mul V
  hpt 2 mul 0 V
  hpt neg vpt 1.62 mul V closepath stroke} def
/TriDE {stroke [] 0 setdash vpt 1.12 mul sub M
  hpt neg vpt 1.62 mul V
  hpt 2 mul 0 V
  hpt neg vpt -1.62 mul V closepath stroke} def
/PentE {stroke [] 0 setdash gsave
  translate 0 hpt M 4 {72 rotate 0 hpt L} repeat
  closepath stroke grestore} def
/CircE {stroke [] 0 setdash 
  hpt 0 360 arc stroke} def
/Opaque {gsave closepath 1 setgray fill grestore 0 setgray closepath} def
/DiaW {stroke [] 0 setdash vpt add M
  hpt neg vpt neg V hpt vpt neg V
  hpt vpt V hpt neg vpt V Opaque stroke} def
/BoxW {stroke [] 0 setdash exch hpt sub exch vpt add M
  0 vpt2 neg V hpt2 0 V 0 vpt2 V
  hpt2 neg 0 V Opaque stroke} def
/TriUW {stroke [] 0 setdash vpt 1.12 mul add M
  hpt neg vpt -1.62 mul V
  hpt 2 mul 0 V
  hpt neg vpt 1.62 mul V Opaque stroke} def
/TriDW {stroke [] 0 setdash vpt 1.12 mul sub M
  hpt neg vpt 1.62 mul V
  hpt 2 mul 0 V
  hpt neg vpt -1.62 mul V Opaque stroke} def
/PentW {stroke [] 0 setdash gsave
  translate 0 hpt M 4 {72 rotate 0 hpt L} repeat
  Opaque stroke grestore} def
/CircW {stroke [] 0 setdash 
  hpt 0 360 arc Opaque stroke} def
/BoxFill {gsave Rec 1 setgray fill grestore} def
/Density {
  /Fillden exch def
  currentrgbcolor
  /ColB exch def /ColG exch def /ColR exch def
  /ColR ColR Fillden mul Fillden sub 1 add def
  /ColG ColG Fillden mul Fillden sub 1 add def
  /ColB ColB Fillden mul Fillden sub 1 add def
  ColR ColG ColB setrgbcolor} def
/BoxColFill {gsave Rec PolyFill} def
/PolyFill {gsave Density fill grestore grestore} def
/h {rlineto rlineto rlineto gsave closepath fill grestore} bind def
%
% PostScript Level 1 Pattern Fill routine for rectangles
% Usage: x y w h s a XX PatternFill
%	x,y = lower left corner of box to be filled
%	w,h = width and height of box
%	  a = angle in degrees between lines and x-axis
%	 XX = 0/1 for no/yes cross-hatch
%
/PatternFill {gsave /PFa [ 9 2 roll ] def
  PFa 0 get PFa 2 get 2 div add PFa 1 get PFa 3 get 2 div add translate
  PFa 2 get -2 div PFa 3 get -2 div PFa 2 get PFa 3 get Rec
  TransparentPatterns {} {gsave 1 setgray fill grestore} ifelse
  clip
  currentlinewidth 0.5 mul setlinewidth
  /PFs PFa 2 get dup mul PFa 3 get dup mul add sqrt def
  0 0 M PFa 5 get rotate PFs -2 div dup translate
  0 1 PFs PFa 4 get div 1 add floor cvi
	{PFa 4 get mul 0 M 0 PFs V} for
  0 PFa 6 get ne {
	0 1 PFs PFa 4 get div 1 add floor cvi
	{PFa 4 get mul 0 2 1 roll M PFs 0 V} for
 } if
  stroke grestore} def
%
/languagelevel where
 {pop languagelevel} {1} ifelse
dup 2 lt
	{/InterpretLevel1 true def
	 /InterpretLevel3 false def}
	{/InterpretLevel1 Level1 def
	 2 gt
	    {/InterpretLevel3 Level3 def}
	    {/InterpretLevel3 false def}
	 ifelse }
 ifelse
%
% PostScript level 2 pattern fill definitions
%
/Level2PatternFill {
/Tile8x8 {/PaintType 2 /PatternType 1 /TilingType 1 /BBox [0 0 8 8] /XStep 8 /YStep 8}
	bind def
/KeepColor {currentrgbcolor [/Pattern /DeviceRGB] setcolorspace} bind def
<< Tile8x8
 /PaintProc {0.5 setlinewidth pop 0 0 M 8 8 L 0 8 M 8 0 L stroke} 
>> matrix makepattern
/Pat1 exch def
<< Tile8x8
 /PaintProc {0.5 setlinewidth pop 0 0 M 8 8 L 0 8 M 8 0 L stroke
	0 4 M 4 8 L 8 4 L 4 0 L 0 4 L stroke}
>> matrix makepattern
/Pat2 exch def
<< Tile8x8
 /PaintProc {0.5 setlinewidth pop 0 0 M 0 8 L
	8 8 L 8 0 L 0 0 L fill}
>> matrix makepattern
/Pat3 exch def
<< Tile8x8
 /PaintProc {0.5 setlinewidth pop -4 8 M 8 -4 L
	0 12 M 12 0 L stroke}
>> matrix makepattern
/Pat4 exch def
<< Tile8x8
 /PaintProc {0.5 setlinewidth pop -4 0 M 8 12 L
	0 -4 M 12 8 L stroke}
>> matrix makepattern
/Pat5 exch def
<< Tile8x8
 /PaintProc {0.5 setlinewidth pop -2 8 M 4 -4 L
	0 12 M 8 -4 L 4 12 M 10 0 L stroke}
>> matrix makepattern
/Pat6 exch def
<< Tile8x8
 /PaintProc {0.5 setlinewidth pop -2 0 M 4 12 L
	0 -4 M 8 12 L 4 -4 M 10 8 L stroke}
>> matrix makepattern
/Pat7 exch def
<< Tile8x8
 /PaintProc {0.5 setlinewidth pop 8 -2 M -4 4 L
	12 0 M -4 8 L 12 4 M 0 10 L stroke}
>> matrix makepattern
/Pat8 exch def
<< Tile8x8
 /PaintProc {0.5 setlinewidth pop 0 -2 M 12 4 L
	-4 0 M 12 8 L -4 4 M 8 10 L stroke}
>> matrix makepattern
/Pat9 exch def
/Pattern1 {PatternBgnd KeepColor Pat1 setpattern} bind def
/Pattern2 {PatternBgnd KeepColor Pat2 setpattern} bind def
/Pattern3 {PatternBgnd KeepColor Pat3 setpattern} bind def
/Pattern4 {PatternBgnd KeepColor Landscape {Pat5} {Pat4} ifelse setpattern} bind def
/Pattern5 {PatternBgnd KeepColor Landscape {Pat4} {Pat5} ifelse setpattern} bind def
/Pattern6 {PatternBgnd KeepColor Landscape {Pat9} {Pat6} ifelse setpattern} bind def
/Pattern7 {PatternBgnd KeepColor Landscape {Pat8} {Pat7} ifelse setpattern} bind def
} def
%
%
%End of PostScript Level 2 code
%
/PatternBgnd {
  TransparentPatterns {} {gsave 1 setgray fill grestore} ifelse
} def
%
% Substitute for Level 2 pattern fill codes with
% grayscale if Level 2 support is not selected.
%
/Level1PatternFill {
/Pattern1 {0.250 Density} bind def
/Pattern2 {0.500 Density} bind def
/Pattern3 {0.750 Density} bind def
/Pattern4 {0.125 Density} bind def
/Pattern5 {0.375 Density} bind def
/Pattern6 {0.625 Density} bind def
/Pattern7 {0.875 Density} bind def
} def
%
% Now test for support of Level 2 code
%
Level1 {Level1PatternFill} {Level2PatternFill} ifelse
%
/Symbol-Oblique /Symbol findfont [1 0 .167 1 0 0] makefont
dup length dict begin {1 index /FID eq {pop pop} {def} ifelse} forall
currentdict end definefont pop
%
/MFshow {
   { dup 5 get 3 ge
     { 5 get 3 eq {gsave} {grestore} ifelse }
     {dup dup 0 get findfont exch 1 get scalefont setfont
     [ currentpoint ] exch dup 2 get 0 exch R dup 5 get 2 ne {dup dup 6
     get exch 4 get {textshow} {stringwidth pop 0 R} ifelse }if dup 5 get 0 eq
     {dup 3 get {2 get neg 0 exch R pop} {pop aload pop M} ifelse} {dup 5
     get 1 eq {dup 2 get exch dup 3 get exch 6 get stringwidth pop -2 div
     dup 0 R} {dup 6 get stringwidth pop -2 div 0 R 6 get
     textshow 2 index {aload pop M neg 3 -1 roll neg R pop pop} {pop pop pop
     pop aload pop M} ifelse }ifelse }ifelse }
     ifelse }
   forall} def
/Gswidth {dup type /stringtype eq {stringwidth} {pop (n) stringwidth} ifelse} def
/MFwidth {0 exch { dup 5 get 3 ge { 5 get 3 eq { 0 } { pop } ifelse }
 {dup 3 get{dup dup 0 get findfont exch 1 get scalefont setfont
     6 get Gswidth pop add} {pop} ifelse} ifelse} forall} def
/MLshow { currentpoint stroke M
  0 exch R
  Blacktext {gsave 0 setgray MFshow grestore} {MFshow} ifelse } bind def
/MRshow { currentpoint stroke M
  exch dup MFwidth neg 3 -1 roll R
  Blacktext {gsave 0 setgray MFshow grestore} {MFshow} ifelse } bind def
/MCshow { currentpoint stroke M
  exch dup MFwidth -2 div 3 -1 roll R
  Blacktext {gsave 0 setgray MFshow grestore} {MFshow} ifelse } bind def
/XYsave    { [( ) 1 2 true false 3 ()] } bind def
/XYrestore { [( ) 1 2 true false 4 ()] } bind def
Level1 SuppressPDFMark or 
{} {
/SDict 10 dict def
systemdict /pdfmark known not {
  userdict /pdfmark systemdict /cleartomark get put
} if
SDict begin [
  /Title (packets-uv-s-log-packets-s-dist-loglog.eps)
  /Subject (gnuplot plot)
  /Creator (gnuplot 5.0 patchlevel 3)
  /Author (tiphaine)
%  /Producer (gnuplot)
%  /Keywords ()
  /CreationDate (Mon May 29 11:07:44 2017)
  /DOCINFO pdfmark
end
} ifelse
%
% Support for boxed text - Ethan A Merritt May 2005
%
/InitTextBox { userdict /TBy2 3 -1 roll put userdict /TBx2 3 -1 roll put
           userdict /TBy1 3 -1 roll put userdict /TBx1 3 -1 roll put
	   /Boxing true def } def
/ExtendTextBox { Boxing
    { gsave dup false charpath pathbbox
      dup TBy2 gt {userdict /TBy2 3 -1 roll put} {pop} ifelse
      dup TBx2 gt {userdict /TBx2 3 -1 roll put} {pop} ifelse
      dup TBy1 lt {userdict /TBy1 3 -1 roll put} {pop} ifelse
      dup TBx1 lt {userdict /TBx1 3 -1 roll put} {pop} ifelse
      grestore } if } def
/PopTextBox { newpath TBx1 TBxmargin sub TBy1 TBymargin sub M
               TBx1 TBxmargin sub TBy2 TBymargin add L
	       TBx2 TBxmargin add TBy2 TBymargin add L
	       TBx2 TBxmargin add TBy1 TBymargin sub L closepath } def
/DrawTextBox { PopTextBox stroke /Boxing false def} def
/FillTextBox { gsave PopTextBox 1 1 1 setrgbcolor fill grestore /Boxing false def} def
0 0 0 0 InitTextBox
/TBxmargin 20 def
/TBymargin 20 def
/Boxing false def
/textshow { ExtendTextBox Gshow } def
%
% redundant definitions for compatibility with prologue.ps older than 5.0.2
/LTB {BL [] LCb DL} def
/LTb {PL [] LCb DL} def
end
%%EndProlog
%%Page: 1 1
gnudict begin
gsave
doclip
50 50 translate
0.100 0.100 scale
90 rotate
0 -5040 translate
0 setgray
newpath
(Helvetica) findfont 140 scalefont setfont
BackgroundColor 0 lt 3 1 roll 0 lt exch 0 lt or or not {gsave BackgroundColor C clippath fill grestore} if
1.000 UL
LTb
LCb setrgbcolor
462 280 M
63 0 V
6422 0 R
-63 0 V
stroke
378 280 M
[ [(Helvetica) 140.0 0.0 true true 0 ( 1)]
] -46.7 MRshow
1.000 UL
LTb
LCb setrgbcolor
462 1662 M
31 0 V
6454 0 R
-31 0 V
462 2470 M
31 0 V
6454 0 R
-31 0 V
462 3044 M
31 0 V
6454 0 R
-31 0 V
462 3489 M
31 0 V
6454 0 R
-31 0 V
462 3852 M
31 0 V
6454 0 R
-31 0 V
462 4160 M
31 0 V
6454 0 R
-31 0 V
462 4426 M
31 0 V
6454 0 R
-31 0 V
462 4661 M
31 0 V
6454 0 R
-31 0 V
462 4871 M
63 0 V
6422 0 R
-63 0 V
stroke
378 4871 M
[ [(Helvetica) 140.0 0.0 true true 0 ( 10)]
] -46.7 MRshow
1.000 UL
LTb
LCb setrgbcolor
462 280 M
0 63 V
0 4528 R
0 -63 V
stroke
462 140 M
[ [(Helvetica) 140.0 0.0 true true 0 ( 10000)]
] -46.7 MCshow
1.000 UL
LTb
LCb setrgbcolor
1438 280 M
0 31 V
0 4560 R
0 -31 V
2009 280 M
0 31 V
0 4560 R
0 -31 V
2414 280 M
0 31 V
0 4560 R
0 -31 V
2728 280 M
0 31 V
0 4560 R
0 -31 V
2985 280 M
0 31 V
0 4560 R
0 -31 V
3202 280 M
0 31 V
0 4560 R
0 -31 V
3390 280 M
0 31 V
0 4560 R
0 -31 V
3556 280 M
0 31 V
0 4560 R
0 -31 V
3705 280 M
0 63 V
0 4528 R
0 -63 V
stroke
3705 140 M
[ [(Helvetica) 140.0 0.0 true true 0 ( 100000)]
] -46.7 MCshow
1.000 UL
LTb
LCb setrgbcolor
4681 280 M
0 31 V
0 4560 R
0 -31 V
5252 280 M
0 31 V
0 4560 R
0 -31 V
5657 280 M
0 31 V
0 4560 R
0 -31 V
5971 280 M
0 31 V
0 4560 R
0 -31 V
6228 280 M
0 31 V
0 4560 R
0 -31 V
6445 280 M
0 31 V
0 4560 R
0 -31 V
6633 280 M
0 31 V
0 4560 R
0 -31 V
6799 280 M
0 31 V
0 4560 R
0 -31 V
6947 280 M
0 63 V
0 4528 R
0 -63 V
stroke
6947 140 M
[ [(Helvetica) 140.0 0.0 true true 0 ( 1x10)]
[(Helvetica) 112.0 70.0 true true 0 (6)]
] -60.7 MCshow
1.000 UL
LTb
LCb setrgbcolor
1.000 UL
LTB
LCb setrgbcolor
462 4871 N
462 280 L
6485 0 V
0 4591 V
-6485 0 V
Z stroke
1.000 UP
1.000 UL
LTb
LCb setrgbcolor
% Begin plot #1
1.000 UP
1.000 UL
LTb
0.58 0.00 0.83 C 610 280 Pls
702 280 Pls
750 280 Pls
770 280 Pls
778 280 Pls
781 280 Pls
782 280 Pls
784 280 Pls
786 280 Pls
792 280 Pls
795 280 Pls
799 280 Pls
808 280 Pls
814 280 Pls
822 280 Pls
824 280 Pls
839 280 Pls
842 280 Pls
848 280 Pls
859 280 Pls
861 280 Pls
862 280 Pls
869 280 Pls
870 280 Pls
871 280 Pls
871 280 Pls
872 280 Pls
872 280 Pls
873 280 Pls
877 280 Pls
878 1662 Pls
879 280 Pls
880 280 Pls
880 280 Pls
885 280 Pls
888 280 Pls
890 280 Pls
893 280 Pls
896 280 Pls
896 280 Pls
902 280 Pls
905 280 Pls
906 280 Pls
909 280 Pls
909 280 Pls
909 280 Pls
911 280 Pls
912 280 Pls
913 280 Pls
913 280 Pls
916 280 Pls
916 280 Pls
917 280 Pls
918 1662 Pls
919 280 Pls
919 280 Pls
921 280 Pls
921 280 Pls
923 280 Pls
924 280 Pls
925 280 Pls
927 280 Pls
927 280 Pls
928 280 Pls
931 280 Pls
931 280 Pls
934 280 Pls
936 280 Pls
937 280 Pls
939 280 Pls
940 280 Pls
944 280 Pls
945 280 Pls
945 280 Pls
946 280 Pls
946 280 Pls
947 280 Pls
947 280 Pls
948 280 Pls
948 280 Pls
949 280 Pls
949 280 Pls
951 280 Pls
955 280 Pls
958 280 Pls
959 280 Pls
960 280 Pls
962 280 Pls
962 280 Pls
963 280 Pls
964 280 Pls
964 280 Pls
966 280 Pls
967 280 Pls
969 280 Pls
971 280 Pls
973 280 Pls
974 280 Pls
975 280 Pls
976 280 Pls
977 280 Pls
978 1662 Pls
979 280 Pls
980 280 Pls
980 280 Pls
982 280 Pls
983 280 Pls
985 280 Pls
987 280 Pls
987 280 Pls
990 280 Pls
992 280 Pls
993 280 Pls
993 280 Pls
995 280 Pls
996 280 Pls
997 280 Pls
997 280 Pls
997 280 Pls
998 280 Pls
999 280 Pls
999 280 Pls
1000 280 Pls
1000 280 Pls
1001 1662 Pls
1004 280 Pls
1005 280 Pls
1006 280 Pls
1006 280 Pls
1007 280 Pls
1008 280 Pls
1009 280 Pls
1009 280 Pls
1011 280 Pls
1012 280 Pls
1012 280 Pls
1013 280 Pls
1016 280 Pls
1017 280 Pls
1017 280 Pls
1018 280 Pls
1019 280 Pls
1020 280 Pls
1020 280 Pls
1020 280 Pls
1021 280 Pls
1021 280 Pls
1022 280 Pls
1022 1662 Pls
1022 280 Pls
1023 280 Pls
1023 280 Pls
1024 280 Pls
1024 280 Pls
1025 280 Pls
1025 280 Pls
1027 280 Pls
1028 280 Pls
1029 280 Pls
1029 280 Pls
1029 280 Pls
1031 280 Pls
1031 280 Pls
1032 280 Pls
1032 280 Pls
1033 280 Pls
1035 280 Pls
1037 280 Pls
1037 280 Pls
1038 280 Pls
1042 280 Pls
1043 280 Pls
1044 1662 Pls
1044 280 Pls
1045 280 Pls
1046 280 Pls
1047 280 Pls
1048 280 Pls
1048 280 Pls
1049 280 Pls
1050 280 Pls
1050 280 Pls
1051 280 Pls
1051 280 Pls
1052 280 Pls
1054 280 Pls
1054 280 Pls
1055 280 Pls
1055 280 Pls
1055 1662 Pls
1056 280 Pls
1056 280 Pls
1057 280 Pls
1057 280 Pls
1058 280 Pls
1058 280 Pls
1059 280 Pls
1059 280 Pls
1063 280 Pls
1063 280 Pls
1065 280 Pls
1066 280 Pls
1066 280 Pls
1068 280 Pls
1068 280 Pls
1069 280 Pls
1071 280 Pls
1073 280 Pls
1074 280 Pls
1074 280 Pls
1074 280 Pls
1075 280 Pls
1075 280 Pls
1077 280 Pls
1077 280 Pls
1078 280 Pls
1078 280 Pls
1079 280 Pls
1080 280 Pls
1081 280 Pls
1081 280 Pls
1082 280 Pls
1082 280 Pls
1082 280 Pls
1083 1662 Pls
1083 280 Pls
1083 280 Pls
1084 280 Pls
1085 280 Pls
1086 280 Pls
1087 280 Pls
1087 280 Pls
1087 280 Pls
1088 280 Pls
1088 280 Pls
1089 280 Pls
1089 280 Pls
1090 280 Pls
1091 1662 Pls
1091 280 Pls
1092 280 Pls
1093 280 Pls
1094 280 Pls
1095 1662 Pls
1096 280 Pls
1096 280 Pls
1097 280 Pls
1098 280 Pls
1100 280 Pls
1100 280 Pls
1100 280 Pls
1100 280 Pls
1101 280 Pls
1102 280 Pls
1104 1662 Pls
1105 280 Pls
1105 280 Pls
1106 280 Pls
1106 280 Pls
1106 280 Pls
1107 280 Pls
1108 280 Pls
1108 280 Pls
1108 280 Pls
1108 280 Pls
1110 280 Pls
1111 280 Pls
1111 280 Pls
1111 1662 Pls
1113 280 Pls
1113 280 Pls
1114 280 Pls
1114 280 Pls
1116 280 Pls
1116 280 Pls
1117 280 Pls
1118 280 Pls
1119 280 Pls
1120 280 Pls
1121 280 Pls
1121 280 Pls
1121 280 Pls
1122 280 Pls
1124 280 Pls
1125 280 Pls
1127 280 Pls
1127 280 Pls
1127 280 Pls
1128 280 Pls
1128 280 Pls
1128 280 Pls
1130 280 Pls
1130 280 Pls
1131 280 Pls
1131 280 Pls
1132 280 Pls
1133 280 Pls
1133 280 Pls
1134 280 Pls
1134 280 Pls
1134 280 Pls
1135 280 Pls
1137 280 Pls
1137 280 Pls
1139 280 Pls
1139 280 Pls
1139 280 Pls
1140 1662 Pls
1140 280 Pls
1140 280 Pls
1142 280 Pls
1142 280 Pls
1143 280 Pls
1143 280 Pls
1144 280 Pls
1144 280 Pls
1145 280 Pls
1146 280 Pls
1146 280 Pls
1146 280 Pls
1147 280 Pls
1147 280 Pls
1148 280 Pls
1148 280 Pls
1148 280 Pls
1149 280 Pls
1150 280 Pls
1151 280 Pls
1151 280 Pls
1152 280 Pls
1152 280 Pls
1153 280 Pls
1153 280 Pls
1154 280 Pls
1155 280 Pls
1155 280 Pls
1156 280 Pls
1156 280 Pls
1156 280 Pls
1156 280 Pls
1157 280 Pls
1157 280 Pls
1158 280 Pls
1158 280 Pls
1160 280 Pls
1161 280 Pls
1162 280 Pls
1163 280 Pls
1163 280 Pls
1163 280 Pls
1163 280 Pls
1164 280 Pls
1165 280 Pls
1165 280 Pls
1166 280 Pls
1167 280 Pls
1167 280 Pls
1168 280 Pls
1168 280 Pls
1169 280 Pls
1170 280 Pls
1171 280 Pls
1171 280 Pls
1173 280 Pls
1173 280 Pls
1173 280 Pls
1174 280 Pls
1174 280 Pls
1175 1662 Pls
1175 280 Pls
1176 280 Pls
1177 280 Pls
1177 280 Pls
1179 280 Pls
1179 280 Pls
1180 280 Pls
1181 280 Pls
1181 280 Pls
1183 280 Pls
1183 280 Pls
1183 280 Pls
1185 280 Pls
1186 280 Pls
1187 280 Pls
1188 280 Pls
1188 1662 Pls
1189 280 Pls
1189 280 Pls
1190 280 Pls
1191 280 Pls
1192 280 Pls
1193 280 Pls
1194 280 Pls
1194 280 Pls
1195 280 Pls
1195 280 Pls
1196 280 Pls
1196 280 Pls
1197 280 Pls
1198 280 Pls
1198 280 Pls
1199 280 Pls
1200 280 Pls
1200 280 Pls
1203 280 Pls
1203 280 Pls
1205 280 Pls
1206 280 Pls
1206 280 Pls
1206 280 Pls
1207 280 Pls
1207 280 Pls
1208 1662 Pls
1209 280 Pls
1212 280 Pls
1212 280 Pls
1212 280 Pls
1213 280 Pls
1213 280 Pls
1214 1662 Pls
1214 280 Pls
1215 1662 Pls
1215 280 Pls
1216 280 Pls
1216 280 Pls
1217 280 Pls
1218 280 Pls
1218 280 Pls
1219 280 Pls
1219 280 Pls
1220 280 Pls
1221 280 Pls
1222 280 Pls
1223 280 Pls
1225 280 Pls
1225 280 Pls
1226 280 Pls
1228 280 Pls
1229 280 Pls
1232 280 Pls
1234 280 Pls
1235 280 Pls
1237 280 Pls
1239 280 Pls
1239 280 Pls
1240 280 Pls
1240 280 Pls
1240 280 Pls
1240 280 Pls
1240 280 Pls
1241 280 Pls
1241 280 Pls
1243 280 Pls
1244 280 Pls
1245 280 Pls
1245 280 Pls
1247 280 Pls
1250 280 Pls
1250 280 Pls
1251 280 Pls
1251 280 Pls
1253 280 Pls
1253 280 Pls
1253 280 Pls
1257 280 Pls
1258 280 Pls
1259 280 Pls
1259 280 Pls
1263 280 Pls
1263 280 Pls
1263 280 Pls
1264 280 Pls
1264 280 Pls
1265 280 Pls
1265 280 Pls
1266 280 Pls
1266 280 Pls
1267 280 Pls
1267 280 Pls
1267 1662 Pls
1268 280 Pls
1269 280 Pls
1270 280 Pls
1270 280 Pls
1270 280 Pls
1270 280 Pls
1270 2470 Pls
1271 280 Pls
1272 280 Pls
1272 280 Pls
1273 1662 Pls
1273 280 Pls
1274 1662 Pls
1275 280 Pls
1276 280 Pls
1277 280 Pls
1278 280 Pls
1280 280 Pls
1281 280 Pls
1281 280 Pls
1281 280 Pls
1282 280 Pls
1284 280 Pls
1285 280 Pls
1286 280 Pls
1287 280 Pls
1287 280 Pls
1287 280 Pls
1288 280 Pls
1288 280 Pls
1288 280 Pls
1288 280 Pls
1290 280 Pls
1292 280 Pls
1292 280 Pls
1292 280 Pls
1293 280 Pls
1293 280 Pls
1293 280 Pls
1295 280 Pls
1296 280 Pls
1296 280 Pls
1296 280 Pls
1297 280 Pls
1297 280 Pls
1298 1662 Pls
1299 280 Pls
1300 280 Pls
1303 280 Pls
1303 280 Pls
1305 280 Pls
1306 280 Pls
1306 280 Pls
1307 280 Pls
1307 280 Pls
1308 280 Pls
1309 1662 Pls
1313 280 Pls
1314 280 Pls
1314 280 Pls
1315 280 Pls
1317 280 Pls
1320 280 Pls
1321 280 Pls
1323 280 Pls
1326 280 Pls
1326 280 Pls
1329 280 Pls
1331 280 Pls
1331 280 Pls
1331 280 Pls
1332 280 Pls
1333 280 Pls
1333 280 Pls
1335 280 Pls
1335 280 Pls
1336 280 Pls
1336 280 Pls
1336 280 Pls
1337 280 Pls
1337 280 Pls
1337 280 Pls
1338 280 Pls
1340 280 Pls
1345 280 Pls
1349 280 Pls
1350 280 Pls
1353 280 Pls
1353 280 Pls
1354 280 Pls
1354 280 Pls
1358 280 Pls
1361 280 Pls
1363 280 Pls
1363 280 Pls
1367 280 Pls
1367 280 Pls
1368 280 Pls
1368 280 Pls
1368 280 Pls
1369 280 Pls
1372 280 Pls
1372 280 Pls
1381 280 Pls
1381 280 Pls
1382 280 Pls
1384 280 Pls
1387 280 Pls
1390 280 Pls
1390 280 Pls
1393 280 Pls
1393 280 Pls
1396 280 Pls
1401 280 Pls
1401 280 Pls
1403 280 Pls
1404 280 Pls
1408 280 Pls
1410 280 Pls
1410 280 Pls
1414 280 Pls
1419 280 Pls
1420 280 Pls
1421 280 Pls
1422 280 Pls
1423 280 Pls
1427 280 Pls
1430 280 Pls
1430 280 Pls
1436 280 Pls
1443 280 Pls
1444 280 Pls
1444 280 Pls
1447 280 Pls
1448 280 Pls
1454 280 Pls
1454 280 Pls
1457 280 Pls
1459 280 Pls
1464 280 Pls
1467 280 Pls
1467 280 Pls
1467 280 Pls
1468 280 Pls
1469 280 Pls
1470 280 Pls
1470 280 Pls
1472 280 Pls
1475 280 Pls
1479 280 Pls
1479 280 Pls
1481 280 Pls
1482 280 Pls
1485 280 Pls
1489 280 Pls
1490 280 Pls
1494 280 Pls
1494 280 Pls
1495 280 Pls
1497 280 Pls
1506 280 Pls
1510 280 Pls
1511 280 Pls
1512 280 Pls
1512 280 Pls
1553 280 Pls
1557 280 Pls
1557 280 Pls
1560 280 Pls
1563 1662 Pls
1566 280 Pls
1567 280 Pls
1575 280 Pls
1576 280 Pls
1577 280 Pls
1578 280 Pls
1579 280 Pls
1580 280 Pls
1585 280 Pls
1586 280 Pls
1587 280 Pls
1587 280 Pls
1588 280 Pls
1589 280 Pls
1590 280 Pls
1595 280 Pls
1596 280 Pls
1597 280 Pls
1606 280 Pls
1607 280 Pls
1609 280 Pls
1610 280 Pls
1614 280 Pls
1616 280 Pls
1617 280 Pls
1622 280 Pls
1625 280 Pls
1626 280 Pls
1627 280 Pls
1627 280 Pls
1628 280 Pls
1630 280 Pls
1631 280 Pls
1632 280 Pls
1632 280 Pls
1632 280 Pls
1635 280 Pls
1637 280 Pls
1638 280 Pls
1642 280 Pls
1642 280 Pls
1642 280 Pls
1642 280 Pls
1646 280 Pls
1647 280 Pls
1649 280 Pls
1649 280 Pls
1652 280 Pls
1654 280 Pls
1655 280 Pls
1658 280 Pls
1662 280 Pls
1662 280 Pls
1663 280 Pls
1670 280 Pls
1670 280 Pls
1674 280 Pls
1674 280 Pls
1675 280 Pls
1678 280 Pls
1679 280 Pls
1681 280 Pls
1683 280 Pls
1688 280 Pls
1690 280 Pls
1695 280 Pls
1696 280 Pls
1697 280 Pls
1699 1662 Pls
1699 280 Pls
1700 280 Pls
1703 280 Pls
1707 280 Pls
1708 280 Pls
1714 280 Pls
1714 280 Pls
1723 280 Pls
1723 280 Pls
1725 280 Pls
1727 280 Pls
1728 280 Pls
1730 280 Pls
1730 280 Pls
1731 280 Pls
1732 280 Pls
1735 280 Pls
1735 280 Pls
1738 280 Pls
1738 280 Pls
1743 280 Pls
1744 280 Pls
1745 280 Pls
1747 280 Pls
1747 280 Pls
1750 280 Pls
1752 280 Pls
1752 280 Pls
1753 280 Pls
1754 280 Pls
1757 280 Pls
1758 280 Pls
1758 280 Pls
1759 280 Pls
1760 280 Pls
1760 280 Pls
1761 280 Pls
1763 280 Pls
1769 280 Pls
1773 280 Pls
1773 280 Pls
1773 280 Pls
1774 280 Pls
1775 280 Pls
1775 280 Pls
1779 280 Pls
1781 280 Pls
1782 280 Pls
1783 280 Pls
1785 280 Pls
1786 280 Pls
1789 280 Pls
1790 280 Pls
1791 280 Pls
1791 280 Pls
1793 280 Pls
1794 280 Pls
1797 280 Pls
1798 280 Pls
1801 280 Pls
1803 280 Pls
1803 280 Pls
1806 280 Pls
1807 280 Pls
1810 280 Pls
1812 280 Pls
1814 280 Pls
1816 280 Pls
1821 280 Pls
1822 280 Pls
1823 280 Pls
1823 280 Pls
1827 280 Pls
1829 280 Pls
1830 280 Pls
1831 280 Pls
1831 280 Pls
1832 280 Pls
1832 280 Pls
1834 280 Pls
1834 280 Pls
1835 280 Pls
1837 280 Pls
1837 280 Pls
1840 280 Pls
1840 280 Pls
1842 280 Pls
1842 280 Pls
1842 280 Pls
1843 280 Pls
1843 280 Pls
1849 280 Pls
1852 280 Pls
1853 280 Pls
1858 280 Pls
1861 280 Pls
1862 280 Pls
1865 280 Pls
1866 280 Pls
1868 280 Pls
1871 280 Pls
1872 1662 Pls
1873 280 Pls
1874 280 Pls
1875 280 Pls
1877 280 Pls
1877 280 Pls
1878 280 Pls
1879 280 Pls
1880 280 Pls
1881 280 Pls
1881 280 Pls
1883 280 Pls
1885 280 Pls
1885 280 Pls
1886 280 Pls
1887 280 Pls
1887 280 Pls
1888 280 Pls
1889 280 Pls
1893 280 Pls
1893 280 Pls
1894 280 Pls
1896 280 Pls
1897 280 Pls
1899 280 Pls
1900 280 Pls
1900 280 Pls
1902 280 Pls
1902 280 Pls
1903 280 Pls
1908 280 Pls
1909 280 Pls
1911 280 Pls
1911 280 Pls
1913 280 Pls
1914 280 Pls
1914 280 Pls
1915 280 Pls
1916 280 Pls
1917 280 Pls
1918 280 Pls
1921 280 Pls
1922 280 Pls
1922 280 Pls
1923 280 Pls
1923 280 Pls
1924 280 Pls
1926 280 Pls
1936 280 Pls
1937 280 Pls
1938 280 Pls
1939 280 Pls
1939 280 Pls
1940 280 Pls
1943 280 Pls
1947 280 Pls
1947 280 Pls
1948 280 Pls
1949 280 Pls
1950 280 Pls
1951 280 Pls
1952 280 Pls
1954 280 Pls
1954 280 Pls
1956 280 Pls
1956 280 Pls
1960 280 Pls
1960 280 Pls
1960 280 Pls
1961 280 Pls
1963 280 Pls
1966 280 Pls
1967 280 Pls
1970 280 Pls
1972 280 Pls
1976 280 Pls
1978 280 Pls
1979 280 Pls
1983 280 Pls
1984 280 Pls
1985 280 Pls
1985 280 Pls
1988 280 Pls
1991 280 Pls
1993 1662 Pls
1993 280 Pls
1994 280 Pls
1997 280 Pls
1998 280 Pls
2010 280 Pls
2011 280 Pls
2013 280 Pls
2019 280 Pls
2023 280 Pls
2024 280 Pls
2025 280 Pls
2029 280 Pls
2029 280 Pls
2034 280 Pls
2036 280 Pls
2036 280 Pls
2040 280 Pls
2044 280 Pls
2046 280 Pls
2047 280 Pls
2048 280 Pls
2049 280 Pls
2049 280 Pls
2049 280 Pls
2050 280 Pls
2050 280 Pls
2053 280 Pls
2055 280 Pls
2056 280 Pls
2057 280 Pls
2059 280 Pls
2061 280 Pls
2064 280 Pls
2064 280 Pls
2072 280 Pls
2075 280 Pls
2078 280 Pls
2080 280 Pls
2084 280 Pls
2088 280 Pls
2097 280 Pls
2105 280 Pls
2108 280 Pls
2110 280 Pls
2110 280 Pls
2110 280 Pls
2114 280 Pls
2115 280 Pls
2117 280 Pls
2120 280 Pls
2130 280 Pls
2134 280 Pls
2137 280 Pls
2147 280 Pls
2150 280 Pls
2153 280 Pls
2155 280 Pls
2155 280 Pls
2155 280 Pls
2162 280 Pls
2163 280 Pls
2168 280 Pls
2168 280 Pls
2172 280 Pls
2172 280 Pls
2176 280 Pls
2176 280 Pls
2178 280 Pls
2179 280 Pls
2179 280 Pls
2179 280 Pls
2180 280 Pls
2182 280 Pls
2189 280 Pls
2191 280 Pls
2195 280 Pls
2197 280 Pls
2203 280 Pls
2210 280 Pls
2212 280 Pls
2212 280 Pls
2212 280 Pls
2217 280 Pls
2219 280 Pls
2221 280 Pls
2223 280 Pls
2226 280 Pls
2227 280 Pls
2230 280 Pls
2230 280 Pls
2230 280 Pls
2232 280 Pls
2239 280 Pls
2243 280 Pls
2246 280 Pls
2246 280 Pls
2254 280 Pls
2255 280 Pls
2259 280 Pls
2268 280 Pls
2270 280 Pls
2277 280 Pls
2280 280 Pls
2284 280 Pls
2285 280 Pls
2286 280 Pls
2288 280 Pls
2290 280 Pls
2290 280 Pls
2298 280 Pls
2300 280 Pls
2307 280 Pls
2307 280 Pls
2308 280 Pls
2311 280 Pls
2314 280 Pls
2315 280 Pls
2323 280 Pls
2323 280 Pls
2324 280 Pls
2324 280 Pls
2329 280 Pls
2332 280 Pls
2334 280 Pls
2343 280 Pls
2344 280 Pls
2351 280 Pls
2360 280 Pls
2367 280 Pls
2369 280 Pls
2370 280 Pls
2374 280 Pls
2376 280 Pls
2379 280 Pls
2392 280 Pls
2404 280 Pls
2408 280 Pls
2412 280 Pls
2412 280 Pls
2415 280 Pls
2419 280 Pls
2422 280 Pls
2429 280 Pls
2433 280 Pls
2435 280 Pls
2438 280 Pls
2438 280 Pls
2444 280 Pls
2446 280 Pls
2447 280 Pls
2447 280 Pls
2450 280 Pls
2453 280 Pls
2455 280 Pls
2462 280 Pls
2465 280 Pls
2466 280 Pls
2471 280 Pls
2476 280 Pls
2479 280 Pls
2481 280 Pls
2484 280 Pls
2487 280 Pls
2488 280 Pls
2490 280 Pls
2492 280 Pls
2493 280 Pls
2495 280 Pls
2496 280 Pls
2497 280 Pls
2497 280 Pls
2499 280 Pls
2505 280 Pls
2508 280 Pls
2511 280 Pls
2512 280 Pls
2514 280 Pls
2522 280 Pls
2523 280 Pls
2525 280 Pls
2526 1662 Pls
2528 280 Pls
2532 280 Pls
2535 280 Pls
2539 280 Pls
2542 280 Pls
2543 280 Pls
2544 280 Pls
2555 280 Pls
2559 280 Pls
2565 280 Pls
2566 280 Pls
2571 280 Pls
2575 280 Pls
2576 280 Pls
2581 280 Pls
2581 280 Pls
2582 280 Pls
2586 280 Pls
2588 280 Pls
2592 280 Pls
2595 280 Pls
2597 280 Pls
2597 280 Pls
2597 280 Pls
2598 280 Pls
2598 280 Pls
2602 280 Pls
2611 280 Pls
2612 280 Pls
2618 280 Pls
2619 280 Pls
2619 280 Pls
2622 280 Pls
2622 280 Pls
2623 280 Pls
2626 280 Pls
2630 280 Pls
2631 280 Pls
2635 280 Pls
2637 280 Pls
2637 280 Pls
2641 280 Pls
2643 280 Pls
2643 280 Pls
2648 280 Pls
2652 280 Pls
2657 280 Pls
2658 280 Pls
2662 280 Pls
2663 280 Pls
2669 280 Pls
2671 280 Pls
2673 280 Pls
2684 280 Pls
2688 280 Pls
2690 280 Pls
2692 280 Pls
2700 280 Pls
2700 280 Pls
2706 280 Pls
2707 280 Pls
2707 280 Pls
2709 280 Pls
2709 280 Pls
2710 280 Pls
2711 280 Pls
2712 280 Pls
2713 280 Pls
2720 280 Pls
2725 280 Pls
2726 280 Pls
2731 280 Pls
2735 280 Pls
2737 280 Pls
2750 280 Pls
2751 280 Pls
2755 280 Pls
2757 280 Pls
2758 280 Pls
2759 280 Pls
2762 280 Pls
2766 280 Pls
2767 280 Pls
2769 280 Pls
2770 280 Pls
2770 280 Pls
2776 280 Pls
2782 280 Pls
2789 280 Pls
2789 280 Pls
2794 280 Pls
2796 280 Pls
2797 280 Pls
2800 280 Pls
2805 280 Pls
2805 280 Pls
2808 280 Pls
2810 280 Pls
2812 280 Pls
2813 280 Pls
2823 280 Pls
2831 280 Pls
2834 280 Pls
2836 280 Pls
2837 280 Pls
2837 280 Pls
2839 280 Pls
2844 280 Pls
2846 280 Pls
2848 280 Pls
2855 280 Pls
2862 280 Pls
2865 280 Pls
2866 280 Pls
2866 280 Pls
2867 280 Pls
2868 280 Pls
2873 280 Pls
2877 280 Pls
2879 280 Pls
2886 280 Pls
2890 280 Pls
2895 280 Pls
2897 280 Pls
2897 280 Pls
2904 280 Pls
2907 280 Pls
2908 280 Pls
2923 280 Pls
2925 280 Pls
2927 280 Pls
2933 280 Pls
2934 280 Pls
2934 280 Pls
2939 280 Pls
2947 280 Pls
2950 280 Pls
2951 280 Pls
2953 280 Pls
2964 280 Pls
2973 280 Pls
2979 280 Pls
2981 280 Pls
2988 280 Pls
2989 280 Pls
2996 280 Pls
3003 280 Pls
3006 280 Pls
3011 280 Pls
3013 280 Pls
3020 280 Pls
3029 280 Pls
3033 280 Pls
3034 280 Pls
3042 280 Pls
3046 280 Pls
3055 280 Pls
3056 280 Pls
3058 280 Pls
3060 280 Pls
3060 280 Pls
3063 280 Pls
3066 280 Pls
3084 280 Pls
3091 280 Pls
3094 280 Pls
3095 280 Pls
3095 280 Pls
3102 280 Pls
3102 280 Pls
3116 280 Pls
3117 280 Pls
3129 280 Pls
3131 280 Pls
3139 280 Pls
3140 280 Pls
3164 280 Pls
3176 280 Pls
3177 280 Pls
3216 280 Pls
3231 280 Pls
3238 280 Pls
3279 280 Pls
3297 280 Pls
3298 280 Pls
3356 280 Pls
3357 280 Pls
3394 280 Pls
3422 280 Pls
3423 280 Pls
3434 280 Pls
3437 280 Pls
3443 280 Pls
3466 280 Pls
3470 280 Pls
3470 280 Pls
3471 280 Pls
3500 280 Pls
3553 280 Pls
3555 280 Pls
3597 280 Pls
3601 280 Pls
3647 280 Pls
3648 280 Pls
3659 280 Pls
3685 280 Pls
3695 280 Pls
3731 280 Pls
3783 280 Pls
3808 280 Pls
3830 280 Pls
3851 280 Pls
3878 280 Pls
3902 280 Pls
3906 280 Pls
4029 280 Pls
4032 280 Pls
4038 280 Pls
4536 280 Pls
4573 280 Pls
4658 280 Pls
5016 280 Pls
5063 280 Pls
5324 280 Pls
% End plot #1
2.000 UL
LTb
LCb setrgbcolor
1.000 UL
LTB
LCb setrgbcolor
462 4871 N
462 280 L
6485 0 V
0 4591 V
-6485 0 V
Z stroke
1.000 UP
1.000 UL
LTb
LCb setrgbcolor
stroke
grestore
end
showpage
%%Trailer
%%DocumentFonts: Helvetica
%%Pages: 1
