%!PS-Adobe-2.0
%%Title: packets-uv-s-log-packets-s-ccdf-linlog.eps
%%Creator: gnuplot 5.0 patchlevel 3
%%CreationDate: Mon May 29 11:07:44 2017
%%DocumentFonts: (atend)
%%BoundingBox: 50 50 554 770
%%Orientation: Landscape
%%Pages: (atend)
%%EndComments
%%BeginProlog
/gnudict 256 dict def
gnudict begin
%
% The following true/false flags may be edited by hand if desired.
% The unit line width and grayscale image gamma correction may also be changed.
%
/Color true def
/Blacktext false def
/Solid false def
/Dashlength 1 def
/Landscape true def
/Level1 false def
/Level3 false def
/Rounded false def
/ClipToBoundingBox false def
/SuppressPDFMark false def
/TransparentPatterns false def
/gnulinewidth 5.000 def
/userlinewidth gnulinewidth def
/Gamma 1.0 def
/BackgroundColor {-1.000 -1.000 -1.000} def
%
/vshift -46 def
/dl1 {
  10.0 Dashlength userlinewidth gnulinewidth div mul mul mul
  Rounded { currentlinewidth 0.75 mul sub dup 0 le { pop 0.01 } if } if
} def
/dl2 {
  10.0 Dashlength userlinewidth gnulinewidth div mul mul mul
  Rounded { currentlinewidth 0.75 mul add } if
} def
/hpt_ 31.5 def
/vpt_ 31.5 def
/hpt hpt_ def
/vpt vpt_ def
/doclip {
  ClipToBoundingBox {
    newpath 50 50 moveto 554 50 lineto 554 770 lineto 50 770 lineto closepath
    clip
  } if
} def
%
% Gnuplot Prolog Version 5.1 (Oct 2015)
%
%/SuppressPDFMark true def
%
/M {moveto} bind def
/L {lineto} bind def
/R {rmoveto} bind def
/V {rlineto} bind def
/N {newpath moveto} bind def
/Z {closepath} bind def
/C {setrgbcolor} bind def
/f {rlineto fill} bind def
/g {setgray} bind def
/Gshow {show} def   % May be redefined later in the file to support UTF-8
/vpt2 vpt 2 mul def
/hpt2 hpt 2 mul def
/Lshow {currentpoint stroke M 0 vshift R 
	Blacktext {gsave 0 setgray textshow grestore} {textshow} ifelse} def
/Rshow {currentpoint stroke M dup stringwidth pop neg vshift R
	Blacktext {gsave 0 setgray textshow grestore} {textshow} ifelse} def
/Cshow {currentpoint stroke M dup stringwidth pop -2 div vshift R 
	Blacktext {gsave 0 setgray textshow grestore} {textshow} ifelse} def
/UP {dup vpt_ mul /vpt exch def hpt_ mul /hpt exch def
  /hpt2 hpt 2 mul def /vpt2 vpt 2 mul def} def
/DL {Color {setrgbcolor Solid {pop []} if 0 setdash}
 {pop pop pop 0 setgray Solid {pop []} if 0 setdash} ifelse} def
/BL {stroke userlinewidth 2 mul setlinewidth
	Rounded {1 setlinejoin 1 setlinecap} if} def
/AL {stroke userlinewidth 2 div setlinewidth
	Rounded {1 setlinejoin 1 setlinecap} if} def
/UL {dup gnulinewidth mul /userlinewidth exch def
	dup 1 lt {pop 1} if 10 mul /udl exch def} def
/PL {stroke userlinewidth setlinewidth
	Rounded {1 setlinejoin 1 setlinecap} if} def
3.8 setmiterlimit
% Classic Line colors (version 5.0)
/LCw {1 1 1} def
/LCb {0 0 0} def
/LCa {0 0 0} def
/LC0 {1 0 0} def
/LC1 {0 1 0} def
/LC2 {0 0 1} def
/LC3 {1 0 1} def
/LC4 {0 1 1} def
/LC5 {1 1 0} def
/LC6 {0 0 0} def
/LC7 {1 0.3 0} def
/LC8 {0.5 0.5 0.5} def
% Default dash patterns (version 5.0)
/LTB {BL [] LCb DL} def
/LTw {PL [] 1 setgray} def
/LTb {PL [] LCb DL} def
/LTa {AL [1 udl mul 2 udl mul] 0 setdash LCa setrgbcolor} def
/LT0 {PL [] LC0 DL} def
/LT1 {PL [2 dl1 3 dl2] LC1 DL} def
/LT2 {PL [1 dl1 1.5 dl2] LC2 DL} def
/LT3 {PL [6 dl1 2 dl2 1 dl1 2 dl2] LC3 DL} def
/LT4 {PL [1 dl1 2 dl2 6 dl1 2 dl2 1 dl1 2 dl2] LC4 DL} def
/LT5 {PL [4 dl1 2 dl2] LC5 DL} def
/LT6 {PL [1.5 dl1 1.5 dl2 1.5 dl1 1.5 dl2 1.5 dl1 6 dl2] LC6 DL} def
/LT7 {PL [3 dl1 3 dl2 1 dl1 3 dl2] LC7 DL} def
/LT8 {PL [2 dl1 2 dl2 2 dl1 6 dl2] LC8 DL} def
/SL {[] 0 setdash} def
/Pnt {stroke [] 0 setdash gsave 1 setlinecap M 0 0 V stroke grestore} def
/Dia {stroke [] 0 setdash 2 copy vpt add M
  hpt neg vpt neg V hpt vpt neg V
  hpt vpt V hpt neg vpt V closepath stroke
  Pnt} def
/Pls {stroke [] 0 setdash vpt sub M 0 vpt2 V
  currentpoint stroke M
  hpt neg vpt neg R hpt2 0 V stroke
 } def
/Box {stroke [] 0 setdash 2 copy exch hpt sub exch vpt add M
  0 vpt2 neg V hpt2 0 V 0 vpt2 V
  hpt2 neg 0 V closepath stroke
  Pnt} def
/Crs {stroke [] 0 setdash exch hpt sub exch vpt add M
  hpt2 vpt2 neg V currentpoint stroke M
  hpt2 neg 0 R hpt2 vpt2 V stroke} def
/TriU {stroke [] 0 setdash 2 copy vpt 1.12 mul add M
  hpt neg vpt -1.62 mul V
  hpt 2 mul 0 V
  hpt neg vpt 1.62 mul V closepath stroke
  Pnt} def
/Star {2 copy Pls Crs} def
/BoxF {stroke [] 0 setdash exch hpt sub exch vpt add M
  0 vpt2 neg V hpt2 0 V 0 vpt2 V
  hpt2 neg 0 V closepath fill} def
/TriUF {stroke [] 0 setdash vpt 1.12 mul add M
  hpt neg vpt -1.62 mul V
  hpt 2 mul 0 V
  hpt neg vpt 1.62 mul V closepath fill} def
/TriD {stroke [] 0 setdash 2 copy vpt 1.12 mul sub M
  hpt neg vpt 1.62 mul V
  hpt 2 mul 0 V
  hpt neg vpt -1.62 mul V closepath stroke
  Pnt} def
/TriDF {stroke [] 0 setdash vpt 1.12 mul sub M
  hpt neg vpt 1.62 mul V
  hpt 2 mul 0 V
  hpt neg vpt -1.62 mul V closepath fill} def
/DiaF {stroke [] 0 setdash vpt add M
  hpt neg vpt neg V hpt vpt neg V
  hpt vpt V hpt neg vpt V closepath fill} def
/Pent {stroke [] 0 setdash 2 copy gsave
  translate 0 hpt M 4 {72 rotate 0 hpt L} repeat
  closepath stroke grestore Pnt} def
/PentF {stroke [] 0 setdash gsave
  translate 0 hpt M 4 {72 rotate 0 hpt L} repeat
  closepath fill grestore} def
/Circle {stroke [] 0 setdash 2 copy
  hpt 0 360 arc stroke Pnt} def
/CircleF {stroke [] 0 setdash hpt 0 360 arc fill} def
/C0 {BL [] 0 setdash 2 copy moveto vpt 90 450 arc} bind def
/C1 {BL [] 0 setdash 2 copy moveto
	2 copy vpt 0 90 arc closepath fill
	vpt 0 360 arc closepath} bind def
/C2 {BL [] 0 setdash 2 copy moveto
	2 copy vpt 90 180 arc closepath fill
	vpt 0 360 arc closepath} bind def
/C3 {BL [] 0 setdash 2 copy moveto
	2 copy vpt 0 180 arc closepath fill
	vpt 0 360 arc closepath} bind def
/C4 {BL [] 0 setdash 2 copy moveto
	2 copy vpt 180 270 arc closepath fill
	vpt 0 360 arc closepath} bind def
/C5 {BL [] 0 setdash 2 copy moveto
	2 copy vpt 0 90 arc
	2 copy moveto
	2 copy vpt 180 270 arc closepath fill
	vpt 0 360 arc} bind def
/C6 {BL [] 0 setdash 2 copy moveto
	2 copy vpt 90 270 arc closepath fill
	vpt 0 360 arc closepath} bind def
/C7 {BL [] 0 setdash 2 copy moveto
	2 copy vpt 0 270 arc closepath fill
	vpt 0 360 arc closepath} bind def
/C8 {BL [] 0 setdash 2 copy moveto
	2 copy vpt 270 360 arc closepath fill
	vpt 0 360 arc closepath} bind def
/C9 {BL [] 0 setdash 2 copy moveto
	2 copy vpt 270 450 arc closepath fill
	vpt 0 360 arc closepath} bind def
/C10 {BL [] 0 setdash 2 copy 2 copy moveto vpt 270 360 arc closepath fill
	2 copy moveto
	2 copy vpt 90 180 arc closepath fill
	vpt 0 360 arc closepath} bind def
/C11 {BL [] 0 setdash 2 copy moveto
	2 copy vpt 0 180 arc closepath fill
	2 copy moveto
	2 copy vpt 270 360 arc closepath fill
	vpt 0 360 arc closepath} bind def
/C12 {BL [] 0 setdash 2 copy moveto
	2 copy vpt 180 360 arc closepath fill
	vpt 0 360 arc closepath} bind def
/C13 {BL [] 0 setdash 2 copy moveto
	2 copy vpt 0 90 arc closepath fill
	2 copy moveto
	2 copy vpt 180 360 arc closepath fill
	vpt 0 360 arc closepath} bind def
/C14 {BL [] 0 setdash 2 copy moveto
	2 copy vpt 90 360 arc closepath fill
	vpt 0 360 arc} bind def
/C15 {BL [] 0 setdash 2 copy vpt 0 360 arc closepath fill
	vpt 0 360 arc closepath} bind def
/Rec {newpath 4 2 roll moveto 1 index 0 rlineto 0 exch rlineto
	neg 0 rlineto closepath} bind def
/Square {dup Rec} bind def
/Bsquare {vpt sub exch vpt sub exch vpt2 Square} bind def
/S0 {BL [] 0 setdash 2 copy moveto 0 vpt rlineto BL Bsquare} bind def
/S1 {BL [] 0 setdash 2 copy vpt Square fill Bsquare} bind def
/S2 {BL [] 0 setdash 2 copy exch vpt sub exch vpt Square fill Bsquare} bind def
/S3 {BL [] 0 setdash 2 copy exch vpt sub exch vpt2 vpt Rec fill Bsquare} bind def
/S4 {BL [] 0 setdash 2 copy exch vpt sub exch vpt sub vpt Square fill Bsquare} bind def
/S5 {BL [] 0 setdash 2 copy 2 copy vpt Square fill
	exch vpt sub exch vpt sub vpt Square fill Bsquare} bind def
/S6 {BL [] 0 setdash 2 copy exch vpt sub exch vpt sub vpt vpt2 Rec fill Bsquare} bind def
/S7 {BL [] 0 setdash 2 copy exch vpt sub exch vpt sub vpt vpt2 Rec fill
	2 copy vpt Square fill Bsquare} bind def
/S8 {BL [] 0 setdash 2 copy vpt sub vpt Square fill Bsquare} bind def
/S9 {BL [] 0 setdash 2 copy vpt sub vpt vpt2 Rec fill Bsquare} bind def
/S10 {BL [] 0 setdash 2 copy vpt sub vpt Square fill 2 copy exch vpt sub exch vpt Square fill
	Bsquare} bind def
/S11 {BL [] 0 setdash 2 copy vpt sub vpt Square fill 2 copy exch vpt sub exch vpt2 vpt Rec fill
	Bsquare} bind def
/S12 {BL [] 0 setdash 2 copy exch vpt sub exch vpt sub vpt2 vpt Rec fill Bsquare} bind def
/S13 {BL [] 0 setdash 2 copy exch vpt sub exch vpt sub vpt2 vpt Rec fill
	2 copy vpt Square fill Bsquare} bind def
/S14 {BL [] 0 setdash 2 copy exch vpt sub exch vpt sub vpt2 vpt Rec fill
	2 copy exch vpt sub exch vpt Square fill Bsquare} bind def
/S15 {BL [] 0 setdash 2 copy Bsquare fill Bsquare} bind def
/D0 {gsave translate 45 rotate 0 0 S0 stroke grestore} bind def
/D1 {gsave translate 45 rotate 0 0 S1 stroke grestore} bind def
/D2 {gsave translate 45 rotate 0 0 S2 stroke grestore} bind def
/D3 {gsave translate 45 rotate 0 0 S3 stroke grestore} bind def
/D4 {gsave translate 45 rotate 0 0 S4 stroke grestore} bind def
/D5 {gsave translate 45 rotate 0 0 S5 stroke grestore} bind def
/D6 {gsave translate 45 rotate 0 0 S6 stroke grestore} bind def
/D7 {gsave translate 45 rotate 0 0 S7 stroke grestore} bind def
/D8 {gsave translate 45 rotate 0 0 S8 stroke grestore} bind def
/D9 {gsave translate 45 rotate 0 0 S9 stroke grestore} bind def
/D10 {gsave translate 45 rotate 0 0 S10 stroke grestore} bind def
/D11 {gsave translate 45 rotate 0 0 S11 stroke grestore} bind def
/D12 {gsave translate 45 rotate 0 0 S12 stroke grestore} bind def
/D13 {gsave translate 45 rotate 0 0 S13 stroke grestore} bind def
/D14 {gsave translate 45 rotate 0 0 S14 stroke grestore} bind def
/D15 {gsave translate 45 rotate 0 0 S15 stroke grestore} bind def
/DiaE {stroke [] 0 setdash vpt add M
  hpt neg vpt neg V hpt vpt neg V
  hpt vpt V hpt neg vpt V closepath stroke} def
/BoxE {stroke [] 0 setdash exch hpt sub exch vpt add M
  0 vpt2 neg V hpt2 0 V 0 vpt2 V
  hpt2 neg 0 V closepath stroke} def
/TriUE {stroke [] 0 setdash vpt 1.12 mul add M
  hpt neg vpt -1.62 mul V
  hpt 2 mul 0 V
  hpt neg vpt 1.62 mul V closepath stroke} def
/TriDE {stroke [] 0 setdash vpt 1.12 mul sub M
  hpt neg vpt 1.62 mul V
  hpt 2 mul 0 V
  hpt neg vpt -1.62 mul V closepath stroke} def
/PentE {stroke [] 0 setdash gsave
  translate 0 hpt M 4 {72 rotate 0 hpt L} repeat
  closepath stroke grestore} def
/CircE {stroke [] 0 setdash 
  hpt 0 360 arc stroke} def
/Opaque {gsave closepath 1 setgray fill grestore 0 setgray closepath} def
/DiaW {stroke [] 0 setdash vpt add M
  hpt neg vpt neg V hpt vpt neg V
  hpt vpt V hpt neg vpt V Opaque stroke} def
/BoxW {stroke [] 0 setdash exch hpt sub exch vpt add M
  0 vpt2 neg V hpt2 0 V 0 vpt2 V
  hpt2 neg 0 V Opaque stroke} def
/TriUW {stroke [] 0 setdash vpt 1.12 mul add M
  hpt neg vpt -1.62 mul V
  hpt 2 mul 0 V
  hpt neg vpt 1.62 mul V Opaque stroke} def
/TriDW {stroke [] 0 setdash vpt 1.12 mul sub M
  hpt neg vpt 1.62 mul V
  hpt 2 mul 0 V
  hpt neg vpt -1.62 mul V Opaque stroke} def
/PentW {stroke [] 0 setdash gsave
  translate 0 hpt M 4 {72 rotate 0 hpt L} repeat
  Opaque stroke grestore} def
/CircW {stroke [] 0 setdash 
  hpt 0 360 arc Opaque stroke} def
/BoxFill {gsave Rec 1 setgray fill grestore} def
/Density {
  /Fillden exch def
  currentrgbcolor
  /ColB exch def /ColG exch def /ColR exch def
  /ColR ColR Fillden mul Fillden sub 1 add def
  /ColG ColG Fillden mul Fillden sub 1 add def
  /ColB ColB Fillden mul Fillden sub 1 add def
  ColR ColG ColB setrgbcolor} def
/BoxColFill {gsave Rec PolyFill} def
/PolyFill {gsave Density fill grestore grestore} def
/h {rlineto rlineto rlineto gsave closepath fill grestore} bind def
%
% PostScript Level 1 Pattern Fill routine for rectangles
% Usage: x y w h s a XX PatternFill
%	x,y = lower left corner of box to be filled
%	w,h = width and height of box
%	  a = angle in degrees between lines and x-axis
%	 XX = 0/1 for no/yes cross-hatch
%
/PatternFill {gsave /PFa [ 9 2 roll ] def
  PFa 0 get PFa 2 get 2 div add PFa 1 get PFa 3 get 2 div add translate
  PFa 2 get -2 div PFa 3 get -2 div PFa 2 get PFa 3 get Rec
  TransparentPatterns {} {gsave 1 setgray fill grestore} ifelse
  clip
  currentlinewidth 0.5 mul setlinewidth
  /PFs PFa 2 get dup mul PFa 3 get dup mul add sqrt def
  0 0 M PFa 5 get rotate PFs -2 div dup translate
  0 1 PFs PFa 4 get div 1 add floor cvi
	{PFa 4 get mul 0 M 0 PFs V} for
  0 PFa 6 get ne {
	0 1 PFs PFa 4 get div 1 add floor cvi
	{PFa 4 get mul 0 2 1 roll M PFs 0 V} for
 } if
  stroke grestore} def
%
/languagelevel where
 {pop languagelevel} {1} ifelse
dup 2 lt
	{/InterpretLevel1 true def
	 /InterpretLevel3 false def}
	{/InterpretLevel1 Level1 def
	 2 gt
	    {/InterpretLevel3 Level3 def}
	    {/InterpretLevel3 false def}
	 ifelse }
 ifelse
%
% PostScript level 2 pattern fill definitions
%
/Level2PatternFill {
/Tile8x8 {/PaintType 2 /PatternType 1 /TilingType 1 /BBox [0 0 8 8] /XStep 8 /YStep 8}
	bind def
/KeepColor {currentrgbcolor [/Pattern /DeviceRGB] setcolorspace} bind def
<< Tile8x8
 /PaintProc {0.5 setlinewidth pop 0 0 M 8 8 L 0 8 M 8 0 L stroke} 
>> matrix makepattern
/Pat1 exch def
<< Tile8x8
 /PaintProc {0.5 setlinewidth pop 0 0 M 8 8 L 0 8 M 8 0 L stroke
	0 4 M 4 8 L 8 4 L 4 0 L 0 4 L stroke}
>> matrix makepattern
/Pat2 exch def
<< Tile8x8
 /PaintProc {0.5 setlinewidth pop 0 0 M 0 8 L
	8 8 L 8 0 L 0 0 L fill}
>> matrix makepattern
/Pat3 exch def
<< Tile8x8
 /PaintProc {0.5 setlinewidth pop -4 8 M 8 -4 L
	0 12 M 12 0 L stroke}
>> matrix makepattern
/Pat4 exch def
<< Tile8x8
 /PaintProc {0.5 setlinewidth pop -4 0 M 8 12 L
	0 -4 M 12 8 L stroke}
>> matrix makepattern
/Pat5 exch def
<< Tile8x8
 /PaintProc {0.5 setlinewidth pop -2 8 M 4 -4 L
	0 12 M 8 -4 L 4 12 M 10 0 L stroke}
>> matrix makepattern
/Pat6 exch def
<< Tile8x8
 /PaintProc {0.5 setlinewidth pop -2 0 M 4 12 L
	0 -4 M 8 12 L 4 -4 M 10 8 L stroke}
>> matrix makepattern
/Pat7 exch def
<< Tile8x8
 /PaintProc {0.5 setlinewidth pop 8 -2 M -4 4 L
	12 0 M -4 8 L 12 4 M 0 10 L stroke}
>> matrix makepattern
/Pat8 exch def
<< Tile8x8
 /PaintProc {0.5 setlinewidth pop 0 -2 M 12 4 L
	-4 0 M 12 8 L -4 4 M 8 10 L stroke}
>> matrix makepattern
/Pat9 exch def
/Pattern1 {PatternBgnd KeepColor Pat1 setpattern} bind def
/Pattern2 {PatternBgnd KeepColor Pat2 setpattern} bind def
/Pattern3 {PatternBgnd KeepColor Pat3 setpattern} bind def
/Pattern4 {PatternBgnd KeepColor Landscape {Pat5} {Pat4} ifelse setpattern} bind def
/Pattern5 {PatternBgnd KeepColor Landscape {Pat4} {Pat5} ifelse setpattern} bind def
/Pattern6 {PatternBgnd KeepColor Landscape {Pat9} {Pat6} ifelse setpattern} bind def
/Pattern7 {PatternBgnd KeepColor Landscape {Pat8} {Pat7} ifelse setpattern} bind def
} def
%
%
%End of PostScript Level 2 code
%
/PatternBgnd {
  TransparentPatterns {} {gsave 1 setgray fill grestore} ifelse
} def
%
% Substitute for Level 2 pattern fill codes with
% grayscale if Level 2 support is not selected.
%
/Level1PatternFill {
/Pattern1 {0.250 Density} bind def
/Pattern2 {0.500 Density} bind def
/Pattern3 {0.750 Density} bind def
/Pattern4 {0.125 Density} bind def
/Pattern5 {0.375 Density} bind def
/Pattern6 {0.625 Density} bind def
/Pattern7 {0.875 Density} bind def
} def
%
% Now test for support of Level 2 code
%
Level1 {Level1PatternFill} {Level2PatternFill} ifelse
%
/Symbol-Oblique /Symbol findfont [1 0 .167 1 0 0] makefont
dup length dict begin {1 index /FID eq {pop pop} {def} ifelse} forall
currentdict end definefont pop
%
/MFshow {
   { dup 5 get 3 ge
     { 5 get 3 eq {gsave} {grestore} ifelse }
     {dup dup 0 get findfont exch 1 get scalefont setfont
     [ currentpoint ] exch dup 2 get 0 exch R dup 5 get 2 ne {dup dup 6
     get exch 4 get {textshow} {stringwidth pop 0 R} ifelse }if dup 5 get 0 eq
     {dup 3 get {2 get neg 0 exch R pop} {pop aload pop M} ifelse} {dup 5
     get 1 eq {dup 2 get exch dup 3 get exch 6 get stringwidth pop -2 div
     dup 0 R} {dup 6 get stringwidth pop -2 div 0 R 6 get
     textshow 2 index {aload pop M neg 3 -1 roll neg R pop pop} {pop pop pop
     pop aload pop M} ifelse }ifelse }ifelse }
     ifelse }
   forall} def
/Gswidth {dup type /stringtype eq {stringwidth} {pop (n) stringwidth} ifelse} def
/MFwidth {0 exch { dup 5 get 3 ge { 5 get 3 eq { 0 } { pop } ifelse }
 {dup 3 get{dup dup 0 get findfont exch 1 get scalefont setfont
     6 get Gswidth pop add} {pop} ifelse} ifelse} forall} def
/MLshow { currentpoint stroke M
  0 exch R
  Blacktext {gsave 0 setgray MFshow grestore} {MFshow} ifelse } bind def
/MRshow { currentpoint stroke M
  exch dup MFwidth neg 3 -1 roll R
  Blacktext {gsave 0 setgray MFshow grestore} {MFshow} ifelse } bind def
/MCshow { currentpoint stroke M
  exch dup MFwidth -2 div 3 -1 roll R
  Blacktext {gsave 0 setgray MFshow grestore} {MFshow} ifelse } bind def
/XYsave    { [( ) 1 2 true false 3 ()] } bind def
/XYrestore { [( ) 1 2 true false 4 ()] } bind def
Level1 SuppressPDFMark or 
{} {
/SDict 10 dict def
systemdict /pdfmark known not {
  userdict /pdfmark systemdict /cleartomark get put
} if
SDict begin [
  /Title (packets-uv-s-log-packets-s-ccdf-linlog.eps)
  /Subject (gnuplot plot)
  /Creator (gnuplot 5.0 patchlevel 3)
  /Author (tiphaine)
%  /Producer (gnuplot)
%  /Keywords ()
  /CreationDate (Mon May 29 11:07:44 2017)
  /DOCINFO pdfmark
end
} ifelse
%
% Support for boxed text - Ethan A Merritt May 2005
%
/InitTextBox { userdict /TBy2 3 -1 roll put userdict /TBx2 3 -1 roll put
           userdict /TBy1 3 -1 roll put userdict /TBx1 3 -1 roll put
	   /Boxing true def } def
/ExtendTextBox { Boxing
    { gsave dup false charpath pathbbox
      dup TBy2 gt {userdict /TBy2 3 -1 roll put} {pop} ifelse
      dup TBx2 gt {userdict /TBx2 3 -1 roll put} {pop} ifelse
      dup TBy1 lt {userdict /TBy1 3 -1 roll put} {pop} ifelse
      dup TBx1 lt {userdict /TBx1 3 -1 roll put} {pop} ifelse
      grestore } if } def
/PopTextBox { newpath TBx1 TBxmargin sub TBy1 TBymargin sub M
               TBx1 TBxmargin sub TBy2 TBymargin add L
	       TBx2 TBxmargin add TBy2 TBymargin add L
	       TBx2 TBxmargin add TBy1 TBymargin sub L closepath } def
/DrawTextBox { PopTextBox stroke /Boxing false def} def
/FillTextBox { gsave PopTextBox 1 1 1 setrgbcolor fill grestore /Boxing false def} def
0 0 0 0 InitTextBox
/TBxmargin 20 def
/TBymargin 20 def
/Boxing false def
/textshow { ExtendTextBox Gshow } def
%
% redundant definitions for compatibility with prologue.ps older than 5.0.2
/LTB {BL [] LCb DL} def
/LTb {PL [] LCb DL} def
end
%%EndProlog
%%Page: 1 1
gnudict begin
gsave
doclip
50 50 translate
0.100 0.100 scale
90 rotate
0 -5040 translate
0 setgray
newpath
(Helvetica) findfont 140 scalefont setfont
BackgroundColor 0 lt 3 1 roll 0 lt exch 0 lt or or not {gsave BackgroundColor C clippath fill grestore} if
1.000 UL
LTb
LCb setrgbcolor
798 280 M
63 0 V
6086 0 R
-63 0 V
stroke
714 280 M
[ [(Helvetica) 140.0 0.0 true true 0 ( 0.0001)]
] -46.7 MRshow
1.000 UL
LTb
LCb setrgbcolor
798 626 M
31 0 V
6118 0 R
-31 0 V
798 828 M
31 0 V
6118 0 R
-31 0 V
798 971 M
31 0 V
6118 0 R
-31 0 V
798 1082 M
31 0 V
6118 0 R
-31 0 V
798 1173 M
31 0 V
6118 0 R
-31 0 V
798 1250 M
31 0 V
6118 0 R
-31 0 V
798 1317 M
31 0 V
6118 0 R
-31 0 V
798 1375 M
31 0 V
6118 0 R
-31 0 V
798 1428 M
63 0 V
6086 0 R
-63 0 V
stroke
714 1428 M
[ [(Helvetica) 140.0 0.0 true true 0 ( 0.001)]
] -46.7 MRshow
1.000 UL
LTb
LCb setrgbcolor
798 1773 M
31 0 V
6118 0 R
-31 0 V
798 1975 M
31 0 V
6118 0 R
-31 0 V
798 2119 M
31 0 V
6118 0 R
-31 0 V
798 2230 M
31 0 V
6118 0 R
-31 0 V
798 2321 M
31 0 V
6118 0 R
-31 0 V
798 2398 M
31 0 V
6118 0 R
-31 0 V
798 2464 M
31 0 V
6118 0 R
-31 0 V
798 2523 M
31 0 V
6118 0 R
-31 0 V
798 2576 M
63 0 V
6086 0 R
-63 0 V
stroke
714 2576 M
[ [(Helvetica) 140.0 0.0 true true 0 ( 0.01)]
] -46.7 MRshow
1.000 UL
LTb
LCb setrgbcolor
798 2921 M
31 0 V
6118 0 R
-31 0 V
798 3123 M
31 0 V
6118 0 R
-31 0 V
798 3267 M
31 0 V
6118 0 R
-31 0 V
798 3378 M
31 0 V
6118 0 R
-31 0 V
798 3469 M
31 0 V
6118 0 R
-31 0 V
798 3545 M
31 0 V
6118 0 R
-31 0 V
798 3612 M
31 0 V
6118 0 R
-31 0 V
798 3671 M
31 0 V
6118 0 R
-31 0 V
798 3723 M
63 0 V
6086 0 R
-63 0 V
stroke
714 3723 M
[ [(Helvetica) 140.0 0.0 true true 0 ( 0.1)]
] -46.7 MRshow
1.000 UL
LTb
LCb setrgbcolor
798 4069 M
31 0 V
6118 0 R
-31 0 V
798 4271 M
31 0 V
6118 0 R
-31 0 V
798 4414 M
31 0 V
6118 0 R
-31 0 V
798 4525 M
31 0 V
6118 0 R
-31 0 V
798 4616 M
31 0 V
6118 0 R
-31 0 V
798 4693 M
31 0 V
6118 0 R
-31 0 V
798 4760 M
31 0 V
6118 0 R
-31 0 V
798 4818 M
31 0 V
6118 0 R
-31 0 V
798 4871 M
63 0 V
6086 0 R
-63 0 V
stroke
714 4871 M
[ [(Helvetica) 140.0 0.0 true true 0 ( 1)]
] -46.7 MRshow
1.000 UL
LTb
LCb setrgbcolor
798 280 M
0 63 V
0 4528 R
0 -63 V
stroke
798 140 M
[ [(Helvetica) 140.0 0.0 true true 0 ( 0)]
] -46.7 MCshow
1.000 UL
LTb
LCb setrgbcolor
1676 280 M
0 63 V
0 4528 R
0 -63 V
stroke
1676 140 M
[ [(Helvetica) 140.0 0.0 true true 0 ( 50000)]
] -46.7 MCshow
1.000 UL
LTb
LCb setrgbcolor
2555 280 M
0 63 V
0 4528 R
0 -63 V
stroke
2555 140 M
[ [(Helvetica) 140.0 0.0 true true 0 ( 100000)]
] -46.7 MCshow
1.000 UL
LTb
LCb setrgbcolor
3433 280 M
0 63 V
0 4528 R
0 -63 V
stroke
3433 140 M
[ [(Helvetica) 140.0 0.0 true true 0 ( 150000)]
] -46.7 MCshow
1.000 UL
LTb
LCb setrgbcolor
4312 280 M
0 63 V
0 4528 R
0 -63 V
stroke
4312 140 M
[ [(Helvetica) 140.0 0.0 true true 0 ( 200000)]
] -46.7 MCshow
1.000 UL
LTb
LCb setrgbcolor
5190 280 M
0 63 V
0 4528 R
0 -63 V
stroke
5190 140 M
[ [(Helvetica) 140.0 0.0 true true 0 ( 250000)]
] -46.7 MCshow
1.000 UL
LTb
LCb setrgbcolor
6069 280 M
0 63 V
0 4528 R
0 -63 V
stroke
6069 140 M
[ [(Helvetica) 140.0 0.0 true true 0 ( 300000)]
] -46.7 MCshow
1.000 UL
LTb
LCb setrgbcolor
6947 280 M
0 63 V
0 4528 R
0 -63 V
stroke
6947 140 M
[ [(Helvetica) 140.0 0.0 true true 0 ( 350000)]
] -46.7 MCshow
1.000 UL
LTb
LCb setrgbcolor
1.000 UL
LTB
LCb setrgbcolor
798 4871 N
798 280 L
6149 0 V
0 4591 V
-6149 0 V
Z stroke
1.000 UP
1.000 UL
LTb
LCb setrgbcolor
% Begin plot #1
1.000 UP
1.000 UL
LTb
0.58 0.00 0.83 C 798 4871 Pls
993 4378 Pls
1006 4378 Pls
1014 4378 Pls
1017 4377 Pls
1018 4377 Pls
1018 4377 Pls
1019 4376 Pls
1019 4376 Pls
1019 4375 Pls
1020 4375 Pls
1021 4375 Pls
1021 4374 Pls
1023 4374 Pls
1024 4374 Pls
1025 4373 Pls
1025 4373 Pls
1028 4372 Pls
1028 4372 Pls
1029 4372 Pls
1031 4371 Pls
1031 4371 Pls
1031 4371 Pls
1033 4370 Pls
1033 4370 Pls
1033 4369 Pls
1033 4369 Pls
1033 4369 Pls
1033 4368 Pls
1033 4368 Pls
1034 4367 Pls
1034 4367 Pls
1034 4366 Pls
1034 4366 Pls
1034 4366 Pls
1035 4365 Pls
1036 4365 Pls
1036 4364 Pls
1037 4364 Pls
1037 4364 Pls
1037 4363 Pls
1038 4363 Pls
1039 4363 Pls
1039 4362 Pls
1039 4362 Pls
1039 4361 Pls
1039 4361 Pls
1040 4361 Pls
1040 4360 Pls
1040 4360 Pls
1040 4359 Pls
1040 4359 Pls
1040 4359 Pls
1041 4358 Pls
1041 4358 Pls
1041 4357 Pls
1041 4357 Pls
1041 4356 Pls
1041 4356 Pls
1042 4356 Pls
1042 4355 Pls
1042 4355 Pls
1042 4354 Pls
1042 4354 Pls
1043 4354 Pls
1043 4353 Pls
1043 4353 Pls
1044 4352 Pls
1044 4352 Pls
1044 4352 Pls
1045 4351 Pls
1045 4351 Pls
1045 4350 Pls
1046 4350 Pls
1046 4350 Pls
1046 4349 Pls
1046 4349 Pls
1046 4348 Pls
1046 4348 Pls
1046 4348 Pls
1046 4347 Pls
1046 4347 Pls
1046 4347 Pls
1047 4346 Pls
1047 4346 Pls
1048 4345 Pls
1048 4345 Pls
1048 4345 Pls
1049 4344 Pls
1049 4344 Pls
1049 4343 Pls
1049 4343 Pls
1049 4343 Pls
1049 4342 Pls
1049 4342 Pls
1050 4341 Pls
1050 4341 Pls
1051 4341 Pls
1051 4340 Pls
1051 4340 Pls
1051 4339 Pls
1051 4339 Pls
1051 4339 Pls
1052 4338 Pls
1052 4337 Pls
1052 4337 Pls
1052 4337 Pls
1052 4336 Pls
1053 4336 Pls
1053 4335 Pls
1053 4335 Pls
1054 4334 Pls
1054 4334 Pls
1054 4334 Pls
1054 4333 Pls
1055 4333 Pls
1055 4332 Pls
1055 4332 Pls
1055 4332 Pls
1055 4331 Pls
1055 4331 Pls
1055 4330 Pls
1055 4330 Pls
1055 4330 Pls
1056 4329 Pls
1056 4329 Pls
1056 4328 Pls
1056 4328 Pls
1057 4327 Pls
1057 4327 Pls
1057 4326 Pls
1057 4326 Pls
1057 4325 Pls
1057 4325 Pls
1057 4325 Pls
1058 4324 Pls
1058 4324 Pls
1058 4323 Pls
1058 4323 Pls
1059 4323 Pls
1059 4322 Pls
1059 4322 Pls
1059 4321 Pls
1059 4321 Pls
1059 4320 Pls
1059 4320 Pls
1059 4320 Pls
1059 4319 Pls
1059 4319 Pls
1060 4318 Pls
1060 4318 Pls
1060 4317 Pls
1060 4317 Pls
1060 4316 Pls
1060 4316 Pls
1060 4315 Pls
1060 4315 Pls
1060 4315 Pls
1061 4314 Pls
1061 4314 Pls
1061 4313 Pls
1061 4313 Pls
1061 4312 Pls
1061 4312 Pls
1061 4312 Pls
1061 4311 Pls
1062 4311 Pls
1062 4310 Pls
1062 4310 Pls
1062 4309 Pls
1062 4309 Pls
1063 4309 Pls
1063 4308 Pls
1064 4308 Pls
1064 4307 Pls
1064 4306 Pls
1064 4306 Pls
1064 4306 Pls
1064 4305 Pls
1064 4305 Pls
1065 4304 Pls
1065 4304 Pls
1065 4303 Pls
1065 4303 Pls
1065 4303 Pls
1065 4302 Pls
1065 4302 Pls
1066 4301 Pls
1066 4301 Pls
1066 4300 Pls
1066 4300 Pls
1066 4299 Pls
1066 4299 Pls
1066 4298 Pls
1066 4298 Pls
1066 4297 Pls
1066 4297 Pls
1066 4297 Pls
1066 4296 Pls
1067 4296 Pls
1067 4295 Pls
1068 4295 Pls
1068 4294 Pls
1068 4294 Pls
1068 4293 Pls
1068 4293 Pls
1068 4293 Pls
1069 4292 Pls
1069 4292 Pls
1069 4291 Pls
1069 4291 Pls
1069 4290 Pls
1069 4290 Pls
1070 4289 Pls
1070 4289 Pls
1070 4289 Pls
1070 4288 Pls
1070 4288 Pls
1070 4287 Pls
1071 4287 Pls
1071 4286 Pls
1071 4286 Pls
1071 4285 Pls
1071 4285 Pls
1071 4285 Pls
1071 4284 Pls
1071 4283 Pls
1071 4283 Pls
1071 4282 Pls
1072 4282 Pls
1072 4281 Pls
1072 4281 Pls
1072 4280 Pls
1072 4280 Pls
1072 4280 Pls
1072 4279 Pls
1072 4279 Pls
1072 4278 Pls
1072 4278 Pls
1073 4277 Pls
1073 4276 Pls
1073 4276 Pls
1073 4275 Pls
1073 4275 Pls
1073 4275 Pls
1074 4274 Pls
1074 4273 Pls
1074 4273 Pls
1074 4272 Pls
1074 4272 Pls
1074 4271 Pls
1074 4271 Pls
1074 4270 Pls
1075 4270 Pls
1075 4269 Pls
1075 4269 Pls
1075 4268 Pls
1075 4268 Pls
1075 4267 Pls
1076 4267 Pls
1076 4266 Pls
1076 4266 Pls
1076 4265 Pls
1076 4265 Pls
1076 4264 Pls
1076 4264 Pls
1076 4263 Pls
1076 4263 Pls
1077 4262 Pls
1077 4262 Pls
1077 4261 Pls
1077 4261 Pls
1077 4260 Pls
1077 4260 Pls
1077 4259 Pls
1078 4259 Pls
1078 4258 Pls
1078 4258 Pls
1078 4257 Pls
1078 4257 Pls
1079 4256 Pls
1079 4256 Pls
1079 4255 Pls
1079 4255 Pls
1079 4254 Pls
1079 4254 Pls
1080 4253 Pls
1080 4253 Pls
1080 4253 Pls
1080 4252 Pls
1080 4252 Pls
1080 4251 Pls
1080 4251 Pls
1080 4250 Pls
1081 4250 Pls
1081 4249 Pls
1081 4249 Pls
1081 4248 Pls
1081 4248 Pls
1081 4247 Pls
1081 4247 Pls
1081 4246 Pls
1081 4246 Pls
1082 4245 Pls
1082 4245 Pls
1082 4244 Pls
1082 4244 Pls
1082 4243 Pls
1082 4243 Pls
1082 4242 Pls
1082 4241 Pls
1083 4241 Pls
1083 4240 Pls
1083 4240 Pls
1083 4239 Pls
1083 4239 Pls
1083 4238 Pls
1083 4238 Pls
1084 4237 Pls
1084 4237 Pls
1084 4236 Pls
1084 4236 Pls
1084 4235 Pls
1084 4235 Pls
1084 4234 Pls
1084 4234 Pls
1084 4233 Pls
1084 4233 Pls
1085 4233 Pls
1085 4232 Pls
1085 4232 Pls
1085 4231 Pls
1085 4231 Pls
1085 4230 Pls
1085 4230 Pls
1085 4229 Pls
1085 4229 Pls
1085 4228 Pls
1086 4227 Pls
1086 4227 Pls
1086 4226 Pls
1086 4226 Pls
1086 4225 Pls
1086 4225 Pls
1086 4224 Pls
1086 4224 Pls
1087 4223 Pls
1087 4223 Pls
1087 4222 Pls
1087 4222 Pls
1087 4221 Pls
1087 4221 Pls
1087 4220 Pls
1087 4220 Pls
1087 4219 Pls
1088 4219 Pls
1088 4218 Pls
1088 4218 Pls
1088 4217 Pls
1088 4217 Pls
1088 4216 Pls
1089 4216 Pls
1089 4215 Pls
1089 4215 Pls
1089 4214 Pls
1089 4214 Pls
1089 4213 Pls
1089 4213 Pls
1089 4212 Pls
1089 4212 Pls
1090 4211 Pls
1090 4210 Pls
1090 4210 Pls
1090 4209 Pls
1090 4209 Pls
1090 4208 Pls
1091 4207 Pls
1091 4207 Pls
1091 4206 Pls
1091 4206 Pls
1091 4205 Pls
1091 4205 Pls
1091 4204 Pls
1092 4204 Pls
1092 4203 Pls
1092 4203 Pls
1092 4202 Pls
1092 4201 Pls
1092 4201 Pls
1093 4200 Pls
1093 4200 Pls
1093 4199 Pls
1093 4198 Pls
1093 4198 Pls
1093 4197 Pls
1094 4197 Pls
1094 4196 Pls
1094 4196 Pls
1094 4195 Pls
1094 4195 Pls
1094 4194 Pls
1094 4194 Pls
1094 4193 Pls
1095 4193 Pls
1095 4192 Pls
1095 4191 Pls
1095 4191 Pls
1096 4190 Pls
1096 4190 Pls
1096 4189 Pls
1096 4189 Pls
1096 4188 Pls
1096 4188 Pls
1096 4187 Pls
1097 4186 Pls
1097 4185 Pls
1097 4185 Pls
1097 4184 Pls
1097 4184 Pls
1098 4183 Pls
1098 4183 Pls
1098 4182 Pls
1098 4181 Pls
1098 4180 Pls
1098 4179 Pls
1098 4179 Pls
1098 4178 Pls
1098 4178 Pls
1099 4177 Pls
1099 4177 Pls
1099 4176 Pls
1099 4176 Pls
1099 4175 Pls
1099 4174 Pls
1100 4174 Pls
1100 4173 Pls
1100 4173 Pls
1100 4172 Pls
1101 4172 Pls
1101 4171 Pls
1102 4170 Pls
1102 4170 Pls
1102 4169 Pls
1103 4169 Pls
1103 4168 Pls
1103 4168 Pls
1103 4167 Pls
1103 4167 Pls
1103 4166 Pls
1103 4165 Pls
1103 4165 Pls
1103 4164 Pls
1103 4164 Pls
1104 4163 Pls
1104 4163 Pls
1104 4162 Pls
1104 4161 Pls
1105 4161 Pls
1105 4160 Pls
1105 4160 Pls
1106 4159 Pls
1106 4158 Pls
1106 4158 Pls
1106 4157 Pls
1106 4157 Pls
1107 4156 Pls
1107 4156 Pls
1107 4155 Pls
1107 4154 Pls
1108 4154 Pls
1108 4153 Pls
1108 4153 Pls
1108 4152 Pls
1109 4151 Pls
1109 4151 Pls
1109 4150 Pls
1109 4150 Pls
1109 4149 Pls
1109 4149 Pls
1109 4148 Pls
1109 4147 Pls
1109 4146 Pls
1110 4146 Pls
1110 4145 Pls
1110 4144 Pls
1110 4144 Pls
1110 4143 Pls
1110 4143 Pls
1110 4141 Pls
1110 4140 Pls
1110 4140 Pls
1110 4139 Pls
1111 4138 Pls
1111 4137 Pls
1111 4136 Pls
1111 4135 Pls
1112 4135 Pls
1112 4134 Pls
1112 4134 Pls
1112 4133 Pls
1112 4132 Pls
1112 4132 Pls
1113 4131 Pls
1113 4131 Pls
1113 4130 Pls
1113 4129 Pls
1114 4129 Pls
1114 4128 Pls
1114 4127 Pls
1114 4127 Pls
1114 4126 Pls
1114 4126 Pls
1114 4125 Pls
1114 4124 Pls
1115 4124 Pls
1115 4123 Pls
1115 4123 Pls
1115 4122 Pls
1115 4121 Pls
1115 4121 Pls
1115 4120 Pls
1116 4119 Pls
1116 4119 Pls
1116 4118 Pls
1116 4118 Pls
1116 4117 Pls
1116 4116 Pls
1116 4115 Pls
1117 4114 Pls
1117 4114 Pls
1117 4113 Pls
1118 4112 Pls
1118 4112 Pls
1118 4111 Pls
1118 4111 Pls
1118 4110 Pls
1118 4109 Pls
1119 4109 Pls
1119 4107 Pls
1120 4107 Pls
1120 4106 Pls
1120 4105 Pls
1120 4105 Pls
1121 4104 Pls
1121 4104 Pls
1122 4103 Pls
1122 4102 Pls
1123 4102 Pls
1123 4101 Pls
1124 4100 Pls
1124 4100 Pls
1124 4099 Pls
1124 4098 Pls
1124 4098 Pls
1124 4097 Pls
1125 4096 Pls
1125 4096 Pls
1125 4095 Pls
1125 4094 Pls
1125 4094 Pls
1125 4093 Pls
1125 4092 Pls
1125 4092 Pls
1125 4091 Pls
1126 4090 Pls
1127 4090 Pls
1128 4089 Pls
1128 4088 Pls
1129 4088 Pls
1129 4087 Pls
1129 4086 Pls
1129 4086 Pls
1130 4085 Pls
1131 4084 Pls
1131 4084 Pls
1131 4083 Pls
1132 4082 Pls
1132 4082 Pls
1132 4081 Pls
1132 4080 Pls
1132 4080 Pls
1132 4079 Pls
1133 4078 Pls
1133 4078 Pls
1135 4077 Pls
1135 4076 Pls
1136 4076 Pls
1136 4075 Pls
1137 4074 Pls
1138 4074 Pls
1138 4073 Pls
1138 4072 Pls
1138 4072 Pls
1139 4071 Pls
1140 4070 Pls
1140 4069 Pls
1141 4069 Pls
1141 4068 Pls
1142 4067 Pls
1142 4067 Pls
1142 4066 Pls
1144 4065 Pls
1145 4065 Pls
1145 4064 Pls
1145 4063 Pls
1145 4062 Pls
1146 4062 Pls
1147 4061 Pls
1147 4060 Pls
1147 4060 Pls
1149 4059 Pls
1151 4058 Pls
1151 4058 Pls
1151 4057 Pls
1152 4056 Pls
1152 4055 Pls
1153 4055 Pls
1153 4054 Pls
1154 4053 Pls
1155 4053 Pls
1156 4052 Pls
1157 4051 Pls
1157 4050 Pls
1157 4050 Pls
1157 4049 Pls
1157 4048 Pls
1157 4048 Pls
1158 4047 Pls
1158 4046 Pls
1159 4045 Pls
1160 4045 Pls
1160 4044 Pls
1160 4043 Pls
1161 4042 Pls
1161 4042 Pls
1162 4041 Pls
1163 4040 Pls
1164 4040 Pls
1164 4039 Pls
1164 4038 Pls
1164 4037 Pls
1167 4037 Pls
1168 4036 Pls
1168 4035 Pls
1168 4034 Pls
1168 4034 Pls
1179 4033 Pls
1180 4032 Pls
1180 4031 Pls
1181 4031 Pls
1182 4030 Pls
1183 4028 Pls
1183 4028 Pls
1185 4027 Pls
1186 4026 Pls
1186 4025 Pls
1186 4025 Pls
1186 4024 Pls
1187 4023 Pls
1188 4022 Pls
1188 4022 Pls
1188 4021 Pls
1189 4020 Pls
1189 4019 Pls
1189 4019 Pls
1190 4018 Pls
1191 4017 Pls
1191 4016 Pls
1191 4015 Pls
1194 4015 Pls
1194 4014 Pls
1195 4013 Pls
1195 4012 Pls
1196 4012 Pls
1197 4011 Pls
1197 4010 Pls
1198 4009 Pls
1199 4008 Pls
1199 4008 Pls
1200 4007 Pls
1200 4006 Pls
1200 4005 Pls
1201 4005 Pls
1201 4004 Pls
1201 4003 Pls
1201 4002 Pls
1201 4001 Pls
1202 4001 Pls
1203 4000 Pls
1203 3999 Pls
1204 3998 Pls
1204 3997 Pls
1204 3997 Pls
1204 3996 Pls
1205 3995 Pls
1206 3994 Pls
1206 3993 Pls
1206 3993 Pls
1207 3992 Pls
1207 3991 Pls
1208 3990 Pls
1209 3989 Pls
1210 3989 Pls
1210 3988 Pls
1210 3987 Pls
1212 3986 Pls
1212 3985 Pls
1213 3984 Pls
1214 3984 Pls
1214 3983 Pls
1215 3982 Pls
1215 3981 Pls
1216 3980 Pls
1216 3980 Pls
1218 3979 Pls
1218 3978 Pls
1220 3977 Pls
1220 3976 Pls
1220 3975 Pls
1221 3975 Pls
1221 3973 Pls
1221 3972 Pls
1222 3971 Pls
1223 3970 Pls
1223 3969 Pls
1225 3969 Pls
1225 3968 Pls
1228 3967 Pls
1228 3966 Pls
1229 3965 Pls
1229 3964 Pls
1230 3964 Pls
1230 3963 Pls
1230 3962 Pls
1231 3961 Pls
1231 3960 Pls
1232 3959 Pls
1232 3958 Pls
1233 3958 Pls
1233 3957 Pls
1234 3956 Pls
1235 3955 Pls
1235 3954 Pls
1236 3953 Pls
1236 3952 Pls
1236 3951 Pls
1237 3951 Pls
1237 3950 Pls
1238 3949 Pls
1238 3948 Pls
1239 3947 Pls
1239 3946 Pls
1239 3945 Pls
1239 3944 Pls
1240 3943 Pls
1240 3943 Pls
1240 3942 Pls
1241 3941 Pls
1242 3940 Pls
1244 3939 Pls
1244 3938 Pls
1244 3937 Pls
1244 3936 Pls
1244 3935 Pls
1244 3935 Pls
1246 3934 Pls
1246 3933 Pls
1247 3932 Pls
1247 3931 Pls
1247 3930 Pls
1248 3929 Pls
1249 3928 Pls
1249 3927 Pls
1249 3926 Pls
1250 3925 Pls
1250 3924 Pls
1250 3924 Pls
1251 3923 Pls
1252 3922 Pls
1253 3921 Pls
1253 3920 Pls
1253 3919 Pls
1254 3918 Pls
1255 3917 Pls
1255 3916 Pls
1256 3915 Pls
1257 3914 Pls
1258 3913 Pls
1259 3912 Pls
1259 3911 Pls
1260 3910 Pls
1260 3909 Pls
1261 3908 Pls
1262 3908 Pls
1262 3907 Pls
1262 3906 Pls
1263 3905 Pls
1263 3904 Pls
1263 3903 Pls
1263 3902 Pls
1264 3901 Pls
1264 3900 Pls
1264 3899 Pls
1265 3898 Pls
1265 3897 Pls
1265 3896 Pls
1266 3895 Pls
1266 3894 Pls
1266 3893 Pls
1266 3892 Pls
1266 3891 Pls
1268 3890 Pls
1269 3889 Pls
1270 3888 Pls
1272 3887 Pls
1273 3886 Pls
1273 3885 Pls
1274 3884 Pls
1274 3883 Pls
1275 3882 Pls
1276 3881 Pls
1276 3880 Pls
1277 3878 Pls
1277 3877 Pls
1277 3876 Pls
1278 3875 Pls
1278 3874 Pls
1278 3873 Pls
1279 3872 Pls
1279 3871 Pls
1279 3870 Pls
1279 3869 Pls
1280 3868 Pls
1280 3867 Pls
1281 3866 Pls
1281 3865 Pls
1281 3864 Pls
1281 3862 Pls
1282 3861 Pls
1282 3860 Pls
1283 3859 Pls
1283 3858 Pls
1284 3857 Pls
1284 3856 Pls
1285 3855 Pls
1285 3854 Pls
1286 3853 Pls
1286 3852 Pls
1286 3851 Pls
1286 3850 Pls
1287 3849 Pls
1288 3848 Pls
1289 3847 Pls
1290 3845 Pls
1290 3844 Pls
1290 3843 Pls
1291 3842 Pls
1291 3841 Pls
1291 3840 Pls
1291 3839 Pls
1292 3838 Pls
1292 3837 Pls
1293 3836 Pls
1293 3834 Pls
1293 3833 Pls
1294 3832 Pls
1294 3831 Pls
1294 3830 Pls
1295 3829 Pls
1298 3828 Pls
1299 3827 Pls
1299 3826 Pls
1299 3824 Pls
1299 3823 Pls
1300 3822 Pls
1301 3821 Pls
1302 3820 Pls
1302 3819 Pls
1303 3818 Pls
1303 3816 Pls
1303 3815 Pls
1304 3814 Pls
1304 3813 Pls
1305 3812 Pls
1305 3811 Pls
1305 3809 Pls
1306 3808 Pls
1307 3807 Pls
1307 3806 Pls
1307 3805 Pls
1307 3804 Pls
1308 3802 Pls
1309 3801 Pls
1309 3800 Pls
1311 3799 Pls
1311 3798 Pls
1313 3797 Pls
1314 3795 Pls
1314 3794 Pls
1315 3793 Pls
1316 3792 Pls
1316 3791 Pls
1316 3789 Pls
1317 3788 Pls
1318 3787 Pls
1319 3786 Pls
1319 3783 Pls
1320 3782 Pls
1320 3781 Pls
1321 3779 Pls
1325 3778 Pls
1326 3777 Pls
1326 3776 Pls
1329 3775 Pls
1330 3773 Pls
1331 3772 Pls
1331 3771 Pls
1332 3769 Pls
1333 3768 Pls
1335 3767 Pls
1335 3766 Pls
1335 3764 Pls
1337 3763 Pls
1338 3762 Pls
1339 3761 Pls
1339 3759 Pls
1340 3758 Pls
1340 3757 Pls
1340 3755 Pls
1340 3754 Pls
1340 3753 Pls
1341 3752 Pls
1342 3750 Pls
1343 3749 Pls
1343 3748 Pls
1343 3746 Pls
1344 3745 Pls
1345 3744 Pls
1346 3742 Pls
1346 3741 Pls
1349 3740 Pls
1350 3738 Pls
1352 3737 Pls
1352 3736 Pls
1354 3734 Pls
1355 3733 Pls
1359 3731 Pls
1362 3730 Pls
1363 3729 Pls
1364 3727 Pls
1364 3726 Pls
1364 3725 Pls
1366 3723 Pls
1366 3722 Pls
1367 3720 Pls
1368 3719 Pls
1372 3718 Pls
1374 3716 Pls
1375 3715 Pls
1379 3713 Pls
1380 3712 Pls
1382 3711 Pls
1382 3709 Pls
1383 3708 Pls
1383 3706 Pls
1386 3705 Pls
1386 3703 Pls
1388 3702 Pls
1388 3701 Pls
1390 3699 Pls
1390 3698 Pls
1391 3696 Pls
1391 3695 Pls
1392 3693 Pls
1393 3692 Pls
1393 3690 Pls
1393 3689 Pls
1393 3687 Pls
1394 3686 Pls
1397 3684 Pls
1398 3683 Pls
1399 3681 Pls
1400 3680 Pls
1403 3678 Pls
1406 3677 Pls
1407 3675 Pls
1407 3674 Pls
1407 3672 Pls
1409 3671 Pls
1410 3669 Pls
1411 3668 Pls
1411 3666 Pls
1413 3665 Pls
1413 3663 Pls
1415 3661 Pls
1415 3660 Pls
1415 3658 Pls
1415 3657 Pls
1419 3655 Pls
1420 3654 Pls
1421 3652 Pls
1422 3650 Pls
1425 3649 Pls
1426 3647 Pls
1427 3645 Pls
1432 3644 Pls
1432 3642 Pls
1435 3641 Pls
1437 3639 Pls
1439 3637 Pls
1439 3636 Pls
1439 3634 Pls
1440 3632 Pls
1441 3631 Pls
1441 3629 Pls
1445 3627 Pls
1446 3626 Pls
1449 3624 Pls
1449 3622 Pls
1450 3621 Pls
1451 3619 Pls
1453 3617 Pls
1453 3615 Pls
1457 3614 Pls
1457 3612 Pls
1457 3610 Pls
1457 3609 Pls
1460 3607 Pls
1461 3605 Pls
1462 3603 Pls
1466 3602 Pls
1467 3600 Pls
1470 3598 Pls
1474 3596 Pls
1478 3594 Pls
1479 3593 Pls
1479 3591 Pls
1481 3589 Pls
1482 3587 Pls
1483 3585 Pls
1490 3584 Pls
1496 3582 Pls
1498 3580 Pls
1499 3578 Pls
1500 3576 Pls
1501 3574 Pls
1503 3572 Pls
1505 3571 Pls
1508 3569 Pls
1510 3567 Pls
1511 3565 Pls
1513 3563 Pls
1513 3561 Pls
1516 3559 Pls
1517 3557 Pls
1517 3555 Pls
1518 3553 Pls
1519 3551 Pls
1521 3549 Pls
1522 3547 Pls
1525 3545 Pls
1527 3543 Pls
1527 3541 Pls
1530 3539 Pls
1532 3537 Pls
1534 3535 Pls
1535 3533 Pls
1536 3531 Pls
1538 3529 Pls
1538 3527 Pls
1539 3525 Pls
1541 3523 Pls
1541 3521 Pls
1542 3519 Pls
1543 3517 Pls
1543 3515 Pls
1543 3513 Pls
1545 3511 Pls
1548 3509 Pls
1549 3506 Pls
1550 3504 Pls
1551 3502 Pls
1553 3500 Pls
1556 3498 Pls
1557 3496 Pls
1559 3493 Pls
1559 3491 Pls
1560 3487 Pls
1562 3485 Pls
1564 3482 Pls
1566 3480 Pls
1568 3478 Pls
1568 3475 Pls
1569 3473 Pls
1575 3471 Pls
1577 3469 Pls
1580 3466 Pls
1581 3464 Pls
1583 3462 Pls
1586 3459 Pls
1587 3457 Pls
1589 3455 Pls
1589 3452 Pls
1590 3450 Pls
1592 3447 Pls
1593 3445 Pls
1596 3443 Pls
1597 3440 Pls
1598 3438 Pls
1598 3435 Pls
1598 3433 Pls
1599 3430 Pls
1599 3428 Pls
1601 3425 Pls
1606 3423 Pls
1607 3420 Pls
1610 3418 Pls
1611 3415 Pls
1611 3413 Pls
1612 3410 Pls
1612 3407 Pls
1613 3405 Pls
1615 3402 Pls
1617 3399 Pls
1618 3397 Pls
1620 3394 Pls
1621 3391 Pls
1621 3389 Pls
1623 3386 Pls
1625 3383 Pls
1625 3381 Pls
1628 3378 Pls
1630 3375 Pls
1633 3372 Pls
1633 3369 Pls
1636 3367 Pls
1637 3364 Pls
1640 3361 Pls
1641 3358 Pls
1643 3355 Pls
1649 3352 Pls
1652 3349 Pls
1653 3346 Pls
1654 3343 Pls
1659 3340 Pls
1659 3337 Pls
1662 3334 Pls
1663 3331 Pls
1663 3328 Pls
1664 3325 Pls
1665 3322 Pls
1665 3319 Pls
1666 3316 Pls
1666 3313 Pls
1667 3310 Pls
1671 3306 Pls
1674 3303 Pls
1675 3300 Pls
1678 3297 Pls
1681 3293 Pls
1682 3290 Pls
1690 3287 Pls
1691 3284 Pls
1693 3280 Pls
1695 3277 Pls
1695 3273 Pls
1696 3270 Pls
1698 3267 Pls
1700 3263 Pls
1701 3260 Pls
1702 3256 Pls
1703 3252 Pls
1703 3249 Pls
1707 3245 Pls
1710 3242 Pls
1715 3238 Pls
1715 3234 Pls
1719 3231 Pls
1720 3227 Pls
1720 3223 Pls
1722 3219 Pls
1725 3216 Pls
1725 3212 Pls
1727 3208 Pls
1729 3204 Pls
1730 3200 Pls
1731 3196 Pls
1738 3192 Pls
1743 3188 Pls
1745 3184 Pls
1746 3180 Pls
1747 3176 Pls
1747 3171 Pls
1748 3167 Pls
1752 3163 Pls
1753 3159 Pls
1755 3154 Pls
1759 3150 Pls
1764 3146 Pls
1766 3141 Pls
1767 3137 Pls
1767 3132 Pls
1767 3128 Pls
1768 3123 Pls
1772 3118 Pls
1774 3114 Pls
1776 3109 Pls
1780 3104 Pls
1783 3099 Pls
1787 3095 Pls
1788 3090 Pls
1788 3085 Pls
1793 3080 Pls
1795 3075 Pls
1796 3070 Pls
1807 3064 Pls
1808 3059 Pls
1809 3054 Pls
1814 3049 Pls
1814 3043 Pls
1815 3038 Pls
1818 3032 Pls
1824 3027 Pls
1826 3021 Pls
1827 3015 Pls
1829 3010 Pls
1836 3004 Pls
1843 2998 Pls
1847 2992 Pls
1849 2986 Pls
1854 2980 Pls
1855 2974 Pls
1860 2967 Pls
1866 2961 Pls
1868 2954 Pls
1871 2948 Pls
1873 2941 Pls
1878 2935 Pls
1886 2928 Pls
1888 2921 Pls
1890 2914 Pls
1896 2907 Pls
1899 2900 Pls
1906 2893 Pls
1906 2885 Pls
1908 2878 Pls
1910 2870 Pls
1910 2862 Pls
1912 2854 Pls
1915 2846 Pls
1929 2838 Pls
1935 2830 Pls
1937 2822 Pls
1938 2813 Pls
1938 2805 Pls
1943 2796 Pls
1943 2787 Pls
1955 2778 Pls
1956 2768 Pls
1965 2759 Pls
1967 2749 Pls
1974 2739 Pls
1975 2729 Pls
1995 2719 Pls
2005 2708 Pls
2006 2698 Pls
2040 2687 Pls
2054 2676 Pls
2059 2664 Pls
2096 2652 Pls
2114 2640 Pls
2115 2628 Pls
2170 2615 Pls
2170 2602 Pls
2207 2589 Pls
2235 2576 Pls
2237 2561 Pls
2248 2547 Pls
2251 2532 Pls
2257 2517 Pls
2281 2501 Pls
2285 2485 Pls
2286 2468 Pls
2286 2450 Pls
2317 2432 Pls
2376 2413 Pls
2377 2394 Pls
2426 2373 Pls
2431 2352 Pls
2484 2330 Pls
2486 2307 Pls
2499 2283 Pls
2530 2257 Pls
2543 2230 Pls
2588 2202 Pls
2656 2171 Pls
2689 2139 Pls
2718 2105 Pls
2748 2068 Pls
2786 2028 Pls
2820 1985 Pls
2825 1937 Pls
3010 1884 Pls
3016 1826 Pls
3025 1759 Pls
3970 1682 Pls
4053 1591 Pls
4256 1480 Pls
5258 1337 Pls
5406 1135 Pls
6348 789 Pls
% End plot #1
2.000 UL
LTb
LCb setrgbcolor
1.000 UL
LTB
LCb setrgbcolor
798 4871 N
798 280 L
6149 0 V
0 4591 V
-6149 0 V
Z stroke
1.000 UP
1.000 UL
LTb
LCb setrgbcolor
stroke
grestore
end
showpage
%%Trailer
%%DocumentFonts: Helvetica
%%Pages: 1
