%!PS-Adobe-2.0
%%Title: packets-uv-s-log-packets-s-ccdf-loglin.eps
%%Creator: gnuplot 5.0 patchlevel 3
%%CreationDate: Mon May 29 11:07:44 2017
%%DocumentFonts: (atend)
%%BoundingBox: 50 50 554 770
%%Orientation: Landscape
%%Pages: (atend)
%%EndComments
%%BeginProlog
/gnudict 256 dict def
gnudict begin
%
% The following true/false flags may be edited by hand if desired.
% The unit line width and grayscale image gamma correction may also be changed.
%
/Color true def
/Blacktext false def
/Solid false def
/Dashlength 1 def
/Landscape true def
/Level1 false def
/Level3 false def
/Rounded false def
/ClipToBoundingBox false def
/SuppressPDFMark false def
/TransparentPatterns false def
/gnulinewidth 5.000 def
/userlinewidth gnulinewidth def
/Gamma 1.0 def
/BackgroundColor {-1.000 -1.000 -1.000} def
%
/vshift -46 def
/dl1 {
  10.0 Dashlength userlinewidth gnulinewidth div mul mul mul
  Rounded { currentlinewidth 0.75 mul sub dup 0 le { pop 0.01 } if } if
} def
/dl2 {
  10.0 Dashlength userlinewidth gnulinewidth div mul mul mul
  Rounded { currentlinewidth 0.75 mul add } if
} def
/hpt_ 31.5 def
/vpt_ 31.5 def
/hpt hpt_ def
/vpt vpt_ def
/doclip {
  ClipToBoundingBox {
    newpath 50 50 moveto 554 50 lineto 554 770 lineto 50 770 lineto closepath
    clip
  } if
} def
%
% Gnuplot Prolog Version 5.1 (Oct 2015)
%
%/SuppressPDFMark true def
%
/M {moveto} bind def
/L {lineto} bind def
/R {rmoveto} bind def
/V {rlineto} bind def
/N {newpath moveto} bind def
/Z {closepath} bind def
/C {setrgbcolor} bind def
/f {rlineto fill} bind def
/g {setgray} bind def
/Gshow {show} def   % May be redefined later in the file to support UTF-8
/vpt2 vpt 2 mul def
/hpt2 hpt 2 mul def
/Lshow {currentpoint stroke M 0 vshift R 
	Blacktext {gsave 0 setgray textshow grestore} {textshow} ifelse} def
/Rshow {currentpoint stroke M dup stringwidth pop neg vshift R
	Blacktext {gsave 0 setgray textshow grestore} {textshow} ifelse} def
/Cshow {currentpoint stroke M dup stringwidth pop -2 div vshift R 
	Blacktext {gsave 0 setgray textshow grestore} {textshow} ifelse} def
/UP {dup vpt_ mul /vpt exch def hpt_ mul /hpt exch def
  /hpt2 hpt 2 mul def /vpt2 vpt 2 mul def} def
/DL {Color {setrgbcolor Solid {pop []} if 0 setdash}
 {pop pop pop 0 setgray Solid {pop []} if 0 setdash} ifelse} def
/BL {stroke userlinewidth 2 mul setlinewidth
	Rounded {1 setlinejoin 1 setlinecap} if} def
/AL {stroke userlinewidth 2 div setlinewidth
	Rounded {1 setlinejoin 1 setlinecap} if} def
/UL {dup gnulinewidth mul /userlinewidth exch def
	dup 1 lt {pop 1} if 10 mul /udl exch def} def
/PL {stroke userlinewidth setlinewidth
	Rounded {1 setlinejoin 1 setlinecap} if} def
3.8 setmiterlimit
% Classic Line colors (version 5.0)
/LCw {1 1 1} def
/LCb {0 0 0} def
/LCa {0 0 0} def
/LC0 {1 0 0} def
/LC1 {0 1 0} def
/LC2 {0 0 1} def
/LC3 {1 0 1} def
/LC4 {0 1 1} def
/LC5 {1 1 0} def
/LC6 {0 0 0} def
/LC7 {1 0.3 0} def
/LC8 {0.5 0.5 0.5} def
% Default dash patterns (version 5.0)
/LTB {BL [] LCb DL} def
/LTw {PL [] 1 setgray} def
/LTb {PL [] LCb DL} def
/LTa {AL [1 udl mul 2 udl mul] 0 setdash LCa setrgbcolor} def
/LT0 {PL [] LC0 DL} def
/LT1 {PL [2 dl1 3 dl2] LC1 DL} def
/LT2 {PL [1 dl1 1.5 dl2] LC2 DL} def
/LT3 {PL [6 dl1 2 dl2 1 dl1 2 dl2] LC3 DL} def
/LT4 {PL [1 dl1 2 dl2 6 dl1 2 dl2 1 dl1 2 dl2] LC4 DL} def
/LT5 {PL [4 dl1 2 dl2] LC5 DL} def
/LT6 {PL [1.5 dl1 1.5 dl2 1.5 dl1 1.5 dl2 1.5 dl1 6 dl2] LC6 DL} def
/LT7 {PL [3 dl1 3 dl2 1 dl1 3 dl2] LC7 DL} def
/LT8 {PL [2 dl1 2 dl2 2 dl1 6 dl2] LC8 DL} def
/SL {[] 0 setdash} def
/Pnt {stroke [] 0 setdash gsave 1 setlinecap M 0 0 V stroke grestore} def
/Dia {stroke [] 0 setdash 2 copy vpt add M
  hpt neg vpt neg V hpt vpt neg V
  hpt vpt V hpt neg vpt V closepath stroke
  Pnt} def
/Pls {stroke [] 0 setdash vpt sub M 0 vpt2 V
  currentpoint stroke M
  hpt neg vpt neg R hpt2 0 V stroke
 } def
/Box {stroke [] 0 setdash 2 copy exch hpt sub exch vpt add M
  0 vpt2 neg V hpt2 0 V 0 vpt2 V
  hpt2 neg 0 V closepath stroke
  Pnt} def
/Crs {stroke [] 0 setdash exch hpt sub exch vpt add M
  hpt2 vpt2 neg V currentpoint stroke M
  hpt2 neg 0 R hpt2 vpt2 V stroke} def
/TriU {stroke [] 0 setdash 2 copy vpt 1.12 mul add M
  hpt neg vpt -1.62 mul V
  hpt 2 mul 0 V
  hpt neg vpt 1.62 mul V closepath stroke
  Pnt} def
/Star {2 copy Pls Crs} def
/BoxF {stroke [] 0 setdash exch hpt sub exch vpt add M
  0 vpt2 neg V hpt2 0 V 0 vpt2 V
  hpt2 neg 0 V closepath fill} def
/TriUF {stroke [] 0 setdash vpt 1.12 mul add M
  hpt neg vpt -1.62 mul V
  hpt 2 mul 0 V
  hpt neg vpt 1.62 mul V closepath fill} def
/TriD {stroke [] 0 setdash 2 copy vpt 1.12 mul sub M
  hpt neg vpt 1.62 mul V
  hpt 2 mul 0 V
  hpt neg vpt -1.62 mul V closepath stroke
  Pnt} def
/TriDF {stroke [] 0 setdash vpt 1.12 mul sub M
  hpt neg vpt 1.62 mul V
  hpt 2 mul 0 V
  hpt neg vpt -1.62 mul V closepath fill} def
/DiaF {stroke [] 0 setdash vpt add M
  hpt neg vpt neg V hpt vpt neg V
  hpt vpt V hpt neg vpt V closepath fill} def
/Pent {stroke [] 0 setdash 2 copy gsave
  translate 0 hpt M 4 {72 rotate 0 hpt L} repeat
  closepath stroke grestore Pnt} def
/PentF {stroke [] 0 setdash gsave
  translate 0 hpt M 4 {72 rotate 0 hpt L} repeat
  closepath fill grestore} def
/Circle {stroke [] 0 setdash 2 copy
  hpt 0 360 arc stroke Pnt} def
/CircleF {stroke [] 0 setdash hpt 0 360 arc fill} def
/C0 {BL [] 0 setdash 2 copy moveto vpt 90 450 arc} bind def
/C1 {BL [] 0 setdash 2 copy moveto
	2 copy vpt 0 90 arc closepath fill
	vpt 0 360 arc closepath} bind def
/C2 {BL [] 0 setdash 2 copy moveto
	2 copy vpt 90 180 arc closepath fill
	vpt 0 360 arc closepath} bind def
/C3 {BL [] 0 setdash 2 copy moveto
	2 copy vpt 0 180 arc closepath fill
	vpt 0 360 arc closepath} bind def
/C4 {BL [] 0 setdash 2 copy moveto
	2 copy vpt 180 270 arc closepath fill
	vpt 0 360 arc closepath} bind def
/C5 {BL [] 0 setdash 2 copy moveto
	2 copy vpt 0 90 arc
	2 copy moveto
	2 copy vpt 180 270 arc closepath fill
	vpt 0 360 arc} bind def
/C6 {BL [] 0 setdash 2 copy moveto
	2 copy vpt 90 270 arc closepath fill
	vpt 0 360 arc closepath} bind def
/C7 {BL [] 0 setdash 2 copy moveto
	2 copy vpt 0 270 arc closepath fill
	vpt 0 360 arc closepath} bind def
/C8 {BL [] 0 setdash 2 copy moveto
	2 copy vpt 270 360 arc closepath fill
	vpt 0 360 arc closepath} bind def
/C9 {BL [] 0 setdash 2 copy moveto
	2 copy vpt 270 450 arc closepath fill
	vpt 0 360 arc closepath} bind def
/C10 {BL [] 0 setdash 2 copy 2 copy moveto vpt 270 360 arc closepath fill
	2 copy moveto
	2 copy vpt 90 180 arc closepath fill
	vpt 0 360 arc closepath} bind def
/C11 {BL [] 0 setdash 2 copy moveto
	2 copy vpt 0 180 arc closepath fill
	2 copy moveto
	2 copy vpt 270 360 arc closepath fill
	vpt 0 360 arc closepath} bind def
/C12 {BL [] 0 setdash 2 copy moveto
	2 copy vpt 180 360 arc closepath fill
	vpt 0 360 arc closepath} bind def
/C13 {BL [] 0 setdash 2 copy moveto
	2 copy vpt 0 90 arc closepath fill
	2 copy moveto
	2 copy vpt 180 360 arc closepath fill
	vpt 0 360 arc closepath} bind def
/C14 {BL [] 0 setdash 2 copy moveto
	2 copy vpt 90 360 arc closepath fill
	vpt 0 360 arc} bind def
/C15 {BL [] 0 setdash 2 copy vpt 0 360 arc closepath fill
	vpt 0 360 arc closepath} bind def
/Rec {newpath 4 2 roll moveto 1 index 0 rlineto 0 exch rlineto
	neg 0 rlineto closepath} bind def
/Square {dup Rec} bind def
/Bsquare {vpt sub exch vpt sub exch vpt2 Square} bind def
/S0 {BL [] 0 setdash 2 copy moveto 0 vpt rlineto BL Bsquare} bind def
/S1 {BL [] 0 setdash 2 copy vpt Square fill Bsquare} bind def
/S2 {BL [] 0 setdash 2 copy exch vpt sub exch vpt Square fill Bsquare} bind def
/S3 {BL [] 0 setdash 2 copy exch vpt sub exch vpt2 vpt Rec fill Bsquare} bind def
/S4 {BL [] 0 setdash 2 copy exch vpt sub exch vpt sub vpt Square fill Bsquare} bind def
/S5 {BL [] 0 setdash 2 copy 2 copy vpt Square fill
	exch vpt sub exch vpt sub vpt Square fill Bsquare} bind def
/S6 {BL [] 0 setdash 2 copy exch vpt sub exch vpt sub vpt vpt2 Rec fill Bsquare} bind def
/S7 {BL [] 0 setdash 2 copy exch vpt sub exch vpt sub vpt vpt2 Rec fill
	2 copy vpt Square fill Bsquare} bind def
/S8 {BL [] 0 setdash 2 copy vpt sub vpt Square fill Bsquare} bind def
/S9 {BL [] 0 setdash 2 copy vpt sub vpt vpt2 Rec fill Bsquare} bind def
/S10 {BL [] 0 setdash 2 copy vpt sub vpt Square fill 2 copy exch vpt sub exch vpt Square fill
	Bsquare} bind def
/S11 {BL [] 0 setdash 2 copy vpt sub vpt Square fill 2 copy exch vpt sub exch vpt2 vpt Rec fill
	Bsquare} bind def
/S12 {BL [] 0 setdash 2 copy exch vpt sub exch vpt sub vpt2 vpt Rec fill Bsquare} bind def
/S13 {BL [] 0 setdash 2 copy exch vpt sub exch vpt sub vpt2 vpt Rec fill
	2 copy vpt Square fill Bsquare} bind def
/S14 {BL [] 0 setdash 2 copy exch vpt sub exch vpt sub vpt2 vpt Rec fill
	2 copy exch vpt sub exch vpt Square fill Bsquare} bind def
/S15 {BL [] 0 setdash 2 copy Bsquare fill Bsquare} bind def
/D0 {gsave translate 45 rotate 0 0 S0 stroke grestore} bind def
/D1 {gsave translate 45 rotate 0 0 S1 stroke grestore} bind def
/D2 {gsave translate 45 rotate 0 0 S2 stroke grestore} bind def
/D3 {gsave translate 45 rotate 0 0 S3 stroke grestore} bind def
/D4 {gsave translate 45 rotate 0 0 S4 stroke grestore} bind def
/D5 {gsave translate 45 rotate 0 0 S5 stroke grestore} bind def
/D6 {gsave translate 45 rotate 0 0 S6 stroke grestore} bind def
/D7 {gsave translate 45 rotate 0 0 S7 stroke grestore} bind def
/D8 {gsave translate 45 rotate 0 0 S8 stroke grestore} bind def
/D9 {gsave translate 45 rotate 0 0 S9 stroke grestore} bind def
/D10 {gsave translate 45 rotate 0 0 S10 stroke grestore} bind def
/D11 {gsave translate 45 rotate 0 0 S11 stroke grestore} bind def
/D12 {gsave translate 45 rotate 0 0 S12 stroke grestore} bind def
/D13 {gsave translate 45 rotate 0 0 S13 stroke grestore} bind def
/D14 {gsave translate 45 rotate 0 0 S14 stroke grestore} bind def
/D15 {gsave translate 45 rotate 0 0 S15 stroke grestore} bind def
/DiaE {stroke [] 0 setdash vpt add M
  hpt neg vpt neg V hpt vpt neg V
  hpt vpt V hpt neg vpt V closepath stroke} def
/BoxE {stroke [] 0 setdash exch hpt sub exch vpt add M
  0 vpt2 neg V hpt2 0 V 0 vpt2 V
  hpt2 neg 0 V closepath stroke} def
/TriUE {stroke [] 0 setdash vpt 1.12 mul add M
  hpt neg vpt -1.62 mul V
  hpt 2 mul 0 V
  hpt neg vpt 1.62 mul V closepath stroke} def
/TriDE {stroke [] 0 setdash vpt 1.12 mul sub M
  hpt neg vpt 1.62 mul V
  hpt 2 mul 0 V
  hpt neg vpt -1.62 mul V closepath stroke} def
/PentE {stroke [] 0 setdash gsave
  translate 0 hpt M 4 {72 rotate 0 hpt L} repeat
  closepath stroke grestore} def
/CircE {stroke [] 0 setdash 
  hpt 0 360 arc stroke} def
/Opaque {gsave closepath 1 setgray fill grestore 0 setgray closepath} def
/DiaW {stroke [] 0 setdash vpt add M
  hpt neg vpt neg V hpt vpt neg V
  hpt vpt V hpt neg vpt V Opaque stroke} def
/BoxW {stroke [] 0 setdash exch hpt sub exch vpt add M
  0 vpt2 neg V hpt2 0 V 0 vpt2 V
  hpt2 neg 0 V Opaque stroke} def
/TriUW {stroke [] 0 setdash vpt 1.12 mul add M
  hpt neg vpt -1.62 mul V
  hpt 2 mul 0 V
  hpt neg vpt 1.62 mul V Opaque stroke} def
/TriDW {stroke [] 0 setdash vpt 1.12 mul sub M
  hpt neg vpt 1.62 mul V
  hpt 2 mul 0 V
  hpt neg vpt -1.62 mul V Opaque stroke} def
/PentW {stroke [] 0 setdash gsave
  translate 0 hpt M 4 {72 rotate 0 hpt L} repeat
  Opaque stroke grestore} def
/CircW {stroke [] 0 setdash 
  hpt 0 360 arc Opaque stroke} def
/BoxFill {gsave Rec 1 setgray fill grestore} def
/Density {
  /Fillden exch def
  currentrgbcolor
  /ColB exch def /ColG exch def /ColR exch def
  /ColR ColR Fillden mul Fillden sub 1 add def
  /ColG ColG Fillden mul Fillden sub 1 add def
  /ColB ColB Fillden mul Fillden sub 1 add def
  ColR ColG ColB setrgbcolor} def
/BoxColFill {gsave Rec PolyFill} def
/PolyFill {gsave Density fill grestore grestore} def
/h {rlineto rlineto rlineto gsave closepath fill grestore} bind def
%
% PostScript Level 1 Pattern Fill routine for rectangles
% Usage: x y w h s a XX PatternFill
%	x,y = lower left corner of box to be filled
%	w,h = width and height of box
%	  a = angle in degrees between lines and x-axis
%	 XX = 0/1 for no/yes cross-hatch
%
/PatternFill {gsave /PFa [ 9 2 roll ] def
  PFa 0 get PFa 2 get 2 div add PFa 1 get PFa 3 get 2 div add translate
  PFa 2 get -2 div PFa 3 get -2 div PFa 2 get PFa 3 get Rec
  TransparentPatterns {} {gsave 1 setgray fill grestore} ifelse
  clip
  currentlinewidth 0.5 mul setlinewidth
  /PFs PFa 2 get dup mul PFa 3 get dup mul add sqrt def
  0 0 M PFa 5 get rotate PFs -2 div dup translate
  0 1 PFs PFa 4 get div 1 add floor cvi
	{PFa 4 get mul 0 M 0 PFs V} for
  0 PFa 6 get ne {
	0 1 PFs PFa 4 get div 1 add floor cvi
	{PFa 4 get mul 0 2 1 roll M PFs 0 V} for
 } if
  stroke grestore} def
%
/languagelevel where
 {pop languagelevel} {1} ifelse
dup 2 lt
	{/InterpretLevel1 true def
	 /InterpretLevel3 false def}
	{/InterpretLevel1 Level1 def
	 2 gt
	    {/InterpretLevel3 Level3 def}
	    {/InterpretLevel3 false def}
	 ifelse }
 ifelse
%
% PostScript level 2 pattern fill definitions
%
/Level2PatternFill {
/Tile8x8 {/PaintType 2 /PatternType 1 /TilingType 1 /BBox [0 0 8 8] /XStep 8 /YStep 8}
	bind def
/KeepColor {currentrgbcolor [/Pattern /DeviceRGB] setcolorspace} bind def
<< Tile8x8
 /PaintProc {0.5 setlinewidth pop 0 0 M 8 8 L 0 8 M 8 0 L stroke} 
>> matrix makepattern
/Pat1 exch def
<< Tile8x8
 /PaintProc {0.5 setlinewidth pop 0 0 M 8 8 L 0 8 M 8 0 L stroke
	0 4 M 4 8 L 8 4 L 4 0 L 0 4 L stroke}
>> matrix makepattern
/Pat2 exch def
<< Tile8x8
 /PaintProc {0.5 setlinewidth pop 0 0 M 0 8 L
	8 8 L 8 0 L 0 0 L fill}
>> matrix makepattern
/Pat3 exch def
<< Tile8x8
 /PaintProc {0.5 setlinewidth pop -4 8 M 8 -4 L
	0 12 M 12 0 L stroke}
>> matrix makepattern
/Pat4 exch def
<< Tile8x8
 /PaintProc {0.5 setlinewidth pop -4 0 M 8 12 L
	0 -4 M 12 8 L stroke}
>> matrix makepattern
/Pat5 exch def
<< Tile8x8
 /PaintProc {0.5 setlinewidth pop -2 8 M 4 -4 L
	0 12 M 8 -4 L 4 12 M 10 0 L stroke}
>> matrix makepattern
/Pat6 exch def
<< Tile8x8
 /PaintProc {0.5 setlinewidth pop -2 0 M 4 12 L
	0 -4 M 8 12 L 4 -4 M 10 8 L stroke}
>> matrix makepattern
/Pat7 exch def
<< Tile8x8
 /PaintProc {0.5 setlinewidth pop 8 -2 M -4 4 L
	12 0 M -4 8 L 12 4 M 0 10 L stroke}
>> matrix makepattern
/Pat8 exch def
<< Tile8x8
 /PaintProc {0.5 setlinewidth pop 0 -2 M 12 4 L
	-4 0 M 12 8 L -4 4 M 8 10 L stroke}
>> matrix makepattern
/Pat9 exch def
/Pattern1 {PatternBgnd KeepColor Pat1 setpattern} bind def
/Pattern2 {PatternBgnd KeepColor Pat2 setpattern} bind def
/Pattern3 {PatternBgnd KeepColor Pat3 setpattern} bind def
/Pattern4 {PatternBgnd KeepColor Landscape {Pat5} {Pat4} ifelse setpattern} bind def
/Pattern5 {PatternBgnd KeepColor Landscape {Pat4} {Pat5} ifelse setpattern} bind def
/Pattern6 {PatternBgnd KeepColor Landscape {Pat9} {Pat6} ifelse setpattern} bind def
/Pattern7 {PatternBgnd KeepColor Landscape {Pat8} {Pat7} ifelse setpattern} bind def
} def
%
%
%End of PostScript Level 2 code
%
/PatternBgnd {
  TransparentPatterns {} {gsave 1 setgray fill grestore} ifelse
} def
%
% Substitute for Level 2 pattern fill codes with
% grayscale if Level 2 support is not selected.
%
/Level1PatternFill {
/Pattern1 {0.250 Density} bind def
/Pattern2 {0.500 Density} bind def
/Pattern3 {0.750 Density} bind def
/Pattern4 {0.125 Density} bind def
/Pattern5 {0.375 Density} bind def
/Pattern6 {0.625 Density} bind def
/Pattern7 {0.875 Density} bind def
} def
%
% Now test for support of Level 2 code
%
Level1 {Level1PatternFill} {Level2PatternFill} ifelse
%
/Symbol-Oblique /Symbol findfont [1 0 .167 1 0 0] makefont
dup length dict begin {1 index /FID eq {pop pop} {def} ifelse} forall
currentdict end definefont pop
%
/MFshow {
   { dup 5 get 3 ge
     { 5 get 3 eq {gsave} {grestore} ifelse }
     {dup dup 0 get findfont exch 1 get scalefont setfont
     [ currentpoint ] exch dup 2 get 0 exch R dup 5 get 2 ne {dup dup 6
     get exch 4 get {textshow} {stringwidth pop 0 R} ifelse }if dup 5 get 0 eq
     {dup 3 get {2 get neg 0 exch R pop} {pop aload pop M} ifelse} {dup 5
     get 1 eq {dup 2 get exch dup 3 get exch 6 get stringwidth pop -2 div
     dup 0 R} {dup 6 get stringwidth pop -2 div 0 R 6 get
     textshow 2 index {aload pop M neg 3 -1 roll neg R pop pop} {pop pop pop
     pop aload pop M} ifelse }ifelse }ifelse }
     ifelse }
   forall} def
/Gswidth {dup type /stringtype eq {stringwidth} {pop (n) stringwidth} ifelse} def
/MFwidth {0 exch { dup 5 get 3 ge { 5 get 3 eq { 0 } { pop } ifelse }
 {dup 3 get{dup dup 0 get findfont exch 1 get scalefont setfont
     6 get Gswidth pop add} {pop} ifelse} ifelse} forall} def
/MLshow { currentpoint stroke M
  0 exch R
  Blacktext {gsave 0 setgray MFshow grestore} {MFshow} ifelse } bind def
/MRshow { currentpoint stroke M
  exch dup MFwidth neg 3 -1 roll R
  Blacktext {gsave 0 setgray MFshow grestore} {MFshow} ifelse } bind def
/MCshow { currentpoint stroke M
  exch dup MFwidth -2 div 3 -1 roll R
  Blacktext {gsave 0 setgray MFshow grestore} {MFshow} ifelse } bind def
/XYsave    { [( ) 1 2 true false 3 ()] } bind def
/XYrestore { [( ) 1 2 true false 4 ()] } bind def
Level1 SuppressPDFMark or 
{} {
/SDict 10 dict def
systemdict /pdfmark known not {
  userdict /pdfmark systemdict /cleartomark get put
} if
SDict begin [
  /Title (packets-uv-s-log-packets-s-ccdf-loglin.eps)
  /Subject (gnuplot plot)
  /Creator (gnuplot 5.0 patchlevel 3)
  /Author (tiphaine)
%  /Producer (gnuplot)
%  /Keywords ()
  /CreationDate (Mon May 29 11:07:44 2017)
  /DOCINFO pdfmark
end
} ifelse
%
% Support for boxed text - Ethan A Merritt May 2005
%
/InitTextBox { userdict /TBy2 3 -1 roll put userdict /TBx2 3 -1 roll put
           userdict /TBy1 3 -1 roll put userdict /TBx1 3 -1 roll put
	   /Boxing true def } def
/ExtendTextBox { Boxing
    { gsave dup false charpath pathbbox
      dup TBy2 gt {userdict /TBy2 3 -1 roll put} {pop} ifelse
      dup TBx2 gt {userdict /TBx2 3 -1 roll put} {pop} ifelse
      dup TBy1 lt {userdict /TBy1 3 -1 roll put} {pop} ifelse
      dup TBx1 lt {userdict /TBx1 3 -1 roll put} {pop} ifelse
      grestore } if } def
/PopTextBox { newpath TBx1 TBxmargin sub TBy1 TBymargin sub M
               TBx1 TBxmargin sub TBy2 TBymargin add L
	       TBx2 TBxmargin add TBy2 TBymargin add L
	       TBx2 TBxmargin add TBy1 TBymargin sub L closepath } def
/DrawTextBox { PopTextBox stroke /Boxing false def} def
/FillTextBox { gsave PopTextBox 1 1 1 setrgbcolor fill grestore /Boxing false def} def
0 0 0 0 InitTextBox
/TBxmargin 20 def
/TBymargin 20 def
/Boxing false def
/textshow { ExtendTextBox Gshow } def
%
% redundant definitions for compatibility with prologue.ps older than 5.0.2
/LTB {BL [] LCb DL} def
/LTb {PL [] LCb DL} def
end
%%EndProlog
%%Page: 1 1
gnudict begin
gsave
doclip
50 50 translate
0.100 0.100 scale
90 rotate
0 -5040 translate
0 setgray
newpath
(Helvetica) findfont 140 scalefont setfont
BackgroundColor 0 lt 3 1 roll 0 lt exch 0 lt or or not {gsave BackgroundColor C clippath fill grestore} if
1.000 UL
LTb
LCb setrgbcolor
630 280 M
63 0 V
6254 0 R
-63 0 V
stroke
546 280 M
[ [(Helvetica) 140.0 0.0 true true 0 ( 0)]
] -46.7 MRshow
1.000 UL
LTb
LCb setrgbcolor
630 854 M
63 0 V
6254 0 R
-63 0 V
stroke
546 854 M
[ [(Helvetica) 140.0 0.0 true true 0 ( 0.05)]
] -46.7 MRshow
1.000 UL
LTb
LCb setrgbcolor
630 1428 M
63 0 V
6254 0 R
-63 0 V
stroke
546 1428 M
[ [(Helvetica) 140.0 0.0 true true 0 ( 0.1)]
] -46.7 MRshow
1.000 UL
LTb
LCb setrgbcolor
630 2002 M
63 0 V
6254 0 R
-63 0 V
stroke
546 2002 M
[ [(Helvetica) 140.0 0.0 true true 0 ( 0.15)]
] -46.7 MRshow
1.000 UL
LTb
LCb setrgbcolor
630 2576 M
63 0 V
6254 0 R
-63 0 V
stroke
546 2576 M
[ [(Helvetica) 140.0 0.0 true true 0 ( 0.2)]
] -46.7 MRshow
1.000 UL
LTb
LCb setrgbcolor
630 3149 M
63 0 V
6254 0 R
-63 0 V
stroke
546 3149 M
[ [(Helvetica) 140.0 0.0 true true 0 ( 0.25)]
] -46.7 MRshow
1.000 UL
LTb
LCb setrgbcolor
630 3723 M
63 0 V
6254 0 R
-63 0 V
stroke
546 3723 M
[ [(Helvetica) 140.0 0.0 true true 0 ( 0.3)]
] -46.7 MRshow
1.000 UL
LTb
LCb setrgbcolor
630 4297 M
63 0 V
6254 0 R
-63 0 V
stroke
546 4297 M
[ [(Helvetica) 140.0 0.0 true true 0 ( 0.35)]
] -46.7 MRshow
1.000 UL
LTb
LCb setrgbcolor
630 4871 M
63 0 V
6254 0 R
-63 0 V
stroke
546 4871 M
[ [(Helvetica) 140.0 0.0 true true 0 ( 0.4)]
] -46.7 MRshow
1.000 UL
LTb
LCb setrgbcolor
630 280 M
0 63 V
0 4528 R
0 -63 V
stroke
630 140 M
[ [(Helvetica) 140.0 0.0 true true 0 ( 10000)]
] -46.7 MCshow
1.000 UL
LTb
LCb setrgbcolor
1581 280 M
0 31 V
0 4560 R
0 -31 V
2137 280 M
0 31 V
0 4560 R
0 -31 V
2532 280 M
0 31 V
0 4560 R
0 -31 V
2838 280 M
0 31 V
0 4560 R
0 -31 V
3088 280 M
0 31 V
0 4560 R
0 -31 V
3299 280 M
0 31 V
0 4560 R
0 -31 V
3482 280 M
0 31 V
0 4560 R
0 -31 V
3644 280 M
0 31 V
0 4560 R
0 -31 V
3789 280 M
0 63 V
0 4528 R
0 -63 V
stroke
3789 140 M
[ [(Helvetica) 140.0 0.0 true true 0 ( 100000)]
] -46.7 MCshow
1.000 UL
LTb
LCb setrgbcolor
4739 280 M
0 31 V
0 4560 R
0 -31 V
5295 280 M
0 31 V
0 4560 R
0 -31 V
5690 280 M
0 31 V
0 4560 R
0 -31 V
5996 280 M
0 31 V
0 4560 R
0 -31 V
6246 280 M
0 31 V
0 4560 R
0 -31 V
6458 280 M
0 31 V
0 4560 R
0 -31 V
6641 280 M
0 31 V
0 4560 R
0 -31 V
6802 280 M
0 31 V
0 4560 R
0 -31 V
6947 280 M
0 63 V
0 4528 R
0 -63 V
stroke
6947 140 M
[ [(Helvetica) 140.0 0.0 true true 0 ( 1x10)]
[(Helvetica) 112.0 70.0 true true 0 (6)]
] -60.7 MCshow
1.000 UL
LTb
LCb setrgbcolor
1.000 UL
LTB
LCb setrgbcolor
630 4871 N
630 280 L
6317 0 V
0 4591 V
-6317 0 V
Z stroke
1.000 UP
1.000 UL
LTb
LCb setrgbcolor
% Begin plot #1
1.000 UP
1.000 UL
LTb
0.58 0.00 0.83 C 775 4552 Pls
864 4549 Pls
911 4546 Pls
930 4543 Pls
938 4539 Pls
940 4536 Pls
942 4533 Pls
944 4530 Pls
945 4527 Pls
952 4523 Pls
954 4520 Pls
958 4517 Pls
967 4514 Pls
973 4511 Pls
981 4508 Pls
983 4504 Pls
997 4501 Pls
1000 4498 Pls
1006 4495 Pls
1017 4492 Pls
1019 4488 Pls
1019 4485 Pls
1026 4482 Pls
1027 4479 Pls
1028 4476 Pls
1029 4472 Pls
1029 4469 Pls
1029 4466 Pls
1031 4463 Pls
1034 4460 Pls
1036 4457 Pls
1036 4450 Pls
1037 4447 Pls
1038 4444 Pls
1042 4441 Pls
1045 4437 Pls
1047 4434 Pls
1050 4431 Pls
1052 4428 Pls
1053 4425 Pls
1059 4421 Pls
1062 4418 Pls
1063 4415 Pls
1065 4412 Pls
1065 4409 Pls
1066 4406 Pls
1068 4402 Pls
1068 4399 Pls
1069 4396 Pls
1069 4393 Pls
1072 4390 Pls
1072 4386 Pls
1074 4383 Pls
1074 4380 Pls
1075 4374 Pls
1076 4370 Pls
1077 4367 Pls
1078 4364 Pls
1079 4361 Pls
1080 4358 Pls
1081 4355 Pls
1083 4351 Pls
1083 4348 Pls
1084 4345 Pls
1087 4342 Pls
1087 4339 Pls
1090 4335 Pls
1092 4332 Pls
1093 4329 Pls
1095 4326 Pls
1095 4323 Pls
1100 4319 Pls
1100 4316 Pls
1101 4313 Pls
1101 4310 Pls
1101 4307 Pls
1102 4304 Pls
1102 4300 Pls
1103 4297 Pls
1104 4294 Pls
1105 4291 Pls
1105 4288 Pls
1106 4284 Pls
1110 4281 Pls
1113 4278 Pls
1114 4275 Pls
1115 4272 Pls
1117 4268 Pls
1118 4265 Pls
1118 4262 Pls
1119 4259 Pls
1119 4256 Pls
1121 4252 Pls
1122 4249 Pls
1124 4246 Pls
1126 4243 Pls
1128 4240 Pls
1129 4237 Pls
1130 4233 Pls
1131 4230 Pls
1131 4227 Pls
1133 4224 Pls
1134 4217 Pls
1134 4214 Pls
1134 4211 Pls
1136 4208 Pls
1138 4205 Pls
1139 4201 Pls
1141 4198 Pls
1142 4195 Pls
1144 4192 Pls
1146 4189 Pls
1147 4186 Pls
1148 4182 Pls
1149 4179 Pls
1150 4176 Pls
1151 4173 Pls
1151 4170 Pls
1151 4166 Pls
1152 4163 Pls
1153 4160 Pls
1154 4157 Pls
1154 4154 Pls
1155 4150 Pls
1155 4147 Pls
1158 4141 Pls
1159 4138 Pls
1160 4135 Pls
1160 4131 Pls
1161 4128 Pls
1162 4125 Pls
1163 4122 Pls
1163 4119 Pls
1165 4115 Pls
1166 4112 Pls
1166 4109 Pls
1166 4106 Pls
1170 4103 Pls
1171 4099 Pls
1171 4096 Pls
1172 4093 Pls
1172 4090 Pls
1173 4087 Pls
1174 4084 Pls
1174 4080 Pls
1174 4077 Pls
1175 4074 Pls
1175 4071 Pls
1176 4068 Pls
1176 4061 Pls
1176 4058 Pls
1177 4055 Pls
1177 4052 Pls
1177 4048 Pls
1179 4045 Pls
1179 4042 Pls
1181 4039 Pls
1182 4036 Pls
1182 4032 Pls
1182 4029 Pls
1182 4026 Pls
1184 4023 Pls
1185 4020 Pls
1185 4017 Pls
1186 4013 Pls
1186 4010 Pls
1189 4007 Pls
1190 4004 Pls
1190 4001 Pls
1191 3997 Pls
1195 3994 Pls
1196 3991 Pls
1196 3988 Pls
1197 3981 Pls
1198 3978 Pls
1199 3975 Pls
1200 3972 Pls
1200 3969 Pls
1201 3966 Pls
1202 3962 Pls
1203 3959 Pls
1203 3956 Pls
1203 3953 Pls
1204 3950 Pls
1205 3946 Pls
1206 3943 Pls
1207 3940 Pls
1208 3937 Pls
1208 3934 Pls
1208 3930 Pls
1208 3924 Pls
1209 3921 Pls
1209 3918 Pls
1210 3915 Pls
1210 3911 Pls
1211 3908 Pls
1211 3905 Pls
1212 3902 Pls
1215 3899 Pls
1216 3895 Pls
1217 3892 Pls
1218 3889 Pls
1219 3886 Pls
1220 3883 Pls
1220 3879 Pls
1222 3876 Pls
1223 3873 Pls
1225 3870 Pls
1226 3867 Pls
1226 3864 Pls
1227 3860 Pls
1227 3857 Pls
1227 3854 Pls
1229 3851 Pls
1229 3848 Pls
1230 3844 Pls
1230 3841 Pls
1231 3838 Pls
1232 3835 Pls
1233 3832 Pls
1233 3828 Pls
1234 3825 Pls
1234 3822 Pls
1234 3819 Pls
1235 3816 Pls
1235 3809 Pls
1235 3806 Pls
1236 3803 Pls
1237 3800 Pls
1238 3797 Pls
1239 3793 Pls
1239 3790 Pls
1239 3787 Pls
1240 3784 Pls
1240 3781 Pls
1240 3777 Pls
1241 3774 Pls
1242 3771 Pls
1243 3768 Pls
1243 3762 Pls
1244 3758 Pls
1245 3755 Pls
1245 3752 Pls
1247 3749 Pls
1248 3742 Pls
1248 3739 Pls
1249 3736 Pls
1250 3733 Pls
1251 3730 Pls
1251 3726 Pls
1251 3723 Pls
1252 3720 Pls
1253 3717 Pls
1253 3714 Pls
1255 3710 Pls
1256 3704 Pls
1256 3701 Pls
1257 3698 Pls
1257 3695 Pls
1258 3691 Pls
1258 3688 Pls
1259 3685 Pls
1259 3682 Pls
1259 3679 Pls
1260 3675 Pls
1261 3672 Pls
1262 3669 Pls
1262 3666 Pls
1262 3663 Pls
1264 3656 Pls
1264 3653 Pls
1265 3650 Pls
1265 3647 Pls
1267 3644 Pls
1267 3640 Pls
1268 3637 Pls
1269 3634 Pls
1270 3631 Pls
1271 3628 Pls
1272 3624 Pls
1272 3621 Pls
1272 3618 Pls
1273 3615 Pls
1275 3612 Pls
1276 3608 Pls
1277 3605 Pls
1278 3602 Pls
1278 3599 Pls
1278 3596 Pls
1279 3593 Pls
1279 3589 Pls
1281 3586 Pls
1281 3583 Pls
1282 3580 Pls
1282 3577 Pls
1283 3573 Pls
1284 3570 Pls
1284 3567 Pls
1284 3564 Pls
1284 3561 Pls
1285 3557 Pls
1285 3554 Pls
1287 3551 Pls
1287 3548 Pls
1289 3545 Pls
1290 3542 Pls
1290 3538 Pls
1290 3535 Pls
1290 3529 Pls
1291 3526 Pls
1292 3522 Pls
1293 3519 Pls
1293 3516 Pls
1293 3513 Pls
1294 3510 Pls
1294 3506 Pls
1295 3503 Pls
1296 3500 Pls
1296 3497 Pls
1296 3494 Pls
1298 3491 Pls
1298 3487 Pls
1298 3484 Pls
1298 3481 Pls
1299 3478 Pls
1299 3475 Pls
1301 3471 Pls
1301 3468 Pls
1301 3465 Pls
1302 3462 Pls
1302 3459 Pls
1303 3455 Pls
1303 3452 Pls
1304 3449 Pls
1305 3446 Pls
1305 3443 Pls
1306 3440 Pls
1306 3436 Pls
1306 3433 Pls
1306 3430 Pls
1307 3427 Pls
1307 3424 Pls
1308 3420 Pls
1308 3417 Pls
1310 3414 Pls
1311 3411 Pls
1312 3408 Pls
1313 3404 Pls
1313 3401 Pls
1313 3398 Pls
1313 3395 Pls
1314 3392 Pls
1314 3388 Pls
1315 3385 Pls
1316 3382 Pls
1317 3379 Pls
1317 3376 Pls
1318 3373 Pls
1318 3369 Pls
1319 3366 Pls
1320 3363 Pls
1320 3360 Pls
1321 3357 Pls
1322 3353 Pls
1323 3350 Pls
1323 3347 Pls
1324 3344 Pls
1324 3341 Pls
1324 3337 Pls
1325 3331 Pls
1325 3328 Pls
1326 3325 Pls
1327 3322 Pls
1329 3318 Pls
1329 3315 Pls
1329 3312 Pls
1330 3309 Pls
1330 3306 Pls
1332 3302 Pls
1332 3299 Pls
1333 3296 Pls
1334 3293 Pls
1336 3290 Pls
1336 3286 Pls
1337 3283 Pls
1338 3280 Pls
1338 3274 Pls
1338 3271 Pls
1339 3267 Pls
1341 3264 Pls
1341 3261 Pls
1342 3258 Pls
1343 3255 Pls
1343 3251 Pls
1344 3248 Pls
1344 3245 Pls
1345 3242 Pls
1345 3239 Pls
1346 3235 Pls
1347 3232 Pls
1347 3229 Pls
1348 3226 Pls
1349 3223 Pls
1349 3220 Pls
1351 3216 Pls
1352 3213 Pls
1354 3210 Pls
1354 3207 Pls
1355 3204 Pls
1355 3200 Pls
1355 3197 Pls
1356 3194 Pls
1356 3191 Pls
1358 3184 Pls
1361 3181 Pls
1361 3178 Pls
1361 3175 Pls
1361 3172 Pls
1362 3169 Pls
1362 3165 Pls
1363 3159 Pls
1363 3156 Pls
1364 3149 Pls
1364 3146 Pls
1365 3143 Pls
1365 3140 Pls
1366 3137 Pls
1367 3133 Pls
1367 3130 Pls
1368 3127 Pls
1368 3124 Pls
1369 3121 Pls
1371 3117 Pls
1372 3114 Pls
1373 3111 Pls
1373 3108 Pls
1374 3105 Pls
1376 3102 Pls
1377 3098 Pls
1380 3095 Pls
1382 3092 Pls
1383 3089 Pls
1385 3086 Pls
1387 3082 Pls
1387 3079 Pls
1387 3076 Pls
1388 3073 Pls
1388 3070 Pls
1388 3066 Pls
1388 3063 Pls
1388 3060 Pls
1389 3057 Pls
1390 3054 Pls
1392 3051 Pls
1393 3047 Pls
1393 3044 Pls
1395 3041 Pls
1397 3038 Pls
1398 3035 Pls
1398 3031 Pls
1398 3028 Pls
1400 3025 Pls
1401 3022 Pls
1401 3019 Pls
1404 3015 Pls
1406 3012 Pls
1406 3009 Pls
1406 3006 Pls
1410 3003 Pls
1410 3000 Pls
1411 2996 Pls
1411 2993 Pls
1411 2990 Pls
1412 2987 Pls
1412 2984 Pls
1413 2980 Pls
1414 2977 Pls
1414 2974 Pls
1414 2971 Pls
1415 2968 Pls
1415 2961 Pls
1417 2958 Pls
1417 2955 Pls
1417 2952 Pls
1417 2949 Pls
1417 2945 Pls
1417 2942 Pls
1418 2933 Pls
1419 2929 Pls
1419 2926 Pls
1420 2923 Pls
1420 2917 Pls
1421 2913 Pls
1422 2907 Pls
1423 2904 Pls
1424 2901 Pls
1424 2898 Pls
1427 2894 Pls
1428 2891 Pls
1428 2888 Pls
1428 2885 Pls
1429 2882 Pls
1430 2878 Pls
1432 2875 Pls
1433 2872 Pls
1433 2869 Pls
1434 2866 Pls
1434 2862 Pls
1434 2859 Pls
1435 2856 Pls
1435 2853 Pls
1435 2850 Pls
1437 2846 Pls
1439 2843 Pls
1439 2840 Pls
1439 2837 Pls
1439 2834 Pls
1439 2831 Pls
1440 2827 Pls
1441 2824 Pls
1442 2821 Pls
1442 2818 Pls
1442 2815 Pls
1443 2811 Pls
1444 2808 Pls
1445 2805 Pls
1445 2799 Pls
1447 2795 Pls
1449 2792 Pls
1449 2789 Pls
1451 2786 Pls
1452 2783 Pls
1452 2780 Pls
1453 2776 Pls
1454 2773 Pls
1454 2770 Pls
1455 2767 Pls
1459 2760 Pls
1460 2757 Pls
1460 2754 Pls
1461 2751 Pls
1463 2748 Pls
1465 2744 Pls
1467 2741 Pls
1469 2738 Pls
1472 2735 Pls
1472 2732 Pls
1475 2729 Pls
1476 2725 Pls
1477 2722 Pls
1477 2719 Pls
1477 2716 Pls
1479 2713 Pls
1479 2709 Pls
1480 2706 Pls
1481 2703 Pls
1481 2700 Pls
1481 2697 Pls
1481 2693 Pls
1482 2690 Pls
1482 2687 Pls
1483 2684 Pls
1483 2681 Pls
1485 2678 Pls
1490 2674 Pls
1494 2671 Pls
1495 2668 Pls
1498 2665 Pls
1498 2662 Pls
1499 2658 Pls
1499 2655 Pls
1503 2652 Pls
1506 2649 Pls
1508 2646 Pls
1508 2642 Pls
1511 2639 Pls
1512 2636 Pls
1513 2633 Pls
1513 2630 Pls
1513 2627 Pls
1513 2623 Pls
1516 2620 Pls
1517 2617 Pls
1525 2614 Pls
1525 2611 Pls
1526 2607 Pls
1529 2604 Pls
1531 2601 Pls
1534 2598 Pls
1534 2595 Pls
1537 2591 Pls
1537 2588 Pls
1540 2585 Pls
1544 2582 Pls
1545 2579 Pls
1547 2576 Pls
1548 2572 Pls
1551 2569 Pls
1553 2566 Pls
1553 2563 Pls
1558 2560 Pls
1563 2556 Pls
1563 2553 Pls
1564 2550 Pls
1565 2547 Pls
1566 2544 Pls
1570 2540 Pls
1573 2537 Pls
1573 2534 Pls
1579 2531 Pls
1586 2528 Pls
1586 2524 Pls
1586 2521 Pls
1590 2518 Pls
1590 2515 Pls
1596 2512 Pls
1596 2509 Pls
1599 2505 Pls
1601 2502 Pls
1606 2499 Pls
1609 2496 Pls
1609 2493 Pls
1609 2489 Pls
1610 2486 Pls
1611 2483 Pls
1612 2480 Pls
1612 2477 Pls
1613 2473 Pls
1617 2470 Pls
1620 2467 Pls
1620 2464 Pls
1622 2461 Pls
1624 2458 Pls
1627 2454 Pls
1631 2451 Pls
1632 2448 Pls
1636 2445 Pls
1636 2442 Pls
1636 2438 Pls
1638 2435 Pls
1647 2432 Pls
1651 2429 Pls
1652 2426 Pls
1653 2422 Pls
1653 2419 Pls
1693 2416 Pls
1696 2413 Pls
1697 2410 Pls
1700 2407 Pls
1703 2403 Pls
1706 2397 Pls
1707 2394 Pls
1714 2391 Pls
1715 2387 Pls
1716 2384 Pls
1717 2381 Pls
1718 2378 Pls
1719 2375 Pls
1724 2371 Pls
1725 2368 Pls
1726 2365 Pls
1726 2362 Pls
1726 2359 Pls
1728 2356 Pls
1729 2352 Pls
1734 2349 Pls
1735 2346 Pls
1736 2343 Pls
1744 2340 Pls
1745 2336 Pls
1748 2333 Pls
1748 2330 Pls
1752 2327 Pls
1754 2324 Pls
1755 2320 Pls
1760 2317 Pls
1763 2314 Pls
1764 2311 Pls
1765 2308 Pls
1765 2305 Pls
1766 2301 Pls
1768 2298 Pls
1769 2295 Pls
1769 2292 Pls
1770 2289 Pls
1770 2285 Pls
1773 2282 Pls
1775 2279 Pls
1775 2276 Pls
1779 2273 Pls
1779 2269 Pls
1780 2266 Pls
1780 2263 Pls
1783 2260 Pls
1784 2257 Pls
1786 2253 Pls
1787 2250 Pls
1790 2247 Pls
1791 2244 Pls
1792 2241 Pls
1795 2238 Pls
1799 2234 Pls
1799 2231 Pls
1800 2228 Pls
1807 2225 Pls
1807 2222 Pls
1811 2218 Pls
1811 2215 Pls
1812 2212 Pls
1815 2209 Pls
1816 2206 Pls
1818 2202 Pls
1819 2199 Pls
1824 2196 Pls
1827 2193 Pls
1831 2190 Pls
1832 2187 Pls
1833 2183 Pls
1835 2180 Pls
1835 2174 Pls
1835 2171 Pls
1838 2167 Pls
1843 2164 Pls
1843 2161 Pls
1849 2158 Pls
1849 2155 Pls
1859 2151 Pls
1859 2148 Pls
1860 2145 Pls
1862 2142 Pls
1863 2139 Pls
1865 2136 Pls
1866 2132 Pls
1866 2129 Pls
1867 2126 Pls
1870 2123 Pls
1870 2120 Pls
1873 2116 Pls
1873 2113 Pls
1878 2110 Pls
1879 2107 Pls
1880 2104 Pls
1882 2100 Pls
1882 2097 Pls
1884 2094 Pls
1886 2091 Pls
1887 2088 Pls
1888 2085 Pls
1888 2081 Pls
1891 2078 Pls
1892 2075 Pls
1892 2072 Pls
1894 2069 Pls
1894 2065 Pls
1894 2062 Pls
1896 2059 Pls
1897 2056 Pls
1903 2053 Pls
1907 2049 Pls
1907 2046 Pls
1907 2043 Pls
1908 2040 Pls
1909 2037 Pls
1909 2034 Pls
1913 2030 Pls
1915 2027 Pls
1916 2024 Pls
1917 2021 Pls
1918 2018 Pls
1920 2014 Pls
1922 2011 Pls
1923 2008 Pls
1924 2005 Pls
1925 2002 Pls
1926 1998 Pls
1927 1995 Pls
1931 1992 Pls
1931 1989 Pls
1934 1986 Pls
1936 1982 Pls
1937 1979 Pls
1940 1976 Pls
1940 1973 Pls
1943 1970 Pls
1945 1967 Pls
1947 1963 Pls
1949 1960 Pls
1954 1957 Pls
1955 1954 Pls
1956 1951 Pls
1956 1947 Pls
1959 1944 Pls
1962 1941 Pls
1962 1938 Pls
1963 1935 Pls
1964 1931 Pls
1964 1928 Pls
1965 1925 Pls
1967 1922 Pls
1967 1919 Pls
1967 1916 Pls
1969 1912 Pls
1970 1909 Pls
1972 1906 Pls
1972 1903 Pls
1974 1900 Pls
1974 1896 Pls
1975 1893 Pls
1975 1890 Pls
1975 1887 Pls
1981 1884 Pls
1984 1880 Pls
1985 1877 Pls
1990 1874 Pls
1993 1871 Pls
1993 1868 Pls
1996 1865 Pls
1998 1861 Pls
1999 1858 Pls
2002 1855 Pls
2003 1852 Pls
2004 1845 Pls
2005 1842 Pls
2006 1839 Pls
2008 1836 Pls
2008 1833 Pls
2010 1829 Pls
2010 1826 Pls
2011 1823 Pls
2013 1820 Pls
2013 1817 Pls
2014 1814 Pls
2016 1810 Pls
2016 1807 Pls
2017 1804 Pls
2018 1801 Pls
2018 1798 Pls
2019 1794 Pls
2020 1791 Pls
2024 1788 Pls
2024 1785 Pls
2025 1782 Pls
2027 1778 Pls
2028 1775 Pls
2029 1772 Pls
2030 1769 Pls
2031 1766 Pls
2033 1763 Pls
2033 1759 Pls
2033 1756 Pls
2038 1753 Pls
2039 1750 Pls
2041 1747 Pls
2042 1743 Pls
2043 1740 Pls
2044 1737 Pls
2044 1734 Pls
2045 1731 Pls
2046 1727 Pls
2047 1724 Pls
2048 1721 Pls
2051 1718 Pls
2052 1715 Pls
2052 1711 Pls
2053 1708 Pls
2053 1705 Pls
2054 1702 Pls
2056 1699 Pls
2065 1696 Pls
2067 1692 Pls
2068 1689 Pls
2069 1686 Pls
2069 1683 Pls
2070 1680 Pls
2073 1676 Pls
2076 1673 Pls
2077 1670 Pls
2078 1667 Pls
2079 1664 Pls
2079 1660 Pls
2081 1657 Pls
2082 1654 Pls
2083 1651 Pls
2083 1648 Pls
2085 1645 Pls
2086 1641 Pls
2089 1638 Pls
2089 1635 Pls
2089 1632 Pls
2090 1629 Pls
2093 1625 Pls
2095 1622 Pls
2096 1619 Pls
2099 1616 Pls
2100 1613 Pls
2105 1609 Pls
2107 1606 Pls
2107 1603 Pls
2112 1600 Pls
2113 1597 Pls
2113 1594 Pls
2113 1590 Pls
2116 1587 Pls
2119 1584 Pls
2121 1581 Pls
2121 1574 Pls
2123 1571 Pls
2125 1568 Pls
2126 1565 Pls
2138 1562 Pls
2139 1558 Pls
2141 1555 Pls
2147 1552 Pls
2151 1549 Pls
2151 1546 Pls
2152 1543 Pls
2156 1539 Pls
2156 1536 Pls
2161 1533 Pls
2163 1530 Pls
2163 1527 Pls
2167 1523 Pls
2171 1520 Pls
2173 1517 Pls
2173 1514 Pls
2175 1511 Pls
2176 1507 Pls
2176 1504 Pls
2176 1501 Pls
2176 1498 Pls
2177 1495 Pls
2180 1492 Pls
2182 1488 Pls
2183 1485 Pls
2184 1482 Pls
2185 1479 Pls
2187 1476 Pls
2190 1472 Pls
2191 1469 Pls
2198 1466 Pls
2201 1463 Pls
2204 1460 Pls
2207 1456 Pls
2210 1453 Pls
2214 1450 Pls
2223 1447 Pls
2231 1444 Pls
2233 1441 Pls
2235 1437 Pls
2235 1434 Pls
2236 1431 Pls
2239 1428 Pls
2240 1425 Pls
2242 1421 Pls
2245 1418 Pls
2254 1415 Pls
2258 1412 Pls
2261 1409 Pls
2271 1405 Pls
2274 1402 Pls
2277 1399 Pls
2279 1396 Pls
2279 1393 Pls
2279 1389 Pls
2286 1386 Pls
2287 1383 Pls
2292 1380 Pls
2292 1377 Pls
2296 1374 Pls
2296 1370 Pls
2299 1367 Pls
2300 1364 Pls
2302 1361 Pls
2302 1358 Pls
2302 1354 Pls
2303 1351 Pls
2303 1348 Pls
2306 1345 Pls
2313 1342 Pls
2314 1338 Pls
2318 1335 Pls
2320 1332 Pls
2325 1329 Pls
2333 1326 Pls
2334 1323 Pls
2335 1319 Pls
2335 1316 Pls
2339 1313 Pls
2342 1310 Pls
2344 1307 Pls
2345 1303 Pls
2349 1300 Pls
2350 1297 Pls
2352 1294 Pls
2352 1291 Pls
2353 1287 Pls
2354 1284 Pls
2361 1281 Pls
2365 1278 Pls
2367 1275 Pls
2368 1272 Pls
2376 1268 Pls
2377 1265 Pls
2380 1262 Pls
2390 1259 Pls
2391 1256 Pls
2398 1252 Pls
2401 1249 Pls
2405 1246 Pls
2406 1243 Pls
2406 1240 Pls
2408 1236 Pls
2410 1233 Pls
2410 1230 Pls
2418 1227 Pls
2420 1224 Pls
2427 1221 Pls
2428 1217 Pls
2429 1214 Pls
2432 1211 Pls
2434 1208 Pls
2435 1205 Pls
2442 1201 Pls
2443 1198 Pls
2444 1195 Pls
2444 1192 Pls
2449 1189 Pls
2451 1185 Pls
2454 1182 Pls
2462 1179 Pls
2463 1176 Pls
2470 1173 Pls
2479 1170 Pls
2486 1166 Pls
2488 1163 Pls
2489 1160 Pls
2492 1157 Pls
2495 1154 Pls
2497 1150 Pls
2510 1147 Pls
2521 1144 Pls
2525 1141 Pls
2529 1138 Pls
2530 1134 Pls
2533 1131 Pls
2536 1128 Pls
2540 1125 Pls
2547 1122 Pls
2550 1118 Pls
2552 1115 Pls
2555 1112 Pls
2555 1109 Pls
2561 1106 Pls
2562 1103 Pls
2563 1099 Pls
2564 1096 Pls
2567 1093 Pls
2570 1090 Pls
2572 1087 Pls
2578 1083 Pls
2581 1080 Pls
2583 1077 Pls
2587 1074 Pls
2591 1071 Pls
2594 1067 Pls
2597 1064 Pls
2600 1061 Pls
2602 1058 Pls
2603 1055 Pls
2605 1052 Pls
2608 1048 Pls
2609 1045 Pls
2611 1042 Pls
2611 1039 Pls
2612 1036 Pls
2612 1032 Pls
2615 1029 Pls
2620 1026 Pls
2623 1023 Pls
2625 1020 Pls
2627 1016 Pls
2629 1013 Pls
2636 1010 Pls
2637 1007 Pls
2640 1004 Pls
2640 1001 Pls
2643 994 Pls
2646 991 Pls
2650 988 Pls
2653 985 Pls
2657 981 Pls
2657 978 Pls
2658 975 Pls
2669 972 Pls
2672 969 Pls
2678 965 Pls
2680 962 Pls
2684 959 Pls
2689 956 Pls
2690 953 Pls
2694 950 Pls
2694 946 Pls
2695 943 Pls
2699 940 Pls
2701 937 Pls
2705 934 Pls
2707 930 Pls
2710 927 Pls
2710 924 Pls
2710 921 Pls
2711 918 Pls
2711 914 Pls
2715 911 Pls
2723 908 Pls
2724 905 Pls
2730 902 Pls
2731 899 Pls
2731 895 Pls
2734 892 Pls
2734 889 Pls
2735 886 Pls
2738 883 Pls
2742 879 Pls
2743 876 Pls
2747 873 Pls
2749 870 Pls
2749 867 Pls
2752 863 Pls
2755 860 Pls
2755 857 Pls
2760 854 Pls
2763 851 Pls
2768 847 Pls
2769 844 Pls
2773 841 Pls
2774 838 Pls
2780 835 Pls
2781 832 Pls
2784 828 Pls
2794 825 Pls
2798 822 Pls
2801 819 Pls
2803 816 Pls
2810 812 Pls
2810 809 Pls
2816 806 Pls
2816 803 Pls
2817 800 Pls
2819 796 Pls
2819 793 Pls
2820 790 Pls
2821 787 Pls
2822 784 Pls
2823 781 Pls
2829 777 Pls
2834 774 Pls
2835 771 Pls
2840 768 Pls
2844 765 Pls
2846 761 Pls
2859 758 Pls
2860 755 Pls
2864 752 Pls
2866 749 Pls
2866 745 Pls
2868 742 Pls
2871 739 Pls
2875 736 Pls
2875 733 Pls
2878 730 Pls
2878 726 Pls
2879 723 Pls
2884 720 Pls
2890 717 Pls
2896 714 Pls
2897 710 Pls
2902 707 Pls
2904 704 Pls
2904 701 Pls
2907 698 Pls
2912 694 Pls
2912 691 Pls
2915 688 Pls
2917 685 Pls
2919 682 Pls
2920 679 Pls
2930 675 Pls
2938 672 Pls
2941 669 Pls
2942 666 Pls
2943 663 Pls
2944 659 Pls
2945 656 Pls
2951 653 Pls
2952 650 Pls
2955 647 Pls
2961 643 Pls
2968 640 Pls
2971 637 Pls
2972 634 Pls
2972 631 Pls
2973 628 Pls
2974 624 Pls
2979 621 Pls
2982 618 Pls
2985 615 Pls
2991 612 Pls
2995 608 Pls
3000 605 Pls
3002 602 Pls
3002 599 Pls
3009 596 Pls
3012 592 Pls
3013 589 Pls
3027 586 Pls
3029 583 Pls
3031 580 Pls
3037 577 Pls
3038 573 Pls
3038 570 Pls
3043 567 Pls
3050 564 Pls
3054 561 Pls
3055 557 Pls
3057 554 Pls
3067 551 Pls
3076 548 Pls
3081 545 Pls
3084 541 Pls
3090 538 Pls
3092 535 Pls
3098 532 Pls
3106 529 Pls
3108 525 Pls
3113 522 Pls
3114 519 Pls
3121 516 Pls
3131 513 Pls
3134 510 Pls
3136 506 Pls
3144 503 Pls
3147 500 Pls
3156 497 Pls
3157 494 Pls
3159 490 Pls
3161 487 Pls
3161 484 Pls
3163 481 Pls
3167 478 Pls
3184 474 Pls
3191 471 Pls
3194 468 Pls
3195 465 Pls
3195 462 Pls
3201 459 Pls
3202 455 Pls
3215 452 Pls
3217 449 Pls
3228 446 Pls
3230 443 Pls
3238 439 Pls
3239 436 Pls
3262 433 Pls
3274 430 Pls
3274 427 Pls
3313 423 Pls
3328 420 Pls
3334 417 Pls
3374 414 Pls
3392 411 Pls
3393 408 Pls
3449 404 Pls
3450 401 Pls
3486 398 Pls
3513 395 Pls
3514 392 Pls
3525 388 Pls
3528 385 Pls
3534 382 Pls
3556 379 Pls
3560 376 Pls
3561 372 Pls
3561 369 Pls
3589 366 Pls
3641 363 Pls
3642 360 Pls
3684 357 Pls
3688 353 Pls
3732 350 Pls
3734 347 Pls
3744 344 Pls
3769 341 Pls
3779 337 Pls
3814 334 Pls
3865 331 Pls
3890 328 Pls
3910 325 Pls
3932 321 Pls
3958 318 Pls
3981 315 Pls
3985 312 Pls
4104 309 Pls
4108 306 Pls
4114 302 Pls
4599 299 Pls
4634 296 Pls
4717 293 Pls
5066 290 Pls
5111 286 Pls
5366 283 Pls
% End plot #1
2.000 UL
LTb
LCb setrgbcolor
1.000 UL
LTB
LCb setrgbcolor
630 4871 N
630 280 L
6317 0 V
0 4591 V
-6317 0 V
Z stroke
1.000 UP
1.000 UL
LTb
LCb setrgbcolor
stroke
grestore
end
showpage
%%Trailer
%%DocumentFonts: Helvetica
%%Pages: 1
