%!PS-Adobe-2.0
%%Title: packets-uv-s-log-packets-s-ccdf-loglog.eps
%%Creator: gnuplot 5.0 patchlevel 3
%%CreationDate: Mon May 29 11:07:44 2017
%%DocumentFonts: (atend)
%%BoundingBox: 50 50 554 770
%%Orientation: Landscape
%%Pages: (atend)
%%EndComments
%%BeginProlog
/gnudict 256 dict def
gnudict begin
%
% The following true/false flags may be edited by hand if desired.
% The unit line width and grayscale image gamma correction may also be changed.
%
/Color true def
/Blacktext false def
/Solid false def
/Dashlength 1 def
/Landscape true def
/Level1 false def
/Level3 false def
/Rounded false def
/ClipToBoundingBox false def
/SuppressPDFMark false def
/TransparentPatterns false def
/gnulinewidth 5.000 def
/userlinewidth gnulinewidth def
/Gamma 1.0 def
/BackgroundColor {-1.000 -1.000 -1.000} def
%
/vshift -46 def
/dl1 {
  10.0 Dashlength userlinewidth gnulinewidth div mul mul mul
  Rounded { currentlinewidth 0.75 mul sub dup 0 le { pop 0.01 } if } if
} def
/dl2 {
  10.0 Dashlength userlinewidth gnulinewidth div mul mul mul
  Rounded { currentlinewidth 0.75 mul add } if
} def
/hpt_ 31.5 def
/vpt_ 31.5 def
/hpt hpt_ def
/vpt vpt_ def
/doclip {
  ClipToBoundingBox {
    newpath 50 50 moveto 554 50 lineto 554 770 lineto 50 770 lineto closepath
    clip
  } if
} def
%
% Gnuplot Prolog Version 5.1 (Oct 2015)
%
%/SuppressPDFMark true def
%
/M {moveto} bind def
/L {lineto} bind def
/R {rmoveto} bind def
/V {rlineto} bind def
/N {newpath moveto} bind def
/Z {closepath} bind def
/C {setrgbcolor} bind def
/f {rlineto fill} bind def
/g {setgray} bind def
/Gshow {show} def   % May be redefined later in the file to support UTF-8
/vpt2 vpt 2 mul def
/hpt2 hpt 2 mul def
/Lshow {currentpoint stroke M 0 vshift R 
	Blacktext {gsave 0 setgray textshow grestore} {textshow} ifelse} def
/Rshow {currentpoint stroke M dup stringwidth pop neg vshift R
	Blacktext {gsave 0 setgray textshow grestore} {textshow} ifelse} def
/Cshow {currentpoint stroke M dup stringwidth pop -2 div vshift R 
	Blacktext {gsave 0 setgray textshow grestore} {textshow} ifelse} def
/UP {dup vpt_ mul /vpt exch def hpt_ mul /hpt exch def
  /hpt2 hpt 2 mul def /vpt2 vpt 2 mul def} def
/DL {Color {setrgbcolor Solid {pop []} if 0 setdash}
 {pop pop pop 0 setgray Solid {pop []} if 0 setdash} ifelse} def
/BL {stroke userlinewidth 2 mul setlinewidth
	Rounded {1 setlinejoin 1 setlinecap} if} def
/AL {stroke userlinewidth 2 div setlinewidth
	Rounded {1 setlinejoin 1 setlinecap} if} def
/UL {dup gnulinewidth mul /userlinewidth exch def
	dup 1 lt {pop 1} if 10 mul /udl exch def} def
/PL {stroke userlinewidth setlinewidth
	Rounded {1 setlinejoin 1 setlinecap} if} def
3.8 setmiterlimit
% Classic Line colors (version 5.0)
/LCw {1 1 1} def
/LCb {0 0 0} def
/LCa {0 0 0} def
/LC0 {1 0 0} def
/LC1 {0 1 0} def
/LC2 {0 0 1} def
/LC3 {1 0 1} def
/LC4 {0 1 1} def
/LC5 {1 1 0} def
/LC6 {0 0 0} def
/LC7 {1 0.3 0} def
/LC8 {0.5 0.5 0.5} def
% Default dash patterns (version 5.0)
/LTB {BL [] LCb DL} def
/LTw {PL [] 1 setgray} def
/LTb {PL [] LCb DL} def
/LTa {AL [1 udl mul 2 udl mul] 0 setdash LCa setrgbcolor} def
/LT0 {PL [] LC0 DL} def
/LT1 {PL [2 dl1 3 dl2] LC1 DL} def
/LT2 {PL [1 dl1 1.5 dl2] LC2 DL} def
/LT3 {PL [6 dl1 2 dl2 1 dl1 2 dl2] LC3 DL} def
/LT4 {PL [1 dl1 2 dl2 6 dl1 2 dl2 1 dl1 2 dl2] LC4 DL} def
/LT5 {PL [4 dl1 2 dl2] LC5 DL} def
/LT6 {PL [1.5 dl1 1.5 dl2 1.5 dl1 1.5 dl2 1.5 dl1 6 dl2] LC6 DL} def
/LT7 {PL [3 dl1 3 dl2 1 dl1 3 dl2] LC7 DL} def
/LT8 {PL [2 dl1 2 dl2 2 dl1 6 dl2] LC8 DL} def
/SL {[] 0 setdash} def
/Pnt {stroke [] 0 setdash gsave 1 setlinecap M 0 0 V stroke grestore} def
/Dia {stroke [] 0 setdash 2 copy vpt add M
  hpt neg vpt neg V hpt vpt neg V
  hpt vpt V hpt neg vpt V closepath stroke
  Pnt} def
/Pls {stroke [] 0 setdash vpt sub M 0 vpt2 V
  currentpoint stroke M
  hpt neg vpt neg R hpt2 0 V stroke
 } def
/Box {stroke [] 0 setdash 2 copy exch hpt sub exch vpt add M
  0 vpt2 neg V hpt2 0 V 0 vpt2 V
  hpt2 neg 0 V closepath stroke
  Pnt} def
/Crs {stroke [] 0 setdash exch hpt sub exch vpt add M
  hpt2 vpt2 neg V currentpoint stroke M
  hpt2 neg 0 R hpt2 vpt2 V stroke} def
/TriU {stroke [] 0 setdash 2 copy vpt 1.12 mul add M
  hpt neg vpt -1.62 mul V
  hpt 2 mul 0 V
  hpt neg vpt 1.62 mul V closepath stroke
  Pnt} def
/Star {2 copy Pls Crs} def
/BoxF {stroke [] 0 setdash exch hpt sub exch vpt add M
  0 vpt2 neg V hpt2 0 V 0 vpt2 V
  hpt2 neg 0 V closepath fill} def
/TriUF {stroke [] 0 setdash vpt 1.12 mul add M
  hpt neg vpt -1.62 mul V
  hpt 2 mul 0 V
  hpt neg vpt 1.62 mul V closepath fill} def
/TriD {stroke [] 0 setdash 2 copy vpt 1.12 mul sub M
  hpt neg vpt 1.62 mul V
  hpt 2 mul 0 V
  hpt neg vpt -1.62 mul V closepath stroke
  Pnt} def
/TriDF {stroke [] 0 setdash vpt 1.12 mul sub M
  hpt neg vpt 1.62 mul V
  hpt 2 mul 0 V
  hpt neg vpt -1.62 mul V closepath fill} def
/DiaF {stroke [] 0 setdash vpt add M
  hpt neg vpt neg V hpt vpt neg V
  hpt vpt V hpt neg vpt V closepath fill} def
/Pent {stroke [] 0 setdash 2 copy gsave
  translate 0 hpt M 4 {72 rotate 0 hpt L} repeat
  closepath stroke grestore Pnt} def
/PentF {stroke [] 0 setdash gsave
  translate 0 hpt M 4 {72 rotate 0 hpt L} repeat
  closepath fill grestore} def
/Circle {stroke [] 0 setdash 2 copy
  hpt 0 360 arc stroke Pnt} def
/CircleF {stroke [] 0 setdash hpt 0 360 arc fill} def
/C0 {BL [] 0 setdash 2 copy moveto vpt 90 450 arc} bind def
/C1 {BL [] 0 setdash 2 copy moveto
	2 copy vpt 0 90 arc closepath fill
	vpt 0 360 arc closepath} bind def
/C2 {BL [] 0 setdash 2 copy moveto
	2 copy vpt 90 180 arc closepath fill
	vpt 0 360 arc closepath} bind def
/C3 {BL [] 0 setdash 2 copy moveto
	2 copy vpt 0 180 arc closepath fill
	vpt 0 360 arc closepath} bind def
/C4 {BL [] 0 setdash 2 copy moveto
	2 copy vpt 180 270 arc closepath fill
	vpt 0 360 arc closepath} bind def
/C5 {BL [] 0 setdash 2 copy moveto
	2 copy vpt 0 90 arc
	2 copy moveto
	2 copy vpt 180 270 arc closepath fill
	vpt 0 360 arc} bind def
/C6 {BL [] 0 setdash 2 copy moveto
	2 copy vpt 90 270 arc closepath fill
	vpt 0 360 arc closepath} bind def
/C7 {BL [] 0 setdash 2 copy moveto
	2 copy vpt 0 270 arc closepath fill
	vpt 0 360 arc closepath} bind def
/C8 {BL [] 0 setdash 2 copy moveto
	2 copy vpt 270 360 arc closepath fill
	vpt 0 360 arc closepath} bind def
/C9 {BL [] 0 setdash 2 copy moveto
	2 copy vpt 270 450 arc closepath fill
	vpt 0 360 arc closepath} bind def
/C10 {BL [] 0 setdash 2 copy 2 copy moveto vpt 270 360 arc closepath fill
	2 copy moveto
	2 copy vpt 90 180 arc closepath fill
	vpt 0 360 arc closepath} bind def
/C11 {BL [] 0 setdash 2 copy moveto
	2 copy vpt 0 180 arc closepath fill
	2 copy moveto
	2 copy vpt 270 360 arc closepath fill
	vpt 0 360 arc closepath} bind def
/C12 {BL [] 0 setdash 2 copy moveto
	2 copy vpt 180 360 arc closepath fill
	vpt 0 360 arc closepath} bind def
/C13 {BL [] 0 setdash 2 copy moveto
	2 copy vpt 0 90 arc closepath fill
	2 copy moveto
	2 copy vpt 180 360 arc closepath fill
	vpt 0 360 arc closepath} bind def
/C14 {BL [] 0 setdash 2 copy moveto
	2 copy vpt 90 360 arc closepath fill
	vpt 0 360 arc} bind def
/C15 {BL [] 0 setdash 2 copy vpt 0 360 arc closepath fill
	vpt 0 360 arc closepath} bind def
/Rec {newpath 4 2 roll moveto 1 index 0 rlineto 0 exch rlineto
	neg 0 rlineto closepath} bind def
/Square {dup Rec} bind def
/Bsquare {vpt sub exch vpt sub exch vpt2 Square} bind def
/S0 {BL [] 0 setdash 2 copy moveto 0 vpt rlineto BL Bsquare} bind def
/S1 {BL [] 0 setdash 2 copy vpt Square fill Bsquare} bind def
/S2 {BL [] 0 setdash 2 copy exch vpt sub exch vpt Square fill Bsquare} bind def
/S3 {BL [] 0 setdash 2 copy exch vpt sub exch vpt2 vpt Rec fill Bsquare} bind def
/S4 {BL [] 0 setdash 2 copy exch vpt sub exch vpt sub vpt Square fill Bsquare} bind def
/S5 {BL [] 0 setdash 2 copy 2 copy vpt Square fill
	exch vpt sub exch vpt sub vpt Square fill Bsquare} bind def
/S6 {BL [] 0 setdash 2 copy exch vpt sub exch vpt sub vpt vpt2 Rec fill Bsquare} bind def
/S7 {BL [] 0 setdash 2 copy exch vpt sub exch vpt sub vpt vpt2 Rec fill
	2 copy vpt Square fill Bsquare} bind def
/S8 {BL [] 0 setdash 2 copy vpt sub vpt Square fill Bsquare} bind def
/S9 {BL [] 0 setdash 2 copy vpt sub vpt vpt2 Rec fill Bsquare} bind def
/S10 {BL [] 0 setdash 2 copy vpt sub vpt Square fill 2 copy exch vpt sub exch vpt Square fill
	Bsquare} bind def
/S11 {BL [] 0 setdash 2 copy vpt sub vpt Square fill 2 copy exch vpt sub exch vpt2 vpt Rec fill
	Bsquare} bind def
/S12 {BL [] 0 setdash 2 copy exch vpt sub exch vpt sub vpt2 vpt Rec fill Bsquare} bind def
/S13 {BL [] 0 setdash 2 copy exch vpt sub exch vpt sub vpt2 vpt Rec fill
	2 copy vpt Square fill Bsquare} bind def
/S14 {BL [] 0 setdash 2 copy exch vpt sub exch vpt sub vpt2 vpt Rec fill
	2 copy exch vpt sub exch vpt Square fill Bsquare} bind def
/S15 {BL [] 0 setdash 2 copy Bsquare fill Bsquare} bind def
/D0 {gsave translate 45 rotate 0 0 S0 stroke grestore} bind def
/D1 {gsave translate 45 rotate 0 0 S1 stroke grestore} bind def
/D2 {gsave translate 45 rotate 0 0 S2 stroke grestore} bind def
/D3 {gsave translate 45 rotate 0 0 S3 stroke grestore} bind def
/D4 {gsave translate 45 rotate 0 0 S4 stroke grestore} bind def
/D5 {gsave translate 45 rotate 0 0 S5 stroke grestore} bind def
/D6 {gsave translate 45 rotate 0 0 S6 stroke grestore} bind def
/D7 {gsave translate 45 rotate 0 0 S7 stroke grestore} bind def
/D8 {gsave translate 45 rotate 0 0 S8 stroke grestore} bind def
/D9 {gsave translate 45 rotate 0 0 S9 stroke grestore} bind def
/D10 {gsave translate 45 rotate 0 0 S10 stroke grestore} bind def
/D11 {gsave translate 45 rotate 0 0 S11 stroke grestore} bind def
/D12 {gsave translate 45 rotate 0 0 S12 stroke grestore} bind def
/D13 {gsave translate 45 rotate 0 0 S13 stroke grestore} bind def
/D14 {gsave translate 45 rotate 0 0 S14 stroke grestore} bind def
/D15 {gsave translate 45 rotate 0 0 S15 stroke grestore} bind def
/DiaE {stroke [] 0 setdash vpt add M
  hpt neg vpt neg V hpt vpt neg V
  hpt vpt V hpt neg vpt V closepath stroke} def
/BoxE {stroke [] 0 setdash exch hpt sub exch vpt add M
  0 vpt2 neg V hpt2 0 V 0 vpt2 V
  hpt2 neg 0 V closepath stroke} def
/TriUE {stroke [] 0 setdash vpt 1.12 mul add M
  hpt neg vpt -1.62 mul V
  hpt 2 mul 0 V
  hpt neg vpt 1.62 mul V closepath stroke} def
/TriDE {stroke [] 0 setdash vpt 1.12 mul sub M
  hpt neg vpt 1.62 mul V
  hpt 2 mul 0 V
  hpt neg vpt -1.62 mul V closepath stroke} def
/PentE {stroke [] 0 setdash gsave
  translate 0 hpt M 4 {72 rotate 0 hpt L} repeat
  closepath stroke grestore} def
/CircE {stroke [] 0 setdash 
  hpt 0 360 arc stroke} def
/Opaque {gsave closepath 1 setgray fill grestore 0 setgray closepath} def
/DiaW {stroke [] 0 setdash vpt add M
  hpt neg vpt neg V hpt vpt neg V
  hpt vpt V hpt neg vpt V Opaque stroke} def
/BoxW {stroke [] 0 setdash exch hpt sub exch vpt add M
  0 vpt2 neg V hpt2 0 V 0 vpt2 V
  hpt2 neg 0 V Opaque stroke} def
/TriUW {stroke [] 0 setdash vpt 1.12 mul add M
  hpt neg vpt -1.62 mul V
  hpt 2 mul 0 V
  hpt neg vpt 1.62 mul V Opaque stroke} def
/TriDW {stroke [] 0 setdash vpt 1.12 mul sub M
  hpt neg vpt 1.62 mul V
  hpt 2 mul 0 V
  hpt neg vpt -1.62 mul V Opaque stroke} def
/PentW {stroke [] 0 setdash gsave
  translate 0 hpt M 4 {72 rotate 0 hpt L} repeat
  Opaque stroke grestore} def
/CircW {stroke [] 0 setdash 
  hpt 0 360 arc Opaque stroke} def
/BoxFill {gsave Rec 1 setgray fill grestore} def
/Density {
  /Fillden exch def
  currentrgbcolor
  /ColB exch def /ColG exch def /ColR exch def
  /ColR ColR Fillden mul Fillden sub 1 add def
  /ColG ColG Fillden mul Fillden sub 1 add def
  /ColB ColB Fillden mul Fillden sub 1 add def
  ColR ColG ColB setrgbcolor} def
/BoxColFill {gsave Rec PolyFill} def
/PolyFill {gsave Density fill grestore grestore} def
/h {rlineto rlineto rlineto gsave closepath fill grestore} bind def
%
% PostScript Level 1 Pattern Fill routine for rectangles
% Usage: x y w h s a XX PatternFill
%	x,y = lower left corner of box to be filled
%	w,h = width and height of box
%	  a = angle in degrees between lines and x-axis
%	 XX = 0/1 for no/yes cross-hatch
%
/PatternFill {gsave /PFa [ 9 2 roll ] def
  PFa 0 get PFa 2 get 2 div add PFa 1 get PFa 3 get 2 div add translate
  PFa 2 get -2 div PFa 3 get -2 div PFa 2 get PFa 3 get Rec
  TransparentPatterns {} {gsave 1 setgray fill grestore} ifelse
  clip
  currentlinewidth 0.5 mul setlinewidth
  /PFs PFa 2 get dup mul PFa 3 get dup mul add sqrt def
  0 0 M PFa 5 get rotate PFs -2 div dup translate
  0 1 PFs PFa 4 get div 1 add floor cvi
	{PFa 4 get mul 0 M 0 PFs V} for
  0 PFa 6 get ne {
	0 1 PFs PFa 4 get div 1 add floor cvi
	{PFa 4 get mul 0 2 1 roll M PFs 0 V} for
 } if
  stroke grestore} def
%
/languagelevel where
 {pop languagelevel} {1} ifelse
dup 2 lt
	{/InterpretLevel1 true def
	 /InterpretLevel3 false def}
	{/InterpretLevel1 Level1 def
	 2 gt
	    {/InterpretLevel3 Level3 def}
	    {/InterpretLevel3 false def}
	 ifelse }
 ifelse
%
% PostScript level 2 pattern fill definitions
%
/Level2PatternFill {
/Tile8x8 {/PaintType 2 /PatternType 1 /TilingType 1 /BBox [0 0 8 8] /XStep 8 /YStep 8}
	bind def
/KeepColor {currentrgbcolor [/Pattern /DeviceRGB] setcolorspace} bind def
<< Tile8x8
 /PaintProc {0.5 setlinewidth pop 0 0 M 8 8 L 0 8 M 8 0 L stroke} 
>> matrix makepattern
/Pat1 exch def
<< Tile8x8
 /PaintProc {0.5 setlinewidth pop 0 0 M 8 8 L 0 8 M 8 0 L stroke
	0 4 M 4 8 L 8 4 L 4 0 L 0 4 L stroke}
>> matrix makepattern
/Pat2 exch def
<< Tile8x8
 /PaintProc {0.5 setlinewidth pop 0 0 M 0 8 L
	8 8 L 8 0 L 0 0 L fill}
>> matrix makepattern
/Pat3 exch def
<< Tile8x8
 /PaintProc {0.5 setlinewidth pop -4 8 M 8 -4 L
	0 12 M 12 0 L stroke}
>> matrix makepattern
/Pat4 exch def
<< Tile8x8
 /PaintProc {0.5 setlinewidth pop -4 0 M 8 12 L
	0 -4 M 12 8 L stroke}
>> matrix makepattern
/Pat5 exch def
<< Tile8x8
 /PaintProc {0.5 setlinewidth pop -2 8 M 4 -4 L
	0 12 M 8 -4 L 4 12 M 10 0 L stroke}
>> matrix makepattern
/Pat6 exch def
<< Tile8x8
 /PaintProc {0.5 setlinewidth pop -2 0 M 4 12 L
	0 -4 M 8 12 L 4 -4 M 10 8 L stroke}
>> matrix makepattern
/Pat7 exch def
<< Tile8x8
 /PaintProc {0.5 setlinewidth pop 8 -2 M -4 4 L
	12 0 M -4 8 L 12 4 M 0 10 L stroke}
>> matrix makepattern
/Pat8 exch def
<< Tile8x8
 /PaintProc {0.5 setlinewidth pop 0 -2 M 12 4 L
	-4 0 M 12 8 L -4 4 M 8 10 L stroke}
>> matrix makepattern
/Pat9 exch def
/Pattern1 {PatternBgnd KeepColor Pat1 setpattern} bind def
/Pattern2 {PatternBgnd KeepColor Pat2 setpattern} bind def
/Pattern3 {PatternBgnd KeepColor Pat3 setpattern} bind def
/Pattern4 {PatternBgnd KeepColor Landscape {Pat5} {Pat4} ifelse setpattern} bind def
/Pattern5 {PatternBgnd KeepColor Landscape {Pat4} {Pat5} ifelse setpattern} bind def
/Pattern6 {PatternBgnd KeepColor Landscape {Pat9} {Pat6} ifelse setpattern} bind def
/Pattern7 {PatternBgnd KeepColor Landscape {Pat8} {Pat7} ifelse setpattern} bind def
} def
%
%
%End of PostScript Level 2 code
%
/PatternBgnd {
  TransparentPatterns {} {gsave 1 setgray fill grestore} ifelse
} def
%
% Substitute for Level 2 pattern fill codes with
% grayscale if Level 2 support is not selected.
%
/Level1PatternFill {
/Pattern1 {0.250 Density} bind def
/Pattern2 {0.500 Density} bind def
/Pattern3 {0.750 Density} bind def
/Pattern4 {0.125 Density} bind def
/Pattern5 {0.375 Density} bind def
/Pattern6 {0.625 Density} bind def
/Pattern7 {0.875 Density} bind def
} def
%
% Now test for support of Level 2 code
%
Level1 {Level1PatternFill} {Level2PatternFill} ifelse
%
/Symbol-Oblique /Symbol findfont [1 0 .167 1 0 0] makefont
dup length dict begin {1 index /FID eq {pop pop} {def} ifelse} forall
currentdict end definefont pop
%
/MFshow {
   { dup 5 get 3 ge
     { 5 get 3 eq {gsave} {grestore} ifelse }
     {dup dup 0 get findfont exch 1 get scalefont setfont
     [ currentpoint ] exch dup 2 get 0 exch R dup 5 get 2 ne {dup dup 6
     get exch 4 get {textshow} {stringwidth pop 0 R} ifelse }if dup 5 get 0 eq
     {dup 3 get {2 get neg 0 exch R pop} {pop aload pop M} ifelse} {dup 5
     get 1 eq {dup 2 get exch dup 3 get exch 6 get stringwidth pop -2 div
     dup 0 R} {dup 6 get stringwidth pop -2 div 0 R 6 get
     textshow 2 index {aload pop M neg 3 -1 roll neg R pop pop} {pop pop pop
     pop aload pop M} ifelse }ifelse }ifelse }
     ifelse }
   forall} def
/Gswidth {dup type /stringtype eq {stringwidth} {pop (n) stringwidth} ifelse} def
/MFwidth {0 exch { dup 5 get 3 ge { 5 get 3 eq { 0 } { pop } ifelse }
 {dup 3 get{dup dup 0 get findfont exch 1 get scalefont setfont
     6 get Gswidth pop add} {pop} ifelse} ifelse} forall} def
/MLshow { currentpoint stroke M
  0 exch R
  Blacktext {gsave 0 setgray MFshow grestore} {MFshow} ifelse } bind def
/MRshow { currentpoint stroke M
  exch dup MFwidth neg 3 -1 roll R
  Blacktext {gsave 0 setgray MFshow grestore} {MFshow} ifelse } bind def
/MCshow { currentpoint stroke M
  exch dup MFwidth -2 div 3 -1 roll R
  Blacktext {gsave 0 setgray MFshow grestore} {MFshow} ifelse } bind def
/XYsave    { [( ) 1 2 true false 3 ()] } bind def
/XYrestore { [( ) 1 2 true false 4 ()] } bind def
Level1 SuppressPDFMark or 
{} {
/SDict 10 dict def
systemdict /pdfmark known not {
  userdict /pdfmark systemdict /cleartomark get put
} if
SDict begin [
  /Title (packets-uv-s-log-packets-s-ccdf-loglog.eps)
  /Subject (gnuplot plot)
  /Creator (gnuplot 5.0 patchlevel 3)
  /Author (tiphaine)
%  /Producer (gnuplot)
%  /Keywords ()
  /CreationDate (Mon May 29 11:07:44 2017)
  /DOCINFO pdfmark
end
} ifelse
%
% Support for boxed text - Ethan A Merritt May 2005
%
/InitTextBox { userdict /TBy2 3 -1 roll put userdict /TBx2 3 -1 roll put
           userdict /TBy1 3 -1 roll put userdict /TBx1 3 -1 roll put
	   /Boxing true def } def
/ExtendTextBox { Boxing
    { gsave dup false charpath pathbbox
      dup TBy2 gt {userdict /TBy2 3 -1 roll put} {pop} ifelse
      dup TBx2 gt {userdict /TBx2 3 -1 roll put} {pop} ifelse
      dup TBy1 lt {userdict /TBy1 3 -1 roll put} {pop} ifelse
      dup TBx1 lt {userdict /TBx1 3 -1 roll put} {pop} ifelse
      grestore } if } def
/PopTextBox { newpath TBx1 TBxmargin sub TBy1 TBymargin sub M
               TBx1 TBxmargin sub TBy2 TBymargin add L
	       TBx2 TBxmargin add TBy2 TBymargin add L
	       TBx2 TBxmargin add TBy1 TBymargin sub L closepath } def
/DrawTextBox { PopTextBox stroke /Boxing false def} def
/FillTextBox { gsave PopTextBox 1 1 1 setrgbcolor fill grestore /Boxing false def} def
0 0 0 0 InitTextBox
/TBxmargin 20 def
/TBymargin 20 def
/Boxing false def
/textshow { ExtendTextBox Gshow } def
%
% redundant definitions for compatibility with prologue.ps older than 5.0.2
/LTB {BL [] LCb DL} def
/LTb {PL [] LCb DL} def
end
%%EndProlog
%%Page: 1 1
gnudict begin
gsave
doclip
50 50 translate
0.100 0.100 scale
90 rotate
0 -5040 translate
0 setgray
newpath
(Helvetica) findfont 140 scalefont setfont
BackgroundColor 0 lt 3 1 roll 0 lt exch 0 lt or or not {gsave BackgroundColor C clippath fill grestore} if
1.000 UL
LTb
LCb setrgbcolor
798 280 M
63 0 V
6086 0 R
-63 0 V
stroke
714 280 M
[ [(Helvetica) 140.0 0.0 true true 0 ( 0.0001)]
] -46.7 MRshow
1.000 UL
LTb
LCb setrgbcolor
798 626 M
31 0 V
6118 0 R
-31 0 V
798 828 M
31 0 V
6118 0 R
-31 0 V
798 971 M
31 0 V
6118 0 R
-31 0 V
798 1082 M
31 0 V
6118 0 R
-31 0 V
798 1173 M
31 0 V
6118 0 R
-31 0 V
798 1250 M
31 0 V
6118 0 R
-31 0 V
798 1317 M
31 0 V
6118 0 R
-31 0 V
798 1375 M
31 0 V
6118 0 R
-31 0 V
798 1428 M
63 0 V
6086 0 R
-63 0 V
stroke
714 1428 M
[ [(Helvetica) 140.0 0.0 true true 0 ( 0.001)]
] -46.7 MRshow
1.000 UL
LTb
LCb setrgbcolor
798 1773 M
31 0 V
6118 0 R
-31 0 V
798 1975 M
31 0 V
6118 0 R
-31 0 V
798 2119 M
31 0 V
6118 0 R
-31 0 V
798 2230 M
31 0 V
6118 0 R
-31 0 V
798 2321 M
31 0 V
6118 0 R
-31 0 V
798 2398 M
31 0 V
6118 0 R
-31 0 V
798 2464 M
31 0 V
6118 0 R
-31 0 V
798 2523 M
31 0 V
6118 0 R
-31 0 V
798 2576 M
63 0 V
6086 0 R
-63 0 V
stroke
714 2576 M
[ [(Helvetica) 140.0 0.0 true true 0 ( 0.01)]
] -46.7 MRshow
1.000 UL
LTb
LCb setrgbcolor
798 2921 M
31 0 V
6118 0 R
-31 0 V
798 3123 M
31 0 V
6118 0 R
-31 0 V
798 3267 M
31 0 V
6118 0 R
-31 0 V
798 3378 M
31 0 V
6118 0 R
-31 0 V
798 3469 M
31 0 V
6118 0 R
-31 0 V
798 3545 M
31 0 V
6118 0 R
-31 0 V
798 3612 M
31 0 V
6118 0 R
-31 0 V
798 3671 M
31 0 V
6118 0 R
-31 0 V
798 3723 M
63 0 V
6086 0 R
-63 0 V
stroke
714 3723 M
[ [(Helvetica) 140.0 0.0 true true 0 ( 0.1)]
] -46.7 MRshow
1.000 UL
LTb
LCb setrgbcolor
798 4069 M
31 0 V
6118 0 R
-31 0 V
798 4271 M
31 0 V
6118 0 R
-31 0 V
798 4414 M
31 0 V
6118 0 R
-31 0 V
798 4525 M
31 0 V
6118 0 R
-31 0 V
798 4616 M
31 0 V
6118 0 R
-31 0 V
798 4693 M
31 0 V
6118 0 R
-31 0 V
798 4760 M
31 0 V
6118 0 R
-31 0 V
798 4818 M
31 0 V
6118 0 R
-31 0 V
798 4871 M
63 0 V
6086 0 R
-63 0 V
stroke
714 4871 M
[ [(Helvetica) 140.0 0.0 true true 0 ( 1)]
] -46.7 MRshow
1.000 UL
LTb
LCb setrgbcolor
798 280 M
0 63 V
0 4528 R
0 -63 V
stroke
798 140 M
[ [(Helvetica) 140.0 0.0 true true 0 ( 10000)]
] -46.7 MCshow
1.000 UL
LTb
LCb setrgbcolor
1724 280 M
0 31 V
0 4560 R
0 -31 V
2265 280 M
0 31 V
0 4560 R
0 -31 V
2649 280 M
0 31 V
0 4560 R
0 -31 V
2947 280 M
0 31 V
0 4560 R
0 -31 V
3190 280 M
0 31 V
0 4560 R
0 -31 V
3396 280 M
0 31 V
0 4560 R
0 -31 V
3575 280 M
0 31 V
0 4560 R
0 -31 V
3732 280 M
0 31 V
0 4560 R
0 -31 V
3873 280 M
0 63 V
0 4528 R
0 -63 V
stroke
3873 140 M
[ [(Helvetica) 140.0 0.0 true true 0 ( 100000)]
] -46.7 MCshow
1.000 UL
LTb
LCb setrgbcolor
4798 280 M
0 31 V
0 4560 R
0 -31 V
5339 280 M
0 31 V
0 4560 R
0 -31 V
5724 280 M
0 31 V
0 4560 R
0 -31 V
6021 280 M
0 31 V
0 4560 R
0 -31 V
6265 280 M
0 31 V
0 4560 R
0 -31 V
6471 280 M
0 31 V
0 4560 R
0 -31 V
6649 280 M
0 31 V
0 4560 R
0 -31 V
6806 280 M
0 31 V
0 4560 R
0 -31 V
6947 280 M
0 63 V
0 4528 R
0 -63 V
stroke
6947 140 M
[ [(Helvetica) 140.0 0.0 true true 0 ( 1x10)]
[(Helvetica) 112.0 70.0 true true 0 (6)]
] -60.7 MCshow
1.000 UL
LTb
LCb setrgbcolor
1.000 UL
LTB
LCb setrgbcolor
798 4871 N
798 280 L
6149 0 V
0 4591 V
-6149 0 V
Z stroke
1.000 UP
1.000 UL
LTb
LCb setrgbcolor
% Begin plot #1
1.000 UP
1.000 UL
LTb
0.58 0.00 0.83 C 939 4378 Pls
1026 4378 Pls
1072 4378 Pls
1090 4377 Pls
1098 4377 Pls
1100 4377 Pls
1102 4376 Pls
1103 4376 Pls
1105 4375 Pls
1111 4375 Pls
1114 4375 Pls
1118 4374 Pls
1126 4374 Pls
1132 4374 Pls
1139 4373 Pls
1141 4373 Pls
1155 4372 Pls
1158 4372 Pls
1164 4372 Pls
1175 4371 Pls
1177 4371 Pls
1177 4371 Pls
1184 4370 Pls
1185 4370 Pls
1186 4369 Pls
1186 4369 Pls
1186 4369 Pls
1187 4368 Pls
1188 4368 Pls
1191 4367 Pls
1193 4367 Pls
1193 4366 Pls
1194 4366 Pls
1195 4366 Pls
1199 4365 Pls
1202 4365 Pls
1204 4364 Pls
1207 4364 Pls
1209 4364 Pls
1209 4363 Pls
1215 4363 Pls
1218 4363 Pls
1219 4362 Pls
1222 4362 Pls
1222 4361 Pls
1222 4361 Pls
1224 4361 Pls
1225 4360 Pls
1225 4360 Pls
1225 4359 Pls
1228 4359 Pls
1228 4359 Pls
1230 4358 Pls
1231 4358 Pls
1232 4357 Pls
1232 4357 Pls
1233 4356 Pls
1234 4356 Pls
1235 4356 Pls
1236 4355 Pls
1237 4355 Pls
1239 4354 Pls
1239 4354 Pls
1239 4354 Pls
1243 4353 Pls
1243 4353 Pls
1246 4352 Pls
1247 4352 Pls
1248 4352 Pls
1250 4351 Pls
1251 4351 Pls
1255 4350 Pls
1256 4350 Pls
1256 4350 Pls
1257 4349 Pls
1257 4349 Pls
1257 4348 Pls
1258 4348 Pls
1258 4348 Pls
1259 4347 Pls
1260 4347 Pls
1260 4347 Pls
1262 4346 Pls
1265 4346 Pls
1268 4345 Pls
1269 4345 Pls
1270 4345 Pls
1273 4344 Pls
1273 4344 Pls
1273 4343 Pls
1274 4343 Pls
1274 4343 Pls
1276 4342 Pls
1276 4342 Pls
1279 4341 Pls
1281 4341 Pls
1283 4341 Pls
1284 4340 Pls
1285 4340 Pls
1286 4339 Pls
1286 4339 Pls
1288 4339 Pls
1288 4338 Pls
1289 4337 Pls
1289 4337 Pls
1291 4337 Pls
1292 4336 Pls
1294 4336 Pls
1296 4335 Pls
1296 4335 Pls
1298 4334 Pls
1301 4334 Pls
1301 4334 Pls
1302 4333 Pls
1304 4333 Pls
1305 4332 Pls
1305 4332 Pls
1305 4332 Pls
1306 4331 Pls
1306 4331 Pls
1307 4330 Pls
1308 4330 Pls
1308 4330 Pls
1309 4329 Pls
1309 4329 Pls
1312 4328 Pls
1313 4328 Pls
1314 4327 Pls
1314 4327 Pls
1315 4326 Pls
1316 4326 Pls
1316 4325 Pls
1316 4325 Pls
1319 4325 Pls
1320 4324 Pls
1320 4324 Pls
1320 4323 Pls
1324 4323 Pls
1324 4323 Pls
1324 4322 Pls
1325 4322 Pls
1326 4321 Pls
1327 4321 Pls
1327 4320 Pls
1328 4320 Pls
1328 4320 Pls
1328 4319 Pls
1329 4319 Pls
1329 4318 Pls
1329 4318 Pls
1330 4317 Pls
1330 4317 Pls
1331 4316 Pls
1331 4316 Pls
1332 4315 Pls
1332 4315 Pls
1334 4315 Pls
1335 4314 Pls
1335 4314 Pls
1336 4313 Pls
1336 4313 Pls
1337 4312 Pls
1338 4312 Pls
1338 4312 Pls
1339 4311 Pls
1339 4311 Pls
1342 4310 Pls
1343 4310 Pls
1343 4309 Pls
1344 4309 Pls
1348 4309 Pls
1349 4308 Pls
1349 4308 Pls
1350 4307 Pls
1351 4306 Pls
1352 4306 Pls
1353 4306 Pls
1353 4305 Pls
1353 4305 Pls
1354 4304 Pls
1355 4304 Pls
1356 4303 Pls
1356 4303 Pls
1356 4303 Pls
1358 4302 Pls
1359 4302 Pls
1360 4301 Pls
1360 4301 Pls
1360 4300 Pls
1361 4300 Pls
1361 4299 Pls
1362 4299 Pls
1362 4298 Pls
1362 4298 Pls
1363 4297 Pls
1363 4297 Pls
1364 4297 Pls
1364 4296 Pls
1368 4296 Pls
1368 4295 Pls
1369 4295 Pls
1370 4294 Pls
1371 4294 Pls
1372 4293 Pls
1373 4293 Pls
1374 4293 Pls
1376 4292 Pls
1377 4292 Pls
1378 4291 Pls
1379 4291 Pls
1379 4290 Pls
1379 4290 Pls
1380 4289 Pls
1381 4289 Pls
1381 4289 Pls
1382 4288 Pls
1382 4288 Pls
1383 4287 Pls
1384 4287 Pls
1385 4286 Pls
1385 4286 Pls
1386 4285 Pls
1386 4285 Pls
1386 4285 Pls
1387 4284 Pls
1387 4283 Pls
1387 4283 Pls
1388 4282 Pls
1389 4282 Pls
1389 4281 Pls
1390 4281 Pls
1391 4280 Pls
1391 4280 Pls
1392 4280 Pls
1392 4279 Pls
1392 4279 Pls
1392 4278 Pls
1393 4278 Pls
1395 4277 Pls
1395 4276 Pls
1395 4276 Pls
1396 4275 Pls
1397 4275 Pls
1398 4275 Pls
1399 4274 Pls
1400 4273 Pls
1400 4273 Pls
1401 4272 Pls
1403 4272 Pls
1403 4271 Pls
1403 4271 Pls
1403 4270 Pls
1404 4270 Pls
1404 4269 Pls
1407 4269 Pls
1407 4268 Pls
1407 4268 Pls
1408 4267 Pls
1409 4267 Pls
1409 4266 Pls
1409 4266 Pls
1410 4265 Pls
1411 4265 Pls
1411 4264 Pls
1411 4264 Pls
1412 4263 Pls
1413 4263 Pls
1413 4262 Pls
1413 4262 Pls
1415 4261 Pls
1415 4261 Pls
1416 4260 Pls
1416 4260 Pls
1418 4259 Pls
1418 4259 Pls
1419 4258 Pls
1420 4258 Pls
1421 4257 Pls
1422 4257 Pls
1423 4256 Pls
1423 4256 Pls
1423 4255 Pls
1424 4255 Pls
1426 4254 Pls
1427 4254 Pls
1428 4253 Pls
1428 4253 Pls
1428 4253 Pls
1429 4252 Pls
1430 4252 Pls
1430 4251 Pls
1432 4251 Pls
1432 4250 Pls
1432 4250 Pls
1433 4249 Pls
1433 4249 Pls
1434 4248 Pls
1435 4248 Pls
1435 4247 Pls
1435 4247 Pls
1435 4246 Pls
1436 4246 Pls
1438 4245 Pls
1438 4245 Pls
1440 4244 Pls
1440 4244 Pls
1440 4243 Pls
1440 4243 Pls
1441 4242 Pls
1441 4241 Pls
1442 4241 Pls
1443 4240 Pls
1443 4240 Pls
1444 4239 Pls
1444 4239 Pls
1445 4238 Pls
1446 4238 Pls
1446 4237 Pls
1447 4237 Pls
1447 4236 Pls
1448 4236 Pls
1448 4235 Pls
1448 4235 Pls
1448 4234 Pls
1449 4234 Pls
1449 4233 Pls
1451 4233 Pls
1451 4233 Pls
1451 4232 Pls
1452 4232 Pls
1452 4231 Pls
1453 4231 Pls
1453 4230 Pls
1454 4230 Pls
1455 4229 Pls
1455 4229 Pls
1456 4228 Pls
1456 4227 Pls
1456 4227 Pls
1456 4226 Pls
1457 4226 Pls
1457 4225 Pls
1458 4225 Pls
1458 4224 Pls
1460 4224 Pls
1461 4223 Pls
1462 4223 Pls
1462 4222 Pls
1463 4222 Pls
1463 4221 Pls
1463 4221 Pls
1464 4220 Pls
1464 4220 Pls
1465 4219 Pls
1466 4219 Pls
1466 4218 Pls
1467 4218 Pls
1467 4217 Pls
1468 4217 Pls
1469 4216 Pls
1470 4216 Pls
1470 4215 Pls
1470 4215 Pls
1472 4214 Pls
1472 4214 Pls
1472 4213 Pls
1473 4213 Pls
1473 4212 Pls
1474 4212 Pls
1474 4211 Pls
1475 4210 Pls
1476 4210 Pls
1476 4209 Pls
1478 4209 Pls
1478 4208 Pls
1479 4207 Pls
1479 4207 Pls
1480 4206 Pls
1481 4206 Pls
1482 4205 Pls
1482 4205 Pls
1483 4204 Pls
1485 4204 Pls
1486 4203 Pls
1487 4203 Pls
1487 4202 Pls
1487 4201 Pls
1488 4201 Pls
1489 4200 Pls
1490 4200 Pls
1490 4199 Pls
1491 4198 Pls
1492 4198 Pls
1492 4197 Pls
1493 4197 Pls
1493 4196 Pls
1494 4196 Pls
1494 4195 Pls
1495 4195 Pls
1496 4194 Pls
1496 4194 Pls
1496 4193 Pls
1498 4193 Pls
1498 4192 Pls
1500 4191 Pls
1501 4191 Pls
1503 4190 Pls
1503 4190 Pls
1503 4189 Pls
1503 4189 Pls
1504 4188 Pls
1505 4188 Pls
1505 4187 Pls
1506 4186 Pls
1509 4185 Pls
1509 4185 Pls
1509 4184 Pls
1510 4184 Pls
1510 4183 Pls
1511 4183 Pls
1511 4182 Pls
1512 4181 Pls
1512 4180 Pls
1513 4179 Pls
1513 4179 Pls
1514 4178 Pls
1515 4178 Pls
1515 4177 Pls
1516 4177 Pls
1516 4176 Pls
1516 4176 Pls
1518 4175 Pls
1519 4174 Pls
1520 4174 Pls
1521 4173 Pls
1522 4173 Pls
1522 4172 Pls
1524 4172 Pls
1525 4171 Pls
1528 4170 Pls
1530 4170 Pls
1531 4169 Pls
1533 4169 Pls
1534 4168 Pls
1535 4168 Pls
1535 4167 Pls
1535 4167 Pls
1536 4166 Pls
1536 4165 Pls
1536 4165 Pls
1536 4164 Pls
1536 4164 Pls
1538 4163 Pls
1540 4163 Pls
1540 4162 Pls
1541 4161 Pls
1543 4161 Pls
1545 4160 Pls
1545 4160 Pls
1546 4159 Pls
1546 4158 Pls
1548 4158 Pls
1548 4157 Pls
1548 4157 Pls
1551 4156 Pls
1553 4156 Pls
1553 4155 Pls
1554 4154 Pls
1557 4154 Pls
1558 4153 Pls
1558 4153 Pls
1558 4152 Pls
1558 4151 Pls
1560 4151 Pls
1560 4150 Pls
1560 4150 Pls
1561 4149 Pls
1561 4149 Pls
1561 4148 Pls
1562 4147 Pls
1562 4146 Pls
1564 4146 Pls
1564 4145 Pls
1564 4144 Pls
1564 4144 Pls
1564 4143 Pls
1564 4143 Pls
1565 4141 Pls
1566 4140 Pls
1566 4140 Pls
1567 4139 Pls
1567 4138 Pls
1568 4137 Pls
1569 4136 Pls
1570 4135 Pls
1571 4135 Pls
1571 4134 Pls
1574 4134 Pls
1575 4133 Pls
1575 4132 Pls
1575 4132 Pls
1576 4131 Pls
1577 4131 Pls
1579 4130 Pls
1579 4129 Pls
1580 4129 Pls
1580 4128 Pls
1580 4127 Pls
1581 4127 Pls
1581 4126 Pls
1581 4126 Pls
1582 4125 Pls
1583 4124 Pls
1585 4124 Pls
1585 4123 Pls
1585 4123 Pls
1586 4122 Pls
1586 4121 Pls
1586 4121 Pls
1588 4120 Pls
1589 4119 Pls
1589 4119 Pls
1589 4118 Pls
1590 4118 Pls
1590 4117 Pls
1591 4116 Pls
1592 4115 Pls
1593 4114 Pls
1595 4114 Pls
1595 4113 Pls
1597 4112 Pls
1598 4112 Pls
1598 4111 Pls
1599 4111 Pls
1600 4110 Pls
1600 4109 Pls
1601 4109 Pls
1605 4107 Pls
1605 4107 Pls
1606 4106 Pls
1607 4105 Pls
1609 4105 Pls
1611 4104 Pls
1612 4104 Pls
1614 4103 Pls
1617 4102 Pls
1617 4102 Pls
1621 4101 Pls
1622 4100 Pls
1622 4100 Pls
1622 4099 Pls
1623 4098 Pls
1624 4098 Pls
1624 4097 Pls
1626 4096 Pls
1626 4096 Pls
1626 4095 Pls
1627 4094 Pls
1627 4094 Pls
1627 4093 Pls
1628 4092 Pls
1628 4092 Pls
1628 4091 Pls
1631 4090 Pls
1635 4090 Pls
1639 4089 Pls
1640 4088 Pls
1642 4088 Pls
1643 4087 Pls
1643 4086 Pls
1644 4086 Pls
1648 4085 Pls
1651 4084 Pls
1652 4084 Pls
1653 4083 Pls
1656 4082 Pls
1656 4082 Pls
1657 4081 Pls
1657 4080 Pls
1657 4080 Pls
1658 4079 Pls
1661 4078 Pls
1661 4078 Pls
1669 4077 Pls
1669 4076 Pls
1670 4076 Pls
1673 4075 Pls
1675 4074 Pls
1678 4074 Pls
1678 4073 Pls
1681 4072 Pls
1681 4072 Pls
1683 4071 Pls
1688 4070 Pls
1688 4069 Pls
1690 4069 Pls
1691 4068 Pls
1695 4067 Pls
1697 4067 Pls
1697 4066 Pls
1701 4065 Pls
1706 4065 Pls
1707 4064 Pls
1707 4063 Pls
1708 4062 Pls
1709 4062 Pls
1713 4061 Pls
1716 4060 Pls
1716 4060 Pls
1722 4059 Pls
1728 4058 Pls
1729 4058 Pls
1729 4057 Pls
1732 4056 Pls
1733 4055 Pls
1738 4055 Pls
1739 4054 Pls
1741 4053 Pls
1743 4053 Pls
1748 4052 Pls
1751 4051 Pls
1751 4050 Pls
1751 4050 Pls
1752 4049 Pls
1753 4048 Pls
1754 4048 Pls
1754 4047 Pls
1755 4046 Pls
1759 4045 Pls
1762 4045 Pls
1762 4044 Pls
1764 4043 Pls
1765 4042 Pls
1768 4042 Pls
1772 4041 Pls
1773 4040 Pls
1777 4040 Pls
1777 4039 Pls
1777 4038 Pls
1779 4037 Pls
1788 4037 Pls
1792 4036 Pls
1793 4035 Pls
1793 4034 Pls
1794 4034 Pls
1833 4033 Pls
1836 4032 Pls
1836 4031 Pls
1839 4031 Pls
1842 4030 Pls
1845 4028 Pls
1846 4028 Pls
1853 4027 Pls
1854 4026 Pls
1855 4025 Pls
1856 4025 Pls
1857 4024 Pls
1858 4023 Pls
1863 4022 Pls
1864 4022 Pls
1864 4021 Pls
1865 4020 Pls
1865 4019 Pls
1867 4019 Pls
1868 4018 Pls
1872 4017 Pls
1874 4016 Pls
1874 4015 Pls
1882 4015 Pls
1884 4014 Pls
1886 4013 Pls
1886 4012 Pls
1891 4012 Pls
1893 4011 Pls
1893 4010 Pls
1898 4009 Pls
1901 4008 Pls
1901 4008 Pls
1902 4007 Pls
1903 4006 Pls
1903 4005 Pls
1906 4005 Pls
1906 4004 Pls
1907 4003 Pls
1907 4002 Pls
1908 4001 Pls
1910 4001 Pls
1913 4000 Pls
1913 3999 Pls
1917 3998 Pls
1917 3997 Pls
1917 3997 Pls
1917 3996 Pls
1920 3995 Pls
1922 3994 Pls
1923 3993 Pls
1924 3993 Pls
1927 3992 Pls
1928 3991 Pls
1929 3990 Pls
1932 3989 Pls
1936 3989 Pls
1936 3988 Pls
1937 3987 Pls
1944 3986 Pls
1944 3985 Pls
1947 3984 Pls
1948 3984 Pls
1948 3983 Pls
1951 3982 Pls
1952 3981 Pls
1954 3980 Pls
1956 3980 Pls
1961 3979 Pls
1963 3978 Pls
1967 3977 Pls
1968 3976 Pls
1969 3975 Pls
1971 3975 Pls
1971 3973 Pls
1971 3972 Pls
1974 3971 Pls
1979 3970 Pls
1979 3969 Pls
1985 3969 Pls
1985 3968 Pls
1994 3967 Pls
1994 3966 Pls
1996 3965 Pls
1997 3964 Pls
1998 3964 Pls
2000 3963 Pls
2001 3962 Pls
2001 3961 Pls
2002 3960 Pls
2005 3959 Pls
2005 3958 Pls
2008 3958 Pls
2008 3957 Pls
2013 3956 Pls
2014 3955 Pls
2014 3954 Pls
2017 3953 Pls
2017 3952 Pls
2019 3951 Pls
2021 3951 Pls
2022 3950 Pls
2023 3949 Pls
2023 3948 Pls
2026 3947 Pls
2026 3946 Pls
2027 3945 Pls
2028 3944 Pls
2029 3943 Pls
2029 3943 Pls
2030 3942 Pls
2032 3941 Pls
2037 3940 Pls
2041 3939 Pls
2041 3938 Pls
2041 3937 Pls
2042 3936 Pls
2043 3935 Pls
2043 3935 Pls
2047 3934 Pls
2048 3933 Pls
2050 3932 Pls
2050 3931 Pls
2052 3930 Pls
2054 3929 Pls
2056 3928 Pls
2057 3927 Pls
2058 3926 Pls
2058 3925 Pls
2060 3924 Pls
2061 3924 Pls
2064 3923 Pls
2064 3922 Pls
2067 3921 Pls
2069 3920 Pls
2070 3919 Pls
2073 3918 Pls
2073 3917 Pls
2076 3916 Pls
2078 3915 Pls
2080 3914 Pls
2082 3913 Pls
2086 3912 Pls
2087 3911 Pls
2088 3910 Pls
2088 3909 Pls
2092 3908 Pls
2094 3908 Pls
2095 3907 Pls
2096 3906 Pls
2096 3905 Pls
2097 3904 Pls
2097 3903 Pls
2099 3902 Pls
2099 3901 Pls
2100 3900 Pls
2101 3899 Pls
2102 3898 Pls
2104 3897 Pls
2104 3896 Pls
2106 3895 Pls
2106 3894 Pls
2107 3893 Pls
2107 3892 Pls
2107 3891 Pls
2113 3890 Pls
2116 3889 Pls
2117 3888 Pls
2122 3887 Pls
2125 3886 Pls
2125 3885 Pls
2128 3884 Pls
2129 3883 Pls
2131 3882 Pls
2134 3881 Pls
2134 3880 Pls
2136 3878 Pls
2137 3877 Pls
2137 3876 Pls
2140 3875 Pls
2140 3874 Pls
2141 3873 Pls
2142 3872 Pls
2143 3871 Pls
2144 3870 Pls
2144 3869 Pls
2145 3868 Pls
2147 3867 Pls
2148 3866 Pls
2148 3865 Pls
2149 3864 Pls
2149 3862 Pls
2150 3861 Pls
2151 3860 Pls
2154 3859 Pls
2155 3858 Pls
2156 3857 Pls
2158 3856 Pls
2159 3855 Pls
2160 3854 Pls
2161 3853 Pls
2162 3852 Pls
2163 3851 Pls
2163 3850 Pls
2164 3849 Pls
2169 3848 Pls
2170 3847 Pls
2172 3845 Pls
2172 3844 Pls
2174 3843 Pls
2175 3842 Pls
2175 3841 Pls
2175 3840 Pls
2176 3839 Pls
2178 3838 Pls
2179 3837 Pls
2181 3836 Pls
2182 3834 Pls
2182 3833 Pls
2183 3832 Pls
2183 3831 Pls
2184 3830 Pls
2186 3829 Pls
2195 3828 Pls
2196 3827 Pls
2198 3826 Pls
2198 3824 Pls
2199 3823 Pls
2200 3822 Pls
2203 3821 Pls
2206 3820 Pls
2206 3819 Pls
2207 3818 Pls
2208 3816 Pls
2208 3815 Pls
2210 3814 Pls
2211 3813 Pls
2212 3812 Pls
2213 3811 Pls
2214 3809 Pls
2215 3808 Pls
2218 3807 Pls
2218 3806 Pls
2218 3805 Pls
2220 3804 Pls
2222 3802 Pls
2224 3801 Pls
2225 3800 Pls
2228 3799 Pls
2229 3798 Pls
2234 3797 Pls
2235 3795 Pls
2236 3794 Pls
2240 3793 Pls
2242 3792 Pls
2242 3791 Pls
2242 3789 Pls
2245 3788 Pls
2247 3787 Pls
2249 3786 Pls
2250 3783 Pls
2251 3782 Pls
2253 3781 Pls
2254 3779 Pls
2266 3778 Pls
2266 3777 Pls
2268 3776 Pls
2274 3775 Pls
2278 3773 Pls
2279 3772 Pls
2280 3771 Pls
2284 3769 Pls
2284 3768 Pls
2289 3767 Pls
2290 3766 Pls
2291 3764 Pls
2294 3763 Pls
2298 3762 Pls
2300 3761 Pls
2300 3759 Pls
2302 3758 Pls
2302 3757 Pls
2303 3755 Pls
2303 3754 Pls
2303 3753 Pls
2304 3752 Pls
2307 3750 Pls
2309 3749 Pls
2310 3748 Pls
2310 3746 Pls
2312 3745 Pls
2314 3744 Pls
2317 3742 Pls
2317 3741 Pls
2325 3740 Pls
2327 3738 Pls
2330 3737 Pls
2333 3736 Pls
2336 3734 Pls
2340 3733 Pls
2348 3731 Pls
2356 3730 Pls
2359 3729 Pls
2360 3727 Pls
2360 3726 Pls
2361 3725 Pls
2364 3723 Pls
2365 3722 Pls
2367 3720 Pls
2370 3719 Pls
2379 3718 Pls
2383 3716 Pls
2386 3715 Pls
2395 3713 Pls
2398 3712 Pls
2401 3711 Pls
2403 3709 Pls
2403 3708 Pls
2403 3706 Pls
2410 3705 Pls
2411 3703 Pls
2415 3702 Pls
2415 3701 Pls
2419 3699 Pls
2420 3698 Pls
2423 3696 Pls
2423 3695 Pls
2425 3693 Pls
2426 3692 Pls
2426 3690 Pls
2426 3689 Pls
2427 3687 Pls
2429 3686 Pls
2436 3684 Pls
2437 3683 Pls
2441 3681 Pls
2443 3680 Pls
2448 3678 Pls
2456 3677 Pls
2457 3675 Pls
2457 3674 Pls
2457 3672 Pls
2462 3671 Pls
2464 3669 Pls
2466 3668 Pls
2467 3666 Pls
2471 3665 Pls
2472 3663 Pls
2474 3661 Pls
2475 3660 Pls
2475 3658 Pls
2476 3657 Pls
2483 3655 Pls
2487 3654 Pls
2489 3652 Pls
2490 3650 Pls
2497 3649 Pls
2499 3647 Pls
2502 3645 Pls
2511 3644 Pls
2512 3642 Pls
2519 3641 Pls
2522 3639 Pls
2526 3637 Pls
2526 3636 Pls
2527 3634 Pls
2529 3632 Pls
2531 3631 Pls
2531 3629 Pls
2539 3627 Pls
2540 3626 Pls
2547 3624 Pls
2548 3622 Pls
2549 3621 Pls
2552 3619 Pls
2554 3617 Pls
2555 3615 Pls
2562 3614 Pls
2563 3612 Pls
2563 3610 Pls
2563 3609 Pls
2568 3607 Pls
2571 3605 Pls
2573 3603 Pls
2582 3602 Pls
2583 3600 Pls
2589 3598 Pls
2598 3596 Pls
2604 3594 Pls
2606 3593 Pls
2607 3591 Pls
2611 3589 Pls
2613 3587 Pls
2616 3585 Pls
2628 3584 Pls
2639 3582 Pls
2643 3580 Pls
2647 3578 Pls
2647 3576 Pls
2650 3574 Pls
2653 3572 Pls
2657 3571 Pls
2664 3569 Pls
2667 3567 Pls
2669 3565 Pls
2672 3563 Pls
2672 3561 Pls
2677 3559 Pls
2679 3557 Pls
2680 3555 Pls
2681 3553 Pls
2683 3551 Pls
2686 3549 Pls
2688 3547 Pls
2694 3545 Pls
2697 3543 Pls
2699 3541 Pls
2703 3539 Pls
2707 3537 Pls
2710 3535 Pls
2712 3533 Pls
2715 3531 Pls
2718 3529 Pls
2719 3527 Pls
2721 3525 Pls
2723 3523 Pls
2724 3521 Pls
2726 3519 Pls
2726 3517 Pls
2727 3515 Pls
2728 3513 Pls
2730 3511 Pls
2735 3509 Pls
2738 3506 Pls
2740 3504 Pls
2742 3502 Pls
2744 3500 Pls
2751 3498 Pls
2752 3496 Pls
2755 3493 Pls
2755 3491 Pls
2757 3487 Pls
2761 3485 Pls
2764 3482 Pls
2767 3480 Pls
2771 3478 Pls
2771 3475 Pls
2772 3473 Pls
2783 3471 Pls
2786 3469 Pls
2792 3466 Pls
2793 3464 Pls
2797 3462 Pls
2802 3459 Pls
2803 3457 Pls
2807 3455 Pls
2807 3452 Pls
2809 3450 Pls
2812 3447 Pls
2814 3445 Pls
2818 3443 Pls
2820 3440 Pls
2822 3438 Pls
2823 3435 Pls
2823 3433 Pls
2824 3430 Pls
2824 3428 Pls
2828 3425 Pls
2835 3423 Pls
2836 3420 Pls
2843 3418 Pls
2843 3415 Pls
2843 3413 Pls
2846 3410 Pls
2846 3407 Pls
2847 3405 Pls
2850 3402 Pls
2854 3399 Pls
2854 3397 Pls
2858 3394 Pls
2860 3391 Pls
2860 3389 Pls
2864 3386 Pls
2866 3383 Pls
2866 3381 Pls
2871 3378 Pls
2874 3375 Pls
2879 3372 Pls
2880 3369 Pls
2884 3367 Pls
2885 3364 Pls
2891 3361 Pls
2892 3358 Pls
2895 3355 Pls
2905 3352 Pls
2909 3349 Pls
2911 3346 Pls
2913 3343 Pls
2920 3340 Pls
2920 3337 Pls
2926 3334 Pls
2926 3331 Pls
2927 3328 Pls
2929 3325 Pls
2929 3322 Pls
2930 3319 Pls
2930 3316 Pls
2931 3313 Pls
2933 3310 Pls
2939 3306 Pls
2944 3303 Pls
2944 3300 Pls
2950 3297 Pls
2954 3293 Pls
2955 3290 Pls
2967 3287 Pls
2969 3284 Pls
2972 3280 Pls
2974 3277 Pls
2975 3273 Pls
2976 3270 Pls
2979 3267 Pls
2983 3263 Pls
2984 3260 Pls
2986 3256 Pls
2986 3252 Pls
2987 3249 Pls
2992 3245 Pls
2998 3242 Pls
3004 3238 Pls
3005 3234 Pls
3009 3231 Pls
3011 3227 Pls
3012 3223 Pls
3015 3219 Pls
3019 3216 Pls
3019 3212 Pls
3022 3208 Pls
3024 3204 Pls
3026 3200 Pls
3027 3196 Pls
3037 3192 Pls
3045 3188 Pls
3047 3184 Pls
3049 3180 Pls
3050 3176 Pls
3050 3171 Pls
3052 3167 Pls
3057 3163 Pls
3058 3159 Pls
3061 3154 Pls
3067 3150 Pls
3074 3146 Pls
3077 3141 Pls
3077 3137 Pls
3078 3132 Pls
3079 3128 Pls
3079 3123 Pls
3084 3118 Pls
3088 3114 Pls
3090 3109 Pls
3096 3104 Pls
3100 3099 Pls
3105 3095 Pls
3106 3090 Pls
3107 3085 Pls
3114 3080 Pls
3117 3075 Pls
3117 3070 Pls
3132 3064 Pls
3133 3059 Pls
3135 3054 Pls
3141 3049 Pls
3142 3043 Pls
3142 3038 Pls
3147 3032 Pls
3154 3027 Pls
3157 3021 Pls
3158 3015 Pls
3160 3010 Pls
3170 3004 Pls
3179 2998 Pls
3184 2992 Pls
3186 2986 Pls
3193 2980 Pls
3194 2974 Pls
3200 2967 Pls
3208 2961 Pls
3211 2954 Pls
3214 2948 Pls
3216 2941 Pls
3223 2935 Pls
3232 2928 Pls
3235 2921 Pls
3237 2914 Pls
3245 2907 Pls
3249 2900 Pls
3257 2893 Pls
3257 2885 Pls
3259 2878 Pls
3261 2870 Pls
3262 2862 Pls
3264 2854 Pls
3267 2846 Pls
3284 2838 Pls
3291 2830 Pls
3294 2822 Pls
3295 2813 Pls
3295 2805 Pls
3301 2796 Pls
3301 2787 Pls
3314 2778 Pls
3316 2768 Pls
3327 2759 Pls
3329 2749 Pls
3337 2739 Pls
3337 2729 Pls
3360 2719 Pls
3372 2708 Pls
3372 2698 Pls
3410 2687 Pls
3424 2676 Pls
3430 2664 Pls
3469 2652 Pls
3486 2640 Pls
3487 2628 Pls
3542 2615 Pls
3543 2602 Pls
3578 2589 Pls
3604 2576 Pls
3606 2561 Pls
3616 2547 Pls
3619 2532 Pls
3624 2517 Pls
3646 2501 Pls
3650 2485 Pls
3651 2468 Pls
3651 2450 Pls
3678 2432 Pls
3729 2413 Pls
3730 2394 Pls
3770 2373 Pls
3775 2352 Pls
3818 2330 Pls
3819 2307 Pls
3829 2283 Pls
3854 2257 Pls
3864 2230 Pls
3897 2202 Pls
3947 2171 Pls
3971 2139 Pls
3991 2105 Pls
4012 2068 Pls
4037 2028 Pls
4060 1985 Pls
4063 1937 Pls
4180 1884 Pls
4183 1826 Pls
4189 1759 Pls
4661 1682 Pls
4696 1591 Pls
4777 1480 Pls
5116 1337 Pls
5160 1135 Pls
5408 789 Pls
% End plot #1
2.000 UL
LTb
LCb setrgbcolor
1.000 UL
LTB
LCb setrgbcolor
798 4871 N
798 280 L
6149 0 V
0 4591 V
-6149 0 V
Z stroke
1.000 UP
1.000 UL
LTb
LCb setrgbcolor
stroke
grestore
end
showpage
%%Trailer
%%DocumentFonts: Helvetica
%%Pages: 1
