%!PS-Adobe-2.0
%%Title: packets-uv-s-log-packets-s-dist-linlin.eps
%%Creator: gnuplot 5.0 patchlevel 3
%%CreationDate: Mon May 29 11:07:44 2017
%%DocumentFonts: (atend)
%%BoundingBox: 50 50 554 770
%%Orientation: Landscape
%%Pages: (atend)
%%EndComments
%%BeginProlog
/gnudict 256 dict def
gnudict begin
%
% The following true/false flags may be edited by hand if desired.
% The unit line width and grayscale image gamma correction may also be changed.
%
/Color true def
/Blacktext false def
/Solid false def
/Dashlength 1 def
/Landscape true def
/Level1 false def
/Level3 false def
/Rounded false def
/ClipToBoundingBox false def
/SuppressPDFMark false def
/TransparentPatterns false def
/gnulinewidth 5.000 def
/userlinewidth gnulinewidth def
/Gamma 1.0 def
/BackgroundColor {-1.000 -1.000 -1.000} def
%
/vshift -46 def
/dl1 {
  10.0 Dashlength userlinewidth gnulinewidth div mul mul mul
  Rounded { currentlinewidth 0.75 mul sub dup 0 le { pop 0.01 } if } if
} def
/dl2 {
  10.0 Dashlength userlinewidth gnulinewidth div mul mul mul
  Rounded { currentlinewidth 0.75 mul add } if
} def
/hpt_ 31.5 def
/vpt_ 31.5 def
/hpt hpt_ def
/vpt vpt_ def
/doclip {
  ClipToBoundingBox {
    newpath 50 50 moveto 554 50 lineto 554 770 lineto 50 770 lineto closepath
    clip
  } if
} def
%
% Gnuplot Prolog Version 5.1 (Oct 2015)
%
%/SuppressPDFMark true def
%
/M {moveto} bind def
/L {lineto} bind def
/R {rmoveto} bind def
/V {rlineto} bind def
/N {newpath moveto} bind def
/Z {closepath} bind def
/C {setrgbcolor} bind def
/f {rlineto fill} bind def
/g {setgray} bind def
/Gshow {show} def   % May be redefined later in the file to support UTF-8
/vpt2 vpt 2 mul def
/hpt2 hpt 2 mul def
/Lshow {currentpoint stroke M 0 vshift R 
	Blacktext {gsave 0 setgray textshow grestore} {textshow} ifelse} def
/Rshow {currentpoint stroke M dup stringwidth pop neg vshift R
	Blacktext {gsave 0 setgray textshow grestore} {textshow} ifelse} def
/Cshow {currentpoint stroke M dup stringwidth pop -2 div vshift R 
	Blacktext {gsave 0 setgray textshow grestore} {textshow} ifelse} def
/UP {dup vpt_ mul /vpt exch def hpt_ mul /hpt exch def
  /hpt2 hpt 2 mul def /vpt2 vpt 2 mul def} def
/DL {Color {setrgbcolor Solid {pop []} if 0 setdash}
 {pop pop pop 0 setgray Solid {pop []} if 0 setdash} ifelse} def
/BL {stroke userlinewidth 2 mul setlinewidth
	Rounded {1 setlinejoin 1 setlinecap} if} def
/AL {stroke userlinewidth 2 div setlinewidth
	Rounded {1 setlinejoin 1 setlinecap} if} def
/UL {dup gnulinewidth mul /userlinewidth exch def
	dup 1 lt {pop 1} if 10 mul /udl exch def} def
/PL {stroke userlinewidth setlinewidth
	Rounded {1 setlinejoin 1 setlinecap} if} def
3.8 setmiterlimit
% Classic Line colors (version 5.0)
/LCw {1 1 1} def
/LCb {0 0 0} def
/LCa {0 0 0} def
/LC0 {1 0 0} def
/LC1 {0 1 0} def
/LC2 {0 0 1} def
/LC3 {1 0 1} def
/LC4 {0 1 1} def
/LC5 {1 1 0} def
/LC6 {0 0 0} def
/LC7 {1 0.3 0} def
/LC8 {0.5 0.5 0.5} def
% Default dash patterns (version 5.0)
/LTB {BL [] LCb DL} def
/LTw {PL [] 1 setgray} def
/LTb {PL [] LCb DL} def
/LTa {AL [1 udl mul 2 udl mul] 0 setdash LCa setrgbcolor} def
/LT0 {PL [] LC0 DL} def
/LT1 {PL [2 dl1 3 dl2] LC1 DL} def
/LT2 {PL [1 dl1 1.5 dl2] LC2 DL} def
/LT3 {PL [6 dl1 2 dl2 1 dl1 2 dl2] LC3 DL} def
/LT4 {PL [1 dl1 2 dl2 6 dl1 2 dl2 1 dl1 2 dl2] LC4 DL} def
/LT5 {PL [4 dl1 2 dl2] LC5 DL} def
/LT6 {PL [1.5 dl1 1.5 dl2 1.5 dl1 1.5 dl2 1.5 dl1 6 dl2] LC6 DL} def
/LT7 {PL [3 dl1 3 dl2 1 dl1 3 dl2] LC7 DL} def
/LT8 {PL [2 dl1 2 dl2 2 dl1 6 dl2] LC8 DL} def
/SL {[] 0 setdash} def
/Pnt {stroke [] 0 setdash gsave 1 setlinecap M 0 0 V stroke grestore} def
/Dia {stroke [] 0 setdash 2 copy vpt add M
  hpt neg vpt neg V hpt vpt neg V
  hpt vpt V hpt neg vpt V closepath stroke
  Pnt} def
/Pls {stroke [] 0 setdash vpt sub M 0 vpt2 V
  currentpoint stroke M
  hpt neg vpt neg R hpt2 0 V stroke
 } def
/Box {stroke [] 0 setdash 2 copy exch hpt sub exch vpt add M
  0 vpt2 neg V hpt2 0 V 0 vpt2 V
  hpt2 neg 0 V closepath stroke
  Pnt} def
/Crs {stroke [] 0 setdash exch hpt sub exch vpt add M
  hpt2 vpt2 neg V currentpoint stroke M
  hpt2 neg 0 R hpt2 vpt2 V stroke} def
/TriU {stroke [] 0 setdash 2 copy vpt 1.12 mul add M
  hpt neg vpt -1.62 mul V
  hpt 2 mul 0 V
  hpt neg vpt 1.62 mul V closepath stroke
  Pnt} def
/Star {2 copy Pls Crs} def
/BoxF {stroke [] 0 setdash exch hpt sub exch vpt add M
  0 vpt2 neg V hpt2 0 V 0 vpt2 V
  hpt2 neg 0 V closepath fill} def
/TriUF {stroke [] 0 setdash vpt 1.12 mul add M
  hpt neg vpt -1.62 mul V
  hpt 2 mul 0 V
  hpt neg vpt 1.62 mul V closepath fill} def
/TriD {stroke [] 0 setdash 2 copy vpt 1.12 mul sub M
  hpt neg vpt 1.62 mul V
  hpt 2 mul 0 V
  hpt neg vpt -1.62 mul V closepath stroke
  Pnt} def
/TriDF {stroke [] 0 setdash vpt 1.12 mul sub M
  hpt neg vpt 1.62 mul V
  hpt 2 mul 0 V
  hpt neg vpt -1.62 mul V closepath fill} def
/DiaF {stroke [] 0 setdash vpt add M
  hpt neg vpt neg V hpt vpt neg V
  hpt vpt V hpt neg vpt V closepath fill} def
/Pent {stroke [] 0 setdash 2 copy gsave
  translate 0 hpt M 4 {72 rotate 0 hpt L} repeat
  closepath stroke grestore Pnt} def
/PentF {stroke [] 0 setdash gsave
  translate 0 hpt M 4 {72 rotate 0 hpt L} repeat
  closepath fill grestore} def
/Circle {stroke [] 0 setdash 2 copy
  hpt 0 360 arc stroke Pnt} def
/CircleF {stroke [] 0 setdash hpt 0 360 arc fill} def
/C0 {BL [] 0 setdash 2 copy moveto vpt 90 450 arc} bind def
/C1 {BL [] 0 setdash 2 copy moveto
	2 copy vpt 0 90 arc closepath fill
	vpt 0 360 arc closepath} bind def
/C2 {BL [] 0 setdash 2 copy moveto
	2 copy vpt 90 180 arc closepath fill
	vpt 0 360 arc closepath} bind def
/C3 {BL [] 0 setdash 2 copy moveto
	2 copy vpt 0 180 arc closepath fill
	vpt 0 360 arc closepath} bind def
/C4 {BL [] 0 setdash 2 copy moveto
	2 copy vpt 180 270 arc closepath fill
	vpt 0 360 arc closepath} bind def
/C5 {BL [] 0 setdash 2 copy moveto
	2 copy vpt 0 90 arc
	2 copy moveto
	2 copy vpt 180 270 arc closepath fill
	vpt 0 360 arc} bind def
/C6 {BL [] 0 setdash 2 copy moveto
	2 copy vpt 90 270 arc closepath fill
	vpt 0 360 arc closepath} bind def
/C7 {BL [] 0 setdash 2 copy moveto
	2 copy vpt 0 270 arc closepath fill
	vpt 0 360 arc closepath} bind def
/C8 {BL [] 0 setdash 2 copy moveto
	2 copy vpt 270 360 arc closepath fill
	vpt 0 360 arc closepath} bind def
/C9 {BL [] 0 setdash 2 copy moveto
	2 copy vpt 270 450 arc closepath fill
	vpt 0 360 arc closepath} bind def
/C10 {BL [] 0 setdash 2 copy 2 copy moveto vpt 270 360 arc closepath fill
	2 copy moveto
	2 copy vpt 90 180 arc closepath fill
	vpt 0 360 arc closepath} bind def
/C11 {BL [] 0 setdash 2 copy moveto
	2 copy vpt 0 180 arc closepath fill
	2 copy moveto
	2 copy vpt 270 360 arc closepath fill
	vpt 0 360 arc closepath} bind def
/C12 {BL [] 0 setdash 2 copy moveto
	2 copy vpt 180 360 arc closepath fill
	vpt 0 360 arc closepath} bind def
/C13 {BL [] 0 setdash 2 copy moveto
	2 copy vpt 0 90 arc closepath fill
	2 copy moveto
	2 copy vpt 180 360 arc closepath fill
	vpt 0 360 arc closepath} bind def
/C14 {BL [] 0 setdash 2 copy moveto
	2 copy vpt 90 360 arc closepath fill
	vpt 0 360 arc} bind def
/C15 {BL [] 0 setdash 2 copy vpt 0 360 arc closepath fill
	vpt 0 360 arc closepath} bind def
/Rec {newpath 4 2 roll moveto 1 index 0 rlineto 0 exch rlineto
	neg 0 rlineto closepath} bind def
/Square {dup Rec} bind def
/Bsquare {vpt sub exch vpt sub exch vpt2 Square} bind def
/S0 {BL [] 0 setdash 2 copy moveto 0 vpt rlineto BL Bsquare} bind def
/S1 {BL [] 0 setdash 2 copy vpt Square fill Bsquare} bind def
/S2 {BL [] 0 setdash 2 copy exch vpt sub exch vpt Square fill Bsquare} bind def
/S3 {BL [] 0 setdash 2 copy exch vpt sub exch vpt2 vpt Rec fill Bsquare} bind def
/S4 {BL [] 0 setdash 2 copy exch vpt sub exch vpt sub vpt Square fill Bsquare} bind def
/S5 {BL [] 0 setdash 2 copy 2 copy vpt Square fill
	exch vpt sub exch vpt sub vpt Square fill Bsquare} bind def
/S6 {BL [] 0 setdash 2 copy exch vpt sub exch vpt sub vpt vpt2 Rec fill Bsquare} bind def
/S7 {BL [] 0 setdash 2 copy exch vpt sub exch vpt sub vpt vpt2 Rec fill
	2 copy vpt Square fill Bsquare} bind def
/S8 {BL [] 0 setdash 2 copy vpt sub vpt Square fill Bsquare} bind def
/S9 {BL [] 0 setdash 2 copy vpt sub vpt vpt2 Rec fill Bsquare} bind def
/S10 {BL [] 0 setdash 2 copy vpt sub vpt Square fill 2 copy exch vpt sub exch vpt Square fill
	Bsquare} bind def
/S11 {BL [] 0 setdash 2 copy vpt sub vpt Square fill 2 copy exch vpt sub exch vpt2 vpt Rec fill
	Bsquare} bind def
/S12 {BL [] 0 setdash 2 copy exch vpt sub exch vpt sub vpt2 vpt Rec fill Bsquare} bind def
/S13 {BL [] 0 setdash 2 copy exch vpt sub exch vpt sub vpt2 vpt Rec fill
	2 copy vpt Square fill Bsquare} bind def
/S14 {BL [] 0 setdash 2 copy exch vpt sub exch vpt sub vpt2 vpt Rec fill
	2 copy exch vpt sub exch vpt Square fill Bsquare} bind def
/S15 {BL [] 0 setdash 2 copy Bsquare fill Bsquare} bind def
/D0 {gsave translate 45 rotate 0 0 S0 stroke grestore} bind def
/D1 {gsave translate 45 rotate 0 0 S1 stroke grestore} bind def
/D2 {gsave translate 45 rotate 0 0 S2 stroke grestore} bind def
/D3 {gsave translate 45 rotate 0 0 S3 stroke grestore} bind def
/D4 {gsave translate 45 rotate 0 0 S4 stroke grestore} bind def
/D5 {gsave translate 45 rotate 0 0 S5 stroke grestore} bind def
/D6 {gsave translate 45 rotate 0 0 S6 stroke grestore} bind def
/D7 {gsave translate 45 rotate 0 0 S7 stroke grestore} bind def
/D8 {gsave translate 45 rotate 0 0 S8 stroke grestore} bind def
/D9 {gsave translate 45 rotate 0 0 S9 stroke grestore} bind def
/D10 {gsave translate 45 rotate 0 0 S10 stroke grestore} bind def
/D11 {gsave translate 45 rotate 0 0 S11 stroke grestore} bind def
/D12 {gsave translate 45 rotate 0 0 S12 stroke grestore} bind def
/D13 {gsave translate 45 rotate 0 0 S13 stroke grestore} bind def
/D14 {gsave translate 45 rotate 0 0 S14 stroke grestore} bind def
/D15 {gsave translate 45 rotate 0 0 S15 stroke grestore} bind def
/DiaE {stroke [] 0 setdash vpt add M
  hpt neg vpt neg V hpt vpt neg V
  hpt vpt V hpt neg vpt V closepath stroke} def
/BoxE {stroke [] 0 setdash exch hpt sub exch vpt add M
  0 vpt2 neg V hpt2 0 V 0 vpt2 V
  hpt2 neg 0 V closepath stroke} def
/TriUE {stroke [] 0 setdash vpt 1.12 mul add M
  hpt neg vpt -1.62 mul V
  hpt 2 mul 0 V
  hpt neg vpt 1.62 mul V closepath stroke} def
/TriDE {stroke [] 0 setdash vpt 1.12 mul sub M
  hpt neg vpt 1.62 mul V
  hpt 2 mul 0 V
  hpt neg vpt -1.62 mul V closepath stroke} def
/PentE {stroke [] 0 setdash gsave
  translate 0 hpt M 4 {72 rotate 0 hpt L} repeat
  closepath stroke grestore} def
/CircE {stroke [] 0 setdash 
  hpt 0 360 arc stroke} def
/Opaque {gsave closepath 1 setgray fill grestore 0 setgray closepath} def
/DiaW {stroke [] 0 setdash vpt add M
  hpt neg vpt neg V hpt vpt neg V
  hpt vpt V hpt neg vpt V Opaque stroke} def
/BoxW {stroke [] 0 setdash exch hpt sub exch vpt add M
  0 vpt2 neg V hpt2 0 V 0 vpt2 V
  hpt2 neg 0 V Opaque stroke} def
/TriUW {stroke [] 0 setdash vpt 1.12 mul add M
  hpt neg vpt -1.62 mul V
  hpt 2 mul 0 V
  hpt neg vpt 1.62 mul V Opaque stroke} def
/TriDW {stroke [] 0 setdash vpt 1.12 mul sub M
  hpt neg vpt 1.62 mul V
  hpt 2 mul 0 V
  hpt neg vpt -1.62 mul V Opaque stroke} def
/PentW {stroke [] 0 setdash gsave
  translate 0 hpt M 4 {72 rotate 0 hpt L} repeat
  Opaque stroke grestore} def
/CircW {stroke [] 0 setdash 
  hpt 0 360 arc Opaque stroke} def
/BoxFill {gsave Rec 1 setgray fill grestore} def
/Density {
  /Fillden exch def
  currentrgbcolor
  /ColB exch def /ColG exch def /ColR exch def
  /ColR ColR Fillden mul Fillden sub 1 add def
  /ColG ColG Fillden mul Fillden sub 1 add def
  /ColB ColB Fillden mul Fillden sub 1 add def
  ColR ColG ColB setrgbcolor} def
/BoxColFill {gsave Rec PolyFill} def
/PolyFill {gsave Density fill grestore grestore} def
/h {rlineto rlineto rlineto gsave closepath fill grestore} bind def
%
% PostScript Level 1 Pattern Fill routine for rectangles
% Usage: x y w h s a XX PatternFill
%	x,y = lower left corner of box to be filled
%	w,h = width and height of box
%	  a = angle in degrees between lines and x-axis
%	 XX = 0/1 for no/yes cross-hatch
%
/PatternFill {gsave /PFa [ 9 2 roll ] def
  PFa 0 get PFa 2 get 2 div add PFa 1 get PFa 3 get 2 div add translate
  PFa 2 get -2 div PFa 3 get -2 div PFa 2 get PFa 3 get Rec
  TransparentPatterns {} {gsave 1 setgray fill grestore} ifelse
  clip
  currentlinewidth 0.5 mul setlinewidth
  /PFs PFa 2 get dup mul PFa 3 get dup mul add sqrt def
  0 0 M PFa 5 get rotate PFs -2 div dup translate
  0 1 PFs PFa 4 get div 1 add floor cvi
	{PFa 4 get mul 0 M 0 PFs V} for
  0 PFa 6 get ne {
	0 1 PFs PFa 4 get div 1 add floor cvi
	{PFa 4 get mul 0 2 1 roll M PFs 0 V} for
 } if
  stroke grestore} def
%
/languagelevel where
 {pop languagelevel} {1} ifelse
dup 2 lt
	{/InterpretLevel1 true def
	 /InterpretLevel3 false def}
	{/InterpretLevel1 Level1 def
	 2 gt
	    {/InterpretLevel3 Level3 def}
	    {/InterpretLevel3 false def}
	 ifelse }
 ifelse
%
% PostScript level 2 pattern fill definitions
%
/Level2PatternFill {
/Tile8x8 {/PaintType 2 /PatternType 1 /TilingType 1 /BBox [0 0 8 8] /XStep 8 /YStep 8}
	bind def
/KeepColor {currentrgbcolor [/Pattern /DeviceRGB] setcolorspace} bind def
<< Tile8x8
 /PaintProc {0.5 setlinewidth pop 0 0 M 8 8 L 0 8 M 8 0 L stroke} 
>> matrix makepattern
/Pat1 exch def
<< Tile8x8
 /PaintProc {0.5 setlinewidth pop 0 0 M 8 8 L 0 8 M 8 0 L stroke
	0 4 M 4 8 L 8 4 L 4 0 L 0 4 L stroke}
>> matrix makepattern
/Pat2 exch def
<< Tile8x8
 /PaintProc {0.5 setlinewidth pop 0 0 M 0 8 L
	8 8 L 8 0 L 0 0 L fill}
>> matrix makepattern
/Pat3 exch def
<< Tile8x8
 /PaintProc {0.5 setlinewidth pop -4 8 M 8 -4 L
	0 12 M 12 0 L stroke}
>> matrix makepattern
/Pat4 exch def
<< Tile8x8
 /PaintProc {0.5 setlinewidth pop -4 0 M 8 12 L
	0 -4 M 12 8 L stroke}
>> matrix makepattern
/Pat5 exch def
<< Tile8x8
 /PaintProc {0.5 setlinewidth pop -2 8 M 4 -4 L
	0 12 M 8 -4 L 4 12 M 10 0 L stroke}
>> matrix makepattern
/Pat6 exch def
<< Tile8x8
 /PaintProc {0.5 setlinewidth pop -2 0 M 4 12 L
	0 -4 M 8 12 L 4 -4 M 10 8 L stroke}
>> matrix makepattern
/Pat7 exch def
<< Tile8x8
 /PaintProc {0.5 setlinewidth pop 8 -2 M -4 4 L
	12 0 M -4 8 L 12 4 M 0 10 L stroke}
>> matrix makepattern
/Pat8 exch def
<< Tile8x8
 /PaintProc {0.5 setlinewidth pop 0 -2 M 12 4 L
	-4 0 M 12 8 L -4 4 M 8 10 L stroke}
>> matrix makepattern
/Pat9 exch def
/Pattern1 {PatternBgnd KeepColor Pat1 setpattern} bind def
/Pattern2 {PatternBgnd KeepColor Pat2 setpattern} bind def
/Pattern3 {PatternBgnd KeepColor Pat3 setpattern} bind def
/Pattern4 {PatternBgnd KeepColor Landscape {Pat5} {Pat4} ifelse setpattern} bind def
/Pattern5 {PatternBgnd KeepColor Landscape {Pat4} {Pat5} ifelse setpattern} bind def
/Pattern6 {PatternBgnd KeepColor Landscape {Pat9} {Pat6} ifelse setpattern} bind def
/Pattern7 {PatternBgnd KeepColor Landscape {Pat8} {Pat7} ifelse setpattern} bind def
} def
%
%
%End of PostScript Level 2 code
%
/PatternBgnd {
  TransparentPatterns {} {gsave 1 setgray fill grestore} ifelse
} def
%
% Substitute for Level 2 pattern fill codes with
% grayscale if Level 2 support is not selected.
%
/Level1PatternFill {
/Pattern1 {0.250 Density} bind def
/Pattern2 {0.500 Density} bind def
/Pattern3 {0.750 Density} bind def
/Pattern4 {0.125 Density} bind def
/Pattern5 {0.375 Density} bind def
/Pattern6 {0.625 Density} bind def
/Pattern7 {0.875 Density} bind def
} def
%
% Now test for support of Level 2 code
%
Level1 {Level1PatternFill} {Level2PatternFill} ifelse
%
/Symbol-Oblique /Symbol findfont [1 0 .167 1 0 0] makefont
dup length dict begin {1 index /FID eq {pop pop} {def} ifelse} forall
currentdict end definefont pop
%
/MFshow {
   { dup 5 get 3 ge
     { 5 get 3 eq {gsave} {grestore} ifelse }
     {dup dup 0 get findfont exch 1 get scalefont setfont
     [ currentpoint ] exch dup 2 get 0 exch R dup 5 get 2 ne {dup dup 6
     get exch 4 get {textshow} {stringwidth pop 0 R} ifelse }if dup 5 get 0 eq
     {dup 3 get {2 get neg 0 exch R pop} {pop aload pop M} ifelse} {dup 5
     get 1 eq {dup 2 get exch dup 3 get exch 6 get stringwidth pop -2 div
     dup 0 R} {dup 6 get stringwidth pop -2 div 0 R 6 get
     textshow 2 index {aload pop M neg 3 -1 roll neg R pop pop} {pop pop pop
     pop aload pop M} ifelse }ifelse }ifelse }
     ifelse }
   forall} def
/Gswidth {dup type /stringtype eq {stringwidth} {pop (n) stringwidth} ifelse} def
/MFwidth {0 exch { dup 5 get 3 ge { 5 get 3 eq { 0 } { pop } ifelse }
 {dup 3 get{dup dup 0 get findfont exch 1 get scalefont setfont
     6 get Gswidth pop add} {pop} ifelse} ifelse} forall} def
/MLshow { currentpoint stroke M
  0 exch R
  Blacktext {gsave 0 setgray MFshow grestore} {MFshow} ifelse } bind def
/MRshow { currentpoint stroke M
  exch dup MFwidth neg 3 -1 roll R
  Blacktext {gsave 0 setgray MFshow grestore} {MFshow} ifelse } bind def
/MCshow { currentpoint stroke M
  exch dup MFwidth -2 div 3 -1 roll R
  Blacktext {gsave 0 setgray MFshow grestore} {MFshow} ifelse } bind def
/XYsave    { [( ) 1 2 true false 3 ()] } bind def
/XYrestore { [( ) 1 2 true false 4 ()] } bind def
Level1 SuppressPDFMark or 
{} {
/SDict 10 dict def
systemdict /pdfmark known not {
  userdict /pdfmark systemdict /cleartomark get put
} if
SDict begin [
  /Title (packets-uv-s-log-packets-s-dist-linlin.eps)
  /Subject (gnuplot plot)
  /Creator (gnuplot 5.0 patchlevel 3)
  /Author (tiphaine)
%  /Producer (gnuplot)
%  /Keywords ()
  /CreationDate (Mon May 29 11:07:44 2017)
  /DOCINFO pdfmark
end
} ifelse
%
% Support for boxed text - Ethan A Merritt May 2005
%
/InitTextBox { userdict /TBy2 3 -1 roll put userdict /TBx2 3 -1 roll put
           userdict /TBy1 3 -1 roll put userdict /TBx1 3 -1 roll put
	   /Boxing true def } def
/ExtendTextBox { Boxing
    { gsave dup false charpath pathbbox
      dup TBy2 gt {userdict /TBy2 3 -1 roll put} {pop} ifelse
      dup TBx2 gt {userdict /TBx2 3 -1 roll put} {pop} ifelse
      dup TBy1 lt {userdict /TBy1 3 -1 roll put} {pop} ifelse
      dup TBx1 lt {userdict /TBx1 3 -1 roll put} {pop} ifelse
      grestore } if } def
/PopTextBox { newpath TBx1 TBxmargin sub TBy1 TBymargin sub M
               TBx1 TBxmargin sub TBy2 TBymargin add L
	       TBx2 TBxmargin add TBy2 TBymargin add L
	       TBx2 TBxmargin add TBy1 TBymargin sub L closepath } def
/DrawTextBox { PopTextBox stroke /Boxing false def} def
/FillTextBox { gsave PopTextBox 1 1 1 setrgbcolor fill grestore /Boxing false def} def
0 0 0 0 InitTextBox
/TBxmargin 20 def
/TBymargin 20 def
/Boxing false def
/textshow { ExtendTextBox Gshow } def
%
% redundant definitions for compatibility with prologue.ps older than 5.0.2
/LTB {BL [] LCb DL} def
/LTb {PL [] LCb DL} def
end
%%EndProlog
%%Page: 1 1
gnudict begin
gsave
doclip
50 50 translate
0.100 0.100 scale
90 rotate
0 -5040 translate
0 setgray
newpath
(Helvetica) findfont 140 scalefont setfont
BackgroundColor 0 lt 3 1 roll 0 lt exch 0 lt or or not {gsave BackgroundColor C clippath fill grestore} if
1.000 UL
LTb
LCb setrgbcolor
630 280 M
63 0 V
6254 0 R
-63 0 V
stroke
546 280 M
[ [(Helvetica) 140.0 0.0 true true 0 ( 0)]
] -46.7 MRshow
1.000 UL
LTb
LCb setrgbcolor
630 1198 M
63 0 V
6254 0 R
-63 0 V
stroke
546 1198 M
[ [(Helvetica) 140.0 0.0 true true 0 ( 500)]
] -46.7 MRshow
1.000 UL
LTb
LCb setrgbcolor
630 2116 M
63 0 V
6254 0 R
-63 0 V
stroke
546 2116 M
[ [(Helvetica) 140.0 0.0 true true 0 ( 1000)]
] -46.7 MRshow
1.000 UL
LTb
LCb setrgbcolor
630 3035 M
63 0 V
6254 0 R
-63 0 V
stroke
546 3035 M
[ [(Helvetica) 140.0 0.0 true true 0 ( 1500)]
] -46.7 MRshow
1.000 UL
LTb
LCb setrgbcolor
630 3953 M
63 0 V
6254 0 R
-63 0 V
stroke
546 3953 M
[ [(Helvetica) 140.0 0.0 true true 0 ( 2000)]
] -46.7 MRshow
1.000 UL
LTb
LCb setrgbcolor
630 4871 M
63 0 V
6254 0 R
-63 0 V
stroke
546 4871 M
[ [(Helvetica) 140.0 0.0 true true 0 ( 2500)]
] -46.7 MRshow
1.000 UL
LTb
LCb setrgbcolor
630 280 M
0 63 V
0 4528 R
0 -63 V
stroke
630 140 M
[ [(Helvetica) 140.0 0.0 true true 0 ( 0)]
] -46.7 MCshow
1.000 UL
LTb
LCb setrgbcolor
1532 280 M
0 63 V
0 4528 R
0 -63 V
stroke
1532 140 M
[ [(Helvetica) 140.0 0.0 true true 0 ( 50000)]
] -46.7 MCshow
1.000 UL
LTb
LCb setrgbcolor
2435 280 M
0 63 V
0 4528 R
0 -63 V
stroke
2435 140 M
[ [(Helvetica) 140.0 0.0 true true 0 ( 100000)]
] -46.7 MCshow
1.000 UL
LTb
LCb setrgbcolor
3337 280 M
0 63 V
0 4528 R
0 -63 V
stroke
3337 140 M
[ [(Helvetica) 140.0 0.0 true true 0 ( 150000)]
] -46.7 MCshow
1.000 UL
LTb
LCb setrgbcolor
4240 280 M
0 63 V
0 4528 R
0 -63 V
stroke
4240 140 M
[ [(Helvetica) 140.0 0.0 true true 0 ( 200000)]
] -46.7 MCshow
1.000 UL
LTb
LCb setrgbcolor
5142 280 M
0 63 V
0 4528 R
0 -63 V
stroke
5142 140 M
[ [(Helvetica) 140.0 0.0 true true 0 ( 250000)]
] -46.7 MCshow
1.000 UL
LTb
LCb setrgbcolor
6045 280 M
0 63 V
0 4528 R
0 -63 V
stroke
6045 140 M
[ [(Helvetica) 140.0 0.0 true true 0 ( 300000)]
] -46.7 MCshow
1.000 UL
LTb
LCb setrgbcolor
6947 280 M
0 63 V
0 4528 R
0 -63 V
stroke
6947 140 M
[ [(Helvetica) 140.0 0.0 true true 0 ( 350000)]
] -46.7 MCshow
1.000 UL
LTb
LCb setrgbcolor
1.000 UL
LTB
LCb setrgbcolor
630 4871 N
630 280 L
6317 0 V
0 4591 V
-6317 0 V
Z stroke
1.000 UP
1.000 UL
LTb
LCb setrgbcolor
% Begin plot #1
1.000 UP
1.000 UL
LTb
0.58 0.00 0.83 C 630 4430 Pls
831 282 Pls
844 282 Pls
852 282 Pls
855 282 Pls
856 282 Pls
856 282 Pls
857 282 Pls
857 282 Pls
857 282 Pls
858 282 Pls
859 282 Pls
859 282 Pls
861 282 Pls
862 282 Pls
863 282 Pls
863 282 Pls
866 282 Pls
866 282 Pls
867 282 Pls
869 282 Pls
870 282 Pls
870 282 Pls
871 282 Pls
871 282 Pls
871 282 Pls
871 282 Pls
871 282 Pls
871 282 Pls
872 282 Pls
872 282 Pls
873 284 Pls
873 282 Pls
873 282 Pls
873 282 Pls
874 282 Pls
874 282 Pls
875 282 Pls
875 282 Pls
876 282 Pls
876 282 Pls
877 282 Pls
877 282 Pls
877 282 Pls
878 282 Pls
878 282 Pls
878 282 Pls
878 282 Pls
878 282 Pls
879 282 Pls
879 282 Pls
879 282 Pls
879 282 Pls
879 282 Pls
880 284 Pls
880 282 Pls
880 282 Pls
880 282 Pls
880 282 Pls
880 282 Pls
881 282 Pls
881 282 Pls
881 282 Pls
881 282 Pls
881 282 Pls
882 282 Pls
882 282 Pls
882 282 Pls
883 282 Pls
883 282 Pls
883 282 Pls
883 282 Pls
884 282 Pls
884 282 Pls
884 282 Pls
884 282 Pls
884 282 Pls
885 282 Pls
885 282 Pls
885 282 Pls
885 282 Pls
885 282 Pls
885 282 Pls
885 282 Pls
886 282 Pls
887 282 Pls
887 282 Pls
887 282 Pls
887 282 Pls
888 282 Pls
888 282 Pls
888 282 Pls
888 282 Pls
888 282 Pls
888 282 Pls
889 282 Pls
889 282 Pls
889 282 Pls
890 282 Pls
890 282 Pls
890 282 Pls
890 282 Pls
890 284 Pls
891 282 Pls
891 282 Pls
891 282 Pls
891 282 Pls
891 282 Pls
892 282 Pls
892 282 Pls
892 282 Pls
893 282 Pls
893 282 Pls
893 282 Pls
893 282 Pls
894 282 Pls
894 282 Pls
894 282 Pls
894 282 Pls
894 282 Pls
894 282 Pls
894 282 Pls
894 282 Pls
894 282 Pls
895 282 Pls
895 284 Pls
895 282 Pls
895 282 Pls
896 282 Pls
896 282 Pls
896 282 Pls
896 282 Pls
896 282 Pls
896 282 Pls
897 282 Pls
897 282 Pls
897 282 Pls
897 282 Pls
898 282 Pls
898 282 Pls
898 282 Pls
898 282 Pls
898 282 Pls
898 282 Pls
898 282 Pls
898 282 Pls
898 282 Pls
899 282 Pls
899 282 Pls
899 284 Pls
899 282 Pls
899 282 Pls
899 282 Pls
899 282 Pls
899 282 Pls
899 282 Pls
899 282 Pls
900 282 Pls
900 282 Pls
900 282 Pls
900 282 Pls
900 282 Pls
900 282 Pls
900 282 Pls
901 282 Pls
901 282 Pls
901 282 Pls
901 282 Pls
901 282 Pls
901 282 Pls
902 282 Pls
903 282 Pls
903 282 Pls
903 284 Pls
903 282 Pls
903 282 Pls
903 282 Pls
903 282 Pls
904 282 Pls
904 282 Pls
904 282 Pls
904 282 Pls
904 282 Pls
904 282 Pls
904 282 Pls
905 282 Pls
905 282 Pls
905 282 Pls
905 282 Pls
905 282 Pls
905 284 Pls
905 282 Pls
905 282 Pls
905 282 Pls
905 282 Pls
906 282 Pls
906 282 Pls
906 282 Pls
906 282 Pls
907 282 Pls
907 282 Pls
907 282 Pls
907 282 Pls
907 282 Pls
908 282 Pls
908 282 Pls
908 282 Pls
908 282 Pls
908 282 Pls
909 282 Pls
909 282 Pls
909 282 Pls
909 282 Pls
909 282 Pls
909 282 Pls
909 282 Pls
909 282 Pls
910 282 Pls
910 282 Pls
910 282 Pls
910 282 Pls
910 282 Pls
910 282 Pls
910 282 Pls
910 282 Pls
910 284 Pls
911 282 Pls
911 282 Pls
911 282 Pls
911 282 Pls
911 282 Pls
911 282 Pls
911 282 Pls
911 282 Pls
912 282 Pls
912 282 Pls
912 282 Pls
912 282 Pls
912 282 Pls
912 284 Pls
912 282 Pls
912 282 Pls
913 282 Pls
913 282 Pls
913 284 Pls
913 282 Pls
913 282 Pls
913 282 Pls
914 282 Pls
914 282 Pls
914 282 Pls
914 282 Pls
914 282 Pls
914 282 Pls
914 282 Pls
915 284 Pls
915 282 Pls
915 282 Pls
915 282 Pls
915 282 Pls
915 282 Pls
915 282 Pls
915 282 Pls
916 282 Pls
916 282 Pls
916 282 Pls
916 282 Pls
916 282 Pls
916 282 Pls
916 284 Pls
917 282 Pls
917 282 Pls
917 282 Pls
917 282 Pls
917 282 Pls
917 282 Pls
917 282 Pls
918 282 Pls
918 282 Pls
918 282 Pls
918 282 Pls
918 282 Pls
918 282 Pls
918 282 Pls
919 282 Pls
919 282 Pls
919 282 Pls
919 282 Pls
919 282 Pls
920 282 Pls
920 282 Pls
920 282 Pls
920 282 Pls
920 282 Pls
920 282 Pls
920 282 Pls
920 282 Pls
921 282 Pls
921 282 Pls
921 282 Pls
921 282 Pls
921 282 Pls
921 282 Pls
921 282 Pls
921 282 Pls
922 282 Pls
922 282 Pls
922 282 Pls
922 284 Pls
922 282 Pls
922 282 Pls
922 282 Pls
923 282 Pls
923 282 Pls
923 282 Pls
923 282 Pls
923 282 Pls
923 282 Pls
923 282 Pls
923 282 Pls
923 282 Pls
924 282 Pls
924 282 Pls
924 282 Pls
924 282 Pls
924 282 Pls
924 282 Pls
924 282 Pls
924 282 Pls
924 282 Pls
925 282 Pls
925 282 Pls
925 282 Pls
925 282 Pls
925 282 Pls
925 282 Pls
925 282 Pls
925 282 Pls
925 282 Pls
925 282 Pls
925 282 Pls
926 282 Pls
926 282 Pls
926 282 Pls
926 282 Pls
926 282 Pls
926 282 Pls
927 282 Pls
927 282 Pls
927 282 Pls
927 282 Pls
927 282 Pls
927 282 Pls
927 282 Pls
927 282 Pls
928 282 Pls
928 282 Pls
928 282 Pls
928 282 Pls
928 282 Pls
928 282 Pls
928 282 Pls
929 282 Pls
929 282 Pls
929 282 Pls
929 282 Pls
929 282 Pls
929 282 Pls
929 282 Pls
929 284 Pls
929 282 Pls
930 282 Pls
930 282 Pls
930 282 Pls
930 282 Pls
930 282 Pls
931 282 Pls
931 282 Pls
931 282 Pls
931 282 Pls
931 282 Pls
931 282 Pls
931 282 Pls
932 282 Pls
932 282 Pls
932 282 Pls
932 284 Pls
932 282 Pls
933 282 Pls
933 282 Pls
933 282 Pls
933 282 Pls
933 282 Pls
934 282 Pls
934 282 Pls
934 282 Pls
934 282 Pls
934 282 Pls
934 282 Pls
934 282 Pls
934 282 Pls
934 282 Pls
935 282 Pls
935 282 Pls
935 282 Pls
935 282 Pls
935 282 Pls
936 282 Pls
936 282 Pls
936 282 Pls
936 282 Pls
936 282 Pls
936 282 Pls
936 284 Pls
937 282 Pls
937 282 Pls
937 282 Pls
938 282 Pls
938 282 Pls
938 282 Pls
938 284 Pls
938 282 Pls
938 284 Pls
938 282 Pls
938 282 Pls
938 282 Pls
938 282 Pls
939 282 Pls
939 282 Pls
939 282 Pls
939 282 Pls
939 282 Pls
939 282 Pls
940 282 Pls
940 282 Pls
940 282 Pls
940 282 Pls
940 282 Pls
941 282 Pls
941 282 Pls
942 282 Pls
942 282 Pls
943 282 Pls
943 282 Pls
943 282 Pls
943 282 Pls
944 282 Pls
944 282 Pls
944 282 Pls
944 282 Pls
944 282 Pls
944 282 Pls
944 282 Pls
944 282 Pls
945 282 Pls
945 282 Pls
945 282 Pls
945 282 Pls
946 282 Pls
946 282 Pls
946 282 Pls
946 282 Pls
946 282 Pls
947 282 Pls
947 282 Pls
947 282 Pls
948 282 Pls
948 282 Pls
948 282 Pls
949 282 Pls
949 282 Pls
949 282 Pls
949 282 Pls
949 282 Pls
949 282 Pls
949 282 Pls
949 282 Pls
950 282 Pls
950 282 Pls
950 282 Pls
950 284 Pls
950 282 Pls
950 282 Pls
950 282 Pls
950 282 Pls
950 282 Pls
950 282 Pls
950 286 Pls
951 282 Pls
951 282 Pls
951 282 Pls
951 284 Pls
951 282 Pls
951 284 Pls
952 282 Pls
952 282 Pls
952 282 Pls
952 282 Pls
953 282 Pls
953 282 Pls
953 282 Pls
953 282 Pls
953 282 Pls
953 282 Pls
954 282 Pls
954 282 Pls
954 282 Pls
954 282 Pls
954 282 Pls
954 282 Pls
954 282 Pls
955 282 Pls
955 282 Pls
955 282 Pls
955 282 Pls
955 282 Pls
955 282 Pls
956 282 Pls
956 282 Pls
956 282 Pls
956 282 Pls
956 282 Pls
956 282 Pls
956 282 Pls
957 282 Pls
957 282 Pls
957 284 Pls
957 282 Pls
957 282 Pls
958 282 Pls
958 282 Pls
958 282 Pls
959 282 Pls
959 282 Pls
959 282 Pls
959 282 Pls
959 282 Pls
959 284 Pls
960 282 Pls
960 282 Pls
961 282 Pls
961 282 Pls
961 282 Pls
962 282 Pls
962 282 Pls
963 282 Pls
963 282 Pls
963 282 Pls
964 282 Pls
964 282 Pls
965 282 Pls
965 282 Pls
965 282 Pls
965 282 Pls
965 282 Pls
966 282 Pls
966 282 Pls
966 282 Pls
966 282 Pls
966 282 Pls
966 282 Pls
966 282 Pls
966 282 Pls
966 282 Pls
967 282 Pls
968 282 Pls
969 282 Pls
969 282 Pls
970 282 Pls
970 282 Pls
970 282 Pls
970 282 Pls
971 282 Pls
972 282 Pls
972 282 Pls
972 282 Pls
973 282 Pls
973 282 Pls
973 282 Pls
973 282 Pls
974 282 Pls
974 282 Pls
974 282 Pls
974 282 Pls
977 282 Pls
977 282 Pls
977 282 Pls
977 282 Pls
978 282 Pls
979 282 Pls
979 282 Pls
980 282 Pls
980 282 Pls
980 282 Pls
981 282 Pls
982 282 Pls
982 282 Pls
982 282 Pls
983 282 Pls
984 282 Pls
984 282 Pls
985 282 Pls
986 282 Pls
986 282 Pls
987 282 Pls
987 282 Pls
987 282 Pls
988 282 Pls
989 282 Pls
989 282 Pls
990 282 Pls
992 282 Pls
992 282 Pls
992 282 Pls
993 282 Pls
993 282 Pls
995 282 Pls
995 282 Pls
996 282 Pls
996 282 Pls
998 282 Pls
998 282 Pls
998 282 Pls
999 282 Pls
999 282 Pls
999 282 Pls
999 282 Pls
999 282 Pls
1000 282 Pls
1001 282 Pls
1002 282 Pls
1002 282 Pls
1002 282 Pls
1002 282 Pls
1003 282 Pls
1004 282 Pls
1005 282 Pls
1006 282 Pls
1006 282 Pls
1006 282 Pls
1006 282 Pls
1009 282 Pls
1010 282 Pls
1010 282 Pls
1010 282 Pls
1010 282 Pls
1022 282 Pls
1023 282 Pls
1023 282 Pls
1024 282 Pls
1025 284 Pls
1025 282 Pls
1026 282 Pls
1028 282 Pls
1028 282 Pls
1028 282 Pls
1029 282 Pls
1029 282 Pls
1029 282 Pls
1031 282 Pls
1031 282 Pls
1031 282 Pls
1031 282 Pls
1031 282 Pls
1032 282 Pls
1032 282 Pls
1034 282 Pls
1034 282 Pls
1034 282 Pls
1037 282 Pls
1037 282 Pls
1038 282 Pls
1038 282 Pls
1039 282 Pls
1040 282 Pls
1040 282 Pls
1041 282 Pls
1042 282 Pls
1042 282 Pls
1043 282 Pls
1043 282 Pls
1043 282 Pls
1044 282 Pls
1044 282 Pls
1044 282 Pls
1044 282 Pls
1044 282 Pls
1045 282 Pls
1046 282 Pls
1046 282 Pls
1047 282 Pls
1047 282 Pls
1047 282 Pls
1047 282 Pls
1048 282 Pls
1049 282 Pls
1049 282 Pls
1049 282 Pls
1050 282 Pls
1051 282 Pls
1051 282 Pls
1052 282 Pls
1053 282 Pls
1053 282 Pls
1054 282 Pls
1056 282 Pls
1056 282 Pls
1057 282 Pls
1057 282 Pls
1057 282 Pls
1058 282 Pls
1058 282 Pls
1059 282 Pls
1060 282 Pls
1061 282 Pls
1062 282 Pls
1063 282 Pls
1063 282 Pls
1064 282 Pls
1064 284 Pls
1064 282 Pls
1065 282 Pls
1066 282 Pls
1067 282 Pls
1067 282 Pls
1069 282 Pls
1069 282 Pls
1072 282 Pls
1072 282 Pls
1073 282 Pls
1073 282 Pls
1073 282 Pls
1074 282 Pls
1074 282 Pls
1074 282 Pls
1075 282 Pls
1076 282 Pls
1076 282 Pls
1077 282 Pls
1077 282 Pls
1078 282 Pls
1079 282 Pls
1079 282 Pls
1080 282 Pls
1080 282 Pls
1080 282 Pls
1081 282 Pls
1081 282 Pls
1082 282 Pls
1082 282 Pls
1083 282 Pls
1083 282 Pls
1083 282 Pls
1083 282 Pls
1084 282 Pls
1084 282 Pls
1084 282 Pls
1085 282 Pls
1087 282 Pls
1088 282 Pls
1088 282 Pls
1088 282 Pls
1088 282 Pls
1088 282 Pls
1088 282 Pls
1090 282 Pls
1090 282 Pls
1091 282 Pls
1091 282 Pls
1092 282 Pls
1092 282 Pls
1093 282 Pls
1093 282 Pls
1094 282 Pls
1094 282 Pls
1094 282 Pls
1095 282 Pls
1096 282 Pls
1096 282 Pls
1097 282 Pls
1098 282 Pls
1098 282 Pls
1099 282 Pls
1099 282 Pls
1100 282 Pls
1101 282 Pls
1102 282 Pls
1102 282 Pls
1104 282 Pls
1104 282 Pls
1104 282 Pls
1104 282 Pls
1106 282 Pls
1107 282 Pls
1107 282 Pls
1107 282 Pls
1107 282 Pls
1107 282 Pls
1108 282 Pls
1108 282 Pls
1108 282 Pls
1108 282 Pls
1109 282 Pls
1109 282 Pls
1110 282 Pls
1110 282 Pls
1111 282 Pls
1111 282 Pls
1111 282 Pls
1111 282 Pls
1111 282 Pls
1113 282 Pls
1114 282 Pls
1115 282 Pls
1116 282 Pls
1118 282 Pls
1118 282 Pls
1119 282 Pls
1119 282 Pls
1120 282 Pls
1121 282 Pls
1121 284 Pls
1122 282 Pls
1122 282 Pls
1122 282 Pls
1123 282 Pls
1123 282 Pls
1123 282 Pls
1124 282 Pls
1124 282 Pls
1125 282 Pls
1125 282 Pls
1125 282 Pls
1126 282 Pls
1126 282 Pls
1126 282 Pls
1126 282 Pls
1126 282 Pls
1127 282 Pls
1127 282 Pls
1128 282 Pls
1129 282 Pls
1129 282 Pls
1130 282 Pls
1130 282 Pls
1131 282 Pls
1131 282 Pls
1131 282 Pls
1132 282 Pls
1132 282 Pls
1132 282 Pls
1134 282 Pls
1134 282 Pls
1135 282 Pls
1135 282 Pls
1136 282 Pls
1136 282 Pls
1136 282 Pls
1136 282 Pls
1137 282 Pls
1137 282 Pls
1138 282 Pls
1139 282 Pls
1139 282 Pls
1139 282 Pls
1139 282 Pls
1139 282 Pls
1140 282 Pls
1141 282 Pls
1144 282 Pls
1144 282 Pls
1145 282 Pls
1145 282 Pls
1145 282 Pls
1146 282 Pls
1147 282 Pls
1148 282 Pls
1148 282 Pls
1149 282 Pls
1149 282 Pls
1149 282 Pls
1150 282 Pls
1150 282 Pls
1151 282 Pls
1151 282 Pls
1151 282 Pls
1152 282 Pls
1153 282 Pls
1153 282 Pls
1153 282 Pls
1153 282 Pls
1154 282 Pls
1155 282 Pls
1155 282 Pls
1157 282 Pls
1157 282 Pls
1159 282 Pls
1160 282 Pls
1160 282 Pls
1162 282 Pls
1162 282 Pls
1162 282 Pls
1162 282 Pls
1163 282 Pls
1164 282 Pls
1165 284 Pls
1165 282 Pls
1166 282 Pls
1167 282 Pls
1167 282 Pls
1172 282 Pls
1172 282 Pls
1173 282 Pls
1175 282 Pls
1177 282 Pls
1177 282 Pls
1178 282 Pls
1179 282 Pls
1179 282 Pls
1181 282 Pls
1182 282 Pls
1182 282 Pls
1183 282 Pls
1185 282 Pls
1186 282 Pls
1186 282 Pls
1187 282 Pls
1187 282 Pls
1187 282 Pls
1187 282 Pls
1187 282 Pls
1188 282 Pls
1189 282 Pls
1190 282 Pls
1190 282 Pls
1190 282 Pls
1191 282 Pls
1192 282 Pls
1193 282 Pls
1193 282 Pls
1196 282 Pls
1197 282 Pls
1199 282 Pls
1200 282 Pls
1201 282 Pls
1203 282 Pls
1206 282 Pls
1210 282 Pls
1211 282 Pls
1212 282 Pls
1212 282 Pls
1212 282 Pls
1213 282 Pls
1214 282 Pls
1214 282 Pls
1216 282 Pls
1220 282 Pls
1222 282 Pls
1223 282 Pls
1227 282 Pls
1228 282 Pls
1230 282 Pls
1230 282 Pls
1231 282 Pls
1231 282 Pls
1234 282 Pls
1234 282 Pls
1236 282 Pls
1236 282 Pls
1238 282 Pls
1238 282 Pls
1239 282 Pls
1240 282 Pls
1241 282 Pls
1241 282 Pls
1241 282 Pls
1241 282 Pls
1241 282 Pls
1242 282 Pls
1245 282 Pls
1246 282 Pls
1248 282 Pls
1249 282 Pls
1251 282 Pls
1255 282 Pls
1255 282 Pls
1255 282 Pls
1255 282 Pls
1257 282 Pls
1259 282 Pls
1260 282 Pls
1260 282 Pls
1262 282 Pls
1262 282 Pls
1263 282 Pls
1264 282 Pls
1264 282 Pls
1264 282 Pls
1268 282 Pls
1269 282 Pls
1270 282 Pls
1271 282 Pls
1274 282 Pls
1275 282 Pls
1276 282 Pls
1281 282 Pls
1282 282 Pls
1285 282 Pls
1286 282 Pls
1288 282 Pls
1289 282 Pls
1289 282 Pls
1290 282 Pls
1291 282 Pls
1291 282 Pls
1295 282 Pls
1296 282 Pls
1299 282 Pls
1299 282 Pls
1300 282 Pls
1301 282 Pls
1303 282 Pls
1303 282 Pls
1306 282 Pls
1307 282 Pls
1307 282 Pls
1307 282 Pls
1310 282 Pls
1311 282 Pls
1312 282 Pls
1316 282 Pls
1317 282 Pls
1320 282 Pls
1325 282 Pls
1328 282 Pls
1329 282 Pls
1330 282 Pls
1331 282 Pls
1333 282 Pls
1334 282 Pls
1341 282 Pls
1347 282 Pls
1349 282 Pls
1351 282 Pls
1351 282 Pls
1353 282 Pls
1354 282 Pls
1356 282 Pls
1360 282 Pls
1362 282 Pls
1363 282 Pls
1364 282 Pls
1364 282 Pls
1367 282 Pls
1368 282 Pls
1369 282 Pls
1369 282 Pls
1371 282 Pls
1372 282 Pls
1373 282 Pls
1377 282 Pls
1378 282 Pls
1379 282 Pls
1382 282 Pls
1384 282 Pls
1386 282 Pls
1387 282 Pls
1389 282 Pls
1390 282 Pls
1391 282 Pls
1392 282 Pls
1393 282 Pls
1394 282 Pls
1395 282 Pls
1395 282 Pls
1395 282 Pls
1396 282 Pls
1397 282 Pls
1400 282 Pls
1402 282 Pls
1403 282 Pls
1404 282 Pls
1405 282 Pls
1409 282 Pls
1410 282 Pls
1411 282 Pls
1411 284 Pls
1413 282 Pls
1415 282 Pls
1417 282 Pls
1419 282 Pls
1421 282 Pls
1421 282 Pls
1422 282 Pls
1428 282 Pls
1430 282 Pls
1433 282 Pls
1434 282 Pls
1437 282 Pls
1440 282 Pls
1440 282 Pls
1443 282 Pls
1443 282 Pls
1444 282 Pls
1445 282 Pls
1447 282 Pls
1449 282 Pls
1451 282 Pls
1452 282 Pls
1452 282 Pls
1452 282 Pls
1453 282 Pls
1453 282 Pls
1455 282 Pls
1460 282 Pls
1461 282 Pls
1465 282 Pls
1465 282 Pls
1465 282 Pls
1467 282 Pls
1467 282 Pls
1468 282 Pls
1469 282 Pls
1472 282 Pls
1472 282 Pls
1475 282 Pls
1476 282 Pls
1476 282 Pls
1478 282 Pls
1479 282 Pls
1479 282 Pls
1483 282 Pls
1485 282 Pls
1488 282 Pls
1488 282 Pls
1491 282 Pls
1492 282 Pls
1495 282 Pls
1496 282 Pls
1498 282 Pls
1504 282 Pls
1507 282 Pls
1508 282 Pls
1510 282 Pls
1514 282 Pls
1515 282 Pls
1518 282 Pls
1519 282 Pls
1519 282 Pls
1520 282 Pls
1520 282 Pls
1521 282 Pls
1521 282 Pls
1522 282 Pls
1523 282 Pls
1527 282 Pls
1530 282 Pls
1531 282 Pls
1534 282 Pls
1537 282 Pls
1538 282 Pls
1546 282 Pls
1547 282 Pls
1550 282 Pls
1551 282 Pls
1551 282 Pls
1552 282 Pls
1554 282 Pls
1557 282 Pls
1558 282 Pls
1559 282 Pls
1559 282 Pls
1560 282 Pls
1563 282 Pls
1567 282 Pls
1572 282 Pls
1572 282 Pls
1576 282 Pls
1577 282 Pls
1577 282 Pls
1579 282 Pls
1583 282 Pls
1583 282 Pls
1585 282 Pls
1586 282 Pls
1588 282 Pls
1589 282 Pls
1595 282 Pls
1601 282 Pls
1603 282 Pls
1604 282 Pls
1605 282 Pls
1605 282 Pls
1606 282 Pls
1610 282 Pls
1611 282 Pls
1613 282 Pls
1617 282 Pls
1622 282 Pls
1624 282 Pls
1625 282 Pls
1625 282 Pls
1626 282 Pls
1626 282 Pls
1630 282 Pls
1633 282 Pls
1634 282 Pls
1639 282 Pls
1642 282 Pls
1646 282 Pls
1647 282 Pls
1647 282 Pls
1652 282 Pls
1655 282 Pls
1655 282 Pls
1666 282 Pls
1667 282 Pls
1669 282 Pls
1674 282 Pls
1674 282 Pls
1675 282 Pls
1678 282 Pls
1684 282 Pls
1686 282 Pls
1687 282 Pls
1689 282 Pls
1696 282 Pls
1704 282 Pls
1708 282 Pls
1710 282 Pls
1715 282 Pls
1716 282 Pls
1721 282 Pls
1727 282 Pls
1729 282 Pls
1733 282 Pls
1734 282 Pls
1740 282 Pls
1748 282 Pls
1750 282 Pls
1751 282 Pls
1758 282 Pls
1761 282 Pls
1768 282 Pls
1769 282 Pls
1770 282 Pls
1772 282 Pls
1772 282 Pls
1774 282 Pls
1777 282 Pls
1792 282 Pls
1798 282 Pls
1800 282 Pls
1801 282 Pls
1801 282 Pls
1806 282 Pls
1807 282 Pls
1818 282 Pls
1820 282 Pls
1829 282 Pls
1831 282 Pls
1838 282 Pls
1839 282 Pls
1859 282 Pls
1870 282 Pls
1871 282 Pls
1906 282 Pls
1920 282 Pls
1926 282 Pls
1964 282 Pls
1982 282 Pls
1983 282 Pls
2039 282 Pls
2040 282 Pls
2078 282 Pls
2107 282 Pls
2108 282 Pls
2120 282 Pls
2122 282 Pls
2129 282 Pls
2153 282 Pls
2158 282 Pls
2159 282 Pls
2159 282 Pls
2191 282 Pls
2251 282 Pls
2253 282 Pls
2302 282 Pls
2307 282 Pls
2362 282 Pls
2364 282 Pls
2377 282 Pls
2410 282 Pls
2423 282 Pls
2469 282 Pls
2538 282 Pls
2573 282 Pls
2603 282 Pls
2633 282 Pls
2672 282 Pls
2707 282 Pls
2712 282 Pls
2902 282 Pls
2908 282 Pls
2918 282 Pls
3888 282 Pls
3974 282 Pls
4183 282 Pls
5212 282 Pls
5364 282 Pls
6331 282 Pls
% End plot #1
2.000 UL
LTb
LCb setrgbcolor
1.000 UL
LTB
LCb setrgbcolor
630 4871 N
630 280 L
6317 0 V
0 4591 V
-6317 0 V
Z stroke
1.000 UP
1.000 UL
LTb
LCb setrgbcolor
stroke
grestore
end
showpage
%%Trailer
%%DocumentFonts: Helvetica
%%Pages: 1
