%!PS-Adobe-2.0
%%Title: packets-uv-s-log-packets-s-dist-loglin.eps
%%Creator: gnuplot 5.0 patchlevel 3
%%CreationDate: Mon May 29 11:07:44 2017
%%DocumentFonts: (atend)
%%BoundingBox: 50 50 554 770
%%Orientation: Landscape
%%Pages: (atend)
%%EndComments
%%BeginProlog
/gnudict 256 dict def
gnudict begin
%
% The following true/false flags may be edited by hand if desired.
% The unit line width and grayscale image gamma correction may also be changed.
%
/Color true def
/Blacktext false def
/Solid false def
/Dashlength 1 def
/Landscape true def
/Level1 false def
/Level3 false def
/Rounded false def
/ClipToBoundingBox false def
/SuppressPDFMark false def
/TransparentPatterns false def
/gnulinewidth 5.000 def
/userlinewidth gnulinewidth def
/Gamma 1.0 def
/BackgroundColor {-1.000 -1.000 -1.000} def
%
/vshift -46 def
/dl1 {
  10.0 Dashlength userlinewidth gnulinewidth div mul mul mul
  Rounded { currentlinewidth 0.75 mul sub dup 0 le { pop 0.01 } if } if
} def
/dl2 {
  10.0 Dashlength userlinewidth gnulinewidth div mul mul mul
  Rounded { currentlinewidth 0.75 mul add } if
} def
/hpt_ 31.5 def
/vpt_ 31.5 def
/hpt hpt_ def
/vpt vpt_ def
/doclip {
  ClipToBoundingBox {
    newpath 50 50 moveto 554 50 lineto 554 770 lineto 50 770 lineto closepath
    clip
  } if
} def
%
% Gnuplot Prolog Version 5.1 (Oct 2015)
%
%/SuppressPDFMark true def
%
/M {moveto} bind def
/L {lineto} bind def
/R {rmoveto} bind def
/V {rlineto} bind def
/N {newpath moveto} bind def
/Z {closepath} bind def
/C {setrgbcolor} bind def
/f {rlineto fill} bind def
/g {setgray} bind def
/Gshow {show} def   % May be redefined later in the file to support UTF-8
/vpt2 vpt 2 mul def
/hpt2 hpt 2 mul def
/Lshow {currentpoint stroke M 0 vshift R 
	Blacktext {gsave 0 setgray textshow grestore} {textshow} ifelse} def
/Rshow {currentpoint stroke M dup stringwidth pop neg vshift R
	Blacktext {gsave 0 setgray textshow grestore} {textshow} ifelse} def
/Cshow {currentpoint stroke M dup stringwidth pop -2 div vshift R 
	Blacktext {gsave 0 setgray textshow grestore} {textshow} ifelse} def
/UP {dup vpt_ mul /vpt exch def hpt_ mul /hpt exch def
  /hpt2 hpt 2 mul def /vpt2 vpt 2 mul def} def
/DL {Color {setrgbcolor Solid {pop []} if 0 setdash}
 {pop pop pop 0 setgray Solid {pop []} if 0 setdash} ifelse} def
/BL {stroke userlinewidth 2 mul setlinewidth
	Rounded {1 setlinejoin 1 setlinecap} if} def
/AL {stroke userlinewidth 2 div setlinewidth
	Rounded {1 setlinejoin 1 setlinecap} if} def
/UL {dup gnulinewidth mul /userlinewidth exch def
	dup 1 lt {pop 1} if 10 mul /udl exch def} def
/PL {stroke userlinewidth setlinewidth
	Rounded {1 setlinejoin 1 setlinecap} if} def
3.8 setmiterlimit
% Classic Line colors (version 5.0)
/LCw {1 1 1} def
/LCb {0 0 0} def
/LCa {0 0 0} def
/LC0 {1 0 0} def
/LC1 {0 1 0} def
/LC2 {0 0 1} def
/LC3 {1 0 1} def
/LC4 {0 1 1} def
/LC5 {1 1 0} def
/LC6 {0 0 0} def
/LC7 {1 0.3 0} def
/LC8 {0.5 0.5 0.5} def
% Default dash patterns (version 5.0)
/LTB {BL [] LCb DL} def
/LTw {PL [] 1 setgray} def
/LTb {PL [] LCb DL} def
/LTa {AL [1 udl mul 2 udl mul] 0 setdash LCa setrgbcolor} def
/LT0 {PL [] LC0 DL} def
/LT1 {PL [2 dl1 3 dl2] LC1 DL} def
/LT2 {PL [1 dl1 1.5 dl2] LC2 DL} def
/LT3 {PL [6 dl1 2 dl2 1 dl1 2 dl2] LC3 DL} def
/LT4 {PL [1 dl1 2 dl2 6 dl1 2 dl2 1 dl1 2 dl2] LC4 DL} def
/LT5 {PL [4 dl1 2 dl2] LC5 DL} def
/LT6 {PL [1.5 dl1 1.5 dl2 1.5 dl1 1.5 dl2 1.5 dl1 6 dl2] LC6 DL} def
/LT7 {PL [3 dl1 3 dl2 1 dl1 3 dl2] LC7 DL} def
/LT8 {PL [2 dl1 2 dl2 2 dl1 6 dl2] LC8 DL} def
/SL {[] 0 setdash} def
/Pnt {stroke [] 0 setdash gsave 1 setlinecap M 0 0 V stroke grestore} def
/Dia {stroke [] 0 setdash 2 copy vpt add M
  hpt neg vpt neg V hpt vpt neg V
  hpt vpt V hpt neg vpt V closepath stroke
  Pnt} def
/Pls {stroke [] 0 setdash vpt sub M 0 vpt2 V
  currentpoint stroke M
  hpt neg vpt neg R hpt2 0 V stroke
 } def
/Box {stroke [] 0 setdash 2 copy exch hpt sub exch vpt add M
  0 vpt2 neg V hpt2 0 V 0 vpt2 V
  hpt2 neg 0 V closepath stroke
  Pnt} def
/Crs {stroke [] 0 setdash exch hpt sub exch vpt add M
  hpt2 vpt2 neg V currentpoint stroke M
  hpt2 neg 0 R hpt2 vpt2 V stroke} def
/TriU {stroke [] 0 setdash 2 copy vpt 1.12 mul add M
  hpt neg vpt -1.62 mul V
  hpt 2 mul 0 V
  hpt neg vpt 1.62 mul V closepath stroke
  Pnt} def
/Star {2 copy Pls Crs} def
/BoxF {stroke [] 0 setdash exch hpt sub exch vpt add M
  0 vpt2 neg V hpt2 0 V 0 vpt2 V
  hpt2 neg 0 V closepath fill} def
/TriUF {stroke [] 0 setdash vpt 1.12 mul add M
  hpt neg vpt -1.62 mul V
  hpt 2 mul 0 V
  hpt neg vpt 1.62 mul V closepath fill} def
/TriD {stroke [] 0 setdash 2 copy vpt 1.12 mul sub M
  hpt neg vpt 1.62 mul V
  hpt 2 mul 0 V
  hpt neg vpt -1.62 mul V closepath stroke
  Pnt} def
/TriDF {stroke [] 0 setdash vpt 1.12 mul sub M
  hpt neg vpt 1.62 mul V
  hpt 2 mul 0 V
  hpt neg vpt -1.62 mul V closepath fill} def
/DiaF {stroke [] 0 setdash vpt add M
  hpt neg vpt neg V hpt vpt neg V
  hpt vpt V hpt neg vpt V closepath fill} def
/Pent {stroke [] 0 setdash 2 copy gsave
  translate 0 hpt M 4 {72 rotate 0 hpt L} repeat
  closepath stroke grestore Pnt} def
/PentF {stroke [] 0 setdash gsave
  translate 0 hpt M 4 {72 rotate 0 hpt L} repeat
  closepath fill grestore} def
/Circle {stroke [] 0 setdash 2 copy
  hpt 0 360 arc stroke Pnt} def
/CircleF {stroke [] 0 setdash hpt 0 360 arc fill} def
/C0 {BL [] 0 setdash 2 copy moveto vpt 90 450 arc} bind def
/C1 {BL [] 0 setdash 2 copy moveto
	2 copy vpt 0 90 arc closepath fill
	vpt 0 360 arc closepath} bind def
/C2 {BL [] 0 setdash 2 copy moveto
	2 copy vpt 90 180 arc closepath fill
	vpt 0 360 arc closepath} bind def
/C3 {BL [] 0 setdash 2 copy moveto
	2 copy vpt 0 180 arc closepath fill
	vpt 0 360 arc closepath} bind def
/C4 {BL [] 0 setdash 2 copy moveto
	2 copy vpt 180 270 arc closepath fill
	vpt 0 360 arc closepath} bind def
/C5 {BL [] 0 setdash 2 copy moveto
	2 copy vpt 0 90 arc
	2 copy moveto
	2 copy vpt 180 270 arc closepath fill
	vpt 0 360 arc} bind def
/C6 {BL [] 0 setdash 2 copy moveto
	2 copy vpt 90 270 arc closepath fill
	vpt 0 360 arc closepath} bind def
/C7 {BL [] 0 setdash 2 copy moveto
	2 copy vpt 0 270 arc closepath fill
	vpt 0 360 arc closepath} bind def
/C8 {BL [] 0 setdash 2 copy moveto
	2 copy vpt 270 360 arc closepath fill
	vpt 0 360 arc closepath} bind def
/C9 {BL [] 0 setdash 2 copy moveto
	2 copy vpt 270 450 arc closepath fill
	vpt 0 360 arc closepath} bind def
/C10 {BL [] 0 setdash 2 copy 2 copy moveto vpt 270 360 arc closepath fill
	2 copy moveto
	2 copy vpt 90 180 arc closepath fill
	vpt 0 360 arc closepath} bind def
/C11 {BL [] 0 setdash 2 copy moveto
	2 copy vpt 0 180 arc closepath fill
	2 copy moveto
	2 copy vpt 270 360 arc closepath fill
	vpt 0 360 arc closepath} bind def
/C12 {BL [] 0 setdash 2 copy moveto
	2 copy vpt 180 360 arc closepath fill
	vpt 0 360 arc closepath} bind def
/C13 {BL [] 0 setdash 2 copy moveto
	2 copy vpt 0 90 arc closepath fill
	2 copy moveto
	2 copy vpt 180 360 arc closepath fill
	vpt 0 360 arc closepath} bind def
/C14 {BL [] 0 setdash 2 copy moveto
	2 copy vpt 90 360 arc closepath fill
	vpt 0 360 arc} bind def
/C15 {BL [] 0 setdash 2 copy vpt 0 360 arc closepath fill
	vpt 0 360 arc closepath} bind def
/Rec {newpath 4 2 roll moveto 1 index 0 rlineto 0 exch rlineto
	neg 0 rlineto closepath} bind def
/Square {dup Rec} bind def
/Bsquare {vpt sub exch vpt sub exch vpt2 Square} bind def
/S0 {BL [] 0 setdash 2 copy moveto 0 vpt rlineto BL Bsquare} bind def
/S1 {BL [] 0 setdash 2 copy vpt Square fill Bsquare} bind def
/S2 {BL [] 0 setdash 2 copy exch vpt sub exch vpt Square fill Bsquare} bind def
/S3 {BL [] 0 setdash 2 copy exch vpt sub exch vpt2 vpt Rec fill Bsquare} bind def
/S4 {BL [] 0 setdash 2 copy exch vpt sub exch vpt sub vpt Square fill Bsquare} bind def
/S5 {BL [] 0 setdash 2 copy 2 copy vpt Square fill
	exch vpt sub exch vpt sub vpt Square fill Bsquare} bind def
/S6 {BL [] 0 setdash 2 copy exch vpt sub exch vpt sub vpt vpt2 Rec fill Bsquare} bind def
/S7 {BL [] 0 setdash 2 copy exch vpt sub exch vpt sub vpt vpt2 Rec fill
	2 copy vpt Square fill Bsquare} bind def
/S8 {BL [] 0 setdash 2 copy vpt sub vpt Square fill Bsquare} bind def
/S9 {BL [] 0 setdash 2 copy vpt sub vpt vpt2 Rec fill Bsquare} bind def
/S10 {BL [] 0 setdash 2 copy vpt sub vpt Square fill 2 copy exch vpt sub exch vpt Square fill
	Bsquare} bind def
/S11 {BL [] 0 setdash 2 copy vpt sub vpt Square fill 2 copy exch vpt sub exch vpt2 vpt Rec fill
	Bsquare} bind def
/S12 {BL [] 0 setdash 2 copy exch vpt sub exch vpt sub vpt2 vpt Rec fill Bsquare} bind def
/S13 {BL [] 0 setdash 2 copy exch vpt sub exch vpt sub vpt2 vpt Rec fill
	2 copy vpt Square fill Bsquare} bind def
/S14 {BL [] 0 setdash 2 copy exch vpt sub exch vpt sub vpt2 vpt Rec fill
	2 copy exch vpt sub exch vpt Square fill Bsquare} bind def
/S15 {BL [] 0 setdash 2 copy Bsquare fill Bsquare} bind def
/D0 {gsave translate 45 rotate 0 0 S0 stroke grestore} bind def
/D1 {gsave translate 45 rotate 0 0 S1 stroke grestore} bind def
/D2 {gsave translate 45 rotate 0 0 S2 stroke grestore} bind def
/D3 {gsave translate 45 rotate 0 0 S3 stroke grestore} bind def
/D4 {gsave translate 45 rotate 0 0 S4 stroke grestore} bind def
/D5 {gsave translate 45 rotate 0 0 S5 stroke grestore} bind def
/D6 {gsave translate 45 rotate 0 0 S6 stroke grestore} bind def
/D7 {gsave translate 45 rotate 0 0 S7 stroke grestore} bind def
/D8 {gsave translate 45 rotate 0 0 S8 stroke grestore} bind def
/D9 {gsave translate 45 rotate 0 0 S9 stroke grestore} bind def
/D10 {gsave translate 45 rotate 0 0 S10 stroke grestore} bind def
/D11 {gsave translate 45 rotate 0 0 S11 stroke grestore} bind def
/D12 {gsave translate 45 rotate 0 0 S12 stroke grestore} bind def
/D13 {gsave translate 45 rotate 0 0 S13 stroke grestore} bind def
/D14 {gsave translate 45 rotate 0 0 S14 stroke grestore} bind def
/D15 {gsave translate 45 rotate 0 0 S15 stroke grestore} bind def
/DiaE {stroke [] 0 setdash vpt add M
  hpt neg vpt neg V hpt vpt neg V
  hpt vpt V hpt neg vpt V closepath stroke} def
/BoxE {stroke [] 0 setdash exch hpt sub exch vpt add M
  0 vpt2 neg V hpt2 0 V 0 vpt2 V
  hpt2 neg 0 V closepath stroke} def
/TriUE {stroke [] 0 setdash vpt 1.12 mul add M
  hpt neg vpt -1.62 mul V
  hpt 2 mul 0 V
  hpt neg vpt 1.62 mul V closepath stroke} def
/TriDE {stroke [] 0 setdash vpt 1.12 mul sub M
  hpt neg vpt 1.62 mul V
  hpt 2 mul 0 V
  hpt neg vpt -1.62 mul V closepath stroke} def
/PentE {stroke [] 0 setdash gsave
  translate 0 hpt M 4 {72 rotate 0 hpt L} repeat
  closepath stroke grestore} def
/CircE {stroke [] 0 setdash 
  hpt 0 360 arc stroke} def
/Opaque {gsave closepath 1 setgray fill grestore 0 setgray closepath} def
/DiaW {stroke [] 0 setdash vpt add M
  hpt neg vpt neg V hpt vpt neg V
  hpt vpt V hpt neg vpt V Opaque stroke} def
/BoxW {stroke [] 0 setdash exch hpt sub exch vpt add M
  0 vpt2 neg V hpt2 0 V 0 vpt2 V
  hpt2 neg 0 V Opaque stroke} def
/TriUW {stroke [] 0 setdash vpt 1.12 mul add M
  hpt neg vpt -1.62 mul V
  hpt 2 mul 0 V
  hpt neg vpt 1.62 mul V Opaque stroke} def
/TriDW {stroke [] 0 setdash vpt 1.12 mul sub M
  hpt neg vpt 1.62 mul V
  hpt 2 mul 0 V
  hpt neg vpt -1.62 mul V Opaque stroke} def
/PentW {stroke [] 0 setdash gsave
  translate 0 hpt M 4 {72 rotate 0 hpt L} repeat
  Opaque stroke grestore} def
/CircW {stroke [] 0 setdash 
  hpt 0 360 arc Opaque stroke} def
/BoxFill {gsave Rec 1 setgray fill grestore} def
/Density {
  /Fillden exch def
  currentrgbcolor
  /ColB exch def /ColG exch def /ColR exch def
  /ColR ColR Fillden mul Fillden sub 1 add def
  /ColG ColG Fillden mul Fillden sub 1 add def
  /ColB ColB Fillden mul Fillden sub 1 add def
  ColR ColG ColB setrgbcolor} def
/BoxColFill {gsave Rec PolyFill} def
/PolyFill {gsave Density fill grestore grestore} def
/h {rlineto rlineto rlineto gsave closepath fill grestore} bind def
%
% PostScript Level 1 Pattern Fill routine for rectangles
% Usage: x y w h s a XX PatternFill
%	x,y = lower left corner of box to be filled
%	w,h = width and height of box
%	  a = angle in degrees between lines and x-axis
%	 XX = 0/1 for no/yes cross-hatch
%
/PatternFill {gsave /PFa [ 9 2 roll ] def
  PFa 0 get PFa 2 get 2 div add PFa 1 get PFa 3 get 2 div add translate
  PFa 2 get -2 div PFa 3 get -2 div PFa 2 get PFa 3 get Rec
  TransparentPatterns {} {gsave 1 setgray fill grestore} ifelse
  clip
  currentlinewidth 0.5 mul setlinewidth
  /PFs PFa 2 get dup mul PFa 3 get dup mul add sqrt def
  0 0 M PFa 5 get rotate PFs -2 div dup translate
  0 1 PFs PFa 4 get div 1 add floor cvi
	{PFa 4 get mul 0 M 0 PFs V} for
  0 PFa 6 get ne {
	0 1 PFs PFa 4 get div 1 add floor cvi
	{PFa 4 get mul 0 2 1 roll M PFs 0 V} for
 } if
  stroke grestore} def
%
/languagelevel where
 {pop languagelevel} {1} ifelse
dup 2 lt
	{/InterpretLevel1 true def
	 /InterpretLevel3 false def}
	{/InterpretLevel1 Level1 def
	 2 gt
	    {/InterpretLevel3 Level3 def}
	    {/InterpretLevel3 false def}
	 ifelse }
 ifelse
%
% PostScript level 2 pattern fill definitions
%
/Level2PatternFill {
/Tile8x8 {/PaintType 2 /PatternType 1 /TilingType 1 /BBox [0 0 8 8] /XStep 8 /YStep 8}
	bind def
/KeepColor {currentrgbcolor [/Pattern /DeviceRGB] setcolorspace} bind def
<< Tile8x8
 /PaintProc {0.5 setlinewidth pop 0 0 M 8 8 L 0 8 M 8 0 L stroke} 
>> matrix makepattern
/Pat1 exch def
<< Tile8x8
 /PaintProc {0.5 setlinewidth pop 0 0 M 8 8 L 0 8 M 8 0 L stroke
	0 4 M 4 8 L 8 4 L 4 0 L 0 4 L stroke}
>> matrix makepattern
/Pat2 exch def
<< Tile8x8
 /PaintProc {0.5 setlinewidth pop 0 0 M 0 8 L
	8 8 L 8 0 L 0 0 L fill}
>> matrix makepattern
/Pat3 exch def
<< Tile8x8
 /PaintProc {0.5 setlinewidth pop -4 8 M 8 -4 L
	0 12 M 12 0 L stroke}
>> matrix makepattern
/Pat4 exch def
<< Tile8x8
 /PaintProc {0.5 setlinewidth pop -4 0 M 8 12 L
	0 -4 M 12 8 L stroke}
>> matrix makepattern
/Pat5 exch def
<< Tile8x8
 /PaintProc {0.5 setlinewidth pop -2 8 M 4 -4 L
	0 12 M 8 -4 L 4 12 M 10 0 L stroke}
>> matrix makepattern
/Pat6 exch def
<< Tile8x8
 /PaintProc {0.5 setlinewidth pop -2 0 M 4 12 L
	0 -4 M 8 12 L 4 -4 M 10 8 L stroke}
>> matrix makepattern
/Pat7 exch def
<< Tile8x8
 /PaintProc {0.5 setlinewidth pop 8 -2 M -4 4 L
	12 0 M -4 8 L 12 4 M 0 10 L stroke}
>> matrix makepattern
/Pat8 exch def
<< Tile8x8
 /PaintProc {0.5 setlinewidth pop 0 -2 M 12 4 L
	-4 0 M 12 8 L -4 4 M 8 10 L stroke}
>> matrix makepattern
/Pat9 exch def
/Pattern1 {PatternBgnd KeepColor Pat1 setpattern} bind def
/Pattern2 {PatternBgnd KeepColor Pat2 setpattern} bind def
/Pattern3 {PatternBgnd KeepColor Pat3 setpattern} bind def
/Pattern4 {PatternBgnd KeepColor Landscape {Pat5} {Pat4} ifelse setpattern} bind def
/Pattern5 {PatternBgnd KeepColor Landscape {Pat4} {Pat5} ifelse setpattern} bind def
/Pattern6 {PatternBgnd KeepColor Landscape {Pat9} {Pat6} ifelse setpattern} bind def
/Pattern7 {PatternBgnd KeepColor Landscape {Pat8} {Pat7} ifelse setpattern} bind def
} def
%
%
%End of PostScript Level 2 code
%
/PatternBgnd {
  TransparentPatterns {} {gsave 1 setgray fill grestore} ifelse
} def
%
% Substitute for Level 2 pattern fill codes with
% grayscale if Level 2 support is not selected.
%
/Level1PatternFill {
/Pattern1 {0.250 Density} bind def
/Pattern2 {0.500 Density} bind def
/Pattern3 {0.750 Density} bind def
/Pattern4 {0.125 Density} bind def
/Pattern5 {0.375 Density} bind def
/Pattern6 {0.625 Density} bind def
/Pattern7 {0.875 Density} bind def
} def
%
% Now test for support of Level 2 code
%
Level1 {Level1PatternFill} {Level2PatternFill} ifelse
%
/Symbol-Oblique /Symbol findfont [1 0 .167 1 0 0] makefont
dup length dict begin {1 index /FID eq {pop pop} {def} ifelse} forall
currentdict end definefont pop
%
/MFshow {
   { dup 5 get 3 ge
     { 5 get 3 eq {gsave} {grestore} ifelse }
     {dup dup 0 get findfont exch 1 get scalefont setfont
     [ currentpoint ] exch dup 2 get 0 exch R dup 5 get 2 ne {dup dup 6
     get exch 4 get {textshow} {stringwidth pop 0 R} ifelse }if dup 5 get 0 eq
     {dup 3 get {2 get neg 0 exch R pop} {pop aload pop M} ifelse} {dup 5
     get 1 eq {dup 2 get exch dup 3 get exch 6 get stringwidth pop -2 div
     dup 0 R} {dup 6 get stringwidth pop -2 div 0 R 6 get
     textshow 2 index {aload pop M neg 3 -1 roll neg R pop pop} {pop pop pop
     pop aload pop M} ifelse }ifelse }ifelse }
     ifelse }
   forall} def
/Gswidth {dup type /stringtype eq {stringwidth} {pop (n) stringwidth} ifelse} def
/MFwidth {0 exch { dup 5 get 3 ge { 5 get 3 eq { 0 } { pop } ifelse }
 {dup 3 get{dup dup 0 get findfont exch 1 get scalefont setfont
     6 get Gswidth pop add} {pop} ifelse} ifelse} forall} def
/MLshow { currentpoint stroke M
  0 exch R
  Blacktext {gsave 0 setgray MFshow grestore} {MFshow} ifelse } bind def
/MRshow { currentpoint stroke M
  exch dup MFwidth neg 3 -1 roll R
  Blacktext {gsave 0 setgray MFshow grestore} {MFshow} ifelse } bind def
/MCshow { currentpoint stroke M
  exch dup MFwidth -2 div 3 -1 roll R
  Blacktext {gsave 0 setgray MFshow grestore} {MFshow} ifelse } bind def
/XYsave    { [( ) 1 2 true false 3 ()] } bind def
/XYrestore { [( ) 1 2 true false 4 ()] } bind def
Level1 SuppressPDFMark or 
{} {
/SDict 10 dict def
systemdict /pdfmark known not {
  userdict /pdfmark systemdict /cleartomark get put
} if
SDict begin [
  /Title (packets-uv-s-log-packets-s-dist-loglin.eps)
  /Subject (gnuplot plot)
  /Creator (gnuplot 5.0 patchlevel 3)
  /Author (tiphaine)
%  /Producer (gnuplot)
%  /Keywords ()
  /CreationDate (Mon May 29 11:07:44 2017)
  /DOCINFO pdfmark
end
} ifelse
%
% Support for boxed text - Ethan A Merritt May 2005
%
/InitTextBox { userdict /TBy2 3 -1 roll put userdict /TBx2 3 -1 roll put
           userdict /TBy1 3 -1 roll put userdict /TBx1 3 -1 roll put
	   /Boxing true def } def
/ExtendTextBox { Boxing
    { gsave dup false charpath pathbbox
      dup TBy2 gt {userdict /TBy2 3 -1 roll put} {pop} ifelse
      dup TBx2 gt {userdict /TBx2 3 -1 roll put} {pop} ifelse
      dup TBy1 lt {userdict /TBy1 3 -1 roll put} {pop} ifelse
      dup TBx1 lt {userdict /TBx1 3 -1 roll put} {pop} ifelse
      grestore } if } def
/PopTextBox { newpath TBx1 TBxmargin sub TBy1 TBymargin sub M
               TBx1 TBxmargin sub TBy2 TBymargin add L
	       TBx2 TBxmargin add TBy2 TBymargin add L
	       TBx2 TBxmargin add TBy1 TBymargin sub L closepath } def
/DrawTextBox { PopTextBox stroke /Boxing false def} def
/FillTextBox { gsave PopTextBox 1 1 1 setrgbcolor fill grestore /Boxing false def} def
0 0 0 0 InitTextBox
/TBxmargin 20 def
/TBymargin 20 def
/Boxing false def
/textshow { ExtendTextBox Gshow } def
%
% redundant definitions for compatibility with prologue.ps older than 5.0.2
/LTB {BL [] LCb DL} def
/LTb {PL [] LCb DL} def
end
%%EndProlog
%%Page: 1 1
gnudict begin
gsave
doclip
50 50 translate
0.100 0.100 scale
90 rotate
0 -5040 translate
0 setgray
newpath
(Helvetica) findfont 140 scalefont setfont
BackgroundColor 0 lt 3 1 roll 0 lt exch 0 lt or or not {gsave BackgroundColor C clippath fill grestore} if
1.000 UL
LTb
LCb setrgbcolor
546 280 M
63 0 V
6338 0 R
-63 0 V
stroke
462 280 M
[ [(Helvetica) 140.0 0.0 true true 0 ( 1)]
] -46.7 MRshow
1.000 UL
LTb
LCb setrgbcolor
546 1428 M
63 0 V
6338 0 R
-63 0 V
stroke
462 1428 M
[ [(Helvetica) 140.0 0.0 true true 0 ( 1.5)]
] -46.7 MRshow
1.000 UL
LTb
LCb setrgbcolor
546 2576 M
63 0 V
6338 0 R
-63 0 V
stroke
462 2576 M
[ [(Helvetica) 140.0 0.0 true true 0 ( 2)]
] -46.7 MRshow
1.000 UL
LTb
LCb setrgbcolor
546 3723 M
63 0 V
6338 0 R
-63 0 V
stroke
462 3723 M
[ [(Helvetica) 140.0 0.0 true true 0 ( 2.5)]
] -46.7 MRshow
1.000 UL
LTb
LCb setrgbcolor
546 4871 M
63 0 V
6338 0 R
-63 0 V
stroke
462 4871 M
[ [(Helvetica) 140.0 0.0 true true 0 ( 3)]
] -46.7 MRshow
1.000 UL
LTb
LCb setrgbcolor
546 280 M
0 63 V
0 4528 R
0 -63 V
stroke
546 140 M
[ [(Helvetica) 140.0 0.0 true true 0 ( 10000)]
] -46.7 MCshow
1.000 UL
LTb
LCb setrgbcolor
1509 280 M
0 31 V
0 4560 R
0 -31 V
2073 280 M
0 31 V
0 4560 R
0 -31 V
2473 280 M
0 31 V
0 4560 R
0 -31 V
2783 280 M
0 31 V
0 4560 R
0 -31 V
3036 280 M
0 31 V
0 4560 R
0 -31 V
3251 280 M
0 31 V
0 4560 R
0 -31 V
3436 280 M
0 31 V
0 4560 R
0 -31 V
3600 280 M
0 31 V
0 4560 R
0 -31 V
3747 280 M
0 63 V
0 4528 R
0 -63 V
stroke
3747 140 M
[ [(Helvetica) 140.0 0.0 true true 0 ( 100000)]
] -46.7 MCshow
1.000 UL
LTb
LCb setrgbcolor
4710 280 M
0 31 V
0 4560 R
0 -31 V
5274 280 M
0 31 V
0 4560 R
0 -31 V
5673 280 M
0 31 V
0 4560 R
0 -31 V
5984 280 M
0 31 V
0 4560 R
0 -31 V
6237 280 M
0 31 V
0 4560 R
0 -31 V
6451 280 M
0 31 V
0 4560 R
0 -31 V
6637 280 M
0 31 V
0 4560 R
0 -31 V
6801 280 M
0 31 V
0 4560 R
0 -31 V
6947 280 M
0 63 V
0 4528 R
0 -63 V
stroke
6947 140 M
[ [(Helvetica) 140.0 0.0 true true 0 ( 1x10)]
[(Helvetica) 112.0 70.0 true true 0 (6)]
] -60.7 MCshow
1.000 UL
LTb
LCb setrgbcolor
1.000 UL
LTB
LCb setrgbcolor
546 4871 N
546 280 L
6401 0 V
0 4591 V
-6401 0 V
Z stroke
1.000 UP
1.000 UL
LTb
LCb setrgbcolor
% Begin plot #1
1.000 UP
1.000 UL
LTb
0.58 0.00 0.83 C 693 280 Pls
783 280 Pls
831 280 Pls
850 280 Pls
858 280 Pls
861 280 Pls
862 280 Pls
864 280 Pls
865 280 Pls
872 280 Pls
875 280 Pls
879 280 Pls
887 280 Pls
893 280 Pls
901 280 Pls
904 280 Pls
918 280 Pls
921 280 Pls
927 280 Pls
938 280 Pls
940 280 Pls
941 280 Pls
948 280 Pls
949 280 Pls
949 280 Pls
950 280 Pls
950 280 Pls
950 280 Pls
952 280 Pls
955 280 Pls
957 2576 Pls
958 280 Pls
958 280 Pls
959 280 Pls
963 280 Pls
967 280 Pls
969 280 Pls
971 280 Pls
974 280 Pls
974 280 Pls
980 280 Pls
983 280 Pls
985 280 Pls
987 280 Pls
987 280 Pls
987 280 Pls
989 280 Pls
990 280 Pls
991 280 Pls
991 280 Pls
994 280 Pls
994 280 Pls
996 280 Pls
996 2576 Pls
997 280 Pls
998 280 Pls
999 280 Pls
999 280 Pls
1001 280 Pls
1002 280 Pls
1003 280 Pls
1005 280 Pls
1005 280 Pls
1006 280 Pls
1009 280 Pls
1009 280 Pls
1012 280 Pls
1014 280 Pls
1015 280 Pls
1017 280 Pls
1018 280 Pls
1022 280 Pls
1022 280 Pls
1023 280 Pls
1023 280 Pls
1024 280 Pls
1024 280 Pls
1025 280 Pls
1025 280 Pls
1026 280 Pls
1027 280 Pls
1027 280 Pls
1029 280 Pls
1032 280 Pls
1035 280 Pls
1037 280 Pls
1038 280 Pls
1040 280 Pls
1040 280 Pls
1040 280 Pls
1041 280 Pls
1042 280 Pls
1044 280 Pls
1044 280 Pls
1047 280 Pls
1049 280 Pls
1051 280 Pls
1052 280 Pls
1053 280 Pls
1054 280 Pls
1054 280 Pls
1056 2576 Pls
1056 280 Pls
1057 280 Pls
1057 280 Pls
1059 280 Pls
1061 280 Pls
1062 280 Pls
1064 280 Pls
1064 280 Pls
1067 280 Pls
1069 280 Pls
1070 280 Pls
1071 280 Pls
1072 280 Pls
1073 280 Pls
1074 280 Pls
1074 280 Pls
1074 280 Pls
1075 280 Pls
1076 280 Pls
1076 280 Pls
1077 280 Pls
1078 280 Pls
1078 2576 Pls
1081 280 Pls
1082 280 Pls
1083 280 Pls
1083 280 Pls
1084 280 Pls
1085 280 Pls
1086 280 Pls
1086 280 Pls
1088 280 Pls
1089 280 Pls
1089 280 Pls
1089 280 Pls
1093 280 Pls
1094 280 Pls
1094 280 Pls
1095 280 Pls
1096 280 Pls
1097 280 Pls
1097 280 Pls
1097 280 Pls
1098 280 Pls
1098 280 Pls
1098 280 Pls
1099 2576 Pls
1099 280 Pls
1099 280 Pls
1100 280 Pls
1100 280 Pls
1101 280 Pls
1102 280 Pls
1102 280 Pls
1104 280 Pls
1105 280 Pls
1105 280 Pls
1106 280 Pls
1106 280 Pls
1107 280 Pls
1108 280 Pls
1109 280 Pls
1109 280 Pls
1109 280 Pls
1112 280 Pls
1113 280 Pls
1113 280 Pls
1114 280 Pls
1119 280 Pls
1120 280 Pls
1120 2576 Pls
1120 280 Pls
1122 280 Pls
1122 280 Pls
1124 280 Pls
1124 280 Pls
1124 280 Pls
1125 280 Pls
1126 280 Pls
1127 280 Pls
1127 280 Pls
1127 280 Pls
1129 280 Pls
1130 280 Pls
1131 280 Pls
1131 280 Pls
1132 280 Pls
1132 2576 Pls
1132 280 Pls
1133 280 Pls
1133 280 Pls
1133 280 Pls
1134 280 Pls
1135 280 Pls
1135 280 Pls
1136 280 Pls
1139 280 Pls
1139 280 Pls
1141 280 Pls
1142 280 Pls
1142 280 Pls
1144 280 Pls
1144 280 Pls
1146 280 Pls
1147 280 Pls
1149 280 Pls
1150 280 Pls
1150 280 Pls
1151 280 Pls
1151 280 Pls
1151 280 Pls
1153 280 Pls
1153 280 Pls
1154 280 Pls
1154 280 Pls
1155 280 Pls
1156 280 Pls
1157 280 Pls
1157 280 Pls
1158 280 Pls
1158 280 Pls
1158 280 Pls
1159 2576 Pls
1159 280 Pls
1159 280 Pls
1160 280 Pls
1161 280 Pls
1162 280 Pls
1163 280 Pls
1163 280 Pls
1163 280 Pls
1164 280 Pls
1164 280 Pls
1165 280 Pls
1165 280 Pls
1166 280 Pls
1167 2576 Pls
1167 280 Pls
1168 280 Pls
1169 280 Pls
1169 280 Pls
1171 2576 Pls
1172 280 Pls
1172 280 Pls
1173 280 Pls
1174 280 Pls
1175 280 Pls
1176 280 Pls
1176 280 Pls
1176 280 Pls
1177 280 Pls
1177 280 Pls
1180 2576 Pls
1180 280 Pls
1180 280 Pls
1181 280 Pls
1182 280 Pls
1182 280 Pls
1183 280 Pls
1183 280 Pls
1184 280 Pls
1184 280 Pls
1184 280 Pls
1185 280 Pls
1186 280 Pls
1187 280 Pls
1187 2576 Pls
1189 280 Pls
1189 280 Pls
1189 280 Pls
1189 280 Pls
1191 280 Pls
1191 280 Pls
1193 280 Pls
1194 280 Pls
1195 280 Pls
1196 280 Pls
1197 280 Pls
1197 280 Pls
1197 280 Pls
1198 280 Pls
1199 280 Pls
1200 280 Pls
1202 280 Pls
1202 280 Pls
1202 280 Pls
1203 280 Pls
1204 280 Pls
1204 280 Pls
1206 280 Pls
1206 280 Pls
1206 280 Pls
1207 280 Pls
1207 280 Pls
1208 280 Pls
1209 280 Pls
1209 280 Pls
1209 280 Pls
1210 280 Pls
1210 280 Pls
1212 280 Pls
1212 280 Pls
1214 280 Pls
1214 280 Pls
1214 280 Pls
1215 2576 Pls
1215 280 Pls
1215 280 Pls
1217 280 Pls
1217 280 Pls
1218 280 Pls
1218 280 Pls
1219 280 Pls
1219 280 Pls
1220 280 Pls
1221 280 Pls
1221 280 Pls
1221 280 Pls
1222 280 Pls
1223 280 Pls
1223 280 Pls
1223 280 Pls
1223 280 Pls
1224 280 Pls
1225 280 Pls
1226 280 Pls
1226 280 Pls
1227 280 Pls
1227 280 Pls
1228 280 Pls
1228 280 Pls
1229 280 Pls
1230 280 Pls
1230 280 Pls
1231 280 Pls
1231 280 Pls
1231 280 Pls
1231 280 Pls
1232 280 Pls
1232 280 Pls
1233 280 Pls
1233 280 Pls
1235 280 Pls
1236 280 Pls
1237 280 Pls
1238 280 Pls
1238 280 Pls
1238 280 Pls
1238 280 Pls
1239 280 Pls
1239 280 Pls
1240 280 Pls
1241 280 Pls
1242 280 Pls
1242 280 Pls
1243 280 Pls
1243 280 Pls
1244 280 Pls
1245 280 Pls
1246 280 Pls
1246 280 Pls
1247 280 Pls
1248 280 Pls
1248 280 Pls
1249 280 Pls
1249 280 Pls
1250 2576 Pls
1250 280 Pls
1251 280 Pls
1251 280 Pls
1252 280 Pls
1254 280 Pls
1254 280 Pls
1255 280 Pls
1255 280 Pls
1256 280 Pls
1257 280 Pls
1258 280 Pls
1258 280 Pls
1259 280 Pls
1261 280 Pls
1262 280 Pls
1263 280 Pls
1263 2576 Pls
1263 280 Pls
1264 280 Pls
1265 280 Pls
1266 280 Pls
1267 280 Pls
1267 280 Pls
1268 280 Pls
1269 280 Pls
1269 280 Pls
1270 280 Pls
1270 280 Pls
1271 280 Pls
1271 280 Pls
1273 280 Pls
1273 280 Pls
1273 280 Pls
1274 280 Pls
1275 280 Pls
1277 280 Pls
1277 280 Pls
1280 280 Pls
1280 280 Pls
1280 280 Pls
1280 280 Pls
1281 280 Pls
1281 280 Pls
1282 2576 Pls
1283 280 Pls
1286 280 Pls
1287 280 Pls
1287 280 Pls
1287 280 Pls
1288 280 Pls
1288 2576 Pls
1288 280 Pls
1289 2576 Pls
1290 280 Pls
1290 280 Pls
1290 280 Pls
1291 280 Pls
1292 280 Pls
1293 280 Pls
1293 280 Pls
1294 280 Pls
1294 280 Pls
1295 280 Pls
1297 280 Pls
1297 280 Pls
1299 280 Pls
1299 280 Pls
1300 280 Pls
1302 280 Pls
1303 280 Pls
1306 280 Pls
1308 280 Pls
1309 280 Pls
1311 280 Pls
1313 280 Pls
1313 280 Pls
1314 280 Pls
1314 280 Pls
1314 280 Pls
1314 280 Pls
1314 280 Pls
1314 280 Pls
1315 280 Pls
1317 280 Pls
1318 280 Pls
1319 280 Pls
1319 280 Pls
1321 280 Pls
1323 280 Pls
1324 280 Pls
1324 280 Pls
1325 280 Pls
1326 280 Pls
1327 280 Pls
1327 280 Pls
1330 280 Pls
1332 280 Pls
1332 280 Pls
1333 280 Pls
1336 280 Pls
1337 280 Pls
1337 280 Pls
1337 280 Pls
1338 280 Pls
1339 280 Pls
1339 280 Pls
1339 280 Pls
1340 280 Pls
1340 280 Pls
1340 280 Pls
1341 2576 Pls
1341 280 Pls
1343 280 Pls
1343 280 Pls
1343 280 Pls
1344 280 Pls
1344 280 Pls
1344 4871 Pls
1344 280 Pls
1345 280 Pls
1346 280 Pls
1346 2576 Pls
1347 280 Pls
1348 2576 Pls
1349 280 Pls
1349 280 Pls
1351 280 Pls
1351 280 Pls
1354 280 Pls
1354 280 Pls
1354 280 Pls
1355 280 Pls
1355 280 Pls
1357 280 Pls
1359 280 Pls
1359 280 Pls
1360 280 Pls
1360 280 Pls
1360 280 Pls
1361 280 Pls
1361 280 Pls
1361 280 Pls
1362 280 Pls
1364 280 Pls
1365 280 Pls
1365 280 Pls
1366 280 Pls
1366 280 Pls
1366 280 Pls
1367 280 Pls
1368 280 Pls
1369 280 Pls
1369 280 Pls
1369 280 Pls
1370 280 Pls
1371 280 Pls
1371 2576 Pls
1372 280 Pls
1374 280 Pls
1376 280 Pls
1376 280 Pls
1378 280 Pls
1379 280 Pls
1379 280 Pls
1380 280 Pls
1381 280 Pls
1381 280 Pls
1382 2576 Pls
1386 280 Pls
1387 280 Pls
1387 280 Pls
1388 280 Pls
1390 280 Pls
1392 280 Pls
1394 280 Pls
1396 280 Pls
1399 280 Pls
1399 280 Pls
1402 280 Pls
1403 280 Pls
1404 280 Pls
1404 280 Pls
1405 280 Pls
1406 280 Pls
1406 280 Pls
1408 280 Pls
1408 280 Pls
1408 280 Pls
1409 280 Pls
1409 280 Pls
1409 280 Pls
1410 280 Pls
1410 280 Pls
1410 280 Pls
1413 280 Pls
1418 280 Pls
1421 280 Pls
1423 280 Pls
1425 280 Pls
1426 280 Pls
1426 280 Pls
1426 280 Pls
1431 280 Pls
1434 280 Pls
1436 280 Pls
1436 280 Pls
1439 280 Pls
1440 280 Pls
1440 280 Pls
1440 280 Pls
1441 280 Pls
1441 280 Pls
1444 280 Pls
1444 280 Pls
1453 280 Pls
1453 280 Pls
1454 280 Pls
1456 280 Pls
1459 280 Pls
1462 280 Pls
1462 280 Pls
1465 280 Pls
1465 280 Pls
1468 280 Pls
1472 280 Pls
1473 280 Pls
1475 280 Pls
1476 280 Pls
1480 280 Pls
1481 280 Pls
1482 280 Pls
1486 280 Pls
1491 280 Pls
1492 280 Pls
1493 280 Pls
1493 280 Pls
1495 280 Pls
1499 280 Pls
1501 280 Pls
1502 280 Pls
1507 280 Pls
1514 280 Pls
1515 280 Pls
1515 280 Pls
1518 280 Pls
1519 280 Pls
1525 280 Pls
1525 280 Pls
1528 280 Pls
1530 280 Pls
1535 280 Pls
1538 280 Pls
1538 280 Pls
1538 280 Pls
1539 280 Pls
1540 280 Pls
1541 280 Pls
1541 280 Pls
1543 280 Pls
1546 280 Pls
1549 280 Pls
1550 280 Pls
1551 280 Pls
1553 280 Pls
1556 280 Pls
1560 280 Pls
1561 280 Pls
1565 280 Pls
1565 280 Pls
1565 280 Pls
1567 280 Pls
1577 280 Pls
1581 280 Pls
1582 280 Pls
1582 280 Pls
1582 280 Pls
1623 280 Pls
1626 280 Pls
1627 280 Pls
1630 280 Pls
1633 2576 Pls
1636 280 Pls
1637 280 Pls
1645 280 Pls
1646 280 Pls
1647 280 Pls
1647 280 Pls
1648 280 Pls
1650 280 Pls
1654 280 Pls
1655 280 Pls
1656 280 Pls
1656 280 Pls
1657 280 Pls
1658 280 Pls
1660 280 Pls
1664 280 Pls
1666 280 Pls
1667 280 Pls
1675 280 Pls
1676 280 Pls
1678 280 Pls
1679 280 Pls
1683 280 Pls
1685 280 Pls
1686 280 Pls
1691 280 Pls
1694 280 Pls
1695 280 Pls
1696 280 Pls
1696 280 Pls
1697 280 Pls
1699 280 Pls
1700 280 Pls
1700 280 Pls
1701 280 Pls
1701 280 Pls
1704 280 Pls
1706 280 Pls
1707 280 Pls
1710 280 Pls
1711 280 Pls
1711 280 Pls
1711 280 Pls
1714 280 Pls
1716 280 Pls
1717 280 Pls
1718 280 Pls
1721 280 Pls
1722 280 Pls
1724 280 Pls
1727 280 Pls
1730 280 Pls
1731 280 Pls
1732 280 Pls
1738 280 Pls
1739 280 Pls
1742 280 Pls
1743 280 Pls
1743 280 Pls
1746 280 Pls
1747 280 Pls
1750 280 Pls
1751 280 Pls
1756 280 Pls
1759 280 Pls
1763 280 Pls
1764 280 Pls
1765 280 Pls
1767 2576 Pls
1767 280 Pls
1768 280 Pls
1771 280 Pls
1775 280 Pls
1775 280 Pls
1782 280 Pls
1782 280 Pls
1791 280 Pls
1791 280 Pls
1793 280 Pls
1794 280 Pls
1796 280 Pls
1797 280 Pls
1798 280 Pls
1798 280 Pls
1799 280 Pls
1802 280 Pls
1803 280 Pls
1805 280 Pls
1805 280 Pls
1810 280 Pls
1812 280 Pls
1812 280 Pls
1815 280 Pls
1815 280 Pls
1817 280 Pls
1819 280 Pls
1820 280 Pls
1821 280 Pls
1821 280 Pls
1824 280 Pls
1825 280 Pls
1825 280 Pls
1826 280 Pls
1827 280 Pls
1827 280 Pls
1829 280 Pls
1830 280 Pls
1836 280 Pls
1840 280 Pls
1840 280 Pls
1840 280 Pls
1841 280 Pls
1842 280 Pls
1842 280 Pls
1846 280 Pls
1848 280 Pls
1849 280 Pls
1850 280 Pls
1851 280 Pls
1853 280 Pls
1856 280 Pls
1857 280 Pls
1858 280 Pls
1858 280 Pls
1860 280 Pls
1861 280 Pls
1864 280 Pls
1864 280 Pls
1867 280 Pls
1869 280 Pls
1870 280 Pls
1873 280 Pls
1873 280 Pls
1876 280 Pls
1879 280 Pls
1881 280 Pls
1882 280 Pls
1887 280 Pls
1888 280 Pls
1889 280 Pls
1889 280 Pls
1893 280 Pls
1896 280 Pls
1896 280 Pls
1897 280 Pls
1897 280 Pls
1898 280 Pls
1899 280 Pls
1900 280 Pls
1900 280 Pls
1901 280 Pls
1903 280 Pls
1904 280 Pls
1906 280 Pls
1906 280 Pls
1908 280 Pls
1908 280 Pls
1909 280 Pls
1909 280 Pls
1909 280 Pls
1915 280 Pls
1918 280 Pls
1919 280 Pls
1924 280 Pls
1927 280 Pls
1927 280 Pls
1931 280 Pls
1932 280 Pls
1933 280 Pls
1936 280 Pls
1937 2576 Pls
1939 280 Pls
1940 280 Pls
1940 280 Pls
1943 280 Pls
1943 280 Pls
1944 280 Pls
1945 280 Pls
1946 280 Pls
1947 280 Pls
1947 280 Pls
1949 280 Pls
1950 280 Pls
1951 280 Pls
1952 280 Pls
1952 280 Pls
1952 280 Pls
1953 280 Pls
1954 280 Pls
1958 280 Pls
1959 280 Pls
1960 280 Pls
1961 280 Pls
1963 280 Pls
1964 280 Pls
1965 280 Pls
1965 280 Pls
1967 280 Pls
1967 280 Pls
1968 280 Pls
1973 280 Pls
1974 280 Pls
1976 280 Pls
1976 280 Pls
1978 280 Pls
1979 280 Pls
1979 280 Pls
1980 280 Pls
1981 280 Pls
1982 280 Pls
1983 280 Pls
1986 280 Pls
1987 280 Pls
1987 280 Pls
1988 280 Pls
1988 280 Pls
1989 280 Pls
1991 280 Pls
2001 280 Pls
2002 280 Pls
2003 280 Pls
2004 280 Pls
2004 280 Pls
2005 280 Pls
2008 280 Pls
2011 280 Pls
2012 280 Pls
2013 280 Pls
2014 280 Pls
2014 280 Pls
2016 280 Pls
2017 280 Pls
2018 280 Pls
2019 280 Pls
2020 280 Pls
2021 280 Pls
2024 280 Pls
2024 280 Pls
2025 280 Pls
2026 280 Pls
2028 280 Pls
2030 280 Pls
2031 280 Pls
2034 280 Pls
2036 280 Pls
2041 280 Pls
2042 280 Pls
2043 280 Pls
2047 280 Pls
2049 280 Pls
2049 280 Pls
2049 280 Pls
2052 280 Pls
2055 280 Pls
2057 2576 Pls
2057 280 Pls
2058 280 Pls
2061 280 Pls
2062 280 Pls
2074 280 Pls
2075 280 Pls
2077 280 Pls
2083 280 Pls
2087 280 Pls
2088 280 Pls
2089 280 Pls
2092 280 Pls
2093 280 Pls
2098 280 Pls
2099 280 Pls
2100 280 Pls
2104 280 Pls
2107 280 Pls
2110 280 Pls
2110 280 Pls
2112 280 Pls
2112 280 Pls
2112 280 Pls
2112 280 Pls
2113 280 Pls
2114 280 Pls
2117 280 Pls
2119 280 Pls
2119 280 Pls
2120 280 Pls
2122 280 Pls
2124 280 Pls
2127 280 Pls
2127 280 Pls
2135 280 Pls
2138 280 Pls
2141 280 Pls
2144 280 Pls
2147 280 Pls
2151 280 Pls
2160 280 Pls
2168 280 Pls
2171 280 Pls
2172 280 Pls
2172 280 Pls
2173 280 Pls
2177 280 Pls
2177 280 Pls
2179 280 Pls
2182 280 Pls
2192 280 Pls
2196 280 Pls
2199 280 Pls
2209 280 Pls
2212 280 Pls
2215 280 Pls
2217 280 Pls
2217 280 Pls
2217 280 Pls
2224 280 Pls
2225 280 Pls
2230 280 Pls
2230 280 Pls
2234 280 Pls
2234 280 Pls
2237 280 Pls
2238 280 Pls
2240 280 Pls
2241 280 Pls
2241 280 Pls
2241 280 Pls
2242 280 Pls
2244 280 Pls
2251 280 Pls
2252 280 Pls
2256 280 Pls
2259 280 Pls
2264 280 Pls
2271 280 Pls
2273 280 Pls
2273 280 Pls
2273 280 Pls
2278 280 Pls
2281 280 Pls
2282 280 Pls
2284 280 Pls
2287 280 Pls
2289 280 Pls
2291 280 Pls
2291 280 Pls
2292 280 Pls
2293 280 Pls
2300 280 Pls
2304 280 Pls
2306 280 Pls
2307 280 Pls
2315 280 Pls
2316 280 Pls
2319 280 Pls
2329 280 Pls
2330 280 Pls
2337 280 Pls
2340 280 Pls
2345 280 Pls
2345 280 Pls
2346 280 Pls
2348 280 Pls
2350 280 Pls
2350 280 Pls
2358 280 Pls
2360 280 Pls
2367 280 Pls
2367 280 Pls
2368 280 Pls
2372 280 Pls
2374 280 Pls
2375 280 Pls
2383 280 Pls
2383 280 Pls
2384 280 Pls
2384 280 Pls
2389 280 Pls
2392 280 Pls
2394 280 Pls
2403 280 Pls
2404 280 Pls
2411 280 Pls
2420 280 Pls
2426 280 Pls
2429 280 Pls
2429 280 Pls
2433 280 Pls
2436 280 Pls
2438 280 Pls
2451 280 Pls
2462 280 Pls
2467 280 Pls
2470 280 Pls
2471 280 Pls
2474 280 Pls
2478 280 Pls
2481 280 Pls
2488 280 Pls
2492 280 Pls
2494 280 Pls
2497 280 Pls
2497 280 Pls
2502 280 Pls
2504 280 Pls
2505 280 Pls
2506 280 Pls
2508 280 Pls
2512 280 Pls
2514 280 Pls
2520 280 Pls
2523 280 Pls
2525 280 Pls
2529 280 Pls
2534 280 Pls
2536 280 Pls
2539 280 Pls
2542 280 Pls
2545 280 Pls
2545 280 Pls
2547 280 Pls
2550 280 Pls
2551 280 Pls
2553 280 Pls
2553 280 Pls
2554 280 Pls
2555 280 Pls
2557 280 Pls
2563 280 Pls
2565 280 Pls
2568 280 Pls
2569 280 Pls
2572 280 Pls
2579 280 Pls
2580 280 Pls
2583 280 Pls
2583 2576 Pls
2586 280 Pls
2589 280 Pls
2593 280 Pls
2596 280 Pls
2599 280 Pls
2600 280 Pls
2601 280 Pls
2612 280 Pls
2615 280 Pls
2622 280 Pls
2623 280 Pls
2627 280 Pls
2632 280 Pls
2633 280 Pls
2637 280 Pls
2638 280 Pls
2639 280 Pls
2642 280 Pls
2644 280 Pls
2649 280 Pls
2651 280 Pls
2653 280 Pls
2654 280 Pls
2654 280 Pls
2655 280 Pls
2655 280 Pls
2659 280 Pls
2667 280 Pls
2668 280 Pls
2674 280 Pls
2675 280 Pls
2675 280 Pls
2678 280 Pls
2678 280 Pls
2679 280 Pls
2682 280 Pls
2686 280 Pls
2687 280 Pls
2691 280 Pls
2693 280 Pls
2693 280 Pls
2697 280 Pls
2699 280 Pls
2699 280 Pls
2704 280 Pls
2708 280 Pls
2713 280 Pls
2713 280 Pls
2718 280 Pls
2719 280 Pls
2725 280 Pls
2726 280 Pls
2729 280 Pls
2739 280 Pls
2743 280 Pls
2745 280 Pls
2748 280 Pls
2755 280 Pls
2755 280 Pls
2761 280 Pls
2761 280 Pls
2762 280 Pls
2764 280 Pls
2764 280 Pls
2765 280 Pls
2766 280 Pls
2767 280 Pls
2768 280 Pls
2774 280 Pls
2780 280 Pls
2780 280 Pls
2786 280 Pls
2790 280 Pls
2791 280 Pls
2804 280 Pls
2806 280 Pls
2809 280 Pls
2812 280 Pls
2812 280 Pls
2813 280 Pls
2816 280 Pls
2821 280 Pls
2821 280 Pls
2824 280 Pls
2824 280 Pls
2824 280 Pls
2830 280 Pls
2836 280 Pls
2843 280 Pls
2843 280 Pls
2848 280 Pls
2850 280 Pls
2850 280 Pls
2854 280 Pls
2858 280 Pls
2858 280 Pls
2861 280 Pls
2864 280 Pls
2865 280 Pls
2867 280 Pls
2877 280 Pls
2885 280 Pls
2887 280 Pls
2889 280 Pls
2890 280 Pls
2891 280 Pls
2892 280 Pls
2898 280 Pls
2899 280 Pls
2901 280 Pls
2908 280 Pls
2915 280 Pls
2918 280 Pls
2919 280 Pls
2919 280 Pls
2920 280 Pls
2921 280 Pls
2926 280 Pls
2930 280 Pls
2932 280 Pls
2938 280 Pls
2943 280 Pls
2948 280 Pls
2949 280 Pls
2949 280 Pls
2957 280 Pls
2960 280 Pls
2960 280 Pls
2975 280 Pls
2977 280 Pls
2979 280 Pls
2985 280 Pls
2986 280 Pls
2986 280 Pls
2991 280 Pls
2999 280 Pls
3002 280 Pls
3003 280 Pls
3005 280 Pls
3015 280 Pls
3025 280 Pls
3030 280 Pls
3032 280 Pls
3039 280 Pls
3041 280 Pls
3047 280 Pls
3055 280 Pls
3057 280 Pls
3062 280 Pls
3064 280 Pls
3070 280 Pls
3080 280 Pls
3083 280 Pls
3085 280 Pls
3093 280 Pls
3097 280 Pls
3106 280 Pls
3106 280 Pls
3108 280 Pls
3110 280 Pls
3111 280 Pls
3113 280 Pls
3117 280 Pls
3134 280 Pls
3141 280 Pls
3144 280 Pls
3145 280 Pls
3145 280 Pls
3152 280 Pls
3152 280 Pls
3166 280 Pls
3167 280 Pls
3178 280 Pls
3180 280 Pls
3189 280 Pls
3189 280 Pls
3213 280 Pls
3225 280 Pls
3225 280 Pls
3265 280 Pls
3280 280 Pls
3286 280 Pls
3326 280 Pls
3345 280 Pls
3346 280 Pls
3403 280 Pls
3403 280 Pls
3440 280 Pls
3467 280 Pls
3469 280 Pls
3480 280 Pls
3482 280 Pls
3488 280 Pls
3511 280 Pls
3515 280 Pls
3516 280 Pls
3516 280 Pls
3545 280 Pls
3597 280 Pls
3598 280 Pls
3640 280 Pls
3645 280 Pls
3689 280 Pls
3691 280 Pls
3701 280 Pls
3727 280 Pls
3737 280 Pls
3772 280 Pls
3824 280 Pls
3849 280 Pls
3870 280 Pls
3891 280 Pls
3918 280 Pls
3942 280 Pls
3945 280 Pls
4067 280 Pls
4070 280 Pls
4076 280 Pls
4568 280 Pls
4604 280 Pls
4688 280 Pls
5041 280 Pls
5087 280 Pls
5345 280 Pls
% End plot #1
2.000 UL
LTb
LCb setrgbcolor
1.000 UL
LTB
LCb setrgbcolor
546 4871 N
546 280 L
6401 0 V
0 4591 V
-6401 0 V
Z stroke
1.000 UP
1.000 UL
LTb
LCb setrgbcolor
stroke
grestore
end
showpage
%%Trailer
%%DocumentFonts: Helvetica
%%Pages: 1
