%!PS-Adobe-2.0
%%Title: packets-ip-s-log-packets-ip-dist-loglog.eps
%%Creator: gnuplot 5.0 patchlevel 3
%%CreationDate: Mon May 29 11:05:48 2017
%%DocumentFonts: (atend)
%%BoundingBox: 50 50 554 770
%%Orientation: Landscape
%%Pages: (atend)
%%EndComments
%%BeginProlog
/gnudict 256 dict def
gnudict begin
%
% The following true/false flags may be edited by hand if desired.
% The unit line width and grayscale image gamma correction may also be changed.
%
/Color true def
/Blacktext false def
/Solid false def
/Dashlength 1 def
/Landscape true def
/Level1 false def
/Level3 false def
/Rounded false def
/ClipToBoundingBox false def
/SuppressPDFMark false def
/TransparentPatterns false def
/gnulinewidth 5.000 def
/userlinewidth gnulinewidth def
/Gamma 1.0 def
/BackgroundColor {-1.000 -1.000 -1.000} def
%
/vshift -46 def
/dl1 {
  10.0 Dashlength userlinewidth gnulinewidth div mul mul mul
  Rounded { currentlinewidth 0.75 mul sub dup 0 le { pop 0.01 } if } if
} def
/dl2 {
  10.0 Dashlength userlinewidth gnulinewidth div mul mul mul
  Rounded { currentlinewidth 0.75 mul add } if
} def
/hpt_ 31.5 def
/vpt_ 31.5 def
/hpt hpt_ def
/vpt vpt_ def
/doclip {
  ClipToBoundingBox {
    newpath 50 50 moveto 554 50 lineto 554 770 lineto 50 770 lineto closepath
    clip
  } if
} def
%
% Gnuplot Prolog Version 5.1 (Oct 2015)
%
%/SuppressPDFMark true def
%
/M {moveto} bind def
/L {lineto} bind def
/R {rmoveto} bind def
/V {rlineto} bind def
/N {newpath moveto} bind def
/Z {closepath} bind def
/C {setrgbcolor} bind def
/f {rlineto fill} bind def
/g {setgray} bind def
/Gshow {show} def   % May be redefined later in the file to support UTF-8
/vpt2 vpt 2 mul def
/hpt2 hpt 2 mul def
/Lshow {currentpoint stroke M 0 vshift R 
	Blacktext {gsave 0 setgray textshow grestore} {textshow} ifelse} def
/Rshow {currentpoint stroke M dup stringwidth pop neg vshift R
	Blacktext {gsave 0 setgray textshow grestore} {textshow} ifelse} def
/Cshow {currentpoint stroke M dup stringwidth pop -2 div vshift R 
	Blacktext {gsave 0 setgray textshow grestore} {textshow} ifelse} def
/UP {dup vpt_ mul /vpt exch def hpt_ mul /hpt exch def
  /hpt2 hpt 2 mul def /vpt2 vpt 2 mul def} def
/DL {Color {setrgbcolor Solid {pop []} if 0 setdash}
 {pop pop pop 0 setgray Solid {pop []} if 0 setdash} ifelse} def
/BL {stroke userlinewidth 2 mul setlinewidth
	Rounded {1 setlinejoin 1 setlinecap} if} def
/AL {stroke userlinewidth 2 div setlinewidth
	Rounded {1 setlinejoin 1 setlinecap} if} def
/UL {dup gnulinewidth mul /userlinewidth exch def
	dup 1 lt {pop 1} if 10 mul /udl exch def} def
/PL {stroke userlinewidth setlinewidth
	Rounded {1 setlinejoin 1 setlinecap} if} def
3.8 setmiterlimit
% Classic Line colors (version 5.0)
/LCw {1 1 1} def
/LCb {0 0 0} def
/LCa {0 0 0} def
/LC0 {1 0 0} def
/LC1 {0 1 0} def
/LC2 {0 0 1} def
/LC3 {1 0 1} def
/LC4 {0 1 1} def
/LC5 {1 1 0} def
/LC6 {0 0 0} def
/LC7 {1 0.3 0} def
/LC8 {0.5 0.5 0.5} def
% Default dash patterns (version 5.0)
/LTB {BL [] LCb DL} def
/LTw {PL [] 1 setgray} def
/LTb {PL [] LCb DL} def
/LTa {AL [1 udl mul 2 udl mul] 0 setdash LCa setrgbcolor} def
/LT0 {PL [] LC0 DL} def
/LT1 {PL [2 dl1 3 dl2] LC1 DL} def
/LT2 {PL [1 dl1 1.5 dl2] LC2 DL} def
/LT3 {PL [6 dl1 2 dl2 1 dl1 2 dl2] LC3 DL} def
/LT4 {PL [1 dl1 2 dl2 6 dl1 2 dl2 1 dl1 2 dl2] LC4 DL} def
/LT5 {PL [4 dl1 2 dl2] LC5 DL} def
/LT6 {PL [1.5 dl1 1.5 dl2 1.5 dl1 1.5 dl2 1.5 dl1 6 dl2] LC6 DL} def
/LT7 {PL [3 dl1 3 dl2 1 dl1 3 dl2] LC7 DL} def
/LT8 {PL [2 dl1 2 dl2 2 dl1 6 dl2] LC8 DL} def
/SL {[] 0 setdash} def
/Pnt {stroke [] 0 setdash gsave 1 setlinecap M 0 0 V stroke grestore} def
/Dia {stroke [] 0 setdash 2 copy vpt add M
  hpt neg vpt neg V hpt vpt neg V
  hpt vpt V hpt neg vpt V closepath stroke
  Pnt} def
/Pls {stroke [] 0 setdash vpt sub M 0 vpt2 V
  currentpoint stroke M
  hpt neg vpt neg R hpt2 0 V stroke
 } def
/Box {stroke [] 0 setdash 2 copy exch hpt sub exch vpt add M
  0 vpt2 neg V hpt2 0 V 0 vpt2 V
  hpt2 neg 0 V closepath stroke
  Pnt} def
/Crs {stroke [] 0 setdash exch hpt sub exch vpt add M
  hpt2 vpt2 neg V currentpoint stroke M
  hpt2 neg 0 R hpt2 vpt2 V stroke} def
/TriU {stroke [] 0 setdash 2 copy vpt 1.12 mul add M
  hpt neg vpt -1.62 mul V
  hpt 2 mul 0 V
  hpt neg vpt 1.62 mul V closepath stroke
  Pnt} def
/Star {2 copy Pls Crs} def
/BoxF {stroke [] 0 setdash exch hpt sub exch vpt add M
  0 vpt2 neg V hpt2 0 V 0 vpt2 V
  hpt2 neg 0 V closepath fill} def
/TriUF {stroke [] 0 setdash vpt 1.12 mul add M
  hpt neg vpt -1.62 mul V
  hpt 2 mul 0 V
  hpt neg vpt 1.62 mul V closepath fill} def
/TriD {stroke [] 0 setdash 2 copy vpt 1.12 mul sub M
  hpt neg vpt 1.62 mul V
  hpt 2 mul 0 V
  hpt neg vpt -1.62 mul V closepath stroke
  Pnt} def
/TriDF {stroke [] 0 setdash vpt 1.12 mul sub M
  hpt neg vpt 1.62 mul V
  hpt 2 mul 0 V
  hpt neg vpt -1.62 mul V closepath fill} def
/DiaF {stroke [] 0 setdash vpt add M
  hpt neg vpt neg V hpt vpt neg V
  hpt vpt V hpt neg vpt V closepath fill} def
/Pent {stroke [] 0 setdash 2 copy gsave
  translate 0 hpt M 4 {72 rotate 0 hpt L} repeat
  closepath stroke grestore Pnt} def
/PentF {stroke [] 0 setdash gsave
  translate 0 hpt M 4 {72 rotate 0 hpt L} repeat
  closepath fill grestore} def
/Circle {stroke [] 0 setdash 2 copy
  hpt 0 360 arc stroke Pnt} def
/CircleF {stroke [] 0 setdash hpt 0 360 arc fill} def
/C0 {BL [] 0 setdash 2 copy moveto vpt 90 450 arc} bind def
/C1 {BL [] 0 setdash 2 copy moveto
	2 copy vpt 0 90 arc closepath fill
	vpt 0 360 arc closepath} bind def
/C2 {BL [] 0 setdash 2 copy moveto
	2 copy vpt 90 180 arc closepath fill
	vpt 0 360 arc closepath} bind def
/C3 {BL [] 0 setdash 2 copy moveto
	2 copy vpt 0 180 arc closepath fill
	vpt 0 360 arc closepath} bind def
/C4 {BL [] 0 setdash 2 copy moveto
	2 copy vpt 180 270 arc closepath fill
	vpt 0 360 arc closepath} bind def
/C5 {BL [] 0 setdash 2 copy moveto
	2 copy vpt 0 90 arc
	2 copy moveto
	2 copy vpt 180 270 arc closepath fill
	vpt 0 360 arc} bind def
/C6 {BL [] 0 setdash 2 copy moveto
	2 copy vpt 90 270 arc closepath fill
	vpt 0 360 arc closepath} bind def
/C7 {BL [] 0 setdash 2 copy moveto
	2 copy vpt 0 270 arc closepath fill
	vpt 0 360 arc closepath} bind def
/C8 {BL [] 0 setdash 2 copy moveto
	2 copy vpt 270 360 arc closepath fill
	vpt 0 360 arc closepath} bind def
/C9 {BL [] 0 setdash 2 copy moveto
	2 copy vpt 270 450 arc closepath fill
	vpt 0 360 arc closepath} bind def
/C10 {BL [] 0 setdash 2 copy 2 copy moveto vpt 270 360 arc closepath fill
	2 copy moveto
	2 copy vpt 90 180 arc closepath fill
	vpt 0 360 arc closepath} bind def
/C11 {BL [] 0 setdash 2 copy moveto
	2 copy vpt 0 180 arc closepath fill
	2 copy moveto
	2 copy vpt 270 360 arc closepath fill
	vpt 0 360 arc closepath} bind def
/C12 {BL [] 0 setdash 2 copy moveto
	2 copy vpt 180 360 arc closepath fill
	vpt 0 360 arc closepath} bind def
/C13 {BL [] 0 setdash 2 copy moveto
	2 copy vpt 0 90 arc closepath fill
	2 copy moveto
	2 copy vpt 180 360 arc closepath fill
	vpt 0 360 arc closepath} bind def
/C14 {BL [] 0 setdash 2 copy moveto
	2 copy vpt 90 360 arc closepath fill
	vpt 0 360 arc} bind def
/C15 {BL [] 0 setdash 2 copy vpt 0 360 arc closepath fill
	vpt 0 360 arc closepath} bind def
/Rec {newpath 4 2 roll moveto 1 index 0 rlineto 0 exch rlineto
	neg 0 rlineto closepath} bind def
/Square {dup Rec} bind def
/Bsquare {vpt sub exch vpt sub exch vpt2 Square} bind def
/S0 {BL [] 0 setdash 2 copy moveto 0 vpt rlineto BL Bsquare} bind def
/S1 {BL [] 0 setdash 2 copy vpt Square fill Bsquare} bind def
/S2 {BL [] 0 setdash 2 copy exch vpt sub exch vpt Square fill Bsquare} bind def
/S3 {BL [] 0 setdash 2 copy exch vpt sub exch vpt2 vpt Rec fill Bsquare} bind def
/S4 {BL [] 0 setdash 2 copy exch vpt sub exch vpt sub vpt Square fill Bsquare} bind def
/S5 {BL [] 0 setdash 2 copy 2 copy vpt Square fill
	exch vpt sub exch vpt sub vpt Square fill Bsquare} bind def
/S6 {BL [] 0 setdash 2 copy exch vpt sub exch vpt sub vpt vpt2 Rec fill Bsquare} bind def
/S7 {BL [] 0 setdash 2 copy exch vpt sub exch vpt sub vpt vpt2 Rec fill
	2 copy vpt Square fill Bsquare} bind def
/S8 {BL [] 0 setdash 2 copy vpt sub vpt Square fill Bsquare} bind def
/S9 {BL [] 0 setdash 2 copy vpt sub vpt vpt2 Rec fill Bsquare} bind def
/S10 {BL [] 0 setdash 2 copy vpt sub vpt Square fill 2 copy exch vpt sub exch vpt Square fill
	Bsquare} bind def
/S11 {BL [] 0 setdash 2 copy vpt sub vpt Square fill 2 copy exch vpt sub exch vpt2 vpt Rec fill
	Bsquare} bind def
/S12 {BL [] 0 setdash 2 copy exch vpt sub exch vpt sub vpt2 vpt Rec fill Bsquare} bind def
/S13 {BL [] 0 setdash 2 copy exch vpt sub exch vpt sub vpt2 vpt Rec fill
	2 copy vpt Square fill Bsquare} bind def
/S14 {BL [] 0 setdash 2 copy exch vpt sub exch vpt sub vpt2 vpt Rec fill
	2 copy exch vpt sub exch vpt Square fill Bsquare} bind def
/S15 {BL [] 0 setdash 2 copy Bsquare fill Bsquare} bind def
/D0 {gsave translate 45 rotate 0 0 S0 stroke grestore} bind def
/D1 {gsave translate 45 rotate 0 0 S1 stroke grestore} bind def
/D2 {gsave translate 45 rotate 0 0 S2 stroke grestore} bind def
/D3 {gsave translate 45 rotate 0 0 S3 stroke grestore} bind def
/D4 {gsave translate 45 rotate 0 0 S4 stroke grestore} bind def
/D5 {gsave translate 45 rotate 0 0 S5 stroke grestore} bind def
/D6 {gsave translate 45 rotate 0 0 S6 stroke grestore} bind def
/D7 {gsave translate 45 rotate 0 0 S7 stroke grestore} bind def
/D8 {gsave translate 45 rotate 0 0 S8 stroke grestore} bind def
/D9 {gsave translate 45 rotate 0 0 S9 stroke grestore} bind def
/D10 {gsave translate 45 rotate 0 0 S10 stroke grestore} bind def
/D11 {gsave translate 45 rotate 0 0 S11 stroke grestore} bind def
/D12 {gsave translate 45 rotate 0 0 S12 stroke grestore} bind def
/D13 {gsave translate 45 rotate 0 0 S13 stroke grestore} bind def
/D14 {gsave translate 45 rotate 0 0 S14 stroke grestore} bind def
/D15 {gsave translate 45 rotate 0 0 S15 stroke grestore} bind def
/DiaE {stroke [] 0 setdash vpt add M
  hpt neg vpt neg V hpt vpt neg V
  hpt vpt V hpt neg vpt V closepath stroke} def
/BoxE {stroke [] 0 setdash exch hpt sub exch vpt add M
  0 vpt2 neg V hpt2 0 V 0 vpt2 V
  hpt2 neg 0 V closepath stroke} def
/TriUE {stroke [] 0 setdash vpt 1.12 mul add M
  hpt neg vpt -1.62 mul V
  hpt 2 mul 0 V
  hpt neg vpt 1.62 mul V closepath stroke} def
/TriDE {stroke [] 0 setdash vpt 1.12 mul sub M
  hpt neg vpt 1.62 mul V
  hpt 2 mul 0 V
  hpt neg vpt -1.62 mul V closepath stroke} def
/PentE {stroke [] 0 setdash gsave
  translate 0 hpt M 4 {72 rotate 0 hpt L} repeat
  closepath stroke grestore} def
/CircE {stroke [] 0 setdash 
  hpt 0 360 arc stroke} def
/Opaque {gsave closepath 1 setgray fill grestore 0 setgray closepath} def
/DiaW {stroke [] 0 setdash vpt add M
  hpt neg vpt neg V hpt vpt neg V
  hpt vpt V hpt neg vpt V Opaque stroke} def
/BoxW {stroke [] 0 setdash exch hpt sub exch vpt add M
  0 vpt2 neg V hpt2 0 V 0 vpt2 V
  hpt2 neg 0 V Opaque stroke} def
/TriUW {stroke [] 0 setdash vpt 1.12 mul add M
  hpt neg vpt -1.62 mul V
  hpt 2 mul 0 V
  hpt neg vpt 1.62 mul V Opaque stroke} def
/TriDW {stroke [] 0 setdash vpt 1.12 mul sub M
  hpt neg vpt 1.62 mul V
  hpt 2 mul 0 V
  hpt neg vpt -1.62 mul V Opaque stroke} def
/PentW {stroke [] 0 setdash gsave
  translate 0 hpt M 4 {72 rotate 0 hpt L} repeat
  Opaque stroke grestore} def
/CircW {stroke [] 0 setdash 
  hpt 0 360 arc Opaque stroke} def
/BoxFill {gsave Rec 1 setgray fill grestore} def
/Density {
  /Fillden exch def
  currentrgbcolor
  /ColB exch def /ColG exch def /ColR exch def
  /ColR ColR Fillden mul Fillden sub 1 add def
  /ColG ColG Fillden mul Fillden sub 1 add def
  /ColB ColB Fillden mul Fillden sub 1 add def
  ColR ColG ColB setrgbcolor} def
/BoxColFill {gsave Rec PolyFill} def
/PolyFill {gsave Density fill grestore grestore} def
/h {rlineto rlineto rlineto gsave closepath fill grestore} bind def
%
% PostScript Level 1 Pattern Fill routine for rectangles
% Usage: x y w h s a XX PatternFill
%	x,y = lower left corner of box to be filled
%	w,h = width and height of box
%	  a = angle in degrees between lines and x-axis
%	 XX = 0/1 for no/yes cross-hatch
%
/PatternFill {gsave /PFa [ 9 2 roll ] def
  PFa 0 get PFa 2 get 2 div add PFa 1 get PFa 3 get 2 div add translate
  PFa 2 get -2 div PFa 3 get -2 div PFa 2 get PFa 3 get Rec
  TransparentPatterns {} {gsave 1 setgray fill grestore} ifelse
  clip
  currentlinewidth 0.5 mul setlinewidth
  /PFs PFa 2 get dup mul PFa 3 get dup mul add sqrt def
  0 0 M PFa 5 get rotate PFs -2 div dup translate
  0 1 PFs PFa 4 get div 1 add floor cvi
	{PFa 4 get mul 0 M 0 PFs V} for
  0 PFa 6 get ne {
	0 1 PFs PFa 4 get div 1 add floor cvi
	{PFa 4 get mul 0 2 1 roll M PFs 0 V} for
 } if
  stroke grestore} def
%
/languagelevel where
 {pop languagelevel} {1} ifelse
dup 2 lt
	{/InterpretLevel1 true def
	 /InterpretLevel3 false def}
	{/InterpretLevel1 Level1 def
	 2 gt
	    {/InterpretLevel3 Level3 def}
	    {/InterpretLevel3 false def}
	 ifelse }
 ifelse
%
% PostScript level 2 pattern fill definitions
%
/Level2PatternFill {
/Tile8x8 {/PaintType 2 /PatternType 1 /TilingType 1 /BBox [0 0 8 8] /XStep 8 /YStep 8}
	bind def
/KeepColor {currentrgbcolor [/Pattern /DeviceRGB] setcolorspace} bind def
<< Tile8x8
 /PaintProc {0.5 setlinewidth pop 0 0 M 8 8 L 0 8 M 8 0 L stroke} 
>> matrix makepattern
/Pat1 exch def
<< Tile8x8
 /PaintProc {0.5 setlinewidth pop 0 0 M 8 8 L 0 8 M 8 0 L stroke
	0 4 M 4 8 L 8 4 L 4 0 L 0 4 L stroke}
>> matrix makepattern
/Pat2 exch def
<< Tile8x8
 /PaintProc {0.5 setlinewidth pop 0 0 M 0 8 L
	8 8 L 8 0 L 0 0 L fill}
>> matrix makepattern
/Pat3 exch def
<< Tile8x8
 /PaintProc {0.5 setlinewidth pop -4 8 M 8 -4 L
	0 12 M 12 0 L stroke}
>> matrix makepattern
/Pat4 exch def
<< Tile8x8
 /PaintProc {0.5 setlinewidth pop -4 0 M 8 12 L
	0 -4 M 12 8 L stroke}
>> matrix makepattern
/Pat5 exch def
<< Tile8x8
 /PaintProc {0.5 setlinewidth pop -2 8 M 4 -4 L
	0 12 M 8 -4 L 4 12 M 10 0 L stroke}
>> matrix makepattern
/Pat6 exch def
<< Tile8x8
 /PaintProc {0.5 setlinewidth pop -2 0 M 4 12 L
	0 -4 M 8 12 L 4 -4 M 10 8 L stroke}
>> matrix makepattern
/Pat7 exch def
<< Tile8x8
 /PaintProc {0.5 setlinewidth pop 8 -2 M -4 4 L
	12 0 M -4 8 L 12 4 M 0 10 L stroke}
>> matrix makepattern
/Pat8 exch def
<< Tile8x8
 /PaintProc {0.5 setlinewidth pop 0 -2 M 12 4 L
	-4 0 M 12 8 L -4 4 M 8 10 L stroke}
>> matrix makepattern
/Pat9 exch def
/Pattern1 {PatternBgnd KeepColor Pat1 setpattern} bind def
/Pattern2 {PatternBgnd KeepColor Pat2 setpattern} bind def
/Pattern3 {PatternBgnd KeepColor Pat3 setpattern} bind def
/Pattern4 {PatternBgnd KeepColor Landscape {Pat5} {Pat4} ifelse setpattern} bind def
/Pattern5 {PatternBgnd KeepColor Landscape {Pat4} {Pat5} ifelse setpattern} bind def
/Pattern6 {PatternBgnd KeepColor Landscape {Pat9} {Pat6} ifelse setpattern} bind def
/Pattern7 {PatternBgnd KeepColor Landscape {Pat8} {Pat7} ifelse setpattern} bind def
} def
%
%
%End of PostScript Level 2 code
%
/PatternBgnd {
  TransparentPatterns {} {gsave 1 setgray fill grestore} ifelse
} def
%
% Substitute for Level 2 pattern fill codes with
% grayscale if Level 2 support is not selected.
%
/Level1PatternFill {
/Pattern1 {0.250 Density} bind def
/Pattern2 {0.500 Density} bind def
/Pattern3 {0.750 Density} bind def
/Pattern4 {0.125 Density} bind def
/Pattern5 {0.375 Density} bind def
/Pattern6 {0.625 Density} bind def
/Pattern7 {0.875 Density} bind def
} def
%
% Now test for support of Level 2 code
%
Level1 {Level1PatternFill} {Level2PatternFill} ifelse
%
/Symbol-Oblique /Symbol findfont [1 0 .167 1 0 0] makefont
dup length dict begin {1 index /FID eq {pop pop} {def} ifelse} forall
currentdict end definefont pop
%
/MFshow {
   { dup 5 get 3 ge
     { 5 get 3 eq {gsave} {grestore} ifelse }
     {dup dup 0 get findfont exch 1 get scalefont setfont
     [ currentpoint ] exch dup 2 get 0 exch R dup 5 get 2 ne {dup dup 6
     get exch 4 get {textshow} {stringwidth pop 0 R} ifelse }if dup 5 get 0 eq
     {dup 3 get {2 get neg 0 exch R pop} {pop aload pop M} ifelse} {dup 5
     get 1 eq {dup 2 get exch dup 3 get exch 6 get stringwidth pop -2 div
     dup 0 R} {dup 6 get stringwidth pop -2 div 0 R 6 get
     textshow 2 index {aload pop M neg 3 -1 roll neg R pop pop} {pop pop pop
     pop aload pop M} ifelse }ifelse }ifelse }
     ifelse }
   forall} def
/Gswidth {dup type /stringtype eq {stringwidth} {pop (n) stringwidth} ifelse} def
/MFwidth {0 exch { dup 5 get 3 ge { 5 get 3 eq { 0 } { pop } ifelse }
 {dup 3 get{dup dup 0 get findfont exch 1 get scalefont setfont
     6 get Gswidth pop add} {pop} ifelse} ifelse} forall} def
/MLshow { currentpoint stroke M
  0 exch R
  Blacktext {gsave 0 setgray MFshow grestore} {MFshow} ifelse } bind def
/MRshow { currentpoint stroke M
  exch dup MFwidth neg 3 -1 roll R
  Blacktext {gsave 0 setgray MFshow grestore} {MFshow} ifelse } bind def
/MCshow { currentpoint stroke M
  exch dup MFwidth -2 div 3 -1 roll R
  Blacktext {gsave 0 setgray MFshow grestore} {MFshow} ifelse } bind def
/XYsave    { [( ) 1 2 true false 3 ()] } bind def
/XYrestore { [( ) 1 2 true false 4 ()] } bind def
Level1 SuppressPDFMark or 
{} {
/SDict 10 dict def
systemdict /pdfmark known not {
  userdict /pdfmark systemdict /cleartomark get put
} if
SDict begin [
  /Title (packets-ip-s-log-packets-ip-dist-loglog.eps)
  /Subject (gnuplot plot)
  /Creator (gnuplot 5.0 patchlevel 3)
  /Author (tiphaine)
%  /Producer (gnuplot)
%  /Keywords ()
  /CreationDate (Mon May 29 11:05:48 2017)
  /DOCINFO pdfmark
end
} ifelse
%
% Support for boxed text - Ethan A Merritt May 2005
%
/InitTextBox { userdict /TBy2 3 -1 roll put userdict /TBx2 3 -1 roll put
           userdict /TBy1 3 -1 roll put userdict /TBx1 3 -1 roll put
	   /Boxing true def } def
/ExtendTextBox { Boxing
    { gsave dup false charpath pathbbox
      dup TBy2 gt {userdict /TBy2 3 -1 roll put} {pop} ifelse
      dup TBx2 gt {userdict /TBx2 3 -1 roll put} {pop} ifelse
      dup TBy1 lt {userdict /TBy1 3 -1 roll put} {pop} ifelse
      dup TBx1 lt {userdict /TBx1 3 -1 roll put} {pop} ifelse
      grestore } if } def
/PopTextBox { newpath TBx1 TBxmargin sub TBy1 TBymargin sub M
               TBx1 TBxmargin sub TBy2 TBymargin add L
	       TBx2 TBxmargin add TBy2 TBymargin add L
	       TBx2 TBxmargin add TBy1 TBymargin sub L closepath } def
/DrawTextBox { PopTextBox stroke /Boxing false def} def
/FillTextBox { gsave PopTextBox 1 1 1 setrgbcolor fill grestore /Boxing false def} def
0 0 0 0 InitTextBox
/TBxmargin 20 def
/TBymargin 20 def
/Boxing false def
/textshow { ExtendTextBox Gshow } def
%
% redundant definitions for compatibility with prologue.ps older than 5.0.2
/LTB {BL [] LCb DL} def
/LTb {PL [] LCb DL} def
end
%%EndProlog
%%Page: 1 1
gnudict begin
gsave
doclip
50 50 translate
0.100 0.100 scale
90 rotate
0 -5040 translate
0 setgray
newpath
(Helvetica) findfont 140 scalefont setfont
BackgroundColor 0 lt 3 1 roll 0 lt exch 0 lt or or not {gsave BackgroundColor C clippath fill grestore} if
1.000 UL
LTb
LCb setrgbcolor
462 280 M
63 0 V
6422 0 R
-63 0 V
stroke
378 280 M
[ [(Helvetica) 140.0 0.0 true true 0 ( 1)]
] -46.7 MRshow
1.000 UL
LTb
LCb setrgbcolor
462 1662 M
31 0 V
6454 0 R
-31 0 V
462 2470 M
31 0 V
6454 0 R
-31 0 V
462 3044 M
31 0 V
6454 0 R
-31 0 V
462 3489 M
31 0 V
6454 0 R
-31 0 V
462 3852 M
31 0 V
6454 0 R
-31 0 V
462 4160 M
31 0 V
6454 0 R
-31 0 V
462 4426 M
31 0 V
6454 0 R
-31 0 V
462 4661 M
31 0 V
6454 0 R
-31 0 V
462 4871 M
63 0 V
6422 0 R
-63 0 V
stroke
378 4871 M
[ [(Helvetica) 140.0 0.0 true true 0 ( 10)]
] -46.7 MRshow
1.000 UL
LTb
LCb setrgbcolor
462 280 M
0 63 V
0 4528 R
0 -63 V
stroke
462 140 M
[ [(Helvetica) 140.0 0.0 true true 0 ( 1)]
] -46.7 MCshow
1.000 UL
LTb
LCb setrgbcolor
679 280 M
0 31 V
0 4560 R
0 -31 V
966 280 M
0 31 V
0 4560 R
0 -31 V
1113 280 M
0 31 V
0 4560 R
0 -31 V
1183 280 M
0 63 V
0 4528 R
0 -63 V
stroke
1183 140 M
[ [(Helvetica) 140.0 0.0 true true 0 ( 10)]
] -46.7 MCshow
1.000 UL
LTb
LCb setrgbcolor
1399 280 M
0 31 V
0 4560 R
0 -31 V
1686 280 M
0 31 V
0 4560 R
0 -31 V
1833 280 M
0 31 V
0 4560 R
0 -31 V
1903 280 M
0 63 V
0 4528 R
0 -63 V
stroke
1903 140 M
[ [(Helvetica) 140.0 0.0 true true 0 ( 100)]
] -46.7 MCshow
1.000 UL
LTb
LCb setrgbcolor
2120 280 M
0 31 V
0 4560 R
0 -31 V
2407 280 M
0 31 V
0 4560 R
0 -31 V
2554 280 M
0 31 V
0 4560 R
0 -31 V
2624 280 M
0 63 V
0 4528 R
0 -63 V
stroke
2624 140 M
[ [(Helvetica) 140.0 0.0 true true 0 ( 1000)]
] -46.7 MCshow
1.000 UL
LTb
LCb setrgbcolor
2841 280 M
0 31 V
0 4560 R
0 -31 V
3127 280 M
0 31 V
0 4560 R
0 -31 V
3274 280 M
0 31 V
0 4560 R
0 -31 V
3344 280 M
0 63 V
0 4528 R
0 -63 V
stroke
3344 140 M
[ [(Helvetica) 140.0 0.0 true true 0 ( 10000)]
] -46.7 MCshow
1.000 UL
LTb
LCb setrgbcolor
3561 280 M
0 31 V
0 4560 R
0 -31 V
3848 280 M
0 31 V
0 4560 R
0 -31 V
3995 280 M
0 31 V
0 4560 R
0 -31 V
4065 280 M
0 63 V
0 4528 R
0 -63 V
stroke
4065 140 M
[ [(Helvetica) 140.0 0.0 true true 0 ( 100000)]
] -46.7 MCshow
1.000 UL
LTb
LCb setrgbcolor
4282 280 M
0 31 V
0 4560 R
0 -31 V
4568 280 M
0 31 V
0 4560 R
0 -31 V
4716 280 M
0 31 V
0 4560 R
0 -31 V
4785 280 M
0 63 V
0 4528 R
0 -63 V
stroke
4785 140 M
[ [(Helvetica) 140.0 0.0 true true 0 ( 1x10)]
[(Helvetica) 112.0 70.0 true true 0 (6)]
] -60.7 MCshow
1.000 UL
LTb
LCb setrgbcolor
5002 280 M
0 31 V
0 4560 R
0 -31 V
5289 280 M
0 31 V
0 4560 R
0 -31 V
5436 280 M
0 31 V
0 4560 R
0 -31 V
5506 280 M
0 63 V
0 4528 R
0 -63 V
stroke
5506 140 M
[ [(Helvetica) 140.0 0.0 true true 0 ( 1x10)]
[(Helvetica) 112.0 70.0 true true 0 (7)]
] -60.7 MCshow
1.000 UL
LTb
LCb setrgbcolor
5723 280 M
0 31 V
0 4560 R
0 -31 V
6010 280 M
0 31 V
0 4560 R
0 -31 V
6157 280 M
0 31 V
0 4560 R
0 -31 V
6226 280 M
0 63 V
0 4528 R
0 -63 V
stroke
6226 140 M
[ [(Helvetica) 140.0 0.0 true true 0 ( 1x10)]
[(Helvetica) 112.0 70.0 true true 0 (8)]
] -60.7 MCshow
1.000 UL
LTb
LCb setrgbcolor
6443 280 M
0 31 V
0 4560 R
0 -31 V
6730 280 M
0 31 V
0 4560 R
0 -31 V
6877 280 M
0 31 V
0 4560 R
0 -31 V
6947 280 M
0 63 V
0 4528 R
0 -63 V
stroke
6947 140 M
[ [(Helvetica) 140.0 0.0 true true 0 ( 1x10)]
[(Helvetica) 112.0 70.0 true true 0 (9)]
] -60.7 MCshow
1.000 UL
LTb
LCb setrgbcolor
1.000 UL
LTB
LCb setrgbcolor
462 4871 N
462 280 L
6485 0 V
0 4591 V
-6485 0 V
Z stroke
1.000 UP
1.000 UL
LTb
LCb setrgbcolor
% Begin plot #1
1.000 UP
1.000 UL
LTb
0.58 0.00 0.83 C 564 280 Pls
781 2470 Pls
851 1662 Pls
908 280 Pls
925 1662 Pls
995 280 Pls
998 1662 Pls
1068 1662 Pls
1125 280 Pls
1212 280 Pls
1215 280 Pls
1285 1662 Pls
1294 280 Pls
1342 280 Pls
1359 280 Pls
1379 280 Pls
1458 280 Pls
1486 280 Pls
1515 280 Pls
1534 280 Pls
1539 280 Pls
1545 280 Pls
1565 280 Pls
1676 280 Pls
1686 280 Pls
1773 280 Pls
1782 1662 Pls
1788 280 Pls
1798 1662 Pls
1801 280 Pls
1810 280 Pls
1818 280 Pls
1824 280 Pls
1871 280 Pls
1907 280 Pls
1911 280 Pls
1934 280 Pls
2021 280 Pls
2026 280 Pls
2029 280 Pls
2032 280 Pls
2066 280 Pls
2068 280 Pls
2076 280 Pls
2091 280 Pls
2100 280 Pls
2105 280 Pls
2127 280 Pls
2144 280 Pls
2145 280 Pls
2146 280 Pls
2153 280 Pls
2171 280 Pls
2173 280 Pls
2178 280 Pls
2180 280 Pls
2181 280 Pls
2186 280 Pls
2193 280 Pls
2218 280 Pls
2224 280 Pls
2232 280 Pls
2246 280 Pls
2253 280 Pls
2263 280 Pls
2277 280 Pls
2277 280 Pls
2278 280 Pls
2278 280 Pls
2286 280 Pls
2288 280 Pls
2320 280 Pls
2333 280 Pls
2333 280 Pls
2336 280 Pls
2342 280 Pls
2343 280 Pls
2346 280 Pls
2357 280 Pls
2365 280 Pls
2369 280 Pls
2370 280 Pls
2376 280 Pls
2378 280 Pls
2383 280 Pls
2391 280 Pls
2394 280 Pls
2395 280 Pls
2396 280 Pls
2397 280 Pls
2398 280 Pls
2402 280 Pls
2409 280 Pls
2410 280 Pls
2428 280 Pls
2428 280 Pls
2454 280 Pls
2454 280 Pls
2461 280 Pls
2468 280 Pls
2485 280 Pls
2493 280 Pls
2523 280 Pls
2524 280 Pls
2526 280 Pls
2533 280 Pls
2534 280 Pls
2536 280 Pls
2540 280 Pls
2555 280 Pls
2555 280 Pls
2562 280 Pls
2565 280 Pls
2578 280 Pls
2581 280 Pls
2586 280 Pls
2587 280 Pls
2597 280 Pls
2598 280 Pls
2602 280 Pls
2609 280 Pls
2611 280 Pls
2616 280 Pls
2634 280 Pls
2641 280 Pls
2644 280 Pls
2649 280 Pls
2658 1662 Pls
2662 280 Pls
2665 280 Pls
2666 280 Pls
2670 280 Pls
2676 280 Pls
2684 280 Pls
2698 280 Pls
2706 280 Pls
2721 280 Pls
2723 280 Pls
2724 280 Pls
2731 280 Pls
2731 280 Pls
2734 280 Pls
2735 280 Pls
2754 280 Pls
2755 280 Pls
2757 280 Pls
2760 280 Pls
2765 280 Pls
2766 280 Pls
2768 280 Pls
2770 280 Pls
2772 280 Pls
2781 280 Pls
2781 280 Pls
2785 280 Pls
2789 280 Pls
2800 280 Pls
2818 280 Pls
2827 280 Pls
2829 280 Pls
2831 280 Pls
2837 280 Pls
2843 280 Pls
2846 280 Pls
2846 280 Pls
2860 280 Pls
2875 280 Pls
2880 280 Pls
2887 280 Pls
2889 280 Pls
2892 280 Pls
2898 280 Pls
2901 280 Pls
2906 280 Pls
2911 280 Pls
2919 280 Pls
2926 280 Pls
2933 280 Pls
2945 280 Pls
2946 280 Pls
2946 280 Pls
2949 280 Pls
2960 280 Pls
2969 280 Pls
2989 280 Pls
2990 280 Pls
3002 280 Pls
3015 280 Pls
3025 280 Pls
3028 280 Pls
3040 280 Pls
3040 280 Pls
3044 280 Pls
3053 280 Pls
3054 280 Pls
3060 280 Pls
3061 280 Pls
3069 280 Pls
3069 280 Pls
3070 280 Pls
3080 280 Pls
3084 280 Pls
3087 280 Pls
3094 280 Pls
3094 280 Pls
3094 280 Pls
3100 280 Pls
3100 280 Pls
3113 280 Pls
3116 280 Pls
3116 280 Pls
3119 280 Pls
3120 280 Pls
3123 280 Pls
3131 280 Pls
3132 280 Pls
3139 280 Pls
3143 280 Pls
3144 280 Pls
3146 280 Pls
3149 280 Pls
3154 280 Pls
3156 280 Pls
3160 280 Pls
3162 280 Pls
3162 280 Pls
3176 280 Pls
3178 280 Pls
3179 280 Pls
3181 280 Pls
3184 280 Pls
3189 280 Pls
3191 280 Pls
3193 280 Pls
3196 280 Pls
3200 280 Pls
3206 280 Pls
3209 280 Pls
3209 280 Pls
3210 280 Pls
3213 280 Pls
3216 280 Pls
3221 280 Pls
3232 280 Pls
3236 280 Pls
3241 280 Pls
3250 280 Pls
3257 280 Pls
3263 280 Pls
3265 280 Pls
3266 280 Pls
3274 280 Pls
3284 280 Pls
3293 280 Pls
3295 280 Pls
3296 280 Pls
3299 280 Pls
3302 280 Pls
3302 280 Pls
3303 280 Pls
3311 280 Pls
3312 280 Pls
3329 280 Pls
3337 280 Pls
3341 280 Pls
3344 280 Pls
3347 280 Pls
3349 280 Pls
3351 280 Pls
3354 280 Pls
3355 280 Pls
3355 280 Pls
3361 280 Pls
3364 280 Pls
3369 280 Pls
3370 280 Pls
3371 280 Pls
3374 280 Pls
3378 280 Pls
3401 280 Pls
3430 280 Pls
3444 280 Pls
3446 280 Pls
3454 280 Pls
3455 280 Pls
3462 280 Pls
3465 280 Pls
3469 280 Pls
3469 280 Pls
3471 280 Pls
3474 280 Pls
3475 280 Pls
3476 280 Pls
3477 280 Pls
3488 280 Pls
3488 280 Pls
3489 280 Pls
3495 280 Pls
3500 280 Pls
3504 280 Pls
3506 280 Pls
3510 280 Pls
3510 1662 Pls
3511 280 Pls
3511 280 Pls
3511 280 Pls
3511 280 Pls
3511 280 Pls
3511 280 Pls
3512 280 Pls
3528 280 Pls
3529 280 Pls
3532 280 Pls
3539 280 Pls
3548 280 Pls
3555 280 Pls
3559 280 Pls
3559 280 Pls
3563 280 Pls
3565 280 Pls
3567 280 Pls
3570 280 Pls
3571 280 Pls
3572 280 Pls
3573 280 Pls
3581 280 Pls
3581 280 Pls
3584 280 Pls
3593 280 Pls
3594 280 Pls
3605 280 Pls
3606 280 Pls
3610 280 Pls
3611 280 Pls
3614 280 Pls
3618 280 Pls
3620 280 Pls
3620 280 Pls
3621 280 Pls
3624 280 Pls
3625 280 Pls
3626 280 Pls
3637 280 Pls
3638 280 Pls
3639 280 Pls
3642 280 Pls
3643 280 Pls
3645 280 Pls
3649 280 Pls
3652 280 Pls
3653 280 Pls
3653 280 Pls
3661 280 Pls
3664 280 Pls
3670 280 Pls
3677 280 Pls
3682 280 Pls
3685 280 Pls
3687 280 Pls
3687 280 Pls
3693 280 Pls
3693 280 Pls
3698 280 Pls
3699 280 Pls
3701 280 Pls
3703 280 Pls
3715 280 Pls
3727 280 Pls
3735 280 Pls
3749 280 Pls
3755 280 Pls
3757 280 Pls
3759 280 Pls
3761 280 Pls
3766 280 Pls
3781 280 Pls
3781 280 Pls
3784 280 Pls
3787 280 Pls
3793 280 Pls
3810 280 Pls
3810 280 Pls
3814 280 Pls
3817 280 Pls
3827 280 Pls
3828 280 Pls
3831 280 Pls
3834 280 Pls
3839 280 Pls
3842 280 Pls
3855 280 Pls
3860 280 Pls
3861 280 Pls
3862 280 Pls
3874 280 Pls
3876 280 Pls
3878 280 Pls
3882 280 Pls
3882 280 Pls
3885 280 Pls
3897 280 Pls
3907 280 Pls
3911 280 Pls
3926 280 Pls
3931 280 Pls
3935 280 Pls
3938 280 Pls
3944 280 Pls
3953 280 Pls
3972 280 Pls
3972 280 Pls
3978 280 Pls
3993 280 Pls
3999 280 Pls
4003 280 Pls
4004 280 Pls
4008 280 Pls
4030 280 Pls
4047 280 Pls
4057 280 Pls
4058 280 Pls
4070 280 Pls
4078 280 Pls
4080 280 Pls
4111 280 Pls
4117 280 Pls
4126 280 Pls
4140 280 Pls
4145 280 Pls
4146 280 Pls
4150 280 Pls
4152 280 Pls
4156 280 Pls
4163 280 Pls
4164 280 Pls
4170 280 Pls
4183 280 Pls
4187 280 Pls
4197 280 Pls
4204 280 Pls
4205 280 Pls
4209 280 Pls
4220 280 Pls
4222 280 Pls
4229 280 Pls
4237 280 Pls
4244 280 Pls
4251 280 Pls
4251 280 Pls
4252 280 Pls
4253 280 Pls
4261 280 Pls
4271 280 Pls
4272 280 Pls
4278 280 Pls
4285 280 Pls
4286 280 Pls
4295 280 Pls
4305 280 Pls
4306 280 Pls
4313 280 Pls
4322 280 Pls
4328 280 Pls
4330 280 Pls
4335 280 Pls
4353 280 Pls
4382 280 Pls
4402 280 Pls
4406 280 Pls
4413 280 Pls
4415 280 Pls
4429 280 Pls
4431 280 Pls
4446 280 Pls
4448 280 Pls
4453 280 Pls
4455 280 Pls
4458 280 Pls
4478 280 Pls
4486 280 Pls
4504 280 Pls
4515 280 Pls
4515 280 Pls
4520 280 Pls
4523 280 Pls
4523 280 Pls
4525 280 Pls
4541 280 Pls
4554 280 Pls
4562 280 Pls
4565 280 Pls
4579 280 Pls
4598 280 Pls
4605 280 Pls
4611 280 Pls
4615 280 Pls
4628 280 Pls
4634 280 Pls
4634 280 Pls
4635 280 Pls
4640 280 Pls
4651 280 Pls
4661 280 Pls
4664 280 Pls
4666 280 Pls
4668 280 Pls
4675 280 Pls
4686 280 Pls
4688 280 Pls
4688 280 Pls
4698 280 Pls
4702 280 Pls
4706 280 Pls
4706 280 Pls
4709 280 Pls
4710 280 Pls
4721 280 Pls
4722 280 Pls
4722 280 Pls
4732 280 Pls
4732 280 Pls
4744 280 Pls
4761 280 Pls
4770 280 Pls
4778 280 Pls
4817 280 Pls
4841 280 Pls
4845 280 Pls
4868 280 Pls
4869 280 Pls
4875 280 Pls
4911 280 Pls
4948 280 Pls
4968 280 Pls
4984 280 Pls
5014 280 Pls
5029 280 Pls
5079 280 Pls
5082 280 Pls
5107 280 Pls
5125 280 Pls
5133 280 Pls
5133 280 Pls
5186 280 Pls
5223 280 Pls
5223 280 Pls
5224 280 Pls
5228 280 Pls
5238 280 Pls
5295 280 Pls
5346 280 Pls
5346 280 Pls
5356 280 Pls
5365 280 Pls
5376 280 Pls
5428 280 Pls
5578 280 Pls
5595 280 Pls
5785 280 Pls
5789 280 Pls
5835 280 Pls
5947 280 Pls
6027 280 Pls
6040 280 Pls
6347 280 Pls
% End plot #1
2.000 UL
LTb
LCb setrgbcolor
1.000 UL
LTB
LCb setrgbcolor
462 4871 N
462 280 L
6485 0 V
0 4591 V
-6485 0 V
Z stroke
1.000 UP
1.000 UL
LTb
LCb setrgbcolor
stroke
grestore
end
showpage
%%Trailer
%%DocumentFonts: Helvetica
%%Pages: 1
