%!PS-Adobe-2.0
%%Title: packets-ip-s-log-packets-ip-dist-loglin.eps
%%Creator: gnuplot 5.0 patchlevel 3
%%CreationDate: Mon May 29 11:05:48 2017
%%DocumentFonts: (atend)
%%BoundingBox: 50 50 554 770
%%Orientation: Landscape
%%Pages: (atend)
%%EndComments
%%BeginProlog
/gnudict 256 dict def
gnudict begin
%
% The following true/false flags may be edited by hand if desired.
% The unit line width and grayscale image gamma correction may also be changed.
%
/Color true def
/Blacktext false def
/Solid false def
/Dashlength 1 def
/Landscape true def
/Level1 false def
/Level3 false def
/Rounded false def
/ClipToBoundingBox false def
/SuppressPDFMark false def
/TransparentPatterns false def
/gnulinewidth 5.000 def
/userlinewidth gnulinewidth def
/Gamma 1.0 def
/BackgroundColor {-1.000 -1.000 -1.000} def
%
/vshift -46 def
/dl1 {
  10.0 Dashlength userlinewidth gnulinewidth div mul mul mul
  Rounded { currentlinewidth 0.75 mul sub dup 0 le { pop 0.01 } if } if
} def
/dl2 {
  10.0 Dashlength userlinewidth gnulinewidth div mul mul mul
  Rounded { currentlinewidth 0.75 mul add } if
} def
/hpt_ 31.5 def
/vpt_ 31.5 def
/hpt hpt_ def
/vpt vpt_ def
/doclip {
  ClipToBoundingBox {
    newpath 50 50 moveto 554 50 lineto 554 770 lineto 50 770 lineto closepath
    clip
  } if
} def
%
% Gnuplot Prolog Version 5.1 (Oct 2015)
%
%/SuppressPDFMark true def
%
/M {moveto} bind def
/L {lineto} bind def
/R {rmoveto} bind def
/V {rlineto} bind def
/N {newpath moveto} bind def
/Z {closepath} bind def
/C {setrgbcolor} bind def
/f {rlineto fill} bind def
/g {setgray} bind def
/Gshow {show} def   % May be redefined later in the file to support UTF-8
/vpt2 vpt 2 mul def
/hpt2 hpt 2 mul def
/Lshow {currentpoint stroke M 0 vshift R 
	Blacktext {gsave 0 setgray textshow grestore} {textshow} ifelse} def
/Rshow {currentpoint stroke M dup stringwidth pop neg vshift R
	Blacktext {gsave 0 setgray textshow grestore} {textshow} ifelse} def
/Cshow {currentpoint stroke M dup stringwidth pop -2 div vshift R 
	Blacktext {gsave 0 setgray textshow grestore} {textshow} ifelse} def
/UP {dup vpt_ mul /vpt exch def hpt_ mul /hpt exch def
  /hpt2 hpt 2 mul def /vpt2 vpt 2 mul def} def
/DL {Color {setrgbcolor Solid {pop []} if 0 setdash}
 {pop pop pop 0 setgray Solid {pop []} if 0 setdash} ifelse} def
/BL {stroke userlinewidth 2 mul setlinewidth
	Rounded {1 setlinejoin 1 setlinecap} if} def
/AL {stroke userlinewidth 2 div setlinewidth
	Rounded {1 setlinejoin 1 setlinecap} if} def
/UL {dup gnulinewidth mul /userlinewidth exch def
	dup 1 lt {pop 1} if 10 mul /udl exch def} def
/PL {stroke userlinewidth setlinewidth
	Rounded {1 setlinejoin 1 setlinecap} if} def
3.8 setmiterlimit
% Classic Line colors (version 5.0)
/LCw {1 1 1} def
/LCb {0 0 0} def
/LCa {0 0 0} def
/LC0 {1 0 0} def
/LC1 {0 1 0} def
/LC2 {0 0 1} def
/LC3 {1 0 1} def
/LC4 {0 1 1} def
/LC5 {1 1 0} def
/LC6 {0 0 0} def
/LC7 {1 0.3 0} def
/LC8 {0.5 0.5 0.5} def
% Default dash patterns (version 5.0)
/LTB {BL [] LCb DL} def
/LTw {PL [] 1 setgray} def
/LTb {PL [] LCb DL} def
/LTa {AL [1 udl mul 2 udl mul] 0 setdash LCa setrgbcolor} def
/LT0 {PL [] LC0 DL} def
/LT1 {PL [2 dl1 3 dl2] LC1 DL} def
/LT2 {PL [1 dl1 1.5 dl2] LC2 DL} def
/LT3 {PL [6 dl1 2 dl2 1 dl1 2 dl2] LC3 DL} def
/LT4 {PL [1 dl1 2 dl2 6 dl1 2 dl2 1 dl1 2 dl2] LC4 DL} def
/LT5 {PL [4 dl1 2 dl2] LC5 DL} def
/LT6 {PL [1.5 dl1 1.5 dl2 1.5 dl1 1.5 dl2 1.5 dl1 6 dl2] LC6 DL} def
/LT7 {PL [3 dl1 3 dl2 1 dl1 3 dl2] LC7 DL} def
/LT8 {PL [2 dl1 2 dl2 2 dl1 6 dl2] LC8 DL} def
/SL {[] 0 setdash} def
/Pnt {stroke [] 0 setdash gsave 1 setlinecap M 0 0 V stroke grestore} def
/Dia {stroke [] 0 setdash 2 copy vpt add M
  hpt neg vpt neg V hpt vpt neg V
  hpt vpt V hpt neg vpt V closepath stroke
  Pnt} def
/Pls {stroke [] 0 setdash vpt sub M 0 vpt2 V
  currentpoint stroke M
  hpt neg vpt neg R hpt2 0 V stroke
 } def
/Box {stroke [] 0 setdash 2 copy exch hpt sub exch vpt add M
  0 vpt2 neg V hpt2 0 V 0 vpt2 V
  hpt2 neg 0 V closepath stroke
  Pnt} def
/Crs {stroke [] 0 setdash exch hpt sub exch vpt add M
  hpt2 vpt2 neg V currentpoint stroke M
  hpt2 neg 0 R hpt2 vpt2 V stroke} def
/TriU {stroke [] 0 setdash 2 copy vpt 1.12 mul add M
  hpt neg vpt -1.62 mul V
  hpt 2 mul 0 V
  hpt neg vpt 1.62 mul V closepath stroke
  Pnt} def
/Star {2 copy Pls Crs} def
/BoxF {stroke [] 0 setdash exch hpt sub exch vpt add M
  0 vpt2 neg V hpt2 0 V 0 vpt2 V
  hpt2 neg 0 V closepath fill} def
/TriUF {stroke [] 0 setdash vpt 1.12 mul add M
  hpt neg vpt -1.62 mul V
  hpt 2 mul 0 V
  hpt neg vpt 1.62 mul V closepath fill} def
/TriD {stroke [] 0 setdash 2 copy vpt 1.12 mul sub M
  hpt neg vpt 1.62 mul V
  hpt 2 mul 0 V
  hpt neg vpt -1.62 mul V closepath stroke
  Pnt} def
/TriDF {stroke [] 0 setdash vpt 1.12 mul sub M
  hpt neg vpt 1.62 mul V
  hpt 2 mul 0 V
  hpt neg vpt -1.62 mul V closepath fill} def
/DiaF {stroke [] 0 setdash vpt add M
  hpt neg vpt neg V hpt vpt neg V
  hpt vpt V hpt neg vpt V closepath fill} def
/Pent {stroke [] 0 setdash 2 copy gsave
  translate 0 hpt M 4 {72 rotate 0 hpt L} repeat
  closepath stroke grestore Pnt} def
/PentF {stroke [] 0 setdash gsave
  translate 0 hpt M 4 {72 rotate 0 hpt L} repeat
  closepath fill grestore} def
/Circle {stroke [] 0 setdash 2 copy
  hpt 0 360 arc stroke Pnt} def
/CircleF {stroke [] 0 setdash hpt 0 360 arc fill} def
/C0 {BL [] 0 setdash 2 copy moveto vpt 90 450 arc} bind def
/C1 {BL [] 0 setdash 2 copy moveto
	2 copy vpt 0 90 arc closepath fill
	vpt 0 360 arc closepath} bind def
/C2 {BL [] 0 setdash 2 copy moveto
	2 copy vpt 90 180 arc closepath fill
	vpt 0 360 arc closepath} bind def
/C3 {BL [] 0 setdash 2 copy moveto
	2 copy vpt 0 180 arc closepath fill
	vpt 0 360 arc closepath} bind def
/C4 {BL [] 0 setdash 2 copy moveto
	2 copy vpt 180 270 arc closepath fill
	vpt 0 360 arc closepath} bind def
/C5 {BL [] 0 setdash 2 copy moveto
	2 copy vpt 0 90 arc
	2 copy moveto
	2 copy vpt 180 270 arc closepath fill
	vpt 0 360 arc} bind def
/C6 {BL [] 0 setdash 2 copy moveto
	2 copy vpt 90 270 arc closepath fill
	vpt 0 360 arc closepath} bind def
/C7 {BL [] 0 setdash 2 copy moveto
	2 copy vpt 0 270 arc closepath fill
	vpt 0 360 arc closepath} bind def
/C8 {BL [] 0 setdash 2 copy moveto
	2 copy vpt 270 360 arc closepath fill
	vpt 0 360 arc closepath} bind def
/C9 {BL [] 0 setdash 2 copy moveto
	2 copy vpt 270 450 arc closepath fill
	vpt 0 360 arc closepath} bind def
/C10 {BL [] 0 setdash 2 copy 2 copy moveto vpt 270 360 arc closepath fill
	2 copy moveto
	2 copy vpt 90 180 arc closepath fill
	vpt 0 360 arc closepath} bind def
/C11 {BL [] 0 setdash 2 copy moveto
	2 copy vpt 0 180 arc closepath fill
	2 copy moveto
	2 copy vpt 270 360 arc closepath fill
	vpt 0 360 arc closepath} bind def
/C12 {BL [] 0 setdash 2 copy moveto
	2 copy vpt 180 360 arc closepath fill
	vpt 0 360 arc closepath} bind def
/C13 {BL [] 0 setdash 2 copy moveto
	2 copy vpt 0 90 arc closepath fill
	2 copy moveto
	2 copy vpt 180 360 arc closepath fill
	vpt 0 360 arc closepath} bind def
/C14 {BL [] 0 setdash 2 copy moveto
	2 copy vpt 90 360 arc closepath fill
	vpt 0 360 arc} bind def
/C15 {BL [] 0 setdash 2 copy vpt 0 360 arc closepath fill
	vpt 0 360 arc closepath} bind def
/Rec {newpath 4 2 roll moveto 1 index 0 rlineto 0 exch rlineto
	neg 0 rlineto closepath} bind def
/Square {dup Rec} bind def
/Bsquare {vpt sub exch vpt sub exch vpt2 Square} bind def
/S0 {BL [] 0 setdash 2 copy moveto 0 vpt rlineto BL Bsquare} bind def
/S1 {BL [] 0 setdash 2 copy vpt Square fill Bsquare} bind def
/S2 {BL [] 0 setdash 2 copy exch vpt sub exch vpt Square fill Bsquare} bind def
/S3 {BL [] 0 setdash 2 copy exch vpt sub exch vpt2 vpt Rec fill Bsquare} bind def
/S4 {BL [] 0 setdash 2 copy exch vpt sub exch vpt sub vpt Square fill Bsquare} bind def
/S5 {BL [] 0 setdash 2 copy 2 copy vpt Square fill
	exch vpt sub exch vpt sub vpt Square fill Bsquare} bind def
/S6 {BL [] 0 setdash 2 copy exch vpt sub exch vpt sub vpt vpt2 Rec fill Bsquare} bind def
/S7 {BL [] 0 setdash 2 copy exch vpt sub exch vpt sub vpt vpt2 Rec fill
	2 copy vpt Square fill Bsquare} bind def
/S8 {BL [] 0 setdash 2 copy vpt sub vpt Square fill Bsquare} bind def
/S9 {BL [] 0 setdash 2 copy vpt sub vpt vpt2 Rec fill Bsquare} bind def
/S10 {BL [] 0 setdash 2 copy vpt sub vpt Square fill 2 copy exch vpt sub exch vpt Square fill
	Bsquare} bind def
/S11 {BL [] 0 setdash 2 copy vpt sub vpt Square fill 2 copy exch vpt sub exch vpt2 vpt Rec fill
	Bsquare} bind def
/S12 {BL [] 0 setdash 2 copy exch vpt sub exch vpt sub vpt2 vpt Rec fill Bsquare} bind def
/S13 {BL [] 0 setdash 2 copy exch vpt sub exch vpt sub vpt2 vpt Rec fill
	2 copy vpt Square fill Bsquare} bind def
/S14 {BL [] 0 setdash 2 copy exch vpt sub exch vpt sub vpt2 vpt Rec fill
	2 copy exch vpt sub exch vpt Square fill Bsquare} bind def
/S15 {BL [] 0 setdash 2 copy Bsquare fill Bsquare} bind def
/D0 {gsave translate 45 rotate 0 0 S0 stroke grestore} bind def
/D1 {gsave translate 45 rotate 0 0 S1 stroke grestore} bind def
/D2 {gsave translate 45 rotate 0 0 S2 stroke grestore} bind def
/D3 {gsave translate 45 rotate 0 0 S3 stroke grestore} bind def
/D4 {gsave translate 45 rotate 0 0 S4 stroke grestore} bind def
/D5 {gsave translate 45 rotate 0 0 S5 stroke grestore} bind def
/D6 {gsave translate 45 rotate 0 0 S6 stroke grestore} bind def
/D7 {gsave translate 45 rotate 0 0 S7 stroke grestore} bind def
/D8 {gsave translate 45 rotate 0 0 S8 stroke grestore} bind def
/D9 {gsave translate 45 rotate 0 0 S9 stroke grestore} bind def
/D10 {gsave translate 45 rotate 0 0 S10 stroke grestore} bind def
/D11 {gsave translate 45 rotate 0 0 S11 stroke grestore} bind def
/D12 {gsave translate 45 rotate 0 0 S12 stroke grestore} bind def
/D13 {gsave translate 45 rotate 0 0 S13 stroke grestore} bind def
/D14 {gsave translate 45 rotate 0 0 S14 stroke grestore} bind def
/D15 {gsave translate 45 rotate 0 0 S15 stroke grestore} bind def
/DiaE {stroke [] 0 setdash vpt add M
  hpt neg vpt neg V hpt vpt neg V
  hpt vpt V hpt neg vpt V closepath stroke} def
/BoxE {stroke [] 0 setdash exch hpt sub exch vpt add M
  0 vpt2 neg V hpt2 0 V 0 vpt2 V
  hpt2 neg 0 V closepath stroke} def
/TriUE {stroke [] 0 setdash vpt 1.12 mul add M
  hpt neg vpt -1.62 mul V
  hpt 2 mul 0 V
  hpt neg vpt 1.62 mul V closepath stroke} def
/TriDE {stroke [] 0 setdash vpt 1.12 mul sub M
  hpt neg vpt 1.62 mul V
  hpt 2 mul 0 V
  hpt neg vpt -1.62 mul V closepath stroke} def
/PentE {stroke [] 0 setdash gsave
  translate 0 hpt M 4 {72 rotate 0 hpt L} repeat
  closepath stroke grestore} def
/CircE {stroke [] 0 setdash 
  hpt 0 360 arc stroke} def
/Opaque {gsave closepath 1 setgray fill grestore 0 setgray closepath} def
/DiaW {stroke [] 0 setdash vpt add M
  hpt neg vpt neg V hpt vpt neg V
  hpt vpt V hpt neg vpt V Opaque stroke} def
/BoxW {stroke [] 0 setdash exch hpt sub exch vpt add M
  0 vpt2 neg V hpt2 0 V 0 vpt2 V
  hpt2 neg 0 V Opaque stroke} def
/TriUW {stroke [] 0 setdash vpt 1.12 mul add M
  hpt neg vpt -1.62 mul V
  hpt 2 mul 0 V
  hpt neg vpt 1.62 mul V Opaque stroke} def
/TriDW {stroke [] 0 setdash vpt 1.12 mul sub M
  hpt neg vpt 1.62 mul V
  hpt 2 mul 0 V
  hpt neg vpt -1.62 mul V Opaque stroke} def
/PentW {stroke [] 0 setdash gsave
  translate 0 hpt M 4 {72 rotate 0 hpt L} repeat
  Opaque stroke grestore} def
/CircW {stroke [] 0 setdash 
  hpt 0 360 arc Opaque stroke} def
/BoxFill {gsave Rec 1 setgray fill grestore} def
/Density {
  /Fillden exch def
  currentrgbcolor
  /ColB exch def /ColG exch def /ColR exch def
  /ColR ColR Fillden mul Fillden sub 1 add def
  /ColG ColG Fillden mul Fillden sub 1 add def
  /ColB ColB Fillden mul Fillden sub 1 add def
  ColR ColG ColB setrgbcolor} def
/BoxColFill {gsave Rec PolyFill} def
/PolyFill {gsave Density fill grestore grestore} def
/h {rlineto rlineto rlineto gsave closepath fill grestore} bind def
%
% PostScript Level 1 Pattern Fill routine for rectangles
% Usage: x y w h s a XX PatternFill
%	x,y = lower left corner of box to be filled
%	w,h = width and height of box
%	  a = angle in degrees between lines and x-axis
%	 XX = 0/1 for no/yes cross-hatch
%
/PatternFill {gsave /PFa [ 9 2 roll ] def
  PFa 0 get PFa 2 get 2 div add PFa 1 get PFa 3 get 2 div add translate
  PFa 2 get -2 div PFa 3 get -2 div PFa 2 get PFa 3 get Rec
  TransparentPatterns {} {gsave 1 setgray fill grestore} ifelse
  clip
  currentlinewidth 0.5 mul setlinewidth
  /PFs PFa 2 get dup mul PFa 3 get dup mul add sqrt def
  0 0 M PFa 5 get rotate PFs -2 div dup translate
  0 1 PFs PFa 4 get div 1 add floor cvi
	{PFa 4 get mul 0 M 0 PFs V} for
  0 PFa 6 get ne {
	0 1 PFs PFa 4 get div 1 add floor cvi
	{PFa 4 get mul 0 2 1 roll M PFs 0 V} for
 } if
  stroke grestore} def
%
/languagelevel where
 {pop languagelevel} {1} ifelse
dup 2 lt
	{/InterpretLevel1 true def
	 /InterpretLevel3 false def}
	{/InterpretLevel1 Level1 def
	 2 gt
	    {/InterpretLevel3 Level3 def}
	    {/InterpretLevel3 false def}
	 ifelse }
 ifelse
%
% PostScript level 2 pattern fill definitions
%
/Level2PatternFill {
/Tile8x8 {/PaintType 2 /PatternType 1 /TilingType 1 /BBox [0 0 8 8] /XStep 8 /YStep 8}
	bind def
/KeepColor {currentrgbcolor [/Pattern /DeviceRGB] setcolorspace} bind def
<< Tile8x8
 /PaintProc {0.5 setlinewidth pop 0 0 M 8 8 L 0 8 M 8 0 L stroke} 
>> matrix makepattern
/Pat1 exch def
<< Tile8x8
 /PaintProc {0.5 setlinewidth pop 0 0 M 8 8 L 0 8 M 8 0 L stroke
	0 4 M 4 8 L 8 4 L 4 0 L 0 4 L stroke}
>> matrix makepattern
/Pat2 exch def
<< Tile8x8
 /PaintProc {0.5 setlinewidth pop 0 0 M 0 8 L
	8 8 L 8 0 L 0 0 L fill}
>> matrix makepattern
/Pat3 exch def
<< Tile8x8
 /PaintProc {0.5 setlinewidth pop -4 8 M 8 -4 L
	0 12 M 12 0 L stroke}
>> matrix makepattern
/Pat4 exch def
<< Tile8x8
 /PaintProc {0.5 setlinewidth pop -4 0 M 8 12 L
	0 -4 M 12 8 L stroke}
>> matrix makepattern
/Pat5 exch def
<< Tile8x8
 /PaintProc {0.5 setlinewidth pop -2 8 M 4 -4 L
	0 12 M 8 -4 L 4 12 M 10 0 L stroke}
>> matrix makepattern
/Pat6 exch def
<< Tile8x8
 /PaintProc {0.5 setlinewidth pop -2 0 M 4 12 L
	0 -4 M 8 12 L 4 -4 M 10 8 L stroke}
>> matrix makepattern
/Pat7 exch def
<< Tile8x8
 /PaintProc {0.5 setlinewidth pop 8 -2 M -4 4 L
	12 0 M -4 8 L 12 4 M 0 10 L stroke}
>> matrix makepattern
/Pat8 exch def
<< Tile8x8
 /PaintProc {0.5 setlinewidth pop 0 -2 M 12 4 L
	-4 0 M 12 8 L -4 4 M 8 10 L stroke}
>> matrix makepattern
/Pat9 exch def
/Pattern1 {PatternBgnd KeepColor Pat1 setpattern} bind def
/Pattern2 {PatternBgnd KeepColor Pat2 setpattern} bind def
/Pattern3 {PatternBgnd KeepColor Pat3 setpattern} bind def
/Pattern4 {PatternBgnd KeepColor Landscape {Pat5} {Pat4} ifelse setpattern} bind def
/Pattern5 {PatternBgnd KeepColor Landscape {Pat4} {Pat5} ifelse setpattern} bind def
/Pattern6 {PatternBgnd KeepColor Landscape {Pat9} {Pat6} ifelse setpattern} bind def
/Pattern7 {PatternBgnd KeepColor Landscape {Pat8} {Pat7} ifelse setpattern} bind def
} def
%
%
%End of PostScript Level 2 code
%
/PatternBgnd {
  TransparentPatterns {} {gsave 1 setgray fill grestore} ifelse
} def
%
% Substitute for Level 2 pattern fill codes with
% grayscale if Level 2 support is not selected.
%
/Level1PatternFill {
/Pattern1 {0.250 Density} bind def
/Pattern2 {0.500 Density} bind def
/Pattern3 {0.750 Density} bind def
/Pattern4 {0.125 Density} bind def
/Pattern5 {0.375 Density} bind def
/Pattern6 {0.625 Density} bind def
/Pattern7 {0.875 Density} bind def
} def
%
% Now test for support of Level 2 code
%
Level1 {Level1PatternFill} {Level2PatternFill} ifelse
%
/Symbol-Oblique /Symbol findfont [1 0 .167 1 0 0] makefont
dup length dict begin {1 index /FID eq {pop pop} {def} ifelse} forall
currentdict end definefont pop
%
/MFshow {
   { dup 5 get 3 ge
     { 5 get 3 eq {gsave} {grestore} ifelse }
     {dup dup 0 get findfont exch 1 get scalefont setfont
     [ currentpoint ] exch dup 2 get 0 exch R dup 5 get 2 ne {dup dup 6
     get exch 4 get {textshow} {stringwidth pop 0 R} ifelse }if dup 5 get 0 eq
     {dup 3 get {2 get neg 0 exch R pop} {pop aload pop M} ifelse} {dup 5
     get 1 eq {dup 2 get exch dup 3 get exch 6 get stringwidth pop -2 div
     dup 0 R} {dup 6 get stringwidth pop -2 div 0 R 6 get
     textshow 2 index {aload pop M neg 3 -1 roll neg R pop pop} {pop pop pop
     pop aload pop M} ifelse }ifelse }ifelse }
     ifelse }
   forall} def
/Gswidth {dup type /stringtype eq {stringwidth} {pop (n) stringwidth} ifelse} def
/MFwidth {0 exch { dup 5 get 3 ge { 5 get 3 eq { 0 } { pop } ifelse }
 {dup 3 get{dup dup 0 get findfont exch 1 get scalefont setfont
     6 get Gswidth pop add} {pop} ifelse} ifelse} forall} def
/MLshow { currentpoint stroke M
  0 exch R
  Blacktext {gsave 0 setgray MFshow grestore} {MFshow} ifelse } bind def
/MRshow { currentpoint stroke M
  exch dup MFwidth neg 3 -1 roll R
  Blacktext {gsave 0 setgray MFshow grestore} {MFshow} ifelse } bind def
/MCshow { currentpoint stroke M
  exch dup MFwidth -2 div 3 -1 roll R
  Blacktext {gsave 0 setgray MFshow grestore} {MFshow} ifelse } bind def
/XYsave    { [( ) 1 2 true false 3 ()] } bind def
/XYrestore { [( ) 1 2 true false 4 ()] } bind def
Level1 SuppressPDFMark or 
{} {
/SDict 10 dict def
systemdict /pdfmark known not {
  userdict /pdfmark systemdict /cleartomark get put
} if
SDict begin [
  /Title (packets-ip-s-log-packets-ip-dist-loglin.eps)
  /Subject (gnuplot plot)
  /Creator (gnuplot 5.0 patchlevel 3)
  /Author (tiphaine)
%  /Producer (gnuplot)
%  /Keywords ()
  /CreationDate (Mon May 29 11:05:48 2017)
  /DOCINFO pdfmark
end
} ifelse
%
% Support for boxed text - Ethan A Merritt May 2005
%
/InitTextBox { userdict /TBy2 3 -1 roll put userdict /TBx2 3 -1 roll put
           userdict /TBy1 3 -1 roll put userdict /TBx1 3 -1 roll put
	   /Boxing true def } def
/ExtendTextBox { Boxing
    { gsave dup false charpath pathbbox
      dup TBy2 gt {userdict /TBy2 3 -1 roll put} {pop} ifelse
      dup TBx2 gt {userdict /TBx2 3 -1 roll put} {pop} ifelse
      dup TBy1 lt {userdict /TBy1 3 -1 roll put} {pop} ifelse
      dup TBx1 lt {userdict /TBx1 3 -1 roll put} {pop} ifelse
      grestore } if } def
/PopTextBox { newpath TBx1 TBxmargin sub TBy1 TBymargin sub M
               TBx1 TBxmargin sub TBy2 TBymargin add L
	       TBx2 TBxmargin add TBy2 TBymargin add L
	       TBx2 TBxmargin add TBy1 TBymargin sub L closepath } def
/DrawTextBox { PopTextBox stroke /Boxing false def} def
/FillTextBox { gsave PopTextBox 1 1 1 setrgbcolor fill grestore /Boxing false def} def
0 0 0 0 InitTextBox
/TBxmargin 20 def
/TBymargin 20 def
/Boxing false def
/textshow { ExtendTextBox Gshow } def
%
% redundant definitions for compatibility with prologue.ps older than 5.0.2
/LTB {BL [] LCb DL} def
/LTb {PL [] LCb DL} def
end
%%EndProlog
%%Page: 1 1
gnudict begin
gsave
doclip
50 50 translate
0.100 0.100 scale
90 rotate
0 -5040 translate
0 setgray
newpath
(Helvetica) findfont 140 scalefont setfont
BackgroundColor 0 lt 3 1 roll 0 lt exch 0 lt or or not {gsave BackgroundColor C clippath fill grestore} if
1.000 UL
LTb
LCb setrgbcolor
546 280 M
63 0 V
6338 0 R
-63 0 V
stroke
462 280 M
[ [(Helvetica) 140.0 0.0 true true 0 ( 1)]
] -46.7 MRshow
1.000 UL
LTb
LCb setrgbcolor
546 1428 M
63 0 V
6338 0 R
-63 0 V
stroke
462 1428 M
[ [(Helvetica) 140.0 0.0 true true 0 ( 1.5)]
] -46.7 MRshow
1.000 UL
LTb
LCb setrgbcolor
546 2576 M
63 0 V
6338 0 R
-63 0 V
stroke
462 2576 M
[ [(Helvetica) 140.0 0.0 true true 0 ( 2)]
] -46.7 MRshow
1.000 UL
LTb
LCb setrgbcolor
546 3723 M
63 0 V
6338 0 R
-63 0 V
stroke
462 3723 M
[ [(Helvetica) 140.0 0.0 true true 0 ( 2.5)]
] -46.7 MRshow
1.000 UL
LTb
LCb setrgbcolor
546 4871 M
63 0 V
6338 0 R
-63 0 V
stroke
462 4871 M
[ [(Helvetica) 140.0 0.0 true true 0 ( 3)]
] -46.7 MRshow
1.000 UL
LTb
LCb setrgbcolor
546 280 M
0 63 V
0 4528 R
0 -63 V
stroke
546 140 M
[ [(Helvetica) 140.0 0.0 true true 0 ( 1)]
] -46.7 MCshow
1.000 UL
LTb
LCb setrgbcolor
760 280 M
0 31 V
0 4560 R
0 -31 V
1043 280 M
0 31 V
0 4560 R
0 -31 V
1188 280 M
0 31 V
0 4560 R
0 -31 V
1257 280 M
0 63 V
0 4528 R
0 -63 V
stroke
1257 140 M
[ [(Helvetica) 140.0 0.0 true true 0 ( 10)]
] -46.7 MCshow
1.000 UL
LTb
LCb setrgbcolor
1471 280 M
0 31 V
0 4560 R
0 -31 V
1754 280 M
0 31 V
0 4560 R
0 -31 V
1900 280 M
0 31 V
0 4560 R
0 -31 V
1968 280 M
0 63 V
0 4528 R
0 -63 V
stroke
1968 140 M
[ [(Helvetica) 140.0 0.0 true true 0 ( 100)]
] -46.7 MCshow
1.000 UL
LTb
LCb setrgbcolor
2183 280 M
0 31 V
0 4560 R
0 -31 V
2466 280 M
0 31 V
0 4560 R
0 -31 V
2611 280 M
0 31 V
0 4560 R
0 -31 V
2680 280 M
0 63 V
0 4528 R
0 -63 V
stroke
2680 140 M
[ [(Helvetica) 140.0 0.0 true true 0 ( 1000)]
] -46.7 MCshow
1.000 UL
LTb
LCb setrgbcolor
2894 280 M
0 31 V
0 4560 R
0 -31 V
3177 280 M
0 31 V
0 4560 R
0 -31 V
3322 280 M
0 31 V
0 4560 R
0 -31 V
3391 280 M
0 63 V
0 4528 R
0 -63 V
stroke
3391 140 M
[ [(Helvetica) 140.0 0.0 true true 0 ( 10000)]
] -46.7 MCshow
1.000 UL
LTb
LCb setrgbcolor
3605 280 M
0 31 V
0 4560 R
0 -31 V
3888 280 M
0 31 V
0 4560 R
0 -31 V
4033 280 M
0 31 V
0 4560 R
0 -31 V
4102 280 M
0 63 V
0 4528 R
0 -63 V
stroke
4102 140 M
[ [(Helvetica) 140.0 0.0 true true 0 ( 100000)]
] -46.7 MCshow
1.000 UL
LTb
LCb setrgbcolor
4316 280 M
0 31 V
0 4560 R
0 -31 V
4599 280 M
0 31 V
0 4560 R
0 -31 V
4744 280 M
0 31 V
0 4560 R
0 -31 V
4813 280 M
0 63 V
0 4528 R
0 -63 V
stroke
4813 140 M
[ [(Helvetica) 140.0 0.0 true true 0 ( 1x10)]
[(Helvetica) 112.0 70.0 true true 0 (6)]
] -60.7 MCshow
1.000 UL
LTb
LCb setrgbcolor
5027 280 M
0 31 V
0 4560 R
0 -31 V
5310 280 M
0 31 V
0 4560 R
0 -31 V
5456 280 M
0 31 V
0 4560 R
0 -31 V
5525 280 M
0 63 V
0 4528 R
0 -63 V
stroke
5525 140 M
[ [(Helvetica) 140.0 0.0 true true 0 ( 1x10)]
[(Helvetica) 112.0 70.0 true true 0 (7)]
] -60.7 MCshow
1.000 UL
LTb
LCb setrgbcolor
5739 280 M
0 31 V
0 4560 R
0 -31 V
6022 280 M
0 31 V
0 4560 R
0 -31 V
6167 280 M
0 31 V
0 4560 R
0 -31 V
6236 280 M
0 63 V
0 4528 R
0 -63 V
stroke
6236 140 M
[ [(Helvetica) 140.0 0.0 true true 0 ( 1x10)]
[(Helvetica) 112.0 70.0 true true 0 (8)]
] -60.7 MCshow
1.000 UL
LTb
LCb setrgbcolor
6450 280 M
0 31 V
0 4560 R
0 -31 V
6733 280 M
0 31 V
0 4560 R
0 -31 V
6878 280 M
0 31 V
0 4560 R
0 -31 V
6947 280 M
0 63 V
0 4528 R
0 -63 V
stroke
6947 140 M
[ [(Helvetica) 140.0 0.0 true true 0 ( 1x10)]
[(Helvetica) 112.0 70.0 true true 0 (9)]
] -60.7 MCshow
1.000 UL
LTb
LCb setrgbcolor
1.000 UL
LTB
LCb setrgbcolor
546 4871 N
546 280 L
6401 0 V
0 4591 V
-6401 0 V
Z stroke
1.000 UP
1.000 UL
LTb
LCb setrgbcolor
% Begin plot #1
1.000 UP
1.000 UL
LTb
0.58 0.00 0.83 C 647 280 Pls
861 4871 Pls
930 2576 Pls
986 280 Pls
1003 2576 Pls
1072 280 Pls
1075 2576 Pls
1144 2576 Pls
1200 280 Pls
1286 280 Pls
1289 280 Pls
1358 2576 Pls
1367 280 Pls
1414 280 Pls
1431 280 Pls
1451 280 Pls
1529 280 Pls
1556 280 Pls
1586 280 Pls
1604 280 Pls
1609 280 Pls
1615 280 Pls
1635 280 Pls
1744 280 Pls
1754 280 Pls
1840 280 Pls
1849 2576 Pls
1855 280 Pls
1864 2576 Pls
1867 280 Pls
1876 280 Pls
1885 280 Pls
1890 280 Pls
1936 280 Pls
1972 280 Pls
1976 280 Pls
1998 280 Pls
2084 280 Pls
2089 280 Pls
2093 280 Pls
2096 280 Pls
2129 280 Pls
2131 280 Pls
2139 280 Pls
2154 280 Pls
2163 280 Pls
2168 280 Pls
2189 280 Pls
2207 280 Pls
2208 280 Pls
2209 280 Pls
2215 280 Pls
2233 280 Pls
2235 280 Pls
2240 280 Pls
2242 280 Pls
2243 280 Pls
2248 280 Pls
2254 280 Pls
2279 280 Pls
2285 280 Pls
2293 280 Pls
2306 280 Pls
2313 280 Pls
2323 280 Pls
2338 280 Pls
2338 280 Pls
2338 280 Pls
2339 280 Pls
2346 280 Pls
2349 280 Pls
2380 280 Pls
2392 280 Pls
2393 280 Pls
2395 280 Pls
2402 280 Pls
2402 280 Pls
2406 280 Pls
2417 280 Pls
2424 280 Pls
2428 280 Pls
2429 280 Pls
2435 280 Pls
2437 280 Pls
2442 280 Pls
2450 280 Pls
2453 280 Pls
2454 280 Pls
2455 280 Pls
2456 280 Pls
2457 280 Pls
2461 280 Pls
2468 280 Pls
2469 280 Pls
2486 280 Pls
2487 280 Pls
2512 280 Pls
2512 280 Pls
2520 280 Pls
2526 280 Pls
2543 280 Pls
2551 280 Pls
2580 280 Pls
2581 280 Pls
2583 280 Pls
2590 280 Pls
2591 280 Pls
2593 280 Pls
2597 280 Pls
2612 280 Pls
2612 280 Pls
2619 280 Pls
2621 280 Pls
2634 280 Pls
2638 280 Pls
2642 280 Pls
2644 280 Pls
2653 280 Pls
2654 280 Pls
2658 280 Pls
2665 280 Pls
2667 280 Pls
2672 280 Pls
2690 280 Pls
2697 280 Pls
2700 280 Pls
2704 280 Pls
2714 2576 Pls
2718 280 Pls
2720 280 Pls
2721 280 Pls
2726 280 Pls
2731 280 Pls
2739 280 Pls
2753 280 Pls
2761 280 Pls
2776 280 Pls
2777 280 Pls
2778 280 Pls
2785 280 Pls
2785 280 Pls
2789 280 Pls
2790 280 Pls
2808 280 Pls
2809 280 Pls
2812 280 Pls
2814 280 Pls
2819 280 Pls
2821 280 Pls
2822 280 Pls
2824 280 Pls
2826 280 Pls
2835 280 Pls
2835 280 Pls
2839 280 Pls
2842 280 Pls
2854 280 Pls
2872 280 Pls
2880 280 Pls
2882 280 Pls
2884 280 Pls
2891 280 Pls
2896 280 Pls
2899 280 Pls
2899 280 Pls
2913 280 Pls
2928 280 Pls
2932 280 Pls
2939 280 Pls
2941 280 Pls
2944 280 Pls
2950 280 Pls
2953 280 Pls
2958 280 Pls
2964 280 Pls
2971 280 Pls
2978 280 Pls
2985 280 Pls
2997 280 Pls
2998 280 Pls
2998 280 Pls
3000 280 Pls
3012 280 Pls
3021 280 Pls
3041 280 Pls
3041 280 Pls
3054 280 Pls
3066 280 Pls
3076 280 Pls
3078 280 Pls
3090 280 Pls
3091 280 Pls
3094 280 Pls
3104 280 Pls
3104 280 Pls
3110 280 Pls
3111 280 Pls
3119 280 Pls
3120 280 Pls
3120 280 Pls
3130 280 Pls
3134 280 Pls
3137 280 Pls
3144 280 Pls
3144 280 Pls
3144 280 Pls
3150 280 Pls
3150 280 Pls
3162 280 Pls
3166 280 Pls
3166 280 Pls
3169 280 Pls
3170 280 Pls
3173 280 Pls
3180 280 Pls
3182 280 Pls
3189 280 Pls
3192 280 Pls
3194 280 Pls
3195 280 Pls
3198 280 Pls
3203 280 Pls
3206 280 Pls
3209 280 Pls
3211 280 Pls
3211 280 Pls
3225 280 Pls
3226 280 Pls
3227 280 Pls
3230 280 Pls
3233 280 Pls
3238 280 Pls
3239 280 Pls
3242 280 Pls
3244 280 Pls
3249 280 Pls
3255 280 Pls
3258 280 Pls
3258 280 Pls
3258 280 Pls
3262 280 Pls
3264 280 Pls
3269 280 Pls
3280 280 Pls
3284 280 Pls
3289 280 Pls
3298 280 Pls
3305 280 Pls
3311 280 Pls
3312 280 Pls
3313 280 Pls
3322 280 Pls
3331 280 Pls
3341 280 Pls
3342 280 Pls
3343 280 Pls
3347 280 Pls
3349 280 Pls
3349 280 Pls
3350 280 Pls
3358 280 Pls
3359 280 Pls
3376 280 Pls
3384 280 Pls
3388 280 Pls
3391 280 Pls
3394 280 Pls
3396 280 Pls
3397 280 Pls
3401 280 Pls
3401 280 Pls
3402 280 Pls
3407 280 Pls
3410 280 Pls
3415 280 Pls
3416 280 Pls
3417 280 Pls
3420 280 Pls
3424 280 Pls
3447 280 Pls
3476 280 Pls
3489 280 Pls
3492 280 Pls
3499 280 Pls
3501 280 Pls
3507 280 Pls
3510 280 Pls
3514 280 Pls
3514 280 Pls
3516 280 Pls
3519 280 Pls
3520 280 Pls
3521 280 Pls
3522 280 Pls
3533 280 Pls
3533 280 Pls
3534 280 Pls
3540 280 Pls
3545 280 Pls
3548 280 Pls
3551 280 Pls
3555 280 Pls
3555 2576 Pls
3555 280 Pls
3555 280 Pls
3555 280 Pls
3555 280 Pls
3555 280 Pls
3556 280 Pls
3556 280 Pls
3572 280 Pls
3573 280 Pls
3576 280 Pls
3583 280 Pls
3592 280 Pls
3599 280 Pls
3603 280 Pls
3603 280 Pls
3607 280 Pls
3608 280 Pls
3611 280 Pls
3614 280 Pls
3614 280 Pls
3616 280 Pls
3616 280 Pls
3624 280 Pls
3625 280 Pls
3627 280 Pls
3637 280 Pls
3638 280 Pls
3649 280 Pls
3649 280 Pls
3653 280 Pls
3654 280 Pls
3657 280 Pls
3661 280 Pls
3663 280 Pls
3664 280 Pls
3664 280 Pls
3667 280 Pls
3668 280 Pls
3669 280 Pls
3680 280 Pls
3681 280 Pls
3681 280 Pls
3684 280 Pls
3686 280 Pls
3688 280 Pls
3692 280 Pls
3695 280 Pls
3695 280 Pls
3696 280 Pls
3704 280 Pls
3706 280 Pls
3712 280 Pls
3719 280 Pls
3724 280 Pls
3728 280 Pls
3729 280 Pls
3729 280 Pls
3735 280 Pls
3736 280 Pls
3740 280 Pls
3741 280 Pls
3743 280 Pls
3745 280 Pls
3757 280 Pls
3769 280 Pls
3776 280 Pls
3791 280 Pls
3796 280 Pls
3799 280 Pls
3800 280 Pls
3802 280 Pls
3807 280 Pls
3822 280 Pls
3822 280 Pls
3825 280 Pls
3828 280 Pls
3834 280 Pls
3851 280 Pls
3851 280 Pls
3855 280 Pls
3858 280 Pls
3867 280 Pls
3868 280 Pls
3871 280 Pls
3874 280 Pls
3879 280 Pls
3882 280 Pls
3895 280 Pls
3900 280 Pls
3901 280 Pls
3902 280 Pls
3914 280 Pls
3915 280 Pls
3918 280 Pls
3922 280 Pls
3922 280 Pls
3924 280 Pls
3936 280 Pls
3946 280 Pls
3950 280 Pls
3965 280 Pls
3970 280 Pls
3974 280 Pls
3977 280 Pls
3983 280 Pls
3992 280 Pls
4011 280 Pls
4011 280 Pls
4016 280 Pls
4032 280 Pls
4037 280 Pls
4041 280 Pls
4042 280 Pls
4046 280 Pls
4067 280 Pls
4084 280 Pls
4095 280 Pls
4095 280 Pls
4107 280 Pls
4115 280 Pls
4117 280 Pls
4148 280 Pls
4153 280 Pls
4163 280 Pls
4177 280 Pls
4181 280 Pls
4183 280 Pls
4186 280 Pls
4189 280 Pls
4192 280 Pls
4199 280 Pls
4200 280 Pls
4206 280 Pls
4219 280 Pls
4223 280 Pls
4232 280 Pls
4240 280 Pls
4241 280 Pls
4244 280 Pls
4255 280 Pls
4257 280 Pls
4265 280 Pls
4272 280 Pls
4279 280 Pls
4286 280 Pls
4286 280 Pls
4287 280 Pls
4288 280 Pls
4295 280 Pls
4305 280 Pls
4307 280 Pls
4313 280 Pls
4319 280 Pls
4321 280 Pls
4329 280 Pls
4339 280 Pls
4340 280 Pls
4347 280 Pls
4356 280 Pls
4362 280 Pls
4364 280 Pls
4368 280 Pls
4387 280 Pls
4416 280 Pls
4435 280 Pls
4438 280 Pls
4446 280 Pls
4448 280 Pls
4461 280 Pls
4464 280 Pls
4479 280 Pls
4480 280 Pls
4485 280 Pls
4487 280 Pls
4490 280 Pls
4510 280 Pls
4518 280 Pls
4536 280 Pls
4546 280 Pls
4547 280 Pls
4552 280 Pls
4554 280 Pls
4555 280 Pls
4557 280 Pls
4572 280 Pls
4585 280 Pls
4593 280 Pls
4596 280 Pls
4610 280 Pls
4628 280 Pls
4635 280 Pls
4641 280 Pls
4645 280 Pls
4658 280 Pls
4664 280 Pls
4664 280 Pls
4664 280 Pls
4670 280 Pls
4681 280 Pls
4691 280 Pls
4693 280 Pls
4695 280 Pls
4698 280 Pls
4704 280 Pls
4715 280 Pls
4717 280 Pls
4717 280 Pls
4727 280 Pls
4731 280 Pls
4735 280 Pls
4735 280 Pls
4738 280 Pls
4739 280 Pls
4750 280 Pls
4751 280 Pls
4751 280 Pls
4760 280 Pls
4761 280 Pls
4773 280 Pls
4789 280 Pls
4798 280 Pls
4807 280 Pls
4845 280 Pls
4868 280 Pls
4872 280 Pls
4895 280 Pls
4896 280 Pls
4902 280 Pls
4937 280 Pls
4974 280 Pls
4994 280 Pls
5010 280 Pls
5039 280 Pls
5054 280 Pls
5103 280 Pls
5106 280 Pls
5130 280 Pls
5149 280 Pls
5156 280 Pls
5156 280 Pls
5209 280 Pls
5246 280 Pls
5246 280 Pls
5246 280 Pls
5250 280 Pls
5260 280 Pls
5316 280 Pls
5367 280 Pls
5367 280 Pls
5376 280 Pls
5386 280 Pls
5397 280 Pls
5447 280 Pls
5596 280 Pls
5612 280 Pls
5800 280 Pls
5804 280 Pls
5850 280 Pls
5960 280 Pls
6039 280 Pls
6052 280 Pls
6355 280 Pls
% End plot #1
2.000 UL
LTb
LCb setrgbcolor
1.000 UL
LTB
LCb setrgbcolor
546 4871 N
546 280 L
6401 0 V
0 4591 V
-6401 0 V
Z stroke
1.000 UP
1.000 UL
LTb
LCb setrgbcolor
stroke
grestore
end
showpage
%%Trailer
%%DocumentFonts: Helvetica
%%Pages: 1
