%!PS-Adobe-2.0
%%Title: packets-ip-s-log-packets-ip-ccdf-loglog.eps
%%Creator: gnuplot 5.0 patchlevel 3
%%CreationDate: Mon May 29 11:05:48 2017
%%DocumentFonts: (atend)
%%BoundingBox: 50 50 554 770
%%Orientation: Landscape
%%Pages: (atend)
%%EndComments
%%BeginProlog
/gnudict 256 dict def
gnudict begin
%
% The following true/false flags may be edited by hand if desired.
% The unit line width and grayscale image gamma correction may also be changed.
%
/Color true def
/Blacktext false def
/Solid false def
/Dashlength 1 def
/Landscape true def
/Level1 false def
/Level3 false def
/Rounded false def
/ClipToBoundingBox false def
/SuppressPDFMark false def
/TransparentPatterns false def
/gnulinewidth 5.000 def
/userlinewidth gnulinewidth def
/Gamma 1.0 def
/BackgroundColor {-1.000 -1.000 -1.000} def
%
/vshift -46 def
/dl1 {
  10.0 Dashlength userlinewidth gnulinewidth div mul mul mul
  Rounded { currentlinewidth 0.75 mul sub dup 0 le { pop 0.01 } if } if
} def
/dl2 {
  10.0 Dashlength userlinewidth gnulinewidth div mul mul mul
  Rounded { currentlinewidth 0.75 mul add } if
} def
/hpt_ 31.5 def
/vpt_ 31.5 def
/hpt hpt_ def
/vpt vpt_ def
/doclip {
  ClipToBoundingBox {
    newpath 50 50 moveto 554 50 lineto 554 770 lineto 50 770 lineto closepath
    clip
  } if
} def
%
% Gnuplot Prolog Version 5.1 (Oct 2015)
%
%/SuppressPDFMark true def
%
/M {moveto} bind def
/L {lineto} bind def
/R {rmoveto} bind def
/V {rlineto} bind def
/N {newpath moveto} bind def
/Z {closepath} bind def
/C {setrgbcolor} bind def
/f {rlineto fill} bind def
/g {setgray} bind def
/Gshow {show} def   % May be redefined later in the file to support UTF-8
/vpt2 vpt 2 mul def
/hpt2 hpt 2 mul def
/Lshow {currentpoint stroke M 0 vshift R 
	Blacktext {gsave 0 setgray textshow grestore} {textshow} ifelse} def
/Rshow {currentpoint stroke M dup stringwidth pop neg vshift R
	Blacktext {gsave 0 setgray textshow grestore} {textshow} ifelse} def
/Cshow {currentpoint stroke M dup stringwidth pop -2 div vshift R 
	Blacktext {gsave 0 setgray textshow grestore} {textshow} ifelse} def
/UP {dup vpt_ mul /vpt exch def hpt_ mul /hpt exch def
  /hpt2 hpt 2 mul def /vpt2 vpt 2 mul def} def
/DL {Color {setrgbcolor Solid {pop []} if 0 setdash}
 {pop pop pop 0 setgray Solid {pop []} if 0 setdash} ifelse} def
/BL {stroke userlinewidth 2 mul setlinewidth
	Rounded {1 setlinejoin 1 setlinecap} if} def
/AL {stroke userlinewidth 2 div setlinewidth
	Rounded {1 setlinejoin 1 setlinecap} if} def
/UL {dup gnulinewidth mul /userlinewidth exch def
	dup 1 lt {pop 1} if 10 mul /udl exch def} def
/PL {stroke userlinewidth setlinewidth
	Rounded {1 setlinejoin 1 setlinecap} if} def
3.8 setmiterlimit
% Classic Line colors (version 5.0)
/LCw {1 1 1} def
/LCb {0 0 0} def
/LCa {0 0 0} def
/LC0 {1 0 0} def
/LC1 {0 1 0} def
/LC2 {0 0 1} def
/LC3 {1 0 1} def
/LC4 {0 1 1} def
/LC5 {1 1 0} def
/LC6 {0 0 0} def
/LC7 {1 0.3 0} def
/LC8 {0.5 0.5 0.5} def
% Default dash patterns (version 5.0)
/LTB {BL [] LCb DL} def
/LTw {PL [] 1 setgray} def
/LTb {PL [] LCb DL} def
/LTa {AL [1 udl mul 2 udl mul] 0 setdash LCa setrgbcolor} def
/LT0 {PL [] LC0 DL} def
/LT1 {PL [2 dl1 3 dl2] LC1 DL} def
/LT2 {PL [1 dl1 1.5 dl2] LC2 DL} def
/LT3 {PL [6 dl1 2 dl2 1 dl1 2 dl2] LC3 DL} def
/LT4 {PL [1 dl1 2 dl2 6 dl1 2 dl2 1 dl1 2 dl2] LC4 DL} def
/LT5 {PL [4 dl1 2 dl2] LC5 DL} def
/LT6 {PL [1.5 dl1 1.5 dl2 1.5 dl1 1.5 dl2 1.5 dl1 6 dl2] LC6 DL} def
/LT7 {PL [3 dl1 3 dl2 1 dl1 3 dl2] LC7 DL} def
/LT8 {PL [2 dl1 2 dl2 2 dl1 6 dl2] LC8 DL} def
/SL {[] 0 setdash} def
/Pnt {stroke [] 0 setdash gsave 1 setlinecap M 0 0 V stroke grestore} def
/Dia {stroke [] 0 setdash 2 copy vpt add M
  hpt neg vpt neg V hpt vpt neg V
  hpt vpt V hpt neg vpt V closepath stroke
  Pnt} def
/Pls {stroke [] 0 setdash vpt sub M 0 vpt2 V
  currentpoint stroke M
  hpt neg vpt neg R hpt2 0 V stroke
 } def
/Box {stroke [] 0 setdash 2 copy exch hpt sub exch vpt add M
  0 vpt2 neg V hpt2 0 V 0 vpt2 V
  hpt2 neg 0 V closepath stroke
  Pnt} def
/Crs {stroke [] 0 setdash exch hpt sub exch vpt add M
  hpt2 vpt2 neg V currentpoint stroke M
  hpt2 neg 0 R hpt2 vpt2 V stroke} def
/TriU {stroke [] 0 setdash 2 copy vpt 1.12 mul add M
  hpt neg vpt -1.62 mul V
  hpt 2 mul 0 V
  hpt neg vpt 1.62 mul V closepath stroke
  Pnt} def
/Star {2 copy Pls Crs} def
/BoxF {stroke [] 0 setdash exch hpt sub exch vpt add M
  0 vpt2 neg V hpt2 0 V 0 vpt2 V
  hpt2 neg 0 V closepath fill} def
/TriUF {stroke [] 0 setdash vpt 1.12 mul add M
  hpt neg vpt -1.62 mul V
  hpt 2 mul 0 V
  hpt neg vpt 1.62 mul V closepath fill} def
/TriD {stroke [] 0 setdash 2 copy vpt 1.12 mul sub M
  hpt neg vpt 1.62 mul V
  hpt 2 mul 0 V
  hpt neg vpt -1.62 mul V closepath stroke
  Pnt} def
/TriDF {stroke [] 0 setdash vpt 1.12 mul sub M
  hpt neg vpt 1.62 mul V
  hpt 2 mul 0 V
  hpt neg vpt -1.62 mul V closepath fill} def
/DiaF {stroke [] 0 setdash vpt add M
  hpt neg vpt neg V hpt vpt neg V
  hpt vpt V hpt neg vpt V closepath fill} def
/Pent {stroke [] 0 setdash 2 copy gsave
  translate 0 hpt M 4 {72 rotate 0 hpt L} repeat
  closepath stroke grestore Pnt} def
/PentF {stroke [] 0 setdash gsave
  translate 0 hpt M 4 {72 rotate 0 hpt L} repeat
  closepath fill grestore} def
/Circle {stroke [] 0 setdash 2 copy
  hpt 0 360 arc stroke Pnt} def
/CircleF {stroke [] 0 setdash hpt 0 360 arc fill} def
/C0 {BL [] 0 setdash 2 copy moveto vpt 90 450 arc} bind def
/C1 {BL [] 0 setdash 2 copy moveto
	2 copy vpt 0 90 arc closepath fill
	vpt 0 360 arc closepath} bind def
/C2 {BL [] 0 setdash 2 copy moveto
	2 copy vpt 90 180 arc closepath fill
	vpt 0 360 arc closepath} bind def
/C3 {BL [] 0 setdash 2 copy moveto
	2 copy vpt 0 180 arc closepath fill
	vpt 0 360 arc closepath} bind def
/C4 {BL [] 0 setdash 2 copy moveto
	2 copy vpt 180 270 arc closepath fill
	vpt 0 360 arc closepath} bind def
/C5 {BL [] 0 setdash 2 copy moveto
	2 copy vpt 0 90 arc
	2 copy moveto
	2 copy vpt 180 270 arc closepath fill
	vpt 0 360 arc} bind def
/C6 {BL [] 0 setdash 2 copy moveto
	2 copy vpt 90 270 arc closepath fill
	vpt 0 360 arc closepath} bind def
/C7 {BL [] 0 setdash 2 copy moveto
	2 copy vpt 0 270 arc closepath fill
	vpt 0 360 arc closepath} bind def
/C8 {BL [] 0 setdash 2 copy moveto
	2 copy vpt 270 360 arc closepath fill
	vpt 0 360 arc closepath} bind def
/C9 {BL [] 0 setdash 2 copy moveto
	2 copy vpt 270 450 arc closepath fill
	vpt 0 360 arc closepath} bind def
/C10 {BL [] 0 setdash 2 copy 2 copy moveto vpt 270 360 arc closepath fill
	2 copy moveto
	2 copy vpt 90 180 arc closepath fill
	vpt 0 360 arc closepath} bind def
/C11 {BL [] 0 setdash 2 copy moveto
	2 copy vpt 0 180 arc closepath fill
	2 copy moveto
	2 copy vpt 270 360 arc closepath fill
	vpt 0 360 arc closepath} bind def
/C12 {BL [] 0 setdash 2 copy moveto
	2 copy vpt 180 360 arc closepath fill
	vpt 0 360 arc closepath} bind def
/C13 {BL [] 0 setdash 2 copy moveto
	2 copy vpt 0 90 arc closepath fill
	2 copy moveto
	2 copy vpt 180 360 arc closepath fill
	vpt 0 360 arc closepath} bind def
/C14 {BL [] 0 setdash 2 copy moveto
	2 copy vpt 90 360 arc closepath fill
	vpt 0 360 arc} bind def
/C15 {BL [] 0 setdash 2 copy vpt 0 360 arc closepath fill
	vpt 0 360 arc closepath} bind def
/Rec {newpath 4 2 roll moveto 1 index 0 rlineto 0 exch rlineto
	neg 0 rlineto closepath} bind def
/Square {dup Rec} bind def
/Bsquare {vpt sub exch vpt sub exch vpt2 Square} bind def
/S0 {BL [] 0 setdash 2 copy moveto 0 vpt rlineto BL Bsquare} bind def
/S1 {BL [] 0 setdash 2 copy vpt Square fill Bsquare} bind def
/S2 {BL [] 0 setdash 2 copy exch vpt sub exch vpt Square fill Bsquare} bind def
/S3 {BL [] 0 setdash 2 copy exch vpt sub exch vpt2 vpt Rec fill Bsquare} bind def
/S4 {BL [] 0 setdash 2 copy exch vpt sub exch vpt sub vpt Square fill Bsquare} bind def
/S5 {BL [] 0 setdash 2 copy 2 copy vpt Square fill
	exch vpt sub exch vpt sub vpt Square fill Bsquare} bind def
/S6 {BL [] 0 setdash 2 copy exch vpt sub exch vpt sub vpt vpt2 Rec fill Bsquare} bind def
/S7 {BL [] 0 setdash 2 copy exch vpt sub exch vpt sub vpt vpt2 Rec fill
	2 copy vpt Square fill Bsquare} bind def
/S8 {BL [] 0 setdash 2 copy vpt sub vpt Square fill Bsquare} bind def
/S9 {BL [] 0 setdash 2 copy vpt sub vpt vpt2 Rec fill Bsquare} bind def
/S10 {BL [] 0 setdash 2 copy vpt sub vpt Square fill 2 copy exch vpt sub exch vpt Square fill
	Bsquare} bind def
/S11 {BL [] 0 setdash 2 copy vpt sub vpt Square fill 2 copy exch vpt sub exch vpt2 vpt Rec fill
	Bsquare} bind def
/S12 {BL [] 0 setdash 2 copy exch vpt sub exch vpt sub vpt2 vpt Rec fill Bsquare} bind def
/S13 {BL [] 0 setdash 2 copy exch vpt sub exch vpt sub vpt2 vpt Rec fill
	2 copy vpt Square fill Bsquare} bind def
/S14 {BL [] 0 setdash 2 copy exch vpt sub exch vpt sub vpt2 vpt Rec fill
	2 copy exch vpt sub exch vpt Square fill Bsquare} bind def
/S15 {BL [] 0 setdash 2 copy Bsquare fill Bsquare} bind def
/D0 {gsave translate 45 rotate 0 0 S0 stroke grestore} bind def
/D1 {gsave translate 45 rotate 0 0 S1 stroke grestore} bind def
/D2 {gsave translate 45 rotate 0 0 S2 stroke grestore} bind def
/D3 {gsave translate 45 rotate 0 0 S3 stroke grestore} bind def
/D4 {gsave translate 45 rotate 0 0 S4 stroke grestore} bind def
/D5 {gsave translate 45 rotate 0 0 S5 stroke grestore} bind def
/D6 {gsave translate 45 rotate 0 0 S6 stroke grestore} bind def
/D7 {gsave translate 45 rotate 0 0 S7 stroke grestore} bind def
/D8 {gsave translate 45 rotate 0 0 S8 stroke grestore} bind def
/D9 {gsave translate 45 rotate 0 0 S9 stroke grestore} bind def
/D10 {gsave translate 45 rotate 0 0 S10 stroke grestore} bind def
/D11 {gsave translate 45 rotate 0 0 S11 stroke grestore} bind def
/D12 {gsave translate 45 rotate 0 0 S12 stroke grestore} bind def
/D13 {gsave translate 45 rotate 0 0 S13 stroke grestore} bind def
/D14 {gsave translate 45 rotate 0 0 S14 stroke grestore} bind def
/D15 {gsave translate 45 rotate 0 0 S15 stroke grestore} bind def
/DiaE {stroke [] 0 setdash vpt add M
  hpt neg vpt neg V hpt vpt neg V
  hpt vpt V hpt neg vpt V closepath stroke} def
/BoxE {stroke [] 0 setdash exch hpt sub exch vpt add M
  0 vpt2 neg V hpt2 0 V 0 vpt2 V
  hpt2 neg 0 V closepath stroke} def
/TriUE {stroke [] 0 setdash vpt 1.12 mul add M
  hpt neg vpt -1.62 mul V
  hpt 2 mul 0 V
  hpt neg vpt 1.62 mul V closepath stroke} def
/TriDE {stroke [] 0 setdash vpt 1.12 mul sub M
  hpt neg vpt 1.62 mul V
  hpt 2 mul 0 V
  hpt neg vpt -1.62 mul V closepath stroke} def
/PentE {stroke [] 0 setdash gsave
  translate 0 hpt M 4 {72 rotate 0 hpt L} repeat
  closepath stroke grestore} def
/CircE {stroke [] 0 setdash 
  hpt 0 360 arc stroke} def
/Opaque {gsave closepath 1 setgray fill grestore 0 setgray closepath} def
/DiaW {stroke [] 0 setdash vpt add M
  hpt neg vpt neg V hpt vpt neg V
  hpt vpt V hpt neg vpt V Opaque stroke} def
/BoxW {stroke [] 0 setdash exch hpt sub exch vpt add M
  0 vpt2 neg V hpt2 0 V 0 vpt2 V
  hpt2 neg 0 V Opaque stroke} def
/TriUW {stroke [] 0 setdash vpt 1.12 mul add M
  hpt neg vpt -1.62 mul V
  hpt 2 mul 0 V
  hpt neg vpt 1.62 mul V Opaque stroke} def
/TriDW {stroke [] 0 setdash vpt 1.12 mul sub M
  hpt neg vpt 1.62 mul V
  hpt 2 mul 0 V
  hpt neg vpt -1.62 mul V Opaque stroke} def
/PentW {stroke [] 0 setdash gsave
  translate 0 hpt M 4 {72 rotate 0 hpt L} repeat
  Opaque stroke grestore} def
/CircW {stroke [] 0 setdash 
  hpt 0 360 arc Opaque stroke} def
/BoxFill {gsave Rec 1 setgray fill grestore} def
/Density {
  /Fillden exch def
  currentrgbcolor
  /ColB exch def /ColG exch def /ColR exch def
  /ColR ColR Fillden mul Fillden sub 1 add def
  /ColG ColG Fillden mul Fillden sub 1 add def
  /ColB ColB Fillden mul Fillden sub 1 add def
  ColR ColG ColB setrgbcolor} def
/BoxColFill {gsave Rec PolyFill} def
/PolyFill {gsave Density fill grestore grestore} def
/h {rlineto rlineto rlineto gsave closepath fill grestore} bind def
%
% PostScript Level 1 Pattern Fill routine for rectangles
% Usage: x y w h s a XX PatternFill
%	x,y = lower left corner of box to be filled
%	w,h = width and height of box
%	  a = angle in degrees between lines and x-axis
%	 XX = 0/1 for no/yes cross-hatch
%
/PatternFill {gsave /PFa [ 9 2 roll ] def
  PFa 0 get PFa 2 get 2 div add PFa 1 get PFa 3 get 2 div add translate
  PFa 2 get -2 div PFa 3 get -2 div PFa 2 get PFa 3 get Rec
  TransparentPatterns {} {gsave 1 setgray fill grestore} ifelse
  clip
  currentlinewidth 0.5 mul setlinewidth
  /PFs PFa 2 get dup mul PFa 3 get dup mul add sqrt def
  0 0 M PFa 5 get rotate PFs -2 div dup translate
  0 1 PFs PFa 4 get div 1 add floor cvi
	{PFa 4 get mul 0 M 0 PFs V} for
  0 PFa 6 get ne {
	0 1 PFs PFa 4 get div 1 add floor cvi
	{PFa 4 get mul 0 2 1 roll M PFs 0 V} for
 } if
  stroke grestore} def
%
/languagelevel where
 {pop languagelevel} {1} ifelse
dup 2 lt
	{/InterpretLevel1 true def
	 /InterpretLevel3 false def}
	{/InterpretLevel1 Level1 def
	 2 gt
	    {/InterpretLevel3 Level3 def}
	    {/InterpretLevel3 false def}
	 ifelse }
 ifelse
%
% PostScript level 2 pattern fill definitions
%
/Level2PatternFill {
/Tile8x8 {/PaintType 2 /PatternType 1 /TilingType 1 /BBox [0 0 8 8] /XStep 8 /YStep 8}
	bind def
/KeepColor {currentrgbcolor [/Pattern /DeviceRGB] setcolorspace} bind def
<< Tile8x8
 /PaintProc {0.5 setlinewidth pop 0 0 M 8 8 L 0 8 M 8 0 L stroke} 
>> matrix makepattern
/Pat1 exch def
<< Tile8x8
 /PaintProc {0.5 setlinewidth pop 0 0 M 8 8 L 0 8 M 8 0 L stroke
	0 4 M 4 8 L 8 4 L 4 0 L 0 4 L stroke}
>> matrix makepattern
/Pat2 exch def
<< Tile8x8
 /PaintProc {0.5 setlinewidth pop 0 0 M 0 8 L
	8 8 L 8 0 L 0 0 L fill}
>> matrix makepattern
/Pat3 exch def
<< Tile8x8
 /PaintProc {0.5 setlinewidth pop -4 8 M 8 -4 L
	0 12 M 12 0 L stroke}
>> matrix makepattern
/Pat4 exch def
<< Tile8x8
 /PaintProc {0.5 setlinewidth pop -4 0 M 8 12 L
	0 -4 M 12 8 L stroke}
>> matrix makepattern
/Pat5 exch def
<< Tile8x8
 /PaintProc {0.5 setlinewidth pop -2 8 M 4 -4 L
	0 12 M 8 -4 L 4 12 M 10 0 L stroke}
>> matrix makepattern
/Pat6 exch def
<< Tile8x8
 /PaintProc {0.5 setlinewidth pop -2 0 M 4 12 L
	0 -4 M 8 12 L 4 -4 M 10 8 L stroke}
>> matrix makepattern
/Pat7 exch def
<< Tile8x8
 /PaintProc {0.5 setlinewidth pop 8 -2 M -4 4 L
	12 0 M -4 8 L 12 4 M 0 10 L stroke}
>> matrix makepattern
/Pat8 exch def
<< Tile8x8
 /PaintProc {0.5 setlinewidth pop 0 -2 M 12 4 L
	-4 0 M 12 8 L -4 4 M 8 10 L stroke}
>> matrix makepattern
/Pat9 exch def
/Pattern1 {PatternBgnd KeepColor Pat1 setpattern} bind def
/Pattern2 {PatternBgnd KeepColor Pat2 setpattern} bind def
/Pattern3 {PatternBgnd KeepColor Pat3 setpattern} bind def
/Pattern4 {PatternBgnd KeepColor Landscape {Pat5} {Pat4} ifelse setpattern} bind def
/Pattern5 {PatternBgnd KeepColor Landscape {Pat4} {Pat5} ifelse setpattern} bind def
/Pattern6 {PatternBgnd KeepColor Landscape {Pat9} {Pat6} ifelse setpattern} bind def
/Pattern7 {PatternBgnd KeepColor Landscape {Pat8} {Pat7} ifelse setpattern} bind def
} def
%
%
%End of PostScript Level 2 code
%
/PatternBgnd {
  TransparentPatterns {} {gsave 1 setgray fill grestore} ifelse
} def
%
% Substitute for Level 2 pattern fill codes with
% grayscale if Level 2 support is not selected.
%
/Level1PatternFill {
/Pattern1 {0.250 Density} bind def
/Pattern2 {0.500 Density} bind def
/Pattern3 {0.750 Density} bind def
/Pattern4 {0.125 Density} bind def
/Pattern5 {0.375 Density} bind def
/Pattern6 {0.625 Density} bind def
/Pattern7 {0.875 Density} bind def
} def
%
% Now test for support of Level 2 code
%
Level1 {Level1PatternFill} {Level2PatternFill} ifelse
%
/Symbol-Oblique /Symbol findfont [1 0 .167 1 0 0] makefont
dup length dict begin {1 index /FID eq {pop pop} {def} ifelse} forall
currentdict end definefont pop
%
/MFshow {
   { dup 5 get 3 ge
     { 5 get 3 eq {gsave} {grestore} ifelse }
     {dup dup 0 get findfont exch 1 get scalefont setfont
     [ currentpoint ] exch dup 2 get 0 exch R dup 5 get 2 ne {dup dup 6
     get exch 4 get {textshow} {stringwidth pop 0 R} ifelse }if dup 5 get 0 eq
     {dup 3 get {2 get neg 0 exch R pop} {pop aload pop M} ifelse} {dup 5
     get 1 eq {dup 2 get exch dup 3 get exch 6 get stringwidth pop -2 div
     dup 0 R} {dup 6 get stringwidth pop -2 div 0 R 6 get
     textshow 2 index {aload pop M neg 3 -1 roll neg R pop pop} {pop pop pop
     pop aload pop M} ifelse }ifelse }ifelse }
     ifelse }
   forall} def
/Gswidth {dup type /stringtype eq {stringwidth} {pop (n) stringwidth} ifelse} def
/MFwidth {0 exch { dup 5 get 3 ge { 5 get 3 eq { 0 } { pop } ifelse }
 {dup 3 get{dup dup 0 get findfont exch 1 get scalefont setfont
     6 get Gswidth pop add} {pop} ifelse} ifelse} forall} def
/MLshow { currentpoint stroke M
  0 exch R
  Blacktext {gsave 0 setgray MFshow grestore} {MFshow} ifelse } bind def
/MRshow { currentpoint stroke M
  exch dup MFwidth neg 3 -1 roll R
  Blacktext {gsave 0 setgray MFshow grestore} {MFshow} ifelse } bind def
/MCshow { currentpoint stroke M
  exch dup MFwidth -2 div 3 -1 roll R
  Blacktext {gsave 0 setgray MFshow grestore} {MFshow} ifelse } bind def
/XYsave    { [( ) 1 2 true false 3 ()] } bind def
/XYrestore { [( ) 1 2 true false 4 ()] } bind def
Level1 SuppressPDFMark or 
{} {
/SDict 10 dict def
systemdict /pdfmark known not {
  userdict /pdfmark systemdict /cleartomark get put
} if
SDict begin [
  /Title (packets-ip-s-log-packets-ip-ccdf-loglog.eps)
  /Subject (gnuplot plot)
  /Creator (gnuplot 5.0 patchlevel 3)
  /Author (tiphaine)
%  /Producer (gnuplot)
%  /Keywords ()
  /CreationDate (Mon May 29 11:05:48 2017)
  /DOCINFO pdfmark
end
} ifelse
%
% Support for boxed text - Ethan A Merritt May 2005
%
/InitTextBox { userdict /TBy2 3 -1 roll put userdict /TBx2 3 -1 roll put
           userdict /TBy1 3 -1 roll put userdict /TBx1 3 -1 roll put
	   /Boxing true def } def
/ExtendTextBox { Boxing
    { gsave dup false charpath pathbbox
      dup TBy2 gt {userdict /TBy2 3 -1 roll put} {pop} ifelse
      dup TBx2 gt {userdict /TBx2 3 -1 roll put} {pop} ifelse
      dup TBy1 lt {userdict /TBy1 3 -1 roll put} {pop} ifelse
      dup TBx1 lt {userdict /TBx1 3 -1 roll put} {pop} ifelse
      grestore } if } def
/PopTextBox { newpath TBx1 TBxmargin sub TBy1 TBymargin sub M
               TBx1 TBxmargin sub TBy2 TBymargin add L
	       TBx2 TBxmargin add TBy2 TBymargin add L
	       TBx2 TBxmargin add TBy1 TBymargin sub L closepath } def
/DrawTextBox { PopTextBox stroke /Boxing false def} def
/FillTextBox { gsave PopTextBox 1 1 1 setrgbcolor fill grestore /Boxing false def} def
0 0 0 0 InitTextBox
/TBxmargin 20 def
/TBymargin 20 def
/Boxing false def
/textshow { ExtendTextBox Gshow } def
%
% redundant definitions for compatibility with prologue.ps older than 5.0.2
/LTB {BL [] LCb DL} def
/LTb {PL [] LCb DL} def
end
%%EndProlog
%%Page: 1 1
gnudict begin
gsave
doclip
50 50 translate
0.100 0.100 scale
90 rotate
0 -5040 translate
0 setgray
newpath
(Helvetica) findfont 140 scalefont setfont
BackgroundColor 0 lt 3 1 roll 0 lt exch 0 lt or or not {gsave BackgroundColor C clippath fill grestore} if
1.000 UL
LTb
LCb setrgbcolor
798 280 M
63 0 V
6086 0 R
-63 0 V
stroke
714 280 M
[ [(Helvetica) 140.0 0.0 true true 0 ( 0.0001)]
] -46.7 MRshow
1.000 UL
LTb
LCb setrgbcolor
798 626 M
31 0 V
6118 0 R
-31 0 V
798 828 M
31 0 V
6118 0 R
-31 0 V
798 971 M
31 0 V
6118 0 R
-31 0 V
798 1082 M
31 0 V
6118 0 R
-31 0 V
798 1173 M
31 0 V
6118 0 R
-31 0 V
798 1250 M
31 0 V
6118 0 R
-31 0 V
798 1317 M
31 0 V
6118 0 R
-31 0 V
798 1375 M
31 0 V
6118 0 R
-31 0 V
798 1428 M
63 0 V
6086 0 R
-63 0 V
stroke
714 1428 M
[ [(Helvetica) 140.0 0.0 true true 0 ( 0.001)]
] -46.7 MRshow
1.000 UL
LTb
LCb setrgbcolor
798 1773 M
31 0 V
6118 0 R
-31 0 V
798 1975 M
31 0 V
6118 0 R
-31 0 V
798 2119 M
31 0 V
6118 0 R
-31 0 V
798 2230 M
31 0 V
6118 0 R
-31 0 V
798 2321 M
31 0 V
6118 0 R
-31 0 V
798 2398 M
31 0 V
6118 0 R
-31 0 V
798 2464 M
31 0 V
6118 0 R
-31 0 V
798 2523 M
31 0 V
6118 0 R
-31 0 V
798 2576 M
63 0 V
6086 0 R
-63 0 V
stroke
714 2576 M
[ [(Helvetica) 140.0 0.0 true true 0 ( 0.01)]
] -46.7 MRshow
1.000 UL
LTb
LCb setrgbcolor
798 2921 M
31 0 V
6118 0 R
-31 0 V
798 3123 M
31 0 V
6118 0 R
-31 0 V
798 3267 M
31 0 V
6118 0 R
-31 0 V
798 3378 M
31 0 V
6118 0 R
-31 0 V
798 3469 M
31 0 V
6118 0 R
-31 0 V
798 3545 M
31 0 V
6118 0 R
-31 0 V
798 3612 M
31 0 V
6118 0 R
-31 0 V
798 3671 M
31 0 V
6118 0 R
-31 0 V
798 3723 M
63 0 V
6086 0 R
-63 0 V
stroke
714 3723 M
[ [(Helvetica) 140.0 0.0 true true 0 ( 0.1)]
] -46.7 MRshow
1.000 UL
LTb
LCb setrgbcolor
798 4069 M
31 0 V
6118 0 R
-31 0 V
798 4271 M
31 0 V
6118 0 R
-31 0 V
798 4414 M
31 0 V
6118 0 R
-31 0 V
798 4525 M
31 0 V
6118 0 R
-31 0 V
798 4616 M
31 0 V
6118 0 R
-31 0 V
798 4693 M
31 0 V
6118 0 R
-31 0 V
798 4760 M
31 0 V
6118 0 R
-31 0 V
798 4818 M
31 0 V
6118 0 R
-31 0 V
798 4871 M
63 0 V
6086 0 R
-63 0 V
stroke
714 4871 M
[ [(Helvetica) 140.0 0.0 true true 0 ( 1)]
] -46.7 MRshow
1.000 UL
LTb
LCb setrgbcolor
798 280 M
0 63 V
0 4528 R
0 -63 V
stroke
798 140 M
[ [(Helvetica) 140.0 0.0 true true 0 ( 1)]
] -46.7 MCshow
1.000 UL
LTb
LCb setrgbcolor
1004 280 M
0 31 V
0 4560 R
0 -31 V
1276 280 M
0 31 V
0 4560 R
0 -31 V
1415 280 M
0 31 V
0 4560 R
0 -31 V
1481 280 M
0 63 V
0 4528 R
0 -63 V
stroke
1481 140 M
[ [(Helvetica) 140.0 0.0 true true 0 ( 10)]
] -46.7 MCshow
1.000 UL
LTb
LCb setrgbcolor
1687 280 M
0 31 V
0 4560 R
0 -31 V
1959 280 M
0 31 V
0 4560 R
0 -31 V
2098 280 M
0 31 V
0 4560 R
0 -31 V
2164 280 M
0 63 V
0 4528 R
0 -63 V
stroke
2164 140 M
[ [(Helvetica) 140.0 0.0 true true 0 ( 100)]
] -46.7 MCshow
1.000 UL
LTb
LCb setrgbcolor
2370 280 M
0 31 V
0 4560 R
0 -31 V
2642 280 M
0 31 V
0 4560 R
0 -31 V
2781 280 M
0 31 V
0 4560 R
0 -31 V
2848 280 M
0 63 V
0 4528 R
0 -63 V
stroke
2848 140 M
[ [(Helvetica) 140.0 0.0 true true 0 ( 1000)]
] -46.7 MCshow
1.000 UL
LTb
LCb setrgbcolor
3053 280 M
0 31 V
0 4560 R
0 -31 V
3325 280 M
0 31 V
0 4560 R
0 -31 V
3465 280 M
0 31 V
0 4560 R
0 -31 V
3531 280 M
0 63 V
0 4528 R
0 -63 V
stroke
3531 140 M
[ [(Helvetica) 140.0 0.0 true true 0 ( 10000)]
] -46.7 MCshow
1.000 UL
LTb
LCb setrgbcolor
3737 280 M
0 31 V
0 4560 R
0 -31 V
4008 280 M
0 31 V
0 4560 R
0 -31 V
4148 280 M
0 31 V
0 4560 R
0 -31 V
4214 280 M
0 63 V
0 4528 R
0 -63 V
stroke
4214 140 M
[ [(Helvetica) 140.0 0.0 true true 0 ( 100000)]
] -46.7 MCshow
1.000 UL
LTb
LCb setrgbcolor
4420 280 M
0 31 V
0 4560 R
0 -31 V
4692 280 M
0 31 V
0 4560 R
0 -31 V
4831 280 M
0 31 V
0 4560 R
0 -31 V
4897 280 M
0 63 V
0 4528 R
0 -63 V
stroke
4897 140 M
[ [(Helvetica) 140.0 0.0 true true 0 ( 1x10)]
[(Helvetica) 112.0 70.0 true true 0 (6)]
] -60.7 MCshow
1.000 UL
LTb
LCb setrgbcolor
5103 280 M
0 31 V
0 4560 R
0 -31 V
5375 280 M
0 31 V
0 4560 R
0 -31 V
5514 280 M
0 31 V
0 4560 R
0 -31 V
5581 280 M
0 63 V
0 4528 R
0 -63 V
stroke
5581 140 M
[ [(Helvetica) 140.0 0.0 true true 0 ( 1x10)]
[(Helvetica) 112.0 70.0 true true 0 (7)]
] -60.7 MCshow
1.000 UL
LTb
LCb setrgbcolor
5786 280 M
0 31 V
0 4560 R
0 -31 V
6058 280 M
0 31 V
0 4560 R
0 -31 V
6198 280 M
0 31 V
0 4560 R
0 -31 V
6264 280 M
0 63 V
0 4528 R
0 -63 V
stroke
6264 140 M
[ [(Helvetica) 140.0 0.0 true true 0 ( 1x10)]
[(Helvetica) 112.0 70.0 true true 0 (8)]
] -60.7 MCshow
1.000 UL
LTb
LCb setrgbcolor
6469 280 M
0 31 V
0 4560 R
0 -31 V
6741 280 M
0 31 V
0 4560 R
0 -31 V
6881 280 M
0 31 V
0 4560 R
0 -31 V
6947 280 M
0 63 V
0 4528 R
0 -63 V
stroke
6947 140 M
[ [(Helvetica) 140.0 0.0 true true 0 ( 1x10)]
[(Helvetica) 112.0 70.0 true true 0 (9)]
] -60.7 MCshow
1.000 UL
LTb
LCb setrgbcolor
1.000 UL
LTB
LCb setrgbcolor
798 4871 N
798 280 L
6149 0 V
0 4591 V
-6149 0 V
Z stroke
1.000 UP
1.000 UL
LTb
LCb setrgbcolor
% Begin plot #1
1.000 UP
1.000 UL
LTb
0.58 0.00 0.83 C 895 4446 Pls
1101 4445 Pls
1167 4443 Pls
1221 4441 Pls
1237 4440 Pls
1303 4438 Pls
1306 4437 Pls
1372 4436 Pls
1427 4434 Pls
1509 4433 Pls
1512 4432 Pls
1578 4431 Pls
1587 4429 Pls
1632 4428 Pls
1649 4428 Pls
1667 4427 Pls
1743 4426 Pls
1769 4425 Pls
1797 4424 Pls
1815 4423 Pls
1819 4422 Pls
1825 4421 Pls
1844 4420 Pls
1949 4419 Pls
1958 4418 Pls
2041 4418 Pls
2050 4417 Pls
2055 4415 Pls
2064 4414 Pls
2067 4412 Pls
2076 4411 Pls
2084 4410 Pls
2089 4409 Pls
2134 4408 Pls
2168 4407 Pls
2172 4406 Pls
2193 4406 Pls
2276 4405 Pls
2281 4404 Pls
2284 4403 Pls
2287 4402 Pls
2319 4401 Pls
2320 4400 Pls
2329 4399 Pls
2343 4398 Pls
2352 4397 Pls
2356 4396 Pls
2376 4395 Pls
2393 4394 Pls
2394 4393 Pls
2395 4392 Pls
2401 4391 Pls
2419 4390 Pls
2421 4389 Pls
2425 4388 Pls
2427 4387 Pls
2428 4386 Pls
2433 4385 Pls
2439 4384 Pls
2463 4383 Pls
2469 4382 Pls
2477 4381 Pls
2489 4380 Pls
2496 4380 Pls
2505 4379 Pls
2519 4378 Pls
2519 4377 Pls
2520 4376 Pls
2520 4375 Pls
2527 4374 Pls
2530 4373 Pls
2559 4372 Pls
2572 4371 Pls
2572 4370 Pls
2575 4369 Pls
2581 4367 Pls
2581 4366 Pls
2585 4365 Pls
2595 4364 Pls
2602 4363 Pls
2606 4362 Pls
2607 4361 Pls
2613 4360 Pls
2614 4359 Pls
2620 4358 Pls
2627 4357 Pls
2630 4356 Pls
2631 4355 Pls
2632 4354 Pls
2633 4353 Pls
2634 4352 Pls
2637 4351 Pls
2644 4350 Pls
2646 4349 Pls
2662 4348 Pls
2662 4347 Pls
2686 4346 Pls
2687 4345 Pls
2694 4344 Pls
2700 4343 Pls
2716 4341 Pls
2724 4340 Pls
2752 4339 Pls
2753 4338 Pls
2755 4337 Pls
2762 4336 Pls
2763 4335 Pls
2764 4334 Pls
2769 4333 Pls
2782 4332 Pls
2783 4331 Pls
2789 4330 Pls
2792 4329 Pls
2804 4327 Pls
2807 4326 Pls
2812 4325 Pls
2813 4324 Pls
2822 4323 Pls
2823 4322 Pls
2827 4321 Pls
2833 4320 Pls
2836 4319 Pls
2840 4317 Pls
2857 4316 Pls
2864 4315 Pls
2867 4314 Pls
2871 4313 Pls
2881 4312 Pls
2884 4310 Pls
2886 4308 Pls
2888 4307 Pls
2892 4306 Pls
2897 4305 Pls
2905 4304 Pls
2919 4303 Pls
2926 4302 Pls
2940 4300 Pls
2941 4299 Pls
2942 4298 Pls
2949 4297 Pls
2949 4296 Pls
2953 4295 Pls
2953 4293 Pls
2971 4292 Pls
2972 4291 Pls
2975 4290 Pls
2977 4289 Pls
2982 4287 Pls
2983 4286 Pls
2985 4285 Pls
2986 4284 Pls
2988 4283 Pls
2997 4281 Pls
2997 4280 Pls
3001 4279 Pls
3004 4278 Pls
3015 4277 Pls
3032 4275 Pls
3040 4274 Pls
3042 4273 Pls
3044 4272 Pls
3050 4270 Pls
3056 4269 Pls
3059 4268 Pls
3059 4267 Pls
3072 4266 Pls
3086 4264 Pls
3090 4263 Pls
3097 4262 Pls
3099 4261 Pls
3102 4259 Pls
3108 4258 Pls
3111 4257 Pls
3115 4256 Pls
3121 4254 Pls
3128 4253 Pls
3134 4252 Pls
3141 4250 Pls
3152 4249 Pls
3153 4248 Pls
3154 4247 Pls
3156 4245 Pls
3167 4244 Pls
3175 4243 Pls
3195 4241 Pls
3195 4240 Pls
3207 4239 Pls
3219 4237 Pls
3228 4236 Pls
3231 4235 Pls
3242 4233 Pls
3243 4232 Pls
3246 4231 Pls
3255 4229 Pls
3256 4228 Pls
3261 4227 Pls
3262 4225 Pls
3270 4224 Pls
3270 4223 Pls
3271 4221 Pls
3280 4220 Pls
3285 4219 Pls
3287 4217 Pls
3294 4216 Pls
3294 4215 Pls
3294 4213 Pls
3299 4212 Pls
3300 4210 Pls
3311 4209 Pls
3314 4208 Pls
3315 4206 Pls
3317 4205 Pls
3319 4203 Pls
3322 4202 Pls
3329 4201 Pls
3330 4199 Pls
3336 4198 Pls
3340 4196 Pls
3341 4195 Pls
3342 4193 Pls
3346 4192 Pls
3350 4191 Pls
3353 4189 Pls
3356 4188 Pls
3358 4186 Pls
3358 4185 Pls
3371 4183 Pls
3373 4182 Pls
3374 4180 Pls
3376 4179 Pls
3379 4177 Pls
3384 4176 Pls
3385 4174 Pls
3388 4173 Pls
3390 4171 Pls
3395 4170 Pls
3400 4168 Pls
3403 4167 Pls
3403 4165 Pls
3404 4164 Pls
3407 4162 Pls
3409 4161 Pls
3414 4159 Pls
3425 4158 Pls
3428 4156 Pls
3433 4155 Pls
3442 4153 Pls
3449 4152 Pls
3454 4150 Pls
3455 4148 Pls
3456 4147 Pls
3465 4145 Pls
3473 4144 Pls
3483 4142 Pls
3484 4140 Pls
3485 4139 Pls
3488 4137 Pls
3491 4136 Pls
3491 4134 Pls
3491 4132 Pls
3499 4131 Pls
3501 4129 Pls
3516 4128 Pls
3525 4126 Pls
3528 4124 Pls
3531 4123 Pls
3533 4121 Pls
3535 4119 Pls
3537 4118 Pls
3541 4116 Pls
3541 4114 Pls
3542 4113 Pls
3547 4111 Pls
3549 4109 Pls
3554 4107 Pls
3555 4106 Pls
3556 4104 Pls
3559 4102 Pls
3563 4101 Pls
3585 4099 Pls
3612 4097 Pls
3626 4095 Pls
3628 4094 Pls
3635 4092 Pls
3636 4090 Pls
3642 4088 Pls
3645 4087 Pls
3649 4085 Pls
3649 4083 Pls
3651 4081 Pls
3654 4079 Pls
3655 4078 Pls
3656 4076 Pls
3657 4074 Pls
3667 4072 Pls
3668 4070 Pls
3669 4068 Pls
3674 4067 Pls
3679 4065 Pls
3682 4063 Pls
3685 4061 Pls
3688 4059 Pls
3689 4057 Pls
3689 4053 Pls
3689 4051 Pls
3689 4050 Pls
3689 4048 Pls
3689 4046 Pls
3689 4044 Pls
3690 4042 Pls
3705 4040 Pls
3706 4038 Pls
3709 4036 Pls
3715 4034 Pls
3724 4032 Pls
3731 4030 Pls
3734 4028 Pls
3735 4026 Pls
3738 4024 Pls
3740 4022 Pls
3742 4020 Pls
3745 4018 Pls
3746 4016 Pls
3747 4014 Pls
3748 4012 Pls
3755 4010 Pls
3756 4008 Pls
3758 4006 Pls
3767 4003 Pls
3768 4001 Pls
3779 3999 Pls
3779 3997 Pls
3783 3995 Pls
3784 3993 Pls
3787 3991 Pls
3790 3988 Pls
3792 3986 Pls
3793 3984 Pls
3793 3982 Pls
3796 3980 Pls
3797 3978 Pls
3799 3975 Pls
3808 3973 Pls
3809 3971 Pls
3810 3969 Pls
3813 3966 Pls
3814 3964 Pls
3816 3962 Pls
3820 3959 Pls
3823 3957 Pls
3823 3955 Pls
3824 3953 Pls
3831 3950 Pls
3834 3948 Pls
3839 3945 Pls
3846 3943 Pls
3851 3941 Pls
3854 3938 Pls
3856 3936 Pls
3856 3934 Pls
3862 3931 Pls
3862 3929 Pls
3867 3926 Pls
3867 3924 Pls
3869 3921 Pls
3871 3919 Pls
3882 3916 Pls
3894 3914 Pls
3901 3911 Pls
3915 3909 Pls
3920 3906 Pls
3923 3904 Pls
3924 3901 Pls
3926 3898 Pls
3930 3896 Pls
3945 3893 Pls
3945 3891 Pls
3948 3888 Pls
3950 3885 Pls
3957 3883 Pls
3972 3880 Pls
3973 3877 Pls
3977 3875 Pls
3979 3872 Pls
3988 3869 Pls
3989 3866 Pls
3992 3864 Pls
3995 3861 Pls
4000 3858 Pls
4003 3855 Pls
4015 3852 Pls
4020 3849 Pls
4021 3847 Pls
4022 3844 Pls
4033 3841 Pls
4035 3838 Pls
4037 3835 Pls
4041 3832 Pls
4041 3829 Pls
4043 3826 Pls
4055 3823 Pls
4065 3820 Pls
4068 3817 Pls
4083 3814 Pls
4087 3811 Pls
4091 3808 Pls
4094 3804 Pls
4099 3801 Pls
4108 3798 Pls
4126 3795 Pls
4126 3792 Pls
4131 3789 Pls
4146 3785 Pls
4152 3782 Pls
4155 3779 Pls
4156 3775 Pls
4160 3772 Pls
4181 3769 Pls
4197 3765 Pls
4207 3762 Pls
4207 3759 Pls
4219 3755 Pls
4227 3752 Pls
4229 3748 Pls
4258 3745 Pls
4263 3741 Pls
4272 3737 Pls
4286 3734 Pls
4290 3730 Pls
4292 3727 Pls
4295 3723 Pls
4297 3719 Pls
4301 3715 Pls
4307 3712 Pls
4308 3708 Pls
4314 3704 Pls
4327 3700 Pls
4330 3696 Pls
4339 3692 Pls
4346 3688 Pls
4347 3685 Pls
4350 3681 Pls
4361 3676 Pls
4363 3672 Pls
4370 3668 Pls
4378 3664 Pls
4384 3660 Pls
4390 3656 Pls
4391 3652 Pls
4392 3647 Pls
4392 3643 Pls
4400 3639 Pls
4409 3634 Pls
4411 3630 Pls
4417 3625 Pls
4423 3621 Pls
4424 3616 Pls
4432 3612 Pls
4442 3607 Pls
4443 3602 Pls
4449 3598 Pls
4458 3593 Pls
4464 3588 Pls
4465 3583 Pls
4470 3578 Pls
4488 3573 Pls
4515 3568 Pls
4534 3563 Pls
4537 3558 Pls
4545 3553 Pls
4546 3548 Pls
4559 3542 Pls
4562 3537 Pls
4576 3532 Pls
4578 3526 Pls
4582 3521 Pls
4584 3515 Pls
4587 3510 Pls
4606 3504 Pls
4614 3498 Pls
4630 3492 Pls
4641 3486 Pls
4641 3480 Pls
4646 3474 Pls
4648 3468 Pls
4649 3462 Pls
4651 3456 Pls
4666 3449 Pls
4678 3443 Pls
4686 3436 Pls
4688 3430 Pls
4702 3423 Pls
4720 3416 Pls
4726 3410 Pls
4732 3403 Pls
4736 3396 Pls
4748 3388 Pls
4754 3381 Pls
4754 3374 Pls
4754 3366 Pls
4760 3359 Pls
4770 3351 Pls
4780 3343 Pls
4782 3335 Pls
4784 3327 Pls
4786 3319 Pls
4793 3310 Pls
4803 3302 Pls
4805 3293 Pls
4805 3284 Pls
4815 3275 Pls
4818 3266 Pls
4822 3257 Pls
4822 3247 Pls
4825 3238 Pls
4826 3228 Pls
4837 3218 Pls
4837 3207 Pls
4838 3197 Pls
4846 3186 Pls
4847 3175 Pls
4858 3164 Pls
4874 3153 Pls
4883 3141 Pls
4891 3129 Pls
4928 3117 Pls
4950 3104 Pls
4954 3091 Pls
4976 3078 Pls
4976 3064 Pls
4983 3050 Pls
5016 3036 Pls
5052 3021 Pls
5071 3005 Pls
5086 2990 Pls
5114 2973 Pls
5128 2956 Pls
5175 2939 Pls
5179 2921 Pls
5202 2902 Pls
5220 2882 Pls
5227 2862 Pls
5227 2841 Pls
5277 2819 Pls
5312 2795 Pls
5313 2771 Pls
5313 2745 Pls
5317 2719 Pls
5326 2690 Pls
5381 2660 Pls
5429 2628 Pls
5429 2593 Pls
5438 2556 Pls
5447 2516 Pls
5458 2473 Pls
5506 2426 Pls
5649 2373 Pls
5665 2314 Pls
5845 2248 Pls
5849 2171 Pls
5893 2080 Pls
5999 1969 Pls
6075 1825 Pls
6087 1623 Pls
6378 1278 Pls
% End plot #1
2.000 UL
LTb
LCb setrgbcolor
1.000 UL
LTB
LCb setrgbcolor
798 4871 N
798 280 L
6149 0 V
0 4591 V
-6149 0 V
Z stroke
1.000 UP
1.000 UL
LTb
LCb setrgbcolor
stroke
grestore
end
showpage
%%Trailer
%%DocumentFonts: Helvetica
%%Pages: 1
