%!PS-Adobe-2.0
%%Title: packets-ip-s-log-packets-ip-ccdf-linlog.eps
%%Creator: gnuplot 5.0 patchlevel 3
%%CreationDate: Mon May 29 11:05:48 2017
%%DocumentFonts: (atend)
%%BoundingBox: 50 50 554 770
%%Orientation: Landscape
%%Pages: (atend)
%%EndComments
%%BeginProlog
/gnudict 256 dict def
gnudict begin
%
% The following true/false flags may be edited by hand if desired.
% The unit line width and grayscale image gamma correction may also be changed.
%
/Color true def
/Blacktext false def
/Solid false def
/Dashlength 1 def
/Landscape true def
/Level1 false def
/Level3 false def
/Rounded false def
/ClipToBoundingBox false def
/SuppressPDFMark false def
/TransparentPatterns false def
/gnulinewidth 5.000 def
/userlinewidth gnulinewidth def
/Gamma 1.0 def
/BackgroundColor {-1.000 -1.000 -1.000} def
%
/vshift -46 def
/dl1 {
  10.0 Dashlength userlinewidth gnulinewidth div mul mul mul
  Rounded { currentlinewidth 0.75 mul sub dup 0 le { pop 0.01 } if } if
} def
/dl2 {
  10.0 Dashlength userlinewidth gnulinewidth div mul mul mul
  Rounded { currentlinewidth 0.75 mul add } if
} def
/hpt_ 31.5 def
/vpt_ 31.5 def
/hpt hpt_ def
/vpt vpt_ def
/doclip {
  ClipToBoundingBox {
    newpath 50 50 moveto 554 50 lineto 554 770 lineto 50 770 lineto closepath
    clip
  } if
} def
%
% Gnuplot Prolog Version 5.1 (Oct 2015)
%
%/SuppressPDFMark true def
%
/M {moveto} bind def
/L {lineto} bind def
/R {rmoveto} bind def
/V {rlineto} bind def
/N {newpath moveto} bind def
/Z {closepath} bind def
/C {setrgbcolor} bind def
/f {rlineto fill} bind def
/g {setgray} bind def
/Gshow {show} def   % May be redefined later in the file to support UTF-8
/vpt2 vpt 2 mul def
/hpt2 hpt 2 mul def
/Lshow {currentpoint stroke M 0 vshift R 
	Blacktext {gsave 0 setgray textshow grestore} {textshow} ifelse} def
/Rshow {currentpoint stroke M dup stringwidth pop neg vshift R
	Blacktext {gsave 0 setgray textshow grestore} {textshow} ifelse} def
/Cshow {currentpoint stroke M dup stringwidth pop -2 div vshift R 
	Blacktext {gsave 0 setgray textshow grestore} {textshow} ifelse} def
/UP {dup vpt_ mul /vpt exch def hpt_ mul /hpt exch def
  /hpt2 hpt 2 mul def /vpt2 vpt 2 mul def} def
/DL {Color {setrgbcolor Solid {pop []} if 0 setdash}
 {pop pop pop 0 setgray Solid {pop []} if 0 setdash} ifelse} def
/BL {stroke userlinewidth 2 mul setlinewidth
	Rounded {1 setlinejoin 1 setlinecap} if} def
/AL {stroke userlinewidth 2 div setlinewidth
	Rounded {1 setlinejoin 1 setlinecap} if} def
/UL {dup gnulinewidth mul /userlinewidth exch def
	dup 1 lt {pop 1} if 10 mul /udl exch def} def
/PL {stroke userlinewidth setlinewidth
	Rounded {1 setlinejoin 1 setlinecap} if} def
3.8 setmiterlimit
% Classic Line colors (version 5.0)
/LCw {1 1 1} def
/LCb {0 0 0} def
/LCa {0 0 0} def
/LC0 {1 0 0} def
/LC1 {0 1 0} def
/LC2 {0 0 1} def
/LC3 {1 0 1} def
/LC4 {0 1 1} def
/LC5 {1 1 0} def
/LC6 {0 0 0} def
/LC7 {1 0.3 0} def
/LC8 {0.5 0.5 0.5} def
% Default dash patterns (version 5.0)
/LTB {BL [] LCb DL} def
/LTw {PL [] 1 setgray} def
/LTb {PL [] LCb DL} def
/LTa {AL [1 udl mul 2 udl mul] 0 setdash LCa setrgbcolor} def
/LT0 {PL [] LC0 DL} def
/LT1 {PL [2 dl1 3 dl2] LC1 DL} def
/LT2 {PL [1 dl1 1.5 dl2] LC2 DL} def
/LT3 {PL [6 dl1 2 dl2 1 dl1 2 dl2] LC3 DL} def
/LT4 {PL [1 dl1 2 dl2 6 dl1 2 dl2 1 dl1 2 dl2] LC4 DL} def
/LT5 {PL [4 dl1 2 dl2] LC5 DL} def
/LT6 {PL [1.5 dl1 1.5 dl2 1.5 dl1 1.5 dl2 1.5 dl1 6 dl2] LC6 DL} def
/LT7 {PL [3 dl1 3 dl2 1 dl1 3 dl2] LC7 DL} def
/LT8 {PL [2 dl1 2 dl2 2 dl1 6 dl2] LC8 DL} def
/SL {[] 0 setdash} def
/Pnt {stroke [] 0 setdash gsave 1 setlinecap M 0 0 V stroke grestore} def
/Dia {stroke [] 0 setdash 2 copy vpt add M
  hpt neg vpt neg V hpt vpt neg V
  hpt vpt V hpt neg vpt V closepath stroke
  Pnt} def
/Pls {stroke [] 0 setdash vpt sub M 0 vpt2 V
  currentpoint stroke M
  hpt neg vpt neg R hpt2 0 V stroke
 } def
/Box {stroke [] 0 setdash 2 copy exch hpt sub exch vpt add M
  0 vpt2 neg V hpt2 0 V 0 vpt2 V
  hpt2 neg 0 V closepath stroke
  Pnt} def
/Crs {stroke [] 0 setdash exch hpt sub exch vpt add M
  hpt2 vpt2 neg V currentpoint stroke M
  hpt2 neg 0 R hpt2 vpt2 V stroke} def
/TriU {stroke [] 0 setdash 2 copy vpt 1.12 mul add M
  hpt neg vpt -1.62 mul V
  hpt 2 mul 0 V
  hpt neg vpt 1.62 mul V closepath stroke
  Pnt} def
/Star {2 copy Pls Crs} def
/BoxF {stroke [] 0 setdash exch hpt sub exch vpt add M
  0 vpt2 neg V hpt2 0 V 0 vpt2 V
  hpt2 neg 0 V closepath fill} def
/TriUF {stroke [] 0 setdash vpt 1.12 mul add M
  hpt neg vpt -1.62 mul V
  hpt 2 mul 0 V
  hpt neg vpt 1.62 mul V closepath fill} def
/TriD {stroke [] 0 setdash 2 copy vpt 1.12 mul sub M
  hpt neg vpt 1.62 mul V
  hpt 2 mul 0 V
  hpt neg vpt -1.62 mul V closepath stroke
  Pnt} def
/TriDF {stroke [] 0 setdash vpt 1.12 mul sub M
  hpt neg vpt 1.62 mul V
  hpt 2 mul 0 V
  hpt neg vpt -1.62 mul V closepath fill} def
/DiaF {stroke [] 0 setdash vpt add M
  hpt neg vpt neg V hpt vpt neg V
  hpt vpt V hpt neg vpt V closepath fill} def
/Pent {stroke [] 0 setdash 2 copy gsave
  translate 0 hpt M 4 {72 rotate 0 hpt L} repeat
  closepath stroke grestore Pnt} def
/PentF {stroke [] 0 setdash gsave
  translate 0 hpt M 4 {72 rotate 0 hpt L} repeat
  closepath fill grestore} def
/Circle {stroke [] 0 setdash 2 copy
  hpt 0 360 arc stroke Pnt} def
/CircleF {stroke [] 0 setdash hpt 0 360 arc fill} def
/C0 {BL [] 0 setdash 2 copy moveto vpt 90 450 arc} bind def
/C1 {BL [] 0 setdash 2 copy moveto
	2 copy vpt 0 90 arc closepath fill
	vpt 0 360 arc closepath} bind def
/C2 {BL [] 0 setdash 2 copy moveto
	2 copy vpt 90 180 arc closepath fill
	vpt 0 360 arc closepath} bind def
/C3 {BL [] 0 setdash 2 copy moveto
	2 copy vpt 0 180 arc closepath fill
	vpt 0 360 arc closepath} bind def
/C4 {BL [] 0 setdash 2 copy moveto
	2 copy vpt 180 270 arc closepath fill
	vpt 0 360 arc closepath} bind def
/C5 {BL [] 0 setdash 2 copy moveto
	2 copy vpt 0 90 arc
	2 copy moveto
	2 copy vpt 180 270 arc closepath fill
	vpt 0 360 arc} bind def
/C6 {BL [] 0 setdash 2 copy moveto
	2 copy vpt 90 270 arc closepath fill
	vpt 0 360 arc closepath} bind def
/C7 {BL [] 0 setdash 2 copy moveto
	2 copy vpt 0 270 arc closepath fill
	vpt 0 360 arc closepath} bind def
/C8 {BL [] 0 setdash 2 copy moveto
	2 copy vpt 270 360 arc closepath fill
	vpt 0 360 arc closepath} bind def
/C9 {BL [] 0 setdash 2 copy moveto
	2 copy vpt 270 450 arc closepath fill
	vpt 0 360 arc closepath} bind def
/C10 {BL [] 0 setdash 2 copy 2 copy moveto vpt 270 360 arc closepath fill
	2 copy moveto
	2 copy vpt 90 180 arc closepath fill
	vpt 0 360 arc closepath} bind def
/C11 {BL [] 0 setdash 2 copy moveto
	2 copy vpt 0 180 arc closepath fill
	2 copy moveto
	2 copy vpt 270 360 arc closepath fill
	vpt 0 360 arc closepath} bind def
/C12 {BL [] 0 setdash 2 copy moveto
	2 copy vpt 180 360 arc closepath fill
	vpt 0 360 arc closepath} bind def
/C13 {BL [] 0 setdash 2 copy moveto
	2 copy vpt 0 90 arc closepath fill
	2 copy moveto
	2 copy vpt 180 360 arc closepath fill
	vpt 0 360 arc closepath} bind def
/C14 {BL [] 0 setdash 2 copy moveto
	2 copy vpt 90 360 arc closepath fill
	vpt 0 360 arc} bind def
/C15 {BL [] 0 setdash 2 copy vpt 0 360 arc closepath fill
	vpt 0 360 arc closepath} bind def
/Rec {newpath 4 2 roll moveto 1 index 0 rlineto 0 exch rlineto
	neg 0 rlineto closepath} bind def
/Square {dup Rec} bind def
/Bsquare {vpt sub exch vpt sub exch vpt2 Square} bind def
/S0 {BL [] 0 setdash 2 copy moveto 0 vpt rlineto BL Bsquare} bind def
/S1 {BL [] 0 setdash 2 copy vpt Square fill Bsquare} bind def
/S2 {BL [] 0 setdash 2 copy exch vpt sub exch vpt Square fill Bsquare} bind def
/S3 {BL [] 0 setdash 2 copy exch vpt sub exch vpt2 vpt Rec fill Bsquare} bind def
/S4 {BL [] 0 setdash 2 copy exch vpt sub exch vpt sub vpt Square fill Bsquare} bind def
/S5 {BL [] 0 setdash 2 copy 2 copy vpt Square fill
	exch vpt sub exch vpt sub vpt Square fill Bsquare} bind def
/S6 {BL [] 0 setdash 2 copy exch vpt sub exch vpt sub vpt vpt2 Rec fill Bsquare} bind def
/S7 {BL [] 0 setdash 2 copy exch vpt sub exch vpt sub vpt vpt2 Rec fill
	2 copy vpt Square fill Bsquare} bind def
/S8 {BL [] 0 setdash 2 copy vpt sub vpt Square fill Bsquare} bind def
/S9 {BL [] 0 setdash 2 copy vpt sub vpt vpt2 Rec fill Bsquare} bind def
/S10 {BL [] 0 setdash 2 copy vpt sub vpt Square fill 2 copy exch vpt sub exch vpt Square fill
	Bsquare} bind def
/S11 {BL [] 0 setdash 2 copy vpt sub vpt Square fill 2 copy exch vpt sub exch vpt2 vpt Rec fill
	Bsquare} bind def
/S12 {BL [] 0 setdash 2 copy exch vpt sub exch vpt sub vpt2 vpt Rec fill Bsquare} bind def
/S13 {BL [] 0 setdash 2 copy exch vpt sub exch vpt sub vpt2 vpt Rec fill
	2 copy vpt Square fill Bsquare} bind def
/S14 {BL [] 0 setdash 2 copy exch vpt sub exch vpt sub vpt2 vpt Rec fill
	2 copy exch vpt sub exch vpt Square fill Bsquare} bind def
/S15 {BL [] 0 setdash 2 copy Bsquare fill Bsquare} bind def
/D0 {gsave translate 45 rotate 0 0 S0 stroke grestore} bind def
/D1 {gsave translate 45 rotate 0 0 S1 stroke grestore} bind def
/D2 {gsave translate 45 rotate 0 0 S2 stroke grestore} bind def
/D3 {gsave translate 45 rotate 0 0 S3 stroke grestore} bind def
/D4 {gsave translate 45 rotate 0 0 S4 stroke grestore} bind def
/D5 {gsave translate 45 rotate 0 0 S5 stroke grestore} bind def
/D6 {gsave translate 45 rotate 0 0 S6 stroke grestore} bind def
/D7 {gsave translate 45 rotate 0 0 S7 stroke grestore} bind def
/D8 {gsave translate 45 rotate 0 0 S8 stroke grestore} bind def
/D9 {gsave translate 45 rotate 0 0 S9 stroke grestore} bind def
/D10 {gsave translate 45 rotate 0 0 S10 stroke grestore} bind def
/D11 {gsave translate 45 rotate 0 0 S11 stroke grestore} bind def
/D12 {gsave translate 45 rotate 0 0 S12 stroke grestore} bind def
/D13 {gsave translate 45 rotate 0 0 S13 stroke grestore} bind def
/D14 {gsave translate 45 rotate 0 0 S14 stroke grestore} bind def
/D15 {gsave translate 45 rotate 0 0 S15 stroke grestore} bind def
/DiaE {stroke [] 0 setdash vpt add M
  hpt neg vpt neg V hpt vpt neg V
  hpt vpt V hpt neg vpt V closepath stroke} def
/BoxE {stroke [] 0 setdash exch hpt sub exch vpt add M
  0 vpt2 neg V hpt2 0 V 0 vpt2 V
  hpt2 neg 0 V closepath stroke} def
/TriUE {stroke [] 0 setdash vpt 1.12 mul add M
  hpt neg vpt -1.62 mul V
  hpt 2 mul 0 V
  hpt neg vpt 1.62 mul V closepath stroke} def
/TriDE {stroke [] 0 setdash vpt 1.12 mul sub M
  hpt neg vpt 1.62 mul V
  hpt 2 mul 0 V
  hpt neg vpt -1.62 mul V closepath stroke} def
/PentE {stroke [] 0 setdash gsave
  translate 0 hpt M 4 {72 rotate 0 hpt L} repeat
  closepath stroke grestore} def
/CircE {stroke [] 0 setdash 
  hpt 0 360 arc stroke} def
/Opaque {gsave closepath 1 setgray fill grestore 0 setgray closepath} def
/DiaW {stroke [] 0 setdash vpt add M
  hpt neg vpt neg V hpt vpt neg V
  hpt vpt V hpt neg vpt V Opaque stroke} def
/BoxW {stroke [] 0 setdash exch hpt sub exch vpt add M
  0 vpt2 neg V hpt2 0 V 0 vpt2 V
  hpt2 neg 0 V Opaque stroke} def
/TriUW {stroke [] 0 setdash vpt 1.12 mul add M
  hpt neg vpt -1.62 mul V
  hpt 2 mul 0 V
  hpt neg vpt 1.62 mul V Opaque stroke} def
/TriDW {stroke [] 0 setdash vpt 1.12 mul sub M
  hpt neg vpt 1.62 mul V
  hpt 2 mul 0 V
  hpt neg vpt -1.62 mul V Opaque stroke} def
/PentW {stroke [] 0 setdash gsave
  translate 0 hpt M 4 {72 rotate 0 hpt L} repeat
  Opaque stroke grestore} def
/CircW {stroke [] 0 setdash 
  hpt 0 360 arc Opaque stroke} def
/BoxFill {gsave Rec 1 setgray fill grestore} def
/Density {
  /Fillden exch def
  currentrgbcolor
  /ColB exch def /ColG exch def /ColR exch def
  /ColR ColR Fillden mul Fillden sub 1 add def
  /ColG ColG Fillden mul Fillden sub 1 add def
  /ColB ColB Fillden mul Fillden sub 1 add def
  ColR ColG ColB setrgbcolor} def
/BoxColFill {gsave Rec PolyFill} def
/PolyFill {gsave Density fill grestore grestore} def
/h {rlineto rlineto rlineto gsave closepath fill grestore} bind def
%
% PostScript Level 1 Pattern Fill routine for rectangles
% Usage: x y w h s a XX PatternFill
%	x,y = lower left corner of box to be filled
%	w,h = width and height of box
%	  a = angle in degrees between lines and x-axis
%	 XX = 0/1 for no/yes cross-hatch
%
/PatternFill {gsave /PFa [ 9 2 roll ] def
  PFa 0 get PFa 2 get 2 div add PFa 1 get PFa 3 get 2 div add translate
  PFa 2 get -2 div PFa 3 get -2 div PFa 2 get PFa 3 get Rec
  TransparentPatterns {} {gsave 1 setgray fill grestore} ifelse
  clip
  currentlinewidth 0.5 mul setlinewidth
  /PFs PFa 2 get dup mul PFa 3 get dup mul add sqrt def
  0 0 M PFa 5 get rotate PFs -2 div dup translate
  0 1 PFs PFa 4 get div 1 add floor cvi
	{PFa 4 get mul 0 M 0 PFs V} for
  0 PFa 6 get ne {
	0 1 PFs PFa 4 get div 1 add floor cvi
	{PFa 4 get mul 0 2 1 roll M PFs 0 V} for
 } if
  stroke grestore} def
%
/languagelevel where
 {pop languagelevel} {1} ifelse
dup 2 lt
	{/InterpretLevel1 true def
	 /InterpretLevel3 false def}
	{/InterpretLevel1 Level1 def
	 2 gt
	    {/InterpretLevel3 Level3 def}
	    {/InterpretLevel3 false def}
	 ifelse }
 ifelse
%
% PostScript level 2 pattern fill definitions
%
/Level2PatternFill {
/Tile8x8 {/PaintType 2 /PatternType 1 /TilingType 1 /BBox [0 0 8 8] /XStep 8 /YStep 8}
	bind def
/KeepColor {currentrgbcolor [/Pattern /DeviceRGB] setcolorspace} bind def
<< Tile8x8
 /PaintProc {0.5 setlinewidth pop 0 0 M 8 8 L 0 8 M 8 0 L stroke} 
>> matrix makepattern
/Pat1 exch def
<< Tile8x8
 /PaintProc {0.5 setlinewidth pop 0 0 M 8 8 L 0 8 M 8 0 L stroke
	0 4 M 4 8 L 8 4 L 4 0 L 0 4 L stroke}
>> matrix makepattern
/Pat2 exch def
<< Tile8x8
 /PaintProc {0.5 setlinewidth pop 0 0 M 0 8 L
	8 8 L 8 0 L 0 0 L fill}
>> matrix makepattern
/Pat3 exch def
<< Tile8x8
 /PaintProc {0.5 setlinewidth pop -4 8 M 8 -4 L
	0 12 M 12 0 L stroke}
>> matrix makepattern
/Pat4 exch def
<< Tile8x8
 /PaintProc {0.5 setlinewidth pop -4 0 M 8 12 L
	0 -4 M 12 8 L stroke}
>> matrix makepattern
/Pat5 exch def
<< Tile8x8
 /PaintProc {0.5 setlinewidth pop -2 8 M 4 -4 L
	0 12 M 8 -4 L 4 12 M 10 0 L stroke}
>> matrix makepattern
/Pat6 exch def
<< Tile8x8
 /PaintProc {0.5 setlinewidth pop -2 0 M 4 12 L
	0 -4 M 8 12 L 4 -4 M 10 8 L stroke}
>> matrix makepattern
/Pat7 exch def
<< Tile8x8
 /PaintProc {0.5 setlinewidth pop 8 -2 M -4 4 L
	12 0 M -4 8 L 12 4 M 0 10 L stroke}
>> matrix makepattern
/Pat8 exch def
<< Tile8x8
 /PaintProc {0.5 setlinewidth pop 0 -2 M 12 4 L
	-4 0 M 12 8 L -4 4 M 8 10 L stroke}
>> matrix makepattern
/Pat9 exch def
/Pattern1 {PatternBgnd KeepColor Pat1 setpattern} bind def
/Pattern2 {PatternBgnd KeepColor Pat2 setpattern} bind def
/Pattern3 {PatternBgnd KeepColor Pat3 setpattern} bind def
/Pattern4 {PatternBgnd KeepColor Landscape {Pat5} {Pat4} ifelse setpattern} bind def
/Pattern5 {PatternBgnd KeepColor Landscape {Pat4} {Pat5} ifelse setpattern} bind def
/Pattern6 {PatternBgnd KeepColor Landscape {Pat9} {Pat6} ifelse setpattern} bind def
/Pattern7 {PatternBgnd KeepColor Landscape {Pat8} {Pat7} ifelse setpattern} bind def
} def
%
%
%End of PostScript Level 2 code
%
/PatternBgnd {
  TransparentPatterns {} {gsave 1 setgray fill grestore} ifelse
} def
%
% Substitute for Level 2 pattern fill codes with
% grayscale if Level 2 support is not selected.
%
/Level1PatternFill {
/Pattern1 {0.250 Density} bind def
/Pattern2 {0.500 Density} bind def
/Pattern3 {0.750 Density} bind def
/Pattern4 {0.125 Density} bind def
/Pattern5 {0.375 Density} bind def
/Pattern6 {0.625 Density} bind def
/Pattern7 {0.875 Density} bind def
} def
%
% Now test for support of Level 2 code
%
Level1 {Level1PatternFill} {Level2PatternFill} ifelse
%
/Symbol-Oblique /Symbol findfont [1 0 .167 1 0 0] makefont
dup length dict begin {1 index /FID eq {pop pop} {def} ifelse} forall
currentdict end definefont pop
%
/MFshow {
   { dup 5 get 3 ge
     { 5 get 3 eq {gsave} {grestore} ifelse }
     {dup dup 0 get findfont exch 1 get scalefont setfont
     [ currentpoint ] exch dup 2 get 0 exch R dup 5 get 2 ne {dup dup 6
     get exch 4 get {textshow} {stringwidth pop 0 R} ifelse }if dup 5 get 0 eq
     {dup 3 get {2 get neg 0 exch R pop} {pop aload pop M} ifelse} {dup 5
     get 1 eq {dup 2 get exch dup 3 get exch 6 get stringwidth pop -2 div
     dup 0 R} {dup 6 get stringwidth pop -2 div 0 R 6 get
     textshow 2 index {aload pop M neg 3 -1 roll neg R pop pop} {pop pop pop
     pop aload pop M} ifelse }ifelse }ifelse }
     ifelse }
   forall} def
/Gswidth {dup type /stringtype eq {stringwidth} {pop (n) stringwidth} ifelse} def
/MFwidth {0 exch { dup 5 get 3 ge { 5 get 3 eq { 0 } { pop } ifelse }
 {dup 3 get{dup dup 0 get findfont exch 1 get scalefont setfont
     6 get Gswidth pop add} {pop} ifelse} ifelse} forall} def
/MLshow { currentpoint stroke M
  0 exch R
  Blacktext {gsave 0 setgray MFshow grestore} {MFshow} ifelse } bind def
/MRshow { currentpoint stroke M
  exch dup MFwidth neg 3 -1 roll R
  Blacktext {gsave 0 setgray MFshow grestore} {MFshow} ifelse } bind def
/MCshow { currentpoint stroke M
  exch dup MFwidth -2 div 3 -1 roll R
  Blacktext {gsave 0 setgray MFshow grestore} {MFshow} ifelse } bind def
/XYsave    { [( ) 1 2 true false 3 ()] } bind def
/XYrestore { [( ) 1 2 true false 4 ()] } bind def
Level1 SuppressPDFMark or 
{} {
/SDict 10 dict def
systemdict /pdfmark known not {
  userdict /pdfmark systemdict /cleartomark get put
} if
SDict begin [
  /Title (packets-ip-s-log-packets-ip-ccdf-linlog.eps)
  /Subject (gnuplot plot)
  /Creator (gnuplot 5.0 patchlevel 3)
  /Author (tiphaine)
%  /Producer (gnuplot)
%  /Keywords ()
  /CreationDate (Mon May 29 11:05:48 2017)
  /DOCINFO pdfmark
end
} ifelse
%
% Support for boxed text - Ethan A Merritt May 2005
%
/InitTextBox { userdict /TBy2 3 -1 roll put userdict /TBx2 3 -1 roll put
           userdict /TBy1 3 -1 roll put userdict /TBx1 3 -1 roll put
	   /Boxing true def } def
/ExtendTextBox { Boxing
    { gsave dup false charpath pathbbox
      dup TBy2 gt {userdict /TBy2 3 -1 roll put} {pop} ifelse
      dup TBx2 gt {userdict /TBx2 3 -1 roll put} {pop} ifelse
      dup TBy1 lt {userdict /TBy1 3 -1 roll put} {pop} ifelse
      dup TBx1 lt {userdict /TBx1 3 -1 roll put} {pop} ifelse
      grestore } if } def
/PopTextBox { newpath TBx1 TBxmargin sub TBy1 TBymargin sub M
               TBx1 TBxmargin sub TBy2 TBymargin add L
	       TBx2 TBxmargin add TBy2 TBymargin add L
	       TBx2 TBxmargin add TBy1 TBymargin sub L closepath } def
/DrawTextBox { PopTextBox stroke /Boxing false def} def
/FillTextBox { gsave PopTextBox 1 1 1 setrgbcolor fill grestore /Boxing false def} def
0 0 0 0 InitTextBox
/TBxmargin 20 def
/TBymargin 20 def
/Boxing false def
/textshow { ExtendTextBox Gshow } def
%
% redundant definitions for compatibility with prologue.ps older than 5.0.2
/LTB {BL [] LCb DL} def
/LTb {PL [] LCb DL} def
end
%%EndProlog
%%Page: 1 1
gnudict begin
gsave
doclip
50 50 translate
0.100 0.100 scale
90 rotate
0 -5040 translate
0 setgray
newpath
(Helvetica) findfont 140 scalefont setfont
BackgroundColor 0 lt 3 1 roll 0 lt exch 0 lt or or not {gsave BackgroundColor C clippath fill grestore} if
1.000 UL
LTb
LCb setrgbcolor
798 280 M
63 0 V
6086 0 R
-63 0 V
stroke
714 280 M
[ [(Helvetica) 140.0 0.0 true true 0 ( 0.0001)]
] -46.7 MRshow
1.000 UL
LTb
LCb setrgbcolor
798 626 M
31 0 V
6118 0 R
-31 0 V
798 828 M
31 0 V
6118 0 R
-31 0 V
798 971 M
31 0 V
6118 0 R
-31 0 V
798 1082 M
31 0 V
6118 0 R
-31 0 V
798 1173 M
31 0 V
6118 0 R
-31 0 V
798 1250 M
31 0 V
6118 0 R
-31 0 V
798 1317 M
31 0 V
6118 0 R
-31 0 V
798 1375 M
31 0 V
6118 0 R
-31 0 V
798 1428 M
63 0 V
6086 0 R
-63 0 V
stroke
714 1428 M
[ [(Helvetica) 140.0 0.0 true true 0 ( 0.001)]
] -46.7 MRshow
1.000 UL
LTb
LCb setrgbcolor
798 1773 M
31 0 V
6118 0 R
-31 0 V
798 1975 M
31 0 V
6118 0 R
-31 0 V
798 2119 M
31 0 V
6118 0 R
-31 0 V
798 2230 M
31 0 V
6118 0 R
-31 0 V
798 2321 M
31 0 V
6118 0 R
-31 0 V
798 2398 M
31 0 V
6118 0 R
-31 0 V
798 2464 M
31 0 V
6118 0 R
-31 0 V
798 2523 M
31 0 V
6118 0 R
-31 0 V
798 2576 M
63 0 V
6086 0 R
-63 0 V
stroke
714 2576 M
[ [(Helvetica) 140.0 0.0 true true 0 ( 0.01)]
] -46.7 MRshow
1.000 UL
LTb
LCb setrgbcolor
798 2921 M
31 0 V
6118 0 R
-31 0 V
798 3123 M
31 0 V
6118 0 R
-31 0 V
798 3267 M
31 0 V
6118 0 R
-31 0 V
798 3378 M
31 0 V
6118 0 R
-31 0 V
798 3469 M
31 0 V
6118 0 R
-31 0 V
798 3545 M
31 0 V
6118 0 R
-31 0 V
798 3612 M
31 0 V
6118 0 R
-31 0 V
798 3671 M
31 0 V
6118 0 R
-31 0 V
798 3723 M
63 0 V
6086 0 R
-63 0 V
stroke
714 3723 M
[ [(Helvetica) 140.0 0.0 true true 0 ( 0.1)]
] -46.7 MRshow
1.000 UL
LTb
LCb setrgbcolor
798 4069 M
31 0 V
6118 0 R
-31 0 V
798 4271 M
31 0 V
6118 0 R
-31 0 V
798 4414 M
31 0 V
6118 0 R
-31 0 V
798 4525 M
31 0 V
6118 0 R
-31 0 V
798 4616 M
31 0 V
6118 0 R
-31 0 V
798 4693 M
31 0 V
6118 0 R
-31 0 V
798 4760 M
31 0 V
6118 0 R
-31 0 V
798 4818 M
31 0 V
6118 0 R
-31 0 V
798 4871 M
63 0 V
6086 0 R
-63 0 V
stroke
714 4871 M
[ [(Helvetica) 140.0 0.0 true true 0 ( 1)]
] -46.7 MRshow
1.000 UL
LTb
LCb setrgbcolor
798 280 M
0 63 V
0 4528 R
0 -63 V
stroke
798 140 M
[ [(Helvetica) 140.0 0.0 true true 0 ( 0)]
] -46.7 MCshow
1.000 UL
LTb
LCb setrgbcolor
1567 280 M
0 63 V
0 4528 R
0 -63 V
stroke
1567 140 M
[ [(Helvetica) 140.0 0.0 true true 0 ( 2x10)]
[(Helvetica) 112.0 70.0 true true 0 (7)]
] -60.7 MCshow
1.000 UL
LTb
LCb setrgbcolor
2335 280 M
0 63 V
0 4528 R
0 -63 V
stroke
2335 140 M
[ [(Helvetica) 140.0 0.0 true true 0 ( 4x10)]
[(Helvetica) 112.0 70.0 true true 0 (7)]
] -60.7 MCshow
1.000 UL
LTb
LCb setrgbcolor
3104 280 M
0 63 V
0 4528 R
0 -63 V
stroke
3104 140 M
[ [(Helvetica) 140.0 0.0 true true 0 ( 6x10)]
[(Helvetica) 112.0 70.0 true true 0 (7)]
] -60.7 MCshow
1.000 UL
LTb
LCb setrgbcolor
3873 280 M
0 63 V
0 4528 R
0 -63 V
stroke
3873 140 M
[ [(Helvetica) 140.0 0.0 true true 0 ( 8x10)]
[(Helvetica) 112.0 70.0 true true 0 (7)]
] -60.7 MCshow
1.000 UL
LTb
LCb setrgbcolor
4641 280 M
0 63 V
0 4528 R
0 -63 V
stroke
4641 140 M
[ [(Helvetica) 140.0 0.0 true true 0 ( 1x10)]
[(Helvetica) 112.0 70.0 true true 0 (8)]
] -60.7 MCshow
1.000 UL
LTb
LCb setrgbcolor
5410 280 M
0 63 V
0 4528 R
0 -63 V
stroke
5410 140 M
[ [(Helvetica) 140.0 0.0 true true 0 ( 1.2x10)]
[(Helvetica) 112.0 70.0 true true 0 (8)]
] -60.7 MCshow
1.000 UL
LTb
LCb setrgbcolor
6178 280 M
0 63 V
0 4528 R
0 -63 V
stroke
6178 140 M
[ [(Helvetica) 140.0 0.0 true true 0 ( 1.4x10)]
[(Helvetica) 112.0 70.0 true true 0 (8)]
] -60.7 MCshow
1.000 UL
LTb
LCb setrgbcolor
6947 280 M
0 63 V
0 4528 R
0 -63 V
stroke
6947 140 M
[ [(Helvetica) 140.0 0.0 true true 0 ( 1.6x10)]
[(Helvetica) 112.0 70.0 true true 0 (8)]
] -60.7 MCshow
1.000 UL
LTb
LCb setrgbcolor
1.000 UL
LTB
LCb setrgbcolor
798 4871 N
798 280 L
6149 0 V
0 4591 V
-6149 0 V
Z stroke
1.000 UP
1.000 UL
LTb
LCb setrgbcolor
% Begin plot #1
1.000 UP
1.000 UL
LTb
0.58 0.00 0.83 C 798 4871 Pls
798 4446 Pls
798 4445 Pls
798 4443 Pls
798 4441 Pls
798 4440 Pls
798 4438 Pls
798 4437 Pls
798 4436 Pls
798 4434 Pls
798 4433 Pls
798 4432 Pls
798 4431 Pls
798 4429 Pls
798 4428 Pls
798 4428 Pls
798 4427 Pls
798 4426 Pls
798 4425 Pls
798 4424 Pls
798 4423 Pls
798 4422 Pls
798 4421 Pls
798 4420 Pls
798 4419 Pls
798 4418 Pls
798 4418 Pls
798 4417 Pls
798 4415 Pls
798 4414 Pls
798 4412 Pls
798 4411 Pls
798 4410 Pls
798 4409 Pls
798 4408 Pls
798 4407 Pls
798 4406 Pls
798 4406 Pls
798 4405 Pls
798 4404 Pls
798 4403 Pls
798 4402 Pls
798 4401 Pls
798 4400 Pls
798 4399 Pls
798 4398 Pls
798 4397 Pls
798 4396 Pls
798 4395 Pls
798 4394 Pls
798 4393 Pls
798 4392 Pls
798 4391 Pls
798 4390 Pls
798 4389 Pls
798 4388 Pls
798 4387 Pls
798 4386 Pls
798 4385 Pls
798 4384 Pls
798 4383 Pls
798 4382 Pls
798 4381 Pls
798 4380 Pls
798 4380 Pls
798 4379 Pls
798 4378 Pls
798 4377 Pls
798 4376 Pls
798 4375 Pls
798 4374 Pls
798 4373 Pls
798 4372 Pls
798 4371 Pls
798 4370 Pls
798 4369 Pls
798 4367 Pls
798 4366 Pls
798 4365 Pls
798 4364 Pls
798 4363 Pls
798 4362 Pls
798 4361 Pls
798 4360 Pls
798 4359 Pls
798 4358 Pls
798 4357 Pls
798 4356 Pls
798 4355 Pls
798 4354 Pls
798 4353 Pls
798 4352 Pls
798 4351 Pls
798 4350 Pls
798 4349 Pls
798 4348 Pls
798 4347 Pls
798 4346 Pls
798 4345 Pls
798 4344 Pls
798 4343 Pls
798 4341 Pls
798 4340 Pls
798 4339 Pls
798 4338 Pls
798 4337 Pls
798 4336 Pls
798 4335 Pls
798 4334 Pls
798 4333 Pls
798 4332 Pls
798 4331 Pls
798 4330 Pls
798 4329 Pls
798 4327 Pls
798 4326 Pls
798 4325 Pls
798 4324 Pls
798 4323 Pls
798 4322 Pls
798 4321 Pls
798 4320 Pls
798 4319 Pls
798 4317 Pls
798 4316 Pls
798 4315 Pls
798 4314 Pls
798 4313 Pls
798 4312 Pls
798 4310 Pls
798 4308 Pls
798 4307 Pls
798 4306 Pls
798 4305 Pls
798 4304 Pls
798 4303 Pls
798 4302 Pls
798 4300 Pls
798 4299 Pls
798 4298 Pls
798 4297 Pls
798 4296 Pls
798 4295 Pls
798 4293 Pls
798 4292 Pls
798 4291 Pls
798 4290 Pls
798 4289 Pls
798 4287 Pls
798 4286 Pls
798 4285 Pls
798 4284 Pls
798 4283 Pls
798 4281 Pls
798 4280 Pls
798 4279 Pls
798 4278 Pls
798 4277 Pls
798 4275 Pls
798 4274 Pls
798 4273 Pls
798 4272 Pls
798 4270 Pls
798 4269 Pls
798 4268 Pls
798 4267 Pls
798 4266 Pls
798 4264 Pls
798 4263 Pls
798 4262 Pls
798 4261 Pls
798 4259 Pls
798 4258 Pls
798 4257 Pls
798 4256 Pls
798 4254 Pls
798 4253 Pls
798 4252 Pls
798 4250 Pls
798 4249 Pls
798 4248 Pls
798 4247 Pls
798 4245 Pls
798 4244 Pls
798 4243 Pls
798 4241 Pls
798 4240 Pls
798 4239 Pls
798 4237 Pls
798 4236 Pls
798 4235 Pls
798 4233 Pls
798 4232 Pls
798 4231 Pls
798 4229 Pls
798 4228 Pls
798 4227 Pls
798 4225 Pls
798 4224 Pls
798 4223 Pls
798 4221 Pls
798 4220 Pls
798 4219 Pls
798 4217 Pls
798 4216 Pls
798 4215 Pls
798 4213 Pls
798 4212 Pls
798 4210 Pls
798 4209 Pls
798 4208 Pls
798 4206 Pls
798 4205 Pls
798 4203 Pls
798 4202 Pls
798 4201 Pls
798 4199 Pls
798 4198 Pls
798 4196 Pls
798 4195 Pls
798 4193 Pls
798 4192 Pls
798 4191 Pls
798 4189 Pls
798 4188 Pls
798 4186 Pls
798 4185 Pls
798 4183 Pls
798 4182 Pls
798 4180 Pls
798 4179 Pls
798 4177 Pls
798 4176 Pls
798 4174 Pls
798 4173 Pls
798 4171 Pls
798 4170 Pls
798 4168 Pls
798 4167 Pls
798 4165 Pls
798 4164 Pls
798 4162 Pls
798 4161 Pls
798 4159 Pls
798 4158 Pls
798 4156 Pls
798 4155 Pls
798 4153 Pls
798 4152 Pls
798 4150 Pls
798 4148 Pls
798 4147 Pls
798 4145 Pls
798 4144 Pls
798 4142 Pls
798 4140 Pls
798 4139 Pls
798 4137 Pls
798 4136 Pls
798 4134 Pls
798 4132 Pls
798 4131 Pls
798 4129 Pls
798 4128 Pls
798 4126 Pls
798 4124 Pls
798 4123 Pls
798 4121 Pls
798 4119 Pls
798 4118 Pls
798 4116 Pls
798 4114 Pls
798 4113 Pls
798 4111 Pls
798 4109 Pls
798 4107 Pls
798 4106 Pls
798 4104 Pls
798 4102 Pls
798 4101 Pls
798 4099 Pls
799 4097 Pls
799 4095 Pls
799 4094 Pls
799 4092 Pls
799 4090 Pls
799 4088 Pls
799 4087 Pls
799 4085 Pls
799 4083 Pls
799 4081 Pls
799 4079 Pls
799 4078 Pls
799 4076 Pls
799 4074 Pls
799 4072 Pls
799 4070 Pls
799 4068 Pls
799 4067 Pls
799 4065 Pls
799 4063 Pls
799 4061 Pls
799 4059 Pls
799 4057 Pls
799 4053 Pls
799 4051 Pls
799 4050 Pls
799 4048 Pls
799 4046 Pls
799 4044 Pls
799 4042 Pls
799 4040 Pls
799 4038 Pls
799 4036 Pls
799 4034 Pls
799 4032 Pls
799 4030 Pls
799 4028 Pls
799 4026 Pls
799 4024 Pls
799 4022 Pls
799 4020 Pls
799 4018 Pls
799 4016 Pls
799 4014 Pls
799 4012 Pls
799 4010 Pls
799 4008 Pls
799 4006 Pls
799 4003 Pls
799 4001 Pls
799 3999 Pls
799 3997 Pls
799 3995 Pls
799 3993 Pls
799 3991 Pls
799 3988 Pls
799 3986 Pls
799 3984 Pls
799 3982 Pls
799 3980 Pls
799 3978 Pls
799 3975 Pls
799 3973 Pls
799 3971 Pls
799 3969 Pls
799 3966 Pls
799 3964 Pls
799 3962 Pls
799 3959 Pls
799 3957 Pls
799 3955 Pls
799 3953 Pls
799 3950 Pls
799 3948 Pls
799 3945 Pls
799 3943 Pls
799 3941 Pls
799 3938 Pls
799 3936 Pls
799 3934 Pls
799 3931 Pls
799 3929 Pls
799 3926 Pls
799 3924 Pls
799 3921 Pls
799 3919 Pls
799 3916 Pls
799 3914 Pls
799 3911 Pls
799 3909 Pls
799 3906 Pls
799 3904 Pls
799 3901 Pls
799 3898 Pls
799 3896 Pls
800 3893 Pls
800 3891 Pls
800 3888 Pls
800 3885 Pls
800 3883 Pls
800 3880 Pls
800 3877 Pls
800 3875 Pls
800 3872 Pls
800 3869 Pls
800 3866 Pls
800 3864 Pls
800 3861 Pls
800 3858 Pls
800 3855 Pls
800 3852 Pls
800 3849 Pls
800 3847 Pls
800 3844 Pls
800 3841 Pls
800 3838 Pls
800 3835 Pls
800 3832 Pls
800 3829 Pls
800 3826 Pls
800 3823 Pls
800 3820 Pls
800 3817 Pls
800 3814 Pls
801 3811 Pls
801 3808 Pls
801 3804 Pls
801 3801 Pls
801 3798 Pls
801 3795 Pls
801 3792 Pls
801 3789 Pls
801 3785 Pls
801 3782 Pls
801 3779 Pls
801 3775 Pls
801 3772 Pls
801 3769 Pls
802 3765 Pls
802 3762 Pls
802 3759 Pls
802 3755 Pls
802 3752 Pls
802 3748 Pls
802 3745 Pls
803 3741 Pls
803 3737 Pls
803 3734 Pls
803 3730 Pls
803 3727 Pls
803 3723 Pls
803 3719 Pls
803 3715 Pls
803 3712 Pls
803 3708 Pls
803 3704 Pls
804 3700 Pls
804 3696 Pls
804 3692 Pls
804 3688 Pls
804 3685 Pls
804 3681 Pls
804 3676 Pls
804 3672 Pls
805 3668 Pls
805 3664 Pls
805 3660 Pls
805 3656 Pls
805 3652 Pls
805 3647 Pls
805 3643 Pls
805 3639 Pls
805 3634 Pls
805 3630 Pls
806 3625 Pls
806 3621 Pls
806 3616 Pls
806 3612 Pls
806 3607 Pls
806 3602 Pls
806 3598 Pls
807 3593 Pls
807 3588 Pls
807 3583 Pls
807 3578 Pls
808 3573 Pls
809 3568 Pls
809 3563 Pls
809 3558 Pls
810 3553 Pls
810 3548 Pls
810 3542 Pls
810 3537 Pls
811 3532 Pls
811 3526 Pls
811 3521 Pls
811 3515 Pls
811 3510 Pls
812 3504 Pls
813 3498 Pls
814 3492 Pls
814 3486 Pls
814 3480 Pls
814 3474 Pls
815 3468 Pls
815 3462 Pls
815 3456 Pls
816 3449 Pls
816 3443 Pls
817 3436 Pls
817 3430 Pls
818 3423 Pls
819 3416 Pls
820 3410 Pls
820 3403 Pls
820 3396 Pls
821 3388 Pls
822 3381 Pls
822 3374 Pls
822 3366 Pls
822 3359 Pls
823 3351 Pls
824 3343 Pls
824 3335 Pls
824 3327 Pls
824 3319 Pls
825 3310 Pls
826 3302 Pls
826 3293 Pls
826 3284 Pls
827 3275 Pls
827 3266 Pls
828 3257 Pls
828 3247 Pls
828 3238 Pls
828 3228 Pls
829 3218 Pls
829 3207 Pls
829 3197 Pls
830 3186 Pls
830 3175 Pls
832 3164 Pls
834 3153 Pls
835 3141 Pls
836 3129 Pls
841 3117 Pls
844 3104 Pls
845 3091 Pls
848 3078 Pls
848 3064 Pls
849 3050 Pls
855 3036 Pls
863 3021 Pls
867 3005 Pls
871 2990 Pls
878 2973 Pls
882 2956 Pls
896 2939 Pls
897 2921 Pls
905 2902 Pls
912 2882 Pls
915 2862 Pls
915 2841 Pls
936 2819 Pls
954 2795 Pls
954 2771 Pls
954 2745 Pls
956 2719 Pls
961 2690 Pls
994 2660 Pls
1028 2628 Pls
1029 2593 Pls
1036 2556 Pls
1043 2516 Pls
1052 2473 Pls
1097 2426 Pls
1282 2373 Pls
1309 2314 Pls
1736 2248 Pls
1748 2171 Pls
1900 2080 Pls
2371 1969 Pls
2831 1825 Pls
2916 1623 Pls
6455 1278 Pls
% End plot #1
2.000 UL
LTb
LCb setrgbcolor
1.000 UL
LTB
LCb setrgbcolor
798 4871 N
798 280 L
6149 0 V
0 4591 V
-6149 0 V
Z stroke
1.000 UP
1.000 UL
LTb
LCb setrgbcolor
stroke
grestore
end
showpage
%%Trailer
%%DocumentFonts: Helvetica
%%Pages: 1
