%!PS-Adobe-2.0
%%Title: packets-ip-s-log-packets-ip-ccdf-loglin.eps
%%Creator: gnuplot 5.0 patchlevel 3
%%CreationDate: Mon May 29 11:05:48 2017
%%DocumentFonts: (atend)
%%BoundingBox: 50 50 554 770
%%Orientation: Landscape
%%Pages: (atend)
%%EndComments
%%BeginProlog
/gnudict 256 dict def
gnudict begin
%
% The following true/false flags may be edited by hand if desired.
% The unit line width and grayscale image gamma correction may also be changed.
%
/Color true def
/Blacktext false def
/Solid false def
/Dashlength 1 def
/Landscape true def
/Level1 false def
/Level3 false def
/Rounded false def
/ClipToBoundingBox false def
/SuppressPDFMark false def
/TransparentPatterns false def
/gnulinewidth 5.000 def
/userlinewidth gnulinewidth def
/Gamma 1.0 def
/BackgroundColor {-1.000 -1.000 -1.000} def
%
/vshift -46 def
/dl1 {
  10.0 Dashlength userlinewidth gnulinewidth div mul mul mul
  Rounded { currentlinewidth 0.75 mul sub dup 0 le { pop 0.01 } if } if
} def
/dl2 {
  10.0 Dashlength userlinewidth gnulinewidth div mul mul mul
  Rounded { currentlinewidth 0.75 mul add } if
} def
/hpt_ 31.5 def
/vpt_ 31.5 def
/hpt hpt_ def
/vpt vpt_ def
/doclip {
  ClipToBoundingBox {
    newpath 50 50 moveto 554 50 lineto 554 770 lineto 50 770 lineto closepath
    clip
  } if
} def
%
% Gnuplot Prolog Version 5.1 (Oct 2015)
%
%/SuppressPDFMark true def
%
/M {moveto} bind def
/L {lineto} bind def
/R {rmoveto} bind def
/V {rlineto} bind def
/N {newpath moveto} bind def
/Z {closepath} bind def
/C {setrgbcolor} bind def
/f {rlineto fill} bind def
/g {setgray} bind def
/Gshow {show} def   % May be redefined later in the file to support UTF-8
/vpt2 vpt 2 mul def
/hpt2 hpt 2 mul def
/Lshow {currentpoint stroke M 0 vshift R 
	Blacktext {gsave 0 setgray textshow grestore} {textshow} ifelse} def
/Rshow {currentpoint stroke M dup stringwidth pop neg vshift R
	Blacktext {gsave 0 setgray textshow grestore} {textshow} ifelse} def
/Cshow {currentpoint stroke M dup stringwidth pop -2 div vshift R 
	Blacktext {gsave 0 setgray textshow grestore} {textshow} ifelse} def
/UP {dup vpt_ mul /vpt exch def hpt_ mul /hpt exch def
  /hpt2 hpt 2 mul def /vpt2 vpt 2 mul def} def
/DL {Color {setrgbcolor Solid {pop []} if 0 setdash}
 {pop pop pop 0 setgray Solid {pop []} if 0 setdash} ifelse} def
/BL {stroke userlinewidth 2 mul setlinewidth
	Rounded {1 setlinejoin 1 setlinecap} if} def
/AL {stroke userlinewidth 2 div setlinewidth
	Rounded {1 setlinejoin 1 setlinecap} if} def
/UL {dup gnulinewidth mul /userlinewidth exch def
	dup 1 lt {pop 1} if 10 mul /udl exch def} def
/PL {stroke userlinewidth setlinewidth
	Rounded {1 setlinejoin 1 setlinecap} if} def
3.8 setmiterlimit
% Classic Line colors (version 5.0)
/LCw {1 1 1} def
/LCb {0 0 0} def
/LCa {0 0 0} def
/LC0 {1 0 0} def
/LC1 {0 1 0} def
/LC2 {0 0 1} def
/LC3 {1 0 1} def
/LC4 {0 1 1} def
/LC5 {1 1 0} def
/LC6 {0 0 0} def
/LC7 {1 0.3 0} def
/LC8 {0.5 0.5 0.5} def
% Default dash patterns (version 5.0)
/LTB {BL [] LCb DL} def
/LTw {PL [] 1 setgray} def
/LTb {PL [] LCb DL} def
/LTa {AL [1 udl mul 2 udl mul] 0 setdash LCa setrgbcolor} def
/LT0 {PL [] LC0 DL} def
/LT1 {PL [2 dl1 3 dl2] LC1 DL} def
/LT2 {PL [1 dl1 1.5 dl2] LC2 DL} def
/LT3 {PL [6 dl1 2 dl2 1 dl1 2 dl2] LC3 DL} def
/LT4 {PL [1 dl1 2 dl2 6 dl1 2 dl2 1 dl1 2 dl2] LC4 DL} def
/LT5 {PL [4 dl1 2 dl2] LC5 DL} def
/LT6 {PL [1.5 dl1 1.5 dl2 1.5 dl1 1.5 dl2 1.5 dl1 6 dl2] LC6 DL} def
/LT7 {PL [3 dl1 3 dl2 1 dl1 3 dl2] LC7 DL} def
/LT8 {PL [2 dl1 2 dl2 2 dl1 6 dl2] LC8 DL} def
/SL {[] 0 setdash} def
/Pnt {stroke [] 0 setdash gsave 1 setlinecap M 0 0 V stroke grestore} def
/Dia {stroke [] 0 setdash 2 copy vpt add M
  hpt neg vpt neg V hpt vpt neg V
  hpt vpt V hpt neg vpt V closepath stroke
  Pnt} def
/Pls {stroke [] 0 setdash vpt sub M 0 vpt2 V
  currentpoint stroke M
  hpt neg vpt neg R hpt2 0 V stroke
 } def
/Box {stroke [] 0 setdash 2 copy exch hpt sub exch vpt add M
  0 vpt2 neg V hpt2 0 V 0 vpt2 V
  hpt2 neg 0 V closepath stroke
  Pnt} def
/Crs {stroke [] 0 setdash exch hpt sub exch vpt add M
  hpt2 vpt2 neg V currentpoint stroke M
  hpt2 neg 0 R hpt2 vpt2 V stroke} def
/TriU {stroke [] 0 setdash 2 copy vpt 1.12 mul add M
  hpt neg vpt -1.62 mul V
  hpt 2 mul 0 V
  hpt neg vpt 1.62 mul V closepath stroke
  Pnt} def
/Star {2 copy Pls Crs} def
/BoxF {stroke [] 0 setdash exch hpt sub exch vpt add M
  0 vpt2 neg V hpt2 0 V 0 vpt2 V
  hpt2 neg 0 V closepath fill} def
/TriUF {stroke [] 0 setdash vpt 1.12 mul add M
  hpt neg vpt -1.62 mul V
  hpt 2 mul 0 V
  hpt neg vpt 1.62 mul V closepath fill} def
/TriD {stroke [] 0 setdash 2 copy vpt 1.12 mul sub M
  hpt neg vpt 1.62 mul V
  hpt 2 mul 0 V
  hpt neg vpt -1.62 mul V closepath stroke
  Pnt} def
/TriDF {stroke [] 0 setdash vpt 1.12 mul sub M
  hpt neg vpt 1.62 mul V
  hpt 2 mul 0 V
  hpt neg vpt -1.62 mul V closepath fill} def
/DiaF {stroke [] 0 setdash vpt add M
  hpt neg vpt neg V hpt vpt neg V
  hpt vpt V hpt neg vpt V closepath fill} def
/Pent {stroke [] 0 setdash 2 copy gsave
  translate 0 hpt M 4 {72 rotate 0 hpt L} repeat
  closepath stroke grestore Pnt} def
/PentF {stroke [] 0 setdash gsave
  translate 0 hpt M 4 {72 rotate 0 hpt L} repeat
  closepath fill grestore} def
/Circle {stroke [] 0 setdash 2 copy
  hpt 0 360 arc stroke Pnt} def
/CircleF {stroke [] 0 setdash hpt 0 360 arc fill} def
/C0 {BL [] 0 setdash 2 copy moveto vpt 90 450 arc} bind def
/C1 {BL [] 0 setdash 2 copy moveto
	2 copy vpt 0 90 arc closepath fill
	vpt 0 360 arc closepath} bind def
/C2 {BL [] 0 setdash 2 copy moveto
	2 copy vpt 90 180 arc closepath fill
	vpt 0 360 arc closepath} bind def
/C3 {BL [] 0 setdash 2 copy moveto
	2 copy vpt 0 180 arc closepath fill
	vpt 0 360 arc closepath} bind def
/C4 {BL [] 0 setdash 2 copy moveto
	2 copy vpt 180 270 arc closepath fill
	vpt 0 360 arc closepath} bind def
/C5 {BL [] 0 setdash 2 copy moveto
	2 copy vpt 0 90 arc
	2 copy moveto
	2 copy vpt 180 270 arc closepath fill
	vpt 0 360 arc} bind def
/C6 {BL [] 0 setdash 2 copy moveto
	2 copy vpt 90 270 arc closepath fill
	vpt 0 360 arc closepath} bind def
/C7 {BL [] 0 setdash 2 copy moveto
	2 copy vpt 0 270 arc closepath fill
	vpt 0 360 arc closepath} bind def
/C8 {BL [] 0 setdash 2 copy moveto
	2 copy vpt 270 360 arc closepath fill
	vpt 0 360 arc closepath} bind def
/C9 {BL [] 0 setdash 2 copy moveto
	2 copy vpt 270 450 arc closepath fill
	vpt 0 360 arc closepath} bind def
/C10 {BL [] 0 setdash 2 copy 2 copy moveto vpt 270 360 arc closepath fill
	2 copy moveto
	2 copy vpt 90 180 arc closepath fill
	vpt 0 360 arc closepath} bind def
/C11 {BL [] 0 setdash 2 copy moveto
	2 copy vpt 0 180 arc closepath fill
	2 copy moveto
	2 copy vpt 270 360 arc closepath fill
	vpt 0 360 arc closepath} bind def
/C12 {BL [] 0 setdash 2 copy moveto
	2 copy vpt 180 360 arc closepath fill
	vpt 0 360 arc closepath} bind def
/C13 {BL [] 0 setdash 2 copy moveto
	2 copy vpt 0 90 arc closepath fill
	2 copy moveto
	2 copy vpt 180 360 arc closepath fill
	vpt 0 360 arc closepath} bind def
/C14 {BL [] 0 setdash 2 copy moveto
	2 copy vpt 90 360 arc closepath fill
	vpt 0 360 arc} bind def
/C15 {BL [] 0 setdash 2 copy vpt 0 360 arc closepath fill
	vpt 0 360 arc closepath} bind def
/Rec {newpath 4 2 roll moveto 1 index 0 rlineto 0 exch rlineto
	neg 0 rlineto closepath} bind def
/Square {dup Rec} bind def
/Bsquare {vpt sub exch vpt sub exch vpt2 Square} bind def
/S0 {BL [] 0 setdash 2 copy moveto 0 vpt rlineto BL Bsquare} bind def
/S1 {BL [] 0 setdash 2 copy vpt Square fill Bsquare} bind def
/S2 {BL [] 0 setdash 2 copy exch vpt sub exch vpt Square fill Bsquare} bind def
/S3 {BL [] 0 setdash 2 copy exch vpt sub exch vpt2 vpt Rec fill Bsquare} bind def
/S4 {BL [] 0 setdash 2 copy exch vpt sub exch vpt sub vpt Square fill Bsquare} bind def
/S5 {BL [] 0 setdash 2 copy 2 copy vpt Square fill
	exch vpt sub exch vpt sub vpt Square fill Bsquare} bind def
/S6 {BL [] 0 setdash 2 copy exch vpt sub exch vpt sub vpt vpt2 Rec fill Bsquare} bind def
/S7 {BL [] 0 setdash 2 copy exch vpt sub exch vpt sub vpt vpt2 Rec fill
	2 copy vpt Square fill Bsquare} bind def
/S8 {BL [] 0 setdash 2 copy vpt sub vpt Square fill Bsquare} bind def
/S9 {BL [] 0 setdash 2 copy vpt sub vpt vpt2 Rec fill Bsquare} bind def
/S10 {BL [] 0 setdash 2 copy vpt sub vpt Square fill 2 copy exch vpt sub exch vpt Square fill
	Bsquare} bind def
/S11 {BL [] 0 setdash 2 copy vpt sub vpt Square fill 2 copy exch vpt sub exch vpt2 vpt Rec fill
	Bsquare} bind def
/S12 {BL [] 0 setdash 2 copy exch vpt sub exch vpt sub vpt2 vpt Rec fill Bsquare} bind def
/S13 {BL [] 0 setdash 2 copy exch vpt sub exch vpt sub vpt2 vpt Rec fill
	2 copy vpt Square fill Bsquare} bind def
/S14 {BL [] 0 setdash 2 copy exch vpt sub exch vpt sub vpt2 vpt Rec fill
	2 copy exch vpt sub exch vpt Square fill Bsquare} bind def
/S15 {BL [] 0 setdash 2 copy Bsquare fill Bsquare} bind def
/D0 {gsave translate 45 rotate 0 0 S0 stroke grestore} bind def
/D1 {gsave translate 45 rotate 0 0 S1 stroke grestore} bind def
/D2 {gsave translate 45 rotate 0 0 S2 stroke grestore} bind def
/D3 {gsave translate 45 rotate 0 0 S3 stroke grestore} bind def
/D4 {gsave translate 45 rotate 0 0 S4 stroke grestore} bind def
/D5 {gsave translate 45 rotate 0 0 S5 stroke grestore} bind def
/D6 {gsave translate 45 rotate 0 0 S6 stroke grestore} bind def
/D7 {gsave translate 45 rotate 0 0 S7 stroke grestore} bind def
/D8 {gsave translate 45 rotate 0 0 S8 stroke grestore} bind def
/D9 {gsave translate 45 rotate 0 0 S9 stroke grestore} bind def
/D10 {gsave translate 45 rotate 0 0 S10 stroke grestore} bind def
/D11 {gsave translate 45 rotate 0 0 S11 stroke grestore} bind def
/D12 {gsave translate 45 rotate 0 0 S12 stroke grestore} bind def
/D13 {gsave translate 45 rotate 0 0 S13 stroke grestore} bind def
/D14 {gsave translate 45 rotate 0 0 S14 stroke grestore} bind def
/D15 {gsave translate 45 rotate 0 0 S15 stroke grestore} bind def
/DiaE {stroke [] 0 setdash vpt add M
  hpt neg vpt neg V hpt vpt neg V
  hpt vpt V hpt neg vpt V closepath stroke} def
/BoxE {stroke [] 0 setdash exch hpt sub exch vpt add M
  0 vpt2 neg V hpt2 0 V 0 vpt2 V
  hpt2 neg 0 V closepath stroke} def
/TriUE {stroke [] 0 setdash vpt 1.12 mul add M
  hpt neg vpt -1.62 mul V
  hpt 2 mul 0 V
  hpt neg vpt 1.62 mul V closepath stroke} def
/TriDE {stroke [] 0 setdash vpt 1.12 mul sub M
  hpt neg vpt 1.62 mul V
  hpt 2 mul 0 V
  hpt neg vpt -1.62 mul V closepath stroke} def
/PentE {stroke [] 0 setdash gsave
  translate 0 hpt M 4 {72 rotate 0 hpt L} repeat
  closepath stroke grestore} def
/CircE {stroke [] 0 setdash 
  hpt 0 360 arc stroke} def
/Opaque {gsave closepath 1 setgray fill grestore 0 setgray closepath} def
/DiaW {stroke [] 0 setdash vpt add M
  hpt neg vpt neg V hpt vpt neg V
  hpt vpt V hpt neg vpt V Opaque stroke} def
/BoxW {stroke [] 0 setdash exch hpt sub exch vpt add M
  0 vpt2 neg V hpt2 0 V 0 vpt2 V
  hpt2 neg 0 V Opaque stroke} def
/TriUW {stroke [] 0 setdash vpt 1.12 mul add M
  hpt neg vpt -1.62 mul V
  hpt 2 mul 0 V
  hpt neg vpt 1.62 mul V Opaque stroke} def
/TriDW {stroke [] 0 setdash vpt 1.12 mul sub M
  hpt neg vpt 1.62 mul V
  hpt 2 mul 0 V
  hpt neg vpt -1.62 mul V Opaque stroke} def
/PentW {stroke [] 0 setdash gsave
  translate 0 hpt M 4 {72 rotate 0 hpt L} repeat
  Opaque stroke grestore} def
/CircW {stroke [] 0 setdash 
  hpt 0 360 arc Opaque stroke} def
/BoxFill {gsave Rec 1 setgray fill grestore} def
/Density {
  /Fillden exch def
  currentrgbcolor
  /ColB exch def /ColG exch def /ColR exch def
  /ColR ColR Fillden mul Fillden sub 1 add def
  /ColG ColG Fillden mul Fillden sub 1 add def
  /ColB ColB Fillden mul Fillden sub 1 add def
  ColR ColG ColB setrgbcolor} def
/BoxColFill {gsave Rec PolyFill} def
/PolyFill {gsave Density fill grestore grestore} def
/h {rlineto rlineto rlineto gsave closepath fill grestore} bind def
%
% PostScript Level 1 Pattern Fill routine for rectangles
% Usage: x y w h s a XX PatternFill
%	x,y = lower left corner of box to be filled
%	w,h = width and height of box
%	  a = angle in degrees between lines and x-axis
%	 XX = 0/1 for no/yes cross-hatch
%
/PatternFill {gsave /PFa [ 9 2 roll ] def
  PFa 0 get PFa 2 get 2 div add PFa 1 get PFa 3 get 2 div add translate
  PFa 2 get -2 div PFa 3 get -2 div PFa 2 get PFa 3 get Rec
  TransparentPatterns {} {gsave 1 setgray fill grestore} ifelse
  clip
  currentlinewidth 0.5 mul setlinewidth
  /PFs PFa 2 get dup mul PFa 3 get dup mul add sqrt def
  0 0 M PFa 5 get rotate PFs -2 div dup translate
  0 1 PFs PFa 4 get div 1 add floor cvi
	{PFa 4 get mul 0 M 0 PFs V} for
  0 PFa 6 get ne {
	0 1 PFs PFa 4 get div 1 add floor cvi
	{PFa 4 get mul 0 2 1 roll M PFs 0 V} for
 } if
  stroke grestore} def
%
/languagelevel where
 {pop languagelevel} {1} ifelse
dup 2 lt
	{/InterpretLevel1 true def
	 /InterpretLevel3 false def}
	{/InterpretLevel1 Level1 def
	 2 gt
	    {/InterpretLevel3 Level3 def}
	    {/InterpretLevel3 false def}
	 ifelse }
 ifelse
%
% PostScript level 2 pattern fill definitions
%
/Level2PatternFill {
/Tile8x8 {/PaintType 2 /PatternType 1 /TilingType 1 /BBox [0 0 8 8] /XStep 8 /YStep 8}
	bind def
/KeepColor {currentrgbcolor [/Pattern /DeviceRGB] setcolorspace} bind def
<< Tile8x8
 /PaintProc {0.5 setlinewidth pop 0 0 M 8 8 L 0 8 M 8 0 L stroke} 
>> matrix makepattern
/Pat1 exch def
<< Tile8x8
 /PaintProc {0.5 setlinewidth pop 0 0 M 8 8 L 0 8 M 8 0 L stroke
	0 4 M 4 8 L 8 4 L 4 0 L 0 4 L stroke}
>> matrix makepattern
/Pat2 exch def
<< Tile8x8
 /PaintProc {0.5 setlinewidth pop 0 0 M 0 8 L
	8 8 L 8 0 L 0 0 L fill}
>> matrix makepattern
/Pat3 exch def
<< Tile8x8
 /PaintProc {0.5 setlinewidth pop -4 8 M 8 -4 L
	0 12 M 12 0 L stroke}
>> matrix makepattern
/Pat4 exch def
<< Tile8x8
 /PaintProc {0.5 setlinewidth pop -4 0 M 8 12 L
	0 -4 M 12 8 L stroke}
>> matrix makepattern
/Pat5 exch def
<< Tile8x8
 /PaintProc {0.5 setlinewidth pop -2 8 M 4 -4 L
	0 12 M 8 -4 L 4 12 M 10 0 L stroke}
>> matrix makepattern
/Pat6 exch def
<< Tile8x8
 /PaintProc {0.5 setlinewidth pop -2 0 M 4 12 L
	0 -4 M 8 12 L 4 -4 M 10 8 L stroke}
>> matrix makepattern
/Pat7 exch def
<< Tile8x8
 /PaintProc {0.5 setlinewidth pop 8 -2 M -4 4 L
	12 0 M -4 8 L 12 4 M 0 10 L stroke}
>> matrix makepattern
/Pat8 exch def
<< Tile8x8
 /PaintProc {0.5 setlinewidth pop 0 -2 M 12 4 L
	-4 0 M 12 8 L -4 4 M 8 10 L stroke}
>> matrix makepattern
/Pat9 exch def
/Pattern1 {PatternBgnd KeepColor Pat1 setpattern} bind def
/Pattern2 {PatternBgnd KeepColor Pat2 setpattern} bind def
/Pattern3 {PatternBgnd KeepColor Pat3 setpattern} bind def
/Pattern4 {PatternBgnd KeepColor Landscape {Pat5} {Pat4} ifelse setpattern} bind def
/Pattern5 {PatternBgnd KeepColor Landscape {Pat4} {Pat5} ifelse setpattern} bind def
/Pattern6 {PatternBgnd KeepColor Landscape {Pat9} {Pat6} ifelse setpattern} bind def
/Pattern7 {PatternBgnd KeepColor Landscape {Pat8} {Pat7} ifelse setpattern} bind def
} def
%
%
%End of PostScript Level 2 code
%
/PatternBgnd {
  TransparentPatterns {} {gsave 1 setgray fill grestore} ifelse
} def
%
% Substitute for Level 2 pattern fill codes with
% grayscale if Level 2 support is not selected.
%
/Level1PatternFill {
/Pattern1 {0.250 Density} bind def
/Pattern2 {0.500 Density} bind def
/Pattern3 {0.750 Density} bind def
/Pattern4 {0.125 Density} bind def
/Pattern5 {0.375 Density} bind def
/Pattern6 {0.625 Density} bind def
/Pattern7 {0.875 Density} bind def
} def
%
% Now test for support of Level 2 code
%
Level1 {Level1PatternFill} {Level2PatternFill} ifelse
%
/Symbol-Oblique /Symbol findfont [1 0 .167 1 0 0] makefont
dup length dict begin {1 index /FID eq {pop pop} {def} ifelse} forall
currentdict end definefont pop
%
/MFshow {
   { dup 5 get 3 ge
     { 5 get 3 eq {gsave} {grestore} ifelse }
     {dup dup 0 get findfont exch 1 get scalefont setfont
     [ currentpoint ] exch dup 2 get 0 exch R dup 5 get 2 ne {dup dup 6
     get exch 4 get {textshow} {stringwidth pop 0 R} ifelse }if dup 5 get 0 eq
     {dup 3 get {2 get neg 0 exch R pop} {pop aload pop M} ifelse} {dup 5
     get 1 eq {dup 2 get exch dup 3 get exch 6 get stringwidth pop -2 div
     dup 0 R} {dup 6 get stringwidth pop -2 div 0 R 6 get
     textshow 2 index {aload pop M neg 3 -1 roll neg R pop pop} {pop pop pop
     pop aload pop M} ifelse }ifelse }ifelse }
     ifelse }
   forall} def
/Gswidth {dup type /stringtype eq {stringwidth} {pop (n) stringwidth} ifelse} def
/MFwidth {0 exch { dup 5 get 3 ge { 5 get 3 eq { 0 } { pop } ifelse }
 {dup 3 get{dup dup 0 get findfont exch 1 get scalefont setfont
     6 get Gswidth pop add} {pop} ifelse} ifelse} forall} def
/MLshow { currentpoint stroke M
  0 exch R
  Blacktext {gsave 0 setgray MFshow grestore} {MFshow} ifelse } bind def
/MRshow { currentpoint stroke M
  exch dup MFwidth neg 3 -1 roll R
  Blacktext {gsave 0 setgray MFshow grestore} {MFshow} ifelse } bind def
/MCshow { currentpoint stroke M
  exch dup MFwidth -2 div 3 -1 roll R
  Blacktext {gsave 0 setgray MFshow grestore} {MFshow} ifelse } bind def
/XYsave    { [( ) 1 2 true false 3 ()] } bind def
/XYrestore { [( ) 1 2 true false 4 ()] } bind def
Level1 SuppressPDFMark or 
{} {
/SDict 10 dict def
systemdict /pdfmark known not {
  userdict /pdfmark systemdict /cleartomark get put
} if
SDict begin [
  /Title (packets-ip-s-log-packets-ip-ccdf-loglin.eps)
  /Subject (gnuplot plot)
  /Creator (gnuplot 5.0 patchlevel 3)
  /Author (tiphaine)
%  /Producer (gnuplot)
%  /Keywords ()
  /CreationDate (Mon May 29 11:05:48 2017)
  /DOCINFO pdfmark
end
} ifelse
%
% Support for boxed text - Ethan A Merritt May 2005
%
/InitTextBox { userdict /TBy2 3 -1 roll put userdict /TBx2 3 -1 roll put
           userdict /TBy1 3 -1 roll put userdict /TBx1 3 -1 roll put
	   /Boxing true def } def
/ExtendTextBox { Boxing
    { gsave dup false charpath pathbbox
      dup TBy2 gt {userdict /TBy2 3 -1 roll put} {pop} ifelse
      dup TBx2 gt {userdict /TBx2 3 -1 roll put} {pop} ifelse
      dup TBy1 lt {userdict /TBy1 3 -1 roll put} {pop} ifelse
      dup TBx1 lt {userdict /TBx1 3 -1 roll put} {pop} ifelse
      grestore } if } def
/PopTextBox { newpath TBx1 TBxmargin sub TBy1 TBymargin sub M
               TBx1 TBxmargin sub TBy2 TBymargin add L
	       TBx2 TBxmargin add TBy2 TBymargin add L
	       TBx2 TBxmargin add TBy1 TBymargin sub L closepath } def
/DrawTextBox { PopTextBox stroke /Boxing false def} def
/FillTextBox { gsave PopTextBox 1 1 1 setrgbcolor fill grestore /Boxing false def} def
0 0 0 0 InitTextBox
/TBxmargin 20 def
/TBymargin 20 def
/Boxing false def
/textshow { ExtendTextBox Gshow } def
%
% redundant definitions for compatibility with prologue.ps older than 5.0.2
/LTB {BL [] LCb DL} def
/LTb {PL [] LCb DL} def
end
%%EndProlog
%%Page: 1 1
gnudict begin
gsave
doclip
50 50 translate
0.100 0.100 scale
90 rotate
0 -5040 translate
0 setgray
newpath
(Helvetica) findfont 140 scalefont setfont
BackgroundColor 0 lt 3 1 roll 0 lt exch 0 lt or or not {gsave BackgroundColor C clippath fill grestore} if
1.000 UL
LTb
LCb setrgbcolor
630 280 M
63 0 V
6254 0 R
-63 0 V
stroke
546 280 M
[ [(Helvetica) 140.0 0.0 true true 0 ( 0)]
] -46.7 MRshow
1.000 UL
LTb
LCb setrgbcolor
630 790 M
63 0 V
6254 0 R
-63 0 V
stroke
546 790 M
[ [(Helvetica) 140.0 0.0 true true 0 ( 0.05)]
] -46.7 MRshow
1.000 UL
LTb
LCb setrgbcolor
630 1300 M
63 0 V
6254 0 R
-63 0 V
stroke
546 1300 M
[ [(Helvetica) 140.0 0.0 true true 0 ( 0.1)]
] -46.7 MRshow
1.000 UL
LTb
LCb setrgbcolor
630 1810 M
63 0 V
6254 0 R
-63 0 V
stroke
546 1810 M
[ [(Helvetica) 140.0 0.0 true true 0 ( 0.15)]
] -46.7 MRshow
1.000 UL
LTb
LCb setrgbcolor
630 2320 M
63 0 V
6254 0 R
-63 0 V
stroke
546 2320 M
[ [(Helvetica) 140.0 0.0 true true 0 ( 0.2)]
] -46.7 MRshow
1.000 UL
LTb
LCb setrgbcolor
630 2831 M
63 0 V
6254 0 R
-63 0 V
stroke
546 2831 M
[ [(Helvetica) 140.0 0.0 true true 0 ( 0.25)]
] -46.7 MRshow
1.000 UL
LTb
LCb setrgbcolor
630 3341 M
63 0 V
6254 0 R
-63 0 V
stroke
546 3341 M
[ [(Helvetica) 140.0 0.0 true true 0 ( 0.3)]
] -46.7 MRshow
1.000 UL
LTb
LCb setrgbcolor
630 3851 M
63 0 V
6254 0 R
-63 0 V
stroke
546 3851 M
[ [(Helvetica) 140.0 0.0 true true 0 ( 0.35)]
] -46.7 MRshow
1.000 UL
LTb
LCb setrgbcolor
630 4361 M
63 0 V
6254 0 R
-63 0 V
stroke
546 4361 M
[ [(Helvetica) 140.0 0.0 true true 0 ( 0.4)]
] -46.7 MRshow
1.000 UL
LTb
LCb setrgbcolor
630 4871 M
63 0 V
6254 0 R
-63 0 V
stroke
546 4871 M
[ [(Helvetica) 140.0 0.0 true true 0 ( 0.45)]
] -46.7 MRshow
1.000 UL
LTb
LCb setrgbcolor
630 280 M
0 63 V
0 4528 R
0 -63 V
stroke
630 140 M
[ [(Helvetica) 140.0 0.0 true true 0 ( 1)]
] -46.7 MCshow
1.000 UL
LTb
LCb setrgbcolor
841 280 M
0 31 V
0 4560 R
0 -31 V
1121 280 M
0 31 V
0 4560 R
0 -31 V
1264 280 M
0 31 V
0 4560 R
0 -31 V
1332 280 M
0 63 V
0 4528 R
0 -63 V
stroke
1332 140 M
[ [(Helvetica) 140.0 0.0 true true 0 ( 10)]
] -46.7 MCshow
1.000 UL
LTb
LCb setrgbcolor
1543 280 M
0 31 V
0 4560 R
0 -31 V
1822 280 M
0 31 V
0 4560 R
0 -31 V
1966 280 M
0 31 V
0 4560 R
0 -31 V
2034 280 M
0 63 V
0 4528 R
0 -63 V
stroke
2034 140 M
[ [(Helvetica) 140.0 0.0 true true 0 ( 100)]
] -46.7 MCshow
1.000 UL
LTb
LCb setrgbcolor
2245 280 M
0 31 V
0 4560 R
0 -31 V
2524 280 M
0 31 V
0 4560 R
0 -31 V
2668 280 M
0 31 V
0 4560 R
0 -31 V
2736 280 M
0 63 V
0 4528 R
0 -63 V
stroke
2736 140 M
[ [(Helvetica) 140.0 0.0 true true 0 ( 1000)]
] -46.7 MCshow
1.000 UL
LTb
LCb setrgbcolor
2947 280 M
0 31 V
0 4560 R
0 -31 V
3226 280 M
0 31 V
0 4560 R
0 -31 V
3370 280 M
0 31 V
0 4560 R
0 -31 V
3438 280 M
0 63 V
0 4528 R
0 -63 V
stroke
3438 140 M
[ [(Helvetica) 140.0 0.0 true true 0 ( 10000)]
] -46.7 MCshow
1.000 UL
LTb
LCb setrgbcolor
3649 280 M
0 31 V
0 4560 R
0 -31 V
3928 280 M
0 31 V
0 4560 R
0 -31 V
4071 280 M
0 31 V
0 4560 R
0 -31 V
4139 280 M
0 63 V
0 4528 R
0 -63 V
stroke
4139 140 M
[ [(Helvetica) 140.0 0.0 true true 0 ( 100000)]
] -46.7 MCshow
1.000 UL
LTb
LCb setrgbcolor
4351 280 M
0 31 V
0 4560 R
0 -31 V
4630 280 M
0 31 V
0 4560 R
0 -31 V
4773 280 M
0 31 V
0 4560 R
0 -31 V
4841 280 M
0 63 V
0 4528 R
0 -63 V
stroke
4841 140 M
[ [(Helvetica) 140.0 0.0 true true 0 ( 1x10)]
[(Helvetica) 112.0 70.0 true true 0 (6)]
] -60.7 MCshow
1.000 UL
LTb
LCb setrgbcolor
5053 280 M
0 31 V
0 4560 R
0 -31 V
5332 280 M
0 31 V
0 4560 R
0 -31 V
5475 280 M
0 31 V
0 4560 R
0 -31 V
5543 280 M
0 63 V
0 4528 R
0 -63 V
stroke
5543 140 M
[ [(Helvetica) 140.0 0.0 true true 0 ( 1x10)]
[(Helvetica) 112.0 70.0 true true 0 (7)]
] -60.7 MCshow
1.000 UL
LTb
LCb setrgbcolor
5755 280 M
0 31 V
0 4560 R
0 -31 V
6034 280 M
0 31 V
0 4560 R
0 -31 V
6177 280 M
0 31 V
0 4560 R
0 -31 V
6245 280 M
0 63 V
0 4528 R
0 -63 V
stroke
6245 140 M
[ [(Helvetica) 140.0 0.0 true true 0 ( 1x10)]
[(Helvetica) 112.0 70.0 true true 0 (8)]
] -60.7 MCshow
1.000 UL
LTb
LCb setrgbcolor
6456 280 M
0 31 V
0 4560 R
0 -31 V
6736 280 M
0 31 V
0 4560 R
0 -31 V
6879 280 M
0 31 V
0 4560 R
0 -31 V
6947 280 M
0 63 V
0 4528 R
0 -63 V
stroke
6947 140 M
[ [(Helvetica) 140.0 0.0 true true 0 ( 1x10)]
[(Helvetica) 112.0 70.0 true true 0 (9)]
] -60.7 MCshow
1.000 UL
LTb
LCb setrgbcolor
1.000 UL
LTB
LCb setrgbcolor
630 4871 N
630 280 L
6317 0 V
0 4591 V
-6317 0 V
Z stroke
1.000 UP
1.000 UL
LTb
LCb setrgbcolor
% Begin plot #1
1.000 UP
1.000 UL
LTb
0.58 0.00 0.83 C 730 4630 Pls
941 4622 Pls
1009 4600 Pls
1064 4584 Pls
1081 4577 Pls
1149 4562 Pls
1152 4554 Pls
1220 4539 Pls
1276 4524 Pls
1361 4516 Pls
1363 4509 Pls
1431 4501 Pls
1441 4486 Pls
1487 4479 Pls
1504 4471 Pls
1523 4464 Pls
1601 4456 Pls
1627 4448 Pls
1656 4441 Pls
1674 4433 Pls
1679 4426 Pls
1685 4418 Pls
1705 4411 Pls
1812 4403 Pls
1822 4396 Pls
1907 4388 Pls
1916 4381 Pls
1922 4365 Pls
1931 4358 Pls
1934 4343 Pls
1943 4335 Pls
1951 4328 Pls
1957 4320 Pls
2002 4313 Pls
2037 4305 Pls
2042 4297 Pls
2063 4290 Pls
2148 4282 Pls
2153 4275 Pls
2157 4267 Pls
2160 4260 Pls
2193 4252 Pls
2194 4245 Pls
2203 4237 Pls
2217 4229 Pls
2226 4222 Pls
2230 4214 Pls
2252 4207 Pls
2269 4199 Pls
2270 4192 Pls
2271 4184 Pls
2277 4177 Pls
2295 4169 Pls
2297 4162 Pls
2301 4154 Pls
2304 4146 Pls
2305 4139 Pls
2310 4131 Pls
2316 4124 Pls
2340 4116 Pls
2346 4109 Pls
2354 4101 Pls
2367 4094 Pls
2374 4086 Pls
2384 4078 Pls
2398 4071 Pls
2398 4063 Pls
2399 4056 Pls
2399 4048 Pls
2406 4041 Pls
2409 4033 Pls
2439 4026 Pls
2452 4018 Pls
2453 4010 Pls
2455 4003 Pls
2461 3995 Pls
2462 3988 Pls
2465 3980 Pls
2476 3973 Pls
2484 3965 Pls
2487 3958 Pls
2488 3950 Pls
2494 3943 Pls
2496 3935 Pls
2501 3927 Pls
2509 3920 Pls
2512 3912 Pls
2513 3905 Pls
2514 3897 Pls
2515 3890 Pls
2516 3882 Pls
2520 3875 Pls
2527 3867 Pls
2528 3859 Pls
2545 3852 Pls
2545 3844 Pls
2570 3837 Pls
2570 3829 Pls
2578 3822 Pls
2584 3814 Pls
2601 3807 Pls
2609 3799 Pls
2638 3791 Pls
2639 3784 Pls
2640 3776 Pls
2647 3769 Pls
2649 3761 Pls
2650 3754 Pls
2654 3746 Pls
2669 3739 Pls
2669 3731 Pls
2675 3724 Pls
2678 3716 Pls
2691 3708 Pls
2694 3701 Pls
2699 3693 Pls
2700 3686 Pls
2709 3678 Pls
2710 3671 Pls
2714 3663 Pls
2721 3656 Pls
2724 3648 Pls
2728 3640 Pls
2746 3633 Pls
2753 3625 Pls
2756 3618 Pls
2760 3610 Pls
2769 3603 Pls
2773 3588 Pls
2775 3580 Pls
2777 3573 Pls
2781 3565 Pls
2786 3557 Pls
2794 3550 Pls
2809 3542 Pls
2816 3535 Pls
2831 3527 Pls
2832 3520 Pls
2833 3512 Pls
2840 3505 Pls
2840 3497 Pls
2843 3489 Pls
2844 3482 Pls
2863 3474 Pls
2863 3467 Pls
2866 3459 Pls
2868 3452 Pls
2873 3444 Pls
2875 3437 Pls
2876 3429 Pls
2878 3421 Pls
2880 3414 Pls
2889 3406 Pls
2889 3399 Pls
2893 3391 Pls
2896 3384 Pls
2908 3376 Pls
2925 3369 Pls
2934 3361 Pls
2936 3354 Pls
2937 3346 Pls
2944 3338 Pls
2949 3331 Pls
2952 3323 Pls
2953 3316 Pls
2966 3308 Pls
2980 3301 Pls
2985 3293 Pls
2992 3286 Pls
2994 3278 Pls
2997 3270 Pls
3003 3263 Pls
3006 3255 Pls
3010 3248 Pls
3016 3240 Pls
3024 3233 Pls
3030 3225 Pls
3037 3218 Pls
3048 3210 Pls
3049 3202 Pls
3050 3195 Pls
3052 3187 Pls
3064 3180 Pls
3072 3172 Pls
3092 3165 Pls
3092 3157 Pls
3105 3150 Pls
3117 3142 Pls
3127 3135 Pls
3129 3127 Pls
3141 3119 Pls
3141 3112 Pls
3145 3104 Pls
3154 3097 Pls
3155 3089 Pls
3161 3082 Pls
3162 3074 Pls
3169 3067 Pls
3170 3059 Pls
3170 3051 Pls
3180 3044 Pls
3184 3036 Pls
3187 3029 Pls
3194 3021 Pls
3194 3014 Pls
3194 3006 Pls
3199 2999 Pls
3200 2991 Pls
3212 2983 Pls
3215 2976 Pls
3216 2968 Pls
3218 2961 Pls
3220 2953 Pls
3223 2946 Pls
3230 2938 Pls
3231 2931 Pls
3238 2923 Pls
3241 2916 Pls
3243 2908 Pls
3244 2900 Pls
3247 2893 Pls
3252 2885 Pls
3255 2878 Pls
3258 2870 Pls
3260 2863 Pls
3260 2855 Pls
3273 2848 Pls
3275 2840 Pls
3276 2832 Pls
3278 2825 Pls
3282 2817 Pls
3287 2810 Pls
3288 2802 Pls
3290 2795 Pls
3293 2787 Pls
3297 2780 Pls
3303 2772 Pls
3306 2764 Pls
3306 2757 Pls
3307 2749 Pls
3310 2742 Pls
3313 2734 Pls
3317 2727 Pls
3329 2719 Pls
3332 2712 Pls
3337 2704 Pls
3346 2697 Pls
3353 2689 Pls
3359 2681 Pls
3360 2674 Pls
3361 2666 Pls
3369 2659 Pls
3379 2651 Pls
3388 2644 Pls
3389 2636 Pls
3391 2629 Pls
3394 2621 Pls
3396 2613 Pls
3397 2606 Pls
3397 2598 Pls
3405 2591 Pls
3407 2583 Pls
3423 2576 Pls
3431 2568 Pls
3434 2561 Pls
3438 2553 Pls
3440 2545 Pls
3442 2538 Pls
3444 2530 Pls
3447 2523 Pls
3448 2515 Pls
3449 2508 Pls
3454 2500 Pls
3457 2493 Pls
3461 2485 Pls
3462 2478 Pls
3463 2470 Pls
3467 2462 Pls
3470 2455 Pls
3493 2447 Pls
3521 2440 Pls
3535 2432 Pls
3537 2425 Pls
3544 2417 Pls
3546 2410 Pls
3552 2402 Pls
3555 2394 Pls
3559 2387 Pls
3559 2379 Pls
3561 2372 Pls
3564 2364 Pls
3565 2357 Pls
3566 2349 Pls
3567 2342 Pls
3577 2334 Pls
3578 2326 Pls
3579 2319 Pls
3585 2311 Pls
3589 2304 Pls
3593 2296 Pls
3596 2289 Pls
3599 2281 Pls
3599 2274 Pls
3600 2259 Pls
3600 2251 Pls
3600 2243 Pls
3600 2236 Pls
3600 2228 Pls
3600 2221 Pls
3601 2213 Pls
3617 2206 Pls
3618 2198 Pls
3621 2191 Pls
3627 2183 Pls
3636 2175 Pls
3643 2168 Pls
3647 2160 Pls
3647 2153 Pls
3651 2145 Pls
3652 2138 Pls
3654 2130 Pls
3658 2123 Pls
3658 2115 Pls
3660 2107 Pls
3660 2100 Pls
3668 2092 Pls
3669 2085 Pls
3671 2077 Pls
3680 2070 Pls
3681 2062 Pls
3692 2055 Pls
3693 2047 Pls
3696 2040 Pls
3698 2032 Pls
3701 2024 Pls
3704 2017 Pls
3706 2009 Pls
3707 2002 Pls
3707 1994 Pls
3710 1987 Pls
3711 1979 Pls
3713 1972 Pls
3722 1964 Pls
3723 1956 Pls
3724 1949 Pls
3727 1941 Pls
3728 1934 Pls
3731 1926 Pls
3735 1919 Pls
3737 1911 Pls
3738 1904 Pls
3739 1896 Pls
3746 1888 Pls
3749 1881 Pls
3755 1873 Pls
3761 1866 Pls
3766 1858 Pls
3770 1851 Pls
3771 1843 Pls
3771 1836 Pls
3777 1828 Pls
3778 1821 Pls
3783 1813 Pls
3783 1805 Pls
3785 1798 Pls
3787 1790 Pls
3799 1783 Pls
3811 1775 Pls
3818 1768 Pls
3832 1760 Pls
3837 1753 Pls
3840 1745 Pls
3842 1737 Pls
3843 1730 Pls
3848 1722 Pls
3863 1715 Pls
3863 1707 Pls
3866 1700 Pls
3869 1692 Pls
3875 1685 Pls
3891 1677 Pls
3891 1669 Pls
3895 1662 Pls
3898 1654 Pls
3908 1647 Pls
3909 1639 Pls
3911 1632 Pls
3914 1624 Pls
3919 1617 Pls
3922 1609 Pls
3935 1602 Pls
3940 1594 Pls
3941 1586 Pls
3942 1579 Pls
3954 1571 Pls
3955 1564 Pls
3958 1556 Pls
3961 1549 Pls
3962 1541 Pls
3964 1534 Pls
3976 1526 Pls
3986 1518 Pls
3990 1511 Pls
4005 1503 Pls
4009 1496 Pls
4013 1488 Pls
4016 1481 Pls
4022 1473 Pls
4031 1466 Pls
4049 1458 Pls
4049 1451 Pls
4054 1443 Pls
4070 1435 Pls
4075 1428 Pls
4079 1420 Pls
4080 1413 Pls
4084 1405 Pls
4105 1398 Pls
4122 1390 Pls
4132 1383 Pls
4133 1375 Pls
4144 1367 Pls
4153 1360 Pls
4154 1352 Pls
4185 1345 Pls
4190 1337 Pls
4199 1330 Pls
4213 1322 Pls
4218 1315 Pls
4219 1307 Pls
4222 1299 Pls
4225 1292 Pls
4228 1284 Pls
4235 1277 Pls
4236 1269 Pls
4242 1262 Pls
4255 1254 Pls
4259 1247 Pls
4268 1239 Pls
4275 1232 Pls
4276 1224 Pls
4280 1216 Pls
4291 1209 Pls
4292 1201 Pls
4300 1194 Pls
4307 1186 Pls
4314 1179 Pls
4321 1171 Pls
4321 1164 Pls
4322 1156 Pls
4323 1148 Pls
4330 1141 Pls
4340 1133 Pls
4341 1126 Pls
4348 1118 Pls
4354 1111 Pls
4355 1103 Pls
4364 1096 Pls
4373 1088 Pls
4374 1080 Pls
4381 1073 Pls
4390 1065 Pls
4396 1058 Pls
4398 1050 Pls
4402 1043 Pls
4420 1035 Pls
4449 1028 Pls
4468 1020 Pls
4471 1013 Pls
4479 1005 Pls
4481 997 Pls
4494 990 Pls
4497 982 Pls
4511 975 Pls
4513 967 Pls
4517 960 Pls
4519 952 Pls
4522 945 Pls
4542 937 Pls
4550 929 Pls
4567 922 Pls
4578 914 Pls
4578 907 Pls
4583 899 Pls
4585 892 Pls
4586 884 Pls
4588 877 Pls
4603 869 Pls
4616 861 Pls
4624 854 Pls
4627 846 Pls
4641 839 Pls
4659 831 Pls
4665 824 Pls
4671 816 Pls
4675 809 Pls
4688 801 Pls
4694 794 Pls
4694 786 Pls
4694 778 Pls
4700 771 Pls
4711 763 Pls
4721 756 Pls
4723 748 Pls
4725 741 Pls
4727 733 Pls
4734 726 Pls
4744 718 Pls
4746 710 Pls
4747 703 Pls
4757 695 Pls
4760 688 Pls
4764 680 Pls
4764 673 Pls
4767 665 Pls
4768 658 Pls
4779 650 Pls
4780 642 Pls
4780 635 Pls
4789 627 Pls
4790 620 Pls
4801 612 Pls
4817 605 Pls
4826 597 Pls
4835 590 Pls
4873 582 Pls
4896 575 Pls
4900 567 Pls
4922 559 Pls
4922 552 Pls
4929 544 Pls
4963 537 Pls
5000 529 Pls
5020 522 Pls
5035 514 Pls
5064 507 Pls
5078 499 Pls
5127 491 Pls
5130 484 Pls
5154 476 Pls
5173 469 Pls
5180 461 Pls
5180 454 Pls
5232 446 Pls
5268 439 Pls
5268 431 Pls
5269 423 Pls
5272 416 Pls
5282 408 Pls
5338 401 Pls
5387 393 Pls
5388 386 Pls
5397 378 Pls
5406 371 Pls
5417 363 Pls
5467 356 Pls
5613 348 Pls
5630 340 Pls
5815 333 Pls
5819 325 Pls
5864 318 Pls
5973 310 Pls
6051 303 Pls
6064 295 Pls
6363 288 Pls
% End plot #1
2.000 UL
LTb
LCb setrgbcolor
1.000 UL
LTB
LCb setrgbcolor
630 4871 N
630 280 L
6317 0 V
0 4591 V
-6317 0 V
Z stroke
1.000 UP
1.000 UL
LTb
LCb setrgbcolor
stroke
grestore
end
showpage
%%Trailer
%%DocumentFonts: Helvetica
%%Pages: 1
