%!PS-Adobe-2.0
%%Title: packets-uv-s-log-packets-uv-ccdf-loglin.eps
%%Creator: gnuplot 5.0 patchlevel 3
%%CreationDate: Mon May 29 11:11:20 2017
%%DocumentFonts: (atend)
%%BoundingBox: 50 50 554 770
%%Orientation: Landscape
%%Pages: (atend)
%%EndComments
%%BeginProlog
/gnudict 256 dict def
gnudict begin
%
% The following true/false flags may be edited by hand if desired.
% The unit line width and grayscale image gamma correction may also be changed.
%
/Color true def
/Blacktext false def
/Solid false def
/Dashlength 1 def
/Landscape true def
/Level1 false def
/Level3 false def
/Rounded false def
/ClipToBoundingBox false def
/SuppressPDFMark false def
/TransparentPatterns false def
/gnulinewidth 5.000 def
/userlinewidth gnulinewidth def
/Gamma 1.0 def
/BackgroundColor {-1.000 -1.000 -1.000} def
%
/vshift -46 def
/dl1 {
  10.0 Dashlength userlinewidth gnulinewidth div mul mul mul
  Rounded { currentlinewidth 0.75 mul sub dup 0 le { pop 0.01 } if } if
} def
/dl2 {
  10.0 Dashlength userlinewidth gnulinewidth div mul mul mul
  Rounded { currentlinewidth 0.75 mul add } if
} def
/hpt_ 31.5 def
/vpt_ 31.5 def
/hpt hpt_ def
/vpt vpt_ def
/doclip {
  ClipToBoundingBox {
    newpath 50 50 moveto 554 50 lineto 554 770 lineto 50 770 lineto closepath
    clip
  } if
} def
%
% Gnuplot Prolog Version 5.1 (Oct 2015)
%
%/SuppressPDFMark true def
%
/M {moveto} bind def
/L {lineto} bind def
/R {rmoveto} bind def
/V {rlineto} bind def
/N {newpath moveto} bind def
/Z {closepath} bind def
/C {setrgbcolor} bind def
/f {rlineto fill} bind def
/g {setgray} bind def
/Gshow {show} def   % May be redefined later in the file to support UTF-8
/vpt2 vpt 2 mul def
/hpt2 hpt 2 mul def
/Lshow {currentpoint stroke M 0 vshift R 
	Blacktext {gsave 0 setgray textshow grestore} {textshow} ifelse} def
/Rshow {currentpoint stroke M dup stringwidth pop neg vshift R
	Blacktext {gsave 0 setgray textshow grestore} {textshow} ifelse} def
/Cshow {currentpoint stroke M dup stringwidth pop -2 div vshift R 
	Blacktext {gsave 0 setgray textshow grestore} {textshow} ifelse} def
/UP {dup vpt_ mul /vpt exch def hpt_ mul /hpt exch def
  /hpt2 hpt 2 mul def /vpt2 vpt 2 mul def} def
/DL {Color {setrgbcolor Solid {pop []} if 0 setdash}
 {pop pop pop 0 setgray Solid {pop []} if 0 setdash} ifelse} def
/BL {stroke userlinewidth 2 mul setlinewidth
	Rounded {1 setlinejoin 1 setlinecap} if} def
/AL {stroke userlinewidth 2 div setlinewidth
	Rounded {1 setlinejoin 1 setlinecap} if} def
/UL {dup gnulinewidth mul /userlinewidth exch def
	dup 1 lt {pop 1} if 10 mul /udl exch def} def
/PL {stroke userlinewidth setlinewidth
	Rounded {1 setlinejoin 1 setlinecap} if} def
3.8 setmiterlimit
% Classic Line colors (version 5.0)
/LCw {1 1 1} def
/LCb {0 0 0} def
/LCa {0 0 0} def
/LC0 {1 0 0} def
/LC1 {0 1 0} def
/LC2 {0 0 1} def
/LC3 {1 0 1} def
/LC4 {0 1 1} def
/LC5 {1 1 0} def
/LC6 {0 0 0} def
/LC7 {1 0.3 0} def
/LC8 {0.5 0.5 0.5} def
% Default dash patterns (version 5.0)
/LTB {BL [] LCb DL} def
/LTw {PL [] 1 setgray} def
/LTb {PL [] LCb DL} def
/LTa {AL [1 udl mul 2 udl mul] 0 setdash LCa setrgbcolor} def
/LT0 {PL [] LC0 DL} def
/LT1 {PL [2 dl1 3 dl2] LC1 DL} def
/LT2 {PL [1 dl1 1.5 dl2] LC2 DL} def
/LT3 {PL [6 dl1 2 dl2 1 dl1 2 dl2] LC3 DL} def
/LT4 {PL [1 dl1 2 dl2 6 dl1 2 dl2 1 dl1 2 dl2] LC4 DL} def
/LT5 {PL [4 dl1 2 dl2] LC5 DL} def
/LT6 {PL [1.5 dl1 1.5 dl2 1.5 dl1 1.5 dl2 1.5 dl1 6 dl2] LC6 DL} def
/LT7 {PL [3 dl1 3 dl2 1 dl1 3 dl2] LC7 DL} def
/LT8 {PL [2 dl1 2 dl2 2 dl1 6 dl2] LC8 DL} def
/SL {[] 0 setdash} def
/Pnt {stroke [] 0 setdash gsave 1 setlinecap M 0 0 V stroke grestore} def
/Dia {stroke [] 0 setdash 2 copy vpt add M
  hpt neg vpt neg V hpt vpt neg V
  hpt vpt V hpt neg vpt V closepath stroke
  Pnt} def
/Pls {stroke [] 0 setdash vpt sub M 0 vpt2 V
  currentpoint stroke M
  hpt neg vpt neg R hpt2 0 V stroke
 } def
/Box {stroke [] 0 setdash 2 copy exch hpt sub exch vpt add M
  0 vpt2 neg V hpt2 0 V 0 vpt2 V
  hpt2 neg 0 V closepath stroke
  Pnt} def
/Crs {stroke [] 0 setdash exch hpt sub exch vpt add M
  hpt2 vpt2 neg V currentpoint stroke M
  hpt2 neg 0 R hpt2 vpt2 V stroke} def
/TriU {stroke [] 0 setdash 2 copy vpt 1.12 mul add M
  hpt neg vpt -1.62 mul V
  hpt 2 mul 0 V
  hpt neg vpt 1.62 mul V closepath stroke
  Pnt} def
/Star {2 copy Pls Crs} def
/BoxF {stroke [] 0 setdash exch hpt sub exch vpt add M
  0 vpt2 neg V hpt2 0 V 0 vpt2 V
  hpt2 neg 0 V closepath fill} def
/TriUF {stroke [] 0 setdash vpt 1.12 mul add M
  hpt neg vpt -1.62 mul V
  hpt 2 mul 0 V
  hpt neg vpt 1.62 mul V closepath fill} def
/TriD {stroke [] 0 setdash 2 copy vpt 1.12 mul sub M
  hpt neg vpt 1.62 mul V
  hpt 2 mul 0 V
  hpt neg vpt -1.62 mul V closepath stroke
  Pnt} def
/TriDF {stroke [] 0 setdash vpt 1.12 mul sub M
  hpt neg vpt 1.62 mul V
  hpt 2 mul 0 V
  hpt neg vpt -1.62 mul V closepath fill} def
/DiaF {stroke [] 0 setdash vpt add M
  hpt neg vpt neg V hpt vpt neg V
  hpt vpt V hpt neg vpt V closepath fill} def
/Pent {stroke [] 0 setdash 2 copy gsave
  translate 0 hpt M 4 {72 rotate 0 hpt L} repeat
  closepath stroke grestore Pnt} def
/PentF {stroke [] 0 setdash gsave
  translate 0 hpt M 4 {72 rotate 0 hpt L} repeat
  closepath fill grestore} def
/Circle {stroke [] 0 setdash 2 copy
  hpt 0 360 arc stroke Pnt} def
/CircleF {stroke [] 0 setdash hpt 0 360 arc fill} def
/C0 {BL [] 0 setdash 2 copy moveto vpt 90 450 arc} bind def
/C1 {BL [] 0 setdash 2 copy moveto
	2 copy vpt 0 90 arc closepath fill
	vpt 0 360 arc closepath} bind def
/C2 {BL [] 0 setdash 2 copy moveto
	2 copy vpt 90 180 arc closepath fill
	vpt 0 360 arc closepath} bind def
/C3 {BL [] 0 setdash 2 copy moveto
	2 copy vpt 0 180 arc closepath fill
	vpt 0 360 arc closepath} bind def
/C4 {BL [] 0 setdash 2 copy moveto
	2 copy vpt 180 270 arc closepath fill
	vpt 0 360 arc closepath} bind def
/C5 {BL [] 0 setdash 2 copy moveto
	2 copy vpt 0 90 arc
	2 copy moveto
	2 copy vpt 180 270 arc closepath fill
	vpt 0 360 arc} bind def
/C6 {BL [] 0 setdash 2 copy moveto
	2 copy vpt 90 270 arc closepath fill
	vpt 0 360 arc closepath} bind def
/C7 {BL [] 0 setdash 2 copy moveto
	2 copy vpt 0 270 arc closepath fill
	vpt 0 360 arc closepath} bind def
/C8 {BL [] 0 setdash 2 copy moveto
	2 copy vpt 270 360 arc closepath fill
	vpt 0 360 arc closepath} bind def
/C9 {BL [] 0 setdash 2 copy moveto
	2 copy vpt 270 450 arc closepath fill
	vpt 0 360 arc closepath} bind def
/C10 {BL [] 0 setdash 2 copy 2 copy moveto vpt 270 360 arc closepath fill
	2 copy moveto
	2 copy vpt 90 180 arc closepath fill
	vpt 0 360 arc closepath} bind def
/C11 {BL [] 0 setdash 2 copy moveto
	2 copy vpt 0 180 arc closepath fill
	2 copy moveto
	2 copy vpt 270 360 arc closepath fill
	vpt 0 360 arc closepath} bind def
/C12 {BL [] 0 setdash 2 copy moveto
	2 copy vpt 180 360 arc closepath fill
	vpt 0 360 arc closepath} bind def
/C13 {BL [] 0 setdash 2 copy moveto
	2 copy vpt 0 90 arc closepath fill
	2 copy moveto
	2 copy vpt 180 360 arc closepath fill
	vpt 0 360 arc closepath} bind def
/C14 {BL [] 0 setdash 2 copy moveto
	2 copy vpt 90 360 arc closepath fill
	vpt 0 360 arc} bind def
/C15 {BL [] 0 setdash 2 copy vpt 0 360 arc closepath fill
	vpt 0 360 arc closepath} bind def
/Rec {newpath 4 2 roll moveto 1 index 0 rlineto 0 exch rlineto
	neg 0 rlineto closepath} bind def
/Square {dup Rec} bind def
/Bsquare {vpt sub exch vpt sub exch vpt2 Square} bind def
/S0 {BL [] 0 setdash 2 copy moveto 0 vpt rlineto BL Bsquare} bind def
/S1 {BL [] 0 setdash 2 copy vpt Square fill Bsquare} bind def
/S2 {BL [] 0 setdash 2 copy exch vpt sub exch vpt Square fill Bsquare} bind def
/S3 {BL [] 0 setdash 2 copy exch vpt sub exch vpt2 vpt Rec fill Bsquare} bind def
/S4 {BL [] 0 setdash 2 copy exch vpt sub exch vpt sub vpt Square fill Bsquare} bind def
/S5 {BL [] 0 setdash 2 copy 2 copy vpt Square fill
	exch vpt sub exch vpt sub vpt Square fill Bsquare} bind def
/S6 {BL [] 0 setdash 2 copy exch vpt sub exch vpt sub vpt vpt2 Rec fill Bsquare} bind def
/S7 {BL [] 0 setdash 2 copy exch vpt sub exch vpt sub vpt vpt2 Rec fill
	2 copy vpt Square fill Bsquare} bind def
/S8 {BL [] 0 setdash 2 copy vpt sub vpt Square fill Bsquare} bind def
/S9 {BL [] 0 setdash 2 copy vpt sub vpt vpt2 Rec fill Bsquare} bind def
/S10 {BL [] 0 setdash 2 copy vpt sub vpt Square fill 2 copy exch vpt sub exch vpt Square fill
	Bsquare} bind def
/S11 {BL [] 0 setdash 2 copy vpt sub vpt Square fill 2 copy exch vpt sub exch vpt2 vpt Rec fill
	Bsquare} bind def
/S12 {BL [] 0 setdash 2 copy exch vpt sub exch vpt sub vpt2 vpt Rec fill Bsquare} bind def
/S13 {BL [] 0 setdash 2 copy exch vpt sub exch vpt sub vpt2 vpt Rec fill
	2 copy vpt Square fill Bsquare} bind def
/S14 {BL [] 0 setdash 2 copy exch vpt sub exch vpt sub vpt2 vpt Rec fill
	2 copy exch vpt sub exch vpt Square fill Bsquare} bind def
/S15 {BL [] 0 setdash 2 copy Bsquare fill Bsquare} bind def
/D0 {gsave translate 45 rotate 0 0 S0 stroke grestore} bind def
/D1 {gsave translate 45 rotate 0 0 S1 stroke grestore} bind def
/D2 {gsave translate 45 rotate 0 0 S2 stroke grestore} bind def
/D3 {gsave translate 45 rotate 0 0 S3 stroke grestore} bind def
/D4 {gsave translate 45 rotate 0 0 S4 stroke grestore} bind def
/D5 {gsave translate 45 rotate 0 0 S5 stroke grestore} bind def
/D6 {gsave translate 45 rotate 0 0 S6 stroke grestore} bind def
/D7 {gsave translate 45 rotate 0 0 S7 stroke grestore} bind def
/D8 {gsave translate 45 rotate 0 0 S8 stroke grestore} bind def
/D9 {gsave translate 45 rotate 0 0 S9 stroke grestore} bind def
/D10 {gsave translate 45 rotate 0 0 S10 stroke grestore} bind def
/D11 {gsave translate 45 rotate 0 0 S11 stroke grestore} bind def
/D12 {gsave translate 45 rotate 0 0 S12 stroke grestore} bind def
/D13 {gsave translate 45 rotate 0 0 S13 stroke grestore} bind def
/D14 {gsave translate 45 rotate 0 0 S14 stroke grestore} bind def
/D15 {gsave translate 45 rotate 0 0 S15 stroke grestore} bind def
/DiaE {stroke [] 0 setdash vpt add M
  hpt neg vpt neg V hpt vpt neg V
  hpt vpt V hpt neg vpt V closepath stroke} def
/BoxE {stroke [] 0 setdash exch hpt sub exch vpt add M
  0 vpt2 neg V hpt2 0 V 0 vpt2 V
  hpt2 neg 0 V closepath stroke} def
/TriUE {stroke [] 0 setdash vpt 1.12 mul add M
  hpt neg vpt -1.62 mul V
  hpt 2 mul 0 V
  hpt neg vpt 1.62 mul V closepath stroke} def
/TriDE {stroke [] 0 setdash vpt 1.12 mul sub M
  hpt neg vpt 1.62 mul V
  hpt 2 mul 0 V
  hpt neg vpt -1.62 mul V closepath stroke} def
/PentE {stroke [] 0 setdash gsave
  translate 0 hpt M 4 {72 rotate 0 hpt L} repeat
  closepath stroke grestore} def
/CircE {stroke [] 0 setdash 
  hpt 0 360 arc stroke} def
/Opaque {gsave closepath 1 setgray fill grestore 0 setgray closepath} def
/DiaW {stroke [] 0 setdash vpt add M
  hpt neg vpt neg V hpt vpt neg V
  hpt vpt V hpt neg vpt V Opaque stroke} def
/BoxW {stroke [] 0 setdash exch hpt sub exch vpt add M
  0 vpt2 neg V hpt2 0 V 0 vpt2 V
  hpt2 neg 0 V Opaque stroke} def
/TriUW {stroke [] 0 setdash vpt 1.12 mul add M
  hpt neg vpt -1.62 mul V
  hpt 2 mul 0 V
  hpt neg vpt 1.62 mul V Opaque stroke} def
/TriDW {stroke [] 0 setdash vpt 1.12 mul sub M
  hpt neg vpt 1.62 mul V
  hpt 2 mul 0 V
  hpt neg vpt -1.62 mul V Opaque stroke} def
/PentW {stroke [] 0 setdash gsave
  translate 0 hpt M 4 {72 rotate 0 hpt L} repeat
  Opaque stroke grestore} def
/CircW {stroke [] 0 setdash 
  hpt 0 360 arc Opaque stroke} def
/BoxFill {gsave Rec 1 setgray fill grestore} def
/Density {
  /Fillden exch def
  currentrgbcolor
  /ColB exch def /ColG exch def /ColR exch def
  /ColR ColR Fillden mul Fillden sub 1 add def
  /ColG ColG Fillden mul Fillden sub 1 add def
  /ColB ColB Fillden mul Fillden sub 1 add def
  ColR ColG ColB setrgbcolor} def
/BoxColFill {gsave Rec PolyFill} def
/PolyFill {gsave Density fill grestore grestore} def
/h {rlineto rlineto rlineto gsave closepath fill grestore} bind def
%
% PostScript Level 1 Pattern Fill routine for rectangles
% Usage: x y w h s a XX PatternFill
%	x,y = lower left corner of box to be filled
%	w,h = width and height of box
%	  a = angle in degrees between lines and x-axis
%	 XX = 0/1 for no/yes cross-hatch
%
/PatternFill {gsave /PFa [ 9 2 roll ] def
  PFa 0 get PFa 2 get 2 div add PFa 1 get PFa 3 get 2 div add translate
  PFa 2 get -2 div PFa 3 get -2 div PFa 2 get PFa 3 get Rec
  TransparentPatterns {} {gsave 1 setgray fill grestore} ifelse
  clip
  currentlinewidth 0.5 mul setlinewidth
  /PFs PFa 2 get dup mul PFa 3 get dup mul add sqrt def
  0 0 M PFa 5 get rotate PFs -2 div dup translate
  0 1 PFs PFa 4 get div 1 add floor cvi
	{PFa 4 get mul 0 M 0 PFs V} for
  0 PFa 6 get ne {
	0 1 PFs PFa 4 get div 1 add floor cvi
	{PFa 4 get mul 0 2 1 roll M PFs 0 V} for
 } if
  stroke grestore} def
%
/languagelevel where
 {pop languagelevel} {1} ifelse
dup 2 lt
	{/InterpretLevel1 true def
	 /InterpretLevel3 false def}
	{/InterpretLevel1 Level1 def
	 2 gt
	    {/InterpretLevel3 Level3 def}
	    {/InterpretLevel3 false def}
	 ifelse }
 ifelse
%
% PostScript level 2 pattern fill definitions
%
/Level2PatternFill {
/Tile8x8 {/PaintType 2 /PatternType 1 /TilingType 1 /BBox [0 0 8 8] /XStep 8 /YStep 8}
	bind def
/KeepColor {currentrgbcolor [/Pattern /DeviceRGB] setcolorspace} bind def
<< Tile8x8
 /PaintProc {0.5 setlinewidth pop 0 0 M 8 8 L 0 8 M 8 0 L stroke} 
>> matrix makepattern
/Pat1 exch def
<< Tile8x8
 /PaintProc {0.5 setlinewidth pop 0 0 M 8 8 L 0 8 M 8 0 L stroke
	0 4 M 4 8 L 8 4 L 4 0 L 0 4 L stroke}
>> matrix makepattern
/Pat2 exch def
<< Tile8x8
 /PaintProc {0.5 setlinewidth pop 0 0 M 0 8 L
	8 8 L 8 0 L 0 0 L fill}
>> matrix makepattern
/Pat3 exch def
<< Tile8x8
 /PaintProc {0.5 setlinewidth pop -4 8 M 8 -4 L
	0 12 M 12 0 L stroke}
>> matrix makepattern
/Pat4 exch def
<< Tile8x8
 /PaintProc {0.5 setlinewidth pop -4 0 M 8 12 L
	0 -4 M 12 8 L stroke}
>> matrix makepattern
/Pat5 exch def
<< Tile8x8
 /PaintProc {0.5 setlinewidth pop -2 8 M 4 -4 L
	0 12 M 8 -4 L 4 12 M 10 0 L stroke}
>> matrix makepattern
/Pat6 exch def
<< Tile8x8
 /PaintProc {0.5 setlinewidth pop -2 0 M 4 12 L
	0 -4 M 8 12 L 4 -4 M 10 8 L stroke}
>> matrix makepattern
/Pat7 exch def
<< Tile8x8
 /PaintProc {0.5 setlinewidth pop 8 -2 M -4 4 L
	12 0 M -4 8 L 12 4 M 0 10 L stroke}
>> matrix makepattern
/Pat8 exch def
<< Tile8x8
 /PaintProc {0.5 setlinewidth pop 0 -2 M 12 4 L
	-4 0 M 12 8 L -4 4 M 8 10 L stroke}
>> matrix makepattern
/Pat9 exch def
/Pattern1 {PatternBgnd KeepColor Pat1 setpattern} bind def
/Pattern2 {PatternBgnd KeepColor Pat2 setpattern} bind def
/Pattern3 {PatternBgnd KeepColor Pat3 setpattern} bind def
/Pattern4 {PatternBgnd KeepColor Landscape {Pat5} {Pat4} ifelse setpattern} bind def
/Pattern5 {PatternBgnd KeepColor Landscape {Pat4} {Pat5} ifelse setpattern} bind def
/Pattern6 {PatternBgnd KeepColor Landscape {Pat9} {Pat6} ifelse setpattern} bind def
/Pattern7 {PatternBgnd KeepColor Landscape {Pat8} {Pat7} ifelse setpattern} bind def
} def
%
%
%End of PostScript Level 2 code
%
/PatternBgnd {
  TransparentPatterns {} {gsave 1 setgray fill grestore} ifelse
} def
%
% Substitute for Level 2 pattern fill codes with
% grayscale if Level 2 support is not selected.
%
/Level1PatternFill {
/Pattern1 {0.250 Density} bind def
/Pattern2 {0.500 Density} bind def
/Pattern3 {0.750 Density} bind def
/Pattern4 {0.125 Density} bind def
/Pattern5 {0.375 Density} bind def
/Pattern6 {0.625 Density} bind def
/Pattern7 {0.875 Density} bind def
} def
%
% Now test for support of Level 2 code
%
Level1 {Level1PatternFill} {Level2PatternFill} ifelse
%
/Symbol-Oblique /Symbol findfont [1 0 .167 1 0 0] makefont
dup length dict begin {1 index /FID eq {pop pop} {def} ifelse} forall
currentdict end definefont pop
%
/MFshow {
   { dup 5 get 3 ge
     { 5 get 3 eq {gsave} {grestore} ifelse }
     {dup dup 0 get findfont exch 1 get scalefont setfont
     [ currentpoint ] exch dup 2 get 0 exch R dup 5 get 2 ne {dup dup 6
     get exch 4 get {textshow} {stringwidth pop 0 R} ifelse }if dup 5 get 0 eq
     {dup 3 get {2 get neg 0 exch R pop} {pop aload pop M} ifelse} {dup 5
     get 1 eq {dup 2 get exch dup 3 get exch 6 get stringwidth pop -2 div
     dup 0 R} {dup 6 get stringwidth pop -2 div 0 R 6 get
     textshow 2 index {aload pop M neg 3 -1 roll neg R pop pop} {pop pop pop
     pop aload pop M} ifelse }ifelse }ifelse }
     ifelse }
   forall} def
/Gswidth {dup type /stringtype eq {stringwidth} {pop (n) stringwidth} ifelse} def
/MFwidth {0 exch { dup 5 get 3 ge { 5 get 3 eq { 0 } { pop } ifelse }
 {dup 3 get{dup dup 0 get findfont exch 1 get scalefont setfont
     6 get Gswidth pop add} {pop} ifelse} ifelse} forall} def
/MLshow { currentpoint stroke M
  0 exch R
  Blacktext {gsave 0 setgray MFshow grestore} {MFshow} ifelse } bind def
/MRshow { currentpoint stroke M
  exch dup MFwidth neg 3 -1 roll R
  Blacktext {gsave 0 setgray MFshow grestore} {MFshow} ifelse } bind def
/MCshow { currentpoint stroke M
  exch dup MFwidth -2 div 3 -1 roll R
  Blacktext {gsave 0 setgray MFshow grestore} {MFshow} ifelse } bind def
/XYsave    { [( ) 1 2 true false 3 ()] } bind def
/XYrestore { [( ) 1 2 true false 4 ()] } bind def
Level1 SuppressPDFMark or 
{} {
/SDict 10 dict def
systemdict /pdfmark known not {
  userdict /pdfmark systemdict /cleartomark get put
} if
SDict begin [
  /Title (packets-uv-s-log-packets-uv-ccdf-loglin.eps)
  /Subject (gnuplot plot)
  /Creator (gnuplot 5.0 patchlevel 3)
  /Author (tiphaine)
%  /Producer (gnuplot)
%  /Keywords ()
  /CreationDate (Mon May 29 11:11:20 2017)
  /DOCINFO pdfmark
end
} ifelse
%
% Support for boxed text - Ethan A Merritt May 2005
%
/InitTextBox { userdict /TBy2 3 -1 roll put userdict /TBx2 3 -1 roll put
           userdict /TBy1 3 -1 roll put userdict /TBx1 3 -1 roll put
	   /Boxing true def } def
/ExtendTextBox { Boxing
    { gsave dup false charpath pathbbox
      dup TBy2 gt {userdict /TBy2 3 -1 roll put} {pop} ifelse
      dup TBx2 gt {userdict /TBx2 3 -1 roll put} {pop} ifelse
      dup TBy1 lt {userdict /TBy1 3 -1 roll put} {pop} ifelse
      dup TBx1 lt {userdict /TBx1 3 -1 roll put} {pop} ifelse
      grestore } if } def
/PopTextBox { newpath TBx1 TBxmargin sub TBy1 TBymargin sub M
               TBx1 TBxmargin sub TBy2 TBymargin add L
	       TBx2 TBxmargin add TBy2 TBymargin add L
	       TBx2 TBxmargin add TBy1 TBymargin sub L closepath } def
/DrawTextBox { PopTextBox stroke /Boxing false def} def
/FillTextBox { gsave PopTextBox 1 1 1 setrgbcolor fill grestore /Boxing false def} def
0 0 0 0 InitTextBox
/TBxmargin 20 def
/TBymargin 20 def
/Boxing false def
/textshow { ExtendTextBox Gshow } def
%
% redundant definitions for compatibility with prologue.ps older than 5.0.2
/LTB {BL [] LCb DL} def
/LTb {PL [] LCb DL} def
end
%%EndProlog
%%Page: 1 1
gnudict begin
gsave
doclip
50 50 translate
0.100 0.100 scale
90 rotate
0 -5040 translate
0 setgray
newpath
(Helvetica) findfont 140 scalefont setfont
BackgroundColor 0 lt 3 1 roll 0 lt exch 0 lt or or not {gsave BackgroundColor C clippath fill grestore} if
1.000 UL
LTb
LCb setrgbcolor
630 280 M
63 0 V
6254 0 R
-63 0 V
stroke
546 280 M
[ [(Helvetica) 140.0 0.0 true true 0 ( 0)]
] -46.7 MRshow
1.000 UL
LTb
LCb setrgbcolor
630 739 M
63 0 V
6254 0 R
-63 0 V
stroke
546 739 M
[ [(Helvetica) 140.0 0.0 true true 0 ( 0.05)]
] -46.7 MRshow
1.000 UL
LTb
LCb setrgbcolor
630 1198 M
63 0 V
6254 0 R
-63 0 V
stroke
546 1198 M
[ [(Helvetica) 140.0 0.0 true true 0 ( 0.1)]
] -46.7 MRshow
1.000 UL
LTb
LCb setrgbcolor
630 1657 M
63 0 V
6254 0 R
-63 0 V
stroke
546 1657 M
[ [(Helvetica) 140.0 0.0 true true 0 ( 0.15)]
] -46.7 MRshow
1.000 UL
LTb
LCb setrgbcolor
630 2116 M
63 0 V
6254 0 R
-63 0 V
stroke
546 2116 M
[ [(Helvetica) 140.0 0.0 true true 0 ( 0.2)]
] -46.7 MRshow
1.000 UL
LTb
LCb setrgbcolor
630 2576 M
63 0 V
6254 0 R
-63 0 V
stroke
546 2576 M
[ [(Helvetica) 140.0 0.0 true true 0 ( 0.25)]
] -46.7 MRshow
1.000 UL
LTb
LCb setrgbcolor
630 3035 M
63 0 V
6254 0 R
-63 0 V
stroke
546 3035 M
[ [(Helvetica) 140.0 0.0 true true 0 ( 0.3)]
] -46.7 MRshow
1.000 UL
LTb
LCb setrgbcolor
630 3494 M
63 0 V
6254 0 R
-63 0 V
stroke
546 3494 M
[ [(Helvetica) 140.0 0.0 true true 0 ( 0.35)]
] -46.7 MRshow
1.000 UL
LTb
LCb setrgbcolor
630 3953 M
63 0 V
6254 0 R
-63 0 V
stroke
546 3953 M
[ [(Helvetica) 140.0 0.0 true true 0 ( 0.4)]
] -46.7 MRshow
1.000 UL
LTb
LCb setrgbcolor
630 4412 M
63 0 V
6254 0 R
-63 0 V
stroke
546 4412 M
[ [(Helvetica) 140.0 0.0 true true 0 ( 0.45)]
] -46.7 MRshow
1.000 UL
LTb
LCb setrgbcolor
630 4871 M
63 0 V
6254 0 R
-63 0 V
stroke
546 4871 M
[ [(Helvetica) 140.0 0.0 true true 0 ( 0.5)]
] -46.7 MRshow
1.000 UL
LTb
LCb setrgbcolor
630 280 M
0 63 V
0 4528 R
0 -63 V
stroke
630 140 M
[ [(Helvetica) 140.0 0.0 true true 0 ( 1)]
] -46.7 MCshow
1.000 UL
LTb
LCb setrgbcolor
868 280 M
0 31 V
0 4560 R
0 -31 V
1182 280 M
0 31 V
0 4560 R
0 -31 V
1343 280 M
0 31 V
0 4560 R
0 -31 V
1420 280 M
0 63 V
0 4528 R
0 -63 V
stroke
1420 140 M
[ [(Helvetica) 140.0 0.0 true true 0 ( 10)]
] -46.7 MCshow
1.000 UL
LTb
LCb setrgbcolor
1657 280 M
0 31 V
0 4560 R
0 -31 V
1972 280 M
0 31 V
0 4560 R
0 -31 V
2133 280 M
0 31 V
0 4560 R
0 -31 V
2209 280 M
0 63 V
0 4528 R
0 -63 V
stroke
2209 140 M
[ [(Helvetica) 140.0 0.0 true true 0 ( 100)]
] -46.7 MCshow
1.000 UL
LTb
LCb setrgbcolor
2447 280 M
0 31 V
0 4560 R
0 -31 V
2761 280 M
0 31 V
0 4560 R
0 -31 V
2922 280 M
0 31 V
0 4560 R
0 -31 V
2999 280 M
0 63 V
0 4528 R
0 -63 V
stroke
2999 140 M
[ [(Helvetica) 140.0 0.0 true true 0 ( 1000)]
] -46.7 MCshow
1.000 UL
LTb
LCb setrgbcolor
3237 280 M
0 31 V
0 4560 R
0 -31 V
3551 280 M
0 31 V
0 4560 R
0 -31 V
3712 280 M
0 31 V
0 4560 R
0 -31 V
3789 280 M
0 63 V
0 4528 R
0 -63 V
stroke
3789 140 M
[ [(Helvetica) 140.0 0.0 true true 0 ( 10000)]
] -46.7 MCshow
1.000 UL
LTb
LCb setrgbcolor
4026 280 M
0 31 V
0 4560 R
0 -31 V
4340 280 M
0 31 V
0 4560 R
0 -31 V
4502 280 M
0 31 V
0 4560 R
0 -31 V
4578 280 M
0 63 V
0 4528 R
0 -63 V
stroke
4578 140 M
[ [(Helvetica) 140.0 0.0 true true 0 ( 100000)]
] -46.7 MCshow
1.000 UL
LTb
LCb setrgbcolor
4816 280 M
0 31 V
0 4560 R
0 -31 V
5130 280 M
0 31 V
0 4560 R
0 -31 V
5291 280 M
0 31 V
0 4560 R
0 -31 V
5368 280 M
0 63 V
0 4528 R
0 -63 V
stroke
5368 140 M
[ [(Helvetica) 140.0 0.0 true true 0 ( 1x10)]
[(Helvetica) 112.0 70.0 true true 0 (6)]
] -60.7 MCshow
1.000 UL
LTb
LCb setrgbcolor
5605 280 M
0 31 V
0 4560 R
0 -31 V
5920 280 M
0 31 V
0 4560 R
0 -31 V
6081 280 M
0 31 V
0 4560 R
0 -31 V
6157 280 M
0 63 V
0 4528 R
0 -63 V
stroke
6157 140 M
[ [(Helvetica) 140.0 0.0 true true 0 ( 1x10)]
[(Helvetica) 112.0 70.0 true true 0 (7)]
] -60.7 MCshow
1.000 UL
LTb
LCb setrgbcolor
6395 280 M
0 31 V
0 4560 R
0 -31 V
6709 280 M
0 31 V
0 4560 R
0 -31 V
6870 280 M
0 31 V
0 4560 R
0 -31 V
6947 280 M
0 63 V
0 4528 R
0 -63 V
stroke
6947 140 M
[ [(Helvetica) 140.0 0.0 true true 0 ( 1x10)]
[(Helvetica) 112.0 70.0 true true 0 (8)]
] -60.7 MCshow
1.000 UL
LTb
LCb setrgbcolor
1.000 UL
LTB
LCb setrgbcolor
630 4871 N
630 280 L
6317 0 V
0 4591 V
-6317 0 V
Z stroke
1.000 UP
1.000 UL
LTb
LCb setrgbcolor
% Begin plot #1
1.000 UP
1.000 UL
LTb
0.58 0.00 0.83 C 742 4427 Pls
1039 2150 Pls
1217 1814 Pls
1345 1567 Pls
1444 1422 Pls
1526 1293 Pls
1594 1223 Pls
1653 1137 Pls
1706 1086 Pls
1752 999 Pls
1794 958 Pls
1833 905 Pls
1868 873 Pls
1900 838 Pls
1931 807 Pls
1959 773 Pls
1985 751 Pls
2010 724 Pls
2034 704 Pls
2056 678 Pls
2077 662 Pls
2097 646 Pls
2116 635 Pls
2135 620 Pls
2152 610 Pls
2169 600 Pls
2185 592 Pls
2201 582 Pls
2216 576 Pls
2231 566 Pls
2245 560 Pls
2258 553 Pls
2271 548 Pls
2284 541 Pls
2297 537 Pls
2309 530 Pls
2320 526 Pls
2332 522 Pls
2343 518 Pls
2353 513 Pls
2364 510 Pls
2374 506 Pls
2384 503 Pls
2394 499 Pls
2403 496 Pls
2413 493 Pls
2422 488 Pls
2431 483 Pls
2439 479 Pls
2448 476 Pls
2456 473 Pls
2464 470 Pls
2472 467 Pls
2480 465 Pls
2488 463 Pls
2496 460 Pls
2503 458 Pls
2510 456 Pls
2517 454 Pls
2525 450 Pls
2531 448 Pls
2538 446 Pls
2545 444 Pls
2552 443 Pls
2558 441 Pls
2564 439 Pls
2571 438 Pls
2577 436 Pls
2583 435 Pls
2589 433 Pls
2595 432 Pls
2601 430 Pls
2607 429 Pls
2612 428 Pls
2618 427 Pls
2623 425 Pls
2629 424 Pls
2634 423 Pls
2639 421 Pls
2645 420 Pls
2650 419 Pls
2655 418 Pls
2660 417 Pls
2665 416 Pls
2670 415 Pls
2675 414 Pls
2679 413 Pls
2684 412 Pls
2689 411 Pls
2694 410 Pls
2698 409 Pls
2703 408 Pls
2707 407 Pls
2712 406 Pls
2716 405 Pls
2720 404 Pls
2725 403 Pls
2729 403 Pls
2733 402 Pls
2737 398 Pls
2741 398 Pls
2745 397 Pls
2749 396 Pls
2753 396 Pls
2757 395 Pls
2761 394 Pls
2765 393 Pls
2769 393 Pls
2773 392 Pls
2776 391 Pls
2780 390 Pls
2784 390 Pls
2788 389 Pls
2791 388 Pls
2795 388 Pls
2798 387 Pls
2802 386 Pls
2805 386 Pls
2809 385 Pls
2812 384 Pls
2816 383 Pls
2819 383 Pls
2822 382 Pls
2826 382 Pls
2829 381 Pls
2832 381 Pls
2836 380 Pls
2839 380 Pls
2842 379 Pls
2845 378 Pls
2848 377 Pls
2851 376 Pls
2854 376 Pls
2858 376 Pls
2861 375 Pls
2864 375 Pls
2867 374 Pls
2870 373 Pls
2873 373 Pls
2875 372 Pls
2878 372 Pls
2881 371 Pls
2884 371 Pls
2887 370 Pls
2890 370 Pls
2893 370 Pls
2895 369 Pls
2898 369 Pls
2901 369 Pls
2904 368 Pls
2906 368 Pls
2909 367 Pls
2912 367 Pls
2914 367 Pls
2917 366 Pls
2920 366 Pls
2922 366 Pls
2925 365 Pls
2927 365 Pls
2930 364 Pls
2933 364 Pls
2935 364 Pls
2938 363 Pls
2940 363 Pls
2943 363 Pls
2945 363 Pls
2947 362 Pls
2950 362 Pls
2952 362 Pls
2955 361 Pls
2957 361 Pls
2959 361 Pls
2962 360 Pls
2964 360 Pls
2967 360 Pls
2969 359 Pls
2971 359 Pls
2973 359 Pls
2976 358 Pls
2978 358 Pls
2980 357 Pls
2982 357 Pls
2985 357 Pls
2987 356 Pls
2989 356 Pls
2991 356 Pls
2994 356 Pls
2996 355 Pls
2998 355 Pls
3000 355 Pls
3002 355 Pls
3004 354 Pls
3006 354 Pls
3008 354 Pls
3011 354 Pls
3013 353 Pls
3015 353 Pls
3017 353 Pls
3019 353 Pls
3021 352 Pls
3023 352 Pls
3025 352 Pls
3027 352 Pls
3029 351 Pls
3031 351 Pls
3033 351 Pls
3035 351 Pls
3037 350 Pls
3039 350 Pls
3041 350 Pls
3042 349 Pls
3044 349 Pls
3046 349 Pls
3048 349 Pls
3050 349 Pls
3052 348 Pls
3054 348 Pls
3056 348 Pls
3058 348 Pls
3059 348 Pls
3061 347 Pls
3063 347 Pls
3065 347 Pls
3067 347 Pls
3068 347 Pls
3070 346 Pls
3072 346 Pls
3074 346 Pls
3076 346 Pls
3077 346 Pls
3079 345 Pls
3081 345 Pls
3083 345 Pls
3084 345 Pls
3086 345 Pls
3088 345 Pls
3089 344 Pls
3091 344 Pls
3093 344 Pls
3095 344 Pls
3096 343 Pls
3098 343 Pls
3100 343 Pls
3101 343 Pls
3103 343 Pls
3105 342 Pls
3106 342 Pls
3108 342 Pls
3109 342 Pls
3111 342 Pls
3113 342 Pls
3114 342 Pls
3116 341 Pls
3117 341 Pls
3119 341 Pls
3121 341 Pls
3122 341 Pls
3124 341 Pls
3125 340 Pls
3127 340 Pls
3128 340 Pls
3130 340 Pls
3131 340 Pls
3133 340 Pls
3135 340 Pls
3136 339 Pls
3138 339 Pls
3139 339 Pls
3141 339 Pls
3142 339 Pls
3144 339 Pls
3145 339 Pls
3146 338 Pls
3148 338 Pls
3149 338 Pls
3151 338 Pls
3152 338 Pls
3154 338 Pls
3155 338 Pls
3157 337 Pls
3158 337 Pls
3160 337 Pls
3161 337 Pls
3162 337 Pls
3164 337 Pls
3165 337 Pls
3167 337 Pls
3168 336 Pls
3169 336 Pls
3171 336 Pls
3172 336 Pls
3174 336 Pls
3175 336 Pls
3176 336 Pls
3178 335 Pls
3179 335 Pls
3180 335 Pls
3182 335 Pls
3183 335 Pls
3184 335 Pls
3186 335 Pls
3187 335 Pls
3188 334 Pls
3190 334 Pls
3191 334 Pls
3192 334 Pls
3194 334 Pls
3195 334 Pls
3196 334 Pls
3198 334 Pls
3199 333 Pls
3200 333 Pls
3201 333 Pls
3203 333 Pls
3204 333 Pls
3205 333 Pls
3207 333 Pls
3208 333 Pls
3209 333 Pls
3210 332 Pls
3212 332 Pls
3213 332 Pls
3214 332 Pls
3215 332 Pls
3217 332 Pls
3218 332 Pls
3219 332 Pls
3220 332 Pls
3221 331 Pls
3223 331 Pls
3224 331 Pls
3225 331 Pls
3226 331 Pls
3227 331 Pls
3229 331 Pls
3230 331 Pls
3231 331 Pls
3232 331 Pls
3233 331 Pls
3235 330 Pls
3236 330 Pls
3237 330 Pls
3238 330 Pls
3239 330 Pls
3240 330 Pls
3242 330 Pls
3243 330 Pls
3244 330 Pls
3245 330 Pls
3246 329 Pls
3247 329 Pls
3249 329 Pls
3250 329 Pls
3251 329 Pls
3252 329 Pls
3253 329 Pls
3254 329 Pls
3255 329 Pls
3256 329 Pls
3258 328 Pls
3259 328 Pls
3260 328 Pls
3261 328 Pls
3262 328 Pls
3263 328 Pls
3264 328 Pls
3265 328 Pls
3266 328 Pls
3267 328 Pls
3268 328 Pls
3270 328 Pls
3271 327 Pls
3272 327 Pls
3273 327 Pls
3274 327 Pls
3275 327 Pls
3276 327 Pls
3277 327 Pls
3278 327 Pls
3279 327 Pls
3280 327 Pls
3281 327 Pls
3282 327 Pls
3283 327 Pls
3284 326 Pls
3285 326 Pls
3286 326 Pls
3287 326 Pls
3288 326 Pls
3290 326 Pls
3291 326 Pls
3292 326 Pls
3293 326 Pls
3294 326 Pls
3295 326 Pls
3296 326 Pls
3297 326 Pls
3298 326 Pls
3299 325 Pls
3300 325 Pls
3301 325 Pls
3302 325 Pls
3303 325 Pls
3304 325 Pls
3305 325 Pls
3306 325 Pls
3307 325 Pls
3308 325 Pls
3308 325 Pls
3309 325 Pls
3310 325 Pls
3311 324 Pls
3312 324 Pls
3313 324 Pls
3314 324 Pls
3315 324 Pls
3316 324 Pls
3317 324 Pls
3318 324 Pls
3319 324 Pls
3320 324 Pls
3321 324 Pls
3322 324 Pls
3323 324 Pls
3324 323 Pls
3325 323 Pls
3326 323 Pls
3327 323 Pls
3328 323 Pls
3328 323 Pls
3329 323 Pls
3330 323 Pls
3331 323 Pls
3332 323 Pls
3333 323 Pls
3334 323 Pls
3335 323 Pls
3336 323 Pls
3337 323 Pls
3338 322 Pls
3339 322 Pls
3339 322 Pls
3340 322 Pls
3341 322 Pls
3342 322 Pls
3343 322 Pls
3344 322 Pls
3345 322 Pls
3346 322 Pls
3347 322 Pls
3347 322 Pls
3348 322 Pls
3349 322 Pls
3350 322 Pls
3351 322 Pls
3352 321 Pls
3353 321 Pls
3354 321 Pls
3354 321 Pls
3355 321 Pls
3356 321 Pls
3357 321 Pls
3358 321 Pls
3359 321 Pls
3360 321 Pls
3360 321 Pls
3361 321 Pls
3362 321 Pls
3363 321 Pls
3364 321 Pls
3365 321 Pls
3366 320 Pls
3366 320 Pls
3367 320 Pls
3368 320 Pls
3369 320 Pls
3370 320 Pls
3371 320 Pls
3371 320 Pls
3372 320 Pls
3373 320 Pls
3374 320 Pls
3375 320 Pls
3376 320 Pls
3376 320 Pls
3377 319 Pls
3378 319 Pls
3379 319 Pls
3380 319 Pls
3380 319 Pls
3381 319 Pls
3382 319 Pls
3383 319 Pls
3384 319 Pls
3384 319 Pls
3385 319 Pls
3386 319 Pls
3387 319 Pls
3388 319 Pls
3388 319 Pls
3389 319 Pls
3390 319 Pls
3391 319 Pls
3392 319 Pls
3392 319 Pls
3393 319 Pls
3394 318 Pls
3395 318 Pls
3396 318 Pls
3396 318 Pls
3397 318 Pls
3398 318 Pls
3399 318 Pls
3399 318 Pls
3400 318 Pls
3401 318 Pls
3402 318 Pls
3403 318 Pls
3403 318 Pls
3404 318 Pls
3405 318 Pls
3406 318 Pls
3406 318 Pls
3407 317 Pls
3408 317 Pls
3409 317 Pls
3409 317 Pls
3410 317 Pls
3411 317 Pls
3412 317 Pls
3412 317 Pls
3413 317 Pls
3414 317 Pls
3415 317 Pls
3415 317 Pls
3416 317 Pls
3417 317 Pls
3418 317 Pls
3418 317 Pls
3419 317 Pls
3420 317 Pls
3420 317 Pls
3421 317 Pls
3422 317 Pls
3423 316 Pls
3423 316 Pls
3424 316 Pls
3425 316 Pls
3426 316 Pls
3426 316 Pls
3427 316 Pls
3428 316 Pls
3428 316 Pls
3429 316 Pls
3430 316 Pls
3431 316 Pls
3431 316 Pls
3432 316 Pls
3433 316 Pls
3433 316 Pls
3434 316 Pls
3435 316 Pls
3436 316 Pls
3436 316 Pls
3437 316 Pls
3438 315 Pls
3438 315 Pls
3439 315 Pls
3440 315 Pls
3440 315 Pls
3441 315 Pls
3442 315 Pls
3443 315 Pls
3443 315 Pls
3444 315 Pls
3445 315 Pls
3445 315 Pls
3446 315 Pls
3447 315 Pls
3447 315 Pls
3448 315 Pls
3449 315 Pls
3449 315 Pls
3450 315 Pls
3451 315 Pls
3451 315 Pls
3452 315 Pls
3453 315 Pls
3453 315 Pls
3454 315 Pls
3455 314 Pls
3455 314 Pls
3456 314 Pls
3457 314 Pls
3457 314 Pls
3458 314 Pls
3459 314 Pls
3459 314 Pls
3460 314 Pls
3461 314 Pls
3461 314 Pls
3462 314 Pls
3463 314 Pls
3463 314 Pls
3464 314 Pls
3465 314 Pls
3465 314 Pls
3466 314 Pls
3467 314 Pls
3467 314 Pls
3468 314 Pls
3469 314 Pls
3469 314 Pls
3470 314 Pls
3471 314 Pls
3471 314 Pls
3472 313 Pls
3472 313 Pls
3473 313 Pls
3474 313 Pls
3474 313 Pls
3475 313 Pls
3476 313 Pls
3476 313 Pls
3477 313 Pls
3478 313 Pls
3478 313 Pls
3479 313 Pls
3479 313 Pls
3480 313 Pls
3481 313 Pls
3481 313 Pls
3482 313 Pls
3483 313 Pls
3483 313 Pls
3484 313 Pls
3484 312 Pls
3485 312 Pls
3486 312 Pls
3486 312 Pls
3487 312 Pls
3488 312 Pls
3488 312 Pls
3489 312 Pls
3489 312 Pls
3490 312 Pls
3491 312 Pls
3491 312 Pls
3492 312 Pls
3492 312 Pls
3493 312 Pls
3494 311 Pls
3494 311 Pls
3495 311 Pls
3495 311 Pls
3496 311 Pls
3497 311 Pls
3497 311 Pls
3498 311 Pls
3498 311 Pls
3499 311 Pls
3500 311 Pls
3500 311 Pls
3501 311 Pls
3501 311 Pls
3502 311 Pls
3503 310 Pls
3503 310 Pls
3504 310 Pls
3504 310 Pls
3505 310 Pls
3506 310 Pls
3506 310 Pls
3507 310 Pls
3507 310 Pls
3508 310 Pls
3509 310 Pls
3509 310 Pls
3510 310 Pls
3510 310 Pls
3511 310 Pls
3511 310 Pls
3512 310 Pls
3513 309 Pls
3513 309 Pls
3514 309 Pls
3514 309 Pls
3515 309 Pls
3515 309 Pls
3516 309 Pls
3517 309 Pls
3517 309 Pls
3518 309 Pls
3518 309 Pls
3519 309 Pls
3519 309 Pls
3520 309 Pls
3521 309 Pls
3521 309 Pls
3522 309 Pls
3522 309 Pls
3523 309 Pls
3523 309 Pls
3524 308 Pls
3525 308 Pls
3525 308 Pls
3526 308 Pls
3526 308 Pls
3527 308 Pls
3527 308 Pls
3528 308 Pls
3528 308 Pls
3529 308 Pls
3530 308 Pls
3530 308 Pls
3531 308 Pls
3531 308 Pls
3532 308 Pls
3532 308 Pls
3533 308 Pls
3533 308 Pls
3534 308 Pls
3534 308 Pls
3535 308 Pls
3536 308 Pls
3536 308 Pls
3537 307 Pls
3537 307 Pls
3538 307 Pls
3538 307 Pls
3539 307 Pls
3539 307 Pls
3540 307 Pls
3540 307 Pls
3541 307 Pls
3541 307 Pls
3542 307 Pls
3543 307 Pls
3543 307 Pls
3544 307 Pls
3544 307 Pls
3545 307 Pls
3545 307 Pls
3546 307 Pls
3546 307 Pls
3547 307 Pls
3547 307 Pls
3548 307 Pls
3548 307 Pls
3549 307 Pls
3549 307 Pls
3550 307 Pls
3550 307 Pls
3551 307 Pls
3552 307 Pls
3552 306 Pls
3553 306 Pls
3553 306 Pls
3554 306 Pls
3554 306 Pls
3555 306 Pls
3555 306 Pls
3556 306 Pls
3556 306 Pls
3557 306 Pls
3557 306 Pls
3558 306 Pls
3558 306 Pls
3559 306 Pls
3559 306 Pls
3560 306 Pls
3560 306 Pls
3561 306 Pls
3561 306 Pls
3562 306 Pls
3562 306 Pls
3563 306 Pls
3563 306 Pls
3564 306 Pls
3564 306 Pls
3565 306 Pls
3565 306 Pls
3566 306 Pls
3566 306 Pls
3567 306 Pls
3567 306 Pls
3568 305 Pls
3568 305 Pls
3569 305 Pls
3569 305 Pls
3570 305 Pls
3570 305 Pls
3571 305 Pls
3571 305 Pls
3572 305 Pls
3572 305 Pls
3573 305 Pls
3573 305 Pls
3574 305 Pls
3574 305 Pls
3575 305 Pls
3575 305 Pls
3576 305 Pls
3576 305 Pls
3577 305 Pls
3577 305 Pls
3578 305 Pls
3578 305 Pls
3579 305 Pls
3579 305 Pls
3580 305 Pls
3580 305 Pls
3581 305 Pls
3581 305 Pls
3582 305 Pls
3582 305 Pls
3583 304 Pls
3583 304 Pls
3584 304 Pls
3584 304 Pls
3585 304 Pls
3585 304 Pls
3586 304 Pls
3586 304 Pls
3586 304 Pls
3587 304 Pls
3587 304 Pls
3588 304 Pls
3588 304 Pls
3589 304 Pls
3589 304 Pls
3590 304 Pls
3590 304 Pls
3591 304 Pls
3591 304 Pls
3592 304 Pls
3592 304 Pls
3593 304 Pls
3593 304 Pls
3594 304 Pls
3594 304 Pls
3594 304 Pls
3595 304 Pls
3595 304 Pls
3596 304 Pls
3596 304 Pls
3597 304 Pls
3597 304 Pls
3598 304 Pls
3598 304 Pls
3599 304 Pls
3599 304 Pls
3600 304 Pls
3600 304 Pls
3601 304 Pls
3601 304 Pls
3601 304 Pls
3602 304 Pls
3602 304 Pls
3603 304 Pls
3603 304 Pls
3604 304 Pls
3604 304 Pls
3605 304 Pls
3606 304 Pls
3606 303 Pls
3606 303 Pls
3607 303 Pls
3607 303 Pls
3608 303 Pls
3608 303 Pls
3609 303 Pls
3609 303 Pls
3610 303 Pls
3610 303 Pls
3611 303 Pls
3611 303 Pls
3612 303 Pls
3612 303 Pls
3613 303 Pls
3613 303 Pls
3614 303 Pls
3614 303 Pls
3615 303 Pls
3615 303 Pls
3615 303 Pls
3616 303 Pls
3616 303 Pls
3617 303 Pls
3617 303 Pls
3618 303 Pls
3618 303 Pls
3618 303 Pls
3619 303 Pls
3619 303 Pls
3620 303 Pls
3620 303 Pls
3621 303 Pls
3621 303 Pls
3622 303 Pls
3622 303 Pls
3622 303 Pls
3623 303 Pls
3623 303 Pls
3624 303 Pls
3624 303 Pls
3625 303 Pls
3625 303 Pls
3625 303 Pls
3626 303 Pls
3626 303 Pls
3627 303 Pls
3627 303 Pls
3628 303 Pls
3628 303 Pls
3628 303 Pls
3629 303 Pls
3629 303 Pls
3630 303 Pls
3630 303 Pls
3631 303 Pls
3631 302 Pls
3631 302 Pls
3632 302 Pls
3632 302 Pls
3633 302 Pls
3633 302 Pls
3634 302 Pls
3634 302 Pls
3634 302 Pls
3635 302 Pls
3635 302 Pls
3636 302 Pls
3636 302 Pls
3636 302 Pls
3637 302 Pls
3637 302 Pls
3638 302 Pls
3638 302 Pls
3639 302 Pls
3639 302 Pls
3639 302 Pls
3640 302 Pls
3640 302 Pls
3641 302 Pls
3641 302 Pls
3641 302 Pls
3642 302 Pls
3642 302 Pls
3643 302 Pls
3643 302 Pls
3644 302 Pls
3644 302 Pls
3644 302 Pls
3645 302 Pls
3645 302 Pls
3646 302 Pls
3646 302 Pls
3646 302 Pls
3647 302 Pls
3647 302 Pls
3648 302 Pls
3648 302 Pls
3648 302 Pls
3649 302 Pls
3649 302 Pls
3650 302 Pls
3650 302 Pls
3650 302 Pls
3651 302 Pls
3651 302 Pls
3652 302 Pls
3652 302 Pls
3652 302 Pls
3653 302 Pls
3653 302 Pls
3654 302 Pls
3654 302 Pls
3655 302 Pls
3655 302 Pls
3655 301 Pls
3656 301 Pls
3656 301 Pls
3656 301 Pls
3657 301 Pls
3657 301 Pls
3658 301 Pls
3658 301 Pls
3658 301 Pls
3659 301 Pls
3659 301 Pls
3660 301 Pls
3660 301 Pls
3660 301 Pls
3661 301 Pls
3661 301 Pls
3662 301 Pls
3662 301 Pls
3662 301 Pls
3663 301 Pls
3663 301 Pls
3664 301 Pls
3664 301 Pls
3664 301 Pls
3665 301 Pls
3665 301 Pls
3666 301 Pls
3666 301 Pls
3666 301 Pls
3667 301 Pls
3667 301 Pls
3667 301 Pls
3668 301 Pls
3668 301 Pls
3669 301 Pls
3669 301 Pls
3669 301 Pls
3670 301 Pls
3670 301 Pls
3671 301 Pls
3671 301 Pls
3671 301 Pls
3672 301 Pls
3672 301 Pls
3672 301 Pls
3673 301 Pls
3673 301 Pls
3674 301 Pls
3674 301 Pls
3674 301 Pls
3675 301 Pls
3675 301 Pls
3676 301 Pls
3676 301 Pls
3676 301 Pls
3677 301 Pls
3677 301 Pls
3677 301 Pls
3678 301 Pls
3678 300 Pls
3679 300 Pls
3679 300 Pls
3679 300 Pls
3680 300 Pls
3680 300 Pls
3680 300 Pls
3681 300 Pls
3681 300 Pls
3682 300 Pls
3682 300 Pls
3682 300 Pls
3683 300 Pls
3683 300 Pls
3683 300 Pls
3684 300 Pls
3684 300 Pls
3684 300 Pls
3685 300 Pls
3686 300 Pls
3686 300 Pls
3686 300 Pls
3687 300 Pls
3687 300 Pls
3688 300 Pls
3688 300 Pls
3689 300 Pls
3689 300 Pls
3690 300 Pls
3690 300 Pls
3690 300 Pls
3691 300 Pls
3691 300 Pls
3691 300 Pls
3692 300 Pls
3692 300 Pls
3693 300 Pls
3693 300 Pls
3693 300 Pls
3694 300 Pls
3694 300 Pls
3694 300 Pls
3695 300 Pls
3695 300 Pls
3695 300 Pls
3696 300 Pls
3696 300 Pls
3697 300 Pls
3697 300 Pls
3697 300 Pls
3698 300 Pls
3698 300 Pls
3698 300 Pls
3699 300 Pls
3699 300 Pls
3699 300 Pls
3700 300 Pls
3700 300 Pls
3700 300 Pls
3701 300 Pls
3701 300 Pls
3702 300 Pls
3702 300 Pls
3702 300 Pls
3703 300 Pls
3703 300 Pls
3704 300 Pls
3704 300 Pls
3704 300 Pls
3705 300 Pls
3705 300 Pls
3706 300 Pls
3706 300 Pls
3707 300 Pls
3707 300 Pls
3708 300 Pls
3708 299 Pls
3709 299 Pls
3709 299 Pls
3710 299 Pls
3710 299 Pls
3711 299 Pls
3711 299 Pls
3711 299 Pls
3712 299 Pls
3712 299 Pls
3712 299 Pls
3713 299 Pls
3714 299 Pls
3714 299 Pls
3714 299 Pls
3715 299 Pls
3715 299 Pls
3715 299 Pls
3716 299 Pls
3716 299 Pls
3716 299 Pls
3717 299 Pls
3717 299 Pls
3717 299 Pls
3718 299 Pls
3718 299 Pls
3718 299 Pls
3719 299 Pls
3719 299 Pls
3720 299 Pls
3720 299 Pls
3720 299 Pls
3721 299 Pls
3721 299 Pls
3722 299 Pls
3722 299 Pls
3722 299 Pls
3723 299 Pls
3723 299 Pls
3723 299 Pls
3724 299 Pls
3724 299 Pls
3725 299 Pls
3725 299 Pls
3725 299 Pls
3726 299 Pls
3726 299 Pls
3726 299 Pls
3727 299 Pls
3727 299 Pls
3727 299 Pls
3728 299 Pls
3728 299 Pls
3728 299 Pls
3729 299 Pls
3729 299 Pls
3729 299 Pls
3729 299 Pls
3730 299 Pls
3730 299 Pls
3730 299 Pls
3731 299 Pls
3731 299 Pls
3731 299 Pls
3732 299 Pls
3732 299 Pls
3733 299 Pls
3733 299 Pls
3733 299 Pls
3734 299 Pls
3734 299 Pls
3734 299 Pls
3735 299 Pls
3735 299 Pls
3735 299 Pls
3736 299 Pls
3736 299 Pls
3736 299 Pls
3737 299 Pls
3737 299 Pls
3738 298 Pls
3738 298 Pls
3739 298 Pls
3739 298 Pls
3739 298 Pls
3740 298 Pls
3740 298 Pls
3740 298 Pls
3741 298 Pls
3741 298 Pls
3741 298 Pls
3741 298 Pls
3742 298 Pls
3743 298 Pls
3743 298 Pls
3744 298 Pls
3744 298 Pls
3745 298 Pls
3745 298 Pls
3745 298 Pls
3746 298 Pls
3746 298 Pls
3747 298 Pls
3747 298 Pls
3747 298 Pls
3748 298 Pls
3748 298 Pls
3748 298 Pls
3749 298 Pls
3749 298 Pls
3749 298 Pls
3750 298 Pls
3750 298 Pls
3750 298 Pls
3751 298 Pls
3751 298 Pls
3752 298 Pls
3752 298 Pls
3752 298 Pls
3753 298 Pls
3753 298 Pls
3753 298 Pls
3754 298 Pls
3754 298 Pls
3754 298 Pls
3755 298 Pls
3755 298 Pls
3755 298 Pls
3756 298 Pls
3756 298 Pls
3756 298 Pls
3756 298 Pls
3757 298 Pls
3757 298 Pls
3757 298 Pls
3758 298 Pls
3758 298 Pls
3759 298 Pls
3759 298 Pls
3760 298 Pls
3760 298 Pls
3760 298 Pls
3761 298 Pls
3761 298 Pls
3762 298 Pls
3762 298 Pls
3762 298 Pls
3763 298 Pls
3763 298 Pls
3763 298 Pls
3763 298 Pls
3764 298 Pls
3764 298 Pls
3765 298 Pls
3765 298 Pls
3765 298 Pls
3766 298 Pls
3766 298 Pls
3766 298 Pls
3767 298 Pls
3767 298 Pls
3767 298 Pls
3768 298 Pls
3768 298 Pls
3768 298 Pls
3769 298 Pls
3769 298 Pls
3769 298 Pls
3769 298 Pls
3770 298 Pls
3770 298 Pls
3771 298 Pls
3771 298 Pls
3771 298 Pls
3772 298 Pls
3772 297 Pls
3772 297 Pls
3773 297 Pls
3773 297 Pls
3773 297 Pls
3774 297 Pls
3774 297 Pls
3775 297 Pls
3775 297 Pls
3776 297 Pls
3776 297 Pls
3776 297 Pls
3777 297 Pls
3777 297 Pls
3777 297 Pls
3777 297 Pls
3778 297 Pls
3778 297 Pls
3779 297 Pls
3779 297 Pls
3779 297 Pls
3779 297 Pls
3780 297 Pls
3780 297 Pls
3780 297 Pls
3781 297 Pls
3781 297 Pls
3781 297 Pls
3781 297 Pls
3782 297 Pls
3782 297 Pls
3782 297 Pls
3783 297 Pls
3783 297 Pls
3783 297 Pls
3783 297 Pls
3784 297 Pls
3784 297 Pls
3785 297 Pls
3785 297 Pls
3785 297 Pls
3785 297 Pls
3786 297 Pls
3786 297 Pls
3786 297 Pls
3787 297 Pls
3787 297 Pls
3787 297 Pls
3788 297 Pls
3788 297 Pls
3788 297 Pls
3789 297 Pls
3789 297 Pls
3789 297 Pls
3789 297 Pls
3790 297 Pls
3790 297 Pls
3790 297 Pls
3791 297 Pls
3791 297 Pls
3791 297 Pls
3792 297 Pls
3792 297 Pls
3792 297 Pls
3792 297 Pls
3793 297 Pls
3793 297 Pls
3793 297 Pls
3794 297 Pls
3794 297 Pls
3794 297 Pls
3795 297 Pls
3795 297 Pls
3796 297 Pls
3796 297 Pls
3796 297 Pls
3797 297 Pls
3798 297 Pls
3798 297 Pls
3799 297 Pls
3799 297 Pls
3799 297 Pls
3799 297 Pls
3800 297 Pls
3800 297 Pls
3801 297 Pls
3801 297 Pls
3801 297 Pls
3801 297 Pls
3802 297 Pls
3802 297 Pls
3802 297 Pls
3803 297 Pls
3803 297 Pls
3803 297 Pls
3804 297 Pls
3804 297 Pls
3804 296 Pls
3804 296 Pls
3805 296 Pls
3805 296 Pls
3805 296 Pls
3805 296 Pls
3806 296 Pls
3806 296 Pls
3806 296 Pls
3807 296 Pls
3808 296 Pls
3808 296 Pls
3808 296 Pls
3809 296 Pls
3809 296 Pls
3809 296 Pls
3809 296 Pls
3810 296 Pls
3810 296 Pls
3810 296 Pls
3811 296 Pls
3811 296 Pls
3811 296 Pls
3812 296 Pls
3812 296 Pls
3812 296 Pls
3812 296 Pls
3813 296 Pls
3813 296 Pls
3813 296 Pls
3813 296 Pls
3814 296 Pls
3814 296 Pls
3815 296 Pls
3816 296 Pls
3816 296 Pls
3816 296 Pls
3817 296 Pls
3817 296 Pls
3817 296 Pls
3818 296 Pls
3818 296 Pls
3818 296 Pls
3818 296 Pls
3819 296 Pls
3819 296 Pls
3820 296 Pls
3820 296 Pls
3821 296 Pls
3821 296 Pls
3821 296 Pls
3822 296 Pls
3822 296 Pls
3822 296 Pls
3822 296 Pls
3823 296 Pls
3823 296 Pls
3823 296 Pls
3824 296 Pls
3824 296 Pls
3824 296 Pls
3825 296 Pls
3825 296 Pls
3825 296 Pls
3826 296 Pls
3826 296 Pls
3827 296 Pls
3827 296 Pls
3827 296 Pls
3828 296 Pls
3828 296 Pls
3828 296 Pls
3829 296 Pls
3829 296 Pls
3830 296 Pls
3830 296 Pls
3830 296 Pls
3830 296 Pls
3831 296 Pls
3832 296 Pls
3832 296 Pls
3832 296 Pls
3832 296 Pls
3833 296 Pls
3833 296 Pls
3833 296 Pls
3833 296 Pls
3834 296 Pls
3834 296 Pls
3835 296 Pls
3835 296 Pls
3835 296 Pls
3836 296 Pls
3836 296 Pls
3836 296 Pls
3836 296 Pls
3837 296 Pls
3837 296 Pls
3837 296 Pls
3838 296 Pls
3838 296 Pls
3838 296 Pls
3839 296 Pls
3839 295 Pls
3840 295 Pls
3840 295 Pls
3840 295 Pls
3840 295 Pls
3840 295 Pls
3841 295 Pls
3841 295 Pls
3841 295 Pls
3842 295 Pls
3842 295 Pls
3842 295 Pls
3843 295 Pls
3843 295 Pls
3843 295 Pls
3844 295 Pls
3844 295 Pls
3844 295 Pls
3845 295 Pls
3845 295 Pls
3846 295 Pls
3846 295 Pls
3846 295 Pls
3847 295 Pls
3847 295 Pls
3848 295 Pls
3848 295 Pls
3848 295 Pls
3849 295 Pls
3849 295 Pls
3849 295 Pls
3849 295 Pls
3850 295 Pls
3850 295 Pls
3850 295 Pls
3851 295 Pls
3851 295 Pls
3851 295 Pls
3851 295 Pls
3852 295 Pls
3852 295 Pls
3853 295 Pls
3853 295 Pls
3853 295 Pls
3854 295 Pls
3854 295 Pls
3854 295 Pls
3854 295 Pls
3855 295 Pls
3855 295 Pls
3855 295 Pls
3855 295 Pls
3856 295 Pls
3856 295 Pls
3857 295 Pls
3857 295 Pls
3857 295 Pls
3858 295 Pls
3858 295 Pls
3858 295 Pls
3858 295 Pls
3859 295 Pls
3859 295 Pls
3859 295 Pls
3859 295 Pls
3860 295 Pls
3860 295 Pls
3860 295 Pls
3861 295 Pls
3861 295 Pls
3862 295 Pls
3862 295 Pls
3863 295 Pls
3863 295 Pls
3863 295 Pls
3863 295 Pls
3864 295 Pls
3864 295 Pls
3865 295 Pls
3865 295 Pls
3865 295 Pls
3866 295 Pls
3866 295 Pls
3866 295 Pls
3866 295 Pls
3866 295 Pls
3867 295 Pls
3867 295 Pls
3868 295 Pls
3868 295 Pls
3868 295 Pls
3869 295 Pls
3869 295 Pls
3869 295 Pls
3869 295 Pls
3869 295 Pls
3870 295 Pls
3870 295 Pls
3870 295 Pls
3871 295 Pls
3871 295 Pls
3871 295 Pls
3871 295 Pls
3871 295 Pls
3872 295 Pls
3872 295 Pls
3872 295 Pls
3873 295 Pls
3873 295 Pls
3874 295 Pls
3874 295 Pls
3874 295 Pls
3874 295 Pls
3874 295 Pls
3875 295 Pls
3875 295 Pls
3875 295 Pls
3876 295 Pls
3876 295 Pls
3876 295 Pls
3876 295 Pls
3877 295 Pls
3877 295 Pls
3877 295 Pls
3878 295 Pls
3878 295 Pls
3878 295 Pls
3878 295 Pls
3879 295 Pls
3879 295 Pls
3879 295 Pls
3879 295 Pls
3880 295 Pls
3880 294 Pls
3880 294 Pls
3881 294 Pls
3881 294 Pls
3882 294 Pls
3882 294 Pls
3882 294 Pls
3882 294 Pls
3883 294 Pls
3883 294 Pls
3884 294 Pls
3884 294 Pls
3884 294 Pls
3884 294 Pls
3884 294 Pls
3885 294 Pls
3886 294 Pls
3886 294 Pls
3887 294 Pls
3887 294 Pls
3888 294 Pls
3888 294 Pls
3888 294 Pls
3888 294 Pls
3888 294 Pls
3889 294 Pls
3889 294 Pls
3889 294 Pls
3890 294 Pls
3890 294 Pls
3891 294 Pls
3891 294 Pls
3891 294 Pls
3891 294 Pls
3891 294 Pls
3892 294 Pls
3892 294 Pls
3892 294 Pls
3893 294 Pls
3893 294 Pls
3893 294 Pls
3893 294 Pls
3893 294 Pls
3894 294 Pls
3894 294 Pls
3894 294 Pls
3895 294 Pls
3895 294 Pls
3895 294 Pls
3895 294 Pls
3896 294 Pls
3896 294 Pls
3896 294 Pls
3897 294 Pls
3897 294 Pls
3897 294 Pls
3898 294 Pls
3898 294 Pls
3898 294 Pls
3898 294 Pls
3899 294 Pls
3900 294 Pls
3901 294 Pls
3901 294 Pls
3901 294 Pls
3902 294 Pls
3902 294 Pls
3902 294 Pls
3903 294 Pls
3903 294 Pls
3903 294 Pls
3904 294 Pls
3904 294 Pls
3904 294 Pls
3904 294 Pls
3905 294 Pls
3905 294 Pls
3905 294 Pls
3906 294 Pls
3906 294 Pls
3906 294 Pls
3906 294 Pls
3907 294 Pls
3907 294 Pls
3907 294 Pls
3907 294 Pls
3908 294 Pls
3908 294 Pls
3909 294 Pls
3909 294 Pls
3909 294 Pls
3909 294 Pls
3910 294 Pls
3910 294 Pls
3911 294 Pls
3911 294 Pls
3911 294 Pls
3912 294 Pls
3912 294 Pls
3912 294 Pls
3912 294 Pls
3913 294 Pls
3913 294 Pls
3914 294 Pls
3914 294 Pls
3915 294 Pls
3915 294 Pls
3916 294 Pls
3917 294 Pls
3917 294 Pls
3917 294 Pls
3918 294 Pls
3918 294 Pls
3918 294 Pls
3919 294 Pls
3919 294 Pls
3919 294 Pls
3919 294 Pls
3921 294 Pls
3921 294 Pls
3922 294 Pls
3923 294 Pls
3923 294 Pls
3923 294 Pls
3924 294 Pls
3924 294 Pls
3924 294 Pls
3924 294 Pls
3925 294 Pls
3925 294 Pls
3925 294 Pls
3925 294 Pls
3926 294 Pls
3926 294 Pls
3926 294 Pls
3926 293 Pls
3926 293 Pls
3927 293 Pls
3927 293 Pls
3927 293 Pls
3928 293 Pls
3928 293 Pls
3929 293 Pls
3930 293 Pls
3930 293 Pls
3930 293 Pls
3931 293 Pls
3931 293 Pls
3932 293 Pls
3932 293 Pls
3932 293 Pls
3932 293 Pls
3932 293 Pls
3933 293 Pls
3933 293 Pls
3934 293 Pls
3934 293 Pls
3934 293 Pls
3935 293 Pls
3935 293 Pls
3935 293 Pls
3936 293 Pls
3936 293 Pls
3936 293 Pls
3937 293 Pls
3937 293 Pls
3937 293 Pls
3938 293 Pls
3938 293 Pls
3938 293 Pls
3938 293 Pls
3938 293 Pls
3938 293 Pls
3939 293 Pls
3939 293 Pls
3939 293 Pls
3940 293 Pls
3940 293 Pls
3940 293 Pls
3941 293 Pls
3941 293 Pls
3942 293 Pls
3942 293 Pls
3942 293 Pls
3942 293 Pls
3943 293 Pls
3943 293 Pls
3944 293 Pls
3944 293 Pls
3944 293 Pls
3945 293 Pls
3945 293 Pls
3946 293 Pls
3946 293 Pls
3946 293 Pls
3947 293 Pls
3947 293 Pls
3948 293 Pls
3948 293 Pls
3950 293 Pls
3950 293 Pls
3950 293 Pls
3950 293 Pls
3951 293 Pls
3951 293 Pls
3951 293 Pls
3951 293 Pls
3952 293 Pls
3952 293 Pls
3952 293 Pls
3952 293 Pls
3953 293 Pls
3953 293 Pls
3953 293 Pls
3954 293 Pls
3955 293 Pls
3955 293 Pls
3955 293 Pls
3955 293 Pls
3956 293 Pls
3956 293 Pls
3956 293 Pls
3956 293 Pls
3957 293 Pls
3957 293 Pls
3957 293 Pls
3957 293 Pls
3958 293 Pls
3958 293 Pls
3958 293 Pls
3958 293 Pls
3959 293 Pls
3959 293 Pls
3960 293 Pls
3960 293 Pls
3960 293 Pls
3961 293 Pls
3961 293 Pls
3961 293 Pls
3961 293 Pls
3961 293 Pls
3962 293 Pls
3962 293 Pls
3963 293 Pls
3963 293 Pls
3963 293 Pls
3963 293 Pls
3964 293 Pls
3964 293 Pls
3964 293 Pls
3964 293 Pls
3964 293 Pls
3965 293 Pls
3965 293 Pls
3966 293 Pls
3966 293 Pls
3966 293 Pls
3966 293 Pls
3967 293 Pls
3967 293 Pls
3967 293 Pls
3968 293 Pls
3968 293 Pls
3969 293 Pls
3969 293 Pls
3969 293 Pls
3969 293 Pls
3970 293 Pls
3970 293 Pls
3970 293 Pls
3970 293 Pls
3971 293 Pls
3971 293 Pls
3971 293 Pls
3972 293 Pls
3972 293 Pls
3972 293 Pls
3973 293 Pls
3973 293 Pls
3973 293 Pls
3973 292 Pls
3974 292 Pls
3974 292 Pls
3974 292 Pls
3974 292 Pls
3975 292 Pls
3975 292 Pls
3975 292 Pls
3976 292 Pls
3976 292 Pls
3976 292 Pls
3976 292 Pls
3976 292 Pls
3977 292 Pls
3978 292 Pls
3978 292 Pls
3978 292 Pls
3978 292 Pls
3978 292 Pls
3979 292 Pls
3979 292 Pls
3979 292 Pls
3979 292 Pls
3979 292 Pls
3980 292 Pls
3980 292 Pls
3980 292 Pls
3980 292 Pls
3981 292 Pls
3981 292 Pls
3981 292 Pls
3982 292 Pls
3982 292 Pls
3982 292 Pls
3982 292 Pls
3983 292 Pls
3983 292 Pls
3983 292 Pls
3984 292 Pls
3984 292 Pls
3984 292 Pls
3984 292 Pls
3985 292 Pls
3985 292 Pls
3985 292 Pls
3986 292 Pls
3986 292 Pls
3986 292 Pls
3987 292 Pls
3987 292 Pls
3987 292 Pls
3988 292 Pls
3988 292 Pls
3989 292 Pls
3989 292 Pls
3990 292 Pls
3990 292 Pls
3990 292 Pls
3991 292 Pls
3991 292 Pls
3992 292 Pls
3992 292 Pls
3992 292 Pls
3993 292 Pls
3993 292 Pls
3994 292 Pls
3994 292 Pls
3994 292 Pls
3994 292 Pls
3995 292 Pls
3995 292 Pls
3996 292 Pls
3996 292 Pls
3996 292 Pls
3997 292 Pls
3997 292 Pls
3998 292 Pls
3998 292 Pls
3998 292 Pls
3998 292 Pls
3999 292 Pls
3999 292 Pls
4000 292 Pls
4000 292 Pls
4000 292 Pls
4000 292 Pls
4000 292 Pls
4001 292 Pls
4001 292 Pls
4002 292 Pls
4002 292 Pls
4002 292 Pls
4002 292 Pls
4002 292 Pls
4003 292 Pls
4003 292 Pls
4003 292 Pls
4004 292 Pls
4004 292 Pls
4004 292 Pls
4004 292 Pls
4004 292 Pls
4005 292 Pls
4006 292 Pls
4007 292 Pls
4008 292 Pls
4008 292 Pls
4008 292 Pls
4008 292 Pls
4009 292 Pls
4009 292 Pls
4009 292 Pls
4009 292 Pls
4010 292 Pls
4010 292 Pls
4010 292 Pls
4010 292 Pls
4010 292 Pls
4010 292 Pls
4011 292 Pls
4011 292 Pls
4011 292 Pls
4011 292 Pls
4012 292 Pls
4012 292 Pls
4012 292 Pls
4012 292 Pls
4012 292 Pls
4013 292 Pls
4013 292 Pls
4014 292 Pls
4014 292 Pls
4014 292 Pls
4015 292 Pls
4015 292 Pls
4017 292 Pls
4017 292 Pls
4018 292 Pls
4019 292 Pls
4019 292 Pls
4020 292 Pls
4020 292 Pls
4020 292 Pls
4020 292 Pls
4021 292 Pls
4022 292 Pls
4022 292 Pls
4022 292 Pls
4023 292 Pls
4023 292 Pls
4023 292 Pls
4023 292 Pls
4024 292 Pls
4024 292 Pls
4024 292 Pls
4024 292 Pls
4025 292 Pls
4025 292 Pls
4025 292 Pls
4025 292 Pls
4026 292 Pls
4026 292 Pls
4026 292 Pls
4027 292 Pls
4027 292 Pls
4027 292 Pls
4028 292 Pls
4028 292 Pls
4028 292 Pls
4028 292 Pls
4029 292 Pls
4029 292 Pls
4029 292 Pls
4030 292 Pls
4030 292 Pls
4030 291 Pls
4031 291 Pls
4031 291 Pls
4032 291 Pls
4032 291 Pls
4032 291 Pls
4033 291 Pls
4033 291 Pls
4033 291 Pls
4034 291 Pls
4034 291 Pls
4034 291 Pls
4034 291 Pls
4035 291 Pls
4035 291 Pls
4035 291 Pls
4036 291 Pls
4036 291 Pls
4036 291 Pls
4037 291 Pls
4037 291 Pls
4038 291 Pls
4038 291 Pls
4038 291 Pls
4038 291 Pls
4039 291 Pls
4040 291 Pls
4041 291 Pls
4041 291 Pls
4041 291 Pls
4041 291 Pls
4042 291 Pls
4042 291 Pls
4043 291 Pls
4043 291 Pls
4043 291 Pls
4044 291 Pls
4045 291 Pls
4045 291 Pls
4045 291 Pls
4045 291 Pls
4045 291 Pls
4046 291 Pls
4046 291 Pls
4046 291 Pls
4047 291 Pls
4047 291 Pls
4047 291 Pls
4047 291 Pls
4047 291 Pls
4048 291 Pls
4048 291 Pls
4048 291 Pls
4049 291 Pls
4049 291 Pls
4049 291 Pls
4049 291 Pls
4049 291 Pls
4050 291 Pls
4050 291 Pls
4050 291 Pls
4050 291 Pls
4051 291 Pls
4051 291 Pls
4051 291 Pls
4051 291 Pls
4052 291 Pls
4052 291 Pls
4053 291 Pls
4053 291 Pls
4054 291 Pls
4054 291 Pls
4054 291 Pls
4054 291 Pls
4055 291 Pls
4055 291 Pls
4055 291 Pls
4056 291 Pls
4057 291 Pls
4058 291 Pls
4058 291 Pls
4058 291 Pls
4059 291 Pls
4059 291 Pls
4059 291 Pls
4059 291 Pls
4059 291 Pls
4059 291 Pls
4060 291 Pls
4060 291 Pls
4060 291 Pls
4060 291 Pls
4061 291 Pls
4061 291 Pls
4061 291 Pls
4062 291 Pls
4062 291 Pls
4062 291 Pls
4063 291 Pls
4064 291 Pls
4065 291 Pls
4065 291 Pls
4065 291 Pls
4066 291 Pls
4066 291 Pls
4066 291 Pls
4067 291 Pls
4067 291 Pls
4067 291 Pls
4068 291 Pls
4068 291 Pls
4069 291 Pls
4069 291 Pls
4069 291 Pls
4070 291 Pls
4070 291 Pls
4071 291 Pls
4071 291 Pls
4072 291 Pls
4072 291 Pls
4073 291 Pls
4073 291 Pls
4073 291 Pls
4074 291 Pls
4074 291 Pls
4074 291 Pls
4075 291 Pls
4075 291 Pls
4075 291 Pls
4076 291 Pls
4076 291 Pls
4076 291 Pls
4076 291 Pls
4077 291 Pls
4077 291 Pls
4078 291 Pls
4078 291 Pls
4078 291 Pls
4078 291 Pls
4079 291 Pls
4079 291 Pls
4079 291 Pls
4080 291 Pls
4080 291 Pls
4080 291 Pls
4081 291 Pls
4081 291 Pls
4081 291 Pls
4081 291 Pls
4082 291 Pls
4082 291 Pls
4082 291 Pls
4082 291 Pls
4083 291 Pls
4083 291 Pls
4083 291 Pls
4083 291 Pls
4083 291 Pls
4083 291 Pls
4084 291 Pls
4085 291 Pls
4086 291 Pls
4086 291 Pls
4086 291 Pls
4087 291 Pls
4087 291 Pls
4087 291 Pls
4087 291 Pls
4088 291 Pls
4088 291 Pls
4089 291 Pls
4089 291 Pls
4090 291 Pls
4090 291 Pls
4090 291 Pls
4090 291 Pls
4090 291 Pls
4091 291 Pls
4091 291 Pls
4091 291 Pls
4091 291 Pls
4091 290 Pls
4091 290 Pls
4092 290 Pls
4092 290 Pls
4092 290 Pls
4092 290 Pls
4092 290 Pls
4093 290 Pls
4094 290 Pls
4094 290 Pls
4095 290 Pls
4095 290 Pls
4095 290 Pls
4095 290 Pls
4096 290 Pls
4097 290 Pls
4097 290 Pls
4098 290 Pls
4098 290 Pls
4098 290 Pls
4098 290 Pls
4099 290 Pls
4099 290 Pls
4099 290 Pls
4100 290 Pls
4100 290 Pls
4101 290 Pls
4101 290 Pls
4101 290 Pls
4102 290 Pls
4102 290 Pls
4103 290 Pls
4103 290 Pls
4103 290 Pls
4104 290 Pls
4104 290 Pls
4105 290 Pls
4105 290 Pls
4105 290 Pls
4105 290 Pls
4106 290 Pls
4106 290 Pls
4106 290 Pls
4106 290 Pls
4107 290 Pls
4107 290 Pls
4108 290 Pls
4108 290 Pls
4108 290 Pls
4108 290 Pls
4109 290 Pls
4109 290 Pls
4109 290 Pls
4109 290 Pls
4109 290 Pls
4110 290 Pls
4110 290 Pls
4110 290 Pls
4111 290 Pls
4112 290 Pls
4112 290 Pls
4112 290 Pls
4113 290 Pls
4113 290 Pls
4113 290 Pls
4113 290 Pls
4113 290 Pls
4114 290 Pls
4115 290 Pls
4115 290 Pls
4115 290 Pls
4116 290 Pls
4117 290 Pls
4118 290 Pls
4118 290 Pls
4118 290 Pls
4119 290 Pls
4119 290 Pls
4120 290 Pls
4120 290 Pls
4120 290 Pls
4121 290 Pls
4121 290 Pls
4122 290 Pls
4122 290 Pls
4122 290 Pls
4123 290 Pls
4123 290 Pls
4123 290 Pls
4124 290 Pls
4124 290 Pls
4124 290 Pls
4124 290 Pls
4124 290 Pls
4125 290 Pls
4125 290 Pls
4125 290 Pls
4126 290 Pls
4127 290 Pls
4127 290 Pls
4128 290 Pls
4129 290 Pls
4129 290 Pls
4129 290 Pls
4129 290 Pls
4130 290 Pls
4130 290 Pls
4130 290 Pls
4131 290 Pls
4131 290 Pls
4131 290 Pls
4131 290 Pls
4132 290 Pls
4132 290 Pls
4132 290 Pls
4132 290 Pls
4133 290 Pls
4133 290 Pls
4134 290 Pls
4134 290 Pls
4136 290 Pls
4136 290 Pls
4137 290 Pls
4138 290 Pls
4139 290 Pls
4139 290 Pls
4139 290 Pls
4140 290 Pls
4140 290 Pls
4141 290 Pls
4142 290 Pls
4142 290 Pls
4143 290 Pls
4143 290 Pls
4143 290 Pls
4144 290 Pls
4144 290 Pls
4144 289 Pls
4144 289 Pls
4145 289 Pls
4145 289 Pls
4146 289 Pls
4146 289 Pls
4146 289 Pls
4148 289 Pls
4148 289 Pls
4148 289 Pls
4149 289 Pls
4149 289 Pls
4149 289 Pls
4149 289 Pls
4150 289 Pls
4150 289 Pls
4150 289 Pls
4152 289 Pls
4152 289 Pls
4153 289 Pls
4154 289 Pls
4154 289 Pls
4154 289 Pls
4154 289 Pls
4155 289 Pls
4155 289 Pls
4155 289 Pls
4156 289 Pls
4156 289 Pls
4157 289 Pls
4157 289 Pls
4157 289 Pls
4158 289 Pls
4158 289 Pls
4158 289 Pls
4159 289 Pls
4159 289 Pls
4159 289 Pls
4159 289 Pls
4159 289 Pls
4159 289 Pls
4161 289 Pls
4161 289 Pls
4161 289 Pls
4161 289 Pls
4162 289 Pls
4162 289 Pls
4163 289 Pls
4163 289 Pls
4163 289 Pls
4163 289 Pls
4164 289 Pls
4165 289 Pls
4165 289 Pls
4165 289 Pls
4166 289 Pls
4166 289 Pls
4166 289 Pls
4168 289 Pls
4168 289 Pls
4168 289 Pls
4169 289 Pls
4169 289 Pls
4169 289 Pls
4170 289 Pls
4170 289 Pls
4171 289 Pls
4171 289 Pls
4172 289 Pls
4173 289 Pls
4173 289 Pls
4173 289 Pls
4173 289 Pls
4174 289 Pls
4174 289 Pls
4175 289 Pls
4175 289 Pls
4175 289 Pls
4175 289 Pls
4176 289 Pls
4176 289 Pls
4177 289 Pls
4177 289 Pls
4177 289 Pls
4178 289 Pls
4178 289 Pls
4178 289 Pls
4179 289 Pls
4179 289 Pls
4179 289 Pls
4179 289 Pls
4179 289 Pls
4179 289 Pls
4180 289 Pls
4180 289 Pls
4180 289 Pls
4180 289 Pls
4180 289 Pls
4180 289 Pls
4181 289 Pls
4181 289 Pls
4181 289 Pls
4181 289 Pls
4181 289 Pls
4183 289 Pls
4183 289 Pls
4183 289 Pls
4184 289 Pls
4184 289 Pls
4184 289 Pls
4184 289 Pls
4184 289 Pls
4185 289 Pls
4185 289 Pls
4186 289 Pls
4186 289 Pls
4186 289 Pls
4186 289 Pls
4187 289 Pls
4187 289 Pls
4187 289 Pls
4188 289 Pls
4188 289 Pls
4188 289 Pls
4188 289 Pls
4188 289 Pls
4189 289 Pls
4189 289 Pls
4189 289 Pls
4190 289 Pls
4190 289 Pls
4190 289 Pls
4190 289 Pls
4190 289 Pls
4191 289 Pls
4191 289 Pls
4191 289 Pls
4191 289 Pls
4192 289 Pls
4192 289 Pls
4193 289 Pls
4193 289 Pls
4193 289 Pls
4194 289 Pls
4194 289 Pls
4194 289 Pls
4195 289 Pls
4195 289 Pls
4196 289 Pls
4197 289 Pls
4198 289 Pls
4198 289 Pls
4198 289 Pls
4199 289 Pls
4200 289 Pls
4200 289 Pls
4200 289 Pls
4201 289 Pls
4202 289 Pls
4202 289 Pls
4203 289 Pls
4203 289 Pls
4203 289 Pls
4204 289 Pls
4204 289 Pls
4204 289 Pls
4204 289 Pls
4205 289 Pls
4205 289 Pls
4205 289 Pls
4206 289 Pls
4206 289 Pls
4207 289 Pls
4207 289 Pls
4208 289 Pls
4208 289 Pls
4209 289 Pls
4210 289 Pls
4210 289 Pls
4211 289 Pls
4211 289 Pls
4211 289 Pls
4212 289 Pls
4212 289 Pls
4212 289 Pls
4213 289 Pls
4213 289 Pls
4213 289 Pls
4213 289 Pls
4213 289 Pls
4214 289 Pls
4214 289 Pls
4215 289 Pls
4215 289 Pls
4215 289 Pls
4215 289 Pls
4215 289 Pls
4216 289 Pls
4216 289 Pls
4217 289 Pls
4218 289 Pls
4219 288 Pls
4219 288 Pls
4220 288 Pls
4220 288 Pls
4220 288 Pls
4221 288 Pls
4223 288 Pls
4223 288 Pls
4223 288 Pls
4223 288 Pls
4224 288 Pls
4224 288 Pls
4224 288 Pls
4225 288 Pls
4225 288 Pls
4225 288 Pls
4225 288 Pls
4226 288 Pls
4226 288 Pls
4226 288 Pls
4226 288 Pls
4226 288 Pls
4227 288 Pls
4227 288 Pls
4228 288 Pls
4228 288 Pls
4229 288 Pls
4229 288 Pls
4229 288 Pls
4229 288 Pls
4231 288 Pls
4231 288 Pls
4231 288 Pls
4231 288 Pls
4233 288 Pls
4233 288 Pls
4235 288 Pls
4235 288 Pls
4235 288 Pls
4236 288 Pls
4237 288 Pls
4237 288 Pls
4237 288 Pls
4237 288 Pls
4237 288 Pls
4238 288 Pls
4238 288 Pls
4239 288 Pls
4239 288 Pls
4240 288 Pls
4240 288 Pls
4240 288 Pls
4241 288 Pls
4242 288 Pls
4243 288 Pls
4243 288 Pls
4243 288 Pls
4244 288 Pls
4244 288 Pls
4245 288 Pls
4245 288 Pls
4245 288 Pls
4245 288 Pls
4245 288 Pls
4245 288 Pls
4246 288 Pls
4246 288 Pls
4247 288 Pls
4247 288 Pls
4247 288 Pls
4247 288 Pls
4248 288 Pls
4248 288 Pls
4248 288 Pls
4249 288 Pls
4249 288 Pls
4249 288 Pls
4250 288 Pls
4250 288 Pls
4251 288 Pls
4251 288 Pls
4252 288 Pls
4253 288 Pls
4253 288 Pls
4253 288 Pls
4254 288 Pls
4254 288 Pls
4254 288 Pls
4254 288 Pls
4255 288 Pls
4255 288 Pls
4256 288 Pls
4256 288 Pls
4256 288 Pls
4257 288 Pls
4257 288 Pls
4258 288 Pls
4258 288 Pls
4258 288 Pls
4259 288 Pls
4259 288 Pls
4259 288 Pls
4260 288 Pls
4261 288 Pls
4261 288 Pls
4263 288 Pls
4263 288 Pls
4263 288 Pls
4266 288 Pls
4266 288 Pls
4267 288 Pls
4267 288 Pls
4268 288 Pls
4268 288 Pls
4268 288 Pls
4268 288 Pls
4269 288 Pls
4269 288 Pls
4269 288 Pls
4270 288 Pls
4271 288 Pls
4271 288 Pls
4271 288 Pls
4271 288 Pls
4271 288 Pls
4271 288 Pls
4272 288 Pls
4272 288 Pls
4273 288 Pls
4273 288 Pls
4274 288 Pls
4274 288 Pls
4274 288 Pls
4275 288 Pls
4275 288 Pls
4275 288 Pls
4275 288 Pls
4276 288 Pls
4277 288 Pls
4278 288 Pls
4278 288 Pls
4278 288 Pls
4279 288 Pls
4280 288 Pls
4280 288 Pls
4281 288 Pls
4281 288 Pls
4281 288 Pls
4282 288 Pls
4282 288 Pls
4282 288 Pls
4282 288 Pls
4282 288 Pls
4282 288 Pls
4283 288 Pls
4283 288 Pls
4284 288 Pls
4284 288 Pls
4284 288 Pls
4285 288 Pls
4285 288 Pls
4286 288 Pls
4287 288 Pls
4287 288 Pls
4288 288 Pls
4289 288 Pls
4289 288 Pls
4290 288 Pls
4290 288 Pls
4290 288 Pls
4291 288 Pls
4291 288 Pls
4292 288 Pls
4292 288 Pls
4292 288 Pls
4293 288 Pls
4293 288 Pls
4293 288 Pls
4293 288 Pls
4293 288 Pls
4294 288 Pls
4295 288 Pls
4295 288 Pls
4295 288 Pls
4295 288 Pls
4296 288 Pls
4296 288 Pls
4296 288 Pls
4297 288 Pls
4297 288 Pls
4297 288 Pls
4298 288 Pls
4298 287 Pls
4298 287 Pls
4298 287 Pls
4298 287 Pls
4298 287 Pls
4299 287 Pls
4299 287 Pls
4299 287 Pls
4299 287 Pls
4299 287 Pls
4299 287 Pls
4299 287 Pls
4300 287 Pls
4302 287 Pls
4302 287 Pls
4302 287 Pls
4302 287 Pls
4303 287 Pls
4303 287 Pls
4304 287 Pls
4304 287 Pls
4304 287 Pls
4305 287 Pls
4306 287 Pls
4306 287 Pls
4306 287 Pls
4307 287 Pls
4307 287 Pls
4308 287 Pls
4308 287 Pls
4308 287 Pls
4310 287 Pls
4310 287 Pls
4311 287 Pls
4312 287 Pls
4312 287 Pls
4312 287 Pls
4312 287 Pls
4313 287 Pls
4313 287 Pls
4313 287 Pls
4313 287 Pls
4314 287 Pls
4314 287 Pls
4315 287 Pls
4316 287 Pls
4317 287 Pls
4318 287 Pls
4319 287 Pls
4319 287 Pls
4320 287 Pls
4320 287 Pls
4320 287 Pls
4321 287 Pls
4321 287 Pls
4321 287 Pls
4321 287 Pls
4322 287 Pls
4323 287 Pls
4324 287 Pls
4325 287 Pls
4325 287 Pls
4325 287 Pls
4326 287 Pls
4326 287 Pls
4326 287 Pls
4327 287 Pls
4327 287 Pls
4327 287 Pls
4328 287 Pls
4329 287 Pls
4329 287 Pls
4329 287 Pls
4330 287 Pls
4331 287 Pls
4331 287 Pls
4331 287 Pls
4332 287 Pls
4333 287 Pls
4334 287 Pls
4335 287 Pls
4335 287 Pls
4335 287 Pls
4336 287 Pls
4338 287 Pls
4338 287 Pls
4338 287 Pls
4339 287 Pls
4339 287 Pls
4339 287 Pls
4340 287 Pls
4340 287 Pls
4340 287 Pls
4341 287 Pls
4341 287 Pls
4341 287 Pls
4343 287 Pls
4343 287 Pls
4344 287 Pls
4344 287 Pls
4344 287 Pls
4346 287 Pls
4346 287 Pls
4347 287 Pls
4347 287 Pls
4347 287 Pls
4349 287 Pls
4350 287 Pls
4350 287 Pls
4351 287 Pls
4351 287 Pls
4351 287 Pls
4352 287 Pls
4352 287 Pls
4354 287 Pls
4354 287 Pls
4354 287 Pls
4355 287 Pls
4355 287 Pls
4355 287 Pls
4356 287 Pls
4356 287 Pls
4356 287 Pls
4357 287 Pls
4357 287 Pls
4358 287 Pls
4358 287 Pls
4358 287 Pls
4358 287 Pls
4359 287 Pls
4359 287 Pls
4361 287 Pls
4362 287 Pls
4362 287 Pls
4362 287 Pls
4362 287 Pls
4362 287 Pls
4363 287 Pls
4363 287 Pls
4363 287 Pls
4363 287 Pls
4363 287 Pls
4364 287 Pls
4364 287 Pls
4364 287 Pls
4364 287 Pls
4364 287 Pls
4365 287 Pls
4365 287 Pls
4366 287 Pls
4366 287 Pls
4366 287 Pls
4367 287 Pls
4367 287 Pls
4368 287 Pls
4368 287 Pls
4369 287 Pls
4370 287 Pls
4370 287 Pls
4371 287 Pls
4373 287 Pls
4374 287 Pls
4374 287 Pls
4375 287 Pls
4375 287 Pls
4376 287 Pls
4376 287 Pls
4377 287 Pls
4377 287 Pls
4377 287 Pls
4377 287 Pls
4378 287 Pls
4378 287 Pls
4379 287 Pls
4379 287 Pls
4379 287 Pls
4380 287 Pls
4381 287 Pls
4381 287 Pls
4382 287 Pls
4382 287 Pls
4382 287 Pls
4382 287 Pls
4383 287 Pls
4384 287 Pls
4384 287 Pls
4385 287 Pls
4385 287 Pls
4385 287 Pls
4385 287 Pls
4385 287 Pls
4385 287 Pls
4386 287 Pls
4386 287 Pls
4389 287 Pls
4389 287 Pls
4389 287 Pls
4390 287 Pls
4390 287 Pls
4391 287 Pls
4392 287 Pls
4392 287 Pls
4392 287 Pls
4393 287 Pls
4393 287 Pls
4394 287 Pls
4394 287 Pls
4396 287 Pls
4396 287 Pls
4396 287 Pls
4397 287 Pls
4397 287 Pls
4397 287 Pls
4398 287 Pls
4399 286 Pls
4399 286 Pls
4399 286 Pls
4400 286 Pls
4401 286 Pls
4401 286 Pls
4401 286 Pls
4401 286 Pls
4402 286 Pls
4402 286 Pls
4402 286 Pls
4402 286 Pls
4402 286 Pls
4402 286 Pls
4403 286 Pls
4403 286 Pls
4403 286 Pls
4404 286 Pls
4404 286 Pls
4406 286 Pls
4406 286 Pls
4407 286 Pls
4407 286 Pls
4408 286 Pls
4409 286 Pls
4410 286 Pls
4410 286 Pls
4411 286 Pls
4411 286 Pls
4411 286 Pls
4411 286 Pls
4412 286 Pls
4412 286 Pls
4415 286 Pls
4416 286 Pls
4418 286 Pls
4418 286 Pls
4421 286 Pls
4422 286 Pls
4422 286 Pls
4423 286 Pls
4424 286 Pls
4424 286 Pls
4425 286 Pls
4425 286 Pls
4425 286 Pls
4425 286 Pls
4426 286 Pls
4427 286 Pls
4427 286 Pls
4427 286 Pls
4427 286 Pls
4428 286 Pls
4428 286 Pls
4428 286 Pls
4428 286 Pls
4428 286 Pls
4429 286 Pls
4429 286 Pls
4430 286 Pls
4430 286 Pls
4430 286 Pls
4430 286 Pls
4431 286 Pls
4431 286 Pls
4431 286 Pls
4432 286 Pls
4432 286 Pls
4432 286 Pls
4432 286 Pls
4433 286 Pls
4433 286 Pls
4433 286 Pls
4433 286 Pls
4434 286 Pls
4435 286 Pls
4435 286 Pls
4435 286 Pls
4435 286 Pls
4436 286 Pls
4436 286 Pls
4436 286 Pls
4436 286 Pls
4436 286 Pls
4437 286 Pls
4437 286 Pls
4438 286 Pls
4438 286 Pls
4438 286 Pls
4439 286 Pls
4439 286 Pls
4439 286 Pls
4440 286 Pls
4440 286 Pls
4440 286 Pls
4440 286 Pls
4441 286 Pls
4441 286 Pls
4441 286 Pls
4442 286 Pls
4443 286 Pls
4443 286 Pls
4444 286 Pls
4444 286 Pls
4445 286 Pls
4445 286 Pls
4446 286 Pls
4446 286 Pls
4446 286 Pls
4446 286 Pls
4446 286 Pls
4446 286 Pls
4446 286 Pls
4447 286 Pls
4447 286 Pls
4448 286 Pls
4448 286 Pls
4448 286 Pls
4449 286 Pls
4449 286 Pls
4450 286 Pls
4451 286 Pls
4451 286 Pls
4452 286 Pls
4453 286 Pls
4453 286 Pls
4454 286 Pls
4454 286 Pls
4454 286 Pls
4455 286 Pls
4456 286 Pls
4457 286 Pls
4458 286 Pls
4458 286 Pls
4459 286 Pls
4459 286 Pls
4461 286 Pls
4461 286 Pls
4463 286 Pls
4463 286 Pls
4464 286 Pls
4464 286 Pls
4464 286 Pls
4465 286 Pls
4466 286 Pls
4466 286 Pls
4466 286 Pls
4467 286 Pls
4468 286 Pls
4469 286 Pls
4474 286 Pls
4475 286 Pls
4475 286 Pls
4475 286 Pls
4476 286 Pls
4476 286 Pls
4476 286 Pls
4476 286 Pls
4476 286 Pls
4477 286 Pls
4477 286 Pls
4477 286 Pls
4478 286 Pls
4478 286 Pls
4478 286 Pls
4479 286 Pls
4479 286 Pls
4479 286 Pls
4480 286 Pls
4480 286 Pls
4480 286 Pls
4481 286 Pls
4482 286 Pls
4483 286 Pls
4483 286 Pls
4483 286 Pls
4483 286 Pls
4483 286 Pls
4484 286 Pls
4484 286 Pls
4484 286 Pls
4485 286 Pls
4485 286 Pls
4485 286 Pls
4485 286 Pls
4486 286 Pls
4486 286 Pls
4487 286 Pls
4488 286 Pls
4488 286 Pls
4490 286 Pls
4490 286 Pls
4490 286 Pls
4490 286 Pls
4491 286 Pls
4491 286 Pls
4491 286 Pls
4491 286 Pls
4491 286 Pls
4491 286 Pls
4492 286 Pls
4493 286 Pls
4493 286 Pls
4494 286 Pls
4495 286 Pls
4496 286 Pls
4497 286 Pls
4497 286 Pls
4499 286 Pls
4499 286 Pls
4500 286 Pls
4500 286 Pls
4501 286 Pls
4501 286 Pls
4501 286 Pls
4502 286 Pls
4502 285 Pls
4503 285 Pls
4503 285 Pls
4503 285 Pls
4504 285 Pls
4504 285 Pls
4505 285 Pls
4506 285 Pls
4506 285 Pls
4506 285 Pls
4507 285 Pls
4508 285 Pls
4508 285 Pls
4508 285 Pls
4508 285 Pls
4508 285 Pls
4508 285 Pls
4509 285 Pls
4509 285 Pls
4511 285 Pls
4512 285 Pls
4513 285 Pls
4513 285 Pls
4514 285 Pls
4514 285 Pls
4515 285 Pls
4518 285 Pls
4519 285 Pls
4519 285 Pls
4519 285 Pls
4519 285 Pls
4519 285 Pls
4520 285 Pls
4520 285 Pls
4521 285 Pls
4521 285 Pls
4522 285 Pls
4523 285 Pls
4523 285 Pls
4523 285 Pls
4524 285 Pls
4526 285 Pls
4526 285 Pls
4527 285 Pls
4529 285 Pls
4529 285 Pls
4529 285 Pls
4529 285 Pls
4530 285 Pls
4531 285 Pls
4532 285 Pls
4534 285 Pls
4534 285 Pls
4534 285 Pls
4534 285 Pls
4534 285 Pls
4534 285 Pls
4534 285 Pls
4535 285 Pls
4535 285 Pls
4535 285 Pls
4536 285 Pls
4536 285 Pls
4537 285 Pls
4537 285 Pls
4537 285 Pls
4538 285 Pls
4539 285 Pls
4540 285 Pls
4541 285 Pls
4542 285 Pls
4543 285 Pls
4543 285 Pls
4544 285 Pls
4544 285 Pls
4544 285 Pls
4545 285 Pls
4545 285 Pls
4545 285 Pls
4546 285 Pls
4546 285 Pls
4547 285 Pls
4549 285 Pls
4549 285 Pls
4550 285 Pls
4550 285 Pls
4551 285 Pls
4551 285 Pls
4553 285 Pls
4553 285 Pls
4553 285 Pls
4554 285 Pls
4554 285 Pls
4554 285 Pls
4555 285 Pls
4555 285 Pls
4556 285 Pls
4557 285 Pls
4557 285 Pls
4557 285 Pls
4558 285 Pls
4559 285 Pls
4559 285 Pls
4559 285 Pls
4560 285 Pls
4560 285 Pls
4560 285 Pls
4561 285 Pls
4562 285 Pls
4563 285 Pls
4564 285 Pls
4565 285 Pls
4565 285 Pls
4568 285 Pls
4568 285 Pls
4568 285 Pls
4570 285 Pls
4570 285 Pls
4570 285 Pls
4571 285 Pls
4571 285 Pls
4572 285 Pls
4573 285 Pls
4573 285 Pls
4573 285 Pls
4575 285 Pls
4576 285 Pls
4577 285 Pls
4577 285 Pls
4578 285 Pls
4578 285 Pls
4578 285 Pls
4579 285 Pls
4579 285 Pls
4579 285 Pls
4579 285 Pls
4579 285 Pls
4580 285 Pls
4580 285 Pls
4580 285 Pls
4580 285 Pls
4582 285 Pls
4582 285 Pls
4583 285 Pls
4583 285 Pls
4583 285 Pls
4584 285 Pls
4585 285 Pls
4586 285 Pls
4586 285 Pls
4586 285 Pls
4586 285 Pls
4587 285 Pls
4588 285 Pls
4588 285 Pls
4588 285 Pls
4588 285 Pls
4588 285 Pls
4588 285 Pls
4589 285 Pls
4589 285 Pls
4590 285 Pls
4591 285 Pls
4592 285 Pls
4592 285 Pls
4592 285 Pls
4593 285 Pls
4593 285 Pls
4595 285 Pls
4596 285 Pls
4596 285 Pls
4596 285 Pls
4597 285 Pls
4597 285 Pls
4597 285 Pls
4599 285 Pls
4599 285 Pls
4599 285 Pls
4601 285 Pls
4602 285 Pls
4602 285 Pls
4603 285 Pls
4604 285 Pls
4604 285 Pls
4604 285 Pls
4604 285 Pls
4604 285 Pls
4605 285 Pls
4606 285 Pls
4606 285 Pls
4608 285 Pls
4608 285 Pls
4609 285 Pls
4610 285 Pls
4611 285 Pls
4611 285 Pls
4611 285 Pls
4612 285 Pls
4613 285 Pls
4613 285 Pls
4614 285 Pls
4615 285 Pls
4615 285 Pls
4617 285 Pls
4618 285 Pls
4618 285 Pls
4618 285 Pls
4618 285 Pls
4619 285 Pls
4619 285 Pls
4619 285 Pls
4620 285 Pls
4621 285 Pls
4621 285 Pls
4621 285 Pls
4622 285 Pls
4622 285 Pls
4623 285 Pls
4623 284 Pls
4624 284 Pls
4624 284 Pls
4625 284 Pls
4625 284 Pls
4625 284 Pls
4626 284 Pls
4628 284 Pls
4628 284 Pls
4628 284 Pls
4629 284 Pls
4629 284 Pls
4629 284 Pls
4629 284 Pls
4630 284 Pls
4630 284 Pls
4630 284 Pls
4630 284 Pls
4631 284 Pls
4632 284 Pls
4632 284 Pls
4634 284 Pls
4634 284 Pls
4635 284 Pls
4635 284 Pls
4635 284 Pls
4636 284 Pls
4636 284 Pls
4637 284 Pls
4637 284 Pls
4637 284 Pls
4639 284 Pls
4639 284 Pls
4640 284 Pls
4640 284 Pls
4641 284 Pls
4641 284 Pls
4641 284 Pls
4641 284 Pls
4642 284 Pls
4642 284 Pls
4643 284 Pls
4644 284 Pls
4644 284 Pls
4644 284 Pls
4644 284 Pls
4644 284 Pls
4645 284 Pls
4646 284 Pls
4647 284 Pls
4647 284 Pls
4647 284 Pls
4647 284 Pls
4647 284 Pls
4647 284 Pls
4647 284 Pls
4648 284 Pls
4648 284 Pls
4649 284 Pls
4650 284 Pls
4650 284 Pls
4650 284 Pls
4651 284 Pls
4651 284 Pls
4652 284 Pls
4652 284 Pls
4653 284 Pls
4653 284 Pls
4653 284 Pls
4654 284 Pls
4654 284 Pls
4654 284 Pls
4655 284 Pls
4655 284 Pls
4656 284 Pls
4656 284 Pls
4656 284 Pls
4657 284 Pls
4657 284 Pls
4657 284 Pls
4658 284 Pls
4658 284 Pls
4658 284 Pls
4658 284 Pls
4659 284 Pls
4660 284 Pls
4660 284 Pls
4660 284 Pls
4661 284 Pls
4661 284 Pls
4662 284 Pls
4662 284 Pls
4662 284 Pls
4662 284 Pls
4662 284 Pls
4663 284 Pls
4663 284 Pls
4665 284 Pls
4665 284 Pls
4665 284 Pls
4666 284 Pls
4666 284 Pls
4667 284 Pls
4667 284 Pls
4667 284 Pls
4667 284 Pls
4667 284 Pls
4669 284 Pls
4669 284 Pls
4669 284 Pls
4670 284 Pls
4670 284 Pls
4670 284 Pls
4670 284 Pls
4671 284 Pls
4671 284 Pls
4672 284 Pls
4672 284 Pls
4672 284 Pls
4672 284 Pls
4673 284 Pls
4673 284 Pls
4673 284 Pls
4674 284 Pls
4674 284 Pls
4675 284 Pls
4676 284 Pls
4676 284 Pls
4678 284 Pls
4678 284 Pls
4678 284 Pls
4679 284 Pls
4680 284 Pls
4680 284 Pls
4681 284 Pls
4681 284 Pls
4682 284 Pls
4682 284 Pls
4682 284 Pls
4683 284 Pls
4683 284 Pls
4684 284 Pls
4685 284 Pls
4686 284 Pls
4686 284 Pls
4687 284 Pls
4687 284 Pls
4687 284 Pls
4691 284 Pls
4692 284 Pls
4693 284 Pls
4693 284 Pls
4694 284 Pls
4694 284 Pls
4695 284 Pls
4696 284 Pls
4697 284 Pls
4697 284 Pls
4697 284 Pls
4697 284 Pls
4698 284 Pls
4699 284 Pls
4699 284 Pls
4699 284 Pls
4699 284 Pls
4700 284 Pls
4700 284 Pls
4700 284 Pls
4700 284 Pls
4701 284 Pls
4701 284 Pls
4701 284 Pls
4702 284 Pls
4702 284 Pls
4703 284 Pls
4703 284 Pls
4704 284 Pls
4704 284 Pls
4705 284 Pls
4705 284 Pls
4705 284 Pls
4706 284 Pls
4707 284 Pls
4708 284 Pls
4708 284 Pls
4709 284 Pls
4709 284 Pls
4710 284 Pls
4710 284 Pls
4711 284 Pls
4711 284 Pls
4712 284 Pls
4712 284 Pls
4714 284 Pls
4715 284 Pls
4715 284 Pls
4719 284 Pls
4721 284 Pls
4721 284 Pls
4722 284 Pls
4722 284 Pls
4723 284 Pls
4723 284 Pls
4724 284 Pls
4726 284 Pls
4727 284 Pls
4730 284 Pls
4731 284 Pls
4731 284 Pls
4732 284 Pls
4732 284 Pls
4734 284 Pls
4734 284 Pls
4735 284 Pls
4735 284 Pls
4736 284 Pls
4737 284 Pls
4738 284 Pls
4738 284 Pls
4739 284 Pls
4739 284 Pls
4739 284 Pls
4740 284 Pls
4740 284 Pls
4740 284 Pls
4741 284 Pls
4743 284 Pls
4743 283 Pls
4744 283 Pls
4744 283 Pls
4748 283 Pls
4748 283 Pls
4749 283 Pls
4750 283 Pls
4751 283 Pls
4751 283 Pls
4751 283 Pls
4752 283 Pls
4753 283 Pls
4753 283 Pls
4753 283 Pls
4753 283 Pls
4753 283 Pls
4753 283 Pls
4753 283 Pls
4753 283 Pls
4754 283 Pls
4754 283 Pls
4754 283 Pls
4755 283 Pls
4756 283 Pls
4756 283 Pls
4757 283 Pls
4758 283 Pls
4759 283 Pls
4759 283 Pls
4759 283 Pls
4760 283 Pls
4761 283 Pls
4762 283 Pls
4763 283 Pls
4763 283 Pls
4763 283 Pls
4765 283 Pls
4766 283 Pls
4766 283 Pls
4766 283 Pls
4766 283 Pls
4767 283 Pls
4767 283 Pls
4767 283 Pls
4768 283 Pls
4769 283 Pls
4770 283 Pls
4770 283 Pls
4770 283 Pls
4772 283 Pls
4772 283 Pls
4774 283 Pls
4775 283 Pls
4775 283 Pls
4775 283 Pls
4779 283 Pls
4779 283 Pls
4780 283 Pls
4781 283 Pls
4782 283 Pls
4783 283 Pls
4784 283 Pls
4785 283 Pls
4786 283 Pls
4786 283 Pls
4787 283 Pls
4787 283 Pls
4787 283 Pls
4788 283 Pls
4788 283 Pls
4788 283 Pls
4788 283 Pls
4788 283 Pls
4789 283 Pls
4789 283 Pls
4790 283 Pls
4791 283 Pls
4791 283 Pls
4792 283 Pls
4793 283 Pls
4793 283 Pls
4793 283 Pls
4794 283 Pls
4794 283 Pls
4794 283 Pls
4794 283 Pls
4795 283 Pls
4796 283 Pls
4796 283 Pls
4796 283 Pls
4797 283 Pls
4797 283 Pls
4797 283 Pls
4797 283 Pls
4797 283 Pls
4798 283 Pls
4798 283 Pls
4799 283 Pls
4801 283 Pls
4801 283 Pls
4801 283 Pls
4802 283 Pls
4803 283 Pls
4803 283 Pls
4803 283 Pls
4805 283 Pls
4806 283 Pls
4806 283 Pls
4807 283 Pls
4807 283 Pls
4808 283 Pls
4808 283 Pls
4808 283 Pls
4808 283 Pls
4809 283 Pls
4809 283 Pls
4809 283 Pls
4810 283 Pls
4810 283 Pls
4811 283 Pls
4812 283 Pls
4812 283 Pls
4812 283 Pls
4812 283 Pls
4814 283 Pls
4815 283 Pls
4817 283 Pls
4817 283 Pls
4818 283 Pls
4820 283 Pls
4822 283 Pls
4824 283 Pls
4824 283 Pls
4825 283 Pls
4825 283 Pls
4826 283 Pls
4826 283 Pls
4827 283 Pls
4827 283 Pls
4828 283 Pls
4829 283 Pls
4831 283 Pls
4831 283 Pls
4834 283 Pls
4834 283 Pls
4835 283 Pls
4835 283 Pls
4836 283 Pls
4837 283 Pls
4838 283 Pls
4838 283 Pls
4838 283 Pls
4838 283 Pls
4839 283 Pls
4840 283 Pls
4841 283 Pls
4842 283 Pls
4844 283 Pls
4845 283 Pls
4845 283 Pls
4846 283 Pls
4846 283 Pls
4846 283 Pls
4847 283 Pls
4847 283 Pls
4848 283 Pls
4848 283 Pls
4850 283 Pls
4854 283 Pls
4855 283 Pls
4855 283 Pls
4855 283 Pls
4856 283 Pls
4856 283 Pls
4857 283 Pls
4857 283 Pls
4858 283 Pls
4858 283 Pls
4858 283 Pls
4859 283 Pls
4860 283 Pls
4860 283 Pls
4860 283 Pls
4861 283 Pls
4862 283 Pls
4863 283 Pls
4864 283 Pls
4867 283 Pls
4867 283 Pls
4869 283 Pls
4869 283 Pls
4872 283 Pls
4872 283 Pls
4872 283 Pls
4872 283 Pls
4873 283 Pls
4873 283 Pls
4873 283 Pls
4873 283 Pls
4874 283 Pls
4874 283 Pls
4874 283 Pls
4874 283 Pls
4874 283 Pls
4874 283 Pls
4874 283 Pls
4875 283 Pls
4875 283 Pls
4875 283 Pls
4875 283 Pls
4875 283 Pls
4875 283 Pls
4876 283 Pls
4876 283 Pls
4877 283 Pls
4877 283 Pls
4877 283 Pls
4877 283 Pls
4877 283 Pls
4877 283 Pls
4877 283 Pls
4877 283 Pls
4878 283 Pls
4878 283 Pls
4878 283 Pls
4878 283 Pls
4878 283 Pls
4878 283 Pls
4878 283 Pls
4879 282 Pls
4879 282 Pls
4879 282 Pls
4879 282 Pls
4880 282 Pls
4880 282 Pls
4880 282 Pls
4880 282 Pls
4881 282 Pls
4881 282 Pls
4881 282 Pls
4881 282 Pls
4881 282 Pls
4881 282 Pls
4882 282 Pls
4882 282 Pls
4882 282 Pls
4882 282 Pls
4882 282 Pls
4882 282 Pls
4882 282 Pls
4882 282 Pls
4883 282 Pls
4883 282 Pls
4883 282 Pls
4883 282 Pls
4883 282 Pls
4883 282 Pls
4883 282 Pls
4884 282 Pls
4884 282 Pls
4884 282 Pls
4884 282 Pls
4884 282 Pls
4884 282 Pls
4884 282 Pls
4884 282 Pls
4885 282 Pls
4885 282 Pls
4885 282 Pls
4885 282 Pls
4885 282 Pls
4885 282 Pls
4885 282 Pls
4885 282 Pls
4885 282 Pls
4885 282 Pls
4885 282 Pls
4885 282 Pls
4885 282 Pls
4886 282 Pls
4886 282 Pls
4886 282 Pls
4886 282 Pls
4886 282 Pls
4886 282 Pls
4886 282 Pls
4887 282 Pls
4887 282 Pls
4887 282 Pls
4887 282 Pls
4887 282 Pls
4887 282 Pls
4887 282 Pls
4887 282 Pls
4888 282 Pls
4888 282 Pls
4888 282 Pls
4888 282 Pls
4888 282 Pls
4889 282 Pls
4889 282 Pls
4889 282 Pls
4889 282 Pls
4889 282 Pls
4889 282 Pls
4890 282 Pls
4890 282 Pls
4890 282 Pls
4890 282 Pls
4890 282 Pls
4890 282 Pls
4891 282 Pls
4891 282 Pls
4891 282 Pls
4891 282 Pls
4892 282 Pls
4892 282 Pls
4892 282 Pls
4893 282 Pls
4893 282 Pls
4893 282 Pls
4893 282 Pls
4893 282 Pls
4893 282 Pls
4893 282 Pls
4894 282 Pls
4894 282 Pls
4894 282 Pls
4895 282 Pls
4895 282 Pls
4896 282 Pls
4896 282 Pls
4896 282 Pls
4896 282 Pls
4896 282 Pls
4896 282 Pls
4896 282 Pls
4897 282 Pls
4897 282 Pls
4897 282 Pls
4897 282 Pls
4897 282 Pls
4897 282 Pls
4898 282 Pls
4898 282 Pls
4898 282 Pls
4898 282 Pls
4898 282 Pls
4898 282 Pls
4899 282 Pls
4899 282 Pls
4899 282 Pls
4899 282 Pls
4901 282 Pls
4901 282 Pls
4901 282 Pls
4901 282 Pls
4901 282 Pls
4901 282 Pls
4901 282 Pls
4901 282 Pls
4901 282 Pls
4901 282 Pls
4901 282 Pls
4901 282 Pls
4901 282 Pls
4902 282 Pls
4902 282 Pls
4902 282 Pls
4903 282 Pls
4903 282 Pls
4904 282 Pls
4904 282 Pls
4905 282 Pls
4906 282 Pls
4906 282 Pls
4906 282 Pls
4908 282 Pls
4909 282 Pls
4909 282 Pls
4910 282 Pls
4910 282 Pls
4911 282 Pls
4911 282 Pls
4913 282 Pls
4914 282 Pls
4914 282 Pls
4914 282 Pls
4914 282 Pls
4916 282 Pls
4916 282 Pls
4916 282 Pls
4916 282 Pls
4917 282 Pls
4918 282 Pls
4921 282 Pls
4921 282 Pls
4921 282 Pls
4922 282 Pls
4922 282 Pls
4923 282 Pls
4923 282 Pls
4924 282 Pls
4924 282 Pls
4924 282 Pls
4925 282 Pls
4925 282 Pls
4928 282 Pls
4928 282 Pls
4930 282 Pls
4930 282 Pls
4931 282 Pls
4931 282 Pls
4932 282 Pls
4933 282 Pls
4933 282 Pls
4933 282 Pls
4933 282 Pls
4933 282 Pls
4936 282 Pls
4937 282 Pls
4938 282 Pls
4938 282 Pls
4938 282 Pls
4938 282 Pls
4939 282 Pls
4940 282 Pls
4941 282 Pls
4943 282 Pls
4944 282 Pls
4945 282 Pls
4948 282 Pls
4949 282 Pls
4951 282 Pls
4952 282 Pls
4954 282 Pls
4954 282 Pls
4954 282 Pls
4955 282 Pls
4956 282 Pls
4957 282 Pls
4957 282 Pls
4958 282 Pls
4958 282 Pls
4962 282 Pls
4963 282 Pls
4964 282 Pls
4964 282 Pls
4968 282 Pls
4969 282 Pls
4970 282 Pls
4970 282 Pls
4970 282 Pls
4972 282 Pls
4973 281 Pls
4974 281 Pls
4974 281 Pls
4974 281 Pls
4978 281 Pls
4978 281 Pls
4979 281 Pls
4980 281 Pls
4983 281 Pls
4984 281 Pls
4985 281 Pls
4985 281 Pls
4985 281 Pls
4985 281 Pls
4986 281 Pls
4986 281 Pls
4987 281 Pls
4988 281 Pls
4992 281 Pls
4997 281 Pls
4999 281 Pls
5002 281 Pls
5004 281 Pls
5007 281 Pls
5008 281 Pls
5008 281 Pls
5010 281 Pls
5011 281 Pls
5012 281 Pls
5012 281 Pls
5012 281 Pls
5013 281 Pls
5013 281 Pls
5014 281 Pls
5016 281 Pls
5017 281 Pls
5019 281 Pls
5020 281 Pls
5022 281 Pls
5023 281 Pls
5024 281 Pls
5024 281 Pls
5025 281 Pls
5027 281 Pls
5029 281 Pls
5030 281 Pls
5032 281 Pls
5034 281 Pls
5035 281 Pls
5035 281 Pls
5035 281 Pls
5041 281 Pls
5041 281 Pls
5042 281 Pls
5042 281 Pls
5043 281 Pls
5044 281 Pls
5044 281 Pls
5044 281 Pls
5046 281 Pls
5048 281 Pls
5054 281 Pls
5055 281 Pls
5056 281 Pls
5056 281 Pls
5059 281 Pls
5060 281 Pls
5061 281 Pls
5063 281 Pls
5065 281 Pls
5070 281 Pls
5072 281 Pls
5072 281 Pls
5075 281 Pls
5075 281 Pls
5076 281 Pls
5081 281 Pls
5082 281 Pls
5082 281 Pls
5084 281 Pls
5085 281 Pls
5087 281 Pls
5087 281 Pls
5087 281 Pls
5088 281 Pls
5092 281 Pls
5092 281 Pls
5095 281 Pls
5096 281 Pls
5099 281 Pls
5100 281 Pls
5102 281 Pls
5104 281 Pls
5105 281 Pls
5105 281 Pls
5106 281 Pls
5106 281 Pls
5107 281 Pls
5109 281 Pls
5111 281 Pls
5111 281 Pls
5112 281 Pls
5113 281 Pls
5114 281 Pls
5115 281 Pls
5116 281 Pls
5117 281 Pls
5117 281 Pls
5117 281 Pls
5119 281 Pls
5119 281 Pls
5121 281 Pls
5125 281 Pls
5125 281 Pls
5126 281 Pls
5126 281 Pls
5130 281 Pls
5134 281 Pls
5136 281 Pls
5138 281 Pls
5139 281 Pls
5139 281 Pls
5139 281 Pls
5140 281 Pls
5145 281 Pls
5147 281 Pls
5148 281 Pls
5149 281 Pls
5149 281 Pls
5151 281 Pls
5153 281 Pls
5153 281 Pls
5154 281 Pls
5155 281 Pls
5157 281 Pls
5158 281 Pls
5164 281 Pls
5167 281 Pls
5169 281 Pls
5169 281 Pls
5172 281 Pls
5173 281 Pls
5173 281 Pls
5174 281 Pls
5176 281 Pls
5178 281 Pls
5181 281 Pls
5182 281 Pls
5186 281 Pls
5187 281 Pls
5187 281 Pls
5188 281 Pls
5188 281 Pls
5188 281 Pls
5190 281 Pls
5191 281 Pls
5191 281 Pls
5193 281 Pls
5193 281 Pls
5194 281 Pls
5195 281 Pls
5196 281 Pls
5203 281 Pls
5203 281 Pls
5208 281 Pls
5208 281 Pls
5212 281 Pls
5214 281 Pls
5214 281 Pls
5216 281 Pls
5218 281 Pls
5221 281 Pls
5222 281 Pls
5222 281 Pls
5225 281 Pls
5226 281 Pls
5227 281 Pls
5227 281 Pls
5229 281 Pls
5229 281 Pls
5231 281 Pls
5236 281 Pls
5236 281 Pls
5242 281 Pls
5245 281 Pls
5246 281 Pls
5247 281 Pls
5247 281 Pls
5248 281 Pls
5255 281 Pls
5261 281 Pls
5264 281 Pls
5267 281 Pls
5274 281 Pls
5280 281 Pls
5281 281 Pls
5284 281 Pls
5285 281 Pls
5291 281 Pls
5294 281 Pls
5294 281 Pls
5296 281 Pls
5304 281 Pls
5305 281 Pls
5305 281 Pls
5305 281 Pls
5307 281 Pls
5311 281 Pls
5312 281 Pls
5317 281 Pls
5321 281 Pls
5323 281 Pls
5328 281 Pls
5333 281 Pls
5336 281 Pls
5338 281 Pls
5342 281 Pls
5342 281 Pls
5345 281 Pls
5346 281 Pls
5348 281 Pls
5349 281 Pls
5352 281 Pls
5353 281 Pls
5353 281 Pls
5360 281 Pls
5368 281 Pls
5368 281 Pls
5369 281 Pls
5369 281 Pls
5371 281 Pls
5374 280 Pls
5374 280 Pls
5375 280 Pls
5375 280 Pls
5382 280 Pls
5383 280 Pls
5385 280 Pls
5390 280 Pls
5394 280 Pls
5399 280 Pls
5401 280 Pls
5411 280 Pls
5412 280 Pls
5413 280 Pls
5413 280 Pls
5425 280 Pls
5427 280 Pls
5431 280 Pls
5442 280 Pls
5447 280 Pls
5450 280 Pls
5452 280 Pls
5454 280 Pls
5457 280 Pls
5460 280 Pls
5462 280 Pls
5464 280 Pls
5465 280 Pls
5471 280 Pls
5471 280 Pls
5477 280 Pls
5477 280 Pls
5484 280 Pls
5492 280 Pls
5492 280 Pls
5499 280 Pls
5502 280 Pls
5502 280 Pls
5504 280 Pls
5504 280 Pls
5508 280 Pls
5509 280 Pls
5510 280 Pls
5512 280 Pls
5515 280 Pls
5517 280 Pls
5519 280 Pls
5520 280 Pls
5522 280 Pls
5529 280 Pls
5541 280 Pls
5543 280 Pls
5555 280 Pls
5557 280 Pls
5558 280 Pls
5562 280 Pls
5584 280 Pls
5595 280 Pls
5617 280 Pls
5618 280 Pls
5622 280 Pls
5623 280 Pls
5625 280 Pls
5637 280 Pls
5644 280 Pls
5647 280 Pls
5650 280 Pls
5653 280 Pls
5653 280 Pls
5661 280 Pls
5674 280 Pls
5674 280 Pls
5684 280 Pls
5692 280 Pls
5696 280 Pls
5704 280 Pls
5709 280 Pls
5710 280 Pls
5711 280 Pls
5720 280 Pls
5727 280 Pls
5731 280 Pls
5744 280 Pls
5745 280 Pls
5748 280 Pls
5765 280 Pls
5770 280 Pls
5771 280 Pls
5772 280 Pls
5778 280 Pls
5779 280 Pls
5797 280 Pls
5890 280 Pls
5905 280 Pls
5907 280 Pls
5931 280 Pls
5960 280 Pls
5990 280 Pls
5994 280 Pls
6033 280 Pls
6121 280 Pls
6132 280 Pls
6155 280 Pls
6176 280 Pls
6191 280 Pls
6199 280 Pls
6252 280 Pls
6253 280 Pls
6263 280 Pls
6335 280 Pls
6365 280 Pls
6423 280 Pls
6445 280 Pls
6579 280 Pls
6694 280 Pls
% End plot #1
2.000 UL
LTb
LCb setrgbcolor
1.000 UL
LTB
LCb setrgbcolor
630 4871 N
630 280 L
6317 0 V
0 4591 V
-6317 0 V
Z stroke
1.000 UP
1.000 UL
LTb
LCb setrgbcolor
stroke
grestore
end
showpage
%%Trailer
%%DocumentFonts: Helvetica
%%Pages: 1
