%!PS-Adobe-2.0
%%Title: packets-ip-dist-loglog.eps
%%Creator: gnuplot 5.0 patchlevel 3
%%CreationDate: Mon May 29 11:14:09 2017
%%DocumentFonts: (atend)
%%BoundingBox: 50 50 554 770
%%Orientation: Landscape
%%Pages: (atend)
%%EndComments
%%BeginProlog
/gnudict 256 dict def
gnudict begin
%
% The following true/false flags may be edited by hand if desired.
% The unit line width and grayscale image gamma correction may also be changed.
%
/Color true def
/Blacktext false def
/Solid false def
/Dashlength 1 def
/Landscape true def
/Level1 false def
/Level3 false def
/Rounded false def
/ClipToBoundingBox false def
/SuppressPDFMark false def
/TransparentPatterns false def
/gnulinewidth 5.000 def
/userlinewidth gnulinewidth def
/Gamma 1.0 def
/BackgroundColor {-1.000 -1.000 -1.000} def
%
/vshift -46 def
/dl1 {
  10.0 Dashlength userlinewidth gnulinewidth div mul mul mul
  Rounded { currentlinewidth 0.75 mul sub dup 0 le { pop 0.01 } if } if
} def
/dl2 {
  10.0 Dashlength userlinewidth gnulinewidth div mul mul mul
  Rounded { currentlinewidth 0.75 mul add } if
} def
/hpt_ 31.5 def
/vpt_ 31.5 def
/hpt hpt_ def
/vpt vpt_ def
/doclip {
  ClipToBoundingBox {
    newpath 50 50 moveto 554 50 lineto 554 770 lineto 50 770 lineto closepath
    clip
  } if
} def
%
% Gnuplot Prolog Version 5.1 (Oct 2015)
%
%/SuppressPDFMark true def
%
/M {moveto} bind def
/L {lineto} bind def
/R {rmoveto} bind def
/V {rlineto} bind def
/N {newpath moveto} bind def
/Z {closepath} bind def
/C {setrgbcolor} bind def
/f {rlineto fill} bind def
/g {setgray} bind def
/Gshow {show} def   % May be redefined later in the file to support UTF-8
/vpt2 vpt 2 mul def
/hpt2 hpt 2 mul def
/Lshow {currentpoint stroke M 0 vshift R 
	Blacktext {gsave 0 setgray textshow grestore} {textshow} ifelse} def
/Rshow {currentpoint stroke M dup stringwidth pop neg vshift R
	Blacktext {gsave 0 setgray textshow grestore} {textshow} ifelse} def
/Cshow {currentpoint stroke M dup stringwidth pop -2 div vshift R 
	Blacktext {gsave 0 setgray textshow grestore} {textshow} ifelse} def
/UP {dup vpt_ mul /vpt exch def hpt_ mul /hpt exch def
  /hpt2 hpt 2 mul def /vpt2 vpt 2 mul def} def
/DL {Color {setrgbcolor Solid {pop []} if 0 setdash}
 {pop pop pop 0 setgray Solid {pop []} if 0 setdash} ifelse} def
/BL {stroke userlinewidth 2 mul setlinewidth
	Rounded {1 setlinejoin 1 setlinecap} if} def
/AL {stroke userlinewidth 2 div setlinewidth
	Rounded {1 setlinejoin 1 setlinecap} if} def
/UL {dup gnulinewidth mul /userlinewidth exch def
	dup 1 lt {pop 1} if 10 mul /udl exch def} def
/PL {stroke userlinewidth setlinewidth
	Rounded {1 setlinejoin 1 setlinecap} if} def
3.8 setmiterlimit
% Classic Line colors (version 5.0)
/LCw {1 1 1} def
/LCb {0 0 0} def
/LCa {0 0 0} def
/LC0 {1 0 0} def
/LC1 {0 1 0} def
/LC2 {0 0 1} def
/LC3 {1 0 1} def
/LC4 {0 1 1} def
/LC5 {1 1 0} def
/LC6 {0 0 0} def
/LC7 {1 0.3 0} def
/LC8 {0.5 0.5 0.5} def
% Default dash patterns (version 5.0)
/LTB {BL [] LCb DL} def
/LTw {PL [] 1 setgray} def
/LTb {PL [] LCb DL} def
/LTa {AL [1 udl mul 2 udl mul] 0 setdash LCa setrgbcolor} def
/LT0 {PL [] LC0 DL} def
/LT1 {PL [2 dl1 3 dl2] LC1 DL} def
/LT2 {PL [1 dl1 1.5 dl2] LC2 DL} def
/LT3 {PL [6 dl1 2 dl2 1 dl1 2 dl2] LC3 DL} def
/LT4 {PL [1 dl1 2 dl2 6 dl1 2 dl2 1 dl1 2 dl2] LC4 DL} def
/LT5 {PL [4 dl1 2 dl2] LC5 DL} def
/LT6 {PL [1.5 dl1 1.5 dl2 1.5 dl1 1.5 dl2 1.5 dl1 6 dl2] LC6 DL} def
/LT7 {PL [3 dl1 3 dl2 1 dl1 3 dl2] LC7 DL} def
/LT8 {PL [2 dl1 2 dl2 2 dl1 6 dl2] LC8 DL} def
/SL {[] 0 setdash} def
/Pnt {stroke [] 0 setdash gsave 1 setlinecap M 0 0 V stroke grestore} def
/Dia {stroke [] 0 setdash 2 copy vpt add M
  hpt neg vpt neg V hpt vpt neg V
  hpt vpt V hpt neg vpt V closepath stroke
  Pnt} def
/Pls {stroke [] 0 setdash vpt sub M 0 vpt2 V
  currentpoint stroke M
  hpt neg vpt neg R hpt2 0 V stroke
 } def
/Box {stroke [] 0 setdash 2 copy exch hpt sub exch vpt add M
  0 vpt2 neg V hpt2 0 V 0 vpt2 V
  hpt2 neg 0 V closepath stroke
  Pnt} def
/Crs {stroke [] 0 setdash exch hpt sub exch vpt add M
  hpt2 vpt2 neg V currentpoint stroke M
  hpt2 neg 0 R hpt2 vpt2 V stroke} def
/TriU {stroke [] 0 setdash 2 copy vpt 1.12 mul add M
  hpt neg vpt -1.62 mul V
  hpt 2 mul 0 V
  hpt neg vpt 1.62 mul V closepath stroke
  Pnt} def
/Star {2 copy Pls Crs} def
/BoxF {stroke [] 0 setdash exch hpt sub exch vpt add M
  0 vpt2 neg V hpt2 0 V 0 vpt2 V
  hpt2 neg 0 V closepath fill} def
/TriUF {stroke [] 0 setdash vpt 1.12 mul add M
  hpt neg vpt -1.62 mul V
  hpt 2 mul 0 V
  hpt neg vpt 1.62 mul V closepath fill} def
/TriD {stroke [] 0 setdash 2 copy vpt 1.12 mul sub M
  hpt neg vpt 1.62 mul V
  hpt 2 mul 0 V
  hpt neg vpt -1.62 mul V closepath stroke
  Pnt} def
/TriDF {stroke [] 0 setdash vpt 1.12 mul sub M
  hpt neg vpt 1.62 mul V
  hpt 2 mul 0 V
  hpt neg vpt -1.62 mul V closepath fill} def
/DiaF {stroke [] 0 setdash vpt add M
  hpt neg vpt neg V hpt vpt neg V
  hpt vpt V hpt neg vpt V closepath fill} def
/Pent {stroke [] 0 setdash 2 copy gsave
  translate 0 hpt M 4 {72 rotate 0 hpt L} repeat
  closepath stroke grestore Pnt} def
/PentF {stroke [] 0 setdash gsave
  translate 0 hpt M 4 {72 rotate 0 hpt L} repeat
  closepath fill grestore} def
/Circle {stroke [] 0 setdash 2 copy
  hpt 0 360 arc stroke Pnt} def
/CircleF {stroke [] 0 setdash hpt 0 360 arc fill} def
/C0 {BL [] 0 setdash 2 copy moveto vpt 90 450 arc} bind def
/C1 {BL [] 0 setdash 2 copy moveto
	2 copy vpt 0 90 arc closepath fill
	vpt 0 360 arc closepath} bind def
/C2 {BL [] 0 setdash 2 copy moveto
	2 copy vpt 90 180 arc closepath fill
	vpt 0 360 arc closepath} bind def
/C3 {BL [] 0 setdash 2 copy moveto
	2 copy vpt 0 180 arc closepath fill
	vpt 0 360 arc closepath} bind def
/C4 {BL [] 0 setdash 2 copy moveto
	2 copy vpt 180 270 arc closepath fill
	vpt 0 360 arc closepath} bind def
/C5 {BL [] 0 setdash 2 copy moveto
	2 copy vpt 0 90 arc
	2 copy moveto
	2 copy vpt 180 270 arc closepath fill
	vpt 0 360 arc} bind def
/C6 {BL [] 0 setdash 2 copy moveto
	2 copy vpt 90 270 arc closepath fill
	vpt 0 360 arc closepath} bind def
/C7 {BL [] 0 setdash 2 copy moveto
	2 copy vpt 0 270 arc closepath fill
	vpt 0 360 arc closepath} bind def
/C8 {BL [] 0 setdash 2 copy moveto
	2 copy vpt 270 360 arc closepath fill
	vpt 0 360 arc closepath} bind def
/C9 {BL [] 0 setdash 2 copy moveto
	2 copy vpt 270 450 arc closepath fill
	vpt 0 360 arc closepath} bind def
/C10 {BL [] 0 setdash 2 copy 2 copy moveto vpt 270 360 arc closepath fill
	2 copy moveto
	2 copy vpt 90 180 arc closepath fill
	vpt 0 360 arc closepath} bind def
/C11 {BL [] 0 setdash 2 copy moveto
	2 copy vpt 0 180 arc closepath fill
	2 copy moveto
	2 copy vpt 270 360 arc closepath fill
	vpt 0 360 arc closepath} bind def
/C12 {BL [] 0 setdash 2 copy moveto
	2 copy vpt 180 360 arc closepath fill
	vpt 0 360 arc closepath} bind def
/C13 {BL [] 0 setdash 2 copy moveto
	2 copy vpt 0 90 arc closepath fill
	2 copy moveto
	2 copy vpt 180 360 arc closepath fill
	vpt 0 360 arc closepath} bind def
/C14 {BL [] 0 setdash 2 copy moveto
	2 copy vpt 90 360 arc closepath fill
	vpt 0 360 arc} bind def
/C15 {BL [] 0 setdash 2 copy vpt 0 360 arc closepath fill
	vpt 0 360 arc closepath} bind def
/Rec {newpath 4 2 roll moveto 1 index 0 rlineto 0 exch rlineto
	neg 0 rlineto closepath} bind def
/Square {dup Rec} bind def
/Bsquare {vpt sub exch vpt sub exch vpt2 Square} bind def
/S0 {BL [] 0 setdash 2 copy moveto 0 vpt rlineto BL Bsquare} bind def
/S1 {BL [] 0 setdash 2 copy vpt Square fill Bsquare} bind def
/S2 {BL [] 0 setdash 2 copy exch vpt sub exch vpt Square fill Bsquare} bind def
/S3 {BL [] 0 setdash 2 copy exch vpt sub exch vpt2 vpt Rec fill Bsquare} bind def
/S4 {BL [] 0 setdash 2 copy exch vpt sub exch vpt sub vpt Square fill Bsquare} bind def
/S5 {BL [] 0 setdash 2 copy 2 copy vpt Square fill
	exch vpt sub exch vpt sub vpt Square fill Bsquare} bind def
/S6 {BL [] 0 setdash 2 copy exch vpt sub exch vpt sub vpt vpt2 Rec fill Bsquare} bind def
/S7 {BL [] 0 setdash 2 copy exch vpt sub exch vpt sub vpt vpt2 Rec fill
	2 copy vpt Square fill Bsquare} bind def
/S8 {BL [] 0 setdash 2 copy vpt sub vpt Square fill Bsquare} bind def
/S9 {BL [] 0 setdash 2 copy vpt sub vpt vpt2 Rec fill Bsquare} bind def
/S10 {BL [] 0 setdash 2 copy vpt sub vpt Square fill 2 copy exch vpt sub exch vpt Square fill
	Bsquare} bind def
/S11 {BL [] 0 setdash 2 copy vpt sub vpt Square fill 2 copy exch vpt sub exch vpt2 vpt Rec fill
	Bsquare} bind def
/S12 {BL [] 0 setdash 2 copy exch vpt sub exch vpt sub vpt2 vpt Rec fill Bsquare} bind def
/S13 {BL [] 0 setdash 2 copy exch vpt sub exch vpt sub vpt2 vpt Rec fill
	2 copy vpt Square fill Bsquare} bind def
/S14 {BL [] 0 setdash 2 copy exch vpt sub exch vpt sub vpt2 vpt Rec fill
	2 copy exch vpt sub exch vpt Square fill Bsquare} bind def
/S15 {BL [] 0 setdash 2 copy Bsquare fill Bsquare} bind def
/D0 {gsave translate 45 rotate 0 0 S0 stroke grestore} bind def
/D1 {gsave translate 45 rotate 0 0 S1 stroke grestore} bind def
/D2 {gsave translate 45 rotate 0 0 S2 stroke grestore} bind def
/D3 {gsave translate 45 rotate 0 0 S3 stroke grestore} bind def
/D4 {gsave translate 45 rotate 0 0 S4 stroke grestore} bind def
/D5 {gsave translate 45 rotate 0 0 S5 stroke grestore} bind def
/D6 {gsave translate 45 rotate 0 0 S6 stroke grestore} bind def
/D7 {gsave translate 45 rotate 0 0 S7 stroke grestore} bind def
/D8 {gsave translate 45 rotate 0 0 S8 stroke grestore} bind def
/D9 {gsave translate 45 rotate 0 0 S9 stroke grestore} bind def
/D10 {gsave translate 45 rotate 0 0 S10 stroke grestore} bind def
/D11 {gsave translate 45 rotate 0 0 S11 stroke grestore} bind def
/D12 {gsave translate 45 rotate 0 0 S12 stroke grestore} bind def
/D13 {gsave translate 45 rotate 0 0 S13 stroke grestore} bind def
/D14 {gsave translate 45 rotate 0 0 S14 stroke grestore} bind def
/D15 {gsave translate 45 rotate 0 0 S15 stroke grestore} bind def
/DiaE {stroke [] 0 setdash vpt add M
  hpt neg vpt neg V hpt vpt neg V
  hpt vpt V hpt neg vpt V closepath stroke} def
/BoxE {stroke [] 0 setdash exch hpt sub exch vpt add M
  0 vpt2 neg V hpt2 0 V 0 vpt2 V
  hpt2 neg 0 V closepath stroke} def
/TriUE {stroke [] 0 setdash vpt 1.12 mul add M
  hpt neg vpt -1.62 mul V
  hpt 2 mul 0 V
  hpt neg vpt 1.62 mul V closepath stroke} def
/TriDE {stroke [] 0 setdash vpt 1.12 mul sub M
  hpt neg vpt 1.62 mul V
  hpt 2 mul 0 V
  hpt neg vpt -1.62 mul V closepath stroke} def
/PentE {stroke [] 0 setdash gsave
  translate 0 hpt M 4 {72 rotate 0 hpt L} repeat
  closepath stroke grestore} def
/CircE {stroke [] 0 setdash 
  hpt 0 360 arc stroke} def
/Opaque {gsave closepath 1 setgray fill grestore 0 setgray closepath} def
/DiaW {stroke [] 0 setdash vpt add M
  hpt neg vpt neg V hpt vpt neg V
  hpt vpt V hpt neg vpt V Opaque stroke} def
/BoxW {stroke [] 0 setdash exch hpt sub exch vpt add M
  0 vpt2 neg V hpt2 0 V 0 vpt2 V
  hpt2 neg 0 V Opaque stroke} def
/TriUW {stroke [] 0 setdash vpt 1.12 mul add M
  hpt neg vpt -1.62 mul V
  hpt 2 mul 0 V
  hpt neg vpt 1.62 mul V Opaque stroke} def
/TriDW {stroke [] 0 setdash vpt 1.12 mul sub M
  hpt neg vpt 1.62 mul V
  hpt 2 mul 0 V
  hpt neg vpt -1.62 mul V Opaque stroke} def
/PentW {stroke [] 0 setdash gsave
  translate 0 hpt M 4 {72 rotate 0 hpt L} repeat
  Opaque stroke grestore} def
/CircW {stroke [] 0 setdash 
  hpt 0 360 arc Opaque stroke} def
/BoxFill {gsave Rec 1 setgray fill grestore} def
/Density {
  /Fillden exch def
  currentrgbcolor
  /ColB exch def /ColG exch def /ColR exch def
  /ColR ColR Fillden mul Fillden sub 1 add def
  /ColG ColG Fillden mul Fillden sub 1 add def
  /ColB ColB Fillden mul Fillden sub 1 add def
  ColR ColG ColB setrgbcolor} def
/BoxColFill {gsave Rec PolyFill} def
/PolyFill {gsave Density fill grestore grestore} def
/h {rlineto rlineto rlineto gsave closepath fill grestore} bind def
%
% PostScript Level 1 Pattern Fill routine for rectangles
% Usage: x y w h s a XX PatternFill
%	x,y = lower left corner of box to be filled
%	w,h = width and height of box
%	  a = angle in degrees between lines and x-axis
%	 XX = 0/1 for no/yes cross-hatch
%
/PatternFill {gsave /PFa [ 9 2 roll ] def
  PFa 0 get PFa 2 get 2 div add PFa 1 get PFa 3 get 2 div add translate
  PFa 2 get -2 div PFa 3 get -2 div PFa 2 get PFa 3 get Rec
  TransparentPatterns {} {gsave 1 setgray fill grestore} ifelse
  clip
  currentlinewidth 0.5 mul setlinewidth
  /PFs PFa 2 get dup mul PFa 3 get dup mul add sqrt def
  0 0 M PFa 5 get rotate PFs -2 div dup translate
  0 1 PFs PFa 4 get div 1 add floor cvi
	{PFa 4 get mul 0 M 0 PFs V} for
  0 PFa 6 get ne {
	0 1 PFs PFa 4 get div 1 add floor cvi
	{PFa 4 get mul 0 2 1 roll M PFs 0 V} for
 } if
  stroke grestore} def
%
/languagelevel where
 {pop languagelevel} {1} ifelse
dup 2 lt
	{/InterpretLevel1 true def
	 /InterpretLevel3 false def}
	{/InterpretLevel1 Level1 def
	 2 gt
	    {/InterpretLevel3 Level3 def}
	    {/InterpretLevel3 false def}
	 ifelse }
 ifelse
%
% PostScript level 2 pattern fill definitions
%
/Level2PatternFill {
/Tile8x8 {/PaintType 2 /PatternType 1 /TilingType 1 /BBox [0 0 8 8] /XStep 8 /YStep 8}
	bind def
/KeepColor {currentrgbcolor [/Pattern /DeviceRGB] setcolorspace} bind def
<< Tile8x8
 /PaintProc {0.5 setlinewidth pop 0 0 M 8 8 L 0 8 M 8 0 L stroke} 
>> matrix makepattern
/Pat1 exch def
<< Tile8x8
 /PaintProc {0.5 setlinewidth pop 0 0 M 8 8 L 0 8 M 8 0 L stroke
	0 4 M 4 8 L 8 4 L 4 0 L 0 4 L stroke}
>> matrix makepattern
/Pat2 exch def
<< Tile8x8
 /PaintProc {0.5 setlinewidth pop 0 0 M 0 8 L
	8 8 L 8 0 L 0 0 L fill}
>> matrix makepattern
/Pat3 exch def
<< Tile8x8
 /PaintProc {0.5 setlinewidth pop -4 8 M 8 -4 L
	0 12 M 12 0 L stroke}
>> matrix makepattern
/Pat4 exch def
<< Tile8x8
 /PaintProc {0.5 setlinewidth pop -4 0 M 8 12 L
	0 -4 M 12 8 L stroke}
>> matrix makepattern
/Pat5 exch def
<< Tile8x8
 /PaintProc {0.5 setlinewidth pop -2 8 M 4 -4 L
	0 12 M 8 -4 L 4 12 M 10 0 L stroke}
>> matrix makepattern
/Pat6 exch def
<< Tile8x8
 /PaintProc {0.5 setlinewidth pop -2 0 M 4 12 L
	0 -4 M 8 12 L 4 -4 M 10 8 L stroke}
>> matrix makepattern
/Pat7 exch def
<< Tile8x8
 /PaintProc {0.5 setlinewidth pop 8 -2 M -4 4 L
	12 0 M -4 8 L 12 4 M 0 10 L stroke}
>> matrix makepattern
/Pat8 exch def
<< Tile8x8
 /PaintProc {0.5 setlinewidth pop 0 -2 M 12 4 L
	-4 0 M 12 8 L -4 4 M 8 10 L stroke}
>> matrix makepattern
/Pat9 exch def
/Pattern1 {PatternBgnd KeepColor Pat1 setpattern} bind def
/Pattern2 {PatternBgnd KeepColor Pat2 setpattern} bind def
/Pattern3 {PatternBgnd KeepColor Pat3 setpattern} bind def
/Pattern4 {PatternBgnd KeepColor Landscape {Pat5} {Pat4} ifelse setpattern} bind def
/Pattern5 {PatternBgnd KeepColor Landscape {Pat4} {Pat5} ifelse setpattern} bind def
/Pattern6 {PatternBgnd KeepColor Landscape {Pat9} {Pat6} ifelse setpattern} bind def
/Pattern7 {PatternBgnd KeepColor Landscape {Pat8} {Pat7} ifelse setpattern} bind def
} def
%
%
%End of PostScript Level 2 code
%
/PatternBgnd {
  TransparentPatterns {} {gsave 1 setgray fill grestore} ifelse
} def
%
% Substitute for Level 2 pattern fill codes with
% grayscale if Level 2 support is not selected.
%
/Level1PatternFill {
/Pattern1 {0.250 Density} bind def
/Pattern2 {0.500 Density} bind def
/Pattern3 {0.750 Density} bind def
/Pattern4 {0.125 Density} bind def
/Pattern5 {0.375 Density} bind def
/Pattern6 {0.625 Density} bind def
/Pattern7 {0.875 Density} bind def
} def
%
% Now test for support of Level 2 code
%
Level1 {Level1PatternFill} {Level2PatternFill} ifelse
%
/Symbol-Oblique /Symbol findfont [1 0 .167 1 0 0] makefont
dup length dict begin {1 index /FID eq {pop pop} {def} ifelse} forall
currentdict end definefont pop
%
/MFshow {
   { dup 5 get 3 ge
     { 5 get 3 eq {gsave} {grestore} ifelse }
     {dup dup 0 get findfont exch 1 get scalefont setfont
     [ currentpoint ] exch dup 2 get 0 exch R dup 5 get 2 ne {dup dup 6
     get exch 4 get {textshow} {stringwidth pop 0 R} ifelse }if dup 5 get 0 eq
     {dup 3 get {2 get neg 0 exch R pop} {pop aload pop M} ifelse} {dup 5
     get 1 eq {dup 2 get exch dup 3 get exch 6 get stringwidth pop -2 div
     dup 0 R} {dup 6 get stringwidth pop -2 div 0 R 6 get
     textshow 2 index {aload pop M neg 3 -1 roll neg R pop pop} {pop pop pop
     pop aload pop M} ifelse }ifelse }ifelse }
     ifelse }
   forall} def
/Gswidth {dup type /stringtype eq {stringwidth} {pop (n) stringwidth} ifelse} def
/MFwidth {0 exch { dup 5 get 3 ge { 5 get 3 eq { 0 } { pop } ifelse }
 {dup 3 get{dup dup 0 get findfont exch 1 get scalefont setfont
     6 get Gswidth pop add} {pop} ifelse} ifelse} forall} def
/MLshow { currentpoint stroke M
  0 exch R
  Blacktext {gsave 0 setgray MFshow grestore} {MFshow} ifelse } bind def
/MRshow { currentpoint stroke M
  exch dup MFwidth neg 3 -1 roll R
  Blacktext {gsave 0 setgray MFshow grestore} {MFshow} ifelse } bind def
/MCshow { currentpoint stroke M
  exch dup MFwidth -2 div 3 -1 roll R
  Blacktext {gsave 0 setgray MFshow grestore} {MFshow} ifelse } bind def
/XYsave    { [( ) 1 2 true false 3 ()] } bind def
/XYrestore { [( ) 1 2 true false 4 ()] } bind def
Level1 SuppressPDFMark or 
{} {
/SDict 10 dict def
systemdict /pdfmark known not {
  userdict /pdfmark systemdict /cleartomark get put
} if
SDict begin [
  /Title (packets-ip-dist-loglog.eps)
  /Subject (gnuplot plot)
  /Creator (gnuplot 5.0 patchlevel 3)
  /Author (tiphaine)
%  /Producer (gnuplot)
%  /Keywords ()
  /CreationDate (Mon May 29 11:14:09 2017)
  /DOCINFO pdfmark
end
} ifelse
%
% Support for boxed text - Ethan A Merritt May 2005
%
/InitTextBox { userdict /TBy2 3 -1 roll put userdict /TBx2 3 -1 roll put
           userdict /TBy1 3 -1 roll put userdict /TBx1 3 -1 roll put
	   /Boxing true def } def
/ExtendTextBox { Boxing
    { gsave dup false charpath pathbbox
      dup TBy2 gt {userdict /TBy2 3 -1 roll put} {pop} ifelse
      dup TBx2 gt {userdict /TBx2 3 -1 roll put} {pop} ifelse
      dup TBy1 lt {userdict /TBy1 3 -1 roll put} {pop} ifelse
      dup TBx1 lt {userdict /TBx1 3 -1 roll put} {pop} ifelse
      grestore } if } def
/PopTextBox { newpath TBx1 TBxmargin sub TBy1 TBymargin sub M
               TBx1 TBxmargin sub TBy2 TBymargin add L
	       TBx2 TBxmargin add TBy2 TBymargin add L
	       TBx2 TBxmargin add TBy1 TBymargin sub L closepath } def
/DrawTextBox { PopTextBox stroke /Boxing false def} def
/FillTextBox { gsave PopTextBox 1 1 1 setrgbcolor fill grestore /Boxing false def} def
0 0 0 0 InitTextBox
/TBxmargin 20 def
/TBymargin 20 def
/Boxing false def
/textshow { ExtendTextBox Gshow } def
%
% redundant definitions for compatibility with prologue.ps older than 5.0.2
/LTB {BL [] LCb DL} def
/LTb {PL [] LCb DL} def
end
%%EndProlog
%%Page: 1 1
gnudict begin
gsave
doclip
50 50 translate
0.100 0.100 scale
90 rotate
0 -5040 translate
0 setgray
newpath
(Helvetica) findfont 140 scalefont setfont
BackgroundColor 0 lt 3 1 roll 0 lt exch 0 lt or or not {gsave BackgroundColor C clippath fill grestore} if
1.000 UL
LTb
LCb setrgbcolor
798 280 M
63 0 V
6086 0 R
-63 0 V
stroke
714 280 M
[ [(Helvetica) 140.0 0.0 true true 0 ( 1)]
] -46.7 MRshow
1.000 UL
LTb
LCb setrgbcolor
798 510 M
31 0 V
6118 0 R
-31 0 V
798 815 M
31 0 V
6118 0 R
-31 0 V
798 971 M
31 0 V
6118 0 R
-31 0 V
798 1045 M
63 0 V
6086 0 R
-63 0 V
stroke
714 1045 M
[ [(Helvetica) 140.0 0.0 true true 0 ( 10)]
] -46.7 MRshow
1.000 UL
LTb
LCb setrgbcolor
798 1276 M
31 0 V
6118 0 R
-31 0 V
798 1580 M
31 0 V
6118 0 R
-31 0 V
798 1736 M
31 0 V
6118 0 R
-31 0 V
798 1810 M
63 0 V
6086 0 R
-63 0 V
stroke
714 1810 M
[ [(Helvetica) 140.0 0.0 true true 0 ( 100)]
] -46.7 MRshow
1.000 UL
LTb
LCb setrgbcolor
798 2041 M
31 0 V
6118 0 R
-31 0 V
798 2345 M
31 0 V
6118 0 R
-31 0 V
798 2501 M
31 0 V
6118 0 R
-31 0 V
798 2576 M
63 0 V
6086 0 R
-63 0 V
stroke
714 2576 M
[ [(Helvetica) 140.0 0.0 true true 0 ( 1000)]
] -46.7 MRshow
1.000 UL
LTb
LCb setrgbcolor
798 2806 M
31 0 V
6118 0 R
-31 0 V
798 3110 M
31 0 V
6118 0 R
-31 0 V
798 3267 M
31 0 V
6118 0 R
-31 0 V
798 3341 M
63 0 V
6086 0 R
-63 0 V
stroke
714 3341 M
[ [(Helvetica) 140.0 0.0 true true 0 ( 10000)]
] -46.7 MRshow
1.000 UL
LTb
LCb setrgbcolor
798 3571 M
31 0 V
6118 0 R
-31 0 V
798 3875 M
31 0 V
6118 0 R
-31 0 V
798 4032 M
31 0 V
6118 0 R
-31 0 V
798 4106 M
63 0 V
6086 0 R
-63 0 V
stroke
714 4106 M
[ [(Helvetica) 140.0 0.0 true true 0 ( 100000)]
] -46.7 MRshow
1.000 UL
LTb
LCb setrgbcolor
798 4336 M
31 0 V
6118 0 R
-31 0 V
798 4641 M
31 0 V
6118 0 R
-31 0 V
798 4797 M
31 0 V
6118 0 R
-31 0 V
798 4871 M
63 0 V
6086 0 R
-63 0 V
stroke
714 4871 M
[ [(Helvetica) 140.0 0.0 true true 0 ( 1x10)]
[(Helvetica) 112.0 70.0 true true 0 (6)]
] -60.7 MRshow
1.000 UL
LTb
LCb setrgbcolor
798 280 M
0 63 V
0 4528 R
0 -63 V
stroke
798 140 M
[ [(Helvetica) 140.0 0.0 true true 0 ( 1)]
] -46.7 MCshow
1.000 UL
LTb
LCb setrgbcolor
1029 280 M
0 31 V
0 4560 R
0 -31 V
1335 280 M
0 31 V
0 4560 R
0 -31 V
1492 280 M
0 31 V
0 4560 R
0 -31 V
1567 280 M
0 63 V
0 4528 R
0 -63 V
stroke
1567 140 M
[ [(Helvetica) 140.0 0.0 true true 0 ( 10)]
] -46.7 MCshow
1.000 UL
LTb
LCb setrgbcolor
1798 280 M
0 31 V
0 4560 R
0 -31 V
2104 280 M
0 31 V
0 4560 R
0 -31 V
2261 280 M
0 31 V
0 4560 R
0 -31 V
2335 280 M
0 63 V
0 4528 R
0 -63 V
stroke
2335 140 M
[ [(Helvetica) 140.0 0.0 true true 0 ( 100)]
] -46.7 MCshow
1.000 UL
LTb
LCb setrgbcolor
2567 280 M
0 31 V
0 4560 R
0 -31 V
2872 280 M
0 31 V
0 4560 R
0 -31 V
3029 280 M
0 31 V
0 4560 R
0 -31 V
3104 280 M
0 63 V
0 4528 R
0 -63 V
stroke
3104 140 M
[ [(Helvetica) 140.0 0.0 true true 0 ( 1000)]
] -46.7 MCshow
1.000 UL
LTb
LCb setrgbcolor
3335 280 M
0 31 V
0 4560 R
0 -31 V
3641 280 M
0 31 V
0 4560 R
0 -31 V
3798 280 M
0 31 V
0 4560 R
0 -31 V
3873 280 M
0 63 V
0 4528 R
0 -63 V
stroke
3873 140 M
[ [(Helvetica) 140.0 0.0 true true 0 ( 10000)]
] -46.7 MCshow
1.000 UL
LTb
LCb setrgbcolor
4104 280 M
0 31 V
0 4560 R
0 -31 V
4410 280 M
0 31 V
0 4560 R
0 -31 V
4567 280 M
0 31 V
0 4560 R
0 -31 V
4641 280 M
0 63 V
0 4528 R
0 -63 V
stroke
4641 140 M
[ [(Helvetica) 140.0 0.0 true true 0 ( 100000)]
] -46.7 MCshow
1.000 UL
LTb
LCb setrgbcolor
4873 280 M
0 31 V
0 4560 R
0 -31 V
5178 280 M
0 31 V
0 4560 R
0 -31 V
5335 280 M
0 31 V
0 4560 R
0 -31 V
5410 280 M
0 63 V
0 4528 R
0 -63 V
stroke
5410 140 M
[ [(Helvetica) 140.0 0.0 true true 0 ( 1x10)]
[(Helvetica) 112.0 70.0 true true 0 (6)]
] -60.7 MCshow
1.000 UL
LTb
LCb setrgbcolor
5641 280 M
0 31 V
0 4560 R
0 -31 V
5947 280 M
0 31 V
0 4560 R
0 -31 V
6104 280 M
0 31 V
0 4560 R
0 -31 V
6178 280 M
0 63 V
0 4528 R
0 -63 V
stroke
6178 140 M
[ [(Helvetica) 140.0 0.0 true true 0 ( 1x10)]
[(Helvetica) 112.0 70.0 true true 0 (7)]
] -60.7 MCshow
1.000 UL
LTb
LCb setrgbcolor
6410 280 M
0 31 V
0 4560 R
0 -31 V
6716 280 M
0 31 V
0 4560 R
0 -31 V
6873 280 M
0 31 V
0 4560 R
0 -31 V
6947 280 M
0 63 V
0 4528 R
0 -63 V
stroke
6947 140 M
[ [(Helvetica) 140.0 0.0 true true 0 ( 1x10)]
[(Helvetica) 112.0 70.0 true true 0 (8)]
] -60.7 MCshow
1.000 UL
LTb
LCb setrgbcolor
1.000 UL
LTB
LCb setrgbcolor
798 4871 N
798 280 L
6149 0 V
0 4591 V
-6149 0 V
Z stroke
1.000 UP
1.000 UL
LTb
LCb setrgbcolor
% Begin plot #1
1.000 UP
1.000 UL
LTb
0.58 0.00 0.83 C 798 4431 Pls
1029 4193 Pls
1165 3954 Pls
1261 3953 Pls
1335 3793 Pls
1396 3762 Pls
1448 3636 Pls
1492 3639 Pls
1531 3531 Pls
1567 3528 Pls
1598 3433 Pls
1627 3447 Pls
1654 3359 Pls
1679 3352 Pls
1702 3323 Pls
1724 3329 Pls
1744 3261 Pls
1763 3265 Pls
1781 3194 Pls
1798 3167 Pls
1814 3069 Pls
1830 3045 Pls
1845 2954 Pls
1859 2984 Pls
1872 2870 Pls
1886 2869 Pls
1898 2796 Pls
1910 2802 Pls
1922 2684 Pls
1933 2799 Pls
1944 2614 Pls
1955 2650 Pls
1965 2558 Pls
1975 2631 Pls
1985 2525 Pls
1994 2607 Pls
2003 2432 Pls
2012 2518 Pls
2021 2435 Pls
2029 2584 Pls
2038 2360 Pls
2046 2436 Pls
2054 2354 Pls
2061 2412 Pls
2069 2378 Pls
2076 2341 Pls
2083 2563 Pls
2090 2465 Pls
2097 2495 Pls
2104 2427 Pls
2110 2365 Pls
2117 2323 Pls
2123 2294 Pls
2130 2298 Pls
2136 2275 Pls
2142 2286 Pls
2148 2240 Pls
2153 2185 Pls
2159 2186 Pls
2165 2329 Pls
2170 2164 Pls
2176 2177 Pls
2181 2170 Pls
2186 2175 Pls
2191 2168 Pls
2197 2130 Pls
2202 2097 Pls
2207 2089 Pls
2211 2094 Pls
2216 2130 Pls
2221 2074 Pls
2226 2103 Pls
2230 2054 Pls
2235 2044 Pls
2239 2072 Pls
2244 2025 Pls
2248 2050 Pls
2252 2175 Pls
2257 2093 Pls
2261 2069 Pls
2265 1967 Pls
2269 2000 Pls
2273 1998 Pls
2277 2011 Pls
2281 2015 Pls
2285 1954 Pls
2289 1910 Pls
2293 1949 Pls
2296 1917 Pls
2300 2075 Pls
2304 1884 Pls
2307 1915 Pls
2311 2041 Pls
2315 1962 Pls
2318 1960 Pls
2322 2111 Pls
2325 1958 Pls
2329 1879 Pls
2332 1973 Pls
2335 2440 Pls
2339 1836 Pls
2342 1917 Pls
2345 1876 Pls
2348 1857 Pls
2352 1913 Pls
2355 1900 Pls
2358 1890 Pls
2361 1892 Pls
2364 1871 Pls
2367 1962 Pls
2370 1860 Pls
2373 1943 Pls
2376 1874 Pls
2379 1860 Pls
2382 1908 Pls
2385 1817 Pls
2388 1807 Pls
2391 1827 Pls
2393 1752 Pls
2396 1979 Pls
2399 1851 Pls
2402 1908 Pls
2404 1810 Pls
2407 1823 Pls
2410 1845 Pls
2412 1764 Pls
2415 1775 Pls
2418 1797 Pls
2420 1827 Pls
2423 1842 Pls
2425 1797 Pls
2428 1833 Pls
2430 1793 Pls
2433 1764 Pls
2435 1790 Pls
2438 1760 Pls
2440 1786 Pls
2443 1760 Pls
2445 1736 Pls
2448 1748 Pls
2450 1768 Pls
2452 1800 Pls
2455 1779 Pls
2457 1807 Pls
2459 1748 Pls
2462 1651 Pls
2464 1764 Pls
2466 1723 Pls
2468 1744 Pls
2471 1760 Pls
2473 1723 Pls
2475 1672 Pls
2477 1740 Pls
2479 1641 Pls
2482 1599 Pls
2484 1752 Pls
2486 1573 Pls
2488 1697 Pls
2490 1706 Pls
2492 1672 Pls
2494 1662 Pls
2496 1662 Pls
2498 1667 Pls
2500 1657 Pls
2502 1587 Pls
2504 1662 Pls
2506 1559 Pls
2508 1740 Pls
2510 1677 Pls
2512 1682 Pls
2514 1677 Pls
2516 1667 Pls
2518 1692 Pls
2520 1692 Pls
2522 1624 Pls
2524 1662 Pls
2526 1736 Pls
2528 1728 Pls
2530 1687 Pls
2531 1830 Pls
2533 1740 Pls
2535 1760 Pls
2537 1667 Pls
2539 1677 Pls
2541 1635 Pls
2542 1593 Pls
2544 1629 Pls
2546 1559 Pls
2548 1618 Pls
2550 1618 Pls
2551 1573 Pls
2553 1573 Pls
2555 1538 Pls
2556 1522 Pls
2558 1471 Pls
2560 1580 Pls
2562 1587 Pls
2563 1552 Pls
2565 1497 Pls
2567 1624 Pls
2568 1566 Pls
2570 1672 Pls
2572 1530 Pls
2573 1552 Pls
2575 1566 Pls
2576 1593 Pls
2578 1552 Pls
2580 1573 Pls
2581 1552 Pls
2583 1842 Pls
2585 1514 Pls
2586 1497 Pls
2588 1635 Pls
2589 1552 Pls
2591 1573 Pls
2592 1497 Pls
2594 1480 Pls
2595 1587 Pls
2597 1573 Pls
2598 1514 Pls
2600 1471 Pls
2601 1489 Pls
2603 1336 Pls
2604 1497 Pls
2606 1545 Pls
2607 1522 Pls
2609 1421 Pls
2610 1480 Pls
2612 1530 Pls
2613 1471 Pls
2615 1442 Pls
2616 1442 Pls
2618 1471 Pls
2619 1506 Pls
2620 1580 Pls
2622 1489 Pls
2623 1480 Pls
2625 1432 Pls
2626 1538 Pls
2627 1715 Pls
2629 1307 Pls
2630 1538 Pls
2632 1363 Pls
2633 1480 Pls
2634 1387 Pls
2636 1552 Pls
2637 1399 Pls
2638 1452 Pls
2640 1363 Pls
2641 1530 Pls
2642 1387 Pls
2644 1410 Pls
2645 1489 Pls
2646 1336 Pls
2648 1350 Pls
2649 1399 Pls
2650 1375 Pls
2652 1471 Pls
2653 1421 Pls
2654 1387 Pls
2655 1432 Pls
2657 1322 Pls
2658 1442 Pls
2659 1387 Pls
2661 1461 Pls
2662 1375 Pls
2663 1461 Pls
2664 1350 Pls
2666 1489 Pls
2667 1375 Pls
2668 1336 Pls
2669 1452 Pls
2670 1421 Pls
2672 1399 Pls
2673 1399 Pls
2674 1322 Pls
2675 1442 Pls
2677 1375 Pls
2678 1307 Pls
2679 1399 Pls
2680 1387 Pls
2681 1432 Pls
2683 1322 Pls
2684 1322 Pls
2685 1375 Pls
2686 1442 Pls
2687 1292 Pls
2688 1292 Pls
2690 1410 Pls
2691 1336 Pls
2692 1258 Pls
2693 1292 Pls
2694 1276 Pls
2695 1322 Pls
2696 1240 Pls
2697 1307 Pls
2699 1399 Pls
2700 1410 Pls
2701 1387 Pls
2702 1307 Pls
2703 1399 Pls
2704 1410 Pls
2705 1350 Pls
2706 1240 Pls
2707 1410 Pls
2709 1322 Pls
2710 1387 Pls
2711 1322 Pls
2712 1350 Pls
2713 1399 Pls
2714 1276 Pls
2715 1442 Pls
2716 1180 Pls
2717 1471 Pls
2718 1410 Pls
2719 1307 Pls
2720 1221 Pls
2721 1157 Pls
2722 1221 Pls
2724 1276 Pls
2725 1258 Pls
2726 927 Pls
2727 1240 Pls
2728 1292 Pls
2729 1180 Pls
2730 1307 Pls
2731 1276 Pls
2732 1387 Pls
2733 1221 Pls
2734 1387 Pls
2735 1157 Pls
2736 927 Pls
2737 1045 Pls
2738 1240 Pls
2739 1106 Pls
2740 1276 Pls
2741 1322 Pls
2742 1322 Pls
2743 1157 Pls
2744 1258 Pls
2745 1276 Pls
2746 1276 Pls
2747 1240 Pls
2748 1106 Pls
2749 1322 Pls
2750 1132 Pls
2751 1375 Pls
2752 1240 Pls
2752 1157 Pls
2753 1442 Pls
2754 1292 Pls
2755 1363 Pls
2756 1336 Pls
2757 1221 Pls
2758 1132 Pls
2759 1240 Pls
2760 1258 Pls
2761 1258 Pls
2762 1240 Pls
2763 1132 Pls
2764 1307 Pls
2765 1180 Pls
2766 1258 Pls
2767 1240 Pls
2767 1240 Pls
2768 1106 Pls
2769 1350 Pls
2770 1201 Pls
2771 1221 Pls
2772 1292 Pls
2773 1276 Pls
2774 1307 Pls
2775 1201 Pls
2776 1132 Pls
2776 1157 Pls
2777 1180 Pls
2778 1221 Pls
2779 1010 Pls
2780 971 Pls
2781 1258 Pls
2782 1180 Pls
2783 1010 Pls
2784 1045 Pls
2784 1157 Pls
2785 1045 Pls
2786 1240 Pls
2787 1106 Pls
2788 1180 Pls
2789 1132 Pls
2790 1157 Pls
2790 875 Pls
2791 1307 Pls
2792 971 Pls
2793 1132 Pls
2794 1106 Pls
2795 815 Pls
2795 1292 Pls
2796 1180 Pls
2797 971 Pls
2798 1106 Pls
2799 1221 Pls
2800 1132 Pls
2801 1240 Pls
2801 1077 Pls
2802 1221 Pls
2803 1221 Pls
2804 1157 Pls
2805 1045 Pls
2805 1132 Pls
2806 1157 Pls
2807 1132 Pls
2808 1201 Pls
2809 1010 Pls
2809 1201 Pls
2810 1221 Pls
2811 971 Pls
2812 1132 Pls
2813 1132 Pls
2813 1132 Pls
2814 1010 Pls
2815 1077 Pls
2816 1045 Pls
2817 1132 Pls
2817 1132 Pls
2818 1045 Pls
2819 1240 Pls
2820 1045 Pls
2821 971 Pls
2821 1132 Pls
2822 1292 Pls
2823 1045 Pls
2824 1045 Pls
2824 1132 Pls
2825 1221 Pls
2826 875 Pls
2827 1132 Pls
2828 1106 Pls
2828 1010 Pls
2829 1157 Pls
2830 1077 Pls
2831 1157 Pls
2831 1221 Pls
2832 1180 Pls
2833 1157 Pls
2834 1045 Pls
2834 1201 Pls
2835 1157 Pls
2836 1258 Pls
2837 927 Pls
2837 1045 Pls
2838 1276 Pls
2839 1045 Pls
2840 1077 Pls
2840 1157 Pls
2841 1077 Pls
2842 1045 Pls
2842 1106 Pls
2843 1132 Pls
2844 1157 Pls
2845 1221 Pls
2845 1010 Pls
2846 875 Pls
2847 1045 Pls
2848 1157 Pls
2848 1077 Pls
2849 1132 Pls
2850 971 Pls
2850 1276 Pls
2851 1106 Pls
2852 1077 Pls
2853 1077 Pls
2853 1106 Pls
2854 1077 Pls
2855 1258 Pls
2855 971 Pls
2856 1180 Pls
2857 1106 Pls
2857 1077 Pls
2858 1010 Pls
2859 1132 Pls
2860 1180 Pls
2860 927 Pls
2861 1180 Pls
2862 1106 Pls
2862 1106 Pls
2863 1106 Pls
2864 1077 Pls
2864 1010 Pls
2865 815 Pls
2866 1045 Pls
2866 1010 Pls
2867 1106 Pls
2868 1132 Pls
2868 1106 Pls
2869 1180 Pls
2870 927 Pls
2870 1010 Pls
2871 1077 Pls
2872 1132 Pls
2872 1180 Pls
2873 1045 Pls
2874 1045 Pls
2874 1010 Pls
2875 1106 Pls
2876 927 Pls
2876 971 Pls
2877 971 Pls
2878 1106 Pls
2878 875 Pls
2879 1077 Pls
2880 1077 Pls
2880 1157 Pls
2881 1106 Pls
2882 1045 Pls
2882 927 Pls
2883 875 Pls
2884 1045 Pls
2884 1132 Pls
2885 875 Pls
2886 1010 Pls
2886 1106 Pls
2887 1106 Pls
2888 1240 Pls
2888 1010 Pls
2889 971 Pls
2889 1180 Pls
2890 1010 Pls
2891 1106 Pls
2891 741 Pls
2892 1077 Pls
2893 875 Pls
2893 1106 Pls
2894 1045 Pls
2894 1010 Pls
2895 927 Pls
2896 1010 Pls
2896 1132 Pls
2897 1077 Pls
2898 1201 Pls
2898 1106 Pls
2899 1132 Pls
2899 815 Pls
2900 1010 Pls
2901 1180 Pls
2901 971 Pls
2902 1077 Pls
2902 815 Pls
2903 971 Pls
2904 1201 Pls
2904 1157 Pls
2905 1077 Pls
2906 815 Pls
2906 1010 Pls
2907 971 Pls
2907 927 Pls
2908 1077 Pls
2909 1106 Pls
2909 815 Pls
2910 1077 Pls
2910 1106 Pls
2911 1180 Pls
2912 927 Pls
2912 1132 Pls
2913 1157 Pls
2913 1010 Pls
2914 971 Pls
2914 645 Pls
2915 1221 Pls
2916 1045 Pls
2916 1045 Pls
2917 875 Pls
2917 1077 Pls
2918 815 Pls
2919 971 Pls
2919 815 Pls
2920 971 Pls
2920 875 Pls
2921 1077 Pls
2921 875 Pls
2922 741 Pls
2923 510 Pls
2923 1010 Pls
2924 1045 Pls
2924 971 Pls
2925 927 Pls
2925 741 Pls
2926 815 Pls
2927 875 Pls
2927 1010 Pls
2928 1010 Pls
2928 741 Pls
2929 1045 Pls
2929 815 Pls
2930 971 Pls
2931 875 Pls
2931 1132 Pls
2932 1010 Pls
2932 1010 Pls
2933 1077 Pls
2933 971 Pls
2934 875 Pls
2934 875 Pls
2935 927 Pls
2936 1157 Pls
2936 741 Pls
2937 1010 Pls
2937 1010 Pls
2938 875 Pls
2938 1077 Pls
2939 815 Pls
2939 875 Pls
2940 1077 Pls
2941 1077 Pls
2941 927 Pls
2942 927 Pls
2942 971 Pls
2943 815 Pls
2943 1045 Pls
2944 1106 Pls
2944 645 Pls
2945 971 Pls
2945 875 Pls
2946 1045 Pls
2946 1106 Pls
2947 927 Pls
2948 971 Pls
2948 1157 Pls
2949 1292 Pls
2949 875 Pls
2950 971 Pls
2950 1132 Pls
2951 1201 Pls
2951 1180 Pls
2952 1201 Pls
2952 1157 Pls
2953 1106 Pls
2953 927 Pls
2954 1157 Pls
2954 1180 Pls
2955 1157 Pls
2955 1221 Pls
2956 1132 Pls
2956 1180 Pls
2957 1201 Pls
2957 1221 Pls
2958 1157 Pls
2959 1106 Pls
2959 1157 Pls
2960 1106 Pls
2960 1180 Pls
2961 1221 Pls
2961 1201 Pls
2962 1157 Pls
2962 1180 Pls
2963 1157 Pls
2963 1221 Pls
2964 1157 Pls
2964 1276 Pls
2965 1077 Pls
2965 1157 Pls
2966 1157 Pls
2966 1157 Pls
2967 1132 Pls
2967 1077 Pls
2968 1201 Pls
2968 1010 Pls
2969 1180 Pls
2969 1201 Pls
2970 1180 Pls
2970 1077 Pls
2971 1106 Pls
2971 1010 Pls
2972 1045 Pls
2972 1106 Pls
2973 1077 Pls
2973 971 Pls
2974 1157 Pls
2974 1077 Pls
2975 1106 Pls
2975 1201 Pls
2976 1157 Pls
2976 1045 Pls
2977 1106 Pls
2977 1180 Pls
2978 1157 Pls
2978 971 Pls
2979 1045 Pls
2979 1106 Pls
2980 1106 Pls
2980 875 Pls
2980 1010 Pls
2981 1010 Pls
2981 1077 Pls
2982 1045 Pls
2982 1010 Pls
2983 1077 Pls
2983 927 Pls
2984 1077 Pls
2984 815 Pls
2985 1045 Pls
2985 1010 Pls
2986 1077 Pls
2986 971 Pls
2987 1077 Pls
2987 1077 Pls
2988 927 Pls
2988 1010 Pls
2989 741 Pls
2989 927 Pls
2990 1077 Pls
2990 875 Pls
2990 927 Pls
2991 1010 Pls
2991 1077 Pls
2992 1106 Pls
2992 927 Pls
2993 741 Pls
2993 1010 Pls
2994 971 Pls
2994 1077 Pls
2995 1010 Pls
2995 971 Pls
2996 971 Pls
2996 1106 Pls
2997 927 Pls
2997 1010 Pls
2997 1010 Pls
2998 1045 Pls
2998 875 Pls
2999 815 Pls
2999 927 Pls
3000 1077 Pls
3000 741 Pls
3001 875 Pls
3001 1077 Pls
3002 1106 Pls
3002 971 Pls
3002 927 Pls
3003 875 Pls
3003 815 Pls
3004 875 Pls
3004 971 Pls
3005 1077 Pls
3005 927 Pls
3006 875 Pls
3006 1010 Pls
3007 815 Pls
3007 1045 Pls
3007 1045 Pls
3008 815 Pls
3008 741 Pls
3009 875 Pls
3009 1010 Pls
3010 1010 Pls
3010 971 Pls
3011 971 Pls
3011 1010 Pls
3011 971 Pls
3012 971 Pls
3012 815 Pls
3013 1010 Pls
3013 741 Pls
3014 645 Pls
3014 927 Pls
3014 815 Pls
3015 875 Pls
3015 1045 Pls
3016 1077 Pls
3016 815 Pls
3017 1010 Pls
3017 875 Pls
3017 927 Pls
3018 1077 Pls
3018 927 Pls
3019 1157 Pls
3019 971 Pls
3020 875 Pls
3020 815 Pls
3021 1010 Pls
3021 510 Pls
3021 927 Pls
3022 971 Pls
3022 1045 Pls
3023 645 Pls
3023 815 Pls
3023 1132 Pls
3024 875 Pls
3024 927 Pls
3025 815 Pls
3025 815 Pls
3026 927 Pls
3026 741 Pls
3026 1045 Pls
3027 645 Pls
3027 1010 Pls
3028 1010 Pls
3028 927 Pls
3029 645 Pls
3029 510 Pls
3029 971 Pls
3030 510 Pls
3030 971 Pls
3031 1077 Pls
3031 645 Pls
3031 971 Pls
3032 875 Pls
3032 645 Pls
3033 971 Pls
3033 927 Pls
3034 927 Pls
3034 1010 Pls
3034 1010 Pls
3035 927 Pls
3035 971 Pls
3036 875 Pls
3036 815 Pls
3036 1077 Pls
3037 645 Pls
3037 815 Pls
3038 815 Pls
3038 741 Pls
3038 815 Pls
3039 741 Pls
3039 510 Pls
3040 510 Pls
3040 741 Pls
3040 815 Pls
3041 875 Pls
3041 741 Pls
3042 645 Pls
3042 875 Pls
3042 971 Pls
3043 645 Pls
3043 815 Pls
3044 280 Pls
3044 645 Pls
3044 741 Pls
3045 815 Pls
3045 815 Pls
3046 815 Pls
3046 645 Pls
3046 645 Pls
3047 741 Pls
3047 1010 Pls
3048 875 Pls
3048 815 Pls
3048 741 Pls
3049 510 Pls
3049 875 Pls
3050 741 Pls
3050 280 Pls
3050 645 Pls
3051 927 Pls
3051 927 Pls
3052 645 Pls
3052 1010 Pls
3052 741 Pls
3053 875 Pls
3053 815 Pls
3054 815 Pls
3054 645 Pls
3054 741 Pls
3055 280 Pls
3055 645 Pls
3055 875 Pls
3056 510 Pls
3056 510 Pls
3057 741 Pls
3057 741 Pls
3057 815 Pls
3058 875 Pls
3058 875 Pls
3059 510 Pls
3059 645 Pls
3059 741 Pls
3060 510 Pls
3060 927 Pls
3060 741 Pls
3061 645 Pls
3061 741 Pls
3062 815 Pls
3062 741 Pls
3062 875 Pls
3063 875 Pls
3063 510 Pls
3063 815 Pls
3064 927 Pls
3064 1010 Pls
3065 645 Pls
3065 741 Pls
3065 971 Pls
3066 875 Pls
3066 510 Pls
3066 510 Pls
3067 510 Pls
3067 741 Pls
3068 875 Pls
3068 645 Pls
3068 875 Pls
3069 815 Pls
3069 510 Pls
3069 927 Pls
3070 510 Pls
3070 927 Pls
3071 927 Pls
3071 645 Pls
3071 815 Pls
3072 741 Pls
3072 875 Pls
3072 280 Pls
3073 645 Pls
3073 280 Pls
3073 741 Pls
3074 510 Pls
3074 280 Pls
3075 875 Pls
3075 815 Pls
3075 741 Pls
3076 741 Pls
3076 645 Pls
3077 741 Pls
3077 510 Pls
3077 815 Pls
3078 280 Pls
3078 645 Pls
3079 815 Pls
3079 741 Pls
3079 815 Pls
3080 1045 Pls
3080 815 Pls
3080 510 Pls
3081 815 Pls
3081 741 Pls
3081 645 Pls
3082 645 Pls
3082 280 Pls
3083 875 Pls
3083 815 Pls
3083 645 Pls
3084 510 Pls
3084 510 Pls
3084 815 Pls
3085 815 Pls
3085 741 Pls
3086 741 Pls
3086 280 Pls
3086 927 Pls
3087 741 Pls
3087 875 Pls
3087 875 Pls
3088 645 Pls
3088 741 Pls
3089 280 Pls
3089 280 Pls
3089 645 Pls
3090 280 Pls
3090 510 Pls
3090 645 Pls
3091 510 Pls
3091 645 Pls
3091 280 Pls
3092 510 Pls
3092 510 Pls
3092 510 Pls
3093 741 Pls
3093 510 Pls
3093 510 Pls
3094 280 Pls
3094 510 Pls
3094 815 Pls
3095 510 Pls
3095 645 Pls
3095 645 Pls
3096 645 Pls
3096 510 Pls
3096 510 Pls
3097 971 Pls
3097 645 Pls
3097 510 Pls
3098 875 Pls
3098 741 Pls
3098 280 Pls
3099 815 Pls
3099 645 Pls
3100 741 Pls
3100 645 Pls
3100 741 Pls
3101 645 Pls
3101 510 Pls
3101 741 Pls
3102 280 Pls
3102 510 Pls
3102 741 Pls
3103 645 Pls
3103 815 Pls
3103 741 Pls
3104 280 Pls
3104 645 Pls
3104 741 Pls
3105 741 Pls
3105 645 Pls
3105 510 Pls
3106 741 Pls
3106 875 Pls
3106 280 Pls
3107 645 Pls
3107 645 Pls
3107 280 Pls
3108 815 Pls
3108 645 Pls
3108 510 Pls
3109 741 Pls
3109 280 Pls
3109 280 Pls
3110 510 Pls
3110 741 Pls
3110 741 Pls
3110 510 Pls
3111 741 Pls
3111 875 Pls
3111 741 Pls
3112 280 Pls
3112 645 Pls
3112 927 Pls
3113 645 Pls
3113 280 Pls
3113 510 Pls
3114 741 Pls
3114 875 Pls
3114 927 Pls
3115 741 Pls
3115 645 Pls
3115 815 Pls
3116 875 Pls
3116 645 Pls
3116 645 Pls
3117 815 Pls
3117 815 Pls
3117 280 Pls
3118 645 Pls
3118 510 Pls
3118 741 Pls
3119 510 Pls
3119 741 Pls
3119 875 Pls
3120 645 Pls
3120 741 Pls
3120 280 Pls
3120 280 Pls
3121 645 Pls
3121 510 Pls
3121 645 Pls
3122 645 Pls
3122 280 Pls
3122 741 Pls
3123 741 Pls
3123 510 Pls
3123 927 Pls
3124 280 Pls
3124 645 Pls
3125 280 Pls
3125 815 Pls
3125 280 Pls
3126 510 Pls
3126 510 Pls
3126 510 Pls
3127 510 Pls
3127 741 Pls
3127 645 Pls
3128 510 Pls
3128 645 Pls
3128 510 Pls
3129 510 Pls
3129 280 Pls
3129 875 Pls
3130 645 Pls
3130 510 Pls
3130 815 Pls
3130 645 Pls
3131 645 Pls
3131 510 Pls
3131 927 Pls
3132 741 Pls
3132 510 Pls
3133 875 Pls
3133 741 Pls
3133 280 Pls
3134 645 Pls
3134 645 Pls
3134 741 Pls
3134 510 Pls
3135 510 Pls
3135 815 Pls
3135 741 Pls
3136 280 Pls
3136 280 Pls
3136 510 Pls
3137 645 Pls
3137 510 Pls
3137 510 Pls
3138 741 Pls
3138 645 Pls
3138 875 Pls
3139 510 Pls
3139 927 Pls
3139 645 Pls
3140 280 Pls
3140 815 Pls
3140 645 Pls
3141 280 Pls
3141 280 Pls
3141 741 Pls
3141 645 Pls
3142 510 Pls
3142 280 Pls
3142 815 Pls
3143 645 Pls
3143 510 Pls
3143 645 Pls
3143 280 Pls
3144 741 Pls
3144 280 Pls
3144 510 Pls
3145 280 Pls
3145 645 Pls
3145 510 Pls
3146 645 Pls
3146 645 Pls
3146 875 Pls
3146 645 Pls
3147 510 Pls
3147 510 Pls
3147 510 Pls
3148 510 Pls
3148 280 Pls
3148 741 Pls
3148 510 Pls
3149 971 Pls
3149 280 Pls
3149 280 Pls
3150 645 Pls
3150 510 Pls
3151 510 Pls
3151 815 Pls
3151 645 Pls
3151 280 Pls
3152 645 Pls
3152 510 Pls
3152 815 Pls
3153 645 Pls
3153 280 Pls
3153 280 Pls
3154 280 Pls
3154 280 Pls
3154 741 Pls
3155 645 Pls
3155 645 Pls
3155 510 Pls
3155 510 Pls
3156 280 Pls
3156 280 Pls
3156 741 Pls
3157 645 Pls
3157 280 Pls
3157 510 Pls
3157 510 Pls
3158 510 Pls
3158 510 Pls
3158 280 Pls
3159 645 Pls
3159 280 Pls
3159 510 Pls
3160 927 Pls
3160 645 Pls
3160 815 Pls
3161 645 Pls
3161 645 Pls
3161 645 Pls
3161 645 Pls
3162 875 Pls
3162 510 Pls
3162 280 Pls
3163 741 Pls
3163 875 Pls
3163 510 Pls
3163 815 Pls
3164 280 Pls
3164 815 Pls
3164 510 Pls
3165 815 Pls
3165 741 Pls
3165 741 Pls
3166 510 Pls
3166 510 Pls
3166 645 Pls
3167 741 Pls
3167 645 Pls
3167 645 Pls
3168 510 Pls
3168 510 Pls
3168 510 Pls
3168 510 Pls
3169 510 Pls
3169 280 Pls
3169 645 Pls
3169 645 Pls
3170 815 Pls
3170 510 Pls
3170 280 Pls
3171 280 Pls
3171 815 Pls
3171 645 Pls
3171 280 Pls
3172 510 Pls
3172 510 Pls
3172 280 Pls
3172 280 Pls
3173 280 Pls
3173 875 Pls
3173 510 Pls
3174 645 Pls
3174 741 Pls
3174 280 Pls
3174 645 Pls
3175 645 Pls
3175 927 Pls
3175 510 Pls
3175 280 Pls
3176 510 Pls
3176 645 Pls
3177 510 Pls
3177 875 Pls
3177 280 Pls
3178 510 Pls
3178 645 Pls
3178 645 Pls
3179 741 Pls
3179 645 Pls
3179 280 Pls
3179 815 Pls
3180 280 Pls
3180 645 Pls
3180 510 Pls
3180 741 Pls
3181 741 Pls
3181 280 Pls
3182 645 Pls
3182 645 Pls
3182 645 Pls
3182 510 Pls
3183 280 Pls
3183 510 Pls
3183 510 Pls
3184 645 Pls
3184 927 Pls
3184 280 Pls
3184 510 Pls
3185 741 Pls
3185 510 Pls
3185 280 Pls
3185 280 Pls
3186 741 Pls
3186 510 Pls
3186 741 Pls
3187 741 Pls
3187 280 Pls
3187 741 Pls
3188 510 Pls
3188 510 Pls
3188 815 Pls
3189 280 Pls
3189 510 Pls
3189 510 Pls
3189 741 Pls
3190 645 Pls
3190 510 Pls
3190 815 Pls
3190 645 Pls
3191 280 Pls
3191 645 Pls
3192 510 Pls
3192 510 Pls
3192 510 Pls
3193 815 Pls
3193 510 Pls
3194 645 Pls
3194 280 Pls
3194 510 Pls
3194 875 Pls
3195 280 Pls
3195 510 Pls
3195 510 Pls
3195 510 Pls
3196 510 Pls
3196 280 Pls
3196 645 Pls
3197 645 Pls
3197 280 Pls
3197 645 Pls
3197 815 Pls
3198 280 Pls
3198 510 Pls
3198 645 Pls
3198 645 Pls
3199 645 Pls
3199 510 Pls
3199 510 Pls
3200 645 Pls
3200 280 Pls
3200 510 Pls
3200 280 Pls
3201 280 Pls
3201 645 Pls
3201 280 Pls
3201 741 Pls
3202 280 Pls
3202 510 Pls
3202 280 Pls
3203 510 Pls
3203 280 Pls
3203 815 Pls
3203 510 Pls
3204 510 Pls
3204 510 Pls
3204 645 Pls
3204 280 Pls
3205 280 Pls
3205 875 Pls
3205 815 Pls
3205 510 Pls
3206 280 Pls
3206 510 Pls
3206 741 Pls
3206 645 Pls
3207 645 Pls
3207 510 Pls
3207 510 Pls
3207 510 Pls
3207 510 Pls
3208 645 Pls
3208 280 Pls
3208 280 Pls
3209 280 Pls
3209 510 Pls
3209 280 Pls
3209 280 Pls
3210 741 Pls
3210 815 Pls
3210 510 Pls
3210 510 Pls
3211 280 Pls
3211 645 Pls
3211 510 Pls
3212 510 Pls
3212 280 Pls
3212 645 Pls
3212 741 Pls
3213 280 Pls
3213 510 Pls
3213 645 Pls
3213 280 Pls
3214 741 Pls
3214 510 Pls
3214 280 Pls
3215 815 Pls
3215 510 Pls
3215 280 Pls
3215 741 Pls
3216 280 Pls
3216 741 Pls
3217 280 Pls
3217 280 Pls
3217 741 Pls
3217 510 Pls
3218 280 Pls
3218 280 Pls
3218 645 Pls
3218 510 Pls
3219 510 Pls
3219 280 Pls
3219 510 Pls
3220 280 Pls
3220 280 Pls
3220 510 Pls
3221 645 Pls
3221 510 Pls
3221 815 Pls
3221 510 Pls
3222 280 Pls
3222 510 Pls
3222 645 Pls
3222 741 Pls
3223 510 Pls
3223 510 Pls
3223 645 Pls
3223 280 Pls
3224 280 Pls
3224 645 Pls
3224 645 Pls
3224 280 Pls
3224 875 Pls
3225 510 Pls
3225 280 Pls
3225 875 Pls
3226 645 Pls
3226 741 Pls
3226 280 Pls
3226 510 Pls
3227 510 Pls
3227 510 Pls
3227 280 Pls
3227 510 Pls
3227 510 Pls
3228 510 Pls
3228 645 Pls
3228 645 Pls
3228 645 Pls
3229 280 Pls
3229 741 Pls
3229 645 Pls
3230 645 Pls
3230 280 Pls
3230 510 Pls
3230 815 Pls
3230 741 Pls
3231 510 Pls
3231 741 Pls
3231 280 Pls
3231 645 Pls
3232 510 Pls
3232 510 Pls
3232 280 Pls
3232 280 Pls
3232 280 Pls
3233 741 Pls
3233 280 Pls
3233 510 Pls
3233 645 Pls
3234 741 Pls
3235 280 Pls
3235 280 Pls
3236 280 Pls
3236 510 Pls
3236 510 Pls
3237 280 Pls
3237 741 Pls
3237 280 Pls
3238 280 Pls
3238 645 Pls
3238 741 Pls
3238 280 Pls
3239 645 Pls
3239 280 Pls
3239 645 Pls
3239 741 Pls
3239 645 Pls
3240 280 Pls
3240 645 Pls
3240 645 Pls
3240 741 Pls
3241 280 Pls
3241 510 Pls
3241 510 Pls
3241 510 Pls
3241 510 Pls
3242 645 Pls
3242 280 Pls
3242 280 Pls
3243 280 Pls
3243 510 Pls
3243 645 Pls
3244 510 Pls
3244 645 Pls
3244 510 Pls
3245 510 Pls
3245 510 Pls
3245 510 Pls
3246 645 Pls
3246 645 Pls
3246 280 Pls
3246 741 Pls
3247 280 Pls
3247 280 Pls
3247 510 Pls
3247 510 Pls
3248 645 Pls
3248 741 Pls
3248 645 Pls
3248 280 Pls
3248 510 Pls
3249 645 Pls
3249 645 Pls
3249 280 Pls
3250 280 Pls
3250 280 Pls
3250 510 Pls
3250 280 Pls
3250 815 Pls
3251 510 Pls
3251 510 Pls
3252 510 Pls
3252 510 Pls
3253 280 Pls
3253 280 Pls
3253 645 Pls
3253 645 Pls
3254 280 Pls
3254 741 Pls
3254 280 Pls
3254 280 Pls
3255 510 Pls
3255 510 Pls
3255 280 Pls
3255 280 Pls
3256 510 Pls
3256 510 Pls
3256 645 Pls
3256 741 Pls
3257 280 Pls
3257 280 Pls
3257 645 Pls
3257 280 Pls
3257 510 Pls
3258 645 Pls
3258 645 Pls
3258 510 Pls
3258 510 Pls
3259 741 Pls
3259 280 Pls
3260 280 Pls
3260 645 Pls
3260 280 Pls
3260 510 Pls
3261 510 Pls
3261 280 Pls
3261 280 Pls
3261 510 Pls
3262 645 Pls
3262 280 Pls
3262 280 Pls
3262 280 Pls
3263 645 Pls
3263 510 Pls
3263 645 Pls
3263 645 Pls
3264 510 Pls
3264 510 Pls
3264 645 Pls
3264 510 Pls
3265 280 Pls
3265 741 Pls
3265 280 Pls
3265 280 Pls
3266 645 Pls
3266 510 Pls
3266 510 Pls
3267 280 Pls
3267 645 Pls
3267 645 Pls
3267 280 Pls
3268 645 Pls
3268 280 Pls
3268 280 Pls
3268 280 Pls
3269 510 Pls
3269 815 Pls
3269 280 Pls
3269 645 Pls
3270 280 Pls
3270 645 Pls
3271 510 Pls
3271 645 Pls
3271 280 Pls
3271 741 Pls
3271 280 Pls
3272 280 Pls
3272 280 Pls
3272 280 Pls
3272 280 Pls
3273 280 Pls
3273 280 Pls
3273 510 Pls
3273 280 Pls
3273 510 Pls
3274 280 Pls
3274 510 Pls
3274 280 Pls
3274 280 Pls
3274 510 Pls
3275 280 Pls
3275 741 Pls
3275 645 Pls
3275 741 Pls
3276 510 Pls
3276 510 Pls
3276 510 Pls
3276 280 Pls
3277 280 Pls
3277 280 Pls
3277 510 Pls
3277 510 Pls
3278 280 Pls
3278 510 Pls
3278 510 Pls
3279 510 Pls
3279 510 Pls
3279 280 Pls
3279 645 Pls
3280 280 Pls
3280 510 Pls
3280 510 Pls
3281 510 Pls
3281 280 Pls
3281 280 Pls
3281 280 Pls
3281 510 Pls
3282 645 Pls
3282 510 Pls
3282 510 Pls
3282 280 Pls
3283 510 Pls
3283 510 Pls
3283 510 Pls
3283 815 Pls
3283 280 Pls
3284 280 Pls
3284 280 Pls
3284 645 Pls
3284 510 Pls
3284 510 Pls
3285 510 Pls
3285 510 Pls
3285 280 Pls
3285 280 Pls
3286 280 Pls
3286 510 Pls
3286 645 Pls
3287 280 Pls
3287 280 Pls
3287 645 Pls
3288 510 Pls
3288 510 Pls
3288 510 Pls
3289 510 Pls
3289 280 Pls
3289 510 Pls
3289 645 Pls
3290 510 Pls
3290 280 Pls
3290 280 Pls
3290 280 Pls
3291 280 Pls
3291 645 Pls
3292 280 Pls
3292 280 Pls
3292 645 Pls
3292 280 Pls
3293 280 Pls
3293 280 Pls
3293 280 Pls
3293 510 Pls
3294 280 Pls
3294 280 Pls
3295 645 Pls
3296 280 Pls
3296 280 Pls
3296 510 Pls
3297 280 Pls
3297 280 Pls
3297 510 Pls
3297 280 Pls
3298 280 Pls
3298 280 Pls
3298 815 Pls
3299 645 Pls
3299 645 Pls
3299 280 Pls
3299 510 Pls
3300 280 Pls
3300 645 Pls
3300 510 Pls
3300 645 Pls
3300 510 Pls
3301 645 Pls
3301 510 Pls
3301 510 Pls
3301 280 Pls
3302 280 Pls
3302 280 Pls
3302 645 Pls
3303 280 Pls
3303 510 Pls
3303 510 Pls
3303 645 Pls
3304 280 Pls
3304 280 Pls
3305 645 Pls
3305 510 Pls
3305 280 Pls
3305 510 Pls
3306 645 Pls
3306 645 Pls
3306 280 Pls
3307 645 Pls
3307 280 Pls
3307 280 Pls
3307 280 Pls
3308 741 Pls
3308 510 Pls
3308 280 Pls
3308 280 Pls
3309 280 Pls
3309 645 Pls
3309 510 Pls
3309 280 Pls
3310 280 Pls
3310 510 Pls
3310 280 Pls
3311 280 Pls
3311 645 Pls
3311 741 Pls
3311 280 Pls
3312 280 Pls
3312 510 Pls
3312 280 Pls
3312 280 Pls
3313 510 Pls
3313 280 Pls
3313 280 Pls
3314 280 Pls
3314 280 Pls
3314 280 Pls
3314 645 Pls
3314 741 Pls
3314 280 Pls
3315 510 Pls
3315 510 Pls
3315 645 Pls
3315 510 Pls
3316 645 Pls
3317 645 Pls
3317 510 Pls
3317 280 Pls
3317 510 Pls
3317 280 Pls
3318 510 Pls
3318 280 Pls
3318 280 Pls
3318 280 Pls
3318 280 Pls
3319 510 Pls
3319 645 Pls
3319 280 Pls
3319 280 Pls
3320 645 Pls
3320 280 Pls
3320 280 Pls
3320 510 Pls
3321 280 Pls
3321 280 Pls
3322 645 Pls
3322 280 Pls
3322 510 Pls
3322 280 Pls
3322 280 Pls
3323 510 Pls
3323 510 Pls
3324 280 Pls
3324 280 Pls
3324 280 Pls
3324 280 Pls
3325 280 Pls
3325 280 Pls
3326 510 Pls
3326 645 Pls
3326 280 Pls
3326 280 Pls
3328 280 Pls
3328 510 Pls
3328 280 Pls
3328 510 Pls
3329 280 Pls
3329 280 Pls
3329 280 Pls
3330 280 Pls
3330 280 Pls
3330 280 Pls
3330 280 Pls
3330 280 Pls
3330 510 Pls
3331 280 Pls
3331 280 Pls
3331 815 Pls
3331 280 Pls
3331 280 Pls
3332 280 Pls
3332 280 Pls
3332 280 Pls
3333 280 Pls
3333 510 Pls
3333 741 Pls
3334 280 Pls
3334 280 Pls
3334 280 Pls
3334 280 Pls
3335 510 Pls
3335 280 Pls
3335 645 Pls
3335 645 Pls
3335 280 Pls
3336 645 Pls
3336 510 Pls
3336 510 Pls
3336 510 Pls
3336 510 Pls
3337 280 Pls
3337 280 Pls
3337 280 Pls
3338 280 Pls
3338 510 Pls
3338 280 Pls
3338 280 Pls
3339 741 Pls
3339 280 Pls
3339 280 Pls
3339 510 Pls
3340 280 Pls
3340 741 Pls
3340 645 Pls
3340 510 Pls
3341 280 Pls
3341 510 Pls
3341 280 Pls
3342 280 Pls
3342 280 Pls
3342 280 Pls
3342 280 Pls
3343 510 Pls
3343 280 Pls
3343 510 Pls
3343 280 Pls
3343 510 Pls
3344 510 Pls
3344 510 Pls
3344 510 Pls
3344 280 Pls
3344 280 Pls
3345 645 Pls
3345 280 Pls
3345 280 Pls
3346 280 Pls
3346 280 Pls
3346 510 Pls
3347 510 Pls
3347 280 Pls
3347 280 Pls
3347 510 Pls
3347 280 Pls
3348 280 Pls
3348 280 Pls
3348 280 Pls
3349 280 Pls
3349 280 Pls
3349 280 Pls
3350 280 Pls
3350 280 Pls
3350 280 Pls
3350 280 Pls
3351 280 Pls
3351 280 Pls
3351 280 Pls
3351 645 Pls
3352 280 Pls
3352 280 Pls
3352 645 Pls
3352 280 Pls
3353 510 Pls
3353 280 Pls
3353 645 Pls
3353 280 Pls
3353 280 Pls
3354 510 Pls
3354 280 Pls
3355 280 Pls
3355 280 Pls
3355 741 Pls
3355 280 Pls
3355 280 Pls
3356 280 Pls
3356 280 Pls
3356 510 Pls
3356 280 Pls
3357 280 Pls
3357 280 Pls
3357 645 Pls
3357 645 Pls
3358 280 Pls
3358 280 Pls
3358 280 Pls
3359 510 Pls
3359 510 Pls
3359 510 Pls
3359 510 Pls
3360 280 Pls
3360 280 Pls
3360 280 Pls
3360 280 Pls
3360 645 Pls
3361 280 Pls
3361 280 Pls
3361 510 Pls
3361 645 Pls
3361 510 Pls
3361 510 Pls
3362 280 Pls
3362 510 Pls
3362 280 Pls
3362 645 Pls
3363 280 Pls
3363 280 Pls
3363 510 Pls
3363 280 Pls
3363 280 Pls
3364 510 Pls
3364 280 Pls
3364 280 Pls
3364 510 Pls
3365 280 Pls
3365 645 Pls
3365 510 Pls
3365 645 Pls
3365 280 Pls
3366 815 Pls
3366 510 Pls
3366 280 Pls
3366 280 Pls
3367 280 Pls
3367 280 Pls
3367 280 Pls
3367 280 Pls
3368 510 Pls
3368 510 Pls
3368 280 Pls
3369 280 Pls
3369 510 Pls
3369 280 Pls
3369 280 Pls
3369 510 Pls
3370 280 Pls
3370 280 Pls
3370 645 Pls
3371 510 Pls
3371 280 Pls
3371 280 Pls
3371 280 Pls
3371 280 Pls
3371 510 Pls
3371 510 Pls
3372 510 Pls
3372 510 Pls
3372 645 Pls
3372 510 Pls
3372 280 Pls
3372 280 Pls
3373 280 Pls
3373 280 Pls
3373 280 Pls
3374 510 Pls
3374 280 Pls
3375 280 Pls
3375 280 Pls
3375 280 Pls
3376 510 Pls
3376 510 Pls
3376 280 Pls
3377 510 Pls
3377 510 Pls
3377 280 Pls
3378 280 Pls
3378 510 Pls
3378 280 Pls
3378 280 Pls
3378 280 Pls
3378 510 Pls
3379 280 Pls
3379 280 Pls
3379 280 Pls
3379 280 Pls
3380 280 Pls
3380 280 Pls
3380 510 Pls
3380 510 Pls
3381 280 Pls
3381 510 Pls
3381 280 Pls
3381 280 Pls
3381 510 Pls
3382 280 Pls
3382 510 Pls
3383 280 Pls
3383 510 Pls
3383 280 Pls
3383 280 Pls
3383 280 Pls
3383 510 Pls
3384 280 Pls
3384 280 Pls
3384 645 Pls
3384 510 Pls
3384 510 Pls
3384 280 Pls
3385 645 Pls
3385 280 Pls
3385 280 Pls
3386 510 Pls
3386 280 Pls
3387 280 Pls
3387 280 Pls
3387 280 Pls
3388 280 Pls
3388 280 Pls
3388 280 Pls
3388 280 Pls
3389 280 Pls
3389 280 Pls
3389 280 Pls
3389 280 Pls
3390 510 Pls
3390 280 Pls
3390 280 Pls
3391 280 Pls
3391 280 Pls
3392 280 Pls
3392 280 Pls
3393 280 Pls
3393 280 Pls
3393 280 Pls
3394 510 Pls
3394 280 Pls
3394 510 Pls
3394 510 Pls
3394 280 Pls
3394 280 Pls
3395 280 Pls
3395 510 Pls
3395 510 Pls
3395 280 Pls
3395 280 Pls
3396 645 Pls
3396 280 Pls
3396 510 Pls
3397 280 Pls
3397 510 Pls
3397 510 Pls
3397 510 Pls
3397 280 Pls
3397 280 Pls
3397 510 Pls
3398 510 Pls
3398 280 Pls
3398 280 Pls
3398 280 Pls
3398 280 Pls
3398 280 Pls
3399 280 Pls
3399 280 Pls
3399 280 Pls
3400 280 Pls
3401 280 Pls
3401 280 Pls
3401 510 Pls
3401 280 Pls
3401 280 Pls
3401 280 Pls
3402 510 Pls
3402 510 Pls
3402 280 Pls
3402 645 Pls
3402 280 Pls
3402 510 Pls
3403 510 Pls
3403 510 Pls
3403 280 Pls
3403 510 Pls
3404 510 Pls
3404 280 Pls
3404 280 Pls
3404 645 Pls
3405 510 Pls
3406 280 Pls
3406 510 Pls
3406 510 Pls
3406 280 Pls
3407 510 Pls
3407 280 Pls
3407 280 Pls
3407 280 Pls
3407 280 Pls
3407 510 Pls
3408 280 Pls
3408 280 Pls
3408 280 Pls
3409 510 Pls
3410 645 Pls
3410 280 Pls
3410 280 Pls
3410 510 Pls
3410 280 Pls
3411 280 Pls
3411 280 Pls
3412 815 Pls
3412 280 Pls
3412 741 Pls
3413 280 Pls
3413 280 Pls
3413 280 Pls
3413 280 Pls
3413 280 Pls
3414 280 Pls
3414 280 Pls
3414 280 Pls
3414 510 Pls
3414 280 Pls
3414 280 Pls
3415 510 Pls
3415 280 Pls
3415 280 Pls
3415 510 Pls
3416 510 Pls
3416 280 Pls
3416 280 Pls
3416 280 Pls
3416 280 Pls
3417 280 Pls
3417 510 Pls
3417 280 Pls
3418 280 Pls
3418 280 Pls
3418 280 Pls
3419 280 Pls
3419 510 Pls
3419 280 Pls
3420 280 Pls
3420 280 Pls
3420 280 Pls
3421 280 Pls
3421 280 Pls
3421 280 Pls
3422 280 Pls
3422 510 Pls
3422 280 Pls
3422 510 Pls
3423 645 Pls
3423 280 Pls
3423 510 Pls
3423 280 Pls
3423 280 Pls
3423 510 Pls
3423 645 Pls
3424 510 Pls
3424 510 Pls
3424 280 Pls
3424 280 Pls
3425 280 Pls
3425 510 Pls
3426 280 Pls
3426 280 Pls
3426 280 Pls
3427 280 Pls
3427 280 Pls
3427 280 Pls
3427 280 Pls
3428 280 Pls
3428 510 Pls
3429 280 Pls
3430 280 Pls
3430 280 Pls
3431 510 Pls
3431 510 Pls
3431 280 Pls
3432 280 Pls
3432 280 Pls
3432 280 Pls
3432 510 Pls
3433 280 Pls
3433 280 Pls
3433 280 Pls
3433 645 Pls
3434 280 Pls
3434 280 Pls
3434 280 Pls
3434 280 Pls
3434 280 Pls
3435 280 Pls
3435 280 Pls
3436 280 Pls
3436 280 Pls
3436 280 Pls
3436 510 Pls
3436 280 Pls
3436 280 Pls
3436 280 Pls
3437 510 Pls
3437 280 Pls
3437 510 Pls
3438 280 Pls
3439 280 Pls
3439 280 Pls
3439 280 Pls
3440 280 Pls
3441 280 Pls
3441 280 Pls
3441 280 Pls
3441 280 Pls
3442 280 Pls
3442 280 Pls
3442 280 Pls
3443 510 Pls
3443 510 Pls
3443 280 Pls
3443 510 Pls
3444 280 Pls
3444 510 Pls
3444 280 Pls
3444 280 Pls
3444 280 Pls
3444 280 Pls
3444 280 Pls
3445 510 Pls
3445 280 Pls
3445 280 Pls
3445 510 Pls
3445 510 Pls
3446 280 Pls
3446 510 Pls
3447 280 Pls
3447 510 Pls
3447 510 Pls
3448 280 Pls
3448 280 Pls
3448 280 Pls
3449 280 Pls
3449 280 Pls
3449 510 Pls
3449 510 Pls
3449 280 Pls
3450 280 Pls
3450 510 Pls
3450 280 Pls
3451 280 Pls
3451 510 Pls
3452 280 Pls
3452 280 Pls
3452 741 Pls
3452 280 Pls
3453 280 Pls
3453 510 Pls
3453 510 Pls
3454 510 Pls
3454 280 Pls
3454 280 Pls
3454 280 Pls
3454 510 Pls
3454 280 Pls
3455 280 Pls
3455 280 Pls
3455 510 Pls
3455 280 Pls
3455 280 Pls
3455 280 Pls
3456 280 Pls
3456 280 Pls
3456 280 Pls
3457 510 Pls
3457 280 Pls
3457 280 Pls
3457 280 Pls
3457 510 Pls
3457 510 Pls
3457 510 Pls
3458 280 Pls
3458 510 Pls
3458 510 Pls
3458 280 Pls
3458 280 Pls
3459 645 Pls
3459 280 Pls
3459 510 Pls
3460 510 Pls
3460 280 Pls
3460 280 Pls
3460 280 Pls
3460 280 Pls
3461 280 Pls
3461 280 Pls
3461 280 Pls
3461 280 Pls
3461 280 Pls
3462 280 Pls
3462 280 Pls
3462 510 Pls
3463 510 Pls
3463 280 Pls
3463 741 Pls
3464 510 Pls
3464 510 Pls
3464 280 Pls
3464 280 Pls
3464 510 Pls
3465 280 Pls
3465 280 Pls
3465 280 Pls
3465 280 Pls
3465 280 Pls
3465 280 Pls
3466 280 Pls
3466 280 Pls
3466 280 Pls
3466 280 Pls
3467 280 Pls
3467 510 Pls
3467 280 Pls
3467 280 Pls
3468 280 Pls
3468 280 Pls
3469 280 Pls
3469 510 Pls
3469 280 Pls
3470 510 Pls
3470 280 Pls
3470 280 Pls
3470 280 Pls
3470 280 Pls
3471 280 Pls
3471 645 Pls
3471 280 Pls
3472 645 Pls
3472 510 Pls
3472 280 Pls
3472 280 Pls
3472 280 Pls
3472 280 Pls
3473 741 Pls
3473 510 Pls
3473 815 Pls
3473 645 Pls
3473 1106 Pls
3473 1077 Pls
3473 645 Pls
3473 875 Pls
3473 510 Pls
3474 280 Pls
3474 280 Pls
3474 645 Pls
3474 280 Pls
3474 510 Pls
3474 510 Pls
3474 280 Pls
3475 280 Pls
3475 741 Pls
3475 510 Pls
3475 280 Pls
3475 510 Pls
3476 280 Pls
3476 280 Pls
3476 280 Pls
3476 510 Pls
3477 280 Pls
3478 280 Pls
3478 280 Pls
3478 280 Pls
3478 510 Pls
3479 280 Pls
3479 510 Pls
3479 510 Pls
3479 280 Pls
3479 280 Pls
3479 645 Pls
3480 280 Pls
3481 280 Pls
3481 280 Pls
3481 510 Pls
3481 280 Pls
3481 280 Pls
3482 280 Pls
3482 280 Pls
3482 280 Pls
3483 510 Pls
3483 280 Pls
3483 280 Pls
3483 280 Pls
3483 280 Pls
3484 510 Pls
3484 280 Pls
3484 510 Pls
3484 280 Pls
3485 280 Pls
3485 280 Pls
3485 280 Pls
3485 280 Pls
3485 280 Pls
3485 280 Pls
3486 280 Pls
3486 280 Pls
3487 280 Pls
3487 510 Pls
3487 280 Pls
3487 280 Pls
3488 510 Pls
3488 280 Pls
3488 645 Pls
3489 280 Pls
3489 510 Pls
3489 645 Pls
3489 280 Pls
3489 280 Pls
3489 510 Pls
3490 280 Pls
3490 510 Pls
3490 280 Pls
3491 280 Pls
3491 280 Pls
3491 280 Pls
3491 510 Pls
3491 280 Pls
3492 510 Pls
3492 280 Pls
3492 280 Pls
3492 510 Pls
3492 280 Pls
3493 280 Pls
3493 280 Pls
3493 280 Pls
3493 280 Pls
3494 510 Pls
3494 510 Pls
3494 510 Pls
3495 280 Pls
3495 280 Pls
3495 510 Pls
3495 280 Pls
3496 280 Pls
3496 510 Pls
3496 280 Pls
3497 280 Pls
3497 510 Pls
3498 280 Pls
3498 280 Pls
3498 280 Pls
3498 280 Pls
3499 280 Pls
3499 280 Pls
3499 280 Pls
3499 280 Pls
3500 280 Pls
3500 280 Pls
3500 280 Pls
3501 280 Pls
3501 510 Pls
3502 280 Pls
3502 280 Pls
3502 510 Pls
3502 280 Pls
3502 645 Pls
3503 280 Pls
3503 280 Pls
3503 280 Pls
3503 280 Pls
3504 280 Pls
3504 280 Pls
3504 280 Pls
3505 280 Pls
3505 280 Pls
3505 280 Pls
3505 510 Pls
3505 510 Pls
3505 280 Pls
3505 280 Pls
3505 280 Pls
3506 280 Pls
3506 510 Pls
3506 280 Pls
3507 280 Pls
3507 645 Pls
3507 280 Pls
3507 280 Pls
3508 280 Pls
3508 510 Pls
3509 280 Pls
3509 280 Pls
3509 280 Pls
3509 280 Pls
3509 280 Pls
3510 280 Pls
3511 280 Pls
3512 280 Pls
3512 280 Pls
3512 510 Pls
3512 280 Pls
3512 280 Pls
3512 280 Pls
3512 280 Pls
3512 280 Pls
3513 280 Pls
3513 280 Pls
3513 280 Pls
3513 280 Pls
3514 280 Pls
3514 510 Pls
3514 280 Pls
3514 280 Pls
3515 280 Pls
3515 280 Pls
3516 280 Pls
3516 280 Pls
3516 280 Pls
3516 280 Pls
3516 280 Pls
3517 280 Pls
3517 510 Pls
3517 280 Pls
3517 280 Pls
3518 280 Pls
3518 510 Pls
3518 280 Pls
3518 280 Pls
3519 280 Pls
3519 280 Pls
3519 280 Pls
3519 280 Pls
3519 280 Pls
3519 280 Pls
3519 280 Pls
3520 280 Pls
3521 280 Pls
3521 280 Pls
3521 280 Pls
3522 280 Pls
3522 280 Pls
3522 280 Pls
3522 280 Pls
3522 645 Pls
3522 510 Pls
3523 280 Pls
3523 280 Pls
3523 280 Pls
3523 280 Pls
3523 280 Pls
3524 280 Pls
3524 280 Pls
3525 280 Pls
3525 280 Pls
3525 280 Pls
3526 280 Pls
3526 280 Pls
3526 280 Pls
3526 280 Pls
3526 280 Pls
3527 280 Pls
3527 280 Pls
3528 280 Pls
3528 280 Pls
3529 280 Pls
3530 280 Pls
3530 280 Pls
3530 510 Pls
3531 280 Pls
3531 280 Pls
3531 815 Pls
3532 510 Pls
3532 280 Pls
3532 280 Pls
3532 510 Pls
3533 510 Pls
3533 510 Pls
3533 280 Pls
3533 280 Pls
3534 280 Pls
3534 280 Pls
3534 280 Pls
3534 280 Pls
3535 280 Pls
3536 280 Pls
3536 280 Pls
3536 280 Pls
3537 280 Pls
3538 510 Pls
3539 645 Pls
3539 280 Pls
3539 280 Pls
3539 510 Pls
3539 280 Pls
3539 510 Pls
3540 280 Pls
3540 645 Pls
3540 510 Pls
3540 280 Pls
3540 280 Pls
3541 280 Pls
3541 280 Pls
3541 280 Pls
3542 280 Pls
3542 280 Pls
3542 280 Pls
3542 280 Pls
3543 280 Pls
3543 280 Pls
3543 280 Pls
3543 280 Pls
3543 510 Pls
3543 280 Pls
3543 510 Pls
3544 280 Pls
3544 280 Pls
3544 280 Pls
3544 510 Pls
3545 280 Pls
3545 280 Pls
3545 280 Pls
3545 280 Pls
3546 510 Pls
3546 280 Pls
3547 280 Pls
3548 510 Pls
3548 280 Pls
3548 645 Pls
3549 280 Pls
3549 280 Pls
3549 280 Pls
3549 510 Pls
3549 280 Pls
3549 280 Pls
3550 510 Pls
3550 280 Pls
3550 280 Pls
3550 280 Pls
3550 510 Pls
3550 510 Pls
3550 280 Pls
3550 280 Pls
3551 510 Pls
3551 280 Pls
3551 280 Pls
3551 280 Pls
3552 280 Pls
3552 510 Pls
3552 280 Pls
3552 280 Pls
3553 280 Pls
3553 280 Pls
3554 280 Pls
3554 280 Pls
3554 510 Pls
3554 280 Pls
3555 280 Pls
3555 510 Pls
3555 280 Pls
3556 280 Pls
3556 280 Pls
3556 280 Pls
3557 280 Pls
3557 510 Pls
3557 280 Pls
3557 280 Pls
3557 280 Pls
3558 510 Pls
3558 280 Pls
3558 280 Pls
3559 280 Pls
3559 280 Pls
3560 280 Pls
3560 280 Pls
3560 280 Pls
3560 645 Pls
3560 280 Pls
3560 280 Pls
3561 280 Pls
3561 280 Pls
3561 280 Pls
3562 280 Pls
3562 280 Pls
3562 280 Pls
3562 280 Pls
3562 280 Pls
3563 280 Pls
3563 280 Pls
3564 280 Pls
3564 280 Pls
3564 280 Pls
3564 280 Pls
3564 280 Pls
3565 280 Pls
3565 280 Pls
3566 280 Pls
3566 280 Pls
3566 510 Pls
3567 280 Pls
3567 510 Pls
3567 280 Pls
3568 280 Pls
3568 280 Pls
3568 280 Pls
3569 280 Pls
3569 280 Pls
3569 645 Pls
3570 280 Pls
3570 280 Pls
3570 280 Pls
3570 280 Pls
3570 280 Pls
3571 280 Pls
3571 280 Pls
3572 280 Pls
3572 510 Pls
3572 280 Pls
3573 280 Pls
3574 280 Pls
3574 280 Pls
3575 280 Pls
3575 280 Pls
3575 280 Pls
3576 510 Pls
3577 280 Pls
3577 280 Pls
3577 280 Pls
3577 280 Pls
3577 280 Pls
3577 280 Pls
3578 280 Pls
3578 510 Pls
3578 280 Pls
3578 280 Pls
3578 280 Pls
3578 280 Pls
3579 280 Pls
3579 280 Pls
3579 280 Pls
3579 280 Pls
3579 280 Pls
3579 280 Pls
3580 280 Pls
3580 280 Pls
3580 510 Pls
3581 280 Pls
3581 280 Pls
3581 280 Pls
3582 280 Pls
3582 280 Pls
3582 280 Pls
3583 280 Pls
3583 280 Pls
3583 280 Pls
3584 280 Pls
3584 280 Pls
3585 280 Pls
3585 280 Pls
3586 280 Pls
3586 280 Pls
3587 280 Pls
3587 280 Pls
3587 280 Pls
3587 280 Pls
3588 280 Pls
3588 510 Pls
3588 280 Pls
3588 280 Pls
3588 280 Pls
3589 280 Pls
3589 280 Pls
3589 280 Pls
3589 510 Pls
3590 280 Pls
3590 280 Pls
3590 280 Pls
3590 280 Pls
3590 280 Pls
3591 280 Pls
3591 280 Pls
3591 280 Pls
3592 510 Pls
3593 280 Pls
3593 280 Pls
3593 280 Pls
3593 510 Pls
3594 280 Pls
3594 280 Pls
3594 645 Pls
3595 510 Pls
3595 280 Pls
3596 280 Pls
3597 280 Pls
3597 280 Pls
3597 510 Pls
3598 280 Pls
3598 280 Pls
3598 280 Pls
3598 510 Pls
3599 280 Pls
3599 280 Pls
3599 280 Pls
3599 280 Pls
3599 280 Pls
3599 280 Pls
3599 280 Pls
3599 510 Pls
3600 280 Pls
3600 280 Pls
3600 280 Pls
3601 280 Pls
3601 280 Pls
3601 280 Pls
3601 280 Pls
3601 280 Pls
3601 280 Pls
3602 510 Pls
3602 645 Pls
3602 280 Pls
3602 280 Pls
3602 280 Pls
3603 280 Pls
3604 280 Pls
3604 280 Pls
3604 280 Pls
3604 280 Pls
3604 280 Pls
3605 510 Pls
3606 280 Pls
3606 280 Pls
3606 280 Pls
3606 280 Pls
3607 280 Pls
3607 280 Pls
3607 280 Pls
3608 510 Pls
3608 280 Pls
3608 280 Pls
3609 280 Pls
3609 280 Pls
3609 280 Pls
3609 280 Pls
3610 280 Pls
3610 280 Pls
3611 280 Pls
3611 280 Pls
3611 280 Pls
3612 280 Pls
3612 280 Pls
3612 280 Pls
3613 510 Pls
3613 280 Pls
3613 280 Pls
3613 280 Pls
3613 280 Pls
3613 510 Pls
3614 280 Pls
3614 510 Pls
3614 280 Pls
3614 280 Pls
3614 280 Pls
3616 280 Pls
3616 510 Pls
3617 280 Pls
3617 280 Pls
3617 280 Pls
3618 280 Pls
3618 280 Pls
3619 280 Pls
3620 280 Pls
3620 280 Pls
3620 280 Pls
3621 280 Pls
3621 280 Pls
3621 280 Pls
3622 280 Pls
3622 280 Pls
3622 280 Pls
3623 280 Pls
3623 280 Pls
3624 280 Pls
3624 280 Pls
3624 280 Pls
3624 280 Pls
3624 280 Pls
3625 280 Pls
3625 280 Pls
3625 280 Pls
3626 280 Pls
3626 280 Pls
3627 280 Pls
3627 280 Pls
3627 280 Pls
3627 510 Pls
3628 645 Pls
3628 510 Pls
3628 510 Pls
3629 280 Pls
3630 280 Pls
3630 280 Pls
3630 280 Pls
3631 280 Pls
3631 280 Pls
3632 280 Pls
3632 280 Pls
3632 280 Pls
3632 280 Pls
3633 280 Pls
3633 280 Pls
3633 280 Pls
3633 280 Pls
3634 280 Pls
3634 280 Pls
3634 280 Pls
3634 280 Pls
3635 280 Pls
3635 280 Pls
3636 510 Pls
3637 280 Pls
3637 280 Pls
3637 280 Pls
3637 280 Pls
3637 510 Pls
3638 280 Pls
3638 280 Pls
3638 280 Pls
3639 280 Pls
3639 280 Pls
3640 280 Pls
3641 280 Pls
3641 280 Pls
3642 280 Pls
3642 510 Pls
3642 280 Pls
3642 280 Pls
3642 280 Pls
3643 280 Pls
3643 280 Pls
3643 280 Pls
3644 280 Pls
3644 280 Pls
3644 280 Pls
3644 280 Pls
3645 280 Pls
3645 280 Pls
3645 280 Pls
3645 280 Pls
3646 280 Pls
3646 280 Pls
3646 280 Pls
3646 280 Pls
3647 280 Pls
3647 510 Pls
3647 280 Pls
3648 280 Pls
3649 280 Pls
3649 280 Pls
3650 510 Pls
3650 280 Pls
3650 280 Pls
3650 280 Pls
3651 280 Pls
3651 280 Pls
3651 280 Pls
3652 280 Pls
3653 280 Pls
3653 280 Pls
3653 280 Pls
3655 280 Pls
3655 280 Pls
3655 280 Pls
3655 280 Pls
3656 280 Pls
3656 280 Pls
3657 280 Pls
3657 280 Pls
3658 280 Pls
3659 280 Pls
3659 510 Pls
3659 280 Pls
3660 280 Pls
3660 280 Pls
3660 280 Pls
3660 280 Pls
3662 510 Pls
3662 280 Pls
3662 510 Pls
3662 280 Pls
3662 280 Pls
3662 280 Pls
3663 510 Pls
3664 280 Pls
3664 280 Pls
3664 280 Pls
3664 280 Pls
3664 280 Pls
3664 280 Pls
3664 280 Pls
3664 280 Pls
3664 510 Pls
3665 280 Pls
3665 645 Pls
3665 280 Pls
3666 280 Pls
3666 280 Pls
3666 280 Pls
3667 280 Pls
3667 280 Pls
3668 280 Pls
3668 280 Pls
3669 280 Pls
3669 280 Pls
3670 280 Pls
3670 280 Pls
3670 280 Pls
3670 280 Pls
3670 280 Pls
3670 280 Pls
3671 280 Pls
3671 510 Pls
3671 510 Pls
3671 280 Pls
3672 280 Pls
3672 280 Pls
3673 280 Pls
3673 280 Pls
3673 280 Pls
3673 280 Pls
3674 280 Pls
3675 280 Pls
3676 280 Pls
3676 280 Pls
3676 280 Pls
3676 280 Pls
3677 280 Pls
3677 280 Pls
3677 280 Pls
3678 510 Pls
3679 280 Pls
3680 280 Pls
3680 280 Pls
3680 280 Pls
3680 280 Pls
3680 280 Pls
3681 280 Pls
3681 280 Pls
3681 280 Pls
3682 280 Pls
3682 280 Pls
3682 280 Pls
3682 280 Pls
3683 280 Pls
3684 645 Pls
3684 280 Pls
3685 280 Pls
3686 280 Pls
3686 280 Pls
3686 280 Pls
3687 280 Pls
3687 280 Pls
3687 280 Pls
3688 280 Pls
3688 280 Pls
3689 280 Pls
3689 280 Pls
3689 280 Pls
3689 510 Pls
3689 280 Pls
3690 280 Pls
3690 280 Pls
3690 280 Pls
3691 280 Pls
3692 280 Pls
3693 280 Pls
3693 280 Pls
3694 280 Pls
3694 280 Pls
3694 280 Pls
3694 280 Pls
3695 280 Pls
3695 280 Pls
3695 280 Pls
3696 280 Pls
3696 280 Pls
3696 280 Pls
3696 280 Pls
3697 280 Pls
3697 280 Pls
3697 280 Pls
3698 280 Pls
3698 510 Pls
3699 510 Pls
3699 280 Pls
3699 280 Pls
3700 280 Pls
3700 280 Pls
3701 280 Pls
3701 280 Pls
3701 280 Pls
3701 280 Pls
3702 280 Pls
3702 280 Pls
3702 280 Pls
3702 280 Pls
3703 280 Pls
3703 280 Pls
3703 280 Pls
3703 280 Pls
3703 280 Pls
3704 280 Pls
3704 280 Pls
3704 280 Pls
3704 280 Pls
3705 280 Pls
3705 280 Pls
3705 510 Pls
3705 280 Pls
3706 510 Pls
3706 280 Pls
3707 280 Pls
3707 280 Pls
3707 280 Pls
3707 280 Pls
3708 280 Pls
3708 280 Pls
3708 280 Pls
3708 280 Pls
3708 280 Pls
3708 280 Pls
3709 280 Pls
3709 280 Pls
3709 280 Pls
3710 280 Pls
3710 280 Pls
3710 280 Pls
3710 280 Pls
3711 280 Pls
3711 280 Pls
3711 280 Pls
3711 280 Pls
3712 280 Pls
3713 280 Pls
3713 280 Pls
3714 280 Pls
3714 510 Pls
3715 280 Pls
3716 280 Pls
3716 280 Pls
3716 280 Pls
3716 280 Pls
3717 280 Pls
3718 280 Pls
3718 280 Pls
3719 280 Pls
3720 280 Pls
3720 280 Pls
3720 280 Pls
3720 280 Pls
3721 280 Pls
3722 280 Pls
3723 280 Pls
3724 280 Pls
3725 280 Pls
3725 280 Pls
3725 280 Pls
3725 280 Pls
3726 280 Pls
3726 280 Pls
3727 280 Pls
3727 280 Pls
3728 510 Pls
3728 645 Pls
3728 280 Pls
3729 280 Pls
3729 280 Pls
3729 280 Pls
3729 280 Pls
3729 280 Pls
3729 280 Pls
3730 280 Pls
3730 280 Pls
3732 280 Pls
3732 280 Pls
3733 280 Pls
3733 280 Pls
3734 280 Pls
3734 280 Pls
3734 280 Pls
3735 280 Pls
3735 280 Pls
3735 280 Pls
3736 280 Pls
3736 280 Pls
3736 280 Pls
3737 280 Pls
3737 280 Pls
3737 280 Pls
3738 280 Pls
3739 280 Pls
3739 280 Pls
3739 280 Pls
3740 280 Pls
3740 280 Pls
3741 280 Pls
3741 280 Pls
3741 280 Pls
3742 510 Pls
3742 280 Pls
3742 280 Pls
3742 280 Pls
3742 280 Pls
3743 280 Pls
3743 280 Pls
3743 280 Pls
3743 280 Pls
3744 280 Pls
3744 280 Pls
3744 280 Pls
3745 280 Pls
3746 280 Pls
3746 280 Pls
3747 280 Pls
3747 280 Pls
3748 280 Pls
3748 280 Pls
3748 280 Pls
3749 280 Pls
3749 280 Pls
3749 280 Pls
3750 280 Pls
3750 280 Pls
3750 280 Pls
3751 280 Pls
3751 280 Pls
3751 280 Pls
3752 280 Pls
3752 280 Pls
3752 280 Pls
3752 280 Pls
3752 280 Pls
3753 280 Pls
3753 280 Pls
3754 280 Pls
3755 280 Pls
3756 280 Pls
3756 280 Pls
3756 280 Pls
3757 280 Pls
3757 280 Pls
3757 510 Pls
3758 280 Pls
3758 280 Pls
3758 280 Pls
3759 280 Pls
3759 280 Pls
3759 280 Pls
3761 280 Pls
3761 280 Pls
3761 280 Pls
3761 280 Pls
3762 280 Pls
3762 280 Pls
3763 280 Pls
3763 280 Pls
3763 280 Pls
3763 280 Pls
3763 280 Pls
3764 280 Pls
3765 280 Pls
3765 280 Pls
3766 280 Pls
3766 280 Pls
3766 280 Pls
3766 280 Pls
3767 280 Pls
3767 280 Pls
3768 280 Pls
3768 280 Pls
3768 280 Pls
3768 510 Pls
3768 280 Pls
3769 280 Pls
3769 280 Pls
3769 280 Pls
3769 280 Pls
3769 280 Pls
3769 280 Pls
3770 280 Pls
3770 280 Pls
3770 280 Pls
3771 280 Pls
3771 280 Pls
3771 280 Pls
3772 280 Pls
3772 510 Pls
3772 280 Pls
3772 280 Pls
3773 280 Pls
3773 280 Pls
3773 280 Pls
3773 280 Pls
3773 280 Pls
3773 280 Pls
3774 280 Pls
3774 510 Pls
3775 280 Pls
3775 280 Pls
3776 280 Pls
3776 280 Pls
3776 280 Pls
3776 280 Pls
3776 280 Pls
3777 280 Pls
3777 280 Pls
3777 280 Pls
3777 280 Pls
3778 280 Pls
3779 280 Pls
3779 280 Pls
3779 280 Pls
3779 280 Pls
3780 280 Pls
3780 280 Pls
3780 510 Pls
3780 280 Pls
3781 280 Pls
3781 280 Pls
3781 280 Pls
3781 280 Pls
3782 645 Pls
3783 280 Pls
3783 280 Pls
3783 280 Pls
3783 280 Pls
3784 280 Pls
3784 280 Pls
3785 280 Pls
3785 280 Pls
3786 280 Pls
3786 280 Pls
3787 280 Pls
3787 280 Pls
3787 280 Pls
3788 280 Pls
3788 280 Pls
3789 510 Pls
3789 280 Pls
3790 280 Pls
3791 280 Pls
3791 280 Pls
3792 280 Pls
3794 510 Pls
3794 280 Pls
3795 280 Pls
3796 280 Pls
3796 280 Pls
3797 280 Pls
3798 280 Pls
3798 280 Pls
3798 280 Pls
3799 280 Pls
3799 280 Pls
3800 280 Pls
3800 280 Pls
3801 280 Pls
3801 280 Pls
3802 280 Pls
3802 280 Pls
3802 280 Pls
3803 280 Pls
3804 280 Pls
3804 280 Pls
3804 280 Pls
3806 280 Pls
3807 280 Pls
3808 280 Pls
3808 280 Pls
3808 510 Pls
3808 280 Pls
3809 280 Pls
3809 280 Pls
3809 280 Pls
3810 280 Pls
3810 280 Pls
3811 280 Pls
3812 280 Pls
3813 280 Pls
3813 280 Pls
3813 280 Pls
3814 280 Pls
3814 280 Pls
3815 280 Pls
3815 280 Pls
3816 280 Pls
3816 280 Pls
3816 280 Pls
3816 280 Pls
3816 280 Pls
3817 280 Pls
3817 280 Pls
3817 280 Pls
3817 280 Pls
3818 280 Pls
3818 280 Pls
3818 280 Pls
3818 280 Pls
3819 280 Pls
3819 280 Pls
3820 280 Pls
3820 280 Pls
3820 280 Pls
3820 280 Pls
3820 510 Pls
3821 280 Pls
3821 510 Pls
3821 280 Pls
3821 280 Pls
3821 280 Pls
3821 280 Pls
3823 280 Pls
3823 280 Pls
3824 280 Pls
3824 280 Pls
3824 510 Pls
3824 280 Pls
3824 280 Pls
3825 280 Pls
3825 280 Pls
3826 280 Pls
3826 280 Pls
3826 280 Pls
3827 280 Pls
3828 280 Pls
3828 280 Pls
3828 280 Pls
3831 280 Pls
3831 280 Pls
3831 510 Pls
3832 280 Pls
3832 280 Pls
3832 280 Pls
3832 280 Pls
3832 280 Pls
3833 280 Pls
3833 280 Pls
3834 280 Pls
3834 280 Pls
3834 280 Pls
3834 645 Pls
3834 280 Pls
3835 280 Pls
3835 510 Pls
3835 280 Pls
3835 280 Pls
3835 280 Pls
3836 280 Pls
3837 280 Pls
3838 280 Pls
3838 280 Pls
3838 280 Pls
3838 280 Pls
3838 280 Pls
3839 280 Pls
3839 280 Pls
3839 280 Pls
3840 510 Pls
3840 280 Pls
3841 280 Pls
3841 280 Pls
3841 280 Pls
3843 280 Pls
3844 280 Pls
3844 280 Pls
3845 280 Pls
3845 280 Pls
3845 280 Pls
3846 280 Pls
3846 280 Pls
3847 280 Pls
3848 280 Pls
3848 280 Pls
3849 280 Pls
3849 280 Pls
3849 280 Pls
3849 280 Pls
3851 510 Pls
3851 280 Pls
3851 280 Pls
3852 280 Pls
3852 280 Pls
3852 280 Pls
3853 280 Pls
3853 280 Pls
3853 280 Pls
3854 280 Pls
3854 280 Pls
3854 280 Pls
3854 280 Pls
3855 280 Pls
3855 280 Pls
3855 280 Pls
3855 280 Pls
3855 280 Pls
3855 280 Pls
3856 280 Pls
3857 280 Pls
3857 280 Pls
3858 280 Pls
3858 280 Pls
3858 280 Pls
3858 280 Pls
3858 280 Pls
3859 280 Pls
3860 280 Pls
3860 280 Pls
3861 280 Pls
3862 280 Pls
3862 280 Pls
3863 280 Pls
3863 280 Pls
3863 280 Pls
3864 280 Pls
3865 280 Pls
3865 280 Pls
3866 280 Pls
3866 280 Pls
3866 280 Pls
3866 280 Pls
3866 280 Pls
3867 280 Pls
3867 280 Pls
3868 280 Pls
3868 280 Pls
3868 280 Pls
3869 280 Pls
3869 280 Pls
3869 280 Pls
3869 280 Pls
3870 280 Pls
3871 280 Pls
3871 280 Pls
3872 280 Pls
3872 280 Pls
3873 280 Pls
3873 280 Pls
3873 280 Pls
3873 280 Pls
3874 280 Pls
3874 280 Pls
3875 280 Pls
3875 280 Pls
3875 280 Pls
3875 280 Pls
3875 280 Pls
3876 280 Pls
3876 280 Pls
3876 280 Pls
3877 280 Pls
3877 280 Pls
3877 280 Pls
3878 280 Pls
3878 280 Pls
3878 510 Pls
3878 280 Pls
3878 280 Pls
3879 280 Pls
3879 280 Pls
3879 280 Pls
3879 280 Pls
3879 280 Pls
3879 280 Pls
3880 280 Pls
3880 280 Pls
3880 280 Pls
3881 280 Pls
3882 280 Pls
3882 280 Pls
3883 280 Pls
3883 280 Pls
3883 280 Pls
3883 280 Pls
3885 280 Pls
3885 280 Pls
3886 280 Pls
3887 280 Pls
3888 280 Pls
3888 280 Pls
3889 280 Pls
3890 280 Pls
3890 280 Pls
3891 280 Pls
3892 280 Pls
3893 280 Pls
3893 280 Pls
3893 280 Pls
3894 280 Pls
3895 280 Pls
3895 280 Pls
3895 280 Pls
3896 280 Pls
3898 280 Pls
3898 280 Pls
3898 280 Pls
3898 280 Pls
3899 280 Pls
3899 280 Pls
3900 280 Pls
3900 280 Pls
3901 280 Pls
3901 280 Pls
3901 280 Pls
3901 280 Pls
3902 280 Pls
3902 280 Pls
3902 280 Pls
3903 280 Pls
3903 280 Pls
3903 280 Pls
3904 280 Pls
3905 280 Pls
3907 280 Pls
3908 280 Pls
3908 280 Pls
3908 280 Pls
3909 280 Pls
3909 280 Pls
3909 280 Pls
3909 280 Pls
3910 280 Pls
3910 280 Pls
3910 280 Pls
3910 280 Pls
3911 280 Pls
3912 280 Pls
3912 280 Pls
3913 280 Pls
3913 280 Pls
3913 280 Pls
3914 280 Pls
3914 280 Pls
3916 280 Pls
3916 280 Pls
3916 280 Pls
3916 280 Pls
3918 280 Pls
3918 280 Pls
3918 280 Pls
3918 280 Pls
3920 280 Pls
3920 280 Pls
3920 280 Pls
3920 280 Pls
3920 510 Pls
3921 280 Pls
3922 280 Pls
3922 280 Pls
3922 510 Pls
3923 280 Pls
3923 280 Pls
3923 280 Pls
3923 280 Pls
3924 280 Pls
3924 280 Pls
3924 280 Pls
3925 280 Pls
3925 280 Pls
3927 280 Pls
3927 280 Pls
3927 280 Pls
3927 280 Pls
3928 280 Pls
3928 280 Pls
3929 280 Pls
3929 280 Pls
3930 280 Pls
3930 280 Pls
3930 280 Pls
3931 280 Pls
3932 280 Pls
3932 280 Pls
3932 280 Pls
3932 280 Pls
3932 280 Pls
3933 280 Pls
3933 280 Pls
3934 280 Pls
3934 280 Pls
3934 280 Pls
3934 280 Pls
3935 280 Pls
3935 280 Pls
3935 280 Pls
3935 280 Pls
3935 280 Pls
3936 280 Pls
3936 280 Pls
3937 280 Pls
3937 280 Pls
3938 280 Pls
3938 280 Pls
3938 280 Pls
3939 280 Pls
3939 280 Pls
3939 280 Pls
3940 280 Pls
3940 280 Pls
3940 280 Pls
3941 510 Pls
3941 280 Pls
3941 280 Pls
3942 280 Pls
3942 280 Pls
3942 280 Pls
3942 280 Pls
3942 280 Pls
3943 280 Pls
3944 280 Pls
3944 280 Pls
3944 280 Pls
3944 280 Pls
3944 280 Pls
3945 280 Pls
3946 280 Pls
3946 280 Pls
3947 280 Pls
3947 280 Pls
3947 280 Pls
3948 280 Pls
3948 280 Pls
3948 280 Pls
3948 280 Pls
3949 280 Pls
3949 280 Pls
3950 280 Pls
3950 280 Pls
3950 280 Pls
3950 280 Pls
3950 280 Pls
3950 280 Pls
3950 280 Pls
3950 280 Pls
3951 280 Pls
3951 280 Pls
3951 280 Pls
3952 280 Pls
3952 280 Pls
3952 280 Pls
3953 280 Pls
3953 280 Pls
3954 280 Pls
3955 280 Pls
3955 280 Pls
3955 280 Pls
3955 510 Pls
3955 280 Pls
3956 280 Pls
3957 280 Pls
3957 280 Pls
3958 280 Pls
3958 280 Pls
3960 280 Pls
3961 280 Pls
3961 280 Pls
3961 280 Pls
3961 280 Pls
3962 280 Pls
3962 280 Pls
3962 280 Pls
3963 280 Pls
3964 280 Pls
3964 510 Pls
3964 280 Pls
3964 280 Pls
3966 280 Pls
3966 280 Pls
3966 510 Pls
3966 280 Pls
3966 280 Pls
3967 280 Pls
3967 280 Pls
3968 280 Pls
3969 280 Pls
3969 280 Pls
3969 280 Pls
3969 280 Pls
3970 280 Pls
3970 280 Pls
3970 280 Pls
3970 280 Pls
3970 280 Pls
3971 280 Pls
3971 280 Pls
3971 280 Pls
3971 280 Pls
3972 280 Pls
3972 280 Pls
3972 280 Pls
3973 280 Pls
3973 280 Pls
3973 280 Pls
3974 280 Pls
3974 280 Pls
3975 280 Pls
3975 280 Pls
3975 280 Pls
3977 280 Pls
3977 280 Pls
3977 280 Pls
3977 280 Pls
3977 280 Pls
3977 280 Pls
3978 280 Pls
3978 280 Pls
3978 280 Pls
3978 280 Pls
3979 280 Pls
3980 280 Pls
3980 280 Pls
3981 280 Pls
3981 280 Pls
3982 280 Pls
3982 280 Pls
3982 280 Pls
3982 280 Pls
3983 280 Pls
3983 280 Pls
3983 280 Pls
3984 280 Pls
3984 280 Pls
3984 280 Pls
3986 280 Pls
3986 280 Pls
3986 280 Pls
3987 280 Pls
3987 280 Pls
3988 280 Pls
3988 280 Pls
3988 280 Pls
3989 280 Pls
3989 280 Pls
3989 510 Pls
3989 280 Pls
3990 280 Pls
3990 280 Pls
3990 280 Pls
3991 280 Pls
3991 280 Pls
3991 280 Pls
3991 280 Pls
3992 280 Pls
3993 280 Pls
3993 280 Pls
3993 280 Pls
3993 280 Pls
3994 280 Pls
3994 280 Pls
3995 280 Pls
3995 280 Pls
3996 280 Pls
3996 280 Pls
3997 510 Pls
3997 280 Pls
3997 280 Pls
3997 280 Pls
3998 280 Pls
3999 280 Pls
4000 280 Pls
4001 280 Pls
4001 280 Pls
4002 280 Pls
4002 280 Pls
4002 280 Pls
4002 280 Pls
4002 280 Pls
4002 280 Pls
4002 280 Pls
4002 280 Pls
4002 280 Pls
4003 280 Pls
4004 280 Pls
4004 280 Pls
4004 280 Pls
4004 280 Pls
4004 280 Pls
4005 280 Pls
4005 280 Pls
4005 280 Pls
4006 280 Pls
4006 280 Pls
4006 280 Pls
4006 280 Pls
4007 280 Pls
4007 280 Pls
4007 280 Pls
4009 280 Pls
4009 280 Pls
4010 280 Pls
4010 280 Pls
4011 280 Pls
4011 280 Pls
4012 280 Pls
4012 280 Pls
4012 280 Pls
4013 280 Pls
4013 280 Pls
4014 280 Pls
4014 280 Pls
4015 280 Pls
4015 280 Pls
4016 280 Pls
4016 280 Pls
4017 280 Pls
4018 280 Pls
4018 280 Pls
4018 280 Pls
4018 280 Pls
4018 510 Pls
4018 280 Pls
4019 280 Pls
4019 280 Pls
4019 280 Pls
4019 280 Pls
4019 280 Pls
4020 280 Pls
4020 280 Pls
4021 280 Pls
4022 280 Pls
4022 280 Pls
4022 280 Pls
4023 280 Pls
4023 280 Pls
4024 280 Pls
4024 280 Pls
4024 280 Pls
4024 280 Pls
4024 280 Pls
4025 280 Pls
4025 280 Pls
4026 280 Pls
4026 280 Pls
4027 280 Pls
4027 280 Pls
4028 280 Pls
4028 280 Pls
4029 280 Pls
4029 280 Pls
4030 280 Pls
4030 280 Pls
4031 280 Pls
4031 280 Pls
4031 280 Pls
4031 280 Pls
4031 280 Pls
4032 280 Pls
4032 280 Pls
4033 280 Pls
4033 280 Pls
4035 280 Pls
4035 280 Pls
4036 280 Pls
4036 280 Pls
4036 280 Pls
4036 280 Pls
4037 280 Pls
4039 280 Pls
4040 280 Pls
4041 280 Pls
4041 280 Pls
4042 280 Pls
4043 280 Pls
4043 280 Pls
4043 280 Pls
4043 280 Pls
4043 280 Pls
4044 280 Pls
4044 280 Pls
4044 280 Pls
4045 280 Pls
4045 280 Pls
4047 280 Pls
4048 280 Pls
4048 280 Pls
4049 280 Pls
4050 280 Pls
4050 280 Pls
4050 280 Pls
4051 280 Pls
4051 280 Pls
4051 280 Pls
4052 280 Pls
4054 280 Pls
4054 280 Pls
4054 280 Pls
4055 280 Pls
4055 280 Pls
4055 280 Pls
4055 280 Pls
4055 280 Pls
4056 280 Pls
4056 280 Pls
4056 280 Pls
4056 280 Pls
4057 280 Pls
4057 280 Pls
4058 280 Pls
4059 280 Pls
4059 280 Pls
4059 280 Pls
4059 280 Pls
4060 510 Pls
4060 280 Pls
4062 280 Pls
4062 280 Pls
4063 280 Pls
4063 280 Pls
4064 280 Pls
4064 280 Pls
4064 280 Pls
4065 280 Pls
4065 280 Pls
4066 280 Pls
4066 280 Pls
4066 280 Pls
4066 280 Pls
4067 280 Pls
4067 280 Pls
4068 280 Pls
4068 280 Pls
4068 280 Pls
4068 280 Pls
4069 280 Pls
4069 280 Pls
4069 280 Pls
4070 280 Pls
4070 280 Pls
4070 280 Pls
4070 280 Pls
4071 280 Pls
4073 280 Pls
4074 510 Pls
4074 280 Pls
4074 280 Pls
4074 280 Pls
4074 280 Pls
4074 280 Pls
4075 280 Pls
4075 280 Pls
4075 280 Pls
4076 280 Pls
4077 280 Pls
4078 280 Pls
4079 280 Pls
4079 280 Pls
4079 280 Pls
4080 280 Pls
4081 280 Pls
4081 280 Pls
4081 280 Pls
4081 280 Pls
4081 280 Pls
4081 280 Pls
4082 280 Pls
4082 280 Pls
4082 280 Pls
4082 280 Pls
4083 280 Pls
4085 280 Pls
4085 280 Pls
4086 280 Pls
4086 280 Pls
4086 280 Pls
4087 280 Pls
4087 280 Pls
4088 280 Pls
4088 280 Pls
4090 280 Pls
4090 280 Pls
4090 280 Pls
4090 280 Pls
4091 280 Pls
4091 280 Pls
4092 280 Pls
4092 280 Pls
4093 280 Pls
4093 280 Pls
4094 280 Pls
4094 280 Pls
4095 280 Pls
4095 280 Pls
4095 280 Pls
4096 280 Pls
4096 280 Pls
4097 280 Pls
4097 280 Pls
4097 280 Pls
4097 280 Pls
4097 280 Pls
4098 280 Pls
4098 280 Pls
4099 280 Pls
4099 280 Pls
4101 280 Pls
4101 280 Pls
4101 280 Pls
4102 280 Pls
4103 280 Pls
4103 280 Pls
4104 280 Pls
4104 280 Pls
4104 280 Pls
4104 280 Pls
4105 280 Pls
4106 280 Pls
4108 280 Pls
4108 280 Pls
4109 280 Pls
4109 280 Pls
4110 280 Pls
4110 280 Pls
4112 280 Pls
4112 280 Pls
4113 280 Pls
4113 280 Pls
4113 280 Pls
4116 280 Pls
4116 280 Pls
4117 280 Pls
4118 280 Pls
4118 280 Pls
4118 280 Pls
4119 280 Pls
4119 280 Pls
4120 280 Pls
4121 280 Pls
4122 280 Pls
4123 280 Pls
4124 280 Pls
4125 280 Pls
4125 280 Pls
4126 280 Pls
4126 280 Pls
4127 280 Pls
4127 280 Pls
4127 280 Pls
4128 280 Pls
4128 280 Pls
4129 280 Pls
4129 280 Pls
4129 280 Pls
4129 280 Pls
4129 280 Pls
4131 280 Pls
4132 280 Pls
4132 280 Pls
4132 280 Pls
4132 280 Pls
4133 280 Pls
4133 280 Pls
4134 280 Pls
4134 280 Pls
4134 280 Pls
4135 280 Pls
4135 280 Pls
4135 280 Pls
4136 280 Pls
4136 280 Pls
4137 280 Pls
4137 280 Pls
4138 280 Pls
4139 280 Pls
4139 280 Pls
4140 280 Pls
4142 280 Pls
4142 280 Pls
4143 280 Pls
4143 280 Pls
4144 280 Pls
4144 280 Pls
4144 280 Pls
4145 280 Pls
4145 280 Pls
4146 280 Pls
4147 280 Pls
4147 280 Pls
4147 280 Pls
4148 280 Pls
4149 280 Pls
4149 280 Pls
4150 280 Pls
4150 280 Pls
4151 280 Pls
4152 280 Pls
4152 280 Pls
4152 280 Pls
4152 280 Pls
4153 280 Pls
4153 280 Pls
4154 280 Pls
4154 280 Pls
4156 280 Pls
4156 280 Pls
4157 280 Pls
4157 510 Pls
4157 280 Pls
4157 280 Pls
4157 280 Pls
4157 280 Pls
4158 280 Pls
4158 280 Pls
4158 280 Pls
4158 280 Pls
4158 280 Pls
4158 280 Pls
4158 280 Pls
4158 280 Pls
4159 280 Pls
4159 280 Pls
4159 280 Pls
4159 280 Pls
4159 280 Pls
4159 280 Pls
4160 280 Pls
4160 280 Pls
4160 280 Pls
4161 280 Pls
4161 280 Pls
4161 280 Pls
4161 280 Pls
4161 510 Pls
4161 280 Pls
4161 280 Pls
4161 280 Pls
4162 280 Pls
4162 280 Pls
4162 280 Pls
4162 280 Pls
4162 280 Pls
4162 280 Pls
4162 280 Pls
4162 280 Pls
4162 280 Pls
4162 280 Pls
4163 280 Pls
4163 280 Pls
4163 280 Pls
4163 280 Pls
4163 280 Pls
4164 280 Pls
4164 280 Pls
4164 280 Pls
4164 280 Pls
4164 280 Pls
4164 280 Pls
4164 280 Pls
4164 280 Pls
4164 280 Pls
4165 280 Pls
4165 280 Pls
4165 510 Pls
4165 280 Pls
4165 280 Pls
4165 280 Pls
4166 280 Pls
4166 280 Pls
4166 280 Pls
4166 280 Pls
4166 280 Pls
4166 280 Pls
4166 280 Pls
4166 280 Pls
4167 280 Pls
4167 280 Pls
4167 280 Pls
4167 280 Pls
4167 280 Pls
4167 280 Pls
4168 280 Pls
4168 280 Pls
4168 280 Pls
4168 280 Pls
4168 280 Pls
4168 280 Pls
4168 280 Pls
4168 280 Pls
4168 280 Pls
4168 280 Pls
4168 280 Pls
4168 280 Pls
4168 280 Pls
4168 280 Pls
4168 280 Pls
4169 280 Pls
4169 280 Pls
4169 280 Pls
4169 280 Pls
4169 510 Pls
4169 280 Pls
4169 280 Pls
4169 280 Pls
4170 280 Pls
4170 280 Pls
4170 280 Pls
4170 280 Pls
4170 280 Pls
4170 280 Pls
4170 280 Pls
4171 280 Pls
4171 280 Pls
4171 280 Pls
4171 280 Pls
4171 280 Pls
4171 280 Pls
4172 280 Pls
4172 280 Pls
4172 280 Pls
4172 280 Pls
4172 280 Pls
4172 280 Pls
4172 280 Pls
4173 280 Pls
4173 280 Pls
4173 280 Pls
4173 280 Pls
4173 280 Pls
4173 280 Pls
4173 280 Pls
4173 280 Pls
4174 280 Pls
4174 280 Pls
4174 280 Pls
4174 280 Pls
4175 280 Pls
4175 280 Pls
4175 280 Pls
4175 280 Pls
4175 280 Pls
4175 280 Pls
4175 280 Pls
4175 280 Pls
4176 280 Pls
4176 280 Pls
4176 280 Pls
4177 280 Pls
4177 280 Pls
4178 280 Pls
4178 280 Pls
4178 280 Pls
4178 280 Pls
4178 280 Pls
4178 280 Pls
4178 280 Pls
4178 280 Pls
4178 280 Pls
4179 280 Pls
4179 280 Pls
4179 280 Pls
4179 280 Pls
4179 280 Pls
4179 280 Pls
4179 280 Pls
4179 280 Pls
4180 280 Pls
4180 280 Pls
4180 280 Pls
4180 280 Pls
4180 280 Pls
4180 280 Pls
4181 280 Pls
4181 280 Pls
4182 280 Pls
4182 280 Pls
4182 280 Pls
4182 510 Pls
4183 280 Pls
4183 280 Pls
4183 280 Pls
4183 280 Pls
4183 280 Pls
4184 280 Pls
4184 280 Pls
4185 280 Pls
4185 280 Pls
4185 280 Pls
4186 280 Pls
4186 280 Pls
4187 280 Pls
4187 280 Pls
4187 280 Pls
4188 280 Pls
4188 280 Pls
4188 280 Pls
4188 280 Pls
4190 280 Pls
4190 280 Pls
4190 280 Pls
4190 280 Pls
4191 280 Pls
4192 280 Pls
4192 280 Pls
4192 280 Pls
4193 280 Pls
4193 280 Pls
4193 280 Pls
4193 280 Pls
4194 280 Pls
4194 280 Pls
4195 280 Pls
4196 280 Pls
4197 280 Pls
4197 280 Pls
4197 280 Pls
4198 280 Pls
4198 280 Pls
4199 280 Pls
4200 280 Pls
4200 280 Pls
4200 280 Pls
4201 280 Pls
4201 280 Pls
4202 280 Pls
4202 280 Pls
4202 280 Pls
4203 280 Pls
4203 510 Pls
4204 280 Pls
4205 280 Pls
4206 280 Pls
4206 280 Pls
4206 280 Pls
4207 280 Pls
4208 280 Pls
4208 280 Pls
4209 280 Pls
4211 280 Pls
4211 280 Pls
4211 280 Pls
4212 280 Pls
4213 280 Pls
4213 280 Pls
4213 280 Pls
4215 280 Pls
4215 280 Pls
4216 280 Pls
4217 280 Pls
4218 280 Pls
4218 280 Pls
4219 280 Pls
4219 280 Pls
4220 280 Pls
4220 280 Pls
4220 280 Pls
4220 280 Pls
4225 280 Pls
4226 280 Pls
4229 280 Pls
4229 280 Pls
4229 280 Pls
4230 280 Pls
4230 280 Pls
4232 280 Pls
4232 280 Pls
4234 280 Pls
4234 280 Pls
4234 280 Pls
4234 280 Pls
4235 280 Pls
4236 280 Pls
4236 280 Pls
4237 280 Pls
4237 280 Pls
4237 280 Pls
4238 280 Pls
4238 280 Pls
4238 280 Pls
4239 280 Pls
4239 280 Pls
4240 280 Pls
4241 280 Pls
4241 280 Pls
4241 280 Pls
4241 280 Pls
4242 280 Pls
4243 280 Pls
4243 280 Pls
4243 280 Pls
4244 280 Pls
4245 280 Pls
4248 280 Pls
4248 280 Pls
4249 280 Pls
4250 280 Pls
4251 280 Pls
4251 280 Pls
4252 280 Pls
4255 280 Pls
4258 280 Pls
4258 280 Pls
4258 280 Pls
4259 280 Pls
4261 280 Pls
4262 280 Pls
4262 280 Pls
4262 280 Pls
4263 280 Pls
4263 280 Pls
4264 280 Pls
4266 280 Pls
4268 280 Pls
4268 280 Pls
4269 280 Pls
4271 280 Pls
4271 280 Pls
4273 510 Pls
4276 280 Pls
4276 280 Pls
4276 280 Pls
4277 280 Pls
4277 280 Pls
4277 280 Pls
4279 280 Pls
4280 280 Pls
4280 280 Pls
4280 280 Pls
4281 280 Pls
4281 280 Pls
4282 280 Pls
4282 280 Pls
4282 280 Pls
4282 280 Pls
4283 280 Pls
4284 280 Pls
4284 280 Pls
4284 280 Pls
4284 280 Pls
4286 280 Pls
4288 280 Pls
4289 280 Pls
4289 280 Pls
4290 280 Pls
4290 280 Pls
4291 280 Pls
4291 280 Pls
4291 280 Pls
4291 280 Pls
4292 280 Pls
4292 280 Pls
4292 280 Pls
4292 280 Pls
4294 280 Pls
4295 280 Pls
4296 280 Pls
4297 280 Pls
4300 280 Pls
4300 280 Pls
4301 280 Pls
4301 280 Pls
4301 280 Pls
4301 280 Pls
4303 280 Pls
4307 280 Pls
4307 280 Pls
4309 280 Pls
4309 280 Pls
4310 280 Pls
4311 280 Pls
4312 280 Pls
4312 280 Pls
4313 280 Pls
4314 280 Pls
4315 280 Pls
4316 280 Pls
4318 280 Pls
4318 280 Pls
4319 280 Pls
4320 280 Pls
4320 280 Pls
4320 280 Pls
4321 280 Pls
4323 280 Pls
4323 280 Pls
4323 280 Pls
4323 280 Pls
4324 280 Pls
4324 280 Pls
4325 280 Pls
4326 280 Pls
4327 280 Pls
4327 280 Pls
4328 280 Pls
4331 280 Pls
4332 280 Pls
4334 280 Pls
4337 280 Pls
4337 280 Pls
4337 280 Pls
4338 280 Pls
4338 280 Pls
4338 280 Pls
4338 280 Pls
4340 280 Pls
4340 280 Pls
4342 280 Pls
4343 280 Pls
4343 280 Pls
4346 280 Pls
4347 280 Pls
4347 280 Pls
4348 280 Pls
4349 280 Pls
4350 280 Pls
4352 280 Pls
4352 280 Pls
4354 280 Pls
4357 280 Pls
4358 280 Pls
4359 280 Pls
4359 280 Pls
4362 280 Pls
4363 280 Pls
4363 280 Pls
4363 280 Pls
4364 280 Pls
4366 280 Pls
4366 280 Pls
4367 280 Pls
4367 280 Pls
4367 280 Pls
4369 280 Pls
4369 280 Pls
4369 280 Pls
4371 280 Pls
4371 280 Pls
4371 280 Pls
4373 280 Pls
4373 280 Pls
4373 280 Pls
4373 280 Pls
4373 280 Pls
4373 280 Pls
4374 280 Pls
4375 280 Pls
4375 280 Pls
4376 280 Pls
4376 280 Pls
4377 280 Pls
4378 280 Pls
4378 280 Pls
4379 280 Pls
4379 280 Pls
4382 280 Pls
4383 280 Pls
4386 280 Pls
4386 280 Pls
4387 280 Pls
4388 280 Pls
4389 280 Pls
4390 280 Pls
4390 280 Pls
4391 280 Pls
4393 280 Pls
4394 280 Pls
4395 280 Pls
4399 280 Pls
4400 280 Pls
4401 280 Pls
4402 280 Pls
4402 280 Pls
4404 280 Pls
4405 280 Pls
4405 280 Pls
4406 280 Pls
4407 280 Pls
4409 280 Pls
4410 280 Pls
4413 280 Pls
4414 280 Pls
4416 280 Pls
4416 280 Pls
4419 280 Pls
4420 280 Pls
4420 280 Pls
4420 280 Pls
4421 280 Pls
4423 280 Pls
4424 280 Pls
4424 280 Pls
4424 280 Pls
4425 280 Pls
4429 280 Pls
4432 280 Pls
4435 280 Pls
4435 280 Pls
4436 280 Pls
4438 280 Pls
4439 280 Pls
4439 280 Pls
4440 280 Pls
4441 280 Pls
4443 280 Pls
4444 280 Pls
4444 280 Pls
4447 280 Pls
4447 280 Pls
4449 280 Pls
4450 280 Pls
4450 280 Pls
4451 280 Pls
4451 280 Pls
4452 280 Pls
4455 280 Pls
4458 280 Pls
4458 280 Pls
4459 280 Pls
4459 280 Pls
4459 280 Pls
4461 280 Pls
4462 280 Pls
4462 280 Pls
4462 280 Pls
4463 280 Pls
4464 280 Pls
4464 280 Pls
4465 280 Pls
4466 280 Pls
4468 280 Pls
4470 280 Pls
4474 280 Pls
4474 280 Pls
4474 280 Pls
4474 280 Pls
4474 280 Pls
4475 280 Pls
4475 280 Pls
4477 280 Pls
4482 280 Pls
4482 280 Pls
4489 280 Pls
4490 280 Pls
4490 280 Pls
4492 280 Pls
4492 280 Pls
4493 280 Pls
4499 280 Pls
4501 280 Pls
4503 280 Pls
4503 280 Pls
4505 280 Pls
4506 280 Pls
4507 280 Pls
4508 280 Pls
4510 280 Pls
4514 280 Pls
4514 280 Pls
4514 280 Pls
4517 280 Pls
4521 280 Pls
4524 280 Pls
4526 280 Pls
4529 280 Pls
4529 280 Pls
4531 280 Pls
4533 280 Pls
4533 280 Pls
4534 280 Pls
4536 280 Pls
4537 280 Pls
4540 280 Pls
4540 280 Pls
4541 280 Pls
4542 280 Pls
4542 280 Pls
4544 280 Pls
4545 280 Pls
4547 280 Pls
4548 280 Pls
4548 280 Pls
4548 280 Pls
4552 280 Pls
4553 280 Pls
4554 280 Pls
4555 280 Pls
4559 280 Pls
4563 280 Pls
4563 280 Pls
4564 280 Pls
4565 280 Pls
4569 280 Pls
4570 280 Pls
4572 280 Pls
4573 280 Pls
4575 280 Pls
4575 280 Pls
4576 280 Pls
4578 280 Pls
4581 280 Pls
4581 280 Pls
4585 280 Pls
4585 280 Pls
4586 280 Pls
4588 280 Pls
4590 280 Pls
4597 280 Pls
4597 280 Pls
4599 280 Pls
4599 280 Pls
4601 280 Pls
4602 280 Pls
4604 280 Pls
4604 280 Pls
4606 280 Pls
4614 280 Pls
4619 280 Pls
4619 280 Pls
4620 280 Pls
4621 280 Pls
4621 280 Pls
4622 280 Pls
4622 280 Pls
4624 280 Pls
4625 280 Pls
4625 280 Pls
4626 280 Pls
4632 280 Pls
4635 280 Pls
4637 280 Pls
4638 280 Pls
4638 280 Pls
4639 280 Pls
4640 280 Pls
4641 280 Pls
4641 280 Pls
4644 280 Pls
4646 280 Pls
4648 280 Pls
4648 280 Pls
4651 280 Pls
4651 280 Pls
4651 280 Pls
4651 280 Pls
4659 280 Pls
4662 280 Pls
4664 280 Pls
4665 280 Pls
4669 280 Pls
4672 280 Pls
4675 280 Pls
4678 280 Pls
4681 280 Pls
4685 280 Pls
4685 280 Pls
4688 280 Pls
4690 280 Pls
4690 280 Pls
4691 280 Pls
4693 280 Pls
4696 280 Pls
4697 280 Pls
4699 280 Pls
4700 280 Pls
4702 280 Pls
4705 280 Pls
4707 280 Pls
4708 280 Pls
4715 280 Pls
4716 280 Pls
4717 280 Pls
4718 280 Pls
4720 280 Pls
4720 280 Pls
4720 280 Pls
4724 280 Pls
4724 280 Pls
4724 280 Pls
4725 280 Pls
4729 280 Pls
4730 280 Pls
4732 280 Pls
4732 280 Pls
4733 280 Pls
4733 280 Pls
4733 280 Pls
4734 280 Pls
4736 280 Pls
4737 280 Pls
4738 280 Pls
4738 280 Pls
4742 280 Pls
4743 280 Pls
4744 280 Pls
4753 280 Pls
4757 280 Pls
4758 280 Pls
4759 280 Pls
4763 280 Pls
4764 280 Pls
4767 280 Pls
4768 280 Pls
4772 280 Pls
4775 280 Pls
4776 280 Pls
4778 280 Pls
4778 280 Pls
4779 280 Pls
4779 280 Pls
4785 280 Pls
4788 280 Pls
4796 280 Pls
4798 280 Pls
4800 280 Pls
4802 280 Pls
4802 280 Pls
4803 280 Pls
4809 280 Pls
4817 280 Pls
4819 280 Pls
4819 280 Pls
4822 280 Pls
4823 280 Pls
4823 280 Pls
4823 280 Pls
4827 280 Pls
4827 280 Pls
4827 280 Pls
4831 280 Pls
4832 280 Pls
4841 280 Pls
4842 280 Pls
4843 280 Pls
4844 280 Pls
4845 280 Pls
4847 280 Pls
4849 280 Pls
4849 280 Pls
4854 280 Pls
4855 280 Pls
4857 280 Pls
4863 280 Pls
4863 280 Pls
4864 280 Pls
4865 280 Pls
4871 280 Pls
4877 280 Pls
4882 280 Pls
4888 280 Pls
4893 280 Pls
4896 280 Pls
4904 280 Pls
4906 280 Pls
4906 280 Pls
4906 280 Pls
4908 280 Pls
4910 280 Pls
4913 280 Pls
4920 280 Pls
4923 280 Pls
4925 280 Pls
4933 280 Pls
4935 280 Pls
4936 280 Pls
4947 280 Pls
4949 280 Pls
4949 280 Pls
4951 280 Pls
4954 280 Pls
4956 280 Pls
4957 280 Pls
4960 280 Pls
4961 280 Pls
4968 280 Pls
4972 280 Pls
4973 280 Pls
4980 280 Pls
4988 280 Pls
4989 280 Pls
4990 280 Pls
4992 280 Pls
4998 280 Pls
4999 280 Pls
5000 280 Pls
5015 280 Pls
5030 280 Pls
5053 280 Pls
5055 280 Pls
5057 280 Pls
5072 280 Pls
5082 280 Pls
5083 280 Pls
5084 280 Pls
5084 280 Pls
5092 280 Pls
5123 280 Pls
5125 280 Pls
5130 280 Pls
5158 280 Pls
5163 280 Pls
5193 280 Pls
5196 280 Pls
5197 280 Pls
5209 280 Pls
5224 280 Pls
5234 280 Pls
5262 280 Pls
5263 280 Pls
5276 280 Pls
5287 280 Pls
5296 280 Pls
5307 280 Pls
5307 280 Pls
5321 280 Pls
5327 280 Pls
5340 280 Pls
5342 280 Pls
5358 280 Pls
5365 280 Pls
5396 280 Pls
5400 280 Pls
5405 280 Pls
5474 280 Pls
5474 280 Pls
5475 280 Pls
5483 280 Pls
5498 280 Pls
5513 280 Pls
5518 280 Pls
5551 280 Pls
5571 280 Pls
5591 280 Pls
5605 280 Pls
5692 280 Pls
5798 280 Pls
5815 280 Pls
5831 280 Pls
5889 280 Pls
5976 280 Pls
6046 280 Pls
6067 280 Pls
6376 280 Pls
% End plot #1
2.000 UL
LTb
LCb setrgbcolor
1.000 UL
LTB
LCb setrgbcolor
798 4871 N
798 280 L
6149 0 V
0 4591 V
-6149 0 V
Z stroke
1.000 UP
1.000 UL
LTb
LCb setrgbcolor
stroke
grestore
end
showpage
%%Trailer
%%DocumentFonts: Helvetica
%%Pages: 1
