%!PS-Adobe-2.0
%%Title: packets-ip-ccdf-loglog.eps
%%Creator: gnuplot 5.0 patchlevel 3
%%CreationDate: Mon May 29 11:14:09 2017
%%DocumentFonts: (atend)
%%BoundingBox: 50 50 554 770
%%Orientation: Landscape
%%Pages: (atend)
%%EndComments
%%BeginProlog
/gnudict 256 dict def
gnudict begin
%
% The following true/false flags may be edited by hand if desired.
% The unit line width and grayscale image gamma correction may also be changed.
%
/Color true def
/Blacktext false def
/Solid false def
/Dashlength 1 def
/Landscape true def
/Level1 false def
/Level3 false def
/Rounded false def
/ClipToBoundingBox false def
/SuppressPDFMark false def
/TransparentPatterns false def
/gnulinewidth 5.000 def
/userlinewidth gnulinewidth def
/Gamma 1.0 def
/BackgroundColor {-1.000 -1.000 -1.000} def
%
/vshift -46 def
/dl1 {
  10.0 Dashlength userlinewidth gnulinewidth div mul mul mul
  Rounded { currentlinewidth 0.75 mul sub dup 0 le { pop 0.01 } if } if
} def
/dl2 {
  10.0 Dashlength userlinewidth gnulinewidth div mul mul mul
  Rounded { currentlinewidth 0.75 mul add } if
} def
/hpt_ 31.5 def
/vpt_ 31.5 def
/hpt hpt_ def
/vpt vpt_ def
/doclip {
  ClipToBoundingBox {
    newpath 50 50 moveto 554 50 lineto 554 770 lineto 50 770 lineto closepath
    clip
  } if
} def
%
% Gnuplot Prolog Version 5.1 (Oct 2015)
%
%/SuppressPDFMark true def
%
/M {moveto} bind def
/L {lineto} bind def
/R {rmoveto} bind def
/V {rlineto} bind def
/N {newpath moveto} bind def
/Z {closepath} bind def
/C {setrgbcolor} bind def
/f {rlineto fill} bind def
/g {setgray} bind def
/Gshow {show} def   % May be redefined later in the file to support UTF-8
/vpt2 vpt 2 mul def
/hpt2 hpt 2 mul def
/Lshow {currentpoint stroke M 0 vshift R 
	Blacktext {gsave 0 setgray textshow grestore} {textshow} ifelse} def
/Rshow {currentpoint stroke M dup stringwidth pop neg vshift R
	Blacktext {gsave 0 setgray textshow grestore} {textshow} ifelse} def
/Cshow {currentpoint stroke M dup stringwidth pop -2 div vshift R 
	Blacktext {gsave 0 setgray textshow grestore} {textshow} ifelse} def
/UP {dup vpt_ mul /vpt exch def hpt_ mul /hpt exch def
  /hpt2 hpt 2 mul def /vpt2 vpt 2 mul def} def
/DL {Color {setrgbcolor Solid {pop []} if 0 setdash}
 {pop pop pop 0 setgray Solid {pop []} if 0 setdash} ifelse} def
/BL {stroke userlinewidth 2 mul setlinewidth
	Rounded {1 setlinejoin 1 setlinecap} if} def
/AL {stroke userlinewidth 2 div setlinewidth
	Rounded {1 setlinejoin 1 setlinecap} if} def
/UL {dup gnulinewidth mul /userlinewidth exch def
	dup 1 lt {pop 1} if 10 mul /udl exch def} def
/PL {stroke userlinewidth setlinewidth
	Rounded {1 setlinejoin 1 setlinecap} if} def
3.8 setmiterlimit
% Classic Line colors (version 5.0)
/LCw {1 1 1} def
/LCb {0 0 0} def
/LCa {0 0 0} def
/LC0 {1 0 0} def
/LC1 {0 1 0} def
/LC2 {0 0 1} def
/LC3 {1 0 1} def
/LC4 {0 1 1} def
/LC5 {1 1 0} def
/LC6 {0 0 0} def
/LC7 {1 0.3 0} def
/LC8 {0.5 0.5 0.5} def
% Default dash patterns (version 5.0)
/LTB {BL [] LCb DL} def
/LTw {PL [] 1 setgray} def
/LTb {PL [] LCb DL} def
/LTa {AL [1 udl mul 2 udl mul] 0 setdash LCa setrgbcolor} def
/LT0 {PL [] LC0 DL} def
/LT1 {PL [2 dl1 3 dl2] LC1 DL} def
/LT2 {PL [1 dl1 1.5 dl2] LC2 DL} def
/LT3 {PL [6 dl1 2 dl2 1 dl1 2 dl2] LC3 DL} def
/LT4 {PL [1 dl1 2 dl2 6 dl1 2 dl2 1 dl1 2 dl2] LC4 DL} def
/LT5 {PL [4 dl1 2 dl2] LC5 DL} def
/LT6 {PL [1.5 dl1 1.5 dl2 1.5 dl1 1.5 dl2 1.5 dl1 6 dl2] LC6 DL} def
/LT7 {PL [3 dl1 3 dl2 1 dl1 3 dl2] LC7 DL} def
/LT8 {PL [2 dl1 2 dl2 2 dl1 6 dl2] LC8 DL} def
/SL {[] 0 setdash} def
/Pnt {stroke [] 0 setdash gsave 1 setlinecap M 0 0 V stroke grestore} def
/Dia {stroke [] 0 setdash 2 copy vpt add M
  hpt neg vpt neg V hpt vpt neg V
  hpt vpt V hpt neg vpt V closepath stroke
  Pnt} def
/Pls {stroke [] 0 setdash vpt sub M 0 vpt2 V
  currentpoint stroke M
  hpt neg vpt neg R hpt2 0 V stroke
 } def
/Box {stroke [] 0 setdash 2 copy exch hpt sub exch vpt add M
  0 vpt2 neg V hpt2 0 V 0 vpt2 V
  hpt2 neg 0 V closepath stroke
  Pnt} def
/Crs {stroke [] 0 setdash exch hpt sub exch vpt add M
  hpt2 vpt2 neg V currentpoint stroke M
  hpt2 neg 0 R hpt2 vpt2 V stroke} def
/TriU {stroke [] 0 setdash 2 copy vpt 1.12 mul add M
  hpt neg vpt -1.62 mul V
  hpt 2 mul 0 V
  hpt neg vpt 1.62 mul V closepath stroke
  Pnt} def
/Star {2 copy Pls Crs} def
/BoxF {stroke [] 0 setdash exch hpt sub exch vpt add M
  0 vpt2 neg V hpt2 0 V 0 vpt2 V
  hpt2 neg 0 V closepath fill} def
/TriUF {stroke [] 0 setdash vpt 1.12 mul add M
  hpt neg vpt -1.62 mul V
  hpt 2 mul 0 V
  hpt neg vpt 1.62 mul V closepath fill} def
/TriD {stroke [] 0 setdash 2 copy vpt 1.12 mul sub M
  hpt neg vpt 1.62 mul V
  hpt 2 mul 0 V
  hpt neg vpt -1.62 mul V closepath stroke
  Pnt} def
/TriDF {stroke [] 0 setdash vpt 1.12 mul sub M
  hpt neg vpt 1.62 mul V
  hpt 2 mul 0 V
  hpt neg vpt -1.62 mul V closepath fill} def
/DiaF {stroke [] 0 setdash vpt add M
  hpt neg vpt neg V hpt vpt neg V
  hpt vpt V hpt neg vpt V closepath fill} def
/Pent {stroke [] 0 setdash 2 copy gsave
  translate 0 hpt M 4 {72 rotate 0 hpt L} repeat
  closepath stroke grestore Pnt} def
/PentF {stroke [] 0 setdash gsave
  translate 0 hpt M 4 {72 rotate 0 hpt L} repeat
  closepath fill grestore} def
/Circle {stroke [] 0 setdash 2 copy
  hpt 0 360 arc stroke Pnt} def
/CircleF {stroke [] 0 setdash hpt 0 360 arc fill} def
/C0 {BL [] 0 setdash 2 copy moveto vpt 90 450 arc} bind def
/C1 {BL [] 0 setdash 2 copy moveto
	2 copy vpt 0 90 arc closepath fill
	vpt 0 360 arc closepath} bind def
/C2 {BL [] 0 setdash 2 copy moveto
	2 copy vpt 90 180 arc closepath fill
	vpt 0 360 arc closepath} bind def
/C3 {BL [] 0 setdash 2 copy moveto
	2 copy vpt 0 180 arc closepath fill
	vpt 0 360 arc closepath} bind def
/C4 {BL [] 0 setdash 2 copy moveto
	2 copy vpt 180 270 arc closepath fill
	vpt 0 360 arc closepath} bind def
/C5 {BL [] 0 setdash 2 copy moveto
	2 copy vpt 0 90 arc
	2 copy moveto
	2 copy vpt 180 270 arc closepath fill
	vpt 0 360 arc} bind def
/C6 {BL [] 0 setdash 2 copy moveto
	2 copy vpt 90 270 arc closepath fill
	vpt 0 360 arc closepath} bind def
/C7 {BL [] 0 setdash 2 copy moveto
	2 copy vpt 0 270 arc closepath fill
	vpt 0 360 arc closepath} bind def
/C8 {BL [] 0 setdash 2 copy moveto
	2 copy vpt 270 360 arc closepath fill
	vpt 0 360 arc closepath} bind def
/C9 {BL [] 0 setdash 2 copy moveto
	2 copy vpt 270 450 arc closepath fill
	vpt 0 360 arc closepath} bind def
/C10 {BL [] 0 setdash 2 copy 2 copy moveto vpt 270 360 arc closepath fill
	2 copy moveto
	2 copy vpt 90 180 arc closepath fill
	vpt 0 360 arc closepath} bind def
/C11 {BL [] 0 setdash 2 copy moveto
	2 copy vpt 0 180 arc closepath fill
	2 copy moveto
	2 copy vpt 270 360 arc closepath fill
	vpt 0 360 arc closepath} bind def
/C12 {BL [] 0 setdash 2 copy moveto
	2 copy vpt 180 360 arc closepath fill
	vpt 0 360 arc closepath} bind def
/C13 {BL [] 0 setdash 2 copy moveto
	2 copy vpt 0 90 arc closepath fill
	2 copy moveto
	2 copy vpt 180 360 arc closepath fill
	vpt 0 360 arc closepath} bind def
/C14 {BL [] 0 setdash 2 copy moveto
	2 copy vpt 90 360 arc closepath fill
	vpt 0 360 arc} bind def
/C15 {BL [] 0 setdash 2 copy vpt 0 360 arc closepath fill
	vpt 0 360 arc closepath} bind def
/Rec {newpath 4 2 roll moveto 1 index 0 rlineto 0 exch rlineto
	neg 0 rlineto closepath} bind def
/Square {dup Rec} bind def
/Bsquare {vpt sub exch vpt sub exch vpt2 Square} bind def
/S0 {BL [] 0 setdash 2 copy moveto 0 vpt rlineto BL Bsquare} bind def
/S1 {BL [] 0 setdash 2 copy vpt Square fill Bsquare} bind def
/S2 {BL [] 0 setdash 2 copy exch vpt sub exch vpt Square fill Bsquare} bind def
/S3 {BL [] 0 setdash 2 copy exch vpt sub exch vpt2 vpt Rec fill Bsquare} bind def
/S4 {BL [] 0 setdash 2 copy exch vpt sub exch vpt sub vpt Square fill Bsquare} bind def
/S5 {BL [] 0 setdash 2 copy 2 copy vpt Square fill
	exch vpt sub exch vpt sub vpt Square fill Bsquare} bind def
/S6 {BL [] 0 setdash 2 copy exch vpt sub exch vpt sub vpt vpt2 Rec fill Bsquare} bind def
/S7 {BL [] 0 setdash 2 copy exch vpt sub exch vpt sub vpt vpt2 Rec fill
	2 copy vpt Square fill Bsquare} bind def
/S8 {BL [] 0 setdash 2 copy vpt sub vpt Square fill Bsquare} bind def
/S9 {BL [] 0 setdash 2 copy vpt sub vpt vpt2 Rec fill Bsquare} bind def
/S10 {BL [] 0 setdash 2 copy vpt sub vpt Square fill 2 copy exch vpt sub exch vpt Square fill
	Bsquare} bind def
/S11 {BL [] 0 setdash 2 copy vpt sub vpt Square fill 2 copy exch vpt sub exch vpt2 vpt Rec fill
	Bsquare} bind def
/S12 {BL [] 0 setdash 2 copy exch vpt sub exch vpt sub vpt2 vpt Rec fill Bsquare} bind def
/S13 {BL [] 0 setdash 2 copy exch vpt sub exch vpt sub vpt2 vpt Rec fill
	2 copy vpt Square fill Bsquare} bind def
/S14 {BL [] 0 setdash 2 copy exch vpt sub exch vpt sub vpt2 vpt Rec fill
	2 copy exch vpt sub exch vpt Square fill Bsquare} bind def
/S15 {BL [] 0 setdash 2 copy Bsquare fill Bsquare} bind def
/D0 {gsave translate 45 rotate 0 0 S0 stroke grestore} bind def
/D1 {gsave translate 45 rotate 0 0 S1 stroke grestore} bind def
/D2 {gsave translate 45 rotate 0 0 S2 stroke grestore} bind def
/D3 {gsave translate 45 rotate 0 0 S3 stroke grestore} bind def
/D4 {gsave translate 45 rotate 0 0 S4 stroke grestore} bind def
/D5 {gsave translate 45 rotate 0 0 S5 stroke grestore} bind def
/D6 {gsave translate 45 rotate 0 0 S6 stroke grestore} bind def
/D7 {gsave translate 45 rotate 0 0 S7 stroke grestore} bind def
/D8 {gsave translate 45 rotate 0 0 S8 stroke grestore} bind def
/D9 {gsave translate 45 rotate 0 0 S9 stroke grestore} bind def
/D10 {gsave translate 45 rotate 0 0 S10 stroke grestore} bind def
/D11 {gsave translate 45 rotate 0 0 S11 stroke grestore} bind def
/D12 {gsave translate 45 rotate 0 0 S12 stroke grestore} bind def
/D13 {gsave translate 45 rotate 0 0 S13 stroke grestore} bind def
/D14 {gsave translate 45 rotate 0 0 S14 stroke grestore} bind def
/D15 {gsave translate 45 rotate 0 0 S15 stroke grestore} bind def
/DiaE {stroke [] 0 setdash vpt add M
  hpt neg vpt neg V hpt vpt neg V
  hpt vpt V hpt neg vpt V closepath stroke} def
/BoxE {stroke [] 0 setdash exch hpt sub exch vpt add M
  0 vpt2 neg V hpt2 0 V 0 vpt2 V
  hpt2 neg 0 V closepath stroke} def
/TriUE {stroke [] 0 setdash vpt 1.12 mul add M
  hpt neg vpt -1.62 mul V
  hpt 2 mul 0 V
  hpt neg vpt 1.62 mul V closepath stroke} def
/TriDE {stroke [] 0 setdash vpt 1.12 mul sub M
  hpt neg vpt 1.62 mul V
  hpt 2 mul 0 V
  hpt neg vpt -1.62 mul V closepath stroke} def
/PentE {stroke [] 0 setdash gsave
  translate 0 hpt M 4 {72 rotate 0 hpt L} repeat
  closepath stroke grestore} def
/CircE {stroke [] 0 setdash 
  hpt 0 360 arc stroke} def
/Opaque {gsave closepath 1 setgray fill grestore 0 setgray closepath} def
/DiaW {stroke [] 0 setdash vpt add M
  hpt neg vpt neg V hpt vpt neg V
  hpt vpt V hpt neg vpt V Opaque stroke} def
/BoxW {stroke [] 0 setdash exch hpt sub exch vpt add M
  0 vpt2 neg V hpt2 0 V 0 vpt2 V
  hpt2 neg 0 V Opaque stroke} def
/TriUW {stroke [] 0 setdash vpt 1.12 mul add M
  hpt neg vpt -1.62 mul V
  hpt 2 mul 0 V
  hpt neg vpt 1.62 mul V Opaque stroke} def
/TriDW {stroke [] 0 setdash vpt 1.12 mul sub M
  hpt neg vpt 1.62 mul V
  hpt 2 mul 0 V
  hpt neg vpt -1.62 mul V Opaque stroke} def
/PentW {stroke [] 0 setdash gsave
  translate 0 hpt M 4 {72 rotate 0 hpt L} repeat
  Opaque stroke grestore} def
/CircW {stroke [] 0 setdash 
  hpt 0 360 arc Opaque stroke} def
/BoxFill {gsave Rec 1 setgray fill grestore} def
/Density {
  /Fillden exch def
  currentrgbcolor
  /ColB exch def /ColG exch def /ColR exch def
  /ColR ColR Fillden mul Fillden sub 1 add def
  /ColG ColG Fillden mul Fillden sub 1 add def
  /ColB ColB Fillden mul Fillden sub 1 add def
  ColR ColG ColB setrgbcolor} def
/BoxColFill {gsave Rec PolyFill} def
/PolyFill {gsave Density fill grestore grestore} def
/h {rlineto rlineto rlineto gsave closepath fill grestore} bind def
%
% PostScript Level 1 Pattern Fill routine for rectangles
% Usage: x y w h s a XX PatternFill
%	x,y = lower left corner of box to be filled
%	w,h = width and height of box
%	  a = angle in degrees between lines and x-axis
%	 XX = 0/1 for no/yes cross-hatch
%
/PatternFill {gsave /PFa [ 9 2 roll ] def
  PFa 0 get PFa 2 get 2 div add PFa 1 get PFa 3 get 2 div add translate
  PFa 2 get -2 div PFa 3 get -2 div PFa 2 get PFa 3 get Rec
  TransparentPatterns {} {gsave 1 setgray fill grestore} ifelse
  clip
  currentlinewidth 0.5 mul setlinewidth
  /PFs PFa 2 get dup mul PFa 3 get dup mul add sqrt def
  0 0 M PFa 5 get rotate PFs -2 div dup translate
  0 1 PFs PFa 4 get div 1 add floor cvi
	{PFa 4 get mul 0 M 0 PFs V} for
  0 PFa 6 get ne {
	0 1 PFs PFa 4 get div 1 add floor cvi
	{PFa 4 get mul 0 2 1 roll M PFs 0 V} for
 } if
  stroke grestore} def
%
/languagelevel where
 {pop languagelevel} {1} ifelse
dup 2 lt
	{/InterpretLevel1 true def
	 /InterpretLevel3 false def}
	{/InterpretLevel1 Level1 def
	 2 gt
	    {/InterpretLevel3 Level3 def}
	    {/InterpretLevel3 false def}
	 ifelse }
 ifelse
%
% PostScript level 2 pattern fill definitions
%
/Level2PatternFill {
/Tile8x8 {/PaintType 2 /PatternType 1 /TilingType 1 /BBox [0 0 8 8] /XStep 8 /YStep 8}
	bind def
/KeepColor {currentrgbcolor [/Pattern /DeviceRGB] setcolorspace} bind def
<< Tile8x8
 /PaintProc {0.5 setlinewidth pop 0 0 M 8 8 L 0 8 M 8 0 L stroke} 
>> matrix makepattern
/Pat1 exch def
<< Tile8x8
 /PaintProc {0.5 setlinewidth pop 0 0 M 8 8 L 0 8 M 8 0 L stroke
	0 4 M 4 8 L 8 4 L 4 0 L 0 4 L stroke}
>> matrix makepattern
/Pat2 exch def
<< Tile8x8
 /PaintProc {0.5 setlinewidth pop 0 0 M 0 8 L
	8 8 L 8 0 L 0 0 L fill}
>> matrix makepattern
/Pat3 exch def
<< Tile8x8
 /PaintProc {0.5 setlinewidth pop -4 8 M 8 -4 L
	0 12 M 12 0 L stroke}
>> matrix makepattern
/Pat4 exch def
<< Tile8x8
 /PaintProc {0.5 setlinewidth pop -4 0 M 8 12 L
	0 -4 M 12 8 L stroke}
>> matrix makepattern
/Pat5 exch def
<< Tile8x8
 /PaintProc {0.5 setlinewidth pop -2 8 M 4 -4 L
	0 12 M 8 -4 L 4 12 M 10 0 L stroke}
>> matrix makepattern
/Pat6 exch def
<< Tile8x8
 /PaintProc {0.5 setlinewidth pop -2 0 M 4 12 L
	0 -4 M 8 12 L 4 -4 M 10 8 L stroke}
>> matrix makepattern
/Pat7 exch def
<< Tile8x8
 /PaintProc {0.5 setlinewidth pop 8 -2 M -4 4 L
	12 0 M -4 8 L 12 4 M 0 10 L stroke}
>> matrix makepattern
/Pat8 exch def
<< Tile8x8
 /PaintProc {0.5 setlinewidth pop 0 -2 M 12 4 L
	-4 0 M 12 8 L -4 4 M 8 10 L stroke}
>> matrix makepattern
/Pat9 exch def
/Pattern1 {PatternBgnd KeepColor Pat1 setpattern} bind def
/Pattern2 {PatternBgnd KeepColor Pat2 setpattern} bind def
/Pattern3 {PatternBgnd KeepColor Pat3 setpattern} bind def
/Pattern4 {PatternBgnd KeepColor Landscape {Pat5} {Pat4} ifelse setpattern} bind def
/Pattern5 {PatternBgnd KeepColor Landscape {Pat4} {Pat5} ifelse setpattern} bind def
/Pattern6 {PatternBgnd KeepColor Landscape {Pat9} {Pat6} ifelse setpattern} bind def
/Pattern7 {PatternBgnd KeepColor Landscape {Pat8} {Pat7} ifelse setpattern} bind def
} def
%
%
%End of PostScript Level 2 code
%
/PatternBgnd {
  TransparentPatterns {} {gsave 1 setgray fill grestore} ifelse
} def
%
% Substitute for Level 2 pattern fill codes with
% grayscale if Level 2 support is not selected.
%
/Level1PatternFill {
/Pattern1 {0.250 Density} bind def
/Pattern2 {0.500 Density} bind def
/Pattern3 {0.750 Density} bind def
/Pattern4 {0.125 Density} bind def
/Pattern5 {0.375 Density} bind def
/Pattern6 {0.625 Density} bind def
/Pattern7 {0.875 Density} bind def
} def
%
% Now test for support of Level 2 code
%
Level1 {Level1PatternFill} {Level2PatternFill} ifelse
%
/Symbol-Oblique /Symbol findfont [1 0 .167 1 0 0] makefont
dup length dict begin {1 index /FID eq {pop pop} {def} ifelse} forall
currentdict end definefont pop
%
/MFshow {
   { dup 5 get 3 ge
     { 5 get 3 eq {gsave} {grestore} ifelse }
     {dup dup 0 get findfont exch 1 get scalefont setfont
     [ currentpoint ] exch dup 2 get 0 exch R dup 5 get 2 ne {dup dup 6
     get exch 4 get {textshow} {stringwidth pop 0 R} ifelse }if dup 5 get 0 eq
     {dup 3 get {2 get neg 0 exch R pop} {pop aload pop M} ifelse} {dup 5
     get 1 eq {dup 2 get exch dup 3 get exch 6 get stringwidth pop -2 div
     dup 0 R} {dup 6 get stringwidth pop -2 div 0 R 6 get
     textshow 2 index {aload pop M neg 3 -1 roll neg R pop pop} {pop pop pop
     pop aload pop M} ifelse }ifelse }ifelse }
     ifelse }
   forall} def
/Gswidth {dup type /stringtype eq {stringwidth} {pop (n) stringwidth} ifelse} def
/MFwidth {0 exch { dup 5 get 3 ge { 5 get 3 eq { 0 } { pop } ifelse }
 {dup 3 get{dup dup 0 get findfont exch 1 get scalefont setfont
     6 get Gswidth pop add} {pop} ifelse} ifelse} forall} def
/MLshow { currentpoint stroke M
  0 exch R
  Blacktext {gsave 0 setgray MFshow grestore} {MFshow} ifelse } bind def
/MRshow { currentpoint stroke M
  exch dup MFwidth neg 3 -1 roll R
  Blacktext {gsave 0 setgray MFshow grestore} {MFshow} ifelse } bind def
/MCshow { currentpoint stroke M
  exch dup MFwidth -2 div 3 -1 roll R
  Blacktext {gsave 0 setgray MFshow grestore} {MFshow} ifelse } bind def
/XYsave    { [( ) 1 2 true false 3 ()] } bind def
/XYrestore { [( ) 1 2 true false 4 ()] } bind def
Level1 SuppressPDFMark or 
{} {
/SDict 10 dict def
systemdict /pdfmark known not {
  userdict /pdfmark systemdict /cleartomark get put
} if
SDict begin [
  /Title (packets-ip-ccdf-loglog.eps)
  /Subject (gnuplot plot)
  /Creator (gnuplot 5.0 patchlevel 3)
  /Author (tiphaine)
%  /Producer (gnuplot)
%  /Keywords ()
  /CreationDate (Mon May 29 11:14:09 2017)
  /DOCINFO pdfmark
end
} ifelse
%
% Support for boxed text - Ethan A Merritt May 2005
%
/InitTextBox { userdict /TBy2 3 -1 roll put userdict /TBx2 3 -1 roll put
           userdict /TBy1 3 -1 roll put userdict /TBx1 3 -1 roll put
	   /Boxing true def } def
/ExtendTextBox { Boxing
    { gsave dup false charpath pathbbox
      dup TBy2 gt {userdict /TBy2 3 -1 roll put} {pop} ifelse
      dup TBx2 gt {userdict /TBx2 3 -1 roll put} {pop} ifelse
      dup TBy1 lt {userdict /TBy1 3 -1 roll put} {pop} ifelse
      dup TBx1 lt {userdict /TBx1 3 -1 roll put} {pop} ifelse
      grestore } if } def
/PopTextBox { newpath TBx1 TBxmargin sub TBy1 TBymargin sub M
               TBx1 TBxmargin sub TBy2 TBymargin add L
	       TBx2 TBxmargin add TBy2 TBymargin add L
	       TBx2 TBxmargin add TBy1 TBymargin sub L closepath } def
/DrawTextBox { PopTextBox stroke /Boxing false def} def
/FillTextBox { gsave PopTextBox 1 1 1 setrgbcolor fill grestore /Boxing false def} def
0 0 0 0 InitTextBox
/TBxmargin 20 def
/TBymargin 20 def
/Boxing false def
/textshow { ExtendTextBox Gshow } def
%
% redundant definitions for compatibility with prologue.ps older than 5.0.2
/LTB {BL [] LCb DL} def
/LTb {PL [] LCb DL} def
end
%%EndProlog
%%Page: 1 1
gnudict begin
gsave
doclip
50 50 translate
0.100 0.100 scale
90 rotate
0 -5040 translate
0 setgray
newpath
(Helvetica) findfont 140 scalefont setfont
BackgroundColor 0 lt 3 1 roll 0 lt exch 0 lt or or not {gsave BackgroundColor C clippath fill grestore} if
1.000 UL
LTb
LCb setrgbcolor
966 280 M
63 0 V
5918 0 R
-63 0 V
stroke
882 280 M
[ [(Helvetica) 140.0 0.0 true true 0 (0.0000010)]
] -46.7 MRshow
1.000 UL
LTb
LCb setrgbcolor
966 510 M
31 0 V
5950 0 R
-31 0 V
966 815 M
31 0 V
5950 0 R
-31 0 V
966 971 M
31 0 V
5950 0 R
-31 0 V
966 1045 M
63 0 V
5918 0 R
-63 0 V
stroke
882 1045 M
[ [(Helvetica) 140.0 0.0 true true 0 (0.0000100)]
] -46.7 MRshow
1.000 UL
LTb
LCb setrgbcolor
966 1276 M
31 0 V
5950 0 R
-31 0 V
966 1580 M
31 0 V
5950 0 R
-31 0 V
966 1736 M
31 0 V
5950 0 R
-31 0 V
966 1810 M
63 0 V
5918 0 R
-63 0 V
stroke
882 1810 M
[ [(Helvetica) 140.0 0.0 true true 0 (0.0001000)]
] -46.7 MRshow
1.000 UL
LTb
LCb setrgbcolor
966 2041 M
31 0 V
5950 0 R
-31 0 V
966 2345 M
31 0 V
5950 0 R
-31 0 V
966 2501 M
31 0 V
5950 0 R
-31 0 V
966 2576 M
63 0 V
5918 0 R
-63 0 V
stroke
882 2576 M
[ [(Helvetica) 140.0 0.0 true true 0 (0.0010000)]
] -46.7 MRshow
1.000 UL
LTb
LCb setrgbcolor
966 2806 M
31 0 V
5950 0 R
-31 0 V
966 3110 M
31 0 V
5950 0 R
-31 0 V
966 3267 M
31 0 V
5950 0 R
-31 0 V
966 3341 M
63 0 V
5918 0 R
-63 0 V
stroke
882 3341 M
[ [(Helvetica) 140.0 0.0 true true 0 (0.0100000)]
] -46.7 MRshow
1.000 UL
LTb
LCb setrgbcolor
966 3571 M
31 0 V
5950 0 R
-31 0 V
966 3875 M
31 0 V
5950 0 R
-31 0 V
966 4032 M
31 0 V
5950 0 R
-31 0 V
966 4106 M
63 0 V
5918 0 R
-63 0 V
stroke
882 4106 M
[ [(Helvetica) 140.0 0.0 true true 0 (0.1000000)]
] -46.7 MRshow
1.000 UL
LTb
LCb setrgbcolor
966 4336 M
31 0 V
5950 0 R
-31 0 V
966 4641 M
31 0 V
5950 0 R
-31 0 V
966 4797 M
31 0 V
5950 0 R
-31 0 V
966 4871 M
63 0 V
5918 0 R
-63 0 V
stroke
882 4871 M
[ [(Helvetica) 140.0 0.0 true true 0 (1.0000000)]
] -46.7 MRshow
1.000 UL
LTb
LCb setrgbcolor
966 280 M
0 63 V
0 4528 R
0 -63 V
stroke
966 140 M
[ [(Helvetica) 140.0 0.0 true true 0 ( 1)]
] -46.7 MCshow
1.000 UL
LTb
LCb setrgbcolor
1191 280 M
0 31 V
0 4560 R
0 -31 V
1489 280 M
0 31 V
0 4560 R
0 -31 V
1641 280 M
0 31 V
0 4560 R
0 -31 V
1714 280 M
0 63 V
0 4528 R
0 -63 V
stroke
1714 140 M
[ [(Helvetica) 140.0 0.0 true true 0 ( 10)]
] -46.7 MCshow
1.000 UL
LTb
LCb setrgbcolor
1939 280 M
0 31 V
0 4560 R
0 -31 V
2236 280 M
0 31 V
0 4560 R
0 -31 V
2389 280 M
0 31 V
0 4560 R
0 -31 V
2461 280 M
0 63 V
0 4528 R
0 -63 V
stroke
2461 140 M
[ [(Helvetica) 140.0 0.0 true true 0 ( 100)]
] -46.7 MCshow
1.000 UL
LTb
LCb setrgbcolor
2686 280 M
0 31 V
0 4560 R
0 -31 V
2984 280 M
0 31 V
0 4560 R
0 -31 V
3136 280 M
0 31 V
0 4560 R
0 -31 V
3209 280 M
0 63 V
0 4528 R
0 -63 V
stroke
3209 140 M
[ [(Helvetica) 140.0 0.0 true true 0 ( 1000)]
] -46.7 MCshow
1.000 UL
LTb
LCb setrgbcolor
3434 280 M
0 31 V
0 4560 R
0 -31 V
3731 280 M
0 31 V
0 4560 R
0 -31 V
3884 280 M
0 31 V
0 4560 R
0 -31 V
3957 280 M
0 63 V
0 4528 R
0 -63 V
stroke
3957 140 M
[ [(Helvetica) 140.0 0.0 true true 0 ( 10000)]
] -46.7 MCshow
1.000 UL
LTb
LCb setrgbcolor
4182 280 M
0 31 V
0 4560 R
0 -31 V
4479 280 M
0 31 V
0 4560 R
0 -31 V
4632 280 M
0 31 V
0 4560 R
0 -31 V
4704 280 M
0 63 V
0 4528 R
0 -63 V
stroke
4704 140 M
[ [(Helvetica) 140.0 0.0 true true 0 ( 100000)]
] -46.7 MCshow
1.000 UL
LTb
LCb setrgbcolor
4929 280 M
0 31 V
0 4560 R
0 -31 V
5227 280 M
0 31 V
0 4560 R
0 -31 V
5379 280 M
0 31 V
0 4560 R
0 -31 V
5452 280 M
0 63 V
0 4528 R
0 -63 V
stroke
5452 140 M
[ [(Helvetica) 140.0 0.0 true true 0 ( 1x10)]
[(Helvetica) 112.0 70.0 true true 0 (6)]
] -60.7 MCshow
1.000 UL
LTb
LCb setrgbcolor
5677 280 M
0 31 V
0 4560 R
0 -31 V
5974 280 M
0 31 V
0 4560 R
0 -31 V
6127 280 M
0 31 V
0 4560 R
0 -31 V
6199 280 M
0 63 V
0 4528 R
0 -63 V
stroke
6199 140 M
[ [(Helvetica) 140.0 0.0 true true 0 ( 1x10)]
[(Helvetica) 112.0 70.0 true true 0 (7)]
] -60.7 MCshow
1.000 UL
LTb
LCb setrgbcolor
6424 280 M
0 31 V
0 4560 R
0 -31 V
6722 280 M
0 31 V
0 4560 R
0 -31 V
6875 280 M
0 31 V
0 4560 R
0 -31 V
6947 280 M
0 63 V
0 4528 R
0 -63 V
stroke
6947 140 M
[ [(Helvetica) 140.0 0.0 true true 0 ( 1x10)]
[(Helvetica) 112.0 70.0 true true 0 (8)]
] -60.7 MCshow
1.000 UL
LTb
LCb setrgbcolor
1.000 UL
LTB
LCb setrgbcolor
966 4871 N
966 280 L
5981 0 V
0 4591 V
-5981 0 V
Z stroke
1.000 UP
1.000 UL
LTb
LCb setrgbcolor
% Begin plot #1
1.000 UP
1.000 UL
LTb
0.58 0.00 0.83 C 966 4871 Pls
1191 4748 Pls
1323 4665 Pls
1416 4616 Pls
1489 4558 Pls
1548 4517 Pls
1598 4474 Pls
1641 4442 Pls
1679 4405 Pls
1714 4376 Pls
1745 4344 Pls
1773 4318 Pls
1799 4289 Pls
1823 4264 Pls
1845 4238 Pls
1866 4213 Pls
1886 4184 Pls
1904 4159 Pls
1922 4132 Pls
1939 4108 Pls
1955 4084 Pls
1970 4066 Pls
1984 4047 Pls
1998 4032 Pls
2011 4015 Pls
2024 4003 Pls
2036 3990 Pls
2048 3979 Pls
2059 3968 Pls
2070 3959 Pls
2081 3947 Pls
2091 3940 Pls
2101 3932 Pls
2111 3926 Pls
2120 3918 Pls
2130 3912 Pls
2138 3904 Pls
2147 3899 Pls
2156 3893 Pls
2164 3888 Pls
2172 3881 Pls
2180 3877 Pls
2187 3872 Pls
2195 3868 Pls
2202 3863 Pls
2209 3858 Pls
2216 3854 Pls
2223 3846 Pls
2230 3840 Pls
2236 3833 Pls
2243 3827 Pls
2249 3823 Pls
2255 3818 Pls
2261 3814 Pls
2267 3810 Pls
2273 3806 Pls
2279 3802 Pls
2284 3799 Pls
2290 3796 Pls
2295 3793 Pls
2301 3788 Pls
2306 3785 Pls
2311 3782 Pls
2316 3779 Pls
2321 3776 Pls
2326 3773 Pls
2331 3770 Pls
2336 3767 Pls
2341 3765 Pls
2345 3762 Pls
2350 3759 Pls
2355 3757 Pls
2359 3754 Pls
2363 3752 Pls
2368 3750 Pls
2372 3747 Pls
2376 3745 Pls
2381 3743 Pls
2385 3739 Pls
2389 3736 Pls
2393 3734 Pls
2397 3732 Pls
2401 3730 Pls
2405 3728 Pls
2408 3726 Pls
2412 3723 Pls
2416 3721 Pls
2420 3720 Pls
2423 3718 Pls
2427 3716 Pls
2431 3713 Pls
2434 3712 Pls
2438 3710 Pls
2441 3707 Pls
2445 3705 Pls
2448 3703 Pls
2451 3700 Pls
2455 3698 Pls
2458 3696 Pls
2461 3694 Pls
2464 3685 Pls
2468 3684 Pls
2471 3682 Pls
2474 3680 Pls
2477 3678 Pls
2480 3677 Pls
2483 3675 Pls
2486 3673 Pls
2489 3671 Pls
2492 3669 Pls
2495 3667 Pls
2498 3665 Pls
2501 3663 Pls
2504 3661 Pls
2507 3660 Pls
2509 3658 Pls
2512 3656 Pls
2515 3655 Pls
2518 3653 Pls
2520 3652 Pls
2523 3649 Pls
2526 3647 Pls
2528 3645 Pls
2531 3644 Pls
2534 3642 Pls
2536 3640 Pls
2539 3639 Pls
2541 3638 Pls
2544 3636 Pls
2546 3634 Pls
2549 3633 Pls
2551 3631 Pls
2554 3629 Pls
2556 3628 Pls
2559 3626 Pls
2561 3625 Pls
2563 3623 Pls
2566 3622 Pls
2568 3621 Pls
2570 3619 Pls
2573 3618 Pls
2575 3616 Pls
2577 3615 Pls
2580 3613 Pls
2582 3611 Pls
2584 3610 Pls
2586 3609 Pls
2589 3607 Pls
2591 3606 Pls
2593 3605 Pls
2595 3603 Pls
2597 3602 Pls
2599 3601 Pls
2601 3599 Pls
2604 3598 Pls
2606 3597 Pls
2608 3596 Pls
2610 3595 Pls
2612 3593 Pls
2614 3592 Pls
2616 3591 Pls
2618 3590 Pls
2620 3589 Pls
2622 3587 Pls
2624 3586 Pls
2626 3585 Pls
2628 3584 Pls
2630 3583 Pls
2632 3582 Pls
2634 3580 Pls
2635 3579 Pls
2637 3578 Pls
2639 3577 Pls
2641 3575 Pls
2643 3574 Pls
2645 3573 Pls
2647 3572 Pls
2648 3570 Pls
2650 3569 Pls
2652 3567 Pls
2654 3565 Pls
2656 3563 Pls
2657 3562 Pls
2659 3560 Pls
2661 3559 Pls
2663 3558 Pls
2664 3557 Pls
2666 3556 Pls
2668 3555 Pls
2670 3554 Pls
2671 3552 Pls
2673 3551 Pls
2675 3550 Pls
2676 3550 Pls
2678 3549 Pls
2680 3548 Pls
2681 3547 Pls
2683 3546 Pls
2685 3545 Pls
2686 3544 Pls
2688 3543 Pls
2690 3542 Pls
2691 3540 Pls
2693 3539 Pls
2694 3539 Pls
2696 3537 Pls
2697 3536 Pls
2699 3535 Pls
2701 3534 Pls
2702 3533 Pls
2704 3531 Pls
2705 3530 Pls
2707 3529 Pls
2708 3528 Pls
2710 3527 Pls
2711 3526 Pls
2713 3525 Pls
2714 3524 Pls
2716 3523 Pls
2717 3522 Pls
2719 3521 Pls
2720 3520 Pls
2722 3519 Pls
2723 3519 Pls
2725 3518 Pls
2726 3517 Pls
2727 3516 Pls
2729 3515 Pls
2730 3514 Pls
2732 3513 Pls
2733 3512 Pls
2734 3512 Pls
2736 3511 Pls
2737 3510 Pls
2739 3509 Pls
2740 3508 Pls
2741 3507 Pls
2743 3506 Pls
2744 3505 Pls
2746 3504 Pls
2747 3503 Pls
2748 3502 Pls
2750 3501 Pls
2751 3500 Pls
2752 3500 Pls
2754 3499 Pls
2755 3498 Pls
2756 3497 Pls
2757 3496 Pls
2759 3496 Pls
2760 3495 Pls
2761 3494 Pls
2763 3493 Pls
2764 3492 Pls
2765 3492 Pls
2766 3491 Pls
2768 3490 Pls
2769 3490 Pls
2770 3489 Pls
2771 3488 Pls
2773 3487 Pls
2774 3486 Pls
2775 3486 Pls
2776 3485 Pls
2778 3484 Pls
2779 3483 Pls
2780 3483 Pls
2781 3482 Pls
2783 3481 Pls
2784 3480 Pls
2785 3480 Pls
2786 3479 Pls
2787 3478 Pls
2789 3477 Pls
2790 3477 Pls
2791 3476 Pls
2792 3475 Pls
2793 3474 Pls
2794 3474 Pls
2796 3473 Pls
2797 3472 Pls
2798 3472 Pls
2799 3471 Pls
2800 3470 Pls
2801 3470 Pls
2802 3469 Pls
2804 3468 Pls
2805 3467 Pls
2806 3467 Pls
2807 3466 Pls
2808 3465 Pls
2809 3465 Pls
2810 3464 Pls
2811 3464 Pls
2813 3463 Pls
2814 3463 Pls
2815 3462 Pls
2816 3461 Pls
2817 3461 Pls
2818 3460 Pls
2819 3459 Pls
2820 3458 Pls
2821 3458 Pls
2822 3457 Pls
2823 3456 Pls
2824 3456 Pls
2825 3455 Pls
2827 3454 Pls
2828 3454 Pls
2829 3453 Pls
2830 3452 Pls
2831 3451 Pls
2832 3451 Pls
2833 3450 Pls
2834 3449 Pls
2835 3448 Pls
2836 3448 Pls
2837 3447 Pls
2838 3447 Pls
2839 3446 Pls
2840 3446 Pls
2841 3445 Pls
2842 3445 Pls
2843 3445 Pls
2844 3444 Pls
2845 3443 Pls
2846 3443 Pls
2847 3442 Pls
2848 3441 Pls
2849 3441 Pls
2850 3440 Pls
2851 3440 Pls
2852 3440 Pls
2853 3439 Pls
2854 3439 Pls
2855 3438 Pls
2856 3438 Pls
2857 3437 Pls
2858 3437 Pls
2859 3436 Pls
2860 3436 Pls
2861 3435 Pls
2861 3434 Pls
2862 3434 Pls
2863 3434 Pls
2864 3433 Pls
2865 3432 Pls
2866 3432 Pls
2867 3431 Pls
2868 3431 Pls
2869 3430 Pls
2870 3429 Pls
2871 3428 Pls
2872 3428 Pls
2873 3427 Pls
2874 3427 Pls
2874 3426 Pls
2875 3426 Pls
2876 3425 Pls
2877 3424 Pls
2878 3424 Pls
2879 3423 Pls
2880 3423 Pls
2881 3422 Pls
2882 3422 Pls
2883 3421 Pls
2883 3421 Pls
2884 3420 Pls
2885 3420 Pls
2886 3419 Pls
2887 3419 Pls
2888 3418 Pls
2889 3417 Pls
2890 3417 Pls
2890 3416 Pls
2891 3416 Pls
2892 3415 Pls
2893 3415 Pls
2894 3415 Pls
2895 3414 Pls
2896 3414 Pls
2896 3413 Pls
2897 3413 Pls
2898 3413 Pls
2899 3412 Pls
2900 3412 Pls
2901 3411 Pls
2901 3411 Pls
2902 3411 Pls
2903 3410 Pls
2904 3410 Pls
2905 3410 Pls
2906 3409 Pls
2906 3409 Pls
2907 3408 Pls
2908 3408 Pls
2909 3408 Pls
2910 3407 Pls
2911 3407 Pls
2911 3406 Pls
2912 3406 Pls
2913 3405 Pls
2914 3405 Pls
2915 3404 Pls
2915 3404 Pls
2916 3403 Pls
2917 3403 Pls
2918 3402 Pls
2919 3402 Pls
2919 3402 Pls
2920 3401 Pls
2921 3401 Pls
2922 3400 Pls
2923 3400 Pls
2923 3399 Pls
2924 3399 Pls
2925 3399 Pls
2926 3398 Pls
2926 3398 Pls
2927 3397 Pls
2928 3397 Pls
2929 3397 Pls
2930 3396 Pls
2930 3396 Pls
2931 3396 Pls
2932 3395 Pls
2933 3395 Pls
2933 3394 Pls
2934 3394 Pls
2935 3394 Pls
2936 3393 Pls
2936 3393 Pls
2937 3392 Pls
2938 3392 Pls
2939 3391 Pls
2939 3391 Pls
2940 3391 Pls
2941 3390 Pls
2942 3390 Pls
2942 3389 Pls
2943 3389 Pls
2944 3389 Pls
2945 3388 Pls
2945 3388 Pls
2946 3387 Pls
2947 3387 Pls
2947 3386 Pls
2948 3386 Pls
2949 3385 Pls
2950 3385 Pls
2950 3384 Pls
2951 3384 Pls
2952 3383 Pls
2952 3383 Pls
2953 3383 Pls
2954 3382 Pls
2955 3382 Pls
2955 3381 Pls
2956 3381 Pls
2957 3381 Pls
2957 3380 Pls
2958 3380 Pls
2959 3379 Pls
2960 3379 Pls
2960 3379 Pls
2961 3378 Pls
2962 3378 Pls
2962 3378 Pls
2963 3377 Pls
2964 3376 Pls
2964 3376 Pls
2965 3376 Pls
2966 3375 Pls
2966 3375 Pls
2967 3374 Pls
2968 3374 Pls
2969 3373 Pls
2969 3373 Pls
2970 3373 Pls
2971 3372 Pls
2971 3372 Pls
2972 3371 Pls
2973 3371 Pls
2973 3370 Pls
2974 3370 Pls
2975 3370 Pls
2975 3369 Pls
2976 3369 Pls
2977 3368 Pls
2977 3368 Pls
2978 3368 Pls
2979 3368 Pls
2979 3367 Pls
2980 3367 Pls
2981 3366 Pls
2981 3366 Pls
2982 3366 Pls
2983 3365 Pls
2983 3365 Pls
2984 3364 Pls
2984 3364 Pls
2985 3363 Pls
2986 3363 Pls
2986 3363 Pls
2987 3362 Pls
2988 3362 Pls
2988 3362 Pls
2989 3361 Pls
2990 3361 Pls
2990 3361 Pls
2991 3360 Pls
2992 3360 Pls
2992 3359 Pls
2993 3359 Pls
2993 3359 Pls
2994 3358 Pls
2995 3358 Pls
2995 3358 Pls
2996 3357 Pls
2997 3357 Pls
2997 3357 Pls
2998 3356 Pls
2998 3356 Pls
2999 3355 Pls
3000 3355 Pls
3000 3355 Pls
3001 3354 Pls
3002 3354 Pls
3002 3353 Pls
3003 3353 Pls
3003 3353 Pls
3004 3352 Pls
3005 3352 Pls
3005 3352 Pls
3006 3351 Pls
3006 3351 Pls
3007 3351 Pls
3008 3350 Pls
3008 3350 Pls
3009 3349 Pls
3009 3349 Pls
3010 3348 Pls
3011 3348 Pls
3011 3348 Pls
3012 3347 Pls
3012 3347 Pls
3013 3346 Pls
3014 3346 Pls
3014 3346 Pls
3015 3345 Pls
3015 3345 Pls
3016 3344 Pls
3017 3344 Pls
3017 3344 Pls
3018 3344 Pls
3018 3343 Pls
3019 3343 Pls
3019 3342 Pls
3020 3342 Pls
3021 3342 Pls
3021 3341 Pls
3022 3341 Pls
3022 3340 Pls
3023 3340 Pls
3024 3339 Pls
3024 3339 Pls
3025 3339 Pls
3025 3339 Pls
3026 3338 Pls
3026 3338 Pls
3027 3337 Pls
3027 3337 Pls
3028 3336 Pls
3029 3336 Pls
3029 3336 Pls
3030 3336 Pls
3030 3335 Pls
3031 3335 Pls
3031 3335 Pls
3032 3335 Pls
3033 3334 Pls
3033 3334 Pls
3034 3334 Pls
3034 3334 Pls
3035 3333 Pls
3035 3333 Pls
3036 3333 Pls
3036 3333 Pls
3037 3332 Pls
3038 3332 Pls
3038 3332 Pls
3039 3331 Pls
3039 3331 Pls
3040 3331 Pls
3040 3331 Pls
3041 3330 Pls
3041 3330 Pls
3042 3329 Pls
3042 3329 Pls
3043 3329 Pls
3044 3328 Pls
3044 3328 Pls
3045 3328 Pls
3045 3328 Pls
3046 3327 Pls
3046 3327 Pls
3047 3326 Pls
3047 3326 Pls
3048 3326 Pls
3048 3325 Pls
3049 3325 Pls
3049 3325 Pls
3050 3325 Pls
3051 3324 Pls
3051 3324 Pls
3052 3323 Pls
3052 3323 Pls
3053 3323 Pls
3053 3323 Pls
3054 3322 Pls
3054 3322 Pls
3055 3322 Pls
3055 3321 Pls
3056 3321 Pls
3056 3320 Pls
3057 3320 Pls
3057 3320 Pls
3058 3319 Pls
3058 3318 Pls
3059 3318 Pls
3059 3318 Pls
3060 3317 Pls
3060 3317 Pls
3061 3316 Pls
3061 3315 Pls
3062 3315 Pls
3062 3314 Pls
3063 3314 Pls
3063 3313 Pls
3064 3313 Pls
3064 3312 Pls
3065 3311 Pls
3065 3311 Pls
3066 3310 Pls
3066 3310 Pls
3067 3309 Pls
3068 3308 Pls
3068 3308 Pls
3069 3307 Pls
3069 3307 Pls
3070 3306 Pls
3070 3305 Pls
3070 3304 Pls
3071 3304 Pls
3071 3303 Pls
3072 3303 Pls
3072 3302 Pls
3073 3301 Pls
3073 3300 Pls
3074 3300 Pls
3074 3299 Pls
3075 3299 Pls
3075 3298 Pls
3076 3298 Pls
3076 3297 Pls
3077 3296 Pls
3077 3296 Pls
3078 3295 Pls
3078 3295 Pls
3079 3294 Pls
3079 3293 Pls
3080 3293 Pls
3080 3292 Pls
3081 3292 Pls
3081 3291 Pls
3082 3291 Pls
3082 3291 Pls
3083 3290 Pls
3083 3289 Pls
3084 3289 Pls
3084 3288 Pls
3085 3288 Pls
3085 3287 Pls
3086 3287 Pls
3086 3286 Pls
3087 3285 Pls
3087 3285 Pls
3087 3284 Pls
3088 3284 Pls
3088 3283 Pls
3089 3283 Pls
3089 3283 Pls
3090 3282 Pls
3090 3282 Pls
3091 3281 Pls
3091 3281 Pls
3092 3280 Pls
3092 3280 Pls
3093 3279 Pls
3093 3279 Pls
3094 3279 Pls
3094 3278 Pls
3094 3278 Pls
3095 3277 Pls
3095 3277 Pls
3096 3276 Pls
3096 3276 Pls
3097 3276 Pls
3097 3275 Pls
3098 3275 Pls
3098 3275 Pls
3099 3274 Pls
3099 3274 Pls
3099 3274 Pls
3100 3273 Pls
3100 3272 Pls
3101 3272 Pls
3101 3272 Pls
3102 3272 Pls
3102 3271 Pls
3103 3271 Pls
3103 3270 Pls
3104 3270 Pls
3104 3269 Pls
3104 3269 Pls
3105 3268 Pls
3105 3268 Pls
3106 3268 Pls
3106 3267 Pls
3107 3267 Pls
3107 3267 Pls
3108 3266 Pls
3108 3266 Pls
3108 3266 Pls
3109 3265 Pls
3109 3265 Pls
3110 3264 Pls
3110 3264 Pls
3111 3263 Pls
3111 3263 Pls
3112 3263 Pls
3112 3263 Pls
3112 3262 Pls
3113 3262 Pls
3113 3261 Pls
3114 3261 Pls
3114 3261 Pls
3115 3260 Pls
3115 3260 Pls
3115 3259 Pls
3116 3259 Pls
3116 3259 Pls
3117 3259 Pls
3117 3258 Pls
3118 3258 Pls
3118 3257 Pls
3118 3257 Pls
3119 3256 Pls
3119 3256 Pls
3120 3256 Pls
3120 3255 Pls
3121 3255 Pls
3121 3255 Pls
3121 3255 Pls
3122 3254 Pls
3122 3254 Pls
3123 3254 Pls
3123 3253 Pls
3124 3253 Pls
3124 3252 Pls
3124 3252 Pls
3125 3252 Pls
3125 3251 Pls
3126 3251 Pls
3126 3250 Pls
3127 3250 Pls
3127 3249 Pls
3127 3249 Pls
3128 3249 Pls
3128 3248 Pls
3129 3248 Pls
3129 3248 Pls
3129 3247 Pls
3130 3247 Pls
3130 3247 Pls
3131 3246 Pls
3131 3246 Pls
3132 3245 Pls
3132 3245 Pls
3132 3245 Pls
3133 3245 Pls
3133 3244 Pls
3134 3244 Pls
3134 3243 Pls
3134 3243 Pls
3135 3243 Pls
3135 3242 Pls
3136 3242 Pls
3136 3242 Pls
3136 3242 Pls
3137 3241 Pls
3137 3241 Pls
3138 3241 Pls
3138 3240 Pls
3138 3240 Pls
3139 3240 Pls
3139 3239 Pls
3140 3239 Pls
3140 3239 Pls
3140 3238 Pls
3141 3238 Pls
3141 3237 Pls
3142 3237 Pls
3142 3237 Pls
3142 3236 Pls
3143 3236 Pls
3143 3236 Pls
3144 3235 Pls
3144 3235 Pls
3144 3235 Pls
3145 3234 Pls
3145 3234 Pls
3146 3234 Pls
3146 3234 Pls
3146 3234 Pls
3147 3233 Pls
3147 3233 Pls
3148 3233 Pls
3148 3233 Pls
3148 3232 Pls
3149 3232 Pls
3149 3232 Pls
3150 3232 Pls
3150 3231 Pls
3150 3231 Pls
3151 3231 Pls
3151 3231 Pls
3151 3231 Pls
3152 3230 Pls
3152 3230 Pls
3153 3230 Pls
3153 3230 Pls
3153 3230 Pls
3154 3229 Pls
3154 3229 Pls
3155 3228 Pls
3155 3228 Pls
3155 3228 Pls
3156 3228 Pls
3156 3228 Pls
3156 3227 Pls
3157 3227 Pls
3157 3227 Pls
3158 3227 Pls
3158 3226 Pls
3158 3226 Pls
3159 3226 Pls
3159 3225 Pls
3160 3225 Pls
3160 3225 Pls
3160 3225 Pls
3161 3224 Pls
3161 3224 Pls
3161 3224 Pls
3162 3224 Pls
3162 3224 Pls
3163 3224 Pls
3163 3223 Pls
3163 3223 Pls
3164 3223 Pls
3164 3223 Pls
3164 3222 Pls
3165 3222 Pls
3165 3222 Pls
3166 3222 Pls
3166 3222 Pls
3166 3221 Pls
3167 3221 Pls
3167 3221 Pls
3167 3221 Pls
3168 3220 Pls
3168 3220 Pls
3168 3220 Pls
3169 3220 Pls
3169 3219 Pls
3170 3219 Pls
3170 3219 Pls
3170 3218 Pls
3171 3218 Pls
3171 3218 Pls
3171 3218 Pls
3172 3217 Pls
3172 3217 Pls
3172 3217 Pls
3173 3217 Pls
3173 3216 Pls
3174 3216 Pls
3174 3216 Pls
3174 3216 Pls
3175 3215 Pls
3175 3215 Pls
3175 3215 Pls
3176 3215 Pls
3176 3214 Pls
3176 3214 Pls
3177 3214 Pls
3177 3214 Pls
3178 3213 Pls
3178 3213 Pls
3178 3213 Pls
3179 3213 Pls
3179 3212 Pls
3179 3212 Pls
3180 3212 Pls
3180 3212 Pls
3180 3212 Pls
3181 3212 Pls
3181 3211 Pls
3182 3211 Pls
3182 3211 Pls
3183 3211 Pls
3183 3210 Pls
3183 3210 Pls
3184 3210 Pls
3184 3210 Pls
3184 3210 Pls
3185 3210 Pls
3185 3209 Pls
3185 3209 Pls
3186 3208 Pls
3186 3208 Pls
3186 3208 Pls
3187 3208 Pls
3187 3208 Pls
3187 3207 Pls
3188 3207 Pls
3188 3207 Pls
3188 3207 Pls
3189 3206 Pls
3189 3206 Pls
3189 3206 Pls
3190 3206 Pls
3191 3206 Pls
3191 3206 Pls
3191 3205 Pls
3192 3205 Pls
3192 3205 Pls
3192 3205 Pls
3193 3204 Pls
3193 3204 Pls
3193 3204 Pls
3194 3203 Pls
3194 3203 Pls
3194 3203 Pls
3195 3203 Pls
3195 3203 Pls
3195 3203 Pls
3196 3203 Pls
3196 3203 Pls
3196 3202 Pls
3197 3202 Pls
3197 3202 Pls
3197 3202 Pls
3198 3202 Pls
3198 3202 Pls
3198 3202 Pls
3199 3202 Pls
3199 3201 Pls
3199 3201 Pls
3200 3201 Pls
3200 3201 Pls
3200 3201 Pls
3201 3201 Pls
3201 3200 Pls
3201 3200 Pls
3202 3200 Pls
3202 3200 Pls
3202 3200 Pls
3203 3199 Pls
3203 3199 Pls
3203 3199 Pls
3204 3199 Pls
3204 3199 Pls
3204 3198 Pls
3205 3198 Pls
3205 3198 Pls
3205 3198 Pls
3206 3197 Pls
3206 3197 Pls
3206 3197 Pls
3207 3197 Pls
3207 3197 Pls
3207 3197 Pls
3208 3197 Pls
3208 3196 Pls
3208 3196 Pls
3209 3196 Pls
3209 3196 Pls
3209 3196 Pls
3210 3195 Pls
3210 3195 Pls
3210 3195 Pls
3210 3195 Pls
3211 3195 Pls
3211 3194 Pls
3211 3194 Pls
3212 3194 Pls
3212 3194 Pls
3212 3194 Pls
3213 3193 Pls
3213 3193 Pls
3213 3193 Pls
3214 3193 Pls
3214 3193 Pls
3214 3193 Pls
3215 3193 Pls
3215 3192 Pls
3215 3192 Pls
3216 3192 Pls
3216 3192 Pls
3216 3191 Pls
3217 3191 Pls
3217 3191 Pls
3217 3191 Pls
3218 3190 Pls
3218 3190 Pls
3218 3190 Pls
3218 3190 Pls
3219 3190 Pls
3219 3190 Pls
3219 3189 Pls
3220 3189 Pls
3220 3189 Pls
3220 3188 Pls
3221 3188 Pls
3221 3188 Pls
3221 3188 Pls
3222 3187 Pls
3222 3187 Pls
3222 3187 Pls
3223 3187 Pls
3223 3187 Pls
3223 3186 Pls
3223 3186 Pls
3224 3186 Pls
3224 3186 Pls
3224 3185 Pls
3225 3185 Pls
3225 3185 Pls
3225 3185 Pls
3226 3185 Pls
3226 3185 Pls
3226 3185 Pls
3227 3184 Pls
3227 3184 Pls
3227 3184 Pls
3227 3184 Pls
3228 3184 Pls
3228 3183 Pls
3229 3183 Pls
3229 3183 Pls
3229 3183 Pls
3230 3183 Pls
3230 3183 Pls
3230 3182 Pls
3231 3182 Pls
3231 3182 Pls
3231 3182 Pls
3232 3182 Pls
3232 3182 Pls
3232 3182 Pls
3233 3181 Pls
3233 3181 Pls
3233 3181 Pls
3234 3181 Pls
3234 3181 Pls
3234 3180 Pls
3234 3180 Pls
3235 3180 Pls
3235 3180 Pls
3235 3180 Pls
3236 3180 Pls
3236 3179 Pls
3237 3179 Pls
3237 3179 Pls
3237 3178 Pls
3237 3178 Pls
3238 3178 Pls
3238 3178 Pls
3238 3178 Pls
3239 3177 Pls
3239 3177 Pls
3239 3177 Pls
3240 3177 Pls
3240 3177 Pls
3240 3176 Pls
3240 3176 Pls
3241 3176 Pls
3241 3176 Pls
3241 3176 Pls
3242 3176 Pls
3242 3176 Pls
3242 3175 Pls
3243 3175 Pls
3243 3175 Pls
3243 3174 Pls
3244 3174 Pls
3244 3174 Pls
3244 3174 Pls
3245 3174 Pls
3245 3174 Pls
3245 3174 Pls
3245 3173 Pls
3246 3173 Pls
3246 3173 Pls
3246 3173 Pls
3247 3173 Pls
3247 3172 Pls
3247 3172 Pls
3247 3172 Pls
3248 3172 Pls
3248 3172 Pls
3248 3172 Pls
3249 3172 Pls
3249 3171 Pls
3249 3171 Pls
3249 3171 Pls
3250 3171 Pls
3250 3171 Pls
3250 3170 Pls
3251 3170 Pls
3251 3170 Pls
3251 3170 Pls
3251 3170 Pls
3252 3170 Pls
3252 3170 Pls
3252 3169 Pls
3253 3169 Pls
3253 3169 Pls
3253 3169 Pls
3253 3169 Pls
3254 3168 Pls
3254 3168 Pls
3255 3168 Pls
3255 3168 Pls
3255 3168 Pls
3255 3168 Pls
3256 3167 Pls
3256 3167 Pls
3257 3167 Pls
3257 3167 Pls
3257 3167 Pls
3257 3167 Pls
3258 3166 Pls
3258 3166 Pls
3258 3166 Pls
3258 3166 Pls
3259 3166 Pls
3259 3166 Pls
3259 3165 Pls
3260 3165 Pls
3260 3165 Pls
3260 3165 Pls
3260 3165 Pls
3261 3165 Pls
3261 3165 Pls
3261 3165 Pls
3262 3164 Pls
3262 3164 Pls
3262 3164 Pls
3262 3164 Pls
3263 3164 Pls
3263 3164 Pls
3263 3163 Pls
3264 3163 Pls
3264 3163 Pls
3264 3163 Pls
3265 3162 Pls
3265 3162 Pls
3265 3162 Pls
3265 3162 Pls
3266 3162 Pls
3266 3161 Pls
3266 3161 Pls
3266 3161 Pls
3267 3161 Pls
3267 3160 Pls
3267 3160 Pls
3268 3160 Pls
3268 3160 Pls
3268 3159 Pls
3269 3159 Pls
3269 3159 Pls
3269 3159 Pls
3270 3159 Pls
3270 3158 Pls
3270 3158 Pls
3270 3158 Pls
3271 3158 Pls
3271 3158 Pls
3271 3158 Pls
3272 3157 Pls
3272 3157 Pls
3272 3157 Pls
3272 3157 Pls
3273 3157 Pls
3273 3157 Pls
3273 3156 Pls
3273 3156 Pls
3274 3156 Pls
3274 3156 Pls
3274 3156 Pls
3275 3155 Pls
3275 3155 Pls
3275 3155 Pls
3275 3155 Pls
3276 3155 Pls
3276 3155 Pls
3276 3155 Pls
3276 3155 Pls
3277 3154 Pls
3277 3154 Pls
3277 3154 Pls
3277 3154 Pls
3278 3154 Pls
3278 3153 Pls
3278 3153 Pls
3278 3153 Pls
3279 3153 Pls
3279 3153 Pls
3280 3152 Pls
3280 3152 Pls
3280 3152 Pls
3281 3152 Pls
3281 3152 Pls
3281 3151 Pls
3282 3151 Pls
3282 3151 Pls
3282 3151 Pls
3282 3151 Pls
3283 3150 Pls
3283 3150 Pls
3283 3150 Pls
3283 3150 Pls
3284 3150 Pls
3284 3149 Pls
3284 3149 Pls
3285 3149 Pls
3285 3149 Pls
3285 3149 Pls
3285 3149 Pls
3286 3149 Pls
3286 3148 Pls
3286 3148 Pls
3287 3148 Pls
3287 3148 Pls
3287 3147 Pls
3288 3147 Pls
3288 3147 Pls
3288 3147 Pls
3288 3147 Pls
3289 3147 Pls
3289 3146 Pls
3289 3146 Pls
3290 3146 Pls
3290 3146 Pls
3290 3146 Pls
3290 3145 Pls
3291 3145 Pls
3291 3145 Pls
3291 3145 Pls
3292 3145 Pls
3292 3145 Pls
3292 3144 Pls
3292 3144 Pls
3293 3144 Pls
3293 3144 Pls
3293 3143 Pls
3294 3143 Pls
3294 3143 Pls
3294 3143 Pls
3295 3143 Pls
3295 3143 Pls
3295 3143 Pls
3296 3142 Pls
3296 3142 Pls
3296 3142 Pls
3297 3142 Pls
3297 3142 Pls
3297 3141 Pls
3297 3141 Pls
3298 3141 Pls
3298 3141 Pls
3298 3141 Pls
3299 3141 Pls
3299 3141 Pls
3299 3140 Pls
3299 3140 Pls
3300 3140 Pls
3300 3140 Pls
3300 3139 Pls
3300 3139 Pls
3300 3139 Pls
3301 3139 Pls
3301 3139 Pls
3301 3139 Pls
3301 3138 Pls
3302 3138 Pls
3302 3138 Pls
3302 3138 Pls
3303 3138 Pls
3303 3138 Pls
3303 3138 Pls
3303 3138 Pls
3304 3137 Pls
3304 3137 Pls
3304 3137 Pls
3305 3137 Pls
3305 3137 Pls
3305 3137 Pls
3305 3137 Pls
3306 3136 Pls
3306 3136 Pls
3306 3136 Pls
3306 3136 Pls
3307 3136 Pls
3307 3136 Pls
3307 3136 Pls
3307 3135 Pls
3308 3135 Pls
3308 3135 Pls
3308 3135 Pls
3308 3134 Pls
3308 3134 Pls
3309 3134 Pls
3309 3134 Pls
3309 3134 Pls
3309 3133 Pls
3310 3133 Pls
3310 3133 Pls
3310 3133 Pls
3310 3133 Pls
3311 3133 Pls
3311 3133 Pls
3311 3132 Pls
3312 3132 Pls
3312 3132 Pls
3312 3132 Pls
3312 3132 Pls
3313 3132 Pls
3313 3131 Pls
3313 3131 Pls
3313 3131 Pls
3314 3131 Pls
3314 3131 Pls
3314 3131 Pls
3314 3131 Pls
3315 3130 Pls
3315 3130 Pls
3315 3130 Pls
3315 3130 Pls
3316 3130 Pls
3316 3129 Pls
3316 3129 Pls
3316 3129 Pls
3317 3129 Pls
3317 3129 Pls
3317 3129 Pls
3318 3128 Pls
3318 3128 Pls
3319 3128 Pls
3319 3128 Pls
3319 3128 Pls
3319 3128 Pls
3320 3127 Pls
3320 3127 Pls
3320 3127 Pls
3320 3127 Pls
3320 3127 Pls
3321 3127 Pls
3321 3127 Pls
3322 3126 Pls
3322 3126 Pls
3322 3126 Pls
3323 3126 Pls
3323 3126 Pls
3323 3126 Pls
3323 3125 Pls
3323 3125 Pls
3324 3125 Pls
3324 3125 Pls
3324 3125 Pls
3324 3125 Pls
3325 3124 Pls
3325 3124 Pls
3325 3124 Pls
3325 3124 Pls
3325 3124 Pls
3326 3124 Pls
3326 3123 Pls
3326 3123 Pls
3326 3123 Pls
3327 3123 Pls
3327 3123 Pls
3327 3122 Pls
3327 3122 Pls
3328 3122 Pls
3328 3122 Pls
3328 3121 Pls
3328 3121 Pls
3329 3121 Pls
3329 3121 Pls
3329 3121 Pls
3329 3121 Pls
3330 3121 Pls
3330 3120 Pls
3330 3120 Pls
3330 3120 Pls
3330 3120 Pls
3331 3120 Pls
3331 3119 Pls
3331 3119 Pls
3332 3119 Pls
3332 3119 Pls
3332 3119 Pls
3332 3118 Pls
3332 3118 Pls
3333 3118 Pls
3333 3118 Pls
3333 3117 Pls
3333 3117 Pls
3334 3117 Pls
3334 3117 Pls
3334 3117 Pls
3334 3117 Pls
3334 3117 Pls
3335 3117 Pls
3335 3116 Pls
3336 3116 Pls
3336 3116 Pls
3337 3116 Pls
3337 3116 Pls
3337 3116 Pls
3338 3116 Pls
3338 3115 Pls
3338 3115 Pls
3339 3115 Pls
3339 3115 Pls
3339 3115 Pls
3339 3115 Pls
3340 3114 Pls
3340 3114 Pls
3340 3114 Pls
3340 3114 Pls
3341 3114 Pls
3341 3113 Pls
3341 3113 Pls
3341 3113 Pls
3341 3113 Pls
3342 3113 Pls
3342 3112 Pls
3342 3112 Pls
3342 3112 Pls
3342 3112 Pls
3343 3112 Pls
3343 3112 Pls
3343 3111 Pls
3343 3111 Pls
3344 3111 Pls
3344 3111 Pls
3345 3111 Pls
3345 3111 Pls
3345 3111 Pls
3345 3110 Pls
3346 3110 Pls
3346 3110 Pls
3347 3110 Pls
3347 3110 Pls
3347 3110 Pls
3347 3109 Pls
3348 3109 Pls
3348 3109 Pls
3348 3109 Pls
3348 3109 Pls
3348 3109 Pls
3349 3108 Pls
3349 3108 Pls
3349 3108 Pls
3349 3108 Pls
3349 3108 Pls
3350 3107 Pls
3350 3107 Pls
3350 3107 Pls
3351 3107 Pls
3351 3107 Pls
3351 3107 Pls
3351 3107 Pls
3351 3106 Pls
3352 3106 Pls
3352 3106 Pls
3353 3106 Pls
3353 3106 Pls
3353 3105 Pls
3354 3105 Pls
3354 3105 Pls
3354 3105 Pls
3355 3105 Pls
3355 3105 Pls
3355 3104 Pls
3355 3104 Pls
3356 3104 Pls
3356 3104 Pls
3356 3104 Pls
3356 3104 Pls
3357 3104 Pls
3357 3104 Pls
3357 3103 Pls
3357 3103 Pls
3357 3103 Pls
3358 3103 Pls
3358 3103 Pls
3358 3103 Pls
3358 3102 Pls
3358 3102 Pls
3359 3102 Pls
3359 3102 Pls
3359 3102 Pls
3359 3101 Pls
3360 3101 Pls
3360 3101 Pls
3360 3101 Pls
3361 3101 Pls
3361 3101 Pls
3361 3101 Pls
3362 3100 Pls
3362 3100 Pls
3362 3100 Pls
3362 3100 Pls
3362 3100 Pls
3363 3100 Pls
3363 3100 Pls
3364 3100 Pls
3364 3099 Pls
3364 3099 Pls
3364 3099 Pls
3364 3099 Pls
3365 3099 Pls
3365 3098 Pls
3365 3098 Pls
3365 3098 Pls
3365 3098 Pls
3366 3098 Pls
3366 3097 Pls
3366 3097 Pls
3367 3097 Pls
3367 3097 Pls
3367 3097 Pls
3368 3097 Pls
3368 3096 Pls
3368 3096 Pls
3368 3096 Pls
3369 3096 Pls
3369 3096 Pls
3369 3096 Pls
3369 3096 Pls
3369 3096 Pls
3369 3095 Pls
3370 3095 Pls
3370 3095 Pls
3370 3095 Pls
3371 3094 Pls
3371 3094 Pls
3371 3094 Pls
3372 3094 Pls
3372 3094 Pls
3372 3094 Pls
3372 3093 Pls
3373 3093 Pls
3373 3093 Pls
3373 3093 Pls
3373 3093 Pls
3373 3093 Pls
3374 3093 Pls
3374 3093 Pls
3374 3093 Pls
3374 3093 Pls
3374 3092 Pls
3375 3092 Pls
3375 3092 Pls
3375 3092 Pls
3375 3092 Pls
3375 3092 Pls
3376 3091 Pls
3376 3091 Pls
3376 3091 Pls
3376 3091 Pls
3377 3091 Pls
3377 3091 Pls
3377 3090 Pls
3377 3090 Pls
3378 3090 Pls
3378 3090 Pls
3378 3090 Pls
3379 3090 Pls
3379 3090 Pls
3379 3089 Pls
3379 3089 Pls
3380 3089 Pls
3380 3089 Pls
3380 3089 Pls
3381 3089 Pls
3381 3089 Pls
3381 3088 Pls
3381 3088 Pls
3381 3088 Pls
3382 3088 Pls
3382 3088 Pls
3382 3088 Pls
3382 3088 Pls
3382 3087 Pls
3383 3087 Pls
3383 3087 Pls
3383 3087 Pls
3383 3087 Pls
3383 3086 Pls
3384 3086 Pls
3384 3086 Pls
3384 3086 Pls
3384 3086 Pls
3384 3086 Pls
3385 3086 Pls
3385 3085 Pls
3385 3085 Pls
3385 3085 Pls
3386 3085 Pls
3386 3085 Pls
3386 3085 Pls
3387 3085 Pls
3387 3084 Pls
3387 3084 Pls
3388 3084 Pls
3388 3084 Pls
3388 3084 Pls
3389 3084 Pls
3389 3083 Pls
3389 3083 Pls
3389 3083 Pls
3390 3083 Pls
3390 3083 Pls
3390 3083 Pls
3390 3083 Pls
3391 3083 Pls
3391 3082 Pls
3392 3082 Pls
3392 3082 Pls
3392 3082 Pls
3392 3082 Pls
3393 3082 Pls
3393 3082 Pls
3393 3082 Pls
3393 3081 Pls
3393 3081 Pls
3394 3081 Pls
3395 3081 Pls
3395 3081 Pls
3396 3081 Pls
3396 3081 Pls
3396 3081 Pls
3396 3080 Pls
3397 3080 Pls
3397 3080 Pls
3398 3080 Pls
3398 3080 Pls
3398 3080 Pls
3398 3079 Pls
3398 3079 Pls
3399 3079 Pls
3399 3079 Pls
3399 3079 Pls
3399 3079 Pls
3400 3078 Pls
3400 3078 Pls
3400 3078 Pls
3400 3078 Pls
3400 3078 Pls
3401 3077 Pls
3401 3077 Pls
3401 3077 Pls
3402 3077 Pls
3402 3077 Pls
3402 3077 Pls
3402 3077 Pls
3403 3076 Pls
3403 3076 Pls
3403 3076 Pls
3404 3076 Pls
3404 3076 Pls
3404 3076 Pls
3404 3075 Pls
3405 3075 Pls
3405 3075 Pls
3406 3075 Pls
3406 3075 Pls
3406 3075 Pls
3406 3074 Pls
3407 3074 Pls
3407 3074 Pls
3407 3074 Pls
3407 3074 Pls
3408 3073 Pls
3408 3073 Pls
3408 3073 Pls
3408 3073 Pls
3408 3073 Pls
3409 3073 Pls
3409 3073 Pls
3409 3073 Pls
3410 3072 Pls
3410 3072 Pls
3410 3072 Pls
3410 3072 Pls
3411 3072 Pls
3411 3072 Pls
3411 3071 Pls
3411 3071 Pls
3412 3071 Pls
3412 3071 Pls
3412 3071 Pls
3412 3071 Pls
3413 3071 Pls
3413 3071 Pls
3413 3071 Pls
3413 3071 Pls
3413 3070 Pls
3414 3070 Pls
3414 3070 Pls
3414 3070 Pls
3414 3069 Pls
3415 3069 Pls
3415 3069 Pls
3416 3069 Pls
3416 3068 Pls
3416 3068 Pls
3416 3068 Pls
3417 3068 Pls
3417 3068 Pls
3417 3068 Pls
3417 3068 Pls
3417 3068 Pls
3417 3068 Pls
3418 3067 Pls
3418 3067 Pls
3418 3067 Pls
3418 3067 Pls
3419 3067 Pls
3419 3067 Pls
3419 3066 Pls
3419 3066 Pls
3420 3066 Pls
3421 3066 Pls
3421 3066 Pls
3421 3066 Pls
3421 3066 Pls
3421 3065 Pls
3422 3065 Pls
3422 3065 Pls
3422 3065 Pls
3423 3065 Pls
3423 3065 Pls
3423 3065 Pls
3423 3065 Pls
3424 3065 Pls
3424 3065 Pls
3425 3064 Pls
3425 3064 Pls
3425 3064 Pls
3425 3064 Pls
3427 3064 Pls
3427 3064 Pls
3427 3064 Pls
3427 3063 Pls
3427 3063 Pls
3428 3063 Pls
3428 3063 Pls
3428 3063 Pls
3429 3063 Pls
3429 3063 Pls
3429 3063 Pls
3429 3063 Pls
3429 3063 Pls
3429 3062 Pls
3430 3062 Pls
3430 3062 Pls
3430 3062 Pls
3430 3062 Pls
3431 3062 Pls
3431 3061 Pls
3431 3061 Pls
3431 3061 Pls
3432 3061 Pls
3432 3061 Pls
3432 3061 Pls
3433 3061 Pls
3433 3060 Pls
3433 3060 Pls
3433 3060 Pls
3434 3060 Pls
3434 3060 Pls
3434 3060 Pls
3434 3059 Pls
3434 3059 Pls
3434 3059 Pls
3435 3059 Pls
3435 3059 Pls
3435 3059 Pls
3435 3058 Pls
3436 3058 Pls
3436 3058 Pls
3436 3058 Pls
3436 3058 Pls
3437 3058 Pls
3437 3058 Pls
3437 3058 Pls
3438 3057 Pls
3438 3057 Pls
3438 3057 Pls
3438 3057 Pls
3439 3057 Pls
3439 3056 Pls
3439 3056 Pls
3439 3056 Pls
3440 3056 Pls
3440 3056 Pls
3440 3056 Pls
3440 3056 Pls
3441 3055 Pls
3441 3055 Pls
3441 3055 Pls
3441 3055 Pls
3442 3055 Pls
3442 3055 Pls
3442 3055 Pls
3442 3055 Pls
3442 3054 Pls
3443 3054 Pls
3443 3054 Pls
3443 3054 Pls
3443 3054 Pls
3443 3054 Pls
3444 3053 Pls
3444 3053 Pls
3444 3053 Pls
3444 3053 Pls
3445 3053 Pls
3445 3053 Pls
3445 3053 Pls
3445 3053 Pls
3446 3052 Pls
3446 3052 Pls
3446 3052 Pls
3447 3052 Pls
3447 3052 Pls
3447 3052 Pls
3447 3052 Pls
3448 3052 Pls
3448 3052 Pls
3449 3052 Pls
3449 3052 Pls
3449 3051 Pls
3449 3051 Pls
3449 3051 Pls
3449 3051 Pls
3450 3051 Pls
3450 3051 Pls
3450 3051 Pls
3451 3050 Pls
3451 3050 Pls
3451 3050 Pls
3451 3050 Pls
3451 3050 Pls
3452 3050 Pls
3452 3050 Pls
3452 3049 Pls
3453 3049 Pls
3453 3049 Pls
3453 3049 Pls
3453 3049 Pls
3453 3049 Pls
3454 3049 Pls
3454 3048 Pls
3454 3048 Pls
3455 3048 Pls
3455 3048 Pls
3455 3048 Pls
3455 3048 Pls
3455 3048 Pls
3456 3047 Pls
3456 3047 Pls
3457 3047 Pls
3457 3047 Pls
3457 3047 Pls
3457 3047 Pls
3457 3046 Pls
3458 3046 Pls
3458 3046 Pls
3458 3046 Pls
3458 3046 Pls
3458 3046 Pls
3459 3046 Pls
3459 3046 Pls
3459 3045 Pls
3459 3045 Pls
3459 3045 Pls
3459 3045 Pls
3460 3045 Pls
3460 3044 Pls
3460 3044 Pls
3460 3044 Pls
3461 3044 Pls
3461 3044 Pls
3461 3044 Pls
3461 3044 Pls
3461 3043 Pls
3461 3043 Pls
3462 3043 Pls
3462 3043 Pls
3462 3043 Pls
3463 3043 Pls
3463 3043 Pls
3463 3042 Pls
3463 3042 Pls
3463 3042 Pls
3464 3042 Pls
3464 3041 Pls
3464 3041 Pls
3464 3041 Pls
3465 3041 Pls
3465 3041 Pls
3465 3041 Pls
3465 3041 Pls
3465 3041 Pls
3466 3040 Pls
3466 3040 Pls
3466 3040 Pls
3466 3040 Pls
3467 3040 Pls
3467 3040 Pls
3467 3040 Pls
3467 3039 Pls
3468 3039 Pls
3468 3039 Pls
3468 3039 Pls
3468 3039 Pls
3469 3039 Pls
3469 3039 Pls
3469 3038 Pls
3469 3038 Pls
3469 3038 Pls
3469 3038 Pls
3470 3038 Pls
3470 3038 Pls
3470 3037 Pls
3470 3037 Pls
3470 3037 Pls
3470 3037 Pls
3471 3037 Pls
3471 3037 Pls
3471 3037 Pls
3472 3036 Pls
3472 3036 Pls
3472 3036 Pls
3473 3036 Pls
3474 3036 Pls
3474 3036 Pls
3474 3036 Pls
3474 3036 Pls
3475 3035 Pls
3475 3035 Pls
3475 3035 Pls
3475 3035 Pls
3475 3035 Pls
3476 3035 Pls
3476 3035 Pls
3476 3035 Pls
3476 3034 Pls
3476 3034 Pls
3477 3034 Pls
3477 3034 Pls
3477 3034 Pls
3478 3034 Pls
3478 3034 Pls
3478 3034 Pls
3478 3033 Pls
3478 3033 Pls
3478 3033 Pls
3479 3033 Pls
3479 3033 Pls
3479 3033 Pls
3479 3033 Pls
3480 3032 Pls
3480 3032 Pls
3480 3032 Pls
3480 3032 Pls
3481 3032 Pls
3481 3032 Pls
3481 3032 Pls
3481 3031 Pls
3481 3031 Pls
3481 3031 Pls
3481 3031 Pls
3482 3031 Pls
3482 3031 Pls
3482 3030 Pls
3482 3030 Pls
3483 3030 Pls
3484 3030 Pls
3484 3030 Pls
3484 3030 Pls
3484 3030 Pls
3485 3030 Pls
3485 3029 Pls
3485 3029 Pls
3485 3029 Pls
3486 3029 Pls
3486 3029 Pls
3486 3029 Pls
3486 3029 Pls
3487 3029 Pls
3487 3029 Pls
3488 3028 Pls
3488 3028 Pls
3488 3028 Pls
3489 3028 Pls
3489 3028 Pls
3490 3028 Pls
3490 3028 Pls
3491 3028 Pls
3491 3028 Pls
3491 3027 Pls
3491 3027 Pls
3491 3027 Pls
3491 3027 Pls
3492 3027 Pls
3492 3027 Pls
3492 3027 Pls
3492 3026 Pls
3492 3026 Pls
3492 3026 Pls
3493 3026 Pls
3493 3026 Pls
3493 3026 Pls
3494 3025 Pls
3494 3025 Pls
3494 3025 Pls
3494 3025 Pls
3494 3025 Pls
3494 3025 Pls
3494 3025 Pls
3494 3024 Pls
3495 3024 Pls
3495 3024 Pls
3495 3024 Pls
3495 3024 Pls
3495 3024 Pls
3496 3024 Pls
3496 3024 Pls
3496 3023 Pls
3496 3023 Pls
3497 3023 Pls
3498 3023 Pls
3498 3023 Pls
3498 3023 Pls
3498 3023 Pls
3498 3023 Pls
3498 3023 Pls
3499 3022 Pls
3499 3022 Pls
3499 3022 Pls
3499 3022 Pls
3499 3022 Pls
3500 3021 Pls
3500 3021 Pls
3500 3021 Pls
3500 3021 Pls
3500 3021 Pls
3500 3020 Pls
3501 3020 Pls
3501 3020 Pls
3502 3020 Pls
3502 3020 Pls
3503 3020 Pls
3503 3019 Pls
3503 3019 Pls
3503 3019 Pls
3504 3019 Pls
3504 3019 Pls
3504 3019 Pls
3504 3019 Pls
3504 3019 Pls
3504 3018 Pls
3505 3018 Pls
3505 3018 Pls
3506 3018 Pls
3506 3018 Pls
3506 3018 Pls
3507 3017 Pls
3507 3017 Pls
3507 3017 Pls
3508 3017 Pls
3508 3017 Pls
3508 3017 Pls
3508 3016 Pls
3509 3016 Pls
3509 3016 Pls
3509 3016 Pls
3510 3016 Pls
3510 3015 Pls
3510 3015 Pls
3510 3015 Pls
3510 3015 Pls
3510 3015 Pls
3511 3015 Pls
3511 3015 Pls
3511 3015 Pls
3511 3015 Pls
3511 3014 Pls
3511 3014 Pls
3512 3014 Pls
3512 3014 Pls
3512 3014 Pls
3512 3014 Pls
3513 3013 Pls
3513 3013 Pls
3513 3013 Pls
3514 3013 Pls
3514 3013 Pls
3514 3013 Pls
3514 3013 Pls
3514 3013 Pls
3515 3013 Pls
3515 3012 Pls
3516 3012 Pls
3516 3012 Pls
3516 3012 Pls
3517 3012 Pls
3517 3012 Pls
3517 3012 Pls
3517 3012 Pls
3518 3012 Pls
3518 3011 Pls
3518 3011 Pls
3519 3011 Pls
3519 3011 Pls
3519 3011 Pls
3519 3010 Pls
3519 3010 Pls
3519 3010 Pls
3520 3010 Pls
3520 3010 Pls
3520 3010 Pls
3520 3009 Pls
3521 3009 Pls
3521 3009 Pls
3521 3009 Pls
3522 3009 Pls
3522 3009 Pls
3522 3008 Pls
3522 3008 Pls
3523 3008 Pls
3523 3008 Pls
3523 3008 Pls
3524 3008 Pls
3524 3008 Pls
3524 3008 Pls
3525 3008 Pls
3526 3007 Pls
3526 3007 Pls
3527 3007 Pls
3527 3007 Pls
3528 3007 Pls
3528 3007 Pls
3528 3007 Pls
3528 3006 Pls
3528 3006 Pls
3529 3006 Pls
3529 3006 Pls
3529 3006 Pls
3529 3006 Pls
3530 3006 Pls
3530 3005 Pls
3530 3005 Pls
3530 3005 Pls
3530 3005 Pls
3531 3005 Pls
3531 3005 Pls
3531 3005 Pls
3532 3005 Pls
3532 3005 Pls
3532 3004 Pls
3532 3004 Pls
3532 3004 Pls
3532 3004 Pls
3532 3004 Pls
3533 3004 Pls
3533 3004 Pls
3534 3003 Pls
3535 3003 Pls
3535 3003 Pls
3535 3003 Pls
3536 3003 Pls
3536 3003 Pls
3537 3003 Pls
3537 3003 Pls
3537 3003 Pls
3537 3002 Pls
3537 3002 Pls
3538 3002 Pls
3538 3002 Pls
3539 3002 Pls
3539 3002 Pls
3539 3002 Pls
3539 3001 Pls
3539 3001 Pls
3540 3001 Pls
3540 3001 Pls
3540 3001 Pls
3540 3001 Pls
3540 3001 Pls
3540 3000 Pls
3541 3000 Pls
3541 3000 Pls
3541 3000 Pls
3541 3000 Pls
3542 3000 Pls
3542 2999 Pls
3542 2999 Pls
3543 2999 Pls
3543 2999 Pls
3543 2999 Pls
3543 2999 Pls
3544 2999 Pls
3544 2998 Pls
3545 2998 Pls
3545 2998 Pls
3545 2998 Pls
3545 2998 Pls
3545 2998 Pls
3545 2998 Pls
3545 2997 Pls
3547 2997 Pls
3547 2997 Pls
3547 2997 Pls
3547 2997 Pls
3548 2997 Pls
3548 2996 Pls
3548 2996 Pls
3549 2996 Pls
3549 2996 Pls
3549 2996 Pls
3549 2995 Pls
3549 2995 Pls
3549 2995 Pls
3550 2995 Pls
3550 2995 Pls
3550 2995 Pls
3550 2995 Pls
3550 2994 Pls
3551 2994 Pls
3551 2994 Pls
3551 2994 Pls
3551 2994 Pls
3551 2994 Pls
3552 2994 Pls
3552 2994 Pls
3552 2993 Pls
3552 2993 Pls
3552 2993 Pls
3553 2993 Pls
3553 2993 Pls
3553 2993 Pls
3553 2992 Pls
3553 2992 Pls
3553 2992 Pls
3554 2992 Pls
3554 2992 Pls
3554 2992 Pls
3554 2991 Pls
3555 2991 Pls
3555 2991 Pls
3555 2991 Pls
3555 2991 Pls
3555 2990 Pls
3556 2990 Pls
3556 2990 Pls
3556 2990 Pls
3556 2990 Pls
3556 2990 Pls
3557 2990 Pls
3557 2990 Pls
3557 2990 Pls
3558 2989 Pls
3558 2989 Pls
3558 2989 Pls
3558 2989 Pls
3559 2988 Pls
3559 2988 Pls
3559 2988 Pls
3559 2988 Pls
3560 2988 Pls
3560 2988 Pls
3560 2987 Pls
3560 2987 Pls
3560 2987 Pls
3560 2987 Pls
3561 2987 Pls
3561 2987 Pls
3561 2987 Pls
3561 2987 Pls
3562 2987 Pls
3562 2986 Pls
3562 2986 Pls
3562 2986 Pls
3562 2986 Pls
3563 2986 Pls
3563 2986 Pls
3564 2986 Pls
3564 2986 Pls
3564 2985 Pls
3565 2985 Pls
3565 2985 Pls
3565 2985 Pls
3565 2985 Pls
3565 2985 Pls
3566 2985 Pls
3566 2984 Pls
3566 2984 Pls
3567 2984 Pls
3567 2984 Pls
3567 2983 Pls
3567 2983 Pls
3567 2983 Pls
3567 2983 Pls
3568 2983 Pls
3568 2982 Pls
3568 2982 Pls
3568 2982 Pls
3568 2981 Pls
3568 2980 Pls
3568 2979 Pls
3568 2978 Pls
3568 2978 Pls
3568 2977 Pls
3569 2977 Pls
3569 2977 Pls
3569 2977 Pls
3569 2977 Pls
3569 2977 Pls
3569 2976 Pls
3569 2976 Pls
3570 2976 Pls
3570 2976 Pls
3570 2975 Pls
3570 2975 Pls
3570 2975 Pls
3571 2975 Pls
3571 2975 Pls
3571 2975 Pls
3572 2974 Pls
3572 2974 Pls
3573 2974 Pls
3573 2974 Pls
3573 2974 Pls
3573 2974 Pls
3573 2974 Pls
3573 2973 Pls
3574 2973 Pls
3574 2973 Pls
3574 2973 Pls
3575 2973 Pls
3575 2972 Pls
3575 2972 Pls
3575 2972 Pls
3576 2972 Pls
3576 2972 Pls
3576 2972 Pls
3577 2972 Pls
3577 2971 Pls
3577 2971 Pls
3577 2971 Pls
3578 2971 Pls
3578 2971 Pls
3578 2971 Pls
3578 2971 Pls
3578 2970 Pls
3579 2970 Pls
3579 2970 Pls
3579 2970 Pls
3580 2970 Pls
3580 2970 Pls
3580 2970 Pls
3580 2969 Pls
3580 2969 Pls
3580 2969 Pls
3581 2969 Pls
3581 2969 Pls
3582 2969 Pls
3582 2969 Pls
3582 2969 Pls
3582 2968 Pls
3583 2968 Pls
3583 2968 Pls
3583 2968 Pls
3583 2968 Pls
3583 2967 Pls
3584 2967 Pls
3584 2967 Pls
3584 2967 Pls
3584 2966 Pls
3584 2966 Pls
3585 2966 Pls
3585 2966 Pls
3585 2966 Pls
3586 2966 Pls
3586 2966 Pls
3586 2965 Pls
3586 2965 Pls
3586 2965 Pls
3586 2965 Pls
3587 2965 Pls
3587 2965 Pls
3587 2964 Pls
3587 2964 Pls
3587 2964 Pls
3588 2964 Pls
3588 2964 Pls
3588 2964 Pls
3589 2963 Pls
3589 2963 Pls
3589 2963 Pls
3589 2963 Pls
3590 2963 Pls
3590 2963 Pls
3590 2963 Pls
3591 2962 Pls
3591 2962 Pls
3591 2962 Pls
3592 2962 Pls
3592 2962 Pls
3592 2962 Pls
3592 2961 Pls
3593 2961 Pls
3593 2961 Pls
3593 2961 Pls
3593 2961 Pls
3594 2961 Pls
3594 2961 Pls
3594 2961 Pls
3595 2960 Pls
3595 2960 Pls
3596 2960 Pls
3596 2960 Pls
3596 2960 Pls
3596 2960 Pls
3596 2959 Pls
3597 2959 Pls
3597 2959 Pls
3597 2959 Pls
3597 2959 Pls
3598 2959 Pls
3598 2959 Pls
3598 2958 Pls
3599 2958 Pls
3599 2958 Pls
3599 2958 Pls
3599 2958 Pls
3599 2958 Pls
3599 2957 Pls
3599 2957 Pls
3599 2957 Pls
3600 2957 Pls
3600 2957 Pls
3600 2957 Pls
3601 2957 Pls
3601 2956 Pls
3601 2956 Pls
3601 2956 Pls
3602 2956 Pls
3602 2956 Pls
3603 2955 Pls
3603 2955 Pls
3603 2955 Pls
3603 2955 Pls
3603 2955 Pls
3603 2955 Pls
3605 2955 Pls
3605 2955 Pls
3606 2954 Pls
3606 2954 Pls
3606 2954 Pls
3606 2954 Pls
3606 2954 Pls
3606 2954 Pls
3606 2954 Pls
3606 2953 Pls
3607 2953 Pls
3607 2953 Pls
3607 2953 Pls
3607 2953 Pls
3608 2953 Pls
3608 2953 Pls
3608 2952 Pls
3609 2952 Pls
3609 2952 Pls
3609 2952 Pls
3609 2952 Pls
3609 2952 Pls
3610 2952 Pls
3610 2952 Pls
3610 2951 Pls
3611 2951 Pls
3611 2951 Pls
3611 2951 Pls
3612 2951 Pls
3612 2951 Pls
3612 2950 Pls
3612 2950 Pls
3612 2950 Pls
3612 2950 Pls
3612 2950 Pls
3613 2950 Pls
3613 2950 Pls
3613 2950 Pls
3613 2949 Pls
3613 2949 Pls
3615 2949 Pls
3615 2949 Pls
3615 2949 Pls
3615 2949 Pls
3615 2949 Pls
3615 2949 Pls
3615 2948 Pls
3616 2948 Pls
3616 2948 Pls
3616 2948 Pls
3616 2948 Pls
3617 2947 Pls
3617 2947 Pls
3617 2947 Pls
3617 2947 Pls
3617 2947 Pls
3618 2947 Pls
3618 2947 Pls
3619 2947 Pls
3619 2946 Pls
3619 2946 Pls
3619 2946 Pls
3620 2946 Pls
3620 2946 Pls
3620 2946 Pls
3621 2946 Pls
3621 2946 Pls
3622 2945 Pls
3622 2945 Pls
3623 2945 Pls
3623 2945 Pls
3624 2945 Pls
3624 2945 Pls
3625 2944 Pls
3625 2944 Pls
3625 2944 Pls
3625 2943 Pls
3626 2943 Pls
3626 2943 Pls
3626 2943 Pls
3626 2943 Pls
3626 2942 Pls
3627 2942 Pls
3627 2942 Pls
3627 2942 Pls
3627 2942 Pls
3627 2942 Pls
3628 2942 Pls
3629 2942 Pls
3629 2941 Pls
3630 2941 Pls
3630 2941 Pls
3631 2941 Pls
3632 2941 Pls
3632 2940 Pls
3632 2940 Pls
3632 2940 Pls
3632 2940 Pls
3633 2940 Pls
3633 2939 Pls
3633 2939 Pls
3633 2939 Pls
3633 2939 Pls
3633 2939 Pls
3634 2938 Pls
3634 2938 Pls
3634 2938 Pls
3635 2938 Pls
3635 2938 Pls
3635 2938 Pls
3635 2938 Pls
3636 2938 Pls
3636 2937 Pls
3636 2937 Pls
3636 2937 Pls
3636 2937 Pls
3636 2937 Pls
3636 2937 Pls
3637 2936 Pls
3637 2936 Pls
3637 2936 Pls
3637 2936 Pls
3638 2936 Pls
3638 2936 Pls
3638 2935 Pls
3638 2935 Pls
3639 2935 Pls
3639 2935 Pls
3640 2935 Pls
3641 2935 Pls
3641 2934 Pls
3641 2934 Pls
3641 2934 Pls
3642 2934 Pls
3642 2934 Pls
3642 2933 Pls
3642 2933 Pls
3642 2933 Pls
3642 2933 Pls
3643 2933 Pls
3643 2933 Pls
3643 2932 Pls
3643 2932 Pls
3643 2932 Pls
3643 2932 Pls
3643 2932 Pls
3643 2931 Pls
3644 2931 Pls
3644 2931 Pls
3644 2931 Pls
3645 2931 Pls
3645 2931 Pls
3645 2930 Pls
3645 2930 Pls
3645 2930 Pls
3646 2930 Pls
3647 2930 Pls
3647 2930 Pls
3647 2930 Pls
3647 2929 Pls
3647 2929 Pls
3648 2929 Pls
3648 2929 Pls
3649 2929 Pls
3649 2929 Pls
3649 2928 Pls
3649 2928 Pls
3649 2928 Pls
3649 2928 Pls
3650 2928 Pls
3650 2928 Pls
3650 2927 Pls
3650 2927 Pls
3651 2927 Pls
3651 2927 Pls
3651 2927 Pls
3652 2927 Pls
3652 2926 Pls
3653 2926 Pls
3653 2926 Pls
3653 2926 Pls
3653 2926 Pls
3653 2926 Pls
3653 2925 Pls
3654 2925 Pls
3654 2925 Pls
3654 2925 Pls
3655 2925 Pls
3655 2925 Pls
3655 2925 Pls
3655 2924 Pls
3656 2924 Pls
3656 2924 Pls
3656 2924 Pls
3656 2924 Pls
3656 2924 Pls
3657 2924 Pls
3657 2924 Pls
3657 2923 Pls
3658 2923 Pls
3659 2923 Pls
3659 2923 Pls
3659 2923 Pls
3659 2923 Pls
3659 2922 Pls
3660 2922 Pls
3660 2922 Pls
3660 2922 Pls
3661 2922 Pls
3661 2922 Pls
3662 2921 Pls
3662 2921 Pls
3662 2921 Pls
3662 2921 Pls
3662 2921 Pls
3663 2921 Pls
3663 2920 Pls
3664 2920 Pls
3664 2920 Pls
3664 2920 Pls
3664 2920 Pls
3665 2920 Pls
3666 2919 Pls
3667 2919 Pls
3667 2919 Pls
3667 2919 Pls
3667 2919 Pls
3668 2919 Pls
3669 2918 Pls
3669 2918 Pls
3669 2918 Pls
3669 2918 Pls
3669 2918 Pls
3670 2918 Pls
3670 2918 Pls
3670 2917 Pls
3670 2917 Pls
3670 2917 Pls
3670 2917 Pls
3670 2917 Pls
3671 2917 Pls
3671 2917 Pls
3671 2916 Pls
3671 2916 Pls
3671 2916 Pls
3671 2916 Pls
3672 2916 Pls
3672 2916 Pls
3672 2916 Pls
3673 2915 Pls
3673 2915 Pls
3673 2915 Pls
3674 2915 Pls
3674 2915 Pls
3674 2915 Pls
3675 2914 Pls
3675 2914 Pls
3675 2914 Pls
3676 2914 Pls
3676 2914 Pls
3677 2914 Pls
3677 2914 Pls
3677 2913 Pls
3678 2913 Pls
3678 2913 Pls
3679 2913 Pls
3679 2913 Pls
3679 2913 Pls
3680 2913 Pls
3680 2912 Pls
3680 2912 Pls
3680 2912 Pls
3680 2912 Pls
3680 2912 Pls
3681 2912 Pls
3681 2911 Pls
3681 2911 Pls
3681 2911 Pls
3681 2911 Pls
3682 2911 Pls
3682 2911 Pls
3682 2910 Pls
3683 2910 Pls
3683 2910 Pls
3683 2910 Pls
3684 2910 Pls
3684 2910 Pls
3685 2909 Pls
3685 2909 Pls
3685 2909 Pls
3685 2909 Pls
3686 2909 Pls
3686 2909 Pls
3686 2908 Pls
3686 2908 Pls
3688 2908 Pls
3688 2908 Pls
3689 2907 Pls
3689 2907 Pls
3689 2907 Pls
3689 2907 Pls
3689 2907 Pls
3690 2907 Pls
3690 2906 Pls
3690 2906 Pls
3690 2906 Pls
3690 2906 Pls
3690 2906 Pls
3690 2906 Pls
3691 2905 Pls
3691 2905 Pls
3691 2905 Pls
3692 2905 Pls
3692 2905 Pls
3692 2905 Pls
3692 2904 Pls
3692 2904 Pls
3693 2904 Pls
3693 2904 Pls
3693 2904 Pls
3693 2904 Pls
3693 2903 Pls
3693 2903 Pls
3693 2903 Pls
3694 2903 Pls
3695 2903 Pls
3695 2902 Pls
3695 2902 Pls
3695 2902 Pls
3695 2902 Pls
3696 2902 Pls
3696 2902 Pls
3697 2901 Pls
3697 2901 Pls
3697 2901 Pls
3698 2901 Pls
3698 2901 Pls
3698 2901 Pls
3699 2901 Pls
3699 2900 Pls
3699 2900 Pls
3699 2900 Pls
3700 2900 Pls
3700 2900 Pls
3700 2900 Pls
3701 2899 Pls
3701 2899 Pls
3701 2899 Pls
3702 2899 Pls
3702 2899 Pls
3703 2899 Pls
3703 2899 Pls
3703 2898 Pls
3703 2898 Pls
3704 2898 Pls
3704 2898 Pls
3704 2898 Pls
3704 2897 Pls
3704 2897 Pls
3704 2897 Pls
3705 2897 Pls
3705 2897 Pls
3705 2896 Pls
3705 2896 Pls
3705 2896 Pls
3707 2896 Pls
3707 2896 Pls
3708 2896 Pls
3708 2895 Pls
3708 2895 Pls
3709 2895 Pls
3709 2895 Pls
3710 2895 Pls
3711 2895 Pls
3711 2895 Pls
3711 2894 Pls
3711 2894 Pls
3712 2894 Pls
3712 2894 Pls
3713 2894 Pls
3713 2894 Pls
3713 2893 Pls
3714 2893 Pls
3714 2893 Pls
3714 2893 Pls
3714 2893 Pls
3715 2893 Pls
3715 2893 Pls
3715 2892 Pls
3716 2892 Pls
3716 2892 Pls
3716 2892 Pls
3716 2892 Pls
3717 2892 Pls
3717 2892 Pls
3718 2891 Pls
3718 2891 Pls
3718 2891 Pls
3719 2891 Pls
3719 2890 Pls
3719 2890 Pls
3720 2890 Pls
3720 2890 Pls
3721 2889 Pls
3721 2889 Pls
3721 2889 Pls
3722 2889 Pls
3722 2889 Pls
3722 2889 Pls
3722 2889 Pls
3722 2888 Pls
3723 2888 Pls
3723 2888 Pls
3724 2888 Pls
3724 2888 Pls
3724 2888 Pls
3725 2887 Pls
3725 2887 Pls
3725 2887 Pls
3726 2887 Pls
3726 2887 Pls
3727 2887 Pls
3727 2886 Pls
3727 2886 Pls
3728 2886 Pls
3728 2886 Pls
3728 2886 Pls
3728 2885 Pls
3729 2885 Pls
3729 2885 Pls
3729 2885 Pls
3729 2885 Pls
3731 2885 Pls
3731 2885 Pls
3732 2884 Pls
3732 2884 Pls
3732 2884 Pls
3732 2884 Pls
3732 2884 Pls
3732 2883 Pls
3733 2883 Pls
3734 2883 Pls
3734 2883 Pls
3734 2883 Pls
3734 2883 Pls
3734 2883 Pls
3734 2882 Pls
3735 2882 Pls
3735 2882 Pls
3736 2882 Pls
3736 2882 Pls
3736 2882 Pls
3736 2881 Pls
3736 2881 Pls
3737 2881 Pls
3737 2881 Pls
3737 2881 Pls
3738 2881 Pls
3738 2880 Pls
3739 2880 Pls
3739 2880 Pls
3740 2880 Pls
3740 2880 Pls
3740 2879 Pls
3740 2879 Pls
3741 2879 Pls
3741 2879 Pls
3741 2879 Pls
3742 2879 Pls
3743 2879 Pls
3743 2878 Pls
3743 2878 Pls
3745 2878 Pls
3745 2878 Pls
3745 2878 Pls
3745 2878 Pls
3746 2877 Pls
3746 2877 Pls
3747 2877 Pls
3747 2877 Pls
3747 2877 Pls
3749 2877 Pls
3749 2877 Pls
3749 2876 Pls
3749 2876 Pls
3750 2876 Pls
3750 2876 Pls
3750 2876 Pls
3752 2875 Pls
3752 2875 Pls
3752 2875 Pls
3752 2875 Pls
3752 2874 Pls
3752 2874 Pls
3753 2874 Pls
3753 2874 Pls
3753 2874 Pls
3753 2874 Pls
3754 2873 Pls
3754 2873 Pls
3754 2873 Pls
3754 2873 Pls
3754 2873 Pls
3754 2873 Pls
3754 2872 Pls
3754 2872 Pls
3755 2872 Pls
3755 2871 Pls
3756 2871 Pls
3756 2871 Pls
3757 2871 Pls
3757 2871 Pls
3758 2871 Pls
3758 2870 Pls
3759 2870 Pls
3759 2870 Pls
3760 2870 Pls
3760 2870 Pls
3760 2870 Pls
3760 2870 Pls
3760 2869 Pls
3760 2869 Pls
3760 2869 Pls
3760 2869 Pls
3761 2869 Pls
3761 2868 Pls
3762 2868 Pls
3762 2868 Pls
3762 2868 Pls
3762 2868 Pls
3763 2867 Pls
3763 2867 Pls
3763 2867 Pls
3764 2867 Pls
3765 2867 Pls
3765 2867 Pls
3766 2866 Pls
3766 2866 Pls
3766 2866 Pls
3766 2866 Pls
3767 2866 Pls
3767 2866 Pls
3768 2865 Pls
3769 2865 Pls
3769 2865 Pls
3769 2865 Pls
3769 2865 Pls
3770 2865 Pls
3770 2864 Pls
3770 2864 Pls
3770 2864 Pls
3771 2864 Pls
3771 2864 Pls
3771 2864 Pls
3772 2863 Pls
3772 2863 Pls
3773 2863 Pls
3773 2863 Pls
3774 2862 Pls
3775 2862 Pls
3775 2862 Pls
3776 2862 Pls
3776 2862 Pls
3776 2862 Pls
3776 2861 Pls
3777 2861 Pls
3777 2861 Pls
3778 2861 Pls
3778 2861 Pls
3778 2861 Pls
3778 2860 Pls
3778 2860 Pls
3779 2860 Pls
3779 2860 Pls
3779 2860 Pls
3780 2859 Pls
3781 2859 Pls
3782 2859 Pls
3782 2859 Pls
3782 2859 Pls
3783 2859 Pls
3783 2858 Pls
3783 2858 Pls
3784 2858 Pls
3784 2858 Pls
3784 2858 Pls
3785 2858 Pls
3785 2857 Pls
3785 2857 Pls
3785 2857 Pls
3786 2857 Pls
3786 2857 Pls
3786 2857 Pls
3786 2856 Pls
3787 2856 Pls
3788 2856 Pls
3788 2856 Pls
3788 2855 Pls
3789 2855 Pls
3789 2855 Pls
3789 2855 Pls
3790 2855 Pls
3790 2855 Pls
3790 2854 Pls
3790 2854 Pls
3791 2854 Pls
3791 2854 Pls
3791 2854 Pls
3791 2854 Pls
3791 2853 Pls
3792 2853 Pls
3792 2853 Pls
3792 2853 Pls
3792 2853 Pls
3792 2853 Pls
3793 2852 Pls
3793 2852 Pls
3793 2852 Pls
3793 2852 Pls
3794 2852 Pls
3794 2851 Pls
3794 2851 Pls
3794 2851 Pls
3796 2851 Pls
3796 2851 Pls
3796 2850 Pls
3796 2850 Pls
3796 2850 Pls
3796 2850 Pls
3796 2850 Pls
3796 2850 Pls
3797 2849 Pls
3797 2849 Pls
3797 2849 Pls
3797 2849 Pls
3798 2849 Pls
3798 2849 Pls
3798 2848 Pls
3798 2848 Pls
3798 2848 Pls
3799 2848 Pls
3799 2848 Pls
3799 2848 Pls
3800 2847 Pls
3801 2847 Pls
3801 2847 Pls
3801 2847 Pls
3802 2847 Pls
3802 2846 Pls
3804 2846 Pls
3804 2846 Pls
3804 2846 Pls
3805 2846 Pls
3805 2845 Pls
3805 2845 Pls
3807 2845 Pls
3807 2845 Pls
3807 2845 Pls
3808 2845 Pls
3808 2844 Pls
3808 2844 Pls
3809 2844 Pls
3810 2844 Pls
3810 2844 Pls
3811 2844 Pls
3812 2843 Pls
3813 2843 Pls
3813 2843 Pls
3813 2843 Pls
3813 2843 Pls
3814 2843 Pls
3814 2842 Pls
3815 2842 Pls
3815 2842 Pls
3816 2842 Pls
3816 2841 Pls
3816 2841 Pls
3816 2841 Pls
3817 2841 Pls
3817 2840 Pls
3817 2840 Pls
3817 2840 Pls
3817 2840 Pls
3817 2840 Pls
3818 2840 Pls
3819 2839 Pls
3820 2839 Pls
3820 2839 Pls
3821 2839 Pls
3822 2839 Pls
3822 2839 Pls
3822 2838 Pls
3822 2838 Pls
3823 2838 Pls
3823 2838 Pls
3823 2838 Pls
3824 2837 Pls
3824 2837 Pls
3825 2837 Pls
3825 2837 Pls
3825 2837 Pls
3826 2837 Pls
3826 2836 Pls
3827 2836 Pls
3827 2836 Pls
3828 2836 Pls
3828 2836 Pls
3829 2836 Pls
3829 2835 Pls
3829 2835 Pls
3829 2835 Pls
3829 2835 Pls
3830 2834 Pls
3830 2834 Pls
3830 2834 Pls
3830 2834 Pls
3830 2834 Pls
3830 2834 Pls
3831 2833 Pls
3831 2833 Pls
3831 2833 Pls
3832 2833 Pls
3833 2833 Pls
3833 2832 Pls
3833 2832 Pls
3834 2832 Pls
3834 2832 Pls
3835 2832 Pls
3836 2832 Pls
3836 2831 Pls
3836 2831 Pls
3836 2831 Pls
3837 2831 Pls
3837 2831 Pls
3838 2830 Pls
3838 2830 Pls
3838 2830 Pls
3839 2830 Pls
3839 2830 Pls
3839 2830 Pls
3839 2829 Pls
3839 2829 Pls
3839 2829 Pls
3840 2829 Pls
3840 2829 Pls
3840 2829 Pls
3841 2828 Pls
3842 2828 Pls
3843 2828 Pls
3843 2828 Pls
3843 2828 Pls
3844 2827 Pls
3844 2827 Pls
3845 2827 Pls
3845 2827 Pls
3845 2827 Pls
3845 2826 Pls
3846 2826 Pls
3846 2826 Pls
3846 2826 Pls
3848 2826 Pls
3848 2825 Pls
3848 2825 Pls
3849 2825 Pls
3849 2825 Pls
3849 2825 Pls
3850 2824 Pls
3850 2824 Pls
3850 2824 Pls
3850 2824 Pls
3850 2824 Pls
3851 2824 Pls
3852 2823 Pls
3852 2823 Pls
3853 2823 Pls
3853 2823 Pls
3853 2823 Pls
3853 2822 Pls
3854 2822 Pls
3854 2822 Pls
3855 2822 Pls
3855 2822 Pls
3855 2822 Pls
3855 2821 Pls
3855 2821 Pls
3856 2821 Pls
3856 2821 Pls
3856 2820 Pls
3856 2820 Pls
3856 2820 Pls
3856 2820 Pls
3857 2820 Pls
3857 2820 Pls
3857 2819 Pls
3857 2819 Pls
3858 2819 Pls
3858 2819 Pls
3858 2819 Pls
3859 2818 Pls
3859 2818 Pls
3859 2818 Pls
3859 2818 Pls
3859 2817 Pls
3860 2817 Pls
3860 2817 Pls
3860 2817 Pls
3860 2817 Pls
3860 2817 Pls
3861 2816 Pls
3862 2816 Pls
3862 2816 Pls
3863 2816 Pls
3863 2815 Pls
3863 2815 Pls
3863 2815 Pls
3863 2815 Pls
3863 2815 Pls
3864 2814 Pls
3864 2814 Pls
3864 2814 Pls
3865 2814 Pls
3865 2814 Pls
3865 2813 Pls
3865 2813 Pls
3866 2813 Pls
3866 2813 Pls
3866 2813 Pls
3866 2813 Pls
3867 2812 Pls
3867 2812 Pls
3868 2812 Pls
3868 2812 Pls
3868 2811 Pls
3868 2811 Pls
3869 2811 Pls
3869 2810 Pls
3869 2810 Pls
3870 2810 Pls
3870 2810 Pls
3871 2810 Pls
3871 2809 Pls
3872 2809 Pls
3872 2809 Pls
3873 2809 Pls
3873 2809 Pls
3873 2809 Pls
3874 2808 Pls
3874 2808 Pls
3874 2808 Pls
3875 2808 Pls
3875 2807 Pls
3877 2807 Pls
3877 2807 Pls
3878 2807 Pls
3878 2807 Pls
3880 2806 Pls
3880 2806 Pls
3881 2806 Pls
3882 2806 Pls
3883 2805 Pls
3883 2805 Pls
3884 2805 Pls
3884 2805 Pls
3884 2805 Pls
3885 2804 Pls
3885 2804 Pls
3886 2804 Pls
3886 2804 Pls
3887 2804 Pls
3887 2803 Pls
3888 2803 Pls
3888 2803 Pls
3888 2803 Pls
3889 2803 Pls
3890 2803 Pls
3890 2802 Pls
3890 2802 Pls
3891 2802 Pls
3893 2802 Pls
3894 2802 Pls
3894 2801 Pls
3894 2801 Pls
3894 2801 Pls
3895 2801 Pls
3895 2800 Pls
3895 2800 Pls
3896 2800 Pls
3896 2800 Pls
3896 2800 Pls
3897 2799 Pls
3898 2799 Pls
3898 2799 Pls
3899 2799 Pls
3900 2799 Pls
3900 2798 Pls
3901 2798 Pls
3901 2798 Pls
3901 2798 Pls
3901 2798 Pls
3902 2797 Pls
3902 2797 Pls
3902 2797 Pls
3902 2797 Pls
3903 2797 Pls
3903 2796 Pls
3903 2796 Pls
3903 2796 Pls
3904 2796 Pls
3904 2796 Pls
3904 2795 Pls
3905 2795 Pls
3905 2795 Pls
3905 2795 Pls
3905 2795 Pls
3905 2794 Pls
3905 2794 Pls
3906 2794 Pls
3906 2794 Pls
3906 2793 Pls
3906 2793 Pls
3906 2793 Pls
3907 2793 Pls
3907 2792 Pls
3908 2792 Pls
3908 2792 Pls
3909 2792 Pls
3909 2792 Pls
3909 2791 Pls
3909 2791 Pls
3909 2791 Pls
3911 2791 Pls
3911 2790 Pls
3911 2790 Pls
3911 2790 Pls
3911 2790 Pls
3912 2790 Pls
3913 2789 Pls
3913 2789 Pls
3914 2789 Pls
3916 2789 Pls
3916 2789 Pls
3917 2788 Pls
3917 2788 Pls
3917 2788 Pls
3917 2787 Pls
3917 2787 Pls
3918 2787 Pls
3918 2787 Pls
3918 2787 Pls
3919 2786 Pls
3919 2786 Pls
3919 2786 Pls
3919 2786 Pls
3920 2785 Pls
3920 2785 Pls
3920 2785 Pls
3920 2784 Pls
3920 2784 Pls
3920 2784 Pls
3921 2784 Pls
3922 2784 Pls
3923 2783 Pls
3923 2783 Pls
3923 2783 Pls
3923 2783 Pls
3923 2783 Pls
3924 2782 Pls
3924 2782 Pls
3924 2782 Pls
3925 2782 Pls
3925 2781 Pls
3926 2781 Pls
3926 2781 Pls
3926 2781 Pls
3928 2780 Pls
3928 2780 Pls
3929 2780 Pls
3929 2780 Pls
3930 2780 Pls
3930 2779 Pls
3930 2779 Pls
3931 2779 Pls
3932 2779 Pls
3932 2779 Pls
3933 2778 Pls
3933 2778 Pls
3934 2778 Pls
3934 2778 Pls
3934 2777 Pls
3935 2777 Pls
3935 2777 Pls
3936 2777 Pls
3936 2776 Pls
3937 2776 Pls
3937 2776 Pls
3937 2776 Pls
3938 2776 Pls
3938 2775 Pls
3938 2775 Pls
3938 2775 Pls
3939 2775 Pls
3939 2775 Pls
3939 2774 Pls
3939 2774 Pls
3940 2774 Pls
3940 2774 Pls
3940 2773 Pls
3940 2773 Pls
3941 2773 Pls
3941 2773 Pls
3942 2773 Pls
3942 2772 Pls
3942 2772 Pls
3943 2772 Pls
3943 2772 Pls
3943 2772 Pls
3943 2771 Pls
3944 2771 Pls
3945 2771 Pls
3945 2771 Pls
3946 2770 Pls
3946 2770 Pls
3947 2770 Pls
3947 2770 Pls
3947 2770 Pls
3948 2769 Pls
3949 2769 Pls
3950 2769 Pls
3950 2769 Pls
3950 2769 Pls
3950 2768 Pls
3950 2768 Pls
3951 2768 Pls
3951 2768 Pls
3951 2767 Pls
3952 2767 Pls
3952 2767 Pls
3953 2767 Pls
3953 2767 Pls
3953 2766 Pls
3953 2766 Pls
3953 2766 Pls
3954 2766 Pls
3955 2765 Pls
3956 2765 Pls
3956 2765 Pls
3956 2765 Pls
3957 2765 Pls
3957 2764 Pls
3957 2764 Pls
3957 2764 Pls
3958 2764 Pls
3958 2763 Pls
3959 2763 Pls
3959 2763 Pls
3959 2763 Pls
3959 2763 Pls
3959 2762 Pls
3960 2762 Pls
3960 2762 Pls
3960 2762 Pls
3961 2761 Pls
3961 2761 Pls
3961 2761 Pls
3962 2761 Pls
3962 2761 Pls
3962 2760 Pls
3962 2760 Pls
3962 2760 Pls
3962 2759 Pls
3963 2759 Pls
3963 2759 Pls
3963 2759 Pls
3963 2759 Pls
3963 2758 Pls
3964 2758 Pls
3964 2758 Pls
3964 2758 Pls
3965 2757 Pls
3965 2757 Pls
3966 2757 Pls
3967 2757 Pls
3967 2757 Pls
3967 2756 Pls
3967 2756 Pls
3969 2756 Pls
3969 2756 Pls
3970 2755 Pls
3970 2755 Pls
3971 2755 Pls
3972 2755 Pls
3972 2755 Pls
3974 2754 Pls
3974 2754 Pls
3975 2754 Pls
3975 2754 Pls
3976 2753 Pls
3976 2753 Pls
3977 2753 Pls
3978 2753 Pls
3978 2752 Pls
3978 2752 Pls
3979 2752 Pls
3979 2752 Pls
3981 2752 Pls
3981 2751 Pls
3981 2751 Pls
3982 2751 Pls
3982 2751 Pls
3982 2750 Pls
3983 2750 Pls
3984 2750 Pls
3984 2750 Pls
3984 2750 Pls
3984 2749 Pls
3984 2749 Pls
3985 2749 Pls
3985 2749 Pls
3986 2748 Pls
3986 2748 Pls
3986 2748 Pls
3987 2748 Pls
3987 2747 Pls
3988 2747 Pls
3990 2747 Pls
3991 2747 Pls
3991 2747 Pls
3991 2746 Pls
3992 2746 Pls
3992 2746 Pls
3992 2746 Pls
3992 2745 Pls
3993 2745 Pls
3993 2745 Pls
3993 2745 Pls
3993 2744 Pls
3994 2744 Pls
3995 2744 Pls
3995 2744 Pls
3996 2743 Pls
3996 2743 Pls
3996 2743 Pls
3997 2743 Pls
3997 2743 Pls
3998 2742 Pls
3999 2742 Pls
3999 2742 Pls
3999 2742 Pls
4000 2741 Pls
4001 2741 Pls
4001 2741 Pls
4001 2741 Pls
4002 2740 Pls
4002 2740 Pls
4003 2740 Pls
4003 2740 Pls
4003 2739 Pls
4004 2739 Pls
4004 2739 Pls
4005 2739 Pls
4005 2738 Pls
4006 2738 Pls
4006 2738 Pls
4006 2737 Pls
4006 2737 Pls
4006 2737 Pls
4007 2737 Pls
4007 2736 Pls
4007 2736 Pls
4007 2736 Pls
4009 2736 Pls
4010 2735 Pls
4010 2735 Pls
4010 2735 Pls
4010 2735 Pls
4011 2734 Pls
4011 2734 Pls
4012 2734 Pls
4012 2734 Pls
4013 2734 Pls
4013 2733 Pls
4013 2733 Pls
4014 2733 Pls
4014 2733 Pls
4014 2732 Pls
4015 2732 Pls
4015 2732 Pls
4015 2732 Pls
4016 2731 Pls
4016 2731 Pls
4016 2731 Pls
4016 2731 Pls
4017 2730 Pls
4017 2730 Pls
4017 2730 Pls
4017 2730 Pls
4018 2729 Pls
4018 2729 Pls
4018 2729 Pls
4018 2729 Pls
4020 2728 Pls
4020 2728 Pls
4020 2728 Pls
4020 2728 Pls
4021 2727 Pls
4021 2727 Pls
4021 2727 Pls
4021 2727 Pls
4022 2726 Pls
4022 2726 Pls
4023 2726 Pls
4023 2726 Pls
4023 2725 Pls
4023 2725 Pls
4024 2725 Pls
4024 2724 Pls
4024 2724 Pls
4024 2724 Pls
4024 2724 Pls
4025 2723 Pls
4026 2723 Pls
4026 2723 Pls
4026 2723 Pls
4026 2722 Pls
4026 2722 Pls
4027 2722 Pls
4028 2722 Pls
4028 2721 Pls
4029 2721 Pls
4029 2721 Pls
4029 2721 Pls
4029 2720 Pls
4030 2720 Pls
4030 2720 Pls
4030 2720 Pls
4031 2719 Pls
4031 2719 Pls
4032 2719 Pls
4032 2719 Pls
4032 2718 Pls
4032 2718 Pls
4032 2718 Pls
4032 2718 Pls
4032 2717 Pls
4032 2717 Pls
4033 2717 Pls
4033 2717 Pls
4033 2716 Pls
4034 2716 Pls
4034 2716 Pls
4034 2716 Pls
4035 2715 Pls
4035 2715 Pls
4036 2715 Pls
4036 2715 Pls
4036 2714 Pls
4037 2714 Pls
4037 2714 Pls
4037 2713 Pls
4038 2713 Pls
4039 2713 Pls
4039 2713 Pls
4040 2712 Pls
4040 2712 Pls
4042 2712 Pls
4042 2712 Pls
4043 2711 Pls
4043 2711 Pls
4043 2711 Pls
4044 2711 Pls
4044 2710 Pls
4044 2710 Pls
4044 2710 Pls
4045 2710 Pls
4045 2709 Pls
4045 2709 Pls
4045 2708 Pls
4047 2708 Pls
4047 2708 Pls
4048 2708 Pls
4048 2707 Pls
4048 2707 Pls
4048 2707 Pls
4049 2706 Pls
4049 2706 Pls
4050 2706 Pls
4050 2706 Pls
4051 2705 Pls
4051 2705 Pls
4051 2705 Pls
4051 2705 Pls
4051 2704 Pls
4052 2704 Pls
4052 2704 Pls
4052 2704 Pls
4052 2703 Pls
4052 2703 Pls
4052 2703 Pls
4053 2702 Pls
4053 2702 Pls
4053 2702 Pls
4054 2702 Pls
4055 2701 Pls
4055 2701 Pls
4055 2701 Pls
4056 2701 Pls
4056 2700 Pls
4056 2700 Pls
4057 2700 Pls
4058 2700 Pls
4058 2699 Pls
4058 2699 Pls
4059 2699 Pls
4059 2698 Pls
4059 2698 Pls
4059 2698 Pls
4059 2698 Pls
4059 2697 Pls
4060 2697 Pls
4060 2697 Pls
4061 2697 Pls
4061 2696 Pls
4062 2696 Pls
4062 2696 Pls
4063 2695 Pls
4063 2695 Pls
4063 2695 Pls
4063 2695 Pls
4064 2694 Pls
4064 2694 Pls
4064 2694 Pls
4064 2694 Pls
4065 2693 Pls
4065 2693 Pls
4067 2693 Pls
4067 2692 Pls
4067 2692 Pls
4067 2692 Pls
4068 2692 Pls
4069 2691 Pls
4069 2691 Pls
4069 2691 Pls
4069 2691 Pls
4070 2690 Pls
4070 2690 Pls
4070 2689 Pls
4071 2689 Pls
4071 2689 Pls
4071 2689 Pls
4071 2688 Pls
4072 2688 Pls
4072 2688 Pls
4072 2688 Pls
4073 2687 Pls
4074 2687 Pls
4074 2687 Pls
4074 2686 Pls
4074 2686 Pls
4074 2686 Pls
4074 2686 Pls
4075 2685 Pls
4076 2685 Pls
4077 2685 Pls
4077 2684 Pls
4077 2684 Pls
4077 2684 Pls
4078 2683 Pls
4078 2683 Pls
4078 2683 Pls
4079 2683 Pls
4081 2682 Pls
4081 2682 Pls
4081 2682 Pls
4082 2681 Pls
4082 2681 Pls
4082 2681 Pls
4082 2681 Pls
4082 2680 Pls
4083 2680 Pls
4083 2680 Pls
4083 2679 Pls
4083 2679 Pls
4083 2679 Pls
4084 2679 Pls
4084 2678 Pls
4084 2678 Pls
4085 2678 Pls
4085 2677 Pls
4085 2677 Pls
4085 2677 Pls
4086 2677 Pls
4086 2676 Pls
4086 2676 Pls
4087 2676 Pls
4087 2675 Pls
4087 2675 Pls
4087 2675 Pls
4088 2675 Pls
4089 2674 Pls
4089 2674 Pls
4090 2674 Pls
4090 2673 Pls
4091 2673 Pls
4091 2673 Pls
4092 2673 Pls
4092 2672 Pls
4093 2672 Pls
4093 2672 Pls
4093 2671 Pls
4094 2671 Pls
4094 2671 Pls
4095 2671 Pls
4095 2670 Pls
4096 2670 Pls
4097 2670 Pls
4097 2669 Pls
4098 2669 Pls
4098 2669 Pls
4098 2668 Pls
4098 2668 Pls
4098 2668 Pls
4099 2667 Pls
4099 2667 Pls
4099 2667 Pls
4099 2666 Pls
4099 2666 Pls
4099 2666 Pls
4100 2666 Pls
4100 2665 Pls
4101 2665 Pls
4102 2665 Pls
4102 2664 Pls
4102 2664 Pls
4103 2664 Pls
4103 2663 Pls
4103 2663 Pls
4103 2663 Pls
4104 2663 Pls
4104 2662 Pls
4104 2662 Pls
4105 2662 Pls
4105 2661 Pls
4106 2661 Pls
4106 2661 Pls
4107 2660 Pls
4107 2660 Pls
4107 2660 Pls
4108 2660 Pls
4108 2659 Pls
4109 2659 Pls
4109 2659 Pls
4110 2658 Pls
4110 2658 Pls
4110 2658 Pls
4110 2657 Pls
4111 2657 Pls
4111 2657 Pls
4112 2657 Pls
4112 2656 Pls
4113 2656 Pls
4113 2656 Pls
4114 2655 Pls
4115 2655 Pls
4115 2655 Pls
4116 2654 Pls
4116 2654 Pls
4116 2654 Pls
4117 2653 Pls
4119 2653 Pls
4120 2653 Pls
4120 2653 Pls
4121 2652 Pls
4121 2652 Pls
4122 2652 Pls
4122 2651 Pls
4122 2651 Pls
4122 2651 Pls
4123 2650 Pls
4123 2650 Pls
4124 2650 Pls
4124 2649 Pls
4124 2649 Pls
4124 2649 Pls
4126 2649 Pls
4127 2648 Pls
4127 2648 Pls
4129 2648 Pls
4129 2647 Pls
4129 2647 Pls
4129 2647 Pls
4130 2646 Pls
4130 2646 Pls
4131 2646 Pls
4131 2645 Pls
4133 2645 Pls
4133 2645 Pls
4133 2644 Pls
4134 2644 Pls
4134 2644 Pls
4134 2643 Pls
4134 2643 Pls
4134 2643 Pls
4135 2643 Pls
4135 2642 Pls
4135 2642 Pls
4135 2642 Pls
4136 2641 Pls
4136 2641 Pls
4137 2641 Pls
4138 2640 Pls
4138 2640 Pls
4138 2640 Pls
4138 2639 Pls
4139 2639 Pls
4139 2638 Pls
4141 2638 Pls
4141 2638 Pls
4142 2637 Pls
4142 2637 Pls
4142 2637 Pls
4142 2636 Pls
4143 2636 Pls
4144 2636 Pls
4144 2635 Pls
4144 2635 Pls
4145 2635 Pls
4145 2635 Pls
4145 2634 Pls
4145 2634 Pls
4145 2634 Pls
4146 2633 Pls
4146 2633 Pls
4147 2633 Pls
4147 2632 Pls
4147 2632 Pls
4148 2632 Pls
4148 2631 Pls
4148 2631 Pls
4149 2631 Pls
4149 2630 Pls
4149 2630 Pls
4149 2630 Pls
4151 2629 Pls
4152 2629 Pls
4152 2628 Pls
4152 2628 Pls
4153 2628 Pls
4153 2627 Pls
4153 2627 Pls
4153 2627 Pls
4154 2626 Pls
4154 2626 Pls
4155 2626 Pls
4156 2625 Pls
4156 2625 Pls
4157 2625 Pls
4157 2624 Pls
4157 2624 Pls
4158 2624 Pls
4159 2623 Pls
4159 2623 Pls
4159 2623 Pls
4159 2622 Pls
4160 2622 Pls
4160 2622 Pls
4160 2621 Pls
4160 2621 Pls
4161 2621 Pls
4161 2620 Pls
4162 2620 Pls
4163 2620 Pls
4163 2619 Pls
4164 2619 Pls
4164 2619 Pls
4164 2618 Pls
4165 2618 Pls
4166 2618 Pls
4166 2617 Pls
4167 2617 Pls
4168 2616 Pls
4168 2616 Pls
4168 2616 Pls
4169 2615 Pls
4169 2615 Pls
4169 2615 Pls
4170 2614 Pls
4170 2614 Pls
4171 2614 Pls
4171 2613 Pls
4172 2613 Pls
4172 2613 Pls
4172 2612 Pls
4172 2612 Pls
4173 2612 Pls
4174 2611 Pls
4174 2611 Pls
4174 2611 Pls
4175 2610 Pls
4175 2610 Pls
4175 2610 Pls
4175 2609 Pls
4176 2609 Pls
4176 2609 Pls
4177 2608 Pls
4177 2608 Pls
4179 2607 Pls
4179 2607 Pls
4179 2607 Pls
4179 2606 Pls
4180 2606 Pls
4181 2606 Pls
4181 2605 Pls
4181 2605 Pls
4181 2605 Pls
4182 2604 Pls
4183 2604 Pls
4184 2604 Pls
4185 2603 Pls
4186 2603 Pls
4186 2602 Pls
4187 2602 Pls
4187 2602 Pls
4188 2601 Pls
4189 2601 Pls
4190 2601 Pls
4190 2600 Pls
4190 2600 Pls
4191 2600 Pls
4193 2599 Pls
4194 2599 Pls
4194 2599 Pls
4195 2598 Pls
4195 2598 Pls
4196 2597 Pls
4196 2597 Pls
4196 2597 Pls
4197 2596 Pls
4198 2596 Pls
4199 2596 Pls
4200 2595 Pls
4201 2595 Pls
4202 2595 Pls
4203 2594 Pls
4203 2594 Pls
4203 2593 Pls
4204 2593 Pls
4204 2593 Pls
4204 2592 Pls
4205 2592 Pls
4205 2592 Pls
4206 2591 Pls
4206 2591 Pls
4206 2590 Pls
4206 2590 Pls
4206 2590 Pls
4208 2589 Pls
4209 2589 Pls
4209 2589 Pls
4209 2588 Pls
4209 2588 Pls
4210 2587 Pls
4210 2587 Pls
4210 2587 Pls
4211 2586 Pls
4211 2586 Pls
4212 2586 Pls
4212 2585 Pls
4212 2585 Pls
4213 2584 Pls
4213 2584 Pls
4213 2584 Pls
4214 2583 Pls
4214 2583 Pls
4216 2583 Pls
4216 2582 Pls
4216 2582 Pls
4218 2581 Pls
4218 2581 Pls
4220 2581 Pls
4220 2580 Pls
4220 2580 Pls
4221 2580 Pls
4221 2579 Pls
4221 2579 Pls
4222 2578 Pls
4222 2578 Pls
4223 2578 Pls
4223 2577 Pls
4224 2577 Pls
4225 2576 Pls
4225 2576 Pls
4226 2576 Pls
4226 2575 Pls
4226 2575 Pls
4228 2575 Pls
4228 2574 Pls
4228 2574 Pls
4229 2573 Pls
4229 2573 Pls
4229 2573 Pls
4229 2572 Pls
4230 2572 Pls
4230 2571 Pls
4232 2571 Pls
4233 2571 Pls
4233 2570 Pls
4233 2570 Pls
4233 2569 Pls
4233 2569 Pls
4233 2568 Pls
4234 2568 Pls
4234 2567 Pls
4234 2567 Pls
4234 2567 Pls
4234 2566 Pls
4234 2566 Pls
4235 2565 Pls
4235 2565 Pls
4235 2565 Pls
4235 2564 Pls
4235 2564 Pls
4235 2563 Pls
4235 2563 Pls
4235 2563 Pls
4236 2562 Pls
4236 2562 Pls
4236 2561 Pls
4237 2561 Pls
4237 2561 Pls
4237 2560 Pls
4237 2560 Pls
4237 2559 Pls
4237 2559 Pls
4237 2558 Pls
4237 2558 Pls
4237 2557 Pls
4238 2557 Pls
4238 2557 Pls
4238 2556 Pls
4238 2556 Pls
4238 2555 Pls
4238 2555 Pls
4238 2554 Pls
4238 2554 Pls
4238 2554 Pls
4238 2553 Pls
4239 2553 Pls
4239 2552 Pls
4239 2552 Pls
4239 2552 Pls
4239 2551 Pls
4240 2551 Pls
4240 2550 Pls
4240 2550 Pls
4240 2549 Pls
4240 2549 Pls
4240 2549 Pls
4240 2548 Pls
4240 2548 Pls
4240 2547 Pls
4241 2547 Pls
4241 2547 Pls
4241 2546 Pls
4241 2545 Pls
4241 2545 Pls
4241 2544 Pls
4242 2544 Pls
4242 2544 Pls
4242 2543 Pls
4242 2543 Pls
4242 2542 Pls
4242 2542 Pls
4242 2541 Pls
4242 2541 Pls
4242 2541 Pls
4243 2540 Pls
4243 2540 Pls
4243 2539 Pls
4243 2539 Pls
4243 2538 Pls
4244 2538 Pls
4244 2538 Pls
4244 2537 Pls
4244 2537 Pls
4244 2536 Pls
4244 2536 Pls
4244 2535 Pls
4244 2535 Pls
4244 2534 Pls
4244 2534 Pls
4244 2534 Pls
4244 2533 Pls
4244 2533 Pls
4244 2532 Pls
4244 2532 Pls
4245 2531 Pls
4245 2531 Pls
4245 2530 Pls
4245 2530 Pls
4245 2530 Pls
4245 2529 Pls
4245 2528 Pls
4245 2528 Pls
4245 2527 Pls
4245 2527 Pls
4246 2526 Pls
4246 2526 Pls
4246 2526 Pls
4246 2525 Pls
4246 2525 Pls
4246 2524 Pls
4246 2524 Pls
4246 2523 Pls
4247 2523 Pls
4247 2522 Pls
4247 2522 Pls
4247 2521 Pls
4247 2521 Pls
4247 2521 Pls
4248 2520 Pls
4248 2520 Pls
4248 2519 Pls
4248 2519 Pls
4248 2518 Pls
4249 2518 Pls
4249 2517 Pls
4249 2517 Pls
4249 2516 Pls
4249 2516 Pls
4249 2515 Pls
4249 2515 Pls
4249 2515 Pls
4249 2514 Pls
4250 2514 Pls
4250 2513 Pls
4250 2513 Pls
4250 2512 Pls
4251 2512 Pls
4251 2511 Pls
4251 2511 Pls
4251 2510 Pls
4251 2510 Pls
4251 2509 Pls
4251 2509 Pls
4252 2508 Pls
4252 2508 Pls
4253 2507 Pls
4253 2507 Pls
4253 2507 Pls
4253 2506 Pls
4253 2506 Pls
4253 2505 Pls
4254 2505 Pls
4254 2504 Pls
4254 2504 Pls
4254 2503 Pls
4254 2503 Pls
4254 2502 Pls
4254 2502 Pls
4255 2501 Pls
4255 2501 Pls
4255 2500 Pls
4255 2500 Pls
4255 2499 Pls
4255 2499 Pls
4255 2498 Pls
4255 2498 Pls
4256 2497 Pls
4256 2497 Pls
4256 2496 Pls
4256 2496 Pls
4256 2495 Pls
4257 2495 Pls
4257 2494 Pls
4258 2494 Pls
4258 2493 Pls
4258 2493 Pls
4258 2492 Pls
4258 2491 Pls
4258 2491 Pls
4259 2490 Pls
4259 2490 Pls
4259 2489 Pls
4260 2489 Pls
4260 2488 Pls
4261 2488 Pls
4261 2487 Pls
4262 2487 Pls
4262 2486 Pls
4262 2486 Pls
4262 2485 Pls
4263 2485 Pls
4263 2484 Pls
4263 2484 Pls
4263 2483 Pls
4264 2483 Pls
4265 2482 Pls
4265 2482 Pls
4265 2481 Pls
4266 2481 Pls
4266 2480 Pls
4267 2480 Pls
4267 2479 Pls
4268 2479 Pls
4268 2478 Pls
4268 2478 Pls
4268 2477 Pls
4269 2477 Pls
4269 2476 Pls
4269 2476 Pls
4270 2475 Pls
4271 2474 Pls
4272 2474 Pls
4272 2473 Pls
4273 2473 Pls
4273 2472 Pls
4274 2472 Pls
4274 2471 Pls
4275 2471 Pls
4275 2470 Pls
4275 2470 Pls
4276 2469 Pls
4276 2469 Pls
4277 2468 Pls
4277 2468 Pls
4277 2467 Pls
4278 2466 Pls
4278 2466 Pls
4279 2465 Pls
4279 2464 Pls
4281 2464 Pls
4281 2463 Pls
4281 2463 Pls
4282 2462 Pls
4283 2462 Pls
4283 2461 Pls
4284 2461 Pls
4285 2460 Pls
4285 2459 Pls
4286 2459 Pls
4287 2458 Pls
4287 2458 Pls
4288 2457 Pls
4288 2457 Pls
4289 2456 Pls
4290 2456 Pls
4290 2455 Pls
4291 2454 Pls
4292 2454 Pls
4293 2453 Pls
4293 2453 Pls
4294 2452 Pls
4294 2452 Pls
4294 2451 Pls
4295 2450 Pls
4295 2450 Pls
4300 2449 Pls
4300 2449 Pls
4303 2448 Pls
4303 2448 Pls
4303 2447 Pls
4304 2447 Pls
4304 2446 Pls
4306 2445 Pls
4307 2445 Pls
4308 2444 Pls
4308 2444 Pls
4308 2443 Pls
4308 2442 Pls
4309 2442 Pls
4310 2441 Pls
4310 2441 Pls
4311 2440 Pls
4311 2440 Pls
4312 2439 Pls
4312 2438 Pls
4312 2438 Pls
4312 2437 Pls
4313 2437 Pls
4313 2436 Pls
4314 2435 Pls
4315 2435 Pls
4315 2434 Pls
4315 2434 Pls
4315 2433 Pls
4316 2433 Pls
4316 2432 Pls
4317 2431 Pls
4317 2431 Pls
4318 2430 Pls
4318 2430 Pls
4321 2429 Pls
4322 2428 Pls
4323 2428 Pls
4323 2427 Pls
4324 2426 Pls
4325 2426 Pls
4325 2425 Pls
4329 2425 Pls
4331 2424 Pls
4331 2423 Pls
4332 2423 Pls
4332 2422 Pls
4334 2422 Pls
4335 2421 Pls
4335 2420 Pls
4335 2420 Pls
4336 2419 Pls
4337 2418 Pls
4337 2418 Pls
4340 2417 Pls
4341 2417 Pls
4341 2416 Pls
4342 2415 Pls
4344 2415 Pls
4345 2414 Pls
4346 2413 Pls
4349 2412 Pls
4349 2412 Pls
4349 2411 Pls
4350 2410 Pls
4350 2410 Pls
4350 2409 Pls
4352 2408 Pls
4353 2408 Pls
4353 2407 Pls
4353 2406 Pls
4354 2406 Pls
4354 2405 Pls
4355 2405 Pls
4355 2404 Pls
4355 2403 Pls
4355 2403 Pls
4356 2402 Pls
4357 2401 Pls
4357 2401 Pls
4357 2400 Pls
4357 2399 Pls
4358 2399 Pls
4361 2398 Pls
4362 2397 Pls
4362 2397 Pls
4362 2396 Pls
4363 2395 Pls
4364 2395 Pls
4364 2394 Pls
4364 2393 Pls
4364 2393 Pls
4364 2392 Pls
4364 2391 Pls
4365 2391 Pls
4365 2390 Pls
4366 2389 Pls
4368 2389 Pls
4369 2388 Pls
4370 2387 Pls
4373 2387 Pls
4373 2386 Pls
4373 2385 Pls
4373 2384 Pls
4374 2384 Pls
4374 2383 Pls
4376 2382 Pls
4379 2382 Pls
4380 2381 Pls
4381 2380 Pls
4381 2380 Pls
4382 2379 Pls
4383 2378 Pls
4384 2377 Pls
4384 2377 Pls
4385 2376 Pls
4386 2375 Pls
4387 2375 Pls
4387 2374 Pls
4390 2373 Pls
4390 2373 Pls
4391 2372 Pls
4392 2371 Pls
4392 2370 Pls
4392 2370 Pls
4392 2369 Pls
4395 2368 Pls
4395 2367 Pls
4395 2367 Pls
4395 2366 Pls
4395 2365 Pls
4396 2365 Pls
4397 2364 Pls
4398 2363 Pls
4398 2362 Pls
4399 2362 Pls
4400 2361 Pls
4403 2360 Pls
4404 2359 Pls
4406 2359 Pls
4408 2358 Pls
4408 2357 Pls
4408 2356 Pls
4409 2356 Pls
4409 2355 Pls
4410 2354 Pls
4410 2353 Pls
4411 2353 Pls
4412 2352 Pls
4413 2351 Pls
4414 2350 Pls
4415 2350 Pls
4417 2349 Pls
4418 2348 Pls
4418 2347 Pls
4419 2347 Pls
4420 2346 Pls
4421 2345 Pls
4422 2344 Pls
4423 2343 Pls
4425 2343 Pls
4428 2342 Pls
4429 2341 Pls
4430 2340 Pls
4430 2339 Pls
4433 2339 Pls
4434 2338 Pls
4434 2337 Pls
4434 2336 Pls
4435 2336 Pls
4436 2335 Pls
4436 2334 Pls
4437 2333 Pls
4437 2332 Pls
4437 2331 Pls
4439 2331 Pls
4439 2330 Pls
4440 2329 Pls
4441 2328 Pls
4441 2327 Pls
4441 2327 Pls
4443 2326 Pls
4443 2325 Pls
4443 2324 Pls
4444 2323 Pls
4444 2322 Pls
4444 2322 Pls
4445 2321 Pls
4446 2320 Pls
4446 2319 Pls
4446 2318 Pls
4446 2317 Pls
4447 2317 Pls
4448 2316 Pls
4448 2315 Pls
4449 2314 Pls
4450 2313 Pls
4452 2312 Pls
4453 2311 Pls
4456 2311 Pls
4456 2310 Pls
4457 2309 Pls
4458 2308 Pls
4459 2307 Pls
4460 2306 Pls
4460 2305 Pls
4460 2305 Pls
4462 2304 Pls
4463 2303 Pls
4464 2302 Pls
4469 2301 Pls
4469 2300 Pls
4471 2299 Pls
4472 2298 Pls
4472 2297 Pls
4474 2297 Pls
4474 2296 Pls
4474 2295 Pls
4475 2294 Pls
4476 2293 Pls
4479 2292 Pls
4479 2291 Pls
4482 2290 Pls
4484 2289 Pls
4485 2288 Pls
4485 2287 Pls
4488 2287 Pls
4489 2286 Pls
4489 2285 Pls
4489 2284 Pls
4490 2283 Pls
4491 2282 Pls
4493 2281 Pls
4493 2280 Pls
4493 2279 Pls
4494 2278 Pls
4498 2277 Pls
4501 2276 Pls
4504 2275 Pls
4504 2274 Pls
4504 2273 Pls
4506 2272 Pls
4507 2271 Pls
4508 2270 Pls
4509 2269 Pls
4510 2268 Pls
4511 2267 Pls
4512 2267 Pls
4512 2266 Pls
4515 2265 Pls
4515 2264 Pls
4517 2263 Pls
4518 2262 Pls
4518 2261 Pls
4519 2260 Pls
4519 2259 Pls
4520 2258 Pls
4523 2257 Pls
4526 2256 Pls
4526 2254 Pls
4527 2253 Pls
4527 2252 Pls
4527 2251 Pls
4529 2250 Pls
4530 2249 Pls
4530 2248 Pls
4530 2247 Pls
4531 2246 Pls
4532 2245 Pls
4532 2244 Pls
4533 2243 Pls
4534 2242 Pls
4536 2241 Pls
4538 2240 Pls
4541 2239 Pls
4541 2238 Pls
4542 2237 Pls
4542 2236 Pls
4542 2235 Pls
4543 2233 Pls
4543 2232 Pls
4545 2231 Pls
4549 2230 Pls
4549 2229 Pls
4556 2228 Pls
4557 2227 Pls
4557 2226 Pls
4559 2225 Pls
4559 2224 Pls
4560 2222 Pls
4566 2221 Pls
4568 2220 Pls
4570 2219 Pls
4570 2218 Pls
4572 2217 Pls
4573 2216 Pls
4574 2214 Pls
4575 2213 Pls
4576 2212 Pls
4580 2211 Pls
4580 2210 Pls
4580 2209 Pls
4583 2207 Pls
4587 2206 Pls
4590 2205 Pls
4593 2204 Pls
4595 2203 Pls
4595 2202 Pls
4597 2200 Pls
4599 2199 Pls
4599 2198 Pls
4600 2197 Pls
4602 2196 Pls
4603 2194 Pls
4605 2193 Pls
4606 2192 Pls
4607 2191 Pls
4608 2189 Pls
4608 2188 Pls
4609 2187 Pls
4611 2186 Pls
4613 2184 Pls
4613 2183 Pls
4613 2182 Pls
4613 2181 Pls
4617 2179 Pls
4619 2178 Pls
4620 2177 Pls
4620 2175 Pls
4624 2174 Pls
4628 2173 Pls
4628 2172 Pls
4629 2170 Pls
4630 2169 Pls
4634 2168 Pls
4635 2166 Pls
4637 2165 Pls
4638 2164 Pls
4639 2162 Pls
4640 2161 Pls
4641 2160 Pls
4643 2158 Pls
4646 2157 Pls
4646 2155 Pls
4649 2154 Pls
4649 2153 Pls
4650 2151 Pls
4652 2150 Pls
4654 2149 Pls
4661 2147 Pls
4662 2146 Pls
4663 2144 Pls
4663 2143 Pls
4665 2141 Pls
4666 2140 Pls
4668 2139 Pls
4668 2137 Pls
4670 2136 Pls
4677 2134 Pls
4682 2133 Pls
4682 2131 Pls
4683 2130 Pls
4684 2128 Pls
4685 2127 Pls
4685 2125 Pls
4685 2124 Pls
4687 2122 Pls
4688 2121 Pls
4688 2119 Pls
4690 2118 Pls
4695 2116 Pls
4698 2115 Pls
4700 2113 Pls
4701 2111 Pls
4701 2110 Pls
4702 2108 Pls
4703 2107 Pls
4704 2105 Pls
4704 2104 Pls
4707 2102 Pls
4709 2100 Pls
4711 2099 Pls
4711 2097 Pls
4713 2095 Pls
4713 2094 Pls
4714 2092 Pls
4714 2090 Pls
4722 2089 Pls
4724 2087 Pls
4726 2085 Pls
4727 2084 Pls
4731 2082 Pls
4734 2080 Pls
4737 2079 Pls
4740 2077 Pls
4743 2075 Pls
4746 2073 Pls
4747 2072 Pls
4750 2070 Pls
4752 2068 Pls
4752 2066 Pls
4752 2064 Pls
4755 2063 Pls
4758 2061 Pls
4759 2059 Pls
4760 2057 Pls
4762 2055 Pls
4763 2053 Pls
4766 2052 Pls
4768 2050 Pls
4769 2048 Pls
4776 2046 Pls
4777 2044 Pls
4778 2042 Pls
4779 2040 Pls
4781 2038 Pls
4781 2036 Pls
4781 2034 Pls
4784 2032 Pls
4784 2030 Pls
4785 2028 Pls
4785 2026 Pls
4789 2024 Pls
4790 2022 Pls
4792 2020 Pls
4792 2018 Pls
4793 2016 Pls
4794 2014 Pls
4794 2012 Pls
4795 2010 Pls
4797 2007 Pls
4798 2005 Pls
4798 2003 Pls
4798 2001 Pls
4802 1999 Pls
4803 1997 Pls
4805 1994 Pls
4813 1992 Pls
4817 1990 Pls
4818 1988 Pls
4818 1985 Pls
4823 1983 Pls
4823 1981 Pls
4826 1978 Pls
4827 1976 Pls
4831 1974 Pls
4834 1971 Pls
4835 1969 Pls
4837 1966 Pls
4837 1964 Pls
4838 1962 Pls
4839 1959 Pls
4844 1957 Pls
4847 1954 Pls
4855 1952 Pls
4857 1949 Pls
4859 1946 Pls
4860 1944 Pls
4860 1941 Pls
4862 1939 Pls
4867 1936 Pls
4875 1933 Pls
4877 1931 Pls
4877 1928 Pls
4880 1925 Pls
4881 1922 Pls
4881 1920 Pls
4881 1917 Pls
4885 1914 Pls
4885 1911 Pls
4885 1908 Pls
4889 1905 Pls
4890 1902 Pls
4899 1899 Pls
4899 1896 Pls
4901 1893 Pls
4901 1890 Pls
4903 1887 Pls
4905 1884 Pls
4906 1881 Pls
4906 1878 Pls
4911 1875 Pls
4912 1872 Pls
4914 1868 Pls
4920 1865 Pls
4920 1862 Pls
4921 1858 Pls
4922 1855 Pls
4928 1852 Pls
4933 1848 Pls
4938 1845 Pls
4945 1841 Pls
4949 1838 Pls
4952 1834 Pls
4960 1830 Pls
4961 1827 Pls
4961 1823 Pls
4962 1819 Pls
4963 1816 Pls
4966 1812 Pls
4969 1808 Pls
4976 1804 Pls
4978 1800 Pls
4980 1796 Pls
4988 1792 Pls
4990 1788 Pls
4991 1783 Pls
5001 1779 Pls
5003 1775 Pls
5004 1771 Pls
5005 1766 Pls
5009 1762 Pls
5010 1757 Pls
5011 1753 Pls
5014 1748 Pls
5015 1743 Pls
5022 1738 Pls
5026 1734 Pls
5027 1729 Pls
5034 1724 Pls
5042 1719 Pls
5042 1713 Pls
5043 1708 Pls
5046 1703 Pls
5052 1698 Pls
5053 1692 Pls
5054 1686 Pls
5068 1681 Pls
5083 1675 Pls
5105 1669 Pls
5107 1663 Pls
5108 1657 Pls
5123 1651 Pls
5133 1644 Pls
5134 1638 Pls
5135 1631 Pls
5135 1625 Pls
5143 1618 Pls
5173 1611 Pls
5175 1604 Pls
5180 1596 Pls
5207 1589 Pls
5212 1581 Pls
5241 1574 Pls
5244 1566 Pls
5245 1557 Pls
5257 1549 Pls
5271 1540 Pls
5281 1531 Pls
5308 1522 Pls
5309 1513 Pls
5322 1503 Pls
5332 1493 Pls
5341 1483 Pls
5352 1473 Pls
5352 1462 Pls
5365 1450 Pls
5371 1439 Pls
5384 1427 Pls
5386 1414 Pls
5402 1401 Pls
5408 1388 Pls
5438 1373 Pls
5442 1359 Pls
5447 1343 Pls
5514 1327 Pls
5515 1310 Pls
5515 1292 Pls
5523 1273 Pls
5537 1253 Pls
5552 1231 Pls
5557 1208 Pls
5589 1184 Pls
5608 1157 Pls
5628 1128 Pls
5642 1097 Pls
5726 1062 Pls
5829 1022 Pls
5846 978 Pls
5862 927 Pls
5918 866 Pls
6002 792 Pls
6071 697 Pls
6091 562 Pls
6392 331 Pls
% End plot #1
2.000 UL
LTb
LCb setrgbcolor
1.000 UL
LTB
LCb setrgbcolor
966 4871 N
966 280 L
5981 0 V
0 4591 V
-5981 0 V
Z stroke
1.000 UP
1.000 UL
LTb
LCb setrgbcolor
stroke
grestore
end
showpage
%%Trailer
%%DocumentFonts: Helvetica
%%Pages: 1
