%!PS-Adobe-2.0
%%Title: packets-ip-ccdf-linlog.eps
%%Creator: gnuplot 5.0 patchlevel 3
%%CreationDate: Mon May 29 11:14:09 2017
%%DocumentFonts: (atend)
%%BoundingBox: 50 50 554 770
%%Orientation: Landscape
%%Pages: (atend)
%%EndComments
%%BeginProlog
/gnudict 256 dict def
gnudict begin
%
% The following true/false flags may be edited by hand if desired.
% The unit line width and grayscale image gamma correction may also be changed.
%
/Color true def
/Blacktext false def
/Solid false def
/Dashlength 1 def
/Landscape true def
/Level1 false def
/Level3 false def
/Rounded false def
/ClipToBoundingBox false def
/SuppressPDFMark false def
/TransparentPatterns false def
/gnulinewidth 5.000 def
/userlinewidth gnulinewidth def
/Gamma 1.0 def
/BackgroundColor {-1.000 -1.000 -1.000} def
%
/vshift -46 def
/dl1 {
  10.0 Dashlength userlinewidth gnulinewidth div mul mul mul
  Rounded { currentlinewidth 0.75 mul sub dup 0 le { pop 0.01 } if } if
} def
/dl2 {
  10.0 Dashlength userlinewidth gnulinewidth div mul mul mul
  Rounded { currentlinewidth 0.75 mul add } if
} def
/hpt_ 31.5 def
/vpt_ 31.5 def
/hpt hpt_ def
/vpt vpt_ def
/doclip {
  ClipToBoundingBox {
    newpath 50 50 moveto 554 50 lineto 554 770 lineto 50 770 lineto closepath
    clip
  } if
} def
%
% Gnuplot Prolog Version 5.1 (Oct 2015)
%
%/SuppressPDFMark true def
%
/M {moveto} bind def
/L {lineto} bind def
/R {rmoveto} bind def
/V {rlineto} bind def
/N {newpath moveto} bind def
/Z {closepath} bind def
/C {setrgbcolor} bind def
/f {rlineto fill} bind def
/g {setgray} bind def
/Gshow {show} def   % May be redefined later in the file to support UTF-8
/vpt2 vpt 2 mul def
/hpt2 hpt 2 mul def
/Lshow {currentpoint stroke M 0 vshift R 
	Blacktext {gsave 0 setgray textshow grestore} {textshow} ifelse} def
/Rshow {currentpoint stroke M dup stringwidth pop neg vshift R
	Blacktext {gsave 0 setgray textshow grestore} {textshow} ifelse} def
/Cshow {currentpoint stroke M dup stringwidth pop -2 div vshift R 
	Blacktext {gsave 0 setgray textshow grestore} {textshow} ifelse} def
/UP {dup vpt_ mul /vpt exch def hpt_ mul /hpt exch def
  /hpt2 hpt 2 mul def /vpt2 vpt 2 mul def} def
/DL {Color {setrgbcolor Solid {pop []} if 0 setdash}
 {pop pop pop 0 setgray Solid {pop []} if 0 setdash} ifelse} def
/BL {stroke userlinewidth 2 mul setlinewidth
	Rounded {1 setlinejoin 1 setlinecap} if} def
/AL {stroke userlinewidth 2 div setlinewidth
	Rounded {1 setlinejoin 1 setlinecap} if} def
/UL {dup gnulinewidth mul /userlinewidth exch def
	dup 1 lt {pop 1} if 10 mul /udl exch def} def
/PL {stroke userlinewidth setlinewidth
	Rounded {1 setlinejoin 1 setlinecap} if} def
3.8 setmiterlimit
% Classic Line colors (version 5.0)
/LCw {1 1 1} def
/LCb {0 0 0} def
/LCa {0 0 0} def
/LC0 {1 0 0} def
/LC1 {0 1 0} def
/LC2 {0 0 1} def
/LC3 {1 0 1} def
/LC4 {0 1 1} def
/LC5 {1 1 0} def
/LC6 {0 0 0} def
/LC7 {1 0.3 0} def
/LC8 {0.5 0.5 0.5} def
% Default dash patterns (version 5.0)
/LTB {BL [] LCb DL} def
/LTw {PL [] 1 setgray} def
/LTb {PL [] LCb DL} def
/LTa {AL [1 udl mul 2 udl mul] 0 setdash LCa setrgbcolor} def
/LT0 {PL [] LC0 DL} def
/LT1 {PL [2 dl1 3 dl2] LC1 DL} def
/LT2 {PL [1 dl1 1.5 dl2] LC2 DL} def
/LT3 {PL [6 dl1 2 dl2 1 dl1 2 dl2] LC3 DL} def
/LT4 {PL [1 dl1 2 dl2 6 dl1 2 dl2 1 dl1 2 dl2] LC4 DL} def
/LT5 {PL [4 dl1 2 dl2] LC5 DL} def
/LT6 {PL [1.5 dl1 1.5 dl2 1.5 dl1 1.5 dl2 1.5 dl1 6 dl2] LC6 DL} def
/LT7 {PL [3 dl1 3 dl2 1 dl1 3 dl2] LC7 DL} def
/LT8 {PL [2 dl1 2 dl2 2 dl1 6 dl2] LC8 DL} def
/SL {[] 0 setdash} def
/Pnt {stroke [] 0 setdash gsave 1 setlinecap M 0 0 V stroke grestore} def
/Dia {stroke [] 0 setdash 2 copy vpt add M
  hpt neg vpt neg V hpt vpt neg V
  hpt vpt V hpt neg vpt V closepath stroke
  Pnt} def
/Pls {stroke [] 0 setdash vpt sub M 0 vpt2 V
  currentpoint stroke M
  hpt neg vpt neg R hpt2 0 V stroke
 } def
/Box {stroke [] 0 setdash 2 copy exch hpt sub exch vpt add M
  0 vpt2 neg V hpt2 0 V 0 vpt2 V
  hpt2 neg 0 V closepath stroke
  Pnt} def
/Crs {stroke [] 0 setdash exch hpt sub exch vpt add M
  hpt2 vpt2 neg V currentpoint stroke M
  hpt2 neg 0 R hpt2 vpt2 V stroke} def
/TriU {stroke [] 0 setdash 2 copy vpt 1.12 mul add M
  hpt neg vpt -1.62 mul V
  hpt 2 mul 0 V
  hpt neg vpt 1.62 mul V closepath stroke
  Pnt} def
/Star {2 copy Pls Crs} def
/BoxF {stroke [] 0 setdash exch hpt sub exch vpt add M
  0 vpt2 neg V hpt2 0 V 0 vpt2 V
  hpt2 neg 0 V closepath fill} def
/TriUF {stroke [] 0 setdash vpt 1.12 mul add M
  hpt neg vpt -1.62 mul V
  hpt 2 mul 0 V
  hpt neg vpt 1.62 mul V closepath fill} def
/TriD {stroke [] 0 setdash 2 copy vpt 1.12 mul sub M
  hpt neg vpt 1.62 mul V
  hpt 2 mul 0 V
  hpt neg vpt -1.62 mul V closepath stroke
  Pnt} def
/TriDF {stroke [] 0 setdash vpt 1.12 mul sub M
  hpt neg vpt 1.62 mul V
  hpt 2 mul 0 V
  hpt neg vpt -1.62 mul V closepath fill} def
/DiaF {stroke [] 0 setdash vpt add M
  hpt neg vpt neg V hpt vpt neg V
  hpt vpt V hpt neg vpt V closepath fill} def
/Pent {stroke [] 0 setdash 2 copy gsave
  translate 0 hpt M 4 {72 rotate 0 hpt L} repeat
  closepath stroke grestore Pnt} def
/PentF {stroke [] 0 setdash gsave
  translate 0 hpt M 4 {72 rotate 0 hpt L} repeat
  closepath fill grestore} def
/Circle {stroke [] 0 setdash 2 copy
  hpt 0 360 arc stroke Pnt} def
/CircleF {stroke [] 0 setdash hpt 0 360 arc fill} def
/C0 {BL [] 0 setdash 2 copy moveto vpt 90 450 arc} bind def
/C1 {BL [] 0 setdash 2 copy moveto
	2 copy vpt 0 90 arc closepath fill
	vpt 0 360 arc closepath} bind def
/C2 {BL [] 0 setdash 2 copy moveto
	2 copy vpt 90 180 arc closepath fill
	vpt 0 360 arc closepath} bind def
/C3 {BL [] 0 setdash 2 copy moveto
	2 copy vpt 0 180 arc closepath fill
	vpt 0 360 arc closepath} bind def
/C4 {BL [] 0 setdash 2 copy moveto
	2 copy vpt 180 270 arc closepath fill
	vpt 0 360 arc closepath} bind def
/C5 {BL [] 0 setdash 2 copy moveto
	2 copy vpt 0 90 arc
	2 copy moveto
	2 copy vpt 180 270 arc closepath fill
	vpt 0 360 arc} bind def
/C6 {BL [] 0 setdash 2 copy moveto
	2 copy vpt 90 270 arc closepath fill
	vpt 0 360 arc closepath} bind def
/C7 {BL [] 0 setdash 2 copy moveto
	2 copy vpt 0 270 arc closepath fill
	vpt 0 360 arc closepath} bind def
/C8 {BL [] 0 setdash 2 copy moveto
	2 copy vpt 270 360 arc closepath fill
	vpt 0 360 arc closepath} bind def
/C9 {BL [] 0 setdash 2 copy moveto
	2 copy vpt 270 450 arc closepath fill
	vpt 0 360 arc closepath} bind def
/C10 {BL [] 0 setdash 2 copy 2 copy moveto vpt 270 360 arc closepath fill
	2 copy moveto
	2 copy vpt 90 180 arc closepath fill
	vpt 0 360 arc closepath} bind def
/C11 {BL [] 0 setdash 2 copy moveto
	2 copy vpt 0 180 arc closepath fill
	2 copy moveto
	2 copy vpt 270 360 arc closepath fill
	vpt 0 360 arc closepath} bind def
/C12 {BL [] 0 setdash 2 copy moveto
	2 copy vpt 180 360 arc closepath fill
	vpt 0 360 arc closepath} bind def
/C13 {BL [] 0 setdash 2 copy moveto
	2 copy vpt 0 90 arc closepath fill
	2 copy moveto
	2 copy vpt 180 360 arc closepath fill
	vpt 0 360 arc closepath} bind def
/C14 {BL [] 0 setdash 2 copy moveto
	2 copy vpt 90 360 arc closepath fill
	vpt 0 360 arc} bind def
/C15 {BL [] 0 setdash 2 copy vpt 0 360 arc closepath fill
	vpt 0 360 arc closepath} bind def
/Rec {newpath 4 2 roll moveto 1 index 0 rlineto 0 exch rlineto
	neg 0 rlineto closepath} bind def
/Square {dup Rec} bind def
/Bsquare {vpt sub exch vpt sub exch vpt2 Square} bind def
/S0 {BL [] 0 setdash 2 copy moveto 0 vpt rlineto BL Bsquare} bind def
/S1 {BL [] 0 setdash 2 copy vpt Square fill Bsquare} bind def
/S2 {BL [] 0 setdash 2 copy exch vpt sub exch vpt Square fill Bsquare} bind def
/S3 {BL [] 0 setdash 2 copy exch vpt sub exch vpt2 vpt Rec fill Bsquare} bind def
/S4 {BL [] 0 setdash 2 copy exch vpt sub exch vpt sub vpt Square fill Bsquare} bind def
/S5 {BL [] 0 setdash 2 copy 2 copy vpt Square fill
	exch vpt sub exch vpt sub vpt Square fill Bsquare} bind def
/S6 {BL [] 0 setdash 2 copy exch vpt sub exch vpt sub vpt vpt2 Rec fill Bsquare} bind def
/S7 {BL [] 0 setdash 2 copy exch vpt sub exch vpt sub vpt vpt2 Rec fill
	2 copy vpt Square fill Bsquare} bind def
/S8 {BL [] 0 setdash 2 copy vpt sub vpt Square fill Bsquare} bind def
/S9 {BL [] 0 setdash 2 copy vpt sub vpt vpt2 Rec fill Bsquare} bind def
/S10 {BL [] 0 setdash 2 copy vpt sub vpt Square fill 2 copy exch vpt sub exch vpt Square fill
	Bsquare} bind def
/S11 {BL [] 0 setdash 2 copy vpt sub vpt Square fill 2 copy exch vpt sub exch vpt2 vpt Rec fill
	Bsquare} bind def
/S12 {BL [] 0 setdash 2 copy exch vpt sub exch vpt sub vpt2 vpt Rec fill Bsquare} bind def
/S13 {BL [] 0 setdash 2 copy exch vpt sub exch vpt sub vpt2 vpt Rec fill
	2 copy vpt Square fill Bsquare} bind def
/S14 {BL [] 0 setdash 2 copy exch vpt sub exch vpt sub vpt2 vpt Rec fill
	2 copy exch vpt sub exch vpt Square fill Bsquare} bind def
/S15 {BL [] 0 setdash 2 copy Bsquare fill Bsquare} bind def
/D0 {gsave translate 45 rotate 0 0 S0 stroke grestore} bind def
/D1 {gsave translate 45 rotate 0 0 S1 stroke grestore} bind def
/D2 {gsave translate 45 rotate 0 0 S2 stroke grestore} bind def
/D3 {gsave translate 45 rotate 0 0 S3 stroke grestore} bind def
/D4 {gsave translate 45 rotate 0 0 S4 stroke grestore} bind def
/D5 {gsave translate 45 rotate 0 0 S5 stroke grestore} bind def
/D6 {gsave translate 45 rotate 0 0 S6 stroke grestore} bind def
/D7 {gsave translate 45 rotate 0 0 S7 stroke grestore} bind def
/D8 {gsave translate 45 rotate 0 0 S8 stroke grestore} bind def
/D9 {gsave translate 45 rotate 0 0 S9 stroke grestore} bind def
/D10 {gsave translate 45 rotate 0 0 S10 stroke grestore} bind def
/D11 {gsave translate 45 rotate 0 0 S11 stroke grestore} bind def
/D12 {gsave translate 45 rotate 0 0 S12 stroke grestore} bind def
/D13 {gsave translate 45 rotate 0 0 S13 stroke grestore} bind def
/D14 {gsave translate 45 rotate 0 0 S14 stroke grestore} bind def
/D15 {gsave translate 45 rotate 0 0 S15 stroke grestore} bind def
/DiaE {stroke [] 0 setdash vpt add M
  hpt neg vpt neg V hpt vpt neg V
  hpt vpt V hpt neg vpt V closepath stroke} def
/BoxE {stroke [] 0 setdash exch hpt sub exch vpt add M
  0 vpt2 neg V hpt2 0 V 0 vpt2 V
  hpt2 neg 0 V closepath stroke} def
/TriUE {stroke [] 0 setdash vpt 1.12 mul add M
  hpt neg vpt -1.62 mul V
  hpt 2 mul 0 V
  hpt neg vpt 1.62 mul V closepath stroke} def
/TriDE {stroke [] 0 setdash vpt 1.12 mul sub M
  hpt neg vpt 1.62 mul V
  hpt 2 mul 0 V
  hpt neg vpt -1.62 mul V closepath stroke} def
/PentE {stroke [] 0 setdash gsave
  translate 0 hpt M 4 {72 rotate 0 hpt L} repeat
  closepath stroke grestore} def
/CircE {stroke [] 0 setdash 
  hpt 0 360 arc stroke} def
/Opaque {gsave closepath 1 setgray fill grestore 0 setgray closepath} def
/DiaW {stroke [] 0 setdash vpt add M
  hpt neg vpt neg V hpt vpt neg V
  hpt vpt V hpt neg vpt V Opaque stroke} def
/BoxW {stroke [] 0 setdash exch hpt sub exch vpt add M
  0 vpt2 neg V hpt2 0 V 0 vpt2 V
  hpt2 neg 0 V Opaque stroke} def
/TriUW {stroke [] 0 setdash vpt 1.12 mul add M
  hpt neg vpt -1.62 mul V
  hpt 2 mul 0 V
  hpt neg vpt 1.62 mul V Opaque stroke} def
/TriDW {stroke [] 0 setdash vpt 1.12 mul sub M
  hpt neg vpt 1.62 mul V
  hpt 2 mul 0 V
  hpt neg vpt -1.62 mul V Opaque stroke} def
/PentW {stroke [] 0 setdash gsave
  translate 0 hpt M 4 {72 rotate 0 hpt L} repeat
  Opaque stroke grestore} def
/CircW {stroke [] 0 setdash 
  hpt 0 360 arc Opaque stroke} def
/BoxFill {gsave Rec 1 setgray fill grestore} def
/Density {
  /Fillden exch def
  currentrgbcolor
  /ColB exch def /ColG exch def /ColR exch def
  /ColR ColR Fillden mul Fillden sub 1 add def
  /ColG ColG Fillden mul Fillden sub 1 add def
  /ColB ColB Fillden mul Fillden sub 1 add def
  ColR ColG ColB setrgbcolor} def
/BoxColFill {gsave Rec PolyFill} def
/PolyFill {gsave Density fill grestore grestore} def
/h {rlineto rlineto rlineto gsave closepath fill grestore} bind def
%
% PostScript Level 1 Pattern Fill routine for rectangles
% Usage: x y w h s a XX PatternFill
%	x,y = lower left corner of box to be filled
%	w,h = width and height of box
%	  a = angle in degrees between lines and x-axis
%	 XX = 0/1 for no/yes cross-hatch
%
/PatternFill {gsave /PFa [ 9 2 roll ] def
  PFa 0 get PFa 2 get 2 div add PFa 1 get PFa 3 get 2 div add translate
  PFa 2 get -2 div PFa 3 get -2 div PFa 2 get PFa 3 get Rec
  TransparentPatterns {} {gsave 1 setgray fill grestore} ifelse
  clip
  currentlinewidth 0.5 mul setlinewidth
  /PFs PFa 2 get dup mul PFa 3 get dup mul add sqrt def
  0 0 M PFa 5 get rotate PFs -2 div dup translate
  0 1 PFs PFa 4 get div 1 add floor cvi
	{PFa 4 get mul 0 M 0 PFs V} for
  0 PFa 6 get ne {
	0 1 PFs PFa 4 get div 1 add floor cvi
	{PFa 4 get mul 0 2 1 roll M PFs 0 V} for
 } if
  stroke grestore} def
%
/languagelevel where
 {pop languagelevel} {1} ifelse
dup 2 lt
	{/InterpretLevel1 true def
	 /InterpretLevel3 false def}
	{/InterpretLevel1 Level1 def
	 2 gt
	    {/InterpretLevel3 Level3 def}
	    {/InterpretLevel3 false def}
	 ifelse }
 ifelse
%
% PostScript level 2 pattern fill definitions
%
/Level2PatternFill {
/Tile8x8 {/PaintType 2 /PatternType 1 /TilingType 1 /BBox [0 0 8 8] /XStep 8 /YStep 8}
	bind def
/KeepColor {currentrgbcolor [/Pattern /DeviceRGB] setcolorspace} bind def
<< Tile8x8
 /PaintProc {0.5 setlinewidth pop 0 0 M 8 8 L 0 8 M 8 0 L stroke} 
>> matrix makepattern
/Pat1 exch def
<< Tile8x8
 /PaintProc {0.5 setlinewidth pop 0 0 M 8 8 L 0 8 M 8 0 L stroke
	0 4 M 4 8 L 8 4 L 4 0 L 0 4 L stroke}
>> matrix makepattern
/Pat2 exch def
<< Tile8x8
 /PaintProc {0.5 setlinewidth pop 0 0 M 0 8 L
	8 8 L 8 0 L 0 0 L fill}
>> matrix makepattern
/Pat3 exch def
<< Tile8x8
 /PaintProc {0.5 setlinewidth pop -4 8 M 8 -4 L
	0 12 M 12 0 L stroke}
>> matrix makepattern
/Pat4 exch def
<< Tile8x8
 /PaintProc {0.5 setlinewidth pop -4 0 M 8 12 L
	0 -4 M 12 8 L stroke}
>> matrix makepattern
/Pat5 exch def
<< Tile8x8
 /PaintProc {0.5 setlinewidth pop -2 8 M 4 -4 L
	0 12 M 8 -4 L 4 12 M 10 0 L stroke}
>> matrix makepattern
/Pat6 exch def
<< Tile8x8
 /PaintProc {0.5 setlinewidth pop -2 0 M 4 12 L
	0 -4 M 8 12 L 4 -4 M 10 8 L stroke}
>> matrix makepattern
/Pat7 exch def
<< Tile8x8
 /PaintProc {0.5 setlinewidth pop 8 -2 M -4 4 L
	12 0 M -4 8 L 12 4 M 0 10 L stroke}
>> matrix makepattern
/Pat8 exch def
<< Tile8x8
 /PaintProc {0.5 setlinewidth pop 0 -2 M 12 4 L
	-4 0 M 12 8 L -4 4 M 8 10 L stroke}
>> matrix makepattern
/Pat9 exch def
/Pattern1 {PatternBgnd KeepColor Pat1 setpattern} bind def
/Pattern2 {PatternBgnd KeepColor Pat2 setpattern} bind def
/Pattern3 {PatternBgnd KeepColor Pat3 setpattern} bind def
/Pattern4 {PatternBgnd KeepColor Landscape {Pat5} {Pat4} ifelse setpattern} bind def
/Pattern5 {PatternBgnd KeepColor Landscape {Pat4} {Pat5} ifelse setpattern} bind def
/Pattern6 {PatternBgnd KeepColor Landscape {Pat9} {Pat6} ifelse setpattern} bind def
/Pattern7 {PatternBgnd KeepColor Landscape {Pat8} {Pat7} ifelse setpattern} bind def
} def
%
%
%End of PostScript Level 2 code
%
/PatternBgnd {
  TransparentPatterns {} {gsave 1 setgray fill grestore} ifelse
} def
%
% Substitute for Level 2 pattern fill codes with
% grayscale if Level 2 support is not selected.
%
/Level1PatternFill {
/Pattern1 {0.250 Density} bind def
/Pattern2 {0.500 Density} bind def
/Pattern3 {0.750 Density} bind def
/Pattern4 {0.125 Density} bind def
/Pattern5 {0.375 Density} bind def
/Pattern6 {0.625 Density} bind def
/Pattern7 {0.875 Density} bind def
} def
%
% Now test for support of Level 2 code
%
Level1 {Level1PatternFill} {Level2PatternFill} ifelse
%
/Symbol-Oblique /Symbol findfont [1 0 .167 1 0 0] makefont
dup length dict begin {1 index /FID eq {pop pop} {def} ifelse} forall
currentdict end definefont pop
%
/MFshow {
   { dup 5 get 3 ge
     { 5 get 3 eq {gsave} {grestore} ifelse }
     {dup dup 0 get findfont exch 1 get scalefont setfont
     [ currentpoint ] exch dup 2 get 0 exch R dup 5 get 2 ne {dup dup 6
     get exch 4 get {textshow} {stringwidth pop 0 R} ifelse }if dup 5 get 0 eq
     {dup 3 get {2 get neg 0 exch R pop} {pop aload pop M} ifelse} {dup 5
     get 1 eq {dup 2 get exch dup 3 get exch 6 get stringwidth pop -2 div
     dup 0 R} {dup 6 get stringwidth pop -2 div 0 R 6 get
     textshow 2 index {aload pop M neg 3 -1 roll neg R pop pop} {pop pop pop
     pop aload pop M} ifelse }ifelse }ifelse }
     ifelse }
   forall} def
/Gswidth {dup type /stringtype eq {stringwidth} {pop (n) stringwidth} ifelse} def
/MFwidth {0 exch { dup 5 get 3 ge { 5 get 3 eq { 0 } { pop } ifelse }
 {dup 3 get{dup dup 0 get findfont exch 1 get scalefont setfont
     6 get Gswidth pop add} {pop} ifelse} ifelse} forall} def
/MLshow { currentpoint stroke M
  0 exch R
  Blacktext {gsave 0 setgray MFshow grestore} {MFshow} ifelse } bind def
/MRshow { currentpoint stroke M
  exch dup MFwidth neg 3 -1 roll R
  Blacktext {gsave 0 setgray MFshow grestore} {MFshow} ifelse } bind def
/MCshow { currentpoint stroke M
  exch dup MFwidth -2 div 3 -1 roll R
  Blacktext {gsave 0 setgray MFshow grestore} {MFshow} ifelse } bind def
/XYsave    { [( ) 1 2 true false 3 ()] } bind def
/XYrestore { [( ) 1 2 true false 4 ()] } bind def
Level1 SuppressPDFMark or 
{} {
/SDict 10 dict def
systemdict /pdfmark known not {
  userdict /pdfmark systemdict /cleartomark get put
} if
SDict begin [
  /Title (packets-ip-ccdf-linlog.eps)
  /Subject (gnuplot plot)
  /Creator (gnuplot 5.0 patchlevel 3)
  /Author (tiphaine)
%  /Producer (gnuplot)
%  /Keywords ()
  /CreationDate (Mon May 29 11:14:09 2017)
  /DOCINFO pdfmark
end
} ifelse
%
% Support for boxed text - Ethan A Merritt May 2005
%
/InitTextBox { userdict /TBy2 3 -1 roll put userdict /TBx2 3 -1 roll put
           userdict /TBy1 3 -1 roll put userdict /TBx1 3 -1 roll put
	   /Boxing true def } def
/ExtendTextBox { Boxing
    { gsave dup false charpath pathbbox
      dup TBy2 gt {userdict /TBy2 3 -1 roll put} {pop} ifelse
      dup TBx2 gt {userdict /TBx2 3 -1 roll put} {pop} ifelse
      dup TBy1 lt {userdict /TBy1 3 -1 roll put} {pop} ifelse
      dup TBx1 lt {userdict /TBx1 3 -1 roll put} {pop} ifelse
      grestore } if } def
/PopTextBox { newpath TBx1 TBxmargin sub TBy1 TBymargin sub M
               TBx1 TBxmargin sub TBy2 TBymargin add L
	       TBx2 TBxmargin add TBy2 TBymargin add L
	       TBx2 TBxmargin add TBy1 TBymargin sub L closepath } def
/DrawTextBox { PopTextBox stroke /Boxing false def} def
/FillTextBox { gsave PopTextBox 1 1 1 setrgbcolor fill grestore /Boxing false def} def
0 0 0 0 InitTextBox
/TBxmargin 20 def
/TBymargin 20 def
/Boxing false def
/textshow { ExtendTextBox Gshow } def
%
% redundant definitions for compatibility with prologue.ps older than 5.0.2
/LTB {BL [] LCb DL} def
/LTb {PL [] LCb DL} def
end
%%EndProlog
%%Page: 1 1
gnudict begin
gsave
doclip
50 50 translate
0.100 0.100 scale
90 rotate
0 -5040 translate
0 setgray
newpath
(Helvetica) findfont 140 scalefont setfont
BackgroundColor 0 lt 3 1 roll 0 lt exch 0 lt or or not {gsave BackgroundColor C clippath fill grestore} if
1.000 UL
LTb
LCb setrgbcolor
966 280 M
63 0 V
5918 0 R
-63 0 V
stroke
882 280 M
[ [(Helvetica) 140.0 0.0 true true 0 (0.0000010)]
] -46.7 MRshow
1.000 UL
LTb
LCb setrgbcolor
966 510 M
31 0 V
5950 0 R
-31 0 V
966 815 M
31 0 V
5950 0 R
-31 0 V
966 971 M
31 0 V
5950 0 R
-31 0 V
966 1045 M
63 0 V
5918 0 R
-63 0 V
stroke
882 1045 M
[ [(Helvetica) 140.0 0.0 true true 0 (0.0000100)]
] -46.7 MRshow
1.000 UL
LTb
LCb setrgbcolor
966 1276 M
31 0 V
5950 0 R
-31 0 V
966 1580 M
31 0 V
5950 0 R
-31 0 V
966 1736 M
31 0 V
5950 0 R
-31 0 V
966 1810 M
63 0 V
5918 0 R
-63 0 V
stroke
882 1810 M
[ [(Helvetica) 140.0 0.0 true true 0 (0.0001000)]
] -46.7 MRshow
1.000 UL
LTb
LCb setrgbcolor
966 2041 M
31 0 V
5950 0 R
-31 0 V
966 2345 M
31 0 V
5950 0 R
-31 0 V
966 2501 M
31 0 V
5950 0 R
-31 0 V
966 2576 M
63 0 V
5918 0 R
-63 0 V
stroke
882 2576 M
[ [(Helvetica) 140.0 0.0 true true 0 (0.0010000)]
] -46.7 MRshow
1.000 UL
LTb
LCb setrgbcolor
966 2806 M
31 0 V
5950 0 R
-31 0 V
966 3110 M
31 0 V
5950 0 R
-31 0 V
966 3267 M
31 0 V
5950 0 R
-31 0 V
966 3341 M
63 0 V
5918 0 R
-63 0 V
stroke
882 3341 M
[ [(Helvetica) 140.0 0.0 true true 0 (0.0100000)]
] -46.7 MRshow
1.000 UL
LTb
LCb setrgbcolor
966 3571 M
31 0 V
5950 0 R
-31 0 V
966 3875 M
31 0 V
5950 0 R
-31 0 V
966 4032 M
31 0 V
5950 0 R
-31 0 V
966 4106 M
63 0 V
5918 0 R
-63 0 V
stroke
882 4106 M
[ [(Helvetica) 140.0 0.0 true true 0 (0.1000000)]
] -46.7 MRshow
1.000 UL
LTb
LCb setrgbcolor
966 4336 M
31 0 V
5950 0 R
-31 0 V
966 4641 M
31 0 V
5950 0 R
-31 0 V
966 4797 M
31 0 V
5950 0 R
-31 0 V
966 4871 M
63 0 V
5918 0 R
-63 0 V
stroke
882 4871 M
[ [(Helvetica) 140.0 0.0 true true 0 (1.0000000)]
] -46.7 MRshow
1.000 UL
LTb
LCb setrgbcolor
966 280 M
0 63 V
0 4528 R
0 -63 V
stroke
966 140 M
[ [(Helvetica) 140.0 0.0 true true 0 ( 0)]
] -46.7 MCshow
1.000 UL
LTb
LCb setrgbcolor
1564 280 M
0 63 V
0 4528 R
0 -63 V
stroke
1564 140 M
[ [(Helvetica) 140.0 0.0 true true 0 ( 2x10)]
[(Helvetica) 112.0 70.0 true true 0 (6)]
] -60.7 MCshow
1.000 UL
LTb
LCb setrgbcolor
2162 280 M
0 63 V
0 4528 R
0 -63 V
stroke
2162 140 M
[ [(Helvetica) 140.0 0.0 true true 0 ( 4x10)]
[(Helvetica) 112.0 70.0 true true 0 (6)]
] -60.7 MCshow
1.000 UL
LTb
LCb setrgbcolor
2760 280 M
0 63 V
0 4528 R
0 -63 V
stroke
2760 140 M
[ [(Helvetica) 140.0 0.0 true true 0 ( 6x10)]
[(Helvetica) 112.0 70.0 true true 0 (6)]
] -60.7 MCshow
1.000 UL
LTb
LCb setrgbcolor
3358 280 M
0 63 V
0 4528 R
0 -63 V
stroke
3358 140 M
[ [(Helvetica) 140.0 0.0 true true 0 ( 8x10)]
[(Helvetica) 112.0 70.0 true true 0 (6)]
] -60.7 MCshow
1.000 UL
LTb
LCb setrgbcolor
3957 280 M
0 63 V
0 4528 R
0 -63 V
stroke
3957 140 M
[ [(Helvetica) 140.0 0.0 true true 0 ( 1x10)]
[(Helvetica) 112.0 70.0 true true 0 (7)]
] -60.7 MCshow
1.000 UL
LTb
LCb setrgbcolor
4555 280 M
0 63 V
0 4528 R
0 -63 V
stroke
4555 140 M
[ [(Helvetica) 140.0 0.0 true true 0 ( 1.2x10)]
[(Helvetica) 112.0 70.0 true true 0 (7)]
] -60.7 MCshow
1.000 UL
LTb
LCb setrgbcolor
5153 280 M
0 63 V
0 4528 R
0 -63 V
stroke
5153 140 M
[ [(Helvetica) 140.0 0.0 true true 0 ( 1.4x10)]
[(Helvetica) 112.0 70.0 true true 0 (7)]
] -60.7 MCshow
1.000 UL
LTb
LCb setrgbcolor
5751 280 M
0 63 V
0 4528 R
0 -63 V
stroke
5751 140 M
[ [(Helvetica) 140.0 0.0 true true 0 ( 1.6x10)]
[(Helvetica) 112.0 70.0 true true 0 (7)]
] -60.7 MCshow
1.000 UL
LTb
LCb setrgbcolor
6349 280 M
0 63 V
0 4528 R
0 -63 V
stroke
6349 140 M
[ [(Helvetica) 140.0 0.0 true true 0 ( 1.8x10)]
[(Helvetica) 112.0 70.0 true true 0 (7)]
] -60.7 MCshow
1.000 UL
LTb
LCb setrgbcolor
6947 280 M
0 63 V
0 4528 R
0 -63 V
stroke
6947 140 M
[ [(Helvetica) 140.0 0.0 true true 0 ( 2x10)]
[(Helvetica) 112.0 70.0 true true 0 (7)]
] -60.7 MCshow
1.000 UL
LTb
LCb setrgbcolor
1.000 UL
LTB
LCb setrgbcolor
966 4871 N
966 280 L
5981 0 V
0 4591 V
-5981 0 V
Z stroke
1.000 UP
1.000 UL
LTb
LCb setrgbcolor
% Begin plot #1
1.000 UP
1.000 UL
LTb
0.58 0.00 0.83 C 966 4871 Pls
966 4748 Pls
966 4665 Pls
966 4616 Pls
966 4558 Pls
966 4517 Pls
966 4474 Pls
966 4442 Pls
966 4405 Pls
966 4376 Pls
966 4344 Pls
966 4318 Pls
966 4289 Pls
966 4264 Pls
966 4238 Pls
966 4213 Pls
966 4184 Pls
966 4159 Pls
966 4132 Pls
966 4108 Pls
966 4084 Pls
966 4066 Pls
966 4047 Pls
966 4032 Pls
966 4015 Pls
966 4003 Pls
966 3990 Pls
966 3979 Pls
966 3968 Pls
966 3959 Pls
966 3947 Pls
966 3940 Pls
966 3932 Pls
966 3926 Pls
966 3918 Pls
966 3912 Pls
966 3904 Pls
966 3899 Pls
966 3893 Pls
966 3888 Pls
966 3881 Pls
966 3877 Pls
966 3872 Pls
966 3868 Pls
966 3863 Pls
966 3858 Pls
966 3854 Pls
966 3846 Pls
966 3840 Pls
966 3833 Pls
966 3827 Pls
966 3823 Pls
966 3818 Pls
966 3814 Pls
966 3810 Pls
966 3806 Pls
966 3802 Pls
966 3799 Pls
966 3796 Pls
966 3793 Pls
966 3788 Pls
966 3785 Pls
966 3782 Pls
966 3779 Pls
966 3776 Pls
966 3773 Pls
966 3770 Pls
966 3767 Pls
966 3765 Pls
966 3762 Pls
966 3759 Pls
966 3757 Pls
966 3754 Pls
966 3752 Pls
966 3750 Pls
966 3747 Pls
966 3745 Pls
966 3743 Pls
966 3739 Pls
966 3736 Pls
966 3734 Pls
966 3732 Pls
966 3730 Pls
966 3728 Pls
966 3726 Pls
966 3723 Pls
966 3721 Pls
966 3720 Pls
966 3718 Pls
966 3716 Pls
966 3713 Pls
966 3712 Pls
966 3710 Pls
966 3707 Pls
966 3705 Pls
966 3703 Pls
966 3700 Pls
966 3698 Pls
966 3696 Pls
966 3694 Pls
966 3685 Pls
966 3684 Pls
966 3682 Pls
966 3680 Pls
966 3678 Pls
966 3677 Pls
966 3675 Pls
966 3673 Pls
966 3671 Pls
966 3669 Pls
966 3667 Pls
966 3665 Pls
966 3663 Pls
966 3661 Pls
966 3660 Pls
966 3658 Pls
966 3656 Pls
966 3655 Pls
966 3653 Pls
966 3652 Pls
966 3649 Pls
966 3647 Pls
966 3645 Pls
966 3644 Pls
966 3642 Pls
966 3640 Pls
966 3639 Pls
966 3638 Pls
966 3636 Pls
966 3634 Pls
966 3633 Pls
966 3631 Pls
966 3629 Pls
966 3628 Pls
966 3626 Pls
966 3625 Pls
966 3623 Pls
966 3622 Pls
966 3621 Pls
966 3619 Pls
966 3618 Pls
966 3616 Pls
966 3615 Pls
966 3613 Pls
966 3611 Pls
966 3610 Pls
966 3609 Pls
966 3607 Pls
966 3606 Pls
966 3605 Pls
966 3603 Pls
966 3602 Pls
966 3601 Pls
966 3599 Pls
966 3598 Pls
966 3597 Pls
966 3596 Pls
966 3595 Pls
966 3593 Pls
966 3592 Pls
966 3591 Pls
966 3590 Pls
966 3589 Pls
966 3587 Pls
966 3586 Pls
966 3585 Pls
966 3584 Pls
966 3583 Pls
966 3582 Pls
966 3580 Pls
966 3579 Pls
966 3578 Pls
966 3577 Pls
966 3575 Pls
966 3574 Pls
966 3573 Pls
966 3572 Pls
966 3570 Pls
966 3569 Pls
966 3567 Pls
966 3565 Pls
966 3563 Pls
966 3562 Pls
966 3560 Pls
966 3559 Pls
966 3558 Pls
966 3557 Pls
966 3556 Pls
966 3555 Pls
966 3554 Pls
966 3552 Pls
966 3551 Pls
966 3550 Pls
966 3550 Pls
966 3549 Pls
966 3548 Pls
966 3547 Pls
966 3546 Pls
966 3545 Pls
966 3544 Pls
966 3543 Pls
966 3542 Pls
966 3540 Pls
966 3539 Pls
966 3539 Pls
966 3537 Pls
966 3536 Pls
966 3535 Pls
966 3534 Pls
966 3533 Pls
966 3531 Pls
966 3530 Pls
966 3529 Pls
966 3528 Pls
966 3527 Pls
966 3526 Pls
966 3525 Pls
966 3524 Pls
966 3523 Pls
966 3522 Pls
966 3521 Pls
966 3520 Pls
966 3519 Pls
966 3519 Pls
966 3518 Pls
966 3517 Pls
966 3516 Pls
966 3515 Pls
966 3514 Pls
966 3513 Pls
966 3512 Pls
966 3512 Pls
966 3511 Pls
966 3510 Pls
966 3509 Pls
966 3508 Pls
966 3507 Pls
966 3506 Pls
966 3505 Pls
966 3504 Pls
966 3503 Pls
966 3502 Pls
966 3501 Pls
966 3500 Pls
966 3500 Pls
966 3499 Pls
966 3498 Pls
966 3497 Pls
966 3496 Pls
966 3496 Pls
966 3495 Pls
966 3494 Pls
966 3493 Pls
966 3492 Pls
966 3492 Pls
966 3491 Pls
966 3490 Pls
966 3490 Pls
966 3489 Pls
966 3488 Pls
966 3487 Pls
966 3486 Pls
966 3486 Pls
966 3485 Pls
966 3484 Pls
966 3483 Pls
966 3483 Pls
966 3482 Pls
966 3481 Pls
966 3480 Pls
966 3480 Pls
966 3479 Pls
966 3478 Pls
966 3477 Pls
966 3477 Pls
966 3476 Pls
966 3475 Pls
966 3474 Pls
966 3474 Pls
966 3473 Pls
966 3472 Pls
966 3472 Pls
966 3471 Pls
966 3470 Pls
966 3470 Pls
966 3469 Pls
966 3468 Pls
966 3467 Pls
966 3467 Pls
966 3466 Pls
966 3465 Pls
966 3465 Pls
966 3464 Pls
966 3464 Pls
966 3463 Pls
966 3463 Pls
966 3462 Pls
966 3461 Pls
966 3461 Pls
966 3460 Pls
966 3459 Pls
966 3458 Pls
966 3458 Pls
966 3457 Pls
966 3456 Pls
966 3456 Pls
966 3455 Pls
966 3454 Pls
966 3454 Pls
966 3453 Pls
966 3452 Pls
966 3451 Pls
966 3451 Pls
966 3450 Pls
966 3449 Pls
966 3448 Pls
966 3448 Pls
966 3447 Pls
966 3447 Pls
966 3446 Pls
966 3446 Pls
966 3445 Pls
966 3445 Pls
966 3445 Pls
966 3444 Pls
966 3443 Pls
966 3443 Pls
966 3442 Pls
966 3441 Pls
966 3441 Pls
966 3440 Pls
966 3440 Pls
966 3440 Pls
966 3439 Pls
966 3439 Pls
966 3438 Pls
966 3438 Pls
966 3437 Pls
966 3437 Pls
966 3436 Pls
966 3436 Pls
966 3435 Pls
966 3434 Pls
966 3434 Pls
966 3434 Pls
966 3433 Pls
966 3432 Pls
966 3432 Pls
966 3431 Pls
966 3431 Pls
966 3430 Pls
966 3429 Pls
966 3428 Pls
966 3428 Pls
966 3427 Pls
966 3427 Pls
966 3426 Pls
966 3426 Pls
966 3425 Pls
966 3424 Pls
966 3424 Pls
966 3423 Pls
966 3423 Pls
966 3422 Pls
966 3422 Pls
966 3421 Pls
966 3421 Pls
966 3420 Pls
966 3420 Pls
966 3419 Pls
966 3419 Pls
966 3418 Pls
966 3417 Pls
966 3417 Pls
966 3416 Pls
966 3416 Pls
966 3415 Pls
966 3415 Pls
966 3415 Pls
966 3414 Pls
966 3414 Pls
966 3413 Pls
966 3413 Pls
966 3413 Pls
966 3412 Pls
966 3412 Pls
966 3411 Pls
966 3411 Pls
966 3411 Pls
966 3410 Pls
966 3410 Pls
966 3410 Pls
966 3409 Pls
966 3409 Pls
966 3408 Pls
966 3408 Pls
966 3408 Pls
966 3407 Pls
966 3407 Pls
966 3406 Pls
966 3406 Pls
966 3405 Pls
966 3405 Pls
966 3404 Pls
966 3404 Pls
966 3403 Pls
966 3403 Pls
966 3402 Pls
966 3402 Pls
966 3402 Pls
966 3401 Pls
966 3401 Pls
966 3400 Pls
966 3400 Pls
966 3399 Pls
966 3399 Pls
966 3399 Pls
966 3398 Pls
966 3398 Pls
966 3397 Pls
966 3397 Pls
966 3397 Pls
966 3396 Pls
966 3396 Pls
966 3396 Pls
966 3395 Pls
966 3395 Pls
966 3394 Pls
966 3394 Pls
966 3394 Pls
966 3393 Pls
966 3393 Pls
966 3392 Pls
966 3392 Pls
966 3391 Pls
966 3391 Pls
966 3391 Pls
966 3390 Pls
966 3390 Pls
966 3389 Pls
966 3389 Pls
966 3389 Pls
966 3388 Pls
966 3388 Pls
966 3387 Pls
966 3387 Pls
966 3386 Pls
966 3386 Pls
966 3385 Pls
966 3385 Pls
966 3384 Pls
966 3384 Pls
966 3383 Pls
966 3383 Pls
966 3383 Pls
966 3382 Pls
966 3382 Pls
966 3381 Pls
966 3381 Pls
966 3381 Pls
966 3380 Pls
966 3380 Pls
966 3379 Pls
966 3379 Pls
966 3379 Pls
966 3378 Pls
966 3378 Pls
966 3378 Pls
966 3377 Pls
966 3376 Pls
966 3376 Pls
966 3376 Pls
966 3375 Pls
966 3375 Pls
966 3374 Pls
966 3374 Pls
966 3373 Pls
966 3373 Pls
966 3373 Pls
966 3372 Pls
966 3372 Pls
966 3371 Pls
966 3371 Pls
966 3370 Pls
966 3370 Pls
966 3370 Pls
966 3369 Pls
966 3369 Pls
966 3368 Pls
966 3368 Pls
966 3368 Pls
966 3368 Pls
966 3367 Pls
966 3367 Pls
966 3366 Pls
966 3366 Pls
966 3366 Pls
966 3365 Pls
966 3365 Pls
966 3364 Pls
966 3364 Pls
966 3363 Pls
966 3363 Pls
966 3363 Pls
966 3362 Pls
966 3362 Pls
966 3362 Pls
966 3361 Pls
966 3361 Pls
966 3361 Pls
966 3360 Pls
966 3360 Pls
966 3359 Pls
966 3359 Pls
966 3359 Pls
966 3358 Pls
966 3358 Pls
966 3358 Pls
966 3357 Pls
966 3357 Pls
966 3357 Pls
966 3356 Pls
966 3356 Pls
966 3355 Pls
966 3355 Pls
966 3355 Pls
966 3354 Pls
966 3354 Pls
966 3353 Pls
966 3353 Pls
966 3353 Pls
966 3352 Pls
966 3352 Pls
966 3352 Pls
966 3351 Pls
966 3351 Pls
966 3351 Pls
966 3350 Pls
966 3350 Pls
966 3349 Pls
966 3349 Pls
966 3348 Pls
966 3348 Pls
966 3348 Pls
966 3347 Pls
966 3347 Pls
966 3346 Pls
966 3346 Pls
966 3346 Pls
966 3345 Pls
966 3345 Pls
966 3344 Pls
966 3344 Pls
966 3344 Pls
966 3344 Pls
966 3343 Pls
966 3343 Pls
966 3342 Pls
966 3342 Pls
966 3342 Pls
966 3341 Pls
966 3341 Pls
966 3340 Pls
966 3340 Pls
966 3339 Pls
966 3339 Pls
966 3339 Pls
966 3339 Pls
966 3338 Pls
966 3338 Pls
966 3337 Pls
966 3337 Pls
966 3336 Pls
966 3336 Pls
966 3336 Pls
966 3336 Pls
966 3335 Pls
966 3335 Pls
966 3335 Pls
966 3335 Pls
966 3334 Pls
966 3334 Pls
966 3334 Pls
966 3334 Pls
966 3333 Pls
966 3333 Pls
966 3333 Pls
966 3333 Pls
966 3332 Pls
966 3332 Pls
966 3332 Pls
966 3331 Pls
966 3331 Pls
966 3331 Pls
966 3331 Pls
966 3330 Pls
966 3330 Pls
966 3329 Pls
966 3329 Pls
966 3329 Pls
966 3328 Pls
966 3328 Pls
966 3328 Pls
966 3328 Pls
966 3327 Pls
966 3327 Pls
966 3326 Pls
966 3326 Pls
966 3326 Pls
966 3325 Pls
966 3325 Pls
966 3325 Pls
966 3325 Pls
966 3324 Pls
966 3324 Pls
966 3323 Pls
966 3323 Pls
966 3323 Pls
966 3323 Pls
966 3322 Pls
966 3322 Pls
966 3322 Pls
966 3321 Pls
966 3321 Pls
966 3320 Pls
966 3320 Pls
966 3320 Pls
966 3319 Pls
966 3318 Pls
966 3318 Pls
966 3318 Pls
966 3317 Pls
966 3317 Pls
966 3316 Pls
966 3315 Pls
966 3315 Pls
966 3314 Pls
966 3314 Pls
966 3313 Pls
966 3313 Pls
966 3312 Pls
966 3311 Pls
966 3311 Pls
966 3310 Pls
966 3310 Pls
966 3309 Pls
966 3308 Pls
966 3308 Pls
966 3307 Pls
966 3307 Pls
966 3306 Pls
966 3305 Pls
966 3304 Pls
966 3304 Pls
966 3303 Pls
966 3303 Pls
966 3302 Pls
966 3301 Pls
966 3300 Pls
966 3300 Pls
966 3299 Pls
966 3299 Pls
966 3298 Pls
966 3298 Pls
966 3297 Pls
966 3296 Pls
966 3296 Pls
966 3295 Pls
966 3295 Pls
966 3294 Pls
966 3293 Pls
966 3293 Pls
966 3292 Pls
966 3292 Pls
966 3291 Pls
966 3291 Pls
966 3291 Pls
966 3290 Pls
966 3289 Pls
966 3289 Pls
966 3288 Pls
966 3288 Pls
966 3287 Pls
966 3287 Pls
966 3286 Pls
966 3285 Pls
966 3285 Pls
966 3284 Pls
966 3284 Pls
966 3283 Pls
966 3283 Pls
966 3283 Pls
966 3282 Pls
966 3282 Pls
966 3281 Pls
966 3281 Pls
966 3280 Pls
966 3280 Pls
966 3279 Pls
966 3279 Pls
966 3279 Pls
966 3278 Pls
966 3278 Pls
966 3277 Pls
966 3277 Pls
966 3276 Pls
966 3276 Pls
966 3276 Pls
966 3275 Pls
966 3275 Pls
966 3275 Pls
966 3274 Pls
966 3274 Pls
966 3274 Pls
966 3273 Pls
966 3272 Pls
966 3272 Pls
966 3272 Pls
966 3272 Pls
966 3271 Pls
966 3271 Pls
966 3270 Pls
966 3270 Pls
966 3269 Pls
966 3269 Pls
966 3268 Pls
966 3268 Pls
966 3268 Pls
966 3267 Pls
966 3267 Pls
966 3267 Pls
966 3266 Pls
966 3266 Pls
966 3266 Pls
966 3265 Pls
966 3265 Pls
966 3264 Pls
966 3264 Pls
966 3263 Pls
966 3263 Pls
966 3263 Pls
966 3263 Pls
966 3262 Pls
966 3262 Pls
966 3261 Pls
966 3261 Pls
966 3261 Pls
966 3260 Pls
966 3260 Pls
966 3259 Pls
966 3259 Pls
966 3259 Pls
966 3259 Pls
966 3258 Pls
966 3258 Pls
966 3257 Pls
966 3257 Pls
966 3256 Pls
966 3256 Pls
966 3256 Pls
966 3255 Pls
966 3255 Pls
966 3255 Pls
966 3255 Pls
966 3254 Pls
966 3254 Pls
966 3254 Pls
966 3253 Pls
966 3253 Pls
966 3252 Pls
966 3252 Pls
966 3252 Pls
966 3251 Pls
966 3251 Pls
966 3250 Pls
966 3250 Pls
966 3249 Pls
966 3249 Pls
966 3249 Pls
966 3248 Pls
966 3248 Pls
966 3248 Pls
966 3247 Pls
966 3247 Pls
966 3247 Pls
966 3246 Pls
966 3246 Pls
966 3245 Pls
966 3245 Pls
966 3245 Pls
966 3245 Pls
966 3244 Pls
966 3244 Pls
966 3243 Pls
966 3243 Pls
966 3243 Pls
966 3242 Pls
966 3242 Pls
966 3242 Pls
966 3242 Pls
966 3241 Pls
966 3241 Pls
966 3241 Pls
966 3240 Pls
966 3240 Pls
966 3240 Pls
966 3239 Pls
966 3239 Pls
966 3239 Pls
966 3238 Pls
966 3238 Pls
966 3237 Pls
966 3237 Pls
966 3237 Pls
966 3236 Pls
966 3236 Pls
966 3236 Pls
966 3235 Pls
966 3235 Pls
966 3235 Pls
966 3234 Pls
966 3234 Pls
966 3234 Pls
966 3234 Pls
966 3234 Pls
966 3233 Pls
966 3233 Pls
966 3233 Pls
966 3233 Pls
966 3232 Pls
966 3232 Pls
966 3232 Pls
966 3232 Pls
966 3231 Pls
966 3231 Pls
966 3231 Pls
966 3231 Pls
966 3231 Pls
966 3230 Pls
966 3230 Pls
966 3230 Pls
966 3230 Pls
966 3230 Pls
966 3229 Pls
966 3229 Pls
966 3228 Pls
966 3228 Pls
966 3228 Pls
966 3228 Pls
966 3228 Pls
966 3227 Pls
966 3227 Pls
966 3227 Pls
966 3227 Pls
966 3226 Pls
966 3226 Pls
966 3226 Pls
966 3225 Pls
966 3225 Pls
966 3225 Pls
966 3225 Pls
966 3224 Pls
966 3224 Pls
966 3224 Pls
966 3224 Pls
966 3224 Pls
966 3224 Pls
966 3223 Pls
966 3223 Pls
966 3223 Pls
966 3223 Pls
966 3222 Pls
966 3222 Pls
966 3222 Pls
966 3222 Pls
966 3222 Pls
966 3221 Pls
966 3221 Pls
966 3221 Pls
966 3221 Pls
966 3220 Pls
966 3220 Pls
966 3220 Pls
966 3220 Pls
966 3219 Pls
966 3219 Pls
966 3219 Pls
966 3218 Pls
966 3218 Pls
966 3218 Pls
966 3218 Pls
966 3217 Pls
966 3217 Pls
966 3217 Pls
966 3217 Pls
966 3216 Pls
966 3216 Pls
966 3216 Pls
966 3216 Pls
966 3215 Pls
966 3215 Pls
966 3215 Pls
966 3215 Pls
966 3214 Pls
966 3214 Pls
966 3214 Pls
966 3214 Pls
966 3213 Pls
966 3213 Pls
966 3213 Pls
966 3213 Pls
966 3212 Pls
966 3212 Pls
966 3212 Pls
966 3212 Pls
966 3212 Pls
966 3212 Pls
966 3211 Pls
966 3211 Pls
966 3211 Pls
966 3211 Pls
966 3210 Pls
966 3210 Pls
966 3210 Pls
966 3210 Pls
966 3210 Pls
966 3210 Pls
966 3209 Pls
966 3209 Pls
966 3208 Pls
966 3208 Pls
966 3208 Pls
966 3208 Pls
966 3208 Pls
966 3207 Pls
966 3207 Pls
966 3207 Pls
966 3207 Pls
966 3206 Pls
966 3206 Pls
966 3206 Pls
966 3206 Pls
966 3206 Pls
966 3206 Pls
966 3205 Pls
966 3205 Pls
966 3205 Pls
966 3205 Pls
966 3204 Pls
966 3204 Pls
966 3204 Pls
966 3203 Pls
966 3203 Pls
966 3203 Pls
966 3203 Pls
966 3203 Pls
966 3203 Pls
966 3203 Pls
966 3203 Pls
966 3202 Pls
966 3202 Pls
966 3202 Pls
966 3202 Pls
966 3202 Pls
966 3202 Pls
966 3202 Pls
966 3202 Pls
966 3201 Pls
966 3201 Pls
966 3201 Pls
966 3201 Pls
966 3201 Pls
966 3201 Pls
966 3200 Pls
966 3200 Pls
966 3200 Pls
966 3200 Pls
966 3200 Pls
966 3199 Pls
966 3199 Pls
966 3199 Pls
966 3199 Pls
966 3199 Pls
966 3198 Pls
966 3198 Pls
966 3198 Pls
966 3198 Pls
966 3197 Pls
966 3197 Pls
966 3197 Pls
966 3197 Pls
966 3197 Pls
966 3197 Pls
966 3197 Pls
966 3196 Pls
966 3196 Pls
966 3196 Pls
966 3196 Pls
966 3196 Pls
966 3195 Pls
966 3195 Pls
966 3195 Pls
966 3195 Pls
966 3195 Pls
966 3194 Pls
966 3194 Pls
966 3194 Pls
966 3194 Pls
966 3194 Pls
966 3193 Pls
966 3193 Pls
966 3193 Pls
966 3193 Pls
966 3193 Pls
966 3193 Pls
966 3193 Pls
966 3192 Pls
966 3192 Pls
966 3192 Pls
966 3192 Pls
966 3191 Pls
966 3191 Pls
966 3191 Pls
966 3191 Pls
966 3190 Pls
966 3190 Pls
966 3190 Pls
966 3190 Pls
966 3190 Pls
966 3190 Pls
966 3189 Pls
966 3189 Pls
966 3189 Pls
966 3188 Pls
966 3188 Pls
966 3188 Pls
966 3188 Pls
966 3187 Pls
966 3187 Pls
966 3187 Pls
966 3187 Pls
966 3187 Pls
966 3186 Pls
966 3186 Pls
966 3186 Pls
966 3186 Pls
966 3185 Pls
966 3185 Pls
966 3185 Pls
966 3185 Pls
966 3185 Pls
966 3185 Pls
966 3185 Pls
966 3184 Pls
966 3184 Pls
966 3184 Pls
966 3184 Pls
966 3184 Pls
966 3183 Pls
966 3183 Pls
966 3183 Pls
966 3183 Pls
966 3183 Pls
966 3183 Pls
966 3182 Pls
966 3182 Pls
966 3182 Pls
966 3182 Pls
966 3182 Pls
966 3182 Pls
966 3182 Pls
966 3181 Pls
966 3181 Pls
966 3181 Pls
966 3181 Pls
966 3181 Pls
966 3180 Pls
966 3180 Pls
966 3180 Pls
966 3180 Pls
966 3180 Pls
966 3180 Pls
966 3179 Pls
966 3179 Pls
966 3179 Pls
966 3178 Pls
966 3178 Pls
966 3178 Pls
966 3178 Pls
966 3178 Pls
966 3177 Pls
966 3177 Pls
966 3177 Pls
966 3177 Pls
966 3177 Pls
966 3176 Pls
966 3176 Pls
966 3176 Pls
966 3176 Pls
966 3176 Pls
966 3176 Pls
966 3176 Pls
966 3175 Pls
966 3175 Pls
966 3175 Pls
966 3174 Pls
966 3174 Pls
966 3174 Pls
966 3174 Pls
966 3174 Pls
966 3174 Pls
966 3174 Pls
966 3173 Pls
966 3173 Pls
966 3173 Pls
966 3173 Pls
966 3173 Pls
966 3172 Pls
966 3172 Pls
966 3172 Pls
966 3172 Pls
966 3172 Pls
966 3172 Pls
966 3172 Pls
966 3171 Pls
966 3171 Pls
966 3171 Pls
966 3171 Pls
966 3171 Pls
966 3170 Pls
966 3170 Pls
966 3170 Pls
966 3170 Pls
966 3170 Pls
966 3170 Pls
966 3170 Pls
966 3169 Pls
966 3169 Pls
966 3169 Pls
966 3169 Pls
966 3169 Pls
966 3168 Pls
966 3168 Pls
966 3168 Pls
966 3168 Pls
966 3168 Pls
966 3168 Pls
966 3167 Pls
966 3167 Pls
966 3167 Pls
966 3167 Pls
966 3167 Pls
966 3167 Pls
966 3166 Pls
966 3166 Pls
966 3166 Pls
966 3166 Pls
966 3166 Pls
966 3166 Pls
966 3165 Pls
966 3165 Pls
966 3165 Pls
966 3165 Pls
966 3165 Pls
966 3165 Pls
966 3165 Pls
966 3165 Pls
966 3164 Pls
966 3164 Pls
966 3164 Pls
966 3164 Pls
966 3164 Pls
966 3164 Pls
966 3163 Pls
966 3163 Pls
966 3163 Pls
966 3163 Pls
966 3162 Pls
966 3162 Pls
966 3162 Pls
966 3162 Pls
966 3162 Pls
966 3161 Pls
966 3161 Pls
966 3161 Pls
966 3161 Pls
966 3160 Pls
966 3160 Pls
966 3160 Pls
966 3160 Pls
966 3159 Pls
966 3159 Pls
966 3159 Pls
966 3159 Pls
966 3159 Pls
966 3158 Pls
966 3158 Pls
966 3158 Pls
966 3158 Pls
966 3158 Pls
966 3158 Pls
966 3157 Pls
966 3157 Pls
966 3157 Pls
966 3157 Pls
966 3157 Pls
966 3157 Pls
966 3156 Pls
966 3156 Pls
966 3156 Pls
966 3156 Pls
966 3156 Pls
966 3155 Pls
966 3155 Pls
966 3155 Pls
966 3155 Pls
966 3155 Pls
966 3155 Pls
966 3155 Pls
966 3155 Pls
966 3154 Pls
966 3154 Pls
966 3154 Pls
966 3154 Pls
966 3154 Pls
966 3153 Pls
966 3153 Pls
966 3153 Pls
966 3153 Pls
966 3153 Pls
966 3152 Pls
966 3152 Pls
966 3152 Pls
966 3152 Pls
966 3152 Pls
966 3151 Pls
966 3151 Pls
966 3151 Pls
966 3151 Pls
966 3151 Pls
966 3150 Pls
966 3150 Pls
966 3150 Pls
966 3150 Pls
966 3150 Pls
966 3149 Pls
966 3149 Pls
966 3149 Pls
966 3149 Pls
966 3149 Pls
966 3149 Pls
966 3149 Pls
966 3148 Pls
966 3148 Pls
966 3148 Pls
966 3148 Pls
966 3147 Pls
966 3147 Pls
966 3147 Pls
966 3147 Pls
966 3147 Pls
966 3147 Pls
966 3146 Pls
966 3146 Pls
966 3146 Pls
966 3146 Pls
966 3146 Pls
966 3145 Pls
966 3145 Pls
966 3145 Pls
966 3145 Pls
966 3145 Pls
966 3145 Pls
966 3144 Pls
966 3144 Pls
966 3144 Pls
966 3144 Pls
966 3143 Pls
966 3143 Pls
966 3143 Pls
966 3143 Pls
966 3143 Pls
966 3143 Pls
966 3143 Pls
966 3142 Pls
966 3142 Pls
966 3142 Pls
966 3142 Pls
966 3142 Pls
966 3141 Pls
966 3141 Pls
966 3141 Pls
966 3141 Pls
966 3141 Pls
966 3141 Pls
966 3141 Pls
966 3140 Pls
966 3140 Pls
966 3140 Pls
966 3140 Pls
966 3139 Pls
966 3139 Pls
966 3139 Pls
966 3139 Pls
966 3139 Pls
966 3139 Pls
966 3138 Pls
966 3138 Pls
966 3138 Pls
966 3138 Pls
966 3138 Pls
966 3138 Pls
966 3138 Pls
966 3138 Pls
966 3137 Pls
966 3137 Pls
966 3137 Pls
966 3137 Pls
966 3137 Pls
966 3137 Pls
966 3137 Pls
966 3136 Pls
966 3136 Pls
966 3136 Pls
966 3136 Pls
966 3136 Pls
966 3136 Pls
966 3136 Pls
966 3135 Pls
966 3135 Pls
966 3135 Pls
966 3135 Pls
966 3134 Pls
966 3134 Pls
966 3134 Pls
966 3134 Pls
966 3134 Pls
966 3133 Pls
966 3133 Pls
966 3133 Pls
966 3133 Pls
966 3133 Pls
966 3133 Pls
966 3133 Pls
966 3132 Pls
966 3132 Pls
966 3132 Pls
966 3132 Pls
966 3132 Pls
966 3132 Pls
966 3131 Pls
966 3131 Pls
966 3131 Pls
966 3131 Pls
966 3131 Pls
966 3131 Pls
966 3131 Pls
966 3130 Pls
966 3130 Pls
966 3130 Pls
966 3130 Pls
966 3130 Pls
966 3129 Pls
966 3129 Pls
966 3129 Pls
966 3129 Pls
966 3129 Pls
966 3129 Pls
966 3128 Pls
966 3128 Pls
966 3128 Pls
966 3128 Pls
966 3128 Pls
966 3128 Pls
966 3127 Pls
966 3127 Pls
966 3127 Pls
966 3127 Pls
966 3127 Pls
966 3127 Pls
966 3127 Pls
966 3126 Pls
966 3126 Pls
966 3126 Pls
966 3126 Pls
966 3126 Pls
966 3126 Pls
966 3125 Pls
966 3125 Pls
966 3125 Pls
966 3125 Pls
966 3125 Pls
966 3125 Pls
966 3124 Pls
966 3124 Pls
966 3124 Pls
966 3124 Pls
966 3124 Pls
966 3124 Pls
966 3123 Pls
966 3123 Pls
966 3123 Pls
966 3123 Pls
966 3123 Pls
966 3122 Pls
966 3122 Pls
966 3122 Pls
966 3122 Pls
966 3121 Pls
966 3121 Pls
966 3121 Pls
966 3121 Pls
966 3121 Pls
966 3121 Pls
966 3121 Pls
966 3120 Pls
966 3120 Pls
966 3120 Pls
966 3120 Pls
966 3120 Pls
966 3119 Pls
966 3119 Pls
966 3119 Pls
966 3119 Pls
966 3119 Pls
966 3118 Pls
966 3118 Pls
966 3118 Pls
966 3118 Pls
966 3117 Pls
966 3117 Pls
966 3117 Pls
966 3117 Pls
966 3117 Pls
966 3117 Pls
966 3117 Pls
966 3117 Pls
966 3116 Pls
966 3116 Pls
966 3116 Pls
966 3116 Pls
966 3116 Pls
966 3116 Pls
966 3116 Pls
966 3115 Pls
966 3115 Pls
966 3115 Pls
966 3115 Pls
966 3115 Pls
966 3115 Pls
966 3114 Pls
966 3114 Pls
966 3114 Pls
966 3114 Pls
966 3114 Pls
966 3113 Pls
966 3113 Pls
966 3113 Pls
966 3113 Pls
966 3113 Pls
966 3112 Pls
966 3112 Pls
966 3112 Pls
966 3112 Pls
966 3112 Pls
966 3112 Pls
966 3111 Pls
966 3111 Pls
966 3111 Pls
966 3111 Pls
966 3111 Pls
966 3111 Pls
966 3111 Pls
966 3110 Pls
966 3110 Pls
966 3110 Pls
966 3110 Pls
966 3110 Pls
966 3110 Pls
966 3109 Pls
966 3109 Pls
966 3109 Pls
966 3109 Pls
966 3109 Pls
966 3109 Pls
966 3108 Pls
966 3108 Pls
966 3108 Pls
966 3108 Pls
966 3108 Pls
966 3107 Pls
966 3107 Pls
966 3107 Pls
966 3107 Pls
966 3107 Pls
966 3107 Pls
966 3107 Pls
966 3106 Pls
966 3106 Pls
966 3106 Pls
966 3106 Pls
966 3106 Pls
966 3105 Pls
966 3105 Pls
966 3105 Pls
966 3105 Pls
966 3105 Pls
966 3105 Pls
966 3104 Pls
966 3104 Pls
966 3104 Pls
966 3104 Pls
966 3104 Pls
966 3104 Pls
966 3104 Pls
966 3104 Pls
966 3103 Pls
966 3103 Pls
966 3103 Pls
966 3103 Pls
966 3103 Pls
966 3103 Pls
966 3102 Pls
966 3102 Pls
966 3102 Pls
966 3102 Pls
966 3102 Pls
966 3101 Pls
966 3101 Pls
966 3101 Pls
966 3101 Pls
966 3101 Pls
966 3101 Pls
966 3101 Pls
966 3100 Pls
966 3100 Pls
966 3100 Pls
966 3100 Pls
966 3100 Pls
966 3100 Pls
966 3100 Pls
966 3100 Pls
966 3099 Pls
966 3099 Pls
966 3099 Pls
966 3099 Pls
966 3099 Pls
966 3098 Pls
966 3098 Pls
966 3098 Pls
966 3098 Pls
966 3098 Pls
966 3097 Pls
966 3097 Pls
966 3097 Pls
966 3097 Pls
966 3097 Pls
966 3097 Pls
966 3096 Pls
966 3096 Pls
966 3096 Pls
966 3096 Pls
966 3096 Pls
966 3096 Pls
966 3096 Pls
966 3096 Pls
966 3095 Pls
966 3095 Pls
966 3095 Pls
966 3095 Pls
966 3094 Pls
966 3094 Pls
966 3094 Pls
966 3094 Pls
966 3094 Pls
966 3094 Pls
966 3093 Pls
966 3093 Pls
966 3093 Pls
966 3093 Pls
966 3093 Pls
966 3093 Pls
966 3093 Pls
966 3093 Pls
966 3093 Pls
966 3093 Pls
966 3092 Pls
966 3092 Pls
966 3092 Pls
966 3092 Pls
966 3092 Pls
966 3092 Pls
967 3091 Pls
967 3091 Pls
967 3091 Pls
967 3091 Pls
967 3091 Pls
967 3091 Pls
967 3090 Pls
967 3090 Pls
967 3090 Pls
967 3090 Pls
967 3090 Pls
967 3090 Pls
967 3090 Pls
967 3089 Pls
967 3089 Pls
967 3089 Pls
967 3089 Pls
967 3089 Pls
967 3089 Pls
967 3089 Pls
967 3088 Pls
967 3088 Pls
967 3088 Pls
967 3088 Pls
967 3088 Pls
967 3088 Pls
967 3088 Pls
967 3087 Pls
967 3087 Pls
967 3087 Pls
967 3087 Pls
967 3087 Pls
967 3086 Pls
967 3086 Pls
967 3086 Pls
967 3086 Pls
967 3086 Pls
967 3086 Pls
967 3086 Pls
967 3085 Pls
967 3085 Pls
967 3085 Pls
967 3085 Pls
967 3085 Pls
967 3085 Pls
967 3085 Pls
967 3084 Pls
967 3084 Pls
967 3084 Pls
967 3084 Pls
967 3084 Pls
967 3084 Pls
967 3083 Pls
967 3083 Pls
967 3083 Pls
967 3083 Pls
967 3083 Pls
967 3083 Pls
967 3083 Pls
967 3083 Pls
967 3082 Pls
967 3082 Pls
967 3082 Pls
967 3082 Pls
967 3082 Pls
967 3082 Pls
967 3082 Pls
967 3082 Pls
967 3081 Pls
967 3081 Pls
967 3081 Pls
967 3081 Pls
967 3081 Pls
967 3081 Pls
967 3081 Pls
967 3081 Pls
967 3080 Pls
967 3080 Pls
967 3080 Pls
967 3080 Pls
967 3080 Pls
967 3080 Pls
967 3079 Pls
967 3079 Pls
967 3079 Pls
967 3079 Pls
967 3079 Pls
967 3079 Pls
967 3078 Pls
967 3078 Pls
967 3078 Pls
967 3078 Pls
967 3078 Pls
967 3077 Pls
967 3077 Pls
967 3077 Pls
967 3077 Pls
967 3077 Pls
967 3077 Pls
967 3077 Pls
967 3076 Pls
967 3076 Pls
967 3076 Pls
967 3076 Pls
967 3076 Pls
967 3076 Pls
967 3075 Pls
967 3075 Pls
967 3075 Pls
967 3075 Pls
967 3075 Pls
967 3075 Pls
967 3074 Pls
967 3074 Pls
967 3074 Pls
967 3074 Pls
967 3074 Pls
967 3073 Pls
967 3073 Pls
967 3073 Pls
967 3073 Pls
967 3073 Pls
967 3073 Pls
967 3073 Pls
967 3073 Pls
967 3072 Pls
967 3072 Pls
967 3072 Pls
967 3072 Pls
967 3072 Pls
967 3072 Pls
967 3071 Pls
967 3071 Pls
967 3071 Pls
967 3071 Pls
967 3071 Pls
967 3071 Pls
967 3071 Pls
967 3071 Pls
967 3071 Pls
967 3071 Pls
967 3070 Pls
967 3070 Pls
967 3070 Pls
967 3070 Pls
967 3069 Pls
967 3069 Pls
967 3069 Pls
967 3069 Pls
967 3068 Pls
967 3068 Pls
967 3068 Pls
967 3068 Pls
967 3068 Pls
967 3068 Pls
967 3068 Pls
967 3068 Pls
967 3068 Pls
967 3067 Pls
967 3067 Pls
967 3067 Pls
967 3067 Pls
967 3067 Pls
967 3067 Pls
967 3066 Pls
967 3066 Pls
967 3066 Pls
967 3066 Pls
967 3066 Pls
967 3066 Pls
967 3066 Pls
967 3065 Pls
967 3065 Pls
967 3065 Pls
967 3065 Pls
967 3065 Pls
967 3065 Pls
967 3065 Pls
967 3065 Pls
967 3065 Pls
967 3065 Pls
967 3064 Pls
967 3064 Pls
967 3064 Pls
967 3064 Pls
967 3064 Pls
967 3064 Pls
967 3064 Pls
967 3063 Pls
967 3063 Pls
967 3063 Pls
967 3063 Pls
967 3063 Pls
967 3063 Pls
967 3063 Pls
967 3063 Pls
967 3063 Pls
967 3063 Pls
967 3062 Pls
967 3062 Pls
967 3062 Pls
967 3062 Pls
967 3062 Pls
967 3062 Pls
967 3061 Pls
967 3061 Pls
967 3061 Pls
967 3061 Pls
967 3061 Pls
967 3061 Pls
967 3061 Pls
967 3060 Pls
967 3060 Pls
967 3060 Pls
967 3060 Pls
967 3060 Pls
967 3060 Pls
967 3059 Pls
967 3059 Pls
967 3059 Pls
967 3059 Pls
967 3059 Pls
967 3059 Pls
967 3058 Pls
967 3058 Pls
967 3058 Pls
967 3058 Pls
967 3058 Pls
967 3058 Pls
967 3058 Pls
967 3058 Pls
967 3057 Pls
967 3057 Pls
967 3057 Pls
967 3057 Pls
967 3057 Pls
967 3056 Pls
967 3056 Pls
967 3056 Pls
967 3056 Pls
967 3056 Pls
967 3056 Pls
967 3056 Pls
967 3055 Pls
967 3055 Pls
967 3055 Pls
967 3055 Pls
967 3055 Pls
967 3055 Pls
967 3055 Pls
967 3055 Pls
967 3054 Pls
967 3054 Pls
967 3054 Pls
967 3054 Pls
967 3054 Pls
967 3054 Pls
967 3053 Pls
967 3053 Pls
967 3053 Pls
967 3053 Pls
967 3053 Pls
967 3053 Pls
967 3053 Pls
967 3053 Pls
967 3052 Pls
967 3052 Pls
967 3052 Pls
967 3052 Pls
967 3052 Pls
967 3052 Pls
967 3052 Pls
967 3052 Pls
967 3052 Pls
967 3052 Pls
967 3052 Pls
967 3051 Pls
967 3051 Pls
967 3051 Pls
967 3051 Pls
967 3051 Pls
967 3051 Pls
967 3051 Pls
967 3050 Pls
967 3050 Pls
967 3050 Pls
967 3050 Pls
967 3050 Pls
967 3050 Pls
967 3050 Pls
967 3049 Pls
967 3049 Pls
967 3049 Pls
967 3049 Pls
967 3049 Pls
967 3049 Pls
967 3049 Pls
967 3048 Pls
967 3048 Pls
967 3048 Pls
967 3048 Pls
967 3048 Pls
967 3048 Pls
967 3048 Pls
967 3047 Pls
967 3047 Pls
967 3047 Pls
967 3047 Pls
967 3047 Pls
967 3047 Pls
967 3046 Pls
967 3046 Pls
967 3046 Pls
967 3046 Pls
967 3046 Pls
967 3046 Pls
967 3046 Pls
967 3046 Pls
967 3045 Pls
967 3045 Pls
967 3045 Pls
967 3045 Pls
967 3045 Pls
967 3044 Pls
967 3044 Pls
967 3044 Pls
967 3044 Pls
967 3044 Pls
967 3044 Pls
967 3044 Pls
967 3043 Pls
967 3043 Pls
967 3043 Pls
967 3043 Pls
967 3043 Pls
967 3043 Pls
967 3043 Pls
967 3042 Pls
967 3042 Pls
967 3042 Pls
967 3042 Pls
967 3041 Pls
967 3041 Pls
967 3041 Pls
967 3041 Pls
967 3041 Pls
967 3041 Pls
967 3041 Pls
967 3041 Pls
967 3040 Pls
967 3040 Pls
967 3040 Pls
967 3040 Pls
967 3040 Pls
967 3040 Pls
967 3040 Pls
967 3039 Pls
967 3039 Pls
967 3039 Pls
967 3039 Pls
967 3039 Pls
967 3039 Pls
967 3039 Pls
967 3038 Pls
967 3038 Pls
967 3038 Pls
967 3038 Pls
967 3038 Pls
967 3038 Pls
967 3037 Pls
967 3037 Pls
967 3037 Pls
967 3037 Pls
967 3037 Pls
967 3037 Pls
967 3037 Pls
967 3036 Pls
967 3036 Pls
967 3036 Pls
967 3036 Pls
967 3036 Pls
967 3036 Pls
967 3036 Pls
967 3036 Pls
967 3035 Pls
967 3035 Pls
967 3035 Pls
967 3035 Pls
967 3035 Pls
967 3035 Pls
967 3035 Pls
967 3035 Pls
967 3034 Pls
967 3034 Pls
967 3034 Pls
967 3034 Pls
967 3034 Pls
967 3034 Pls
967 3034 Pls
967 3034 Pls
967 3033 Pls
967 3033 Pls
967 3033 Pls
967 3033 Pls
967 3033 Pls
967 3033 Pls
967 3033 Pls
967 3032 Pls
967 3032 Pls
967 3032 Pls
967 3032 Pls
967 3032 Pls
967 3032 Pls
967 3032 Pls
967 3031 Pls
967 3031 Pls
967 3031 Pls
967 3031 Pls
967 3031 Pls
967 3031 Pls
967 3030 Pls
967 3030 Pls
967 3030 Pls
967 3030 Pls
967 3030 Pls
967 3030 Pls
967 3030 Pls
967 3030 Pls
967 3029 Pls
967 3029 Pls
967 3029 Pls
967 3029 Pls
967 3029 Pls
967 3029 Pls
967 3029 Pls
967 3029 Pls
967 3029 Pls
967 3028 Pls
967 3028 Pls
967 3028 Pls
967 3028 Pls
967 3028 Pls
967 3028 Pls
967 3028 Pls
967 3028 Pls
967 3028 Pls
967 3027 Pls
967 3027 Pls
967 3027 Pls
967 3027 Pls
967 3027 Pls
967 3027 Pls
967 3027 Pls
967 3026 Pls
967 3026 Pls
967 3026 Pls
967 3026 Pls
967 3026 Pls
967 3026 Pls
967 3025 Pls
967 3025 Pls
967 3025 Pls
967 3025 Pls
967 3025 Pls
967 3025 Pls
967 3025 Pls
967 3024 Pls
967 3024 Pls
967 3024 Pls
967 3024 Pls
967 3024 Pls
967 3024 Pls
967 3024 Pls
967 3024 Pls
967 3023 Pls
967 3023 Pls
967 3023 Pls
967 3023 Pls
967 3023 Pls
967 3023 Pls
967 3023 Pls
967 3023 Pls
967 3023 Pls
967 3022 Pls
967 3022 Pls
967 3022 Pls
967 3022 Pls
967 3022 Pls
967 3021 Pls
967 3021 Pls
967 3021 Pls
967 3021 Pls
967 3021 Pls
967 3020 Pls
967 3020 Pls
967 3020 Pls
967 3020 Pls
967 3020 Pls
967 3020 Pls
967 3019 Pls
967 3019 Pls
967 3019 Pls
967 3019 Pls
967 3019 Pls
967 3019 Pls
967 3019 Pls
967 3019 Pls
967 3018 Pls
967 3018 Pls
967 3018 Pls
967 3018 Pls
967 3018 Pls
967 3018 Pls
967 3017 Pls
967 3017 Pls
967 3017 Pls
967 3017 Pls
967 3017 Pls
967 3017 Pls
967 3016 Pls
967 3016 Pls
967 3016 Pls
967 3016 Pls
967 3016 Pls
967 3015 Pls
967 3015 Pls
967 3015 Pls
967 3015 Pls
967 3015 Pls
967 3015 Pls
967 3015 Pls
967 3015 Pls
967 3015 Pls
967 3014 Pls
967 3014 Pls
967 3014 Pls
967 3014 Pls
967 3014 Pls
967 3014 Pls
967 3013 Pls
967 3013 Pls
967 3013 Pls
967 3013 Pls
967 3013 Pls
967 3013 Pls
967 3013 Pls
967 3013 Pls
967 3013 Pls
967 3012 Pls
967 3012 Pls
967 3012 Pls
967 3012 Pls
967 3012 Pls
967 3012 Pls
967 3012 Pls
967 3012 Pls
967 3012 Pls
967 3011 Pls
967 3011 Pls
967 3011 Pls
967 3011 Pls
967 3011 Pls
967 3010 Pls
967 3010 Pls
967 3010 Pls
967 3010 Pls
967 3010 Pls
967 3010 Pls
967 3009 Pls
967 3009 Pls
967 3009 Pls
967 3009 Pls
967 3009 Pls
967 3009 Pls
967 3008 Pls
967 3008 Pls
967 3008 Pls
967 3008 Pls
967 3008 Pls
967 3008 Pls
967 3008 Pls
967 3008 Pls
967 3008 Pls
967 3007 Pls
967 3007 Pls
967 3007 Pls
967 3007 Pls
967 3007 Pls
967 3007 Pls
967 3007 Pls
967 3006 Pls
967 3006 Pls
967 3006 Pls
967 3006 Pls
967 3006 Pls
967 3006 Pls
967 3006 Pls
967 3005 Pls
967 3005 Pls
967 3005 Pls
967 3005 Pls
967 3005 Pls
967 3005 Pls
967 3005 Pls
967 3005 Pls
967 3005 Pls
967 3004 Pls
967 3004 Pls
967 3004 Pls
967 3004 Pls
967 3004 Pls
967 3004 Pls
967 3004 Pls
967 3003 Pls
967 3003 Pls
967 3003 Pls
967 3003 Pls
967 3003 Pls
967 3003 Pls
967 3003 Pls
967 3003 Pls
967 3003 Pls
967 3002 Pls
967 3002 Pls
967 3002 Pls
967 3002 Pls
967 3002 Pls
967 3002 Pls
967 3002 Pls
967 3001 Pls
967 3001 Pls
967 3001 Pls
967 3001 Pls
967 3001 Pls
967 3001 Pls
967 3001 Pls
967 3000 Pls
967 3000 Pls
967 3000 Pls
967 3000 Pls
967 3000 Pls
967 3000 Pls
967 2999 Pls
967 2999 Pls
967 2999 Pls
967 2999 Pls
967 2999 Pls
967 2999 Pls
967 2999 Pls
967 2998 Pls
967 2998 Pls
967 2998 Pls
967 2998 Pls
967 2998 Pls
967 2998 Pls
967 2998 Pls
967 2997 Pls
967 2997 Pls
967 2997 Pls
967 2997 Pls
967 2997 Pls
967 2997 Pls
967 2996 Pls
967 2996 Pls
967 2996 Pls
967 2996 Pls
967 2996 Pls
967 2995 Pls
967 2995 Pls
967 2995 Pls
967 2995 Pls
967 2995 Pls
967 2995 Pls
967 2995 Pls
967 2994 Pls
967 2994 Pls
967 2994 Pls
967 2994 Pls
967 2994 Pls
967 2994 Pls
967 2994 Pls
967 2994 Pls
967 2993 Pls
967 2993 Pls
967 2993 Pls
967 2993 Pls
967 2993 Pls
967 2993 Pls
967 2992 Pls
967 2992 Pls
967 2992 Pls
967 2992 Pls
967 2992 Pls
967 2992 Pls
967 2991 Pls
967 2991 Pls
967 2991 Pls
967 2991 Pls
967 2991 Pls
967 2990 Pls
967 2990 Pls
967 2990 Pls
967 2990 Pls
967 2990 Pls
967 2990 Pls
967 2990 Pls
967 2990 Pls
967 2990 Pls
967 2989 Pls
967 2989 Pls
967 2989 Pls
967 2989 Pls
967 2988 Pls
967 2988 Pls
967 2988 Pls
967 2988 Pls
967 2988 Pls
967 2988 Pls
967 2987 Pls
967 2987 Pls
967 2987 Pls
967 2987 Pls
967 2987 Pls
967 2987 Pls
967 2987 Pls
967 2987 Pls
967 2987 Pls
967 2986 Pls
967 2986 Pls
967 2986 Pls
967 2986 Pls
967 2986 Pls
967 2986 Pls
967 2986 Pls
967 2986 Pls
967 2985 Pls
967 2985 Pls
967 2985 Pls
967 2985 Pls
967 2985 Pls
967 2985 Pls
967 2985 Pls
967 2984 Pls
967 2984 Pls
967 2984 Pls
967 2984 Pls
967 2983 Pls
967 2983 Pls
967 2983 Pls
967 2983 Pls
967 2983 Pls
967 2982 Pls
967 2982 Pls
967 2982 Pls
967 2981 Pls
967 2980 Pls
967 2979 Pls
967 2978 Pls
967 2978 Pls
967 2977 Pls
967 2977 Pls
967 2977 Pls
967 2977 Pls
967 2977 Pls
967 2977 Pls
967 2976 Pls
967 2976 Pls
967 2976 Pls
967 2976 Pls
967 2975 Pls
967 2975 Pls
967 2975 Pls
967 2975 Pls
967 2975 Pls
967 2975 Pls
967 2974 Pls
967 2974 Pls
967 2974 Pls
967 2974 Pls
967 2974 Pls
967 2974 Pls
967 2974 Pls
967 2973 Pls
967 2973 Pls
967 2973 Pls
967 2973 Pls
967 2973 Pls
967 2972 Pls
967 2972 Pls
967 2972 Pls
967 2972 Pls
967 2972 Pls
967 2972 Pls
967 2972 Pls
967 2971 Pls
967 2971 Pls
967 2971 Pls
967 2971 Pls
967 2971 Pls
967 2971 Pls
967 2971 Pls
967 2970 Pls
967 2970 Pls
967 2970 Pls
967 2970 Pls
967 2970 Pls
967 2970 Pls
967 2970 Pls
967 2969 Pls
967 2969 Pls
967 2969 Pls
967 2969 Pls
967 2969 Pls
967 2969 Pls
967 2969 Pls
967 2969 Pls
967 2968 Pls
967 2968 Pls
967 2968 Pls
967 2968 Pls
967 2968 Pls
967 2967 Pls
967 2967 Pls
967 2967 Pls
967 2967 Pls
967 2966 Pls
967 2966 Pls
967 2966 Pls
967 2966 Pls
967 2966 Pls
967 2966 Pls
967 2966 Pls
967 2965 Pls
967 2965 Pls
967 2965 Pls
967 2965 Pls
967 2965 Pls
967 2965 Pls
967 2964 Pls
967 2964 Pls
967 2964 Pls
967 2964 Pls
967 2964 Pls
967 2964 Pls
967 2963 Pls
967 2963 Pls
967 2963 Pls
967 2963 Pls
967 2963 Pls
967 2963 Pls
967 2963 Pls
967 2962 Pls
967 2962 Pls
967 2962 Pls
967 2962 Pls
967 2962 Pls
967 2962 Pls
967 2961 Pls
967 2961 Pls
967 2961 Pls
967 2961 Pls
967 2961 Pls
967 2961 Pls
967 2961 Pls
967 2961 Pls
967 2960 Pls
967 2960 Pls
967 2960 Pls
967 2960 Pls
967 2960 Pls
967 2960 Pls
967 2959 Pls
967 2959 Pls
967 2959 Pls
967 2959 Pls
967 2959 Pls
967 2959 Pls
967 2959 Pls
967 2958 Pls
967 2958 Pls
967 2958 Pls
967 2958 Pls
967 2958 Pls
967 2958 Pls
967 2957 Pls
967 2957 Pls
967 2957 Pls
967 2957 Pls
967 2957 Pls
967 2957 Pls
967 2957 Pls
967 2956 Pls
967 2956 Pls
967 2956 Pls
967 2956 Pls
967 2956 Pls
967 2955 Pls
967 2955 Pls
967 2955 Pls
967 2955 Pls
967 2955 Pls
967 2955 Pls
967 2955 Pls
967 2955 Pls
967 2954 Pls
967 2954 Pls
967 2954 Pls
967 2954 Pls
967 2954 Pls
967 2954 Pls
967 2954 Pls
967 2953 Pls
967 2953 Pls
967 2953 Pls
967 2953 Pls
967 2953 Pls
967 2953 Pls
967 2953 Pls
967 2952 Pls
967 2952 Pls
967 2952 Pls
967 2952 Pls
967 2952 Pls
967 2952 Pls
967 2952 Pls
967 2952 Pls
967 2951 Pls
967 2951 Pls
967 2951 Pls
967 2951 Pls
967 2951 Pls
967 2951 Pls
967 2950 Pls
967 2950 Pls
967 2950 Pls
967 2950 Pls
967 2950 Pls
967 2950 Pls
967 2950 Pls
967 2950 Pls
967 2949 Pls
967 2949 Pls
967 2949 Pls
967 2949 Pls
967 2949 Pls
967 2949 Pls
967 2949 Pls
967 2949 Pls
967 2948 Pls
967 2948 Pls
967 2948 Pls
967 2948 Pls
967 2948 Pls
967 2947 Pls
967 2947 Pls
967 2947 Pls
967 2947 Pls
967 2947 Pls
967 2947 Pls
967 2947 Pls
967 2947 Pls
967 2946 Pls
967 2946 Pls
967 2946 Pls
967 2946 Pls
967 2946 Pls
967 2946 Pls
967 2946 Pls
967 2946 Pls
967 2945 Pls
967 2945 Pls
967 2945 Pls
967 2945 Pls
967 2945 Pls
967 2945 Pls
967 2944 Pls
967 2944 Pls
967 2944 Pls
967 2943 Pls
967 2943 Pls
967 2943 Pls
967 2943 Pls
967 2943 Pls
967 2942 Pls
967 2942 Pls
967 2942 Pls
967 2942 Pls
967 2942 Pls
967 2942 Pls
967 2942 Pls
967 2942 Pls
967 2941 Pls
967 2941 Pls
967 2941 Pls
967 2941 Pls
967 2941 Pls
967 2940 Pls
967 2940 Pls
967 2940 Pls
967 2940 Pls
967 2940 Pls
967 2939 Pls
967 2939 Pls
967 2939 Pls
967 2939 Pls
967 2939 Pls
967 2938 Pls
967 2938 Pls
967 2938 Pls
967 2938 Pls
967 2938 Pls
967 2938 Pls
967 2938 Pls
967 2938 Pls
967 2937 Pls
967 2937 Pls
967 2937 Pls
967 2937 Pls
967 2937 Pls
967 2937 Pls
967 2936 Pls
967 2936 Pls
967 2936 Pls
967 2936 Pls
967 2936 Pls
967 2936 Pls
967 2935 Pls
967 2935 Pls
967 2935 Pls
967 2935 Pls
967 2935 Pls
967 2935 Pls
967 2934 Pls
967 2934 Pls
967 2934 Pls
967 2934 Pls
967 2934 Pls
967 2933 Pls
967 2933 Pls
967 2933 Pls
967 2933 Pls
967 2933 Pls
967 2933 Pls
967 2932 Pls
967 2932 Pls
967 2932 Pls
967 2932 Pls
967 2932 Pls
967 2931 Pls
967 2931 Pls
967 2931 Pls
967 2931 Pls
967 2931 Pls
967 2931 Pls
967 2930 Pls
967 2930 Pls
967 2930 Pls
967 2930 Pls
967 2930 Pls
967 2930 Pls
967 2930 Pls
967 2929 Pls
967 2929 Pls
967 2929 Pls
967 2929 Pls
967 2929 Pls
967 2929 Pls
967 2928 Pls
967 2928 Pls
967 2928 Pls
967 2928 Pls
967 2928 Pls
967 2928 Pls
967 2927 Pls
967 2927 Pls
967 2927 Pls
967 2927 Pls
967 2927 Pls
967 2927 Pls
967 2926 Pls
967 2926 Pls
967 2926 Pls
967 2926 Pls
967 2926 Pls
967 2926 Pls
967 2925 Pls
967 2925 Pls
967 2925 Pls
967 2925 Pls
967 2925 Pls
967 2925 Pls
967 2925 Pls
967 2924 Pls
967 2924 Pls
967 2924 Pls
967 2924 Pls
967 2924 Pls
967 2924 Pls
967 2924 Pls
967 2924 Pls
967 2923 Pls
967 2923 Pls
967 2923 Pls
967 2923 Pls
967 2923 Pls
967 2923 Pls
967 2922 Pls
967 2922 Pls
967 2922 Pls
967 2922 Pls
967 2922 Pls
967 2922 Pls
967 2921 Pls
967 2921 Pls
967 2921 Pls
967 2921 Pls
967 2921 Pls
967 2921 Pls
967 2920 Pls
967 2920 Pls
967 2920 Pls
967 2920 Pls
967 2920 Pls
967 2920 Pls
967 2919 Pls
967 2919 Pls
967 2919 Pls
967 2919 Pls
967 2919 Pls
967 2919 Pls
967 2918 Pls
967 2918 Pls
967 2918 Pls
967 2918 Pls
967 2918 Pls
967 2918 Pls
967 2918 Pls
967 2917 Pls
967 2917 Pls
967 2917 Pls
967 2917 Pls
967 2917 Pls
967 2917 Pls
967 2917 Pls
967 2916 Pls
967 2916 Pls
967 2916 Pls
967 2916 Pls
967 2916 Pls
967 2916 Pls
967 2916 Pls
967 2915 Pls
967 2915 Pls
967 2915 Pls
967 2915 Pls
967 2915 Pls
967 2915 Pls
967 2914 Pls
967 2914 Pls
967 2914 Pls
967 2914 Pls
967 2914 Pls
967 2914 Pls
967 2914 Pls
967 2913 Pls
967 2913 Pls
967 2913 Pls
967 2913 Pls
967 2913 Pls
967 2913 Pls
967 2913 Pls
967 2912 Pls
967 2912 Pls
967 2912 Pls
967 2912 Pls
967 2912 Pls
967 2912 Pls
967 2911 Pls
967 2911 Pls
967 2911 Pls
967 2911 Pls
967 2911 Pls
967 2911 Pls
967 2910 Pls
967 2910 Pls
967 2910 Pls
967 2910 Pls
967 2910 Pls
967 2910 Pls
967 2909 Pls
967 2909 Pls
967 2909 Pls
967 2909 Pls
967 2909 Pls
967 2909 Pls
967 2908 Pls
967 2908 Pls
967 2908 Pls
967 2908 Pls
967 2907 Pls
967 2907 Pls
967 2907 Pls
967 2907 Pls
967 2907 Pls
967 2907 Pls
967 2906 Pls
967 2906 Pls
967 2906 Pls
967 2906 Pls
967 2906 Pls
967 2906 Pls
967 2905 Pls
967 2905 Pls
967 2905 Pls
967 2905 Pls
967 2905 Pls
967 2905 Pls
967 2904 Pls
967 2904 Pls
967 2904 Pls
967 2904 Pls
967 2904 Pls
967 2904 Pls
967 2903 Pls
967 2903 Pls
967 2903 Pls
967 2903 Pls
967 2903 Pls
967 2902 Pls
967 2902 Pls
967 2902 Pls
967 2902 Pls
967 2902 Pls
967 2902 Pls
967 2901 Pls
967 2901 Pls
967 2901 Pls
967 2901 Pls
967 2901 Pls
967 2901 Pls
967 2901 Pls
967 2900 Pls
967 2900 Pls
967 2900 Pls
967 2900 Pls
967 2900 Pls
967 2900 Pls
967 2899 Pls
967 2899 Pls
967 2899 Pls
967 2899 Pls
967 2899 Pls
967 2899 Pls
967 2899 Pls
967 2898 Pls
967 2898 Pls
967 2898 Pls
967 2898 Pls
967 2898 Pls
967 2897 Pls
967 2897 Pls
967 2897 Pls
967 2897 Pls
967 2897 Pls
967 2896 Pls
967 2896 Pls
967 2896 Pls
967 2896 Pls
967 2896 Pls
967 2896 Pls
967 2895 Pls
967 2895 Pls
967 2895 Pls
967 2895 Pls
967 2895 Pls
967 2895 Pls
967 2895 Pls
967 2894 Pls
967 2894 Pls
967 2894 Pls
967 2894 Pls
967 2894 Pls
967 2894 Pls
967 2893 Pls
967 2893 Pls
967 2893 Pls
967 2893 Pls
967 2893 Pls
967 2893 Pls
967 2893 Pls
967 2892 Pls
967 2892 Pls
967 2892 Pls
967 2892 Pls
967 2892 Pls
967 2892 Pls
967 2892 Pls
967 2891 Pls
967 2891 Pls
967 2891 Pls
967 2891 Pls
967 2890 Pls
967 2890 Pls
967 2890 Pls
967 2890 Pls
967 2889 Pls
967 2889 Pls
967 2889 Pls
967 2889 Pls
967 2889 Pls
967 2889 Pls
967 2889 Pls
967 2888 Pls
967 2888 Pls
967 2888 Pls
967 2888 Pls
967 2888 Pls
967 2888 Pls
967 2887 Pls
967 2887 Pls
967 2887 Pls
967 2887 Pls
967 2887 Pls
967 2887 Pls
967 2886 Pls
967 2886 Pls
967 2886 Pls
967 2886 Pls
967 2886 Pls
967 2885 Pls
967 2885 Pls
967 2885 Pls
967 2885 Pls
967 2885 Pls
967 2885 Pls
967 2885 Pls
967 2884 Pls
967 2884 Pls
967 2884 Pls
967 2884 Pls
967 2884 Pls
968 2883 Pls
968 2883 Pls
968 2883 Pls
968 2883 Pls
968 2883 Pls
968 2883 Pls
968 2883 Pls
968 2882 Pls
968 2882 Pls
968 2882 Pls
968 2882 Pls
968 2882 Pls
968 2882 Pls
968 2881 Pls
968 2881 Pls
968 2881 Pls
968 2881 Pls
968 2881 Pls
968 2881 Pls
968 2880 Pls
968 2880 Pls
968 2880 Pls
968 2880 Pls
968 2880 Pls
968 2879 Pls
968 2879 Pls
968 2879 Pls
968 2879 Pls
968 2879 Pls
968 2879 Pls
968 2879 Pls
968 2878 Pls
968 2878 Pls
968 2878 Pls
968 2878 Pls
968 2878 Pls
968 2878 Pls
968 2877 Pls
968 2877 Pls
968 2877 Pls
968 2877 Pls
968 2877 Pls
968 2877 Pls
968 2877 Pls
968 2876 Pls
968 2876 Pls
968 2876 Pls
968 2876 Pls
968 2876 Pls
968 2875 Pls
968 2875 Pls
968 2875 Pls
968 2875 Pls
968 2874 Pls
968 2874 Pls
968 2874 Pls
968 2874 Pls
968 2874 Pls
968 2874 Pls
968 2873 Pls
968 2873 Pls
968 2873 Pls
968 2873 Pls
968 2873 Pls
968 2873 Pls
968 2872 Pls
968 2872 Pls
968 2872 Pls
968 2871 Pls
968 2871 Pls
968 2871 Pls
968 2871 Pls
968 2871 Pls
968 2871 Pls
968 2870 Pls
968 2870 Pls
968 2870 Pls
968 2870 Pls
968 2870 Pls
968 2870 Pls
968 2870 Pls
968 2869 Pls
968 2869 Pls
968 2869 Pls
968 2869 Pls
968 2869 Pls
968 2868 Pls
968 2868 Pls
968 2868 Pls
968 2868 Pls
968 2868 Pls
968 2867 Pls
968 2867 Pls
968 2867 Pls
968 2867 Pls
968 2867 Pls
968 2867 Pls
968 2866 Pls
968 2866 Pls
968 2866 Pls
968 2866 Pls
968 2866 Pls
968 2866 Pls
968 2865 Pls
968 2865 Pls
968 2865 Pls
968 2865 Pls
968 2865 Pls
968 2865 Pls
968 2864 Pls
968 2864 Pls
968 2864 Pls
968 2864 Pls
968 2864 Pls
968 2864 Pls
968 2863 Pls
968 2863 Pls
968 2863 Pls
968 2863 Pls
968 2862 Pls
968 2862 Pls
968 2862 Pls
968 2862 Pls
968 2862 Pls
968 2862 Pls
968 2861 Pls
968 2861 Pls
968 2861 Pls
968 2861 Pls
968 2861 Pls
968 2861 Pls
968 2860 Pls
968 2860 Pls
968 2860 Pls
968 2860 Pls
968 2860 Pls
968 2859 Pls
968 2859 Pls
968 2859 Pls
968 2859 Pls
968 2859 Pls
968 2859 Pls
968 2858 Pls
968 2858 Pls
968 2858 Pls
968 2858 Pls
968 2858 Pls
968 2858 Pls
968 2857 Pls
968 2857 Pls
968 2857 Pls
968 2857 Pls
968 2857 Pls
968 2857 Pls
968 2856 Pls
968 2856 Pls
968 2856 Pls
968 2856 Pls
968 2855 Pls
968 2855 Pls
968 2855 Pls
968 2855 Pls
968 2855 Pls
968 2855 Pls
968 2854 Pls
968 2854 Pls
968 2854 Pls
968 2854 Pls
968 2854 Pls
968 2854 Pls
968 2853 Pls
968 2853 Pls
968 2853 Pls
968 2853 Pls
968 2853 Pls
968 2853 Pls
968 2852 Pls
968 2852 Pls
968 2852 Pls
968 2852 Pls
968 2852 Pls
968 2851 Pls
968 2851 Pls
968 2851 Pls
968 2851 Pls
968 2851 Pls
968 2850 Pls
968 2850 Pls
968 2850 Pls
968 2850 Pls
968 2850 Pls
968 2850 Pls
968 2849 Pls
968 2849 Pls
968 2849 Pls
968 2849 Pls
968 2849 Pls
968 2849 Pls
968 2848 Pls
968 2848 Pls
968 2848 Pls
968 2848 Pls
968 2848 Pls
968 2848 Pls
968 2847 Pls
968 2847 Pls
968 2847 Pls
968 2847 Pls
968 2847 Pls
968 2846 Pls
968 2846 Pls
968 2846 Pls
968 2846 Pls
968 2846 Pls
968 2845 Pls
968 2845 Pls
968 2845 Pls
968 2845 Pls
968 2845 Pls
968 2845 Pls
968 2844 Pls
968 2844 Pls
968 2844 Pls
968 2844 Pls
968 2844 Pls
968 2844 Pls
968 2843 Pls
968 2843 Pls
968 2843 Pls
968 2843 Pls
968 2843 Pls
968 2843 Pls
968 2842 Pls
968 2842 Pls
968 2842 Pls
968 2842 Pls
968 2841 Pls
968 2841 Pls
968 2841 Pls
968 2841 Pls
968 2840 Pls
968 2840 Pls
968 2840 Pls
968 2840 Pls
968 2840 Pls
968 2840 Pls
968 2839 Pls
968 2839 Pls
968 2839 Pls
968 2839 Pls
968 2839 Pls
968 2839 Pls
968 2838 Pls
968 2838 Pls
968 2838 Pls
968 2838 Pls
968 2838 Pls
968 2837 Pls
968 2837 Pls
968 2837 Pls
968 2837 Pls
968 2837 Pls
968 2837 Pls
968 2836 Pls
968 2836 Pls
968 2836 Pls
968 2836 Pls
968 2836 Pls
968 2836 Pls
968 2835 Pls
968 2835 Pls
968 2835 Pls
968 2835 Pls
968 2834 Pls
968 2834 Pls
968 2834 Pls
968 2834 Pls
968 2834 Pls
968 2834 Pls
968 2833 Pls
968 2833 Pls
968 2833 Pls
968 2833 Pls
968 2833 Pls
968 2832 Pls
968 2832 Pls
968 2832 Pls
968 2832 Pls
968 2832 Pls
968 2832 Pls
968 2831 Pls
968 2831 Pls
968 2831 Pls
968 2831 Pls
968 2831 Pls
968 2830 Pls
968 2830 Pls
968 2830 Pls
968 2830 Pls
968 2830 Pls
968 2830 Pls
968 2829 Pls
968 2829 Pls
968 2829 Pls
968 2829 Pls
968 2829 Pls
968 2829 Pls
968 2828 Pls
968 2828 Pls
968 2828 Pls
968 2828 Pls
968 2828 Pls
968 2827 Pls
968 2827 Pls
968 2827 Pls
968 2827 Pls
968 2827 Pls
968 2826 Pls
968 2826 Pls
968 2826 Pls
968 2826 Pls
968 2826 Pls
968 2825 Pls
968 2825 Pls
968 2825 Pls
968 2825 Pls
968 2825 Pls
968 2824 Pls
968 2824 Pls
968 2824 Pls
968 2824 Pls
968 2824 Pls
968 2824 Pls
968 2823 Pls
968 2823 Pls
968 2823 Pls
968 2823 Pls
968 2823 Pls
968 2822 Pls
968 2822 Pls
968 2822 Pls
968 2822 Pls
968 2822 Pls
968 2822 Pls
968 2821 Pls
968 2821 Pls
968 2821 Pls
968 2821 Pls
968 2820 Pls
968 2820 Pls
968 2820 Pls
968 2820 Pls
968 2820 Pls
968 2820 Pls
968 2819 Pls
968 2819 Pls
968 2819 Pls
968 2819 Pls
968 2819 Pls
968 2818 Pls
968 2818 Pls
968 2818 Pls
968 2818 Pls
968 2817 Pls
968 2817 Pls
968 2817 Pls
968 2817 Pls
968 2817 Pls
968 2817 Pls
968 2816 Pls
968 2816 Pls
968 2816 Pls
968 2816 Pls
968 2815 Pls
968 2815 Pls
968 2815 Pls
968 2815 Pls
968 2815 Pls
968 2814 Pls
968 2814 Pls
968 2814 Pls
968 2814 Pls
968 2814 Pls
968 2813 Pls
968 2813 Pls
968 2813 Pls
968 2813 Pls
968 2813 Pls
968 2813 Pls
968 2812 Pls
968 2812 Pls
968 2812 Pls
968 2812 Pls
968 2811 Pls
968 2811 Pls
968 2811 Pls
968 2810 Pls
968 2810 Pls
968 2810 Pls
968 2810 Pls
968 2810 Pls
968 2809 Pls
968 2809 Pls
968 2809 Pls
968 2809 Pls
968 2809 Pls
968 2809 Pls
968 2808 Pls
968 2808 Pls
968 2808 Pls
968 2808 Pls
968 2807 Pls
968 2807 Pls
968 2807 Pls
968 2807 Pls
968 2807 Pls
968 2806 Pls
968 2806 Pls
968 2806 Pls
968 2806 Pls
968 2805 Pls
968 2805 Pls
968 2805 Pls
968 2805 Pls
968 2805 Pls
968 2804 Pls
968 2804 Pls
968 2804 Pls
968 2804 Pls
968 2804 Pls
968 2803 Pls
968 2803 Pls
968 2803 Pls
968 2803 Pls
968 2803 Pls
968 2803 Pls
968 2802 Pls
968 2802 Pls
968 2802 Pls
968 2802 Pls
968 2802 Pls
968 2801 Pls
968 2801 Pls
968 2801 Pls
968 2801 Pls
968 2800 Pls
968 2800 Pls
968 2800 Pls
968 2800 Pls
968 2800 Pls
968 2799 Pls
968 2799 Pls
969 2799 Pls
969 2799 Pls
969 2799 Pls
969 2798 Pls
969 2798 Pls
969 2798 Pls
969 2798 Pls
969 2798 Pls
969 2797 Pls
969 2797 Pls
969 2797 Pls
969 2797 Pls
969 2797 Pls
969 2796 Pls
969 2796 Pls
969 2796 Pls
969 2796 Pls
969 2796 Pls
969 2795 Pls
969 2795 Pls
969 2795 Pls
969 2795 Pls
969 2795 Pls
969 2794 Pls
969 2794 Pls
969 2794 Pls
969 2794 Pls
969 2793 Pls
969 2793 Pls
969 2793 Pls
969 2793 Pls
969 2792 Pls
969 2792 Pls
969 2792 Pls
969 2792 Pls
969 2792 Pls
969 2791 Pls
969 2791 Pls
969 2791 Pls
969 2791 Pls
969 2790 Pls
969 2790 Pls
969 2790 Pls
969 2790 Pls
969 2790 Pls
969 2789 Pls
969 2789 Pls
969 2789 Pls
969 2789 Pls
969 2789 Pls
969 2788 Pls
969 2788 Pls
969 2788 Pls
969 2787 Pls
969 2787 Pls
969 2787 Pls
969 2787 Pls
969 2787 Pls
969 2786 Pls
969 2786 Pls
969 2786 Pls
969 2786 Pls
969 2785 Pls
969 2785 Pls
969 2785 Pls
969 2784 Pls
969 2784 Pls
969 2784 Pls
969 2784 Pls
969 2784 Pls
969 2783 Pls
969 2783 Pls
969 2783 Pls
969 2783 Pls
969 2783 Pls
969 2782 Pls
969 2782 Pls
969 2782 Pls
969 2782 Pls
969 2781 Pls
969 2781 Pls
969 2781 Pls
969 2781 Pls
969 2780 Pls
969 2780 Pls
969 2780 Pls
969 2780 Pls
969 2780 Pls
969 2779 Pls
969 2779 Pls
969 2779 Pls
969 2779 Pls
969 2779 Pls
969 2778 Pls
969 2778 Pls
969 2778 Pls
969 2778 Pls
969 2777 Pls
969 2777 Pls
969 2777 Pls
969 2777 Pls
969 2776 Pls
969 2776 Pls
969 2776 Pls
969 2776 Pls
969 2776 Pls
969 2775 Pls
969 2775 Pls
969 2775 Pls
969 2775 Pls
969 2775 Pls
969 2774 Pls
969 2774 Pls
969 2774 Pls
969 2774 Pls
969 2773 Pls
969 2773 Pls
969 2773 Pls
969 2773 Pls
969 2773 Pls
969 2772 Pls
969 2772 Pls
969 2772 Pls
969 2772 Pls
969 2772 Pls
969 2771 Pls
969 2771 Pls
969 2771 Pls
969 2771 Pls
969 2770 Pls
969 2770 Pls
969 2770 Pls
969 2770 Pls
969 2770 Pls
969 2769 Pls
969 2769 Pls
969 2769 Pls
969 2769 Pls
969 2769 Pls
969 2768 Pls
969 2768 Pls
969 2768 Pls
969 2768 Pls
969 2767 Pls
969 2767 Pls
969 2767 Pls
969 2767 Pls
969 2767 Pls
969 2766 Pls
969 2766 Pls
969 2766 Pls
969 2766 Pls
969 2765 Pls
969 2765 Pls
969 2765 Pls
969 2765 Pls
969 2765 Pls
969 2764 Pls
969 2764 Pls
969 2764 Pls
969 2764 Pls
969 2763 Pls
969 2763 Pls
969 2763 Pls
969 2763 Pls
969 2763 Pls
969 2762 Pls
969 2762 Pls
969 2762 Pls
969 2762 Pls
969 2761 Pls
969 2761 Pls
969 2761 Pls
969 2761 Pls
969 2761 Pls
969 2760 Pls
969 2760 Pls
969 2760 Pls
969 2759 Pls
969 2759 Pls
969 2759 Pls
969 2759 Pls
969 2759 Pls
969 2758 Pls
969 2758 Pls
969 2758 Pls
969 2758 Pls
969 2757 Pls
969 2757 Pls
969 2757 Pls
969 2757 Pls
969 2757 Pls
969 2756 Pls
969 2756 Pls
969 2756 Pls
969 2756 Pls
969 2755 Pls
969 2755 Pls
969 2755 Pls
969 2755 Pls
969 2755 Pls
969 2754 Pls
969 2754 Pls
969 2754 Pls
969 2754 Pls
969 2753 Pls
969 2753 Pls
969 2753 Pls
969 2753 Pls
969 2752 Pls
969 2752 Pls
969 2752 Pls
969 2752 Pls
969 2752 Pls
969 2751 Pls
969 2751 Pls
969 2751 Pls
969 2751 Pls
969 2750 Pls
969 2750 Pls
969 2750 Pls
969 2750 Pls
969 2750 Pls
969 2749 Pls
969 2749 Pls
969 2749 Pls
969 2749 Pls
969 2748 Pls
969 2748 Pls
969 2748 Pls
969 2748 Pls
969 2747 Pls
969 2747 Pls
969 2747 Pls
969 2747 Pls
969 2747 Pls
969 2746 Pls
969 2746 Pls
969 2746 Pls
969 2746 Pls
969 2745 Pls
969 2745 Pls
969 2745 Pls
969 2745 Pls
969 2744 Pls
969 2744 Pls
969 2744 Pls
969 2744 Pls
969 2743 Pls
969 2743 Pls
969 2743 Pls
969 2743 Pls
969 2743 Pls
969 2742 Pls
969 2742 Pls
969 2742 Pls
969 2742 Pls
969 2741 Pls
969 2741 Pls
969 2741 Pls
969 2741 Pls
969 2740 Pls
969 2740 Pls
969 2740 Pls
969 2740 Pls
969 2739 Pls
969 2739 Pls
969 2739 Pls
969 2739 Pls
969 2738 Pls
969 2738 Pls
969 2738 Pls
969 2737 Pls
969 2737 Pls
969 2737 Pls
969 2737 Pls
969 2736 Pls
969 2736 Pls
969 2736 Pls
970 2736 Pls
970 2735 Pls
970 2735 Pls
970 2735 Pls
970 2735 Pls
970 2734 Pls
970 2734 Pls
970 2734 Pls
970 2734 Pls
970 2734 Pls
970 2733 Pls
970 2733 Pls
970 2733 Pls
970 2733 Pls
970 2732 Pls
970 2732 Pls
970 2732 Pls
970 2732 Pls
970 2731 Pls
970 2731 Pls
970 2731 Pls
970 2731 Pls
970 2730 Pls
970 2730 Pls
970 2730 Pls
970 2730 Pls
970 2729 Pls
970 2729 Pls
970 2729 Pls
970 2729 Pls
970 2728 Pls
970 2728 Pls
970 2728 Pls
970 2728 Pls
970 2727 Pls
970 2727 Pls
970 2727 Pls
970 2727 Pls
970 2726 Pls
970 2726 Pls
970 2726 Pls
970 2726 Pls
970 2725 Pls
970 2725 Pls
970 2725 Pls
970 2724 Pls
970 2724 Pls
970 2724 Pls
970 2724 Pls
970 2723 Pls
970 2723 Pls
970 2723 Pls
970 2723 Pls
970 2722 Pls
970 2722 Pls
970 2722 Pls
970 2722 Pls
970 2721 Pls
970 2721 Pls
970 2721 Pls
970 2721 Pls
970 2720 Pls
970 2720 Pls
970 2720 Pls
970 2720 Pls
970 2719 Pls
970 2719 Pls
970 2719 Pls
970 2719 Pls
970 2718 Pls
970 2718 Pls
970 2718 Pls
970 2718 Pls
970 2717 Pls
970 2717 Pls
970 2717 Pls
970 2717 Pls
970 2716 Pls
970 2716 Pls
970 2716 Pls
970 2716 Pls
970 2715 Pls
970 2715 Pls
970 2715 Pls
970 2715 Pls
970 2714 Pls
970 2714 Pls
970 2714 Pls
970 2713 Pls
970 2713 Pls
970 2713 Pls
970 2713 Pls
970 2712 Pls
970 2712 Pls
970 2712 Pls
970 2712 Pls
970 2711 Pls
970 2711 Pls
970 2711 Pls
970 2711 Pls
970 2710 Pls
970 2710 Pls
970 2710 Pls
970 2710 Pls
970 2709 Pls
970 2709 Pls
970 2708 Pls
970 2708 Pls
970 2708 Pls
970 2708 Pls
970 2707 Pls
970 2707 Pls
970 2707 Pls
970 2706 Pls
970 2706 Pls
970 2706 Pls
970 2706 Pls
970 2705 Pls
970 2705 Pls
970 2705 Pls
970 2705 Pls
970 2704 Pls
970 2704 Pls
970 2704 Pls
970 2704 Pls
970 2703 Pls
970 2703 Pls
970 2703 Pls
970 2702 Pls
970 2702 Pls
970 2702 Pls
970 2702 Pls
970 2701 Pls
970 2701 Pls
970 2701 Pls
970 2701 Pls
970 2700 Pls
970 2700 Pls
970 2700 Pls
970 2700 Pls
970 2699 Pls
970 2699 Pls
970 2699 Pls
970 2698 Pls
970 2698 Pls
970 2698 Pls
970 2698 Pls
970 2697 Pls
970 2697 Pls
970 2697 Pls
970 2697 Pls
970 2696 Pls
970 2696 Pls
970 2696 Pls
970 2695 Pls
970 2695 Pls
970 2695 Pls
970 2695 Pls
970 2694 Pls
970 2694 Pls
970 2694 Pls
970 2694 Pls
970 2693 Pls
970 2693 Pls
970 2693 Pls
970 2692 Pls
970 2692 Pls
970 2692 Pls
970 2692 Pls
970 2691 Pls
970 2691 Pls
970 2691 Pls
970 2691 Pls
970 2690 Pls
970 2690 Pls
970 2689 Pls
970 2689 Pls
970 2689 Pls
970 2689 Pls
970 2688 Pls
970 2688 Pls
970 2688 Pls
970 2688 Pls
970 2687 Pls
970 2687 Pls
970 2687 Pls
970 2686 Pls
970 2686 Pls
970 2686 Pls
970 2686 Pls
970 2685 Pls
970 2685 Pls
970 2685 Pls
970 2684 Pls
970 2684 Pls
970 2684 Pls
970 2683 Pls
970 2683 Pls
970 2683 Pls
970 2683 Pls
970 2682 Pls
970 2682 Pls
970 2682 Pls
970 2681 Pls
970 2681 Pls
970 2681 Pls
970 2681 Pls
970 2680 Pls
970 2680 Pls
970 2680 Pls
970 2679 Pls
970 2679 Pls
970 2679 Pls
970 2679 Pls
970 2678 Pls
970 2678 Pls
970 2678 Pls
970 2677 Pls
970 2677 Pls
970 2677 Pls
970 2677 Pls
970 2676 Pls
970 2676 Pls
970 2676 Pls
970 2675 Pls
970 2675 Pls
970 2675 Pls
970 2675 Pls
970 2674 Pls
971 2674 Pls
971 2674 Pls
971 2673 Pls
971 2673 Pls
971 2673 Pls
971 2673 Pls
971 2672 Pls
971 2672 Pls
971 2672 Pls
971 2671 Pls
971 2671 Pls
971 2671 Pls
971 2671 Pls
971 2670 Pls
971 2670 Pls
971 2670 Pls
971 2669 Pls
971 2669 Pls
971 2669 Pls
971 2668 Pls
971 2668 Pls
971 2668 Pls
971 2667 Pls
971 2667 Pls
971 2667 Pls
971 2666 Pls
971 2666 Pls
971 2666 Pls
971 2666 Pls
971 2665 Pls
971 2665 Pls
971 2665 Pls
971 2664 Pls
971 2664 Pls
971 2664 Pls
971 2663 Pls
971 2663 Pls
971 2663 Pls
971 2663 Pls
971 2662 Pls
971 2662 Pls
971 2662 Pls
971 2661 Pls
971 2661 Pls
971 2661 Pls
971 2660 Pls
971 2660 Pls
971 2660 Pls
971 2660 Pls
971 2659 Pls
971 2659 Pls
971 2659 Pls
971 2658 Pls
971 2658 Pls
971 2658 Pls
971 2657 Pls
971 2657 Pls
971 2657 Pls
971 2657 Pls
971 2656 Pls
971 2656 Pls
971 2656 Pls
971 2655 Pls
971 2655 Pls
971 2655 Pls
971 2654 Pls
971 2654 Pls
971 2654 Pls
971 2653 Pls
971 2653 Pls
971 2653 Pls
971 2653 Pls
971 2652 Pls
971 2652 Pls
971 2652 Pls
971 2651 Pls
971 2651 Pls
971 2651 Pls
971 2650 Pls
971 2650 Pls
971 2650 Pls
971 2649 Pls
971 2649 Pls
971 2649 Pls
971 2649 Pls
971 2648 Pls
971 2648 Pls
971 2648 Pls
971 2647 Pls
971 2647 Pls
971 2647 Pls
971 2646 Pls
971 2646 Pls
971 2646 Pls
971 2645 Pls
971 2645 Pls
971 2645 Pls
971 2644 Pls
971 2644 Pls
971 2644 Pls
971 2643 Pls
971 2643 Pls
971 2643 Pls
971 2643 Pls
971 2642 Pls
971 2642 Pls
971 2642 Pls
971 2641 Pls
971 2641 Pls
971 2641 Pls
971 2640 Pls
971 2640 Pls
971 2640 Pls
971 2639 Pls
971 2639 Pls
971 2638 Pls
971 2638 Pls
971 2638 Pls
971 2637 Pls
971 2637 Pls
971 2637 Pls
971 2636 Pls
971 2636 Pls
971 2636 Pls
971 2635 Pls
971 2635 Pls
971 2635 Pls
971 2635 Pls
971 2634 Pls
971 2634 Pls
971 2634 Pls
971 2633 Pls
971 2633 Pls
971 2633 Pls
971 2632 Pls
971 2632 Pls
971 2632 Pls
971 2631 Pls
971 2631 Pls
971 2631 Pls
971 2630 Pls
971 2630 Pls
971 2630 Pls
971 2629 Pls
971 2629 Pls
971 2628 Pls
971 2628 Pls
971 2628 Pls
971 2627 Pls
971 2627 Pls
971 2627 Pls
971 2626 Pls
971 2626 Pls
972 2626 Pls
972 2625 Pls
972 2625 Pls
972 2625 Pls
972 2624 Pls
972 2624 Pls
972 2624 Pls
972 2623 Pls
972 2623 Pls
972 2623 Pls
972 2622 Pls
972 2622 Pls
972 2622 Pls
972 2621 Pls
972 2621 Pls
972 2621 Pls
972 2620 Pls
972 2620 Pls
972 2620 Pls
972 2619 Pls
972 2619 Pls
972 2619 Pls
972 2618 Pls
972 2618 Pls
972 2618 Pls
972 2617 Pls
972 2617 Pls
972 2616 Pls
972 2616 Pls
972 2616 Pls
972 2615 Pls
972 2615 Pls
972 2615 Pls
972 2614 Pls
972 2614 Pls
972 2614 Pls
972 2613 Pls
972 2613 Pls
972 2613 Pls
972 2612 Pls
972 2612 Pls
972 2612 Pls
972 2611 Pls
972 2611 Pls
972 2611 Pls
972 2610 Pls
972 2610 Pls
972 2610 Pls
972 2609 Pls
972 2609 Pls
972 2609 Pls
972 2608 Pls
972 2608 Pls
972 2607 Pls
972 2607 Pls
972 2607 Pls
972 2606 Pls
972 2606 Pls
972 2606 Pls
972 2605 Pls
972 2605 Pls
972 2605 Pls
972 2604 Pls
972 2604 Pls
972 2604 Pls
972 2603 Pls
972 2603 Pls
972 2602 Pls
972 2602 Pls
972 2602 Pls
972 2601 Pls
972 2601 Pls
972 2601 Pls
972 2600 Pls
972 2600 Pls
972 2600 Pls
972 2599 Pls
972 2599 Pls
972 2599 Pls
972 2598 Pls
972 2598 Pls
972 2597 Pls
972 2597 Pls
972 2597 Pls
972 2596 Pls
972 2596 Pls
972 2596 Pls
972 2595 Pls
972 2595 Pls
972 2595 Pls
972 2594 Pls
972 2594 Pls
972 2593 Pls
972 2593 Pls
972 2593 Pls
972 2592 Pls
972 2592 Pls
972 2592 Pls
972 2591 Pls
972 2591 Pls
972 2590 Pls
972 2590 Pls
972 2590 Pls
972 2589 Pls
972 2589 Pls
973 2589 Pls
973 2588 Pls
973 2588 Pls
973 2587 Pls
973 2587 Pls
973 2587 Pls
973 2586 Pls
973 2586 Pls
973 2586 Pls
973 2585 Pls
973 2585 Pls
973 2584 Pls
973 2584 Pls
973 2584 Pls
973 2583 Pls
973 2583 Pls
973 2583 Pls
973 2582 Pls
973 2582 Pls
973 2581 Pls
973 2581 Pls
973 2581 Pls
973 2580 Pls
973 2580 Pls
973 2580 Pls
973 2579 Pls
973 2579 Pls
973 2578 Pls
973 2578 Pls
973 2578 Pls
973 2577 Pls
973 2577 Pls
973 2576 Pls
973 2576 Pls
973 2576 Pls
973 2575 Pls
973 2575 Pls
973 2575 Pls
973 2574 Pls
973 2574 Pls
973 2573 Pls
973 2573 Pls
973 2573 Pls
973 2572 Pls
973 2572 Pls
973 2571 Pls
973 2571 Pls
973 2571 Pls
973 2570 Pls
973 2570 Pls
973 2569 Pls
973 2569 Pls
973 2568 Pls
973 2568 Pls
973 2567 Pls
973 2567 Pls
973 2567 Pls
973 2566 Pls
973 2566 Pls
973 2565 Pls
973 2565 Pls
973 2565 Pls
973 2564 Pls
973 2564 Pls
973 2563 Pls
973 2563 Pls
973 2563 Pls
973 2562 Pls
973 2562 Pls
973 2561 Pls
973 2561 Pls
973 2561 Pls
973 2560 Pls
973 2560 Pls
973 2559 Pls
973 2559 Pls
973 2558 Pls
973 2558 Pls
973 2557 Pls
973 2557 Pls
973 2557 Pls
973 2556 Pls
973 2556 Pls
973 2555 Pls
973 2555 Pls
973 2554 Pls
973 2554 Pls
973 2554 Pls
973 2553 Pls
973 2553 Pls
973 2552 Pls
973 2552 Pls
973 2552 Pls
973 2551 Pls
973 2551 Pls
973 2550 Pls
973 2550 Pls
973 2549 Pls
973 2549 Pls
973 2549 Pls
973 2548 Pls
973 2548 Pls
973 2547 Pls
973 2547 Pls
973 2547 Pls
973 2546 Pls
973 2545 Pls
973 2545 Pls
973 2544 Pls
973 2544 Pls
973 2544 Pls
973 2543 Pls
973 2543 Pls
973 2542 Pls
973 2542 Pls
973 2541 Pls
973 2541 Pls
973 2541 Pls
973 2540 Pls
973 2540 Pls
973 2539 Pls
973 2539 Pls
973 2538 Pls
973 2538 Pls
973 2538 Pls
973 2537 Pls
973 2537 Pls
973 2536 Pls
973 2536 Pls
973 2535 Pls
973 2535 Pls
973 2534 Pls
973 2534 Pls
973 2534 Pls
973 2533 Pls
973 2533 Pls
973 2532 Pls
973 2532 Pls
973 2531 Pls
973 2531 Pls
973 2530 Pls
973 2530 Pls
973 2530 Pls
973 2529 Pls
973 2528 Pls
973 2528 Pls
973 2527 Pls
973 2527 Pls
973 2526 Pls
973 2526 Pls
973 2526 Pls
973 2525 Pls
973 2525 Pls
973 2524 Pls
973 2524 Pls
973 2523 Pls
973 2523 Pls
973 2522 Pls
973 2522 Pls
973 2521 Pls
973 2521 Pls
973 2521 Pls
973 2520 Pls
973 2520 Pls
973 2519 Pls
973 2519 Pls
973 2518 Pls
973 2518 Pls
973 2517 Pls
973 2517 Pls
973 2516 Pls
973 2516 Pls
973 2515 Pls
973 2515 Pls
973 2515 Pls
973 2514 Pls
973 2514 Pls
973 2513 Pls
973 2513 Pls
973 2512 Pls
973 2512 Pls
973 2511 Pls
973 2511 Pls
973 2510 Pls
973 2510 Pls
973 2509 Pls
973 2509 Pls
973 2508 Pls
973 2508 Pls
973 2507 Pls
973 2507 Pls
973 2507 Pls
973 2506 Pls
973 2506 Pls
973 2505 Pls
973 2505 Pls
973 2504 Pls
973 2504 Pls
973 2503 Pls
973 2503 Pls
973 2502 Pls
973 2502 Pls
973 2501 Pls
973 2501 Pls
973 2500 Pls
973 2500 Pls
973 2499 Pls
973 2499 Pls
974 2498 Pls
974 2498 Pls
974 2497 Pls
974 2497 Pls
974 2496 Pls
974 2496 Pls
974 2495 Pls
974 2495 Pls
974 2494 Pls
974 2494 Pls
974 2493 Pls
974 2493 Pls
974 2492 Pls
974 2491 Pls
974 2491 Pls
974 2490 Pls
974 2490 Pls
974 2489 Pls
974 2489 Pls
974 2488 Pls
974 2488 Pls
974 2487 Pls
974 2487 Pls
974 2486 Pls
974 2486 Pls
974 2485 Pls
974 2485 Pls
974 2484 Pls
974 2484 Pls
974 2483 Pls
974 2483 Pls
974 2482 Pls
974 2482 Pls
974 2481 Pls
974 2481 Pls
974 2480 Pls
974 2480 Pls
974 2479 Pls
974 2479 Pls
974 2478 Pls
974 2478 Pls
974 2477 Pls
974 2477 Pls
974 2476 Pls
974 2476 Pls
974 2475 Pls
974 2474 Pls
974 2474 Pls
974 2473 Pls
974 2473 Pls
974 2472 Pls
974 2472 Pls
974 2471 Pls
974 2471 Pls
974 2470 Pls
974 2470 Pls
974 2469 Pls
974 2469 Pls
974 2468 Pls
974 2468 Pls
974 2467 Pls
974 2466 Pls
974 2466 Pls
974 2465 Pls
974 2464 Pls
974 2464 Pls
974 2463 Pls
974 2463 Pls
974 2462 Pls
974 2462 Pls
974 2461 Pls
974 2461 Pls
974 2460 Pls
974 2459 Pls
974 2459 Pls
974 2458 Pls
974 2458 Pls
974 2457 Pls
974 2457 Pls
974 2456 Pls
974 2456 Pls
974 2455 Pls
974 2454 Pls
974 2454 Pls
974 2453 Pls
974 2453 Pls
974 2452 Pls
974 2452 Pls
974 2451 Pls
974 2450 Pls
974 2450 Pls
975 2449 Pls
975 2449 Pls
975 2448 Pls
975 2448 Pls
975 2447 Pls
975 2447 Pls
975 2446 Pls
975 2445 Pls
975 2445 Pls
975 2444 Pls
975 2444 Pls
975 2443 Pls
975 2442 Pls
975 2442 Pls
975 2441 Pls
975 2441 Pls
975 2440 Pls
975 2440 Pls
975 2439 Pls
975 2438 Pls
975 2438 Pls
975 2437 Pls
975 2437 Pls
975 2436 Pls
975 2435 Pls
975 2435 Pls
975 2434 Pls
975 2434 Pls
975 2433 Pls
975 2433 Pls
975 2432 Pls
975 2431 Pls
975 2431 Pls
975 2430 Pls
975 2430 Pls
975 2429 Pls
975 2428 Pls
975 2428 Pls
975 2427 Pls
975 2426 Pls
975 2426 Pls
975 2425 Pls
975 2425 Pls
975 2424 Pls
975 2423 Pls
975 2423 Pls
976 2422 Pls
976 2422 Pls
976 2421 Pls
976 2420 Pls
976 2420 Pls
976 2419 Pls
976 2418 Pls
976 2418 Pls
976 2417 Pls
976 2417 Pls
976 2416 Pls
976 2415 Pls
976 2415 Pls
976 2414 Pls
976 2413 Pls
976 2412 Pls
976 2412 Pls
976 2411 Pls
976 2410 Pls
976 2410 Pls
976 2409 Pls
976 2408 Pls
976 2408 Pls
976 2407 Pls
976 2406 Pls
976 2406 Pls
976 2405 Pls
976 2405 Pls
976 2404 Pls
976 2403 Pls
976 2403 Pls
976 2402 Pls
976 2401 Pls
976 2401 Pls
976 2400 Pls
976 2399 Pls
976 2399 Pls
976 2398 Pls
976 2397 Pls
976 2397 Pls
976 2396 Pls
976 2395 Pls
976 2395 Pls
976 2394 Pls
976 2393 Pls
976 2393 Pls
976 2392 Pls
976 2391 Pls
977 2391 Pls
977 2390 Pls
977 2389 Pls
977 2389 Pls
977 2388 Pls
977 2387 Pls
977 2387 Pls
977 2386 Pls
977 2385 Pls
977 2384 Pls
977 2384 Pls
977 2383 Pls
977 2382 Pls
977 2382 Pls
977 2381 Pls
977 2380 Pls
977 2380 Pls
977 2379 Pls
977 2378 Pls
977 2377 Pls
977 2377 Pls
977 2376 Pls
977 2375 Pls
977 2375 Pls
977 2374 Pls
977 2373 Pls
977 2373 Pls
977 2372 Pls
977 2371 Pls
977 2370 Pls
977 2370 Pls
977 2369 Pls
978 2368 Pls
978 2367 Pls
978 2367 Pls
978 2366 Pls
978 2365 Pls
978 2365 Pls
978 2364 Pls
978 2363 Pls
978 2362 Pls
978 2362 Pls
978 2361 Pls
978 2360 Pls
978 2359 Pls
978 2359 Pls
978 2358 Pls
978 2357 Pls
978 2356 Pls
978 2356 Pls
978 2355 Pls
978 2354 Pls
978 2353 Pls
978 2353 Pls
978 2352 Pls
978 2351 Pls
978 2350 Pls
978 2350 Pls
978 2349 Pls
978 2348 Pls
978 2347 Pls
978 2347 Pls
978 2346 Pls
978 2345 Pls
979 2344 Pls
979 2343 Pls
979 2343 Pls
979 2342 Pls
979 2341 Pls
979 2340 Pls
979 2339 Pls
979 2339 Pls
979 2338 Pls
979 2337 Pls
979 2336 Pls
979 2336 Pls
979 2335 Pls
979 2334 Pls
979 2333 Pls
979 2332 Pls
979 2331 Pls
979 2331 Pls
979 2330 Pls
979 2329 Pls
979 2328 Pls
979 2327 Pls
979 2327 Pls
979 2326 Pls
979 2325 Pls
979 2324 Pls
979 2323 Pls
979 2322 Pls
979 2322 Pls
979 2321 Pls
979 2320 Pls
979 2319 Pls
980 2318 Pls
980 2317 Pls
980 2317 Pls
980 2316 Pls
980 2315 Pls
980 2314 Pls
980 2313 Pls
980 2312 Pls
980 2311 Pls
980 2311 Pls
980 2310 Pls
980 2309 Pls
980 2308 Pls
980 2307 Pls
980 2306 Pls
980 2305 Pls
980 2305 Pls
980 2304 Pls
980 2303 Pls
980 2302 Pls
980 2301 Pls
981 2300 Pls
981 2299 Pls
981 2298 Pls
981 2297 Pls
981 2297 Pls
981 2296 Pls
981 2295 Pls
981 2294 Pls
981 2293 Pls
981 2292 Pls
981 2291 Pls
981 2290 Pls
981 2289 Pls
981 2288 Pls
981 2287 Pls
981 2287 Pls
981 2286 Pls
981 2285 Pls
981 2284 Pls
981 2283 Pls
982 2282 Pls
982 2281 Pls
982 2280 Pls
982 2279 Pls
982 2278 Pls
982 2277 Pls
982 2276 Pls
982 2275 Pls
982 2274 Pls
982 2273 Pls
982 2272 Pls
982 2271 Pls
982 2270 Pls
982 2269 Pls
982 2268 Pls
983 2267 Pls
983 2267 Pls
983 2266 Pls
983 2265 Pls
983 2264 Pls
983 2263 Pls
983 2262 Pls
983 2261 Pls
983 2260 Pls
983 2259 Pls
983 2258 Pls
983 2257 Pls
983 2256 Pls
983 2254 Pls
983 2253 Pls
983 2252 Pls
983 2251 Pls
983 2250 Pls
983 2249 Pls
983 2248 Pls
983 2247 Pls
984 2246 Pls
984 2245 Pls
984 2244 Pls
984 2243 Pls
984 2242 Pls
984 2241 Pls
984 2240 Pls
984 2239 Pls
984 2238 Pls
984 2237 Pls
984 2236 Pls
984 2235 Pls
984 2233 Pls
984 2232 Pls
984 2231 Pls
985 2230 Pls
985 2229 Pls
985 2228 Pls
985 2227 Pls
985 2226 Pls
985 2225 Pls
985 2224 Pls
985 2222 Pls
986 2221 Pls
986 2220 Pls
986 2219 Pls
986 2218 Pls
986 2217 Pls
986 2216 Pls
986 2214 Pls
986 2213 Pls
986 2212 Pls
986 2211 Pls
986 2210 Pls
986 2209 Pls
987 2207 Pls
987 2206 Pls
987 2205 Pls
987 2204 Pls
987 2203 Pls
987 2202 Pls
987 2200 Pls
988 2199 Pls
988 2198 Pls
988 2197 Pls
988 2196 Pls
988 2194 Pls
988 2193 Pls
988 2192 Pls
988 2191 Pls
988 2189 Pls
988 2188 Pls
988 2187 Pls
988 2186 Pls
989 2184 Pls
989 2183 Pls
989 2182 Pls
989 2181 Pls
989 2179 Pls
989 2178 Pls
989 2177 Pls
989 2175 Pls
989 2174 Pls
990 2173 Pls
990 2172 Pls
990 2170 Pls
990 2169 Pls
990 2168 Pls
990 2166 Pls
990 2165 Pls
990 2164 Pls
990 2162 Pls
991 2161 Pls
991 2160 Pls
991 2158 Pls
991 2157 Pls
991 2155 Pls
991 2154 Pls
991 2153 Pls
991 2151 Pls
992 2150 Pls
992 2149 Pls
992 2147 Pls
992 2146 Pls
992 2144 Pls
992 2143 Pls
993 2141 Pls
993 2140 Pls
993 2139 Pls
993 2137 Pls
993 2136 Pls
994 2134 Pls
994 2133 Pls
994 2131 Pls
994 2130 Pls
994 2128 Pls
994 2127 Pls
994 2125 Pls
994 2124 Pls
994 2122 Pls
994 2121 Pls
994 2119 Pls
995 2118 Pls
995 2116 Pls
995 2115 Pls
996 2113 Pls
996 2111 Pls
996 2110 Pls
996 2108 Pls
996 2107 Pls
996 2105 Pls
996 2104 Pls
996 2102 Pls
996 2100 Pls
997 2099 Pls
997 2097 Pls
997 2095 Pls
997 2094 Pls
997 2092 Pls
997 2090 Pls
998 2089 Pls
998 2087 Pls
998 2085 Pls
998 2084 Pls
999 2082 Pls
999 2080 Pls
999 2079 Pls
999 2077 Pls
1000 2075 Pls
1000 2073 Pls
1000 2072 Pls
1000 2070 Pls
1001 2068 Pls
1001 2066 Pls
1001 2064 Pls
1001 2063 Pls
1001 2061 Pls
1001 2059 Pls
1002 2057 Pls
1002 2055 Pls
1002 2053 Pls
1002 2052 Pls
1002 2050 Pls
1003 2048 Pls
1003 2046 Pls
1003 2044 Pls
1003 2042 Pls
1004 2040 Pls
1004 2038 Pls
1004 2036 Pls
1004 2034 Pls
1004 2032 Pls
1004 2030 Pls
1004 2028 Pls
1004 2026 Pls
1005 2024 Pls
1005 2022 Pls
1005 2020 Pls
1005 2018 Pls
1005 2016 Pls
1005 2014 Pls
1005 2012 Pls
1006 2010 Pls
1006 2007 Pls
1006 2005 Pls
1006 2003 Pls
1006 2001 Pls
1006 1999 Pls
1007 1997 Pls
1007 1994 Pls
1008 1992 Pls
1008 1990 Pls
1008 1988 Pls
1009 1985 Pls
1009 1983 Pls
1009 1981 Pls
1010 1978 Pls
1010 1976 Pls
1010 1974 Pls
1011 1971 Pls
1011 1969 Pls
1011 1966 Pls
1011 1964 Pls
1011 1962 Pls
1011 1959 Pls
1012 1957 Pls
1012 1954 Pls
1014 1952 Pls
1014 1949 Pls
1014 1946 Pls
1014 1944 Pls
1014 1941 Pls
1015 1939 Pls
1015 1936 Pls
1017 1933 Pls
1017 1931 Pls
1017 1928 Pls
1017 1925 Pls
1018 1922 Pls
1018 1920 Pls
1018 1917 Pls
1018 1914 Pls
1018 1911 Pls
1018 1908 Pls
1019 1905 Pls
1019 1902 Pls
1020 1899 Pls
1021 1896 Pls
1021 1893 Pls
1021 1890 Pls
1021 1887 Pls
1021 1884 Pls
1022 1881 Pls
1022 1878 Pls
1023 1875 Pls
1023 1872 Pls
1023 1868 Pls
1024 1865 Pls
1024 1862 Pls
1024 1858 Pls
1024 1855 Pls
1026 1852 Pls
1027 1848 Pls
1027 1845 Pls
1029 1841 Pls
1030 1838 Pls
1030 1834 Pls
1032 1830 Pls
1032 1827 Pls
1032 1823 Pls
1032 1819 Pls
1032 1816 Pls
1033 1812 Pls
1034 1808 Pls
1035 1804 Pls
1036 1800 Pls
1036 1796 Pls
1038 1792 Pls
1038 1788 Pls
1038 1783 Pls
1041 1779 Pls
1041 1775 Pls
1041 1771 Pls
1042 1766 Pls
1042 1762 Pls
1043 1757 Pls
1043 1753 Pls
1044 1748 Pls
1044 1743 Pls
1046 1738 Pls
1047 1734 Pls
1047 1729 Pls
1049 1724 Pls
1051 1719 Pls
1051 1713 Pls
1051 1708 Pls
1052 1703 Pls
1053 1698 Pls
1053 1692 Pls
1054 1686 Pls
1058 1681 Pls
1062 1675 Pls
1069 1669 Pls
1069 1663 Pls
1070 1657 Pls
1075 1651 Pls
1078 1644 Pls
1078 1638 Pls
1079 1631 Pls
1079 1625 Pls
1082 1618 Pls
1093 1611 Pls
1094 1604 Pls
1096 1596 Pls
1107 1589 Pls
1109 1581 Pls
1122 1574 Pls
1124 1566 Pls
1124 1557 Pls
1130 1549 Pls
1137 1540 Pls
1143 1531 Pls
1158 1522 Pls
1159 1513 Pls
1166 1503 Pls
1173 1493 Pls
1178 1483 Pls
1186 1473 Pls
1186 1462 Pls
1195 1450 Pls
1199 1439 Pls
1208 1427 Pls
1210 1414 Pls
1222 1401 Pls
1227 1388 Pls
1253 1373 Pls
1256 1359 Pls
1260 1343 Pls
1329 1327 Pls
1329 1310 Pls
1329 1292 Pls
1338 1273 Pls
1355 1253 Pls
1374 1231 Pls
1380 1208 Pls
1423 1184 Pls
1450 1157 Pls
1480 1128 Pls
1503 1097 Pls
1663 1062 Pls
1922 1022 Pls
1972 978 Pls
2024 927 Pls
2223 866 Pls
2595 792 Pls
2978 697 Pls
3106 562 Pls
6379 331 Pls
% End plot #1
2.000 UL
LTb
LCb setrgbcolor
1.000 UL
LTB
LCb setrgbcolor
966 4871 N
966 280 L
5981 0 V
0 4591 V
-5981 0 V
Z stroke
1.000 UP
1.000 UL
LTb
LCb setrgbcolor
stroke
grestore
end
showpage
%%Trailer
%%DocumentFonts: Helvetica
%%Pages: 1
