%!PS-Adobe-2.0
%%Title: packets-ip-ccdf-loglin.eps
%%Creator: gnuplot 5.0 patchlevel 3
%%CreationDate: Mon May 29 11:14:09 2017
%%DocumentFonts: (atend)
%%BoundingBox: 50 50 554 770
%%Orientation: Landscape
%%Pages: (atend)
%%EndComments
%%BeginProlog
/gnudict 256 dict def
gnudict begin
%
% The following true/false flags may be edited by hand if desired.
% The unit line width and grayscale image gamma correction may also be changed.
%
/Color true def
/Blacktext false def
/Solid false def
/Dashlength 1 def
/Landscape true def
/Level1 false def
/Level3 false def
/Rounded false def
/ClipToBoundingBox false def
/SuppressPDFMark false def
/TransparentPatterns false def
/gnulinewidth 5.000 def
/userlinewidth gnulinewidth def
/Gamma 1.0 def
/BackgroundColor {-1.000 -1.000 -1.000} def
%
/vshift -46 def
/dl1 {
  10.0 Dashlength userlinewidth gnulinewidth div mul mul mul
  Rounded { currentlinewidth 0.75 mul sub dup 0 le { pop 0.01 } if } if
} def
/dl2 {
  10.0 Dashlength userlinewidth gnulinewidth div mul mul mul
  Rounded { currentlinewidth 0.75 mul add } if
} def
/hpt_ 31.5 def
/vpt_ 31.5 def
/hpt hpt_ def
/vpt vpt_ def
/doclip {
  ClipToBoundingBox {
    newpath 50 50 moveto 554 50 lineto 554 770 lineto 50 770 lineto closepath
    clip
  } if
} def
%
% Gnuplot Prolog Version 5.1 (Oct 2015)
%
%/SuppressPDFMark true def
%
/M {moveto} bind def
/L {lineto} bind def
/R {rmoveto} bind def
/V {rlineto} bind def
/N {newpath moveto} bind def
/Z {closepath} bind def
/C {setrgbcolor} bind def
/f {rlineto fill} bind def
/g {setgray} bind def
/Gshow {show} def   % May be redefined later in the file to support UTF-8
/vpt2 vpt 2 mul def
/hpt2 hpt 2 mul def
/Lshow {currentpoint stroke M 0 vshift R 
	Blacktext {gsave 0 setgray textshow grestore} {textshow} ifelse} def
/Rshow {currentpoint stroke M dup stringwidth pop neg vshift R
	Blacktext {gsave 0 setgray textshow grestore} {textshow} ifelse} def
/Cshow {currentpoint stroke M dup stringwidth pop -2 div vshift R 
	Blacktext {gsave 0 setgray textshow grestore} {textshow} ifelse} def
/UP {dup vpt_ mul /vpt exch def hpt_ mul /hpt exch def
  /hpt2 hpt 2 mul def /vpt2 vpt 2 mul def} def
/DL {Color {setrgbcolor Solid {pop []} if 0 setdash}
 {pop pop pop 0 setgray Solid {pop []} if 0 setdash} ifelse} def
/BL {stroke userlinewidth 2 mul setlinewidth
	Rounded {1 setlinejoin 1 setlinecap} if} def
/AL {stroke userlinewidth 2 div setlinewidth
	Rounded {1 setlinejoin 1 setlinecap} if} def
/UL {dup gnulinewidth mul /userlinewidth exch def
	dup 1 lt {pop 1} if 10 mul /udl exch def} def
/PL {stroke userlinewidth setlinewidth
	Rounded {1 setlinejoin 1 setlinecap} if} def
3.8 setmiterlimit
% Classic Line colors (version 5.0)
/LCw {1 1 1} def
/LCb {0 0 0} def
/LCa {0 0 0} def
/LC0 {1 0 0} def
/LC1 {0 1 0} def
/LC2 {0 0 1} def
/LC3 {1 0 1} def
/LC4 {0 1 1} def
/LC5 {1 1 0} def
/LC6 {0 0 0} def
/LC7 {1 0.3 0} def
/LC8 {0.5 0.5 0.5} def
% Default dash patterns (version 5.0)
/LTB {BL [] LCb DL} def
/LTw {PL [] 1 setgray} def
/LTb {PL [] LCb DL} def
/LTa {AL [1 udl mul 2 udl mul] 0 setdash LCa setrgbcolor} def
/LT0 {PL [] LC0 DL} def
/LT1 {PL [2 dl1 3 dl2] LC1 DL} def
/LT2 {PL [1 dl1 1.5 dl2] LC2 DL} def
/LT3 {PL [6 dl1 2 dl2 1 dl1 2 dl2] LC3 DL} def
/LT4 {PL [1 dl1 2 dl2 6 dl1 2 dl2 1 dl1 2 dl2] LC4 DL} def
/LT5 {PL [4 dl1 2 dl2] LC5 DL} def
/LT6 {PL [1.5 dl1 1.5 dl2 1.5 dl1 1.5 dl2 1.5 dl1 6 dl2] LC6 DL} def
/LT7 {PL [3 dl1 3 dl2 1 dl1 3 dl2] LC7 DL} def
/LT8 {PL [2 dl1 2 dl2 2 dl1 6 dl2] LC8 DL} def
/SL {[] 0 setdash} def
/Pnt {stroke [] 0 setdash gsave 1 setlinecap M 0 0 V stroke grestore} def
/Dia {stroke [] 0 setdash 2 copy vpt add M
  hpt neg vpt neg V hpt vpt neg V
  hpt vpt V hpt neg vpt V closepath stroke
  Pnt} def
/Pls {stroke [] 0 setdash vpt sub M 0 vpt2 V
  currentpoint stroke M
  hpt neg vpt neg R hpt2 0 V stroke
 } def
/Box {stroke [] 0 setdash 2 copy exch hpt sub exch vpt add M
  0 vpt2 neg V hpt2 0 V 0 vpt2 V
  hpt2 neg 0 V closepath stroke
  Pnt} def
/Crs {stroke [] 0 setdash exch hpt sub exch vpt add M
  hpt2 vpt2 neg V currentpoint stroke M
  hpt2 neg 0 R hpt2 vpt2 V stroke} def
/TriU {stroke [] 0 setdash 2 copy vpt 1.12 mul add M
  hpt neg vpt -1.62 mul V
  hpt 2 mul 0 V
  hpt neg vpt 1.62 mul V closepath stroke
  Pnt} def
/Star {2 copy Pls Crs} def
/BoxF {stroke [] 0 setdash exch hpt sub exch vpt add M
  0 vpt2 neg V hpt2 0 V 0 vpt2 V
  hpt2 neg 0 V closepath fill} def
/TriUF {stroke [] 0 setdash vpt 1.12 mul add M
  hpt neg vpt -1.62 mul V
  hpt 2 mul 0 V
  hpt neg vpt 1.62 mul V closepath fill} def
/TriD {stroke [] 0 setdash 2 copy vpt 1.12 mul sub M
  hpt neg vpt 1.62 mul V
  hpt 2 mul 0 V
  hpt neg vpt -1.62 mul V closepath stroke
  Pnt} def
/TriDF {stroke [] 0 setdash vpt 1.12 mul sub M
  hpt neg vpt 1.62 mul V
  hpt 2 mul 0 V
  hpt neg vpt -1.62 mul V closepath fill} def
/DiaF {stroke [] 0 setdash vpt add M
  hpt neg vpt neg V hpt vpt neg V
  hpt vpt V hpt neg vpt V closepath fill} def
/Pent {stroke [] 0 setdash 2 copy gsave
  translate 0 hpt M 4 {72 rotate 0 hpt L} repeat
  closepath stroke grestore Pnt} def
/PentF {stroke [] 0 setdash gsave
  translate 0 hpt M 4 {72 rotate 0 hpt L} repeat
  closepath fill grestore} def
/Circle {stroke [] 0 setdash 2 copy
  hpt 0 360 arc stroke Pnt} def
/CircleF {stroke [] 0 setdash hpt 0 360 arc fill} def
/C0 {BL [] 0 setdash 2 copy moveto vpt 90 450 arc} bind def
/C1 {BL [] 0 setdash 2 copy moveto
	2 copy vpt 0 90 arc closepath fill
	vpt 0 360 arc closepath} bind def
/C2 {BL [] 0 setdash 2 copy moveto
	2 copy vpt 90 180 arc closepath fill
	vpt 0 360 arc closepath} bind def
/C3 {BL [] 0 setdash 2 copy moveto
	2 copy vpt 0 180 arc closepath fill
	vpt 0 360 arc closepath} bind def
/C4 {BL [] 0 setdash 2 copy moveto
	2 copy vpt 180 270 arc closepath fill
	vpt 0 360 arc closepath} bind def
/C5 {BL [] 0 setdash 2 copy moveto
	2 copy vpt 0 90 arc
	2 copy moveto
	2 copy vpt 180 270 arc closepath fill
	vpt 0 360 arc} bind def
/C6 {BL [] 0 setdash 2 copy moveto
	2 copy vpt 90 270 arc closepath fill
	vpt 0 360 arc closepath} bind def
/C7 {BL [] 0 setdash 2 copy moveto
	2 copy vpt 0 270 arc closepath fill
	vpt 0 360 arc closepath} bind def
/C8 {BL [] 0 setdash 2 copy moveto
	2 copy vpt 270 360 arc closepath fill
	vpt 0 360 arc closepath} bind def
/C9 {BL [] 0 setdash 2 copy moveto
	2 copy vpt 270 450 arc closepath fill
	vpt 0 360 arc closepath} bind def
/C10 {BL [] 0 setdash 2 copy 2 copy moveto vpt 270 360 arc closepath fill
	2 copy moveto
	2 copy vpt 90 180 arc closepath fill
	vpt 0 360 arc closepath} bind def
/C11 {BL [] 0 setdash 2 copy moveto
	2 copy vpt 0 180 arc closepath fill
	2 copy moveto
	2 copy vpt 270 360 arc closepath fill
	vpt 0 360 arc closepath} bind def
/C12 {BL [] 0 setdash 2 copy moveto
	2 copy vpt 180 360 arc closepath fill
	vpt 0 360 arc closepath} bind def
/C13 {BL [] 0 setdash 2 copy moveto
	2 copy vpt 0 90 arc closepath fill
	2 copy moveto
	2 copy vpt 180 360 arc closepath fill
	vpt 0 360 arc closepath} bind def
/C14 {BL [] 0 setdash 2 copy moveto
	2 copy vpt 90 360 arc closepath fill
	vpt 0 360 arc} bind def
/C15 {BL [] 0 setdash 2 copy vpt 0 360 arc closepath fill
	vpt 0 360 arc closepath} bind def
/Rec {newpath 4 2 roll moveto 1 index 0 rlineto 0 exch rlineto
	neg 0 rlineto closepath} bind def
/Square {dup Rec} bind def
/Bsquare {vpt sub exch vpt sub exch vpt2 Square} bind def
/S0 {BL [] 0 setdash 2 copy moveto 0 vpt rlineto BL Bsquare} bind def
/S1 {BL [] 0 setdash 2 copy vpt Square fill Bsquare} bind def
/S2 {BL [] 0 setdash 2 copy exch vpt sub exch vpt Square fill Bsquare} bind def
/S3 {BL [] 0 setdash 2 copy exch vpt sub exch vpt2 vpt Rec fill Bsquare} bind def
/S4 {BL [] 0 setdash 2 copy exch vpt sub exch vpt sub vpt Square fill Bsquare} bind def
/S5 {BL [] 0 setdash 2 copy 2 copy vpt Square fill
	exch vpt sub exch vpt sub vpt Square fill Bsquare} bind def
/S6 {BL [] 0 setdash 2 copy exch vpt sub exch vpt sub vpt vpt2 Rec fill Bsquare} bind def
/S7 {BL [] 0 setdash 2 copy exch vpt sub exch vpt sub vpt vpt2 Rec fill
	2 copy vpt Square fill Bsquare} bind def
/S8 {BL [] 0 setdash 2 copy vpt sub vpt Square fill Bsquare} bind def
/S9 {BL [] 0 setdash 2 copy vpt sub vpt vpt2 Rec fill Bsquare} bind def
/S10 {BL [] 0 setdash 2 copy vpt sub vpt Square fill 2 copy exch vpt sub exch vpt Square fill
	Bsquare} bind def
/S11 {BL [] 0 setdash 2 copy vpt sub vpt Square fill 2 copy exch vpt sub exch vpt2 vpt Rec fill
	Bsquare} bind def
/S12 {BL [] 0 setdash 2 copy exch vpt sub exch vpt sub vpt2 vpt Rec fill Bsquare} bind def
/S13 {BL [] 0 setdash 2 copy exch vpt sub exch vpt sub vpt2 vpt Rec fill
	2 copy vpt Square fill Bsquare} bind def
/S14 {BL [] 0 setdash 2 copy exch vpt sub exch vpt sub vpt2 vpt Rec fill
	2 copy exch vpt sub exch vpt Square fill Bsquare} bind def
/S15 {BL [] 0 setdash 2 copy Bsquare fill Bsquare} bind def
/D0 {gsave translate 45 rotate 0 0 S0 stroke grestore} bind def
/D1 {gsave translate 45 rotate 0 0 S1 stroke grestore} bind def
/D2 {gsave translate 45 rotate 0 0 S2 stroke grestore} bind def
/D3 {gsave translate 45 rotate 0 0 S3 stroke grestore} bind def
/D4 {gsave translate 45 rotate 0 0 S4 stroke grestore} bind def
/D5 {gsave translate 45 rotate 0 0 S5 stroke grestore} bind def
/D6 {gsave translate 45 rotate 0 0 S6 stroke grestore} bind def
/D7 {gsave translate 45 rotate 0 0 S7 stroke grestore} bind def
/D8 {gsave translate 45 rotate 0 0 S8 stroke grestore} bind def
/D9 {gsave translate 45 rotate 0 0 S9 stroke grestore} bind def
/D10 {gsave translate 45 rotate 0 0 S10 stroke grestore} bind def
/D11 {gsave translate 45 rotate 0 0 S11 stroke grestore} bind def
/D12 {gsave translate 45 rotate 0 0 S12 stroke grestore} bind def
/D13 {gsave translate 45 rotate 0 0 S13 stroke grestore} bind def
/D14 {gsave translate 45 rotate 0 0 S14 stroke grestore} bind def
/D15 {gsave translate 45 rotate 0 0 S15 stroke grestore} bind def
/DiaE {stroke [] 0 setdash vpt add M
  hpt neg vpt neg V hpt vpt neg V
  hpt vpt V hpt neg vpt V closepath stroke} def
/BoxE {stroke [] 0 setdash exch hpt sub exch vpt add M
  0 vpt2 neg V hpt2 0 V 0 vpt2 V
  hpt2 neg 0 V closepath stroke} def
/TriUE {stroke [] 0 setdash vpt 1.12 mul add M
  hpt neg vpt -1.62 mul V
  hpt 2 mul 0 V
  hpt neg vpt 1.62 mul V closepath stroke} def
/TriDE {stroke [] 0 setdash vpt 1.12 mul sub M
  hpt neg vpt 1.62 mul V
  hpt 2 mul 0 V
  hpt neg vpt -1.62 mul V closepath stroke} def
/PentE {stroke [] 0 setdash gsave
  translate 0 hpt M 4 {72 rotate 0 hpt L} repeat
  closepath stroke grestore} def
/CircE {stroke [] 0 setdash 
  hpt 0 360 arc stroke} def
/Opaque {gsave closepath 1 setgray fill grestore 0 setgray closepath} def
/DiaW {stroke [] 0 setdash vpt add M
  hpt neg vpt neg V hpt vpt neg V
  hpt vpt V hpt neg vpt V Opaque stroke} def
/BoxW {stroke [] 0 setdash exch hpt sub exch vpt add M
  0 vpt2 neg V hpt2 0 V 0 vpt2 V
  hpt2 neg 0 V Opaque stroke} def
/TriUW {stroke [] 0 setdash vpt 1.12 mul add M
  hpt neg vpt -1.62 mul V
  hpt 2 mul 0 V
  hpt neg vpt 1.62 mul V Opaque stroke} def
/TriDW {stroke [] 0 setdash vpt 1.12 mul sub M
  hpt neg vpt 1.62 mul V
  hpt 2 mul 0 V
  hpt neg vpt -1.62 mul V Opaque stroke} def
/PentW {stroke [] 0 setdash gsave
  translate 0 hpt M 4 {72 rotate 0 hpt L} repeat
  Opaque stroke grestore} def
/CircW {stroke [] 0 setdash 
  hpt 0 360 arc Opaque stroke} def
/BoxFill {gsave Rec 1 setgray fill grestore} def
/Density {
  /Fillden exch def
  currentrgbcolor
  /ColB exch def /ColG exch def /ColR exch def
  /ColR ColR Fillden mul Fillden sub 1 add def
  /ColG ColG Fillden mul Fillden sub 1 add def
  /ColB ColB Fillden mul Fillden sub 1 add def
  ColR ColG ColB setrgbcolor} def
/BoxColFill {gsave Rec PolyFill} def
/PolyFill {gsave Density fill grestore grestore} def
/h {rlineto rlineto rlineto gsave closepath fill grestore} bind def
%
% PostScript Level 1 Pattern Fill routine for rectangles
% Usage: x y w h s a XX PatternFill
%	x,y = lower left corner of box to be filled
%	w,h = width and height of box
%	  a = angle in degrees between lines and x-axis
%	 XX = 0/1 for no/yes cross-hatch
%
/PatternFill {gsave /PFa [ 9 2 roll ] def
  PFa 0 get PFa 2 get 2 div add PFa 1 get PFa 3 get 2 div add translate
  PFa 2 get -2 div PFa 3 get -2 div PFa 2 get PFa 3 get Rec
  TransparentPatterns {} {gsave 1 setgray fill grestore} ifelse
  clip
  currentlinewidth 0.5 mul setlinewidth
  /PFs PFa 2 get dup mul PFa 3 get dup mul add sqrt def
  0 0 M PFa 5 get rotate PFs -2 div dup translate
  0 1 PFs PFa 4 get div 1 add floor cvi
	{PFa 4 get mul 0 M 0 PFs V} for
  0 PFa 6 get ne {
	0 1 PFs PFa 4 get div 1 add floor cvi
	{PFa 4 get mul 0 2 1 roll M PFs 0 V} for
 } if
  stroke grestore} def
%
/languagelevel where
 {pop languagelevel} {1} ifelse
dup 2 lt
	{/InterpretLevel1 true def
	 /InterpretLevel3 false def}
	{/InterpretLevel1 Level1 def
	 2 gt
	    {/InterpretLevel3 Level3 def}
	    {/InterpretLevel3 false def}
	 ifelse }
 ifelse
%
% PostScript level 2 pattern fill definitions
%
/Level2PatternFill {
/Tile8x8 {/PaintType 2 /PatternType 1 /TilingType 1 /BBox [0 0 8 8] /XStep 8 /YStep 8}
	bind def
/KeepColor {currentrgbcolor [/Pattern /DeviceRGB] setcolorspace} bind def
<< Tile8x8
 /PaintProc {0.5 setlinewidth pop 0 0 M 8 8 L 0 8 M 8 0 L stroke} 
>> matrix makepattern
/Pat1 exch def
<< Tile8x8
 /PaintProc {0.5 setlinewidth pop 0 0 M 8 8 L 0 8 M 8 0 L stroke
	0 4 M 4 8 L 8 4 L 4 0 L 0 4 L stroke}
>> matrix makepattern
/Pat2 exch def
<< Tile8x8
 /PaintProc {0.5 setlinewidth pop 0 0 M 0 8 L
	8 8 L 8 0 L 0 0 L fill}
>> matrix makepattern
/Pat3 exch def
<< Tile8x8
 /PaintProc {0.5 setlinewidth pop -4 8 M 8 -4 L
	0 12 M 12 0 L stroke}
>> matrix makepattern
/Pat4 exch def
<< Tile8x8
 /PaintProc {0.5 setlinewidth pop -4 0 M 8 12 L
	0 -4 M 12 8 L stroke}
>> matrix makepattern
/Pat5 exch def
<< Tile8x8
 /PaintProc {0.5 setlinewidth pop -2 8 M 4 -4 L
	0 12 M 8 -4 L 4 12 M 10 0 L stroke}
>> matrix makepattern
/Pat6 exch def
<< Tile8x8
 /PaintProc {0.5 setlinewidth pop -2 0 M 4 12 L
	0 -4 M 8 12 L 4 -4 M 10 8 L stroke}
>> matrix makepattern
/Pat7 exch def
<< Tile8x8
 /PaintProc {0.5 setlinewidth pop 8 -2 M -4 4 L
	12 0 M -4 8 L 12 4 M 0 10 L stroke}
>> matrix makepattern
/Pat8 exch def
<< Tile8x8
 /PaintProc {0.5 setlinewidth pop 0 -2 M 12 4 L
	-4 0 M 12 8 L -4 4 M 8 10 L stroke}
>> matrix makepattern
/Pat9 exch def
/Pattern1 {PatternBgnd KeepColor Pat1 setpattern} bind def
/Pattern2 {PatternBgnd KeepColor Pat2 setpattern} bind def
/Pattern3 {PatternBgnd KeepColor Pat3 setpattern} bind def
/Pattern4 {PatternBgnd KeepColor Landscape {Pat5} {Pat4} ifelse setpattern} bind def
/Pattern5 {PatternBgnd KeepColor Landscape {Pat4} {Pat5} ifelse setpattern} bind def
/Pattern6 {PatternBgnd KeepColor Landscape {Pat9} {Pat6} ifelse setpattern} bind def
/Pattern7 {PatternBgnd KeepColor Landscape {Pat8} {Pat7} ifelse setpattern} bind def
} def
%
%
%End of PostScript Level 2 code
%
/PatternBgnd {
  TransparentPatterns {} {gsave 1 setgray fill grestore} ifelse
} def
%
% Substitute for Level 2 pattern fill codes with
% grayscale if Level 2 support is not selected.
%
/Level1PatternFill {
/Pattern1 {0.250 Density} bind def
/Pattern2 {0.500 Density} bind def
/Pattern3 {0.750 Density} bind def
/Pattern4 {0.125 Density} bind def
/Pattern5 {0.375 Density} bind def
/Pattern6 {0.625 Density} bind def
/Pattern7 {0.875 Density} bind def
} def
%
% Now test for support of Level 2 code
%
Level1 {Level1PatternFill} {Level2PatternFill} ifelse
%
/Symbol-Oblique /Symbol findfont [1 0 .167 1 0 0] makefont
dup length dict begin {1 index /FID eq {pop pop} {def} ifelse} forall
currentdict end definefont pop
%
/MFshow {
   { dup 5 get 3 ge
     { 5 get 3 eq {gsave} {grestore} ifelse }
     {dup dup 0 get findfont exch 1 get scalefont setfont
     [ currentpoint ] exch dup 2 get 0 exch R dup 5 get 2 ne {dup dup 6
     get exch 4 get {textshow} {stringwidth pop 0 R} ifelse }if dup 5 get 0 eq
     {dup 3 get {2 get neg 0 exch R pop} {pop aload pop M} ifelse} {dup 5
     get 1 eq {dup 2 get exch dup 3 get exch 6 get stringwidth pop -2 div
     dup 0 R} {dup 6 get stringwidth pop -2 div 0 R 6 get
     textshow 2 index {aload pop M neg 3 -1 roll neg R pop pop} {pop pop pop
     pop aload pop M} ifelse }ifelse }ifelse }
     ifelse }
   forall} def
/Gswidth {dup type /stringtype eq {stringwidth} {pop (n) stringwidth} ifelse} def
/MFwidth {0 exch { dup 5 get 3 ge { 5 get 3 eq { 0 } { pop } ifelse }
 {dup 3 get{dup dup 0 get findfont exch 1 get scalefont setfont
     6 get Gswidth pop add} {pop} ifelse} ifelse} forall} def
/MLshow { currentpoint stroke M
  0 exch R
  Blacktext {gsave 0 setgray MFshow grestore} {MFshow} ifelse } bind def
/MRshow { currentpoint stroke M
  exch dup MFwidth neg 3 -1 roll R
  Blacktext {gsave 0 setgray MFshow grestore} {MFshow} ifelse } bind def
/MCshow { currentpoint stroke M
  exch dup MFwidth -2 div 3 -1 roll R
  Blacktext {gsave 0 setgray MFshow grestore} {MFshow} ifelse } bind def
/XYsave    { [( ) 1 2 true false 3 ()] } bind def
/XYrestore { [( ) 1 2 true false 4 ()] } bind def
Level1 SuppressPDFMark or 
{} {
/SDict 10 dict def
systemdict /pdfmark known not {
  userdict /pdfmark systemdict /cleartomark get put
} if
SDict begin [
  /Title (packets-ip-ccdf-loglin.eps)
  /Subject (gnuplot plot)
  /Creator (gnuplot 5.0 patchlevel 3)
  /Author (tiphaine)
%  /Producer (gnuplot)
%  /Keywords ()
  /CreationDate (Mon May 29 11:14:09 2017)
  /DOCINFO pdfmark
end
} ifelse
%
% Support for boxed text - Ethan A Merritt May 2005
%
/InitTextBox { userdict /TBy2 3 -1 roll put userdict /TBx2 3 -1 roll put
           userdict /TBy1 3 -1 roll put userdict /TBx1 3 -1 roll put
	   /Boxing true def } def
/ExtendTextBox { Boxing
    { gsave dup false charpath pathbbox
      dup TBy2 gt {userdict /TBy2 3 -1 roll put} {pop} ifelse
      dup TBx2 gt {userdict /TBx2 3 -1 roll put} {pop} ifelse
      dup TBy1 lt {userdict /TBy1 3 -1 roll put} {pop} ifelse
      dup TBx1 lt {userdict /TBx1 3 -1 roll put} {pop} ifelse
      grestore } if } def
/PopTextBox { newpath TBx1 TBxmargin sub TBy1 TBymargin sub M
               TBx1 TBxmargin sub TBy2 TBymargin add L
	       TBx2 TBxmargin add TBy2 TBymargin add L
	       TBx2 TBxmargin add TBy1 TBymargin sub L closepath } def
/DrawTextBox { PopTextBox stroke /Boxing false def} def
/FillTextBox { gsave PopTextBox 1 1 1 setrgbcolor fill grestore /Boxing false def} def
0 0 0 0 InitTextBox
/TBxmargin 20 def
/TBymargin 20 def
/Boxing false def
/textshow { ExtendTextBox Gshow } def
%
% redundant definitions for compatibility with prologue.ps older than 5.0.2
/LTB {BL [] LCb DL} def
/LTb {PL [] LCb DL} def
end
%%EndProlog
%%Page: 1 1
gnudict begin
gsave
doclip
50 50 translate
0.100 0.100 scale
90 rotate
0 -5040 translate
0 setgray
newpath
(Helvetica) findfont 140 scalefont setfont
BackgroundColor 0 lt 3 1 roll 0 lt exch 0 lt or or not {gsave BackgroundColor C clippath fill grestore} if
1.000 UL
LTb
LCb setrgbcolor
546 280 M
63 0 V
6338 0 R
-63 0 V
stroke
462 280 M
[ [(Helvetica) 140.0 0.0 true true 0 ( 0)]
] -46.7 MRshow
1.000 UL
LTb
LCb setrgbcolor
546 739 M
63 0 V
6338 0 R
-63 0 V
stroke
462 739 M
[ [(Helvetica) 140.0 0.0 true true 0 ( 0.1)]
] -46.7 MRshow
1.000 UL
LTb
LCb setrgbcolor
546 1198 M
63 0 V
6338 0 R
-63 0 V
stroke
462 1198 M
[ [(Helvetica) 140.0 0.0 true true 0 ( 0.2)]
] -46.7 MRshow
1.000 UL
LTb
LCb setrgbcolor
546 1657 M
63 0 V
6338 0 R
-63 0 V
stroke
462 1657 M
[ [(Helvetica) 140.0 0.0 true true 0 ( 0.3)]
] -46.7 MRshow
1.000 UL
LTb
LCb setrgbcolor
546 2116 M
63 0 V
6338 0 R
-63 0 V
stroke
462 2116 M
[ [(Helvetica) 140.0 0.0 true true 0 ( 0.4)]
] -46.7 MRshow
1.000 UL
LTb
LCb setrgbcolor
546 2576 M
63 0 V
6338 0 R
-63 0 V
stroke
462 2576 M
[ [(Helvetica) 140.0 0.0 true true 0 ( 0.5)]
] -46.7 MRshow
1.000 UL
LTb
LCb setrgbcolor
546 3035 M
63 0 V
6338 0 R
-63 0 V
stroke
462 3035 M
[ [(Helvetica) 140.0 0.0 true true 0 ( 0.6)]
] -46.7 MRshow
1.000 UL
LTb
LCb setrgbcolor
546 3494 M
63 0 V
6338 0 R
-63 0 V
stroke
462 3494 M
[ [(Helvetica) 140.0 0.0 true true 0 ( 0.7)]
] -46.7 MRshow
1.000 UL
LTb
LCb setrgbcolor
546 3953 M
63 0 V
6338 0 R
-63 0 V
stroke
462 3953 M
[ [(Helvetica) 140.0 0.0 true true 0 ( 0.8)]
] -46.7 MRshow
1.000 UL
LTb
LCb setrgbcolor
546 4412 M
63 0 V
6338 0 R
-63 0 V
stroke
462 4412 M
[ [(Helvetica) 140.0 0.0 true true 0 ( 0.9)]
] -46.7 MRshow
1.000 UL
LTb
LCb setrgbcolor
546 4871 M
63 0 V
6338 0 R
-63 0 V
stroke
462 4871 M
[ [(Helvetica) 140.0 0.0 true true 0 ( 1)]
] -46.7 MRshow
1.000 UL
LTb
LCb setrgbcolor
546 280 M
0 63 V
0 4528 R
0 -63 V
stroke
546 140 M
[ [(Helvetica) 140.0 0.0 true true 0 ( 1)]
] -46.7 MCshow
1.000 UL
LTb
LCb setrgbcolor
787 280 M
0 31 V
0 4560 R
0 -31 V
1105 280 M
0 31 V
0 4560 R
0 -31 V
1269 280 M
0 31 V
0 4560 R
0 -31 V
1346 280 M
0 63 V
0 4528 R
0 -63 V
stroke
1346 140 M
[ [(Helvetica) 140.0 0.0 true true 0 ( 10)]
] -46.7 MCshow
1.000 UL
LTb
LCb setrgbcolor
1587 280 M
0 31 V
0 4560 R
0 -31 V
1905 280 M
0 31 V
0 4560 R
0 -31 V
2069 280 M
0 31 V
0 4560 R
0 -31 V
2146 280 M
0 63 V
0 4528 R
0 -63 V
stroke
2146 140 M
[ [(Helvetica) 140.0 0.0 true true 0 ( 100)]
] -46.7 MCshow
1.000 UL
LTb
LCb setrgbcolor
2387 280 M
0 31 V
0 4560 R
0 -31 V
2706 280 M
0 31 V
0 4560 R
0 -31 V
2869 280 M
0 31 V
0 4560 R
0 -31 V
2946 280 M
0 63 V
0 4528 R
0 -63 V
stroke
2946 140 M
[ [(Helvetica) 140.0 0.0 true true 0 ( 1000)]
] -46.7 MCshow
1.000 UL
LTb
LCb setrgbcolor
3187 280 M
0 31 V
0 4560 R
0 -31 V
3506 280 M
0 31 V
0 4560 R
0 -31 V
3669 280 M
0 31 V
0 4560 R
0 -31 V
3747 280 M
0 63 V
0 4528 R
0 -63 V
stroke
3747 140 M
[ [(Helvetica) 140.0 0.0 true true 0 ( 10000)]
] -46.7 MCshow
1.000 UL
LTb
LCb setrgbcolor
3987 280 M
0 31 V
0 4560 R
0 -31 V
4306 280 M
0 31 V
0 4560 R
0 -31 V
4469 280 M
0 31 V
0 4560 R
0 -31 V
4547 280 M
0 63 V
0 4528 R
0 -63 V
stroke
4547 140 M
[ [(Helvetica) 140.0 0.0 true true 0 ( 100000)]
] -46.7 MCshow
1.000 UL
LTb
LCb setrgbcolor
4787 280 M
0 31 V
0 4560 R
0 -31 V
5106 280 M
0 31 V
0 4560 R
0 -31 V
5269 280 M
0 31 V
0 4560 R
0 -31 V
5347 280 M
0 63 V
0 4528 R
0 -63 V
stroke
5347 140 M
[ [(Helvetica) 140.0 0.0 true true 0 ( 1x10)]
[(Helvetica) 112.0 70.0 true true 0 (6)]
] -60.7 MCshow
1.000 UL
LTb
LCb setrgbcolor
5588 280 M
0 31 V
0 4560 R
0 -31 V
5906 280 M
0 31 V
0 4560 R
0 -31 V
6069 280 M
0 31 V
0 4560 R
0 -31 V
6147 280 M
0 63 V
0 4528 R
0 -63 V
stroke
6147 140 M
[ [(Helvetica) 140.0 0.0 true true 0 ( 1x10)]
[(Helvetica) 112.0 70.0 true true 0 (7)]
] -60.7 MCshow
1.000 UL
LTb
LCb setrgbcolor
6388 280 M
0 31 V
0 4560 R
0 -31 V
6706 280 M
0 31 V
0 4560 R
0 -31 V
6869 280 M
0 31 V
0 4560 R
0 -31 V
6947 280 M
0 63 V
0 4528 R
0 -63 V
stroke
6947 140 M
[ [(Helvetica) 140.0 0.0 true true 0 ( 1x10)]
[(Helvetica) 112.0 70.0 true true 0 (8)]
] -60.7 MCshow
1.000 UL
LTb
LCb setrgbcolor
1.000 UL
LTB
LCb setrgbcolor
546 4871 N
546 280 L
6401 0 V
0 4591 V
-6401 0 V
Z stroke
1.000 UP
1.000 UL
LTb
LCb setrgbcolor
% Begin plot #1
1.000 UP
1.000 UL
LTb
0.58 0.00 0.83 C 546 4871 Pls
787 3447 Pls
928 2750 Pls
1028 2410 Pls
1105 2071 Pls
1169 1862 Pls
1222 1672 Pls
1269 1541 Pls
1310 1410 Pls
1346 1315 Pls
1379 1221 Pls
1409 1150 Pls
1437 1076 Pls
1463 1020 Pls
1487 964 Pls
1509 913 Pls
1531 862 Pls
1550 819 Pls
1569 777 Pls
1587 742 Pls
1604 710 Pls
1620 687 Pls
1636 665 Pls
1650 648 Pls
1665 630 Pls
1678 617 Pls
1691 604 Pls
1704 593 Pls
1716 583 Pls
1728 575 Pls
1739 565 Pls
1750 559 Pls
1761 552 Pls
1771 547 Pls
1781 541 Pls
1791 536 Pls
1801 530 Pls
1810 527 Pls
1819 522 Pls
1828 519 Pls
1836 513 Pls
1845 510 Pls
1853 507 Pls
1861 504 Pls
1869 501 Pls
1876 498 Pls
1884 495 Pls
1891 490 Pls
1898 486 Pls
1905 482 Pls
1912 479 Pls
1919 476 Pls
1926 473 Pls
1932 471 Pls
1939 469 Pls
1945 466 Pls
1951 464 Pls
1957 462 Pls
1963 461 Pls
1969 459 Pls
1974 456 Pls
1980 455 Pls
1986 453 Pls
1991 452 Pls
1997 450 Pls
2002 448 Pls
2007 447 Pls
2012 446 Pls
2017 445 Pls
2022 443 Pls
2027 442 Pls
2032 441 Pls
2037 439 Pls
2042 438 Pls
2046 437 Pls
2051 436 Pls
2055 435 Pls
2060 434 Pls
2064 432 Pls
2069 431 Pls
2073 430 Pls
2077 429 Pls
2082 428 Pls
2086 427 Pls
2090 426 Pls
2094 425 Pls
2098 424 Pls
2102 424 Pls
2106 423 Pls
2110 422 Pls
2113 421 Pls
2117 420 Pls
2121 419 Pls
2125 418 Pls
2128 418 Pls
2132 417 Pls
2136 415 Pls
2139 415 Pls
2143 414 Pls
2146 413 Pls
2150 409 Pls
2153 409 Pls
2157 408 Pls
2160 407 Pls
2163 407 Pls
2166 406 Pls
2170 405 Pls
2173 405 Pls
2176 404 Pls
2179 403 Pls
2183 403 Pls
2186 402 Pls
2189 401 Pls
2192 401 Pls
2195 400 Pls
2198 399 Pls
2201 399 Pls
2204 398 Pls
2207 398 Pls
2210 397 Pls
2212 396 Pls
2215 396 Pls
2218 395 Pls
2221 394 Pls
2224 394 Pls
2227 393 Pls
2229 393 Pls
2232 392 Pls
2235 392 Pls
2237 391 Pls
2240 391 Pls
2243 390 Pls
2245 389 Pls
2248 389 Pls
2251 388 Pls
2253 388 Pls
2256 388 Pls
2258 387 Pls
2261 387 Pls
2263 386 Pls
2266 386 Pls
2268 385 Pls
2271 385 Pls
2273 384 Pls
2275 384 Pls
2278 383 Pls
2280 383 Pls
2282 382 Pls
2285 382 Pls
2287 382 Pls
2289 381 Pls
2292 381 Pls
2294 380 Pls
2296 380 Pls
2299 380 Pls
2301 379 Pls
2303 379 Pls
2305 379 Pls
2307 378 Pls
2310 378 Pls
2312 377 Pls
2314 377 Pls
2316 377 Pls
2318 376 Pls
2320 376 Pls
2322 376 Pls
2324 375 Pls
2327 375 Pls
2329 375 Pls
2331 374 Pls
2333 374 Pls
2335 374 Pls
2337 373 Pls
2339 373 Pls
2341 373 Pls
2343 372 Pls
2345 372 Pls
2347 372 Pls
2349 371 Pls
2350 371 Pls
2352 370 Pls
2354 370 Pls
2356 369 Pls
2358 369 Pls
2360 369 Pls
2362 368 Pls
2364 368 Pls
2366 368 Pls
2367 367 Pls
2369 367 Pls
2371 367 Pls
2373 367 Pls
2375 366 Pls
2377 366 Pls
2378 366 Pls
2380 366 Pls
2382 365 Pls
2384 365 Pls
2385 365 Pls
2387 365 Pls
2389 364 Pls
2391 364 Pls
2392 364 Pls
2394 364 Pls
2396 363 Pls
2397 363 Pls
2399 363 Pls
2401 362 Pls
2402 362 Pls
2404 362 Pls
2406 361 Pls
2407 361 Pls
2409 361 Pls
2411 361 Pls
2412 360 Pls
2414 360 Pls
2415 360 Pls
2417 360 Pls
2419 359 Pls
2420 359 Pls
2422 359 Pls
2423 359 Pls
2425 359 Pls
2426 358 Pls
2428 358 Pls
2430 358 Pls
2431 358 Pls
2433 358 Pls
2434 357 Pls
2436 357 Pls
2437 357 Pls
2439 357 Pls
2440 357 Pls
2442 356 Pls
2443 356 Pls
2445 356 Pls
2446 356 Pls
2448 356 Pls
2449 355 Pls
2450 355 Pls
2452 355 Pls
2453 355 Pls
2455 354 Pls
2456 354 Pls
2458 354 Pls
2459 354 Pls
2460 354 Pls
2462 353 Pls
2463 353 Pls
2465 353 Pls
2466 353 Pls
2467 353 Pls
2469 353 Pls
2470 352 Pls
2472 352 Pls
2473 352 Pls
2474 352 Pls
2476 352 Pls
2477 352 Pls
2478 352 Pls
2480 351 Pls
2481 351 Pls
2482 351 Pls
2484 351 Pls
2485 351 Pls
2486 351 Pls
2488 350 Pls
2489 350 Pls
2490 350 Pls
2491 350 Pls
2493 350 Pls
2494 350 Pls
2495 349 Pls
2497 349 Pls
2498 349 Pls
2499 349 Pls
2500 349 Pls
2502 349 Pls
2503 349 Pls
2504 348 Pls
2505 348 Pls
2507 348 Pls
2508 348 Pls
2509 348 Pls
2510 348 Pls
2511 348 Pls
2513 347 Pls
2514 347 Pls
2515 347 Pls
2516 347 Pls
2517 347 Pls
2519 347 Pls
2520 347 Pls
2521 347 Pls
2522 346 Pls
2523 346 Pls
2525 346 Pls
2526 346 Pls
2527 346 Pls
2528 346 Pls
2529 346 Pls
2530 345 Pls
2531 345 Pls
2533 345 Pls
2534 345 Pls
2535 345 Pls
2536 345 Pls
2537 345 Pls
2538 344 Pls
2539 344 Pls
2541 344 Pls
2542 344 Pls
2543 344 Pls
2544 344 Pls
2545 344 Pls
2546 343 Pls
2547 343 Pls
2548 343 Pls
2549 343 Pls
2550 343 Pls
2552 343 Pls
2553 343 Pls
2554 343 Pls
2555 343 Pls
2556 343 Pls
2557 343 Pls
2558 342 Pls
2559 342 Pls
2560 342 Pls
2561 342 Pls
2562 342 Pls
2563 342 Pls
2564 342 Pls
2565 342 Pls
2566 342 Pls
2567 342 Pls
2568 342 Pls
2569 341 Pls
2570 341 Pls
2571 341 Pls
2573 341 Pls
2574 341 Pls
2575 341 Pls
2576 341 Pls
2577 341 Pls
2578 341 Pls
2579 341 Pls
2580 340 Pls
2581 340 Pls
2582 340 Pls
2583 340 Pls
2584 340 Pls
2585 340 Pls
2586 340 Pls
2587 340 Pls
2587 339 Pls
2588 339 Pls
2589 339 Pls
2590 339 Pls
2591 339 Pls
2592 339 Pls
2593 339 Pls
2594 339 Pls
2595 339 Pls
2596 339 Pls
2597 339 Pls
2598 338 Pls
2599 338 Pls
2600 338 Pls
2601 338 Pls
2602 338 Pls
2603 338 Pls
2604 338 Pls
2605 338 Pls
2606 338 Pls
2606 338 Pls
2607 337 Pls
2608 337 Pls
2609 337 Pls
2610 337 Pls
2611 337 Pls
2612 337 Pls
2613 337 Pls
2614 337 Pls
2615 337 Pls
2616 337 Pls
2616 337 Pls
2617 337 Pls
2618 337 Pls
2619 337 Pls
2620 337 Pls
2621 336 Pls
2622 336 Pls
2623 336 Pls
2624 336 Pls
2624 336 Pls
2625 336 Pls
2626 336 Pls
2627 336 Pls
2628 336 Pls
2629 336 Pls
2630 336 Pls
2631 336 Pls
2631 336 Pls
2632 336 Pls
2633 335 Pls
2634 335 Pls
2635 335 Pls
2636 335 Pls
2637 335 Pls
2637 335 Pls
2638 335 Pls
2639 335 Pls
2640 335 Pls
2641 335 Pls
2642 335 Pls
2642 335 Pls
2643 335 Pls
2644 335 Pls
2645 334 Pls
2646 334 Pls
2647 334 Pls
2647 334 Pls
2648 334 Pls
2649 334 Pls
2650 334 Pls
2651 334 Pls
2651 334 Pls
2652 334 Pls
2653 334 Pls
2654 334 Pls
2655 334 Pls
2656 334 Pls
2656 334 Pls
2657 333 Pls
2658 333 Pls
2659 333 Pls
2660 333 Pls
2660 333 Pls
2661 333 Pls
2662 333 Pls
2663 333 Pls
2663 333 Pls
2664 333 Pls
2665 333 Pls
2666 333 Pls
2667 333 Pls
2667 333 Pls
2668 332 Pls
2669 332 Pls
2670 332 Pls
2670 332 Pls
2671 332 Pls
2672 332 Pls
2673 332 Pls
2674 332 Pls
2674 332 Pls
2675 332 Pls
2676 332 Pls
2677 332 Pls
2677 332 Pls
2678 332 Pls
2679 332 Pls
2680 332 Pls
2680 331 Pls
2681 331 Pls
2682 331 Pls
2683 331 Pls
2683 331 Pls
2684 331 Pls
2685 331 Pls
2685 331 Pls
2686 331 Pls
2687 331 Pls
2688 331 Pls
2688 331 Pls
2689 331 Pls
2690 331 Pls
2691 331 Pls
2691 330 Pls
2692 330 Pls
2693 330 Pls
2693 330 Pls
2694 330 Pls
2695 330 Pls
2696 330 Pls
2696 330 Pls
2697 330 Pls
2698 330 Pls
2698 330 Pls
2699 330 Pls
2700 330 Pls
2701 330 Pls
2701 330 Pls
2702 330 Pls
2703 330 Pls
2703 329 Pls
2704 329 Pls
2705 329 Pls
2706 329 Pls
2706 329 Pls
2707 329 Pls
2708 329 Pls
2708 329 Pls
2709 329 Pls
2710 329 Pls
2710 329 Pls
2711 329 Pls
2712 329 Pls
2712 329 Pls
2713 329 Pls
2714 329 Pls
2714 329 Pls
2715 329 Pls
2716 328 Pls
2716 328 Pls
2717 328 Pls
2718 328 Pls
2718 328 Pls
2719 328 Pls
2720 328 Pls
2720 328 Pls
2721 328 Pls
2722 328 Pls
2722 328 Pls
2723 328 Pls
2724 328 Pls
2724 328 Pls
2725 328 Pls
2726 328 Pls
2726 328 Pls
2727 328 Pls
2728 328 Pls
2728 327 Pls
2729 327 Pls
2730 327 Pls
2730 327 Pls
2731 327 Pls
2732 327 Pls
2732 327 Pls
2733 327 Pls
2734 327 Pls
2734 327 Pls
2735 327 Pls
2735 327 Pls
2736 327 Pls
2737 327 Pls
2737 327 Pls
2738 327 Pls
2739 327 Pls
2739 326 Pls
2740 326 Pls
2741 326 Pls
2741 326 Pls
2742 326 Pls
2742 326 Pls
2743 326 Pls
2744 326 Pls
2744 326 Pls
2745 326 Pls
2746 326 Pls
2746 326 Pls
2747 326 Pls
2747 326 Pls
2748 326 Pls
2749 326 Pls
2749 326 Pls
2750 326 Pls
2750 326 Pls
2751 325 Pls
2752 325 Pls
2752 325 Pls
2753 325 Pls
2753 325 Pls
2754 325 Pls
2755 325 Pls
2755 325 Pls
2756 325 Pls
2756 325 Pls
2757 325 Pls
2758 325 Pls
2758 325 Pls
2759 325 Pls
2759 325 Pls
2760 325 Pls
2761 325 Pls
2761 325 Pls
2762 325 Pls
2762 325 Pls
2763 325 Pls
2764 325 Pls
2764 325 Pls
2765 325 Pls
2765 325 Pls
2766 325 Pls
2767 325 Pls
2767 324 Pls
2768 324 Pls
2768 324 Pls
2769 324 Pls
2769 324 Pls
2770 324 Pls
2771 324 Pls
2771 324 Pls
2772 324 Pls
2772 324 Pls
2773 324 Pls
2773 324 Pls
2774 324 Pls
2775 324 Pls
2775 324 Pls
2776 324 Pls
2776 324 Pls
2777 324 Pls
2777 324 Pls
2778 324 Pls
2779 324 Pls
2779 324 Pls
2780 323 Pls
2780 323 Pls
2781 323 Pls
2781 323 Pls
2782 323 Pls
2782 323 Pls
2783 323 Pls
2784 323 Pls
2784 323 Pls
2785 323 Pls
2785 323 Pls
2786 323 Pls
2786 323 Pls
2787 323 Pls
2787 323 Pls
2788 323 Pls
2789 323 Pls
2789 322 Pls
2790 322 Pls
2790 322 Pls
2791 322 Pls
2791 322 Pls
2792 322 Pls
2792 322 Pls
2793 322 Pls
2793 322 Pls
2794 322 Pls
2795 322 Pls
2795 322 Pls
2796 322 Pls
2796 321 Pls
2797 321 Pls
2797 321 Pls
2798 321 Pls
2798 321 Pls
2799 321 Pls
2799 321 Pls
2800 321 Pls
2800 321 Pls
2801 321 Pls
2801 321 Pls
2802 321 Pls
2803 321 Pls
2803 320 Pls
2804 320 Pls
2804 320 Pls
2805 320 Pls
2805 320 Pls
2806 320 Pls
2806 320 Pls
2807 320 Pls
2807 320 Pls
2808 320 Pls
2808 320 Pls
2809 320 Pls
2809 320 Pls
2810 320 Pls
2810 320 Pls
2811 319 Pls
2811 319 Pls
2812 319 Pls
2812 319 Pls
2813 319 Pls
2813 319 Pls
2814 319 Pls
2814 319 Pls
2815 319 Pls
2815 319 Pls
2816 319 Pls
2816 319 Pls
2817 319 Pls
2817 319 Pls
2818 319 Pls
2818 319 Pls
2819 319 Pls
2819 318 Pls
2820 318 Pls
2820 318 Pls
2821 318 Pls
2821 318 Pls
2822 318 Pls
2822 318 Pls
2823 318 Pls
2823 318 Pls
2824 318 Pls
2824 318 Pls
2825 318 Pls
2825 318 Pls
2826 318 Pls
2826 318 Pls
2827 318 Pls
2827 318 Pls
2828 318 Pls
2828 318 Pls
2829 318 Pls
2829 318 Pls
2830 317 Pls
2830 317 Pls
2831 317 Pls
2831 317 Pls
2832 317 Pls
2832 317 Pls
2833 317 Pls
2833 317 Pls
2834 317 Pls
2834 317 Pls
2835 317 Pls
2835 317 Pls
2836 317 Pls
2836 317 Pls
2837 317 Pls
2837 317 Pls
2837 317 Pls
2838 317 Pls
2838 317 Pls
2839 317 Pls
2839 317 Pls
2840 317 Pls
2840 316 Pls
2841 316 Pls
2841 316 Pls
2842 316 Pls
2842 316 Pls
2843 316 Pls
2843 316 Pls
2844 316 Pls
2844 316 Pls
2845 316 Pls
2845 316 Pls
2845 316 Pls
2846 316 Pls
2846 316 Pls
2847 316 Pls
2847 316 Pls
2848 316 Pls
2848 316 Pls
2849 316 Pls
2849 316 Pls
2850 316 Pls
2850 316 Pls
2851 316 Pls
2851 316 Pls
2851 316 Pls
2852 315 Pls
2852 315 Pls
2853 315 Pls
2853 315 Pls
2854 315 Pls
2854 315 Pls
2855 315 Pls
2855 315 Pls
2856 315 Pls
2856 315 Pls
2856 315 Pls
2857 315 Pls
2857 315 Pls
2858 315 Pls
2858 315 Pls
2859 315 Pls
2859 315 Pls
2860 315 Pls
2860 315 Pls
2860 315 Pls
2861 315 Pls
2861 315 Pls
2862 315 Pls
2862 315 Pls
2863 315 Pls
2863 314 Pls
2864 314 Pls
2864 314 Pls
2864 314 Pls
2865 314 Pls
2865 314 Pls
2866 314 Pls
2866 314 Pls
2867 314 Pls
2867 314 Pls
2868 314 Pls
2868 314 Pls
2868 314 Pls
2869 314 Pls
2869 314 Pls
2870 314 Pls
2870 314 Pls
2871 314 Pls
2871 314 Pls
2871 314 Pls
2872 314 Pls
2872 314 Pls
2873 314 Pls
2873 314 Pls
2874 314 Pls
2874 314 Pls
2874 314 Pls
2875 314 Pls
2875 314 Pls
2876 313 Pls
2876 313 Pls
2877 313 Pls
2877 313 Pls
2877 313 Pls
2878 313 Pls
2878 313 Pls
2879 313 Pls
2879 313 Pls
2880 313 Pls
2880 313 Pls
2880 313 Pls
2881 313 Pls
2881 313 Pls
2882 313 Pls
2882 313 Pls
2882 313 Pls
2883 313 Pls
2883 313 Pls
2884 313 Pls
2884 313 Pls
2885 313 Pls
2885 313 Pls
2885 313 Pls
2886 313 Pls
2886 313 Pls
2887 313 Pls
2887 313 Pls
2887 313 Pls
2888 313 Pls
2888 313 Pls
2889 313 Pls
2889 313 Pls
2889 313 Pls
2890 313 Pls
2890 313 Pls
2891 313 Pls
2891 313 Pls
2892 313 Pls
2892 313 Pls
2892 313 Pls
2893 312 Pls
2893 312 Pls
2894 312 Pls
2894 312 Pls
2894 312 Pls
2895 312 Pls
2895 312 Pls
2896 312 Pls
2896 312 Pls
2896 312 Pls
2897 312 Pls
2897 312 Pls
2898 312 Pls
2898 312 Pls
2898 312 Pls
2899 312 Pls
2899 312 Pls
2900 312 Pls
2900 312 Pls
2900 312 Pls
2901 312 Pls
2901 312 Pls
2902 312 Pls
2902 312 Pls
2902 312 Pls
2903 312 Pls
2903 312 Pls
2904 312 Pls
2904 312 Pls
2904 312 Pls
2905 312 Pls
2905 312 Pls
2905 312 Pls
2906 312 Pls
2906 312 Pls
2907 312 Pls
2907 312 Pls
2907 312 Pls
2908 312 Pls
2908 312 Pls
2909 312 Pls
2909 312 Pls
2909 312 Pls
2910 311 Pls
2910 311 Pls
2911 311 Pls
2911 311 Pls
2911 311 Pls
2912 311 Pls
2912 311 Pls
2912 311 Pls
2913 311 Pls
2913 311 Pls
2914 311 Pls
2914 311 Pls
2914 311 Pls
2915 311 Pls
2915 311 Pls
2916 311 Pls
2916 311 Pls
2916 311 Pls
2917 311 Pls
2917 311 Pls
2918 311 Pls
2918 311 Pls
2919 311 Pls
2919 311 Pls
2919 311 Pls
2920 311 Pls
2920 311 Pls
2920 311 Pls
2921 311 Pls
2921 311 Pls
2922 311 Pls
2922 311 Pls
2922 311 Pls
2923 311 Pls
2923 311 Pls
2923 311 Pls
2924 311 Pls
2924 311 Pls
2925 311 Pls
2925 311 Pls
2925 311 Pls
2926 311 Pls
2926 311 Pls
2927 311 Pls
2927 311 Pls
2927 311 Pls
2928 311 Pls
2928 311 Pls
2929 310 Pls
2929 310 Pls
2929 310 Pls
2930 310 Pls
2930 310 Pls
2930 310 Pls
2931 310 Pls
2931 310 Pls
2931 310 Pls
2932 310 Pls
2932 310 Pls
2933 310 Pls
2933 310 Pls
2933 310 Pls
2934 310 Pls
2934 310 Pls
2934 310 Pls
2935 310 Pls
2935 310 Pls
2935 310 Pls
2936 310 Pls
2936 310 Pls
2937 310 Pls
2937 310 Pls
2937 310 Pls
2938 310 Pls
2938 310 Pls
2938 310 Pls
2939 310 Pls
2939 310 Pls
2939 310 Pls
2940 310 Pls
2940 310 Pls
2940 310 Pls
2941 310 Pls
2941 310 Pls
2941 310 Pls
2942 310 Pls
2942 310 Pls
2943 310 Pls
2943 310 Pls
2943 310 Pls
2944 310 Pls
2944 310 Pls
2944 310 Pls
2945 310 Pls
2945 310 Pls
2945 310 Pls
2946 310 Pls
2946 310 Pls
2946 310 Pls
2947 310 Pls
2947 310 Pls
2947 310 Pls
2948 310 Pls
2948 310 Pls
2948 310 Pls
2949 310 Pls
2949 310 Pls
2949 310 Pls
2950 310 Pls
2950 310 Pls
2951 309 Pls
2951 309 Pls
2951 309 Pls
2952 309 Pls
2952 309 Pls
2952 309 Pls
2953 309 Pls
2953 309 Pls
2953 309 Pls
2954 309 Pls
2954 309 Pls
2954 309 Pls
2955 309 Pls
2955 309 Pls
2955 309 Pls
2956 309 Pls
2956 309 Pls
2956 309 Pls
2957 309 Pls
2957 309 Pls
2957 309 Pls
2958 309 Pls
2958 309 Pls
2958 309 Pls
2959 309 Pls
2959 309 Pls
2959 309 Pls
2960 309 Pls
2960 309 Pls
2960 309 Pls
2961 309 Pls
2961 309 Pls
2961 309 Pls
2962 309 Pls
2962 309 Pls
2962 309 Pls
2963 309 Pls
2963 309 Pls
2963 309 Pls
2964 309 Pls
2964 309 Pls
2964 309 Pls
2965 309 Pls
2965 309 Pls
2965 309 Pls
2966 309 Pls
2966 309 Pls
2966 309 Pls
2967 309 Pls
2967 309 Pls
2968 309 Pls
2968 309 Pls
2968 309 Pls
2969 309 Pls
2969 309 Pls
2969 309 Pls
2970 309 Pls
2970 308 Pls
2971 308 Pls
2971 308 Pls
2971 308 Pls
2972 308 Pls
2972 308 Pls
2972 308 Pls
2972 308 Pls
2973 308 Pls
2973 308 Pls
2973 308 Pls
2974 308 Pls
2974 308 Pls
2974 308 Pls
2975 308 Pls
2975 308 Pls
2975 308 Pls
2976 308 Pls
2976 308 Pls
2977 308 Pls
2977 308 Pls
2977 308 Pls
2978 308 Pls
2978 308 Pls
2978 308 Pls
2979 308 Pls
2979 308 Pls
2979 308 Pls
2979 308 Pls
2980 308 Pls
2980 308 Pls
2980 308 Pls
2981 308 Pls
2981 308 Pls
2981 308 Pls
2982 308 Pls
2982 308 Pls
2983 308 Pls
2983 308 Pls
2983 308 Pls
2984 308 Pls
2984 308 Pls
2984 308 Pls
2985 308 Pls
2985 308 Pls
2985 308 Pls
2985 308 Pls
2986 308 Pls
2986 308 Pls
2986 308 Pls
2987 308 Pls
2987 308 Pls
2987 308 Pls
2988 308 Pls
2988 308 Pls
2988 308 Pls
2989 308 Pls
2989 308 Pls
2989 308 Pls
2989 308 Pls
2990 308 Pls
2990 308 Pls
2990 308 Pls
2991 308 Pls
2991 307 Pls
2991 307 Pls
2992 307 Pls
2992 307 Pls
2992 307 Pls
2993 307 Pls
2993 307 Pls
2993 307 Pls
2993 307 Pls
2994 307 Pls
2994 307 Pls
2994 307 Pls
2995 307 Pls
2995 307 Pls
2996 307 Pls
2996 307 Pls
2996 307 Pls
2996 307 Pls
2997 307 Pls
2997 307 Pls
2998 307 Pls
2998 307 Pls
2998 307 Pls
2999 307 Pls
2999 307 Pls
2999 307 Pls
2999 307 Pls
3000 307 Pls
3000 307 Pls
3000 307 Pls
3001 307 Pls
3001 307 Pls
3001 307 Pls
3002 307 Pls
3002 307 Pls
3002 307 Pls
3002 307 Pls
3003 307 Pls
3003 307 Pls
3003 307 Pls
3004 307 Pls
3004 307 Pls
3004 307 Pls
3005 307 Pls
3005 307 Pls
3005 307 Pls
3006 307 Pls
3006 307 Pls
3006 307 Pls
3007 307 Pls
3007 307 Pls
3007 307 Pls
3007 307 Pls
3008 307 Pls
3008 307 Pls
3008 307 Pls
3009 307 Pls
3009 307 Pls
3009 307 Pls
3010 307 Pls
3010 307 Pls
3010 307 Pls
3011 307 Pls
3011 307 Pls
3011 307 Pls
3012 307 Pls
3012 307 Pls
3012 306 Pls
3013 306 Pls
3013 306 Pls
3013 306 Pls
3013 306 Pls
3014 306 Pls
3014 306 Pls
3014 306 Pls
3015 306 Pls
3015 306 Pls
3015 306 Pls
3015 306 Pls
3016 306 Pls
3016 306 Pls
3016 306 Pls
3017 306 Pls
3017 306 Pls
3017 306 Pls
3017 306 Pls
3018 306 Pls
3018 306 Pls
3018 306 Pls
3019 306 Pls
3019 306 Pls
3019 306 Pls
3019 306 Pls
3020 306 Pls
3020 306 Pls
3020 306 Pls
3021 306 Pls
3021 306 Pls
3021 306 Pls
3022 306 Pls
3022 306 Pls
3023 306 Pls
3023 306 Pls
3023 306 Pls
3023 306 Pls
3024 306 Pls
3024 306 Pls
3024 306 Pls
3025 306 Pls
3025 306 Pls
3025 306 Pls
3026 306 Pls
3026 306 Pls
3026 306 Pls
3026 306 Pls
3027 306 Pls
3027 306 Pls
3028 306 Pls
3028 306 Pls
3028 306 Pls
3028 306 Pls
3029 306 Pls
3029 306 Pls
3029 306 Pls
3030 306 Pls
3030 306 Pls
3030 306 Pls
3031 306 Pls
3031 306 Pls
3031 306 Pls
3031 306 Pls
3032 306 Pls
3032 306 Pls
3032 306 Pls
3033 306 Pls
3033 306 Pls
3033 306 Pls
3034 306 Pls
3034 306 Pls
3034 305 Pls
3035 305 Pls
3035 305 Pls
3035 305 Pls
3035 305 Pls
3036 305 Pls
3036 305 Pls
3036 305 Pls
3036 305 Pls
3037 305 Pls
3037 305 Pls
3038 305 Pls
3038 305 Pls
3039 305 Pls
3039 305 Pls
3039 305 Pls
3040 305 Pls
3040 305 Pls
3040 305 Pls
3040 305 Pls
3041 305 Pls
3041 305 Pls
3041 305 Pls
3042 305 Pls
3042 305 Pls
3042 305 Pls
3043 305 Pls
3043 305 Pls
3043 305 Pls
3043 305 Pls
3044 305 Pls
3044 305 Pls
3044 305 Pls
3044 305 Pls
3045 305 Pls
3045 305 Pls
3045 305 Pls
3045 305 Pls
3046 305 Pls
3046 305 Pls
3047 305 Pls
3047 305 Pls
3047 305 Pls
3047 305 Pls
3048 305 Pls
3048 305 Pls
3048 305 Pls
3048 305 Pls
3049 305 Pls
3049 305 Pls
3049 305 Pls
3050 305 Pls
3050 305 Pls
3050 305 Pls
3050 305 Pls
3051 305 Pls
3051 305 Pls
3051 305 Pls
3051 305 Pls
3052 305 Pls
3052 305 Pls
3052 305 Pls
3052 305 Pls
3053 305 Pls
3053 305 Pls
3053 305 Pls
3053 305 Pls
3054 305 Pls
3054 305 Pls
3054 305 Pls
3054 305 Pls
3055 305 Pls
3055 305 Pls
3056 305 Pls
3056 305 Pls
3056 305 Pls
3056 305 Pls
3057 305 Pls
3057 305 Pls
3057 304 Pls
3057 304 Pls
3058 304 Pls
3058 304 Pls
3058 304 Pls
3059 304 Pls
3059 304 Pls
3059 304 Pls
3059 304 Pls
3060 304 Pls
3060 304 Pls
3060 304 Pls
3060 304 Pls
3061 304 Pls
3061 304 Pls
3061 304 Pls
3062 304 Pls
3062 304 Pls
3062 304 Pls
3062 304 Pls
3063 304 Pls
3063 304 Pls
3064 304 Pls
3064 304 Pls
3064 304 Pls
3065 304 Pls
3065 304 Pls
3065 304 Pls
3065 304 Pls
3066 304 Pls
3066 304 Pls
3066 304 Pls
3066 304 Pls
3067 304 Pls
3067 304 Pls
3068 304 Pls
3068 304 Pls
3068 304 Pls
3068 304 Pls
3069 304 Pls
3069 304 Pls
3069 304 Pls
3069 304 Pls
3070 304 Pls
3070 304 Pls
3070 304 Pls
3070 304 Pls
3071 304 Pls
3071 304 Pls
3071 304 Pls
3071 304 Pls
3072 304 Pls
3072 304 Pls
3072 304 Pls
3072 304 Pls
3073 304 Pls
3073 304 Pls
3073 304 Pls
3074 304 Pls
3074 304 Pls
3074 304 Pls
3074 304 Pls
3075 304 Pls
3075 304 Pls
3075 304 Pls
3075 304 Pls
3075 304 Pls
3076 304 Pls
3076 304 Pls
3076 304 Pls
3076 304 Pls
3077 304 Pls
3077 304 Pls
3077 304 Pls
3078 304 Pls
3078 304 Pls
3078 304 Pls
3078 304 Pls
3079 303 Pls
3079 303 Pls
3079 303 Pls
3079 303 Pls
3080 303 Pls
3080 303 Pls
3080 303 Pls
3080 303 Pls
3080 303 Pls
3081 303 Pls
3081 303 Pls
3081 303 Pls
3082 303 Pls
3083 303 Pls
3083 303 Pls
3084 303 Pls
3084 303 Pls
3084 303 Pls
3084 303 Pls
3085 303 Pls
3085 303 Pls
3086 303 Pls
3086 303 Pls
3086 303 Pls
3086 303 Pls
3087 303 Pls
3087 303 Pls
3087 303 Pls
3087 303 Pls
3088 303 Pls
3088 303 Pls
3088 303 Pls
3088 303 Pls
3088 303 Pls
3089 303 Pls
3089 303 Pls
3089 303 Pls
3089 303 Pls
3090 303 Pls
3090 303 Pls
3090 303 Pls
3090 303 Pls
3091 303 Pls
3091 303 Pls
3092 303 Pls
3092 303 Pls
3092 303 Pls
3092 303 Pls
3093 303 Pls
3093 303 Pls
3094 303 Pls
3094 303 Pls
3094 303 Pls
3094 303 Pls
3095 303 Pls
3095 303 Pls
3095 303 Pls
3096 303 Pls
3096 303 Pls
3096 303 Pls
3096 303 Pls
3096 303 Pls
3097 303 Pls
3097 303 Pls
3097 303 Pls
3098 303 Pls
3098 303 Pls
3098 303 Pls
3098 303 Pls
3098 303 Pls
3099 303 Pls
3099 303 Pls
3100 303 Pls
3100 303 Pls
3100 303 Pls
3100 303 Pls
3101 303 Pls
3101 303 Pls
3102 303 Pls
3102 303 Pls
3102 303 Pls
3102 303 Pls
3103 303 Pls
3103 303 Pls
3103 303 Pls
3104 303 Pls
3104 303 Pls
3104 303 Pls
3104 303 Pls
3105 302 Pls
3105 302 Pls
3105 302 Pls
3105 302 Pls
3106 302 Pls
3106 302 Pls
3106 302 Pls
3106 302 Pls
3106 302 Pls
3107 302 Pls
3107 302 Pls
3107 302 Pls
3108 302 Pls
3108 302 Pls
3108 302 Pls
3109 302 Pls
3109 302 Pls
3109 302 Pls
3110 302 Pls
3110 302 Pls
3110 302 Pls
3110 302 Pls
3111 302 Pls
3111 302 Pls
3111 302 Pls
3111 302 Pls
3112 302 Pls
3112 302 Pls
3112 302 Pls
3113 302 Pls
3113 302 Pls
3113 302 Pls
3113 302 Pls
3113 302 Pls
3114 302 Pls
3114 302 Pls
3114 302 Pls
3114 302 Pls
3115 302 Pls
3115 302 Pls
3116 302 Pls
3116 302 Pls
3116 302 Pls
3116 302 Pls
3117 302 Pls
3117 302 Pls
3117 302 Pls
3117 302 Pls
3118 302 Pls
3118 302 Pls
3118 302 Pls
3118 302 Pls
3118 302 Pls
3119 302 Pls
3119 302 Pls
3120 302 Pls
3120 302 Pls
3120 302 Pls
3121 302 Pls
3121 302 Pls
3121 302 Pls
3121 302 Pls
3122 302 Pls
3122 302 Pls
3122 302 Pls
3122 302 Pls
3122 302 Pls
3123 302 Pls
3123 302 Pls
3123 302 Pls
3123 302 Pls
3124 302 Pls
3124 302 Pls
3124 302 Pls
3124 302 Pls
3124 302 Pls
3125 302 Pls
3125 302 Pls
3125 302 Pls
3125 302 Pls
3126 302 Pls
3126 302 Pls
3126 302 Pls
3126 302 Pls
3127 302 Pls
3127 302 Pls
3127 302 Pls
3128 302 Pls
3128 302 Pls
3128 302 Pls
3129 302 Pls
3129 302 Pls
3129 302 Pls
3130 302 Pls
3130 302 Pls
3130 302 Pls
3130 301 Pls
3131 301 Pls
3131 301 Pls
3131 301 Pls
3131 301 Pls
3131 301 Pls
3132 301 Pls
3132 301 Pls
3132 301 Pls
3132 301 Pls
3133 301 Pls
3133 301 Pls
3133 301 Pls
3133 301 Pls
3133 301 Pls
3134 301 Pls
3134 301 Pls
3134 301 Pls
3134 301 Pls
3134 301 Pls
3135 301 Pls
3135 301 Pls
3135 301 Pls
3136 301 Pls
3136 301 Pls
3136 301 Pls
3137 301 Pls
3137 301 Pls
3137 301 Pls
3138 301 Pls
3138 301 Pls
3138 301 Pls
3139 301 Pls
3139 301 Pls
3139 301 Pls
3139 301 Pls
3140 301 Pls
3140 301 Pls
3140 301 Pls
3141 301 Pls
3141 301 Pls
3141 301 Pls
3142 301 Pls
3142 301 Pls
3142 301 Pls
3143 301 Pls
3143 301 Pls
3143 301 Pls
3143 301 Pls
3144 301 Pls
3144 301 Pls
3144 301 Pls
3145 301 Pls
3146 301 Pls
3146 301 Pls
3147 301 Pls
3147 301 Pls
3147 301 Pls
3147 301 Pls
3148 301 Pls
3148 301 Pls
3148 301 Pls
3149 301 Pls
3149 301 Pls
3149 301 Pls
3149 301 Pls
3150 301 Pls
3150 301 Pls
3150 301 Pls
3150 301 Pls
3151 301 Pls
3151 301 Pls
3151 301 Pls
3151 301 Pls
3152 301 Pls
3152 301 Pls
3152 301 Pls
3153 301 Pls
3153 301 Pls
3153 301 Pls
3154 301 Pls
3154 301 Pls
3154 301 Pls
3155 301 Pls
3155 301 Pls
3155 301 Pls
3155 301 Pls
3156 301 Pls
3156 301 Pls
3157 301 Pls
3157 301 Pls
3157 301 Pls
3157 301 Pls
3158 301 Pls
3158 301 Pls
3158 301 Pls
3159 301 Pls
3159 301 Pls
3159 301 Pls
3159 301 Pls
3159 301 Pls
3160 301 Pls
3160 301 Pls
3160 301 Pls
3161 300 Pls
3161 300 Pls
3161 300 Pls
3162 300 Pls
3162 300 Pls
3162 300 Pls
3162 300 Pls
3163 300 Pls
3163 300 Pls
3163 300 Pls
3164 300 Pls
3164 300 Pls
3164 300 Pls
3164 300 Pls
3165 300 Pls
3165 300 Pls
3165 300 Pls
3165 300 Pls
3165 300 Pls
3166 300 Pls
3166 300 Pls
3166 300 Pls
3166 300 Pls
3167 300 Pls
3167 300 Pls
3168 300 Pls
3168 300 Pls
3168 300 Pls
3168 300 Pls
3169 300 Pls
3169 300 Pls
3169 300 Pls
3169 300 Pls
3169 300 Pls
3170 300 Pls
3170 300 Pls
3170 300 Pls
3170 300 Pls
3171 300 Pls
3171 300 Pls
3171 300 Pls
3171 300 Pls
3172 300 Pls
3172 300 Pls
3173 300 Pls
3173 300 Pls
3173 300 Pls
3173 300 Pls
3174 300 Pls
3174 300 Pls
3174 300 Pls
3175 300 Pls
3175 300 Pls
3175 300 Pls
3176 300 Pls
3176 300 Pls
3176 300 Pls
3177 300 Pls
3177 300 Pls
3177 300 Pls
3178 300 Pls
3178 300 Pls
3180 300 Pls
3180 300 Pls
3180 300 Pls
3180 300 Pls
3180 300 Pls
3180 300 Pls
3181 300 Pls
3181 300 Pls
3181 300 Pls
3182 300 Pls
3182 300 Pls
3182 300 Pls
3182 300 Pls
3182 300 Pls
3183 300 Pls
3183 300 Pls
3183 300 Pls
3183 300 Pls
3184 300 Pls
3184 300 Pls
3184 300 Pls
3184 300 Pls
3185 300 Pls
3185 300 Pls
3186 300 Pls
3186 300 Pls
3186 300 Pls
3186 300 Pls
3187 300 Pls
3187 300 Pls
3187 300 Pls
3187 300 Pls
3187 300 Pls
3188 300 Pls
3188 300 Pls
3188 300 Pls
3188 300 Pls
3188 300 Pls
3189 300 Pls
3189 300 Pls
3189 300 Pls
3190 300 Pls
3190 300 Pls
3190 300 Pls
3191 300 Pls
3191 300 Pls
3191 300 Pls
3191 300 Pls
3192 300 Pls
3192 300 Pls
3192 300 Pls
3192 300 Pls
3193 300 Pls
3193 299 Pls
3193 299 Pls
3194 299 Pls
3194 299 Pls
3194 299 Pls
3194 299 Pls
3194 299 Pls
3195 299 Pls
3195 299 Pls
3195 299 Pls
3196 299 Pls
3196 299 Pls
3196 299 Pls
3196 299 Pls
3196 299 Pls
3197 299 Pls
3197 299 Pls
3197 299 Pls
3197 299 Pls
3198 299 Pls
3198 299 Pls
3198 299 Pls
3198 299 Pls
3199 299 Pls
3199 299 Pls
3199 299 Pls
3200 299 Pls
3200 299 Pls
3200 299 Pls
3201 299 Pls
3201 299 Pls
3201 299 Pls
3201 299 Pls
3201 299 Pls
3202 299 Pls
3203 299 Pls
3203 299 Pls
3203 299 Pls
3203 299 Pls
3203 299 Pls
3204 299 Pls
3204 299 Pls
3204 299 Pls
3204 299 Pls
3205 299 Pls
3205 299 Pls
3205 299 Pls
3206 299 Pls
3206 299 Pls
3206 299 Pls
3206 299 Pls
3207 299 Pls
3207 299 Pls
3207 299 Pls
3207 299 Pls
3208 299 Pls
3208 299 Pls
3208 299 Pls
3208 299 Pls
3209 299 Pls
3209 299 Pls
3209 299 Pls
3209 299 Pls
3210 299 Pls
3210 299 Pls
3210 299 Pls
3211 299 Pls
3211 299 Pls
3211 299 Pls
3212 299 Pls
3212 299 Pls
3212 299 Pls
3212 299 Pls
3213 299 Pls
3213 299 Pls
3213 299 Pls
3213 299 Pls
3213 299 Pls
3214 299 Pls
3214 299 Pls
3214 299 Pls
3214 299 Pls
3214 299 Pls
3214 299 Pls
3215 299 Pls
3215 299 Pls
3215 299 Pls
3216 299 Pls
3216 299 Pls
3216 299 Pls
3216 299 Pls
3216 299 Pls
3217 299 Pls
3217 299 Pls
3217 299 Pls
3217 299 Pls
3218 299 Pls
3218 299 Pls
3218 299 Pls
3218 299 Pls
3218 299 Pls
3218 299 Pls
3219 299 Pls
3219 299 Pls
3219 299 Pls
3220 299 Pls
3220 299 Pls
3220 299 Pls
3220 299 Pls
3221 299 Pls
3221 299 Pls
3221 299 Pls
3222 299 Pls
3222 299 Pls
3222 299 Pls
3222 299 Pls
3222 299 Pls
3223 299 Pls
3223 299 Pls
3223 299 Pls
3224 299 Pls
3224 299 Pls
3224 299 Pls
3224 299 Pls
3224 298 Pls
3225 298 Pls
3225 298 Pls
3225 298 Pls
3225 298 Pls
3225 298 Pls
3226 298 Pls
3226 298 Pls
3226 298 Pls
3226 298 Pls
3226 298 Pls
3227 298 Pls
3227 298 Pls
3227 298 Pls
3228 298 Pls
3228 298 Pls
3228 298 Pls
3229 298 Pls
3230 298 Pls
3230 298 Pls
3230 298 Pls
3230 298 Pls
3231 298 Pls
3231 298 Pls
3231 298 Pls
3231 298 Pls
3232 298 Pls
3232 298 Pls
3232 298 Pls
3232 298 Pls
3232 298 Pls
3233 298 Pls
3233 298 Pls
3233 298 Pls
3234 298 Pls
3234 298 Pls
3234 298 Pls
3234 298 Pls
3235 298 Pls
3235 298 Pls
3235 298 Pls
3235 298 Pls
3235 298 Pls
3236 298 Pls
3236 298 Pls
3237 298 Pls
3237 298 Pls
3237 298 Pls
3237 298 Pls
3237 298 Pls
3237 298 Pls
3237 298 Pls
3238 298 Pls
3238 298 Pls
3238 298 Pls
3238 298 Pls
3238 298 Pls
3239 298 Pls
3239 298 Pls
3239 298 Pls
3240 298 Pls
3240 298 Pls
3241 298 Pls
3241 298 Pls
3241 298 Pls
3242 298 Pls
3242 298 Pls
3242 298 Pls
3242 298 Pls
3243 298 Pls
3243 298 Pls
3243 298 Pls
3243 298 Pls
3244 298 Pls
3244 298 Pls
3245 298 Pls
3245 298 Pls
3245 298 Pls
3246 298 Pls
3247 298 Pls
3247 298 Pls
3247 298 Pls
3248 298 Pls
3248 298 Pls
3248 298 Pls
3248 298 Pls
3248 298 Pls
3249 298 Pls
3249 298 Pls
3249 298 Pls
3249 298 Pls
3250 298 Pls
3250 298 Pls
3250 298 Pls
3250 298 Pls
3251 298 Pls
3251 298 Pls
3251 298 Pls
3251 298 Pls
3251 298 Pls
3251 298 Pls
3252 298 Pls
3252 298 Pls
3252 298 Pls
3252 298 Pls
3252 298 Pls
3252 298 Pls
3252 298 Pls
3253 298 Pls
3253 298 Pls
3254 298 Pls
3254 298 Pls
3254 298 Pls
3254 298 Pls
3255 298 Pls
3255 298 Pls
3255 298 Pls
3256 298 Pls
3256 298 Pls
3256 298 Pls
3256 298 Pls
3256 298 Pls
3257 298 Pls
3257 298 Pls
3257 298 Pls
3257 298 Pls
3258 298 Pls
3258 298 Pls
3258 298 Pls
3258 298 Pls
3258 298 Pls
3258 298 Pls
3259 298 Pls
3259 298 Pls
3260 297 Pls
3260 297 Pls
3261 297 Pls
3261 297 Pls
3261 297 Pls
3262 297 Pls
3262 297 Pls
3262 297 Pls
3262 297 Pls
3262 297 Pls
3262 297 Pls
3263 297 Pls
3263 297 Pls
3263 297 Pls
3264 297 Pls
3265 297 Pls
3265 297 Pls
3265 297 Pls
3265 297 Pls
3265 297 Pls
3266 297 Pls
3267 297 Pls
3267 297 Pls
3267 297 Pls
3267 297 Pls
3268 297 Pls
3268 297 Pls
3268 297 Pls
3268 297 Pls
3269 297 Pls
3269 297 Pls
3269 297 Pls
3269 297 Pls
3269 297 Pls
3269 297 Pls
3270 297 Pls
3270 297 Pls
3270 297 Pls
3270 297 Pls
3270 297 Pls
3271 297 Pls
3271 297 Pls
3271 297 Pls
3271 297 Pls
3272 297 Pls
3272 297 Pls
3272 297 Pls
3273 297 Pls
3273 297 Pls
3273 297 Pls
3273 297 Pls
3274 297 Pls
3275 297 Pls
3275 297 Pls
3275 297 Pls
3275 297 Pls
3276 297 Pls
3276 297 Pls
3276 297 Pls
3276 297 Pls
3277 297 Pls
3277 297 Pls
3278 297 Pls
3278 297 Pls
3278 297 Pls
3278 297 Pls
3279 297 Pls
3279 297 Pls
3279 297 Pls
3279 297 Pls
3279 297 Pls
3279 297 Pls
3280 297 Pls
3280 297 Pls
3280 297 Pls
3281 297 Pls
3281 297 Pls
3281 297 Pls
3282 297 Pls
3282 297 Pls
3282 297 Pls
3283 297 Pls
3283 297 Pls
3283 297 Pls
3283 297 Pls
3284 297 Pls
3285 297 Pls
3286 297 Pls
3286 297 Pls
3287 297 Pls
3287 297 Pls
3287 297 Pls
3288 297 Pls
3288 297 Pls
3288 297 Pls
3288 297 Pls
3289 297 Pls
3289 297 Pls
3289 297 Pls
3289 297 Pls
3290 297 Pls
3290 297 Pls
3290 297 Pls
3290 297 Pls
3290 297 Pls
3291 297 Pls
3291 297 Pls
3292 297 Pls
3292 297 Pls
3292 297 Pls
3292 297 Pls
3292 297 Pls
3292 297 Pls
3293 297 Pls
3293 297 Pls
3293 297 Pls
3293 297 Pls
3294 297 Pls
3295 297 Pls
3296 297 Pls
3296 297 Pls
3296 297 Pls
3297 297 Pls
3297 297 Pls
3297 297 Pls
3297 297 Pls
3298 297 Pls
3298 297 Pls
3298 297 Pls
3299 297 Pls
3299 297 Pls
3300 297 Pls
3300 297 Pls
3300 297 Pls
3300 297 Pls
3300 297 Pls
3301 297 Pls
3301 297 Pls
3301 297 Pls
3301 296 Pls
3301 296 Pls
3301 296 Pls
3302 296 Pls
3302 296 Pls
3302 296 Pls
3302 296 Pls
3303 296 Pls
3303 296 Pls
3304 296 Pls
3304 296 Pls
3304 296 Pls
3304 296 Pls
3305 296 Pls
3305 296 Pls
3306 296 Pls
3306 296 Pls
3306 296 Pls
3306 296 Pls
3306 296 Pls
3307 296 Pls
3307 296 Pls
3308 296 Pls
3308 296 Pls
3308 296 Pls
3308 296 Pls
3309 296 Pls
3309 296 Pls
3310 296 Pls
3310 296 Pls
3310 296 Pls
3311 296 Pls
3311 296 Pls
3311 296 Pls
3311 296 Pls
3311 296 Pls
3311 296 Pls
3312 296 Pls
3312 296 Pls
3312 296 Pls
3312 296 Pls
3312 296 Pls
3312 296 Pls
3312 296 Pls
3313 296 Pls
3313 296 Pls
3314 296 Pls
3314 296 Pls
3314 296 Pls
3314 296 Pls
3314 296 Pls
3314 296 Pls
3314 296 Pls
3315 296 Pls
3315 296 Pls
3315 296 Pls
3315 296 Pls
3315 296 Pls
3316 296 Pls
3316 296 Pls
3316 296 Pls
3317 296 Pls
3317 296 Pls
3317 296 Pls
3317 296 Pls
3318 296 Pls
3318 296 Pls
3318 296 Pls
3318 296 Pls
3318 296 Pls
3319 296 Pls
3319 296 Pls
3319 296 Pls
3320 296 Pls
3320 296 Pls
3320 296 Pls
3321 296 Pls
3321 296 Pls
3321 296 Pls
3321 296 Pls
3322 296 Pls
3322 296 Pls
3322 296 Pls
3322 296 Pls
3322 296 Pls
3323 296 Pls
3323 296 Pls
3323 296 Pls
3323 296 Pls
3323 296 Pls
3324 296 Pls
3324 296 Pls
3324 296 Pls
3325 296 Pls
3325 296 Pls
3325 296 Pls
3325 296 Pls
3326 296 Pls
3327 296 Pls
3327 296 Pls
3327 296 Pls
3327 296 Pls
3327 296 Pls
3328 296 Pls
3328 296 Pls
3328 296 Pls
3328 296 Pls
3328 296 Pls
3328 296 Pls
3329 296 Pls
3330 296 Pls
3330 296 Pls
3330 296 Pls
3330 296 Pls
3330 296 Pls
3330 296 Pls
3330 296 Pls
3330 296 Pls
3331 296 Pls
3331 296 Pls
3331 296 Pls
3331 295 Pls
3331 295 Pls
3331 295 Pls
3331 295 Pls
3331 295 Pls
3331 295 Pls
3332 295 Pls
3332 295 Pls
3332 295 Pls
3332 295 Pls
3332 295 Pls
3333 295 Pls
3333 295 Pls
3333 295 Pls
3333 295 Pls
3333 295 Pls
3334 295 Pls
3334 295 Pls
3334 295 Pls
3335 295 Pls
3335 295 Pls
3336 295 Pls
3336 295 Pls
3336 295 Pls
3336 295 Pls
3336 295 Pls
3337 295 Pls
3337 295 Pls
3337 295 Pls
3337 295 Pls
3338 295 Pls
3339 295 Pls
3339 295 Pls
3339 295 Pls
3339 295 Pls
3339 295 Pls
3340 295 Pls
3340 295 Pls
3340 295 Pls
3341 295 Pls
3341 295 Pls
3341 295 Pls
3341 295 Pls
3342 295 Pls
3342 295 Pls
3342 295 Pls
3342 295 Pls
3343 295 Pls
3343 295 Pls
3343 295 Pls
3343 295 Pls
3343 295 Pls
3343 295 Pls
3344 295 Pls
3344 295 Pls
3345 295 Pls
3345 295 Pls
3345 295 Pls
3345 295 Pls
3346 295 Pls
3346 295 Pls
3346 295 Pls
3347 295 Pls
3347 295 Pls
3347 295 Pls
3347 295 Pls
3347 295 Pls
3348 295 Pls
3348 295 Pls
3348 295 Pls
3348 295 Pls
3348 295 Pls
3349 295 Pls
3349 295 Pls
3349 295 Pls
3350 295 Pls
3350 295 Pls
3350 295 Pls
3350 295 Pls
3350 295 Pls
3351 295 Pls
3351 295 Pls
3351 295 Pls
3351 295 Pls
3351 295 Pls
3352 295 Pls
3352 295 Pls
3352 295 Pls
3353 295 Pls
3353 295 Pls
3353 295 Pls
3353 295 Pls
3354 295 Pls
3354 295 Pls
3355 295 Pls
3355 295 Pls
3355 295 Pls
3356 295 Pls
3357 295 Pls
3357 295 Pls
3357 295 Pls
3357 295 Pls
3357 295 Pls
3358 295 Pls
3358 295 Pls
3358 295 Pls
3359 295 Pls
3359 295 Pls
3359 295 Pls
3359 295 Pls
3360 295 Pls
3360 295 Pls
3361 295 Pls
3361 295 Pls
3361 295 Pls
3361 295 Pls
3361 295 Pls
3361 295 Pls
3362 295 Pls
3362 295 Pls
3362 295 Pls
3363 295 Pls
3363 295 Pls
3364 295 Pls
3364 295 Pls
3364 295 Pls
3364 295 Pls
3364 294 Pls
3364 294 Pls
3364 294 Pls
3364 294 Pls
3365 294 Pls
3365 294 Pls
3365 294 Pls
3366 294 Pls
3366 294 Pls
3366 294 Pls
3366 294 Pls
3367 294 Pls
3368 294 Pls
3368 294 Pls
3368 294 Pls
3368 294 Pls
3368 294 Pls
3368 294 Pls
3369 294 Pls
3371 294 Pls
3371 294 Pls
3371 294 Pls
3371 294 Pls
3371 294 Pls
3371 294 Pls
3371 294 Pls
3372 294 Pls
3372 294 Pls
3372 294 Pls
3372 294 Pls
3372 294 Pls
3373 294 Pls
3373 294 Pls
3373 294 Pls
3374 294 Pls
3374 294 Pls
3374 294 Pls
3375 294 Pls
3375 294 Pls
3375 294 Pls
3375 294 Pls
3375 294 Pls
3375 294 Pls
3376 294 Pls
3376 294 Pls
3376 294 Pls
3377 294 Pls
3377 294 Pls
3378 294 Pls
3378 294 Pls
3378 294 Pls
3378 294 Pls
3378 294 Pls
3378 294 Pls
3378 294 Pls
3379 294 Pls
3379 294 Pls
3379 294 Pls
3379 294 Pls
3381 294 Pls
3381 294 Pls
3381 294 Pls
3381 294 Pls
3381 294 Pls
3381 294 Pls
3381 294 Pls
3382 294 Pls
3382 294 Pls
3382 294 Pls
3382 294 Pls
3383 294 Pls
3383 294 Pls
3383 294 Pls
3384 294 Pls
3384 294 Pls
3384 294 Pls
3385 294 Pls
3385 294 Pls
3386 294 Pls
3386 294 Pls
3386 294 Pls
3386 294 Pls
3386 294 Pls
3386 294 Pls
3387 294 Pls
3388 294 Pls
3388 294 Pls
3389 294 Pls
3390 294 Pls
3390 294 Pls
3390 294 Pls
3391 294 Pls
3391 294 Pls
3391 294 Pls
3392 294 Pls
3392 294 Pls
3392 294 Pls
3392 294 Pls
3393 294 Pls
3393 294 Pls
3393 294 Pls
3393 294 Pls
3394 294 Pls
3394 294 Pls
3394 294 Pls
3394 294 Pls
3395 294 Pls
3396 294 Pls
3396 294 Pls
3397 294 Pls
3397 294 Pls
3398 294 Pls
3399 294 Pls
3399 294 Pls
3399 294 Pls
3400 294 Pls
3400 294 Pls
3400 294 Pls
3400 294 Pls
3400 294 Pls
3400 294 Pls
3400 294 Pls
3401 294 Pls
3402 294 Pls
3402 294 Pls
3402 294 Pls
3402 294 Pls
3402 294 Pls
3403 294 Pls
3403 294 Pls
3403 294 Pls
3403 294 Pls
3403 294 Pls
3404 294 Pls
3404 294 Pls
3404 294 Pls
3404 294 Pls
3404 294 Pls
3404 294 Pls
3404 294 Pls
3405 294 Pls
3405 294 Pls
3405 294 Pls
3406 294 Pls
3406 294 Pls
3406 294 Pls
3407 294 Pls
3408 294 Pls
3409 294 Pls
3409 294 Pls
3409 294 Pls
3409 293 Pls
3410 293 Pls
3410 293 Pls
3410 293 Pls
3410 293 Pls
3410 293 Pls
3410 293 Pls
3411 293 Pls
3411 293 Pls
3411 293 Pls
3411 293 Pls
3411 293 Pls
3411 293 Pls
3411 293 Pls
3411 293 Pls
3412 293 Pls
3412 293 Pls
3412 293 Pls
3413 293 Pls
3413 293 Pls
3413 293 Pls
3413 293 Pls
3414 293 Pls
3414 293 Pls
3415 293 Pls
3415 293 Pls
3415 293 Pls
3415 293 Pls
3416 293 Pls
3416 293 Pls
3416 293 Pls
3417 293 Pls
3417 293 Pls
3418 293 Pls
3418 293 Pls
3418 293 Pls
3418 293 Pls
3418 293 Pls
3418 293 Pls
3419 293 Pls
3419 293 Pls
3420 293 Pls
3420 293 Pls
3420 293 Pls
3421 293 Pls
3421 293 Pls
3421 293 Pls
3421 293 Pls
3422 293 Pls
3422 293 Pls
3422 293 Pls
3422 293 Pls
3422 293 Pls
3423 293 Pls
3423 293 Pls
3423 293 Pls
3424 293 Pls
3424 293 Pls
3424 293 Pls
3425 293 Pls
3425 293 Pls
3425 293 Pls
3425 293 Pls
3425 293 Pls
3425 293 Pls
3426 293 Pls
3426 293 Pls
3427 293 Pls
3428 293 Pls
3428 293 Pls
3428 293 Pls
3428 293 Pls
3429 293 Pls
3429 293 Pls
3429 293 Pls
3429 293 Pls
3430 293 Pls
3430 293 Pls
3431 293 Pls
3431 293 Pls
3431 293 Pls
3432 293 Pls
3432 293 Pls
3432 293 Pls
3432 293 Pls
3433 293 Pls
3433 293 Pls
3434 293 Pls
3434 293 Pls
3434 293 Pls
3436 293 Pls
3436 293 Pls
3437 293 Pls
3437 293 Pls
3437 293 Pls
3438 293 Pls
3438 293 Pls
3439 293 Pls
3439 293 Pls
3439 293 Pls
3439 293 Pls
3439 293 Pls
3440 293 Pls
3440 293 Pls
3440 293 Pls
3440 293 Pls
3440 293 Pls
3440 293 Pls
3440 293 Pls
3441 293 Pls
3441 293 Pls
3441 293 Pls
3441 293 Pls
3441 293 Pls
3442 293 Pls
3442 293 Pls
3442 293 Pls
3443 293 Pls
3443 293 Pls
3443 293 Pls
3444 293 Pls
3444 293 Pls
3444 293 Pls
3445 293 Pls
3445 293 Pls
3445 293 Pls
3446 293 Pls
3447 293 Pls
3447 293 Pls
3448 293 Pls
3448 293 Pls
3449 293 Pls
3449 293 Pls
3449 293 Pls
3450 293 Pls
3450 293 Pls
3450 293 Pls
3450 293 Pls
3450 293 Pls
3450 293 Pls
3451 293 Pls
3451 293 Pls
3451 293 Pls
3451 293 Pls
3452 293 Pls
3452 293 Pls
3452 293 Pls
3452 293 Pls
3453 293 Pls
3453 293 Pls
3454 293 Pls
3454 293 Pls
3454 293 Pls
3454 293 Pls
3455 293 Pls
3456 293 Pls
3456 293 Pls
3456 293 Pls
3456 293 Pls
3457 293 Pls
3457 293 Pls
3457 292 Pls
3457 292 Pls
3459 292 Pls
3460 292 Pls
3460 292 Pls
3460 292 Pls
3460 292 Pls
3460 292 Pls
3461 292 Pls
3461 292 Pls
3461 292 Pls
3461 292 Pls
3461 292 Pls
3462 292 Pls
3462 292 Pls
3462 292 Pls
3462 292 Pls
3462 292 Pls
3463 292 Pls
3463 292 Pls
3463 292 Pls
3464 292 Pls
3464 292 Pls
3464 292 Pls
3464 292 Pls
3464 292 Pls
3464 292 Pls
3464 292 Pls
3465 292 Pls
3465 292 Pls
3465 292 Pls
3465 292 Pls
3466 292 Pls
3467 292 Pls
3467 292 Pls
3467 292 Pls
3467 292 Pls
3467 292 Pls
3468 292 Pls
3469 292 Pls
3469 292 Pls
3469 292 Pls
3469 292 Pls
3470 292 Pls
3470 292 Pls
3470 292 Pls
3471 292 Pls
3471 292 Pls
3471 292 Pls
3472 292 Pls
3472 292 Pls
3472 292 Pls
3473 292 Pls
3473 292 Pls
3474 292 Pls
3474 292 Pls
3474 292 Pls
3475 292 Pls
3475 292 Pls
3476 292 Pls
3476 292 Pls
3476 292 Pls
3476 292 Pls
3476 292 Pls
3476 292 Pls
3477 292 Pls
3477 292 Pls
3477 292 Pls
3477 292 Pls
3477 292 Pls
3477 292 Pls
3478 292 Pls
3479 292 Pls
3479 292 Pls
3480 292 Pls
3480 292 Pls
3481 292 Pls
3481 292 Pls
3481 292 Pls
3483 292 Pls
3483 292 Pls
3484 292 Pls
3484 292 Pls
3484 292 Pls
3485 292 Pls
3485 292 Pls
3485 292 Pls
3485 292 Pls
3486 292 Pls
3487 292 Pls
3487 292 Pls
3487 292 Pls
3487 292 Pls
3488 292 Pls
3488 292 Pls
3488 292 Pls
3489 292 Pls
3489 292 Pls
3489 292 Pls
3489 292 Pls
3490 292 Pls
3491 292 Pls
3491 292 Pls
3491 292 Pls
3491 292 Pls
3492 292 Pls
3492 292 Pls
3492 292 Pls
3493 292 Pls
3494 292 Pls
3494 292 Pls
3494 292 Pls
3495 292 Pls
3495 292 Pls
3496 292 Pls
3496 292 Pls
3496 292 Pls
3496 292 Pls
3497 292 Pls
3497 292 Pls
3497 292 Pls
3498 292 Pls
3498 292 Pls
3498 292 Pls
3498 292 Pls
3498 292 Pls
3499 292 Pls
3500 292 Pls
3501 292 Pls
3501 292 Pls
3501 292 Pls
3501 292 Pls
3502 292 Pls
3502 292 Pls
3502 292 Pls
3503 292 Pls
3503 292 Pls
3503 292 Pls
3503 292 Pls
3505 292 Pls
3505 292 Pls
3506 292 Pls
3506 292 Pls
3506 292 Pls
3506 292 Pls
3506 292 Pls
3507 292 Pls
3507 292 Pls
3508 292 Pls
3508 292 Pls
3508 292 Pls
3508 292 Pls
3508 292 Pls
3509 292 Pls
3510 292 Pls
3510 292 Pls
3510 292 Pls
3510 292 Pls
3510 292 Pls
3511 292 Pls
3511 292 Pls
3511 292 Pls
3511 292 Pls
3512 292 Pls
3512 291 Pls
3513 291 Pls
3513 291 Pls
3514 291 Pls
3515 291 Pls
3515 291 Pls
3515 291 Pls
3515 291 Pls
3516 291 Pls
3516 291 Pls
3516 291 Pls
3517 291 Pls
3518 291 Pls
3518 291 Pls
3518 291 Pls
3520 291 Pls
3520 291 Pls
3521 291 Pls
3521 291 Pls
3521 291 Pls
3521 291 Pls
3522 291 Pls
3522 291 Pls
3523 291 Pls
3524 291 Pls
3524 291 Pls
3524 291 Pls
3525 291 Pls
3525 291 Pls
3525 291 Pls
3525 291 Pls
3527 291 Pls
3527 291 Pls
3527 291 Pls
3528 291 Pls
3528 291 Pls
3528 291 Pls
3528 291 Pls
3529 291 Pls
3529 291 Pls
3529 291 Pls
3529 291 Pls
3529 291 Pls
3529 291 Pls
3530 291 Pls
3530 291 Pls
3530 291 Pls
3530 291 Pls
3530 291 Pls
3531 291 Pls
3531 291 Pls
3531 291 Pls
3532 291 Pls
3533 291 Pls
3533 291 Pls
3534 291 Pls
3534 291 Pls
3535 291 Pls
3535 291 Pls
3536 291 Pls
3536 291 Pls
3536 291 Pls
3536 291 Pls
3536 291 Pls
3536 291 Pls
3536 291 Pls
3537 291 Pls
3537 291 Pls
3537 291 Pls
3538 291 Pls
3538 291 Pls
3539 291 Pls
3539 291 Pls
3539 291 Pls
3539 291 Pls
3540 291 Pls
3541 291 Pls
3542 291 Pls
3542 291 Pls
3542 291 Pls
3542 291 Pls
3543 291 Pls
3543 291 Pls
3543 291 Pls
3544 291 Pls
3545 291 Pls
3546 291 Pls
3546 291 Pls
3546 291 Pls
3546 291 Pls
3546 291 Pls
3547 291 Pls
3547 291 Pls
3547 291 Pls
3548 291 Pls
3548 291 Pls
3548 291 Pls
3549 291 Pls
3549 291 Pls
3550 291 Pls
3551 291 Pls
3552 291 Pls
3552 291 Pls
3553 291 Pls
3553 291 Pls
3553 291 Pls
3554 291 Pls
3554 291 Pls
3554 291 Pls
3555 291 Pls
3555 291 Pls
3555 291 Pls
3556 291 Pls
3556 291 Pls
3556 291 Pls
3556 291 Pls
3557 291 Pls
3557 291 Pls
3558 291 Pls
3559 291 Pls
3559 291 Pls
3560 291 Pls
3560 291 Pls
3560 291 Pls
3560 291 Pls
3561 291 Pls
3562 291 Pls
3562 291 Pls
3562 291 Pls
3563 291 Pls
3563 291 Pls
3563 291 Pls
3563 291 Pls
3564 291 Pls
3564 291 Pls
3564 291 Pls
3565 291 Pls
3565 291 Pls
3566 291 Pls
3566 291 Pls
3566 291 Pls
3567 291 Pls
3567 291 Pls
3568 291 Pls
3568 291 Pls
3568 291 Pls
3568 291 Pls
3569 291 Pls
3569 291 Pls
3569 291 Pls
3569 291 Pls
3570 291 Pls
3570 291 Pls
3570 291 Pls
3570 291 Pls
3570 291 Pls
3571 291 Pls
3571 291 Pls
3571 291 Pls
3571 291 Pls
3572 291 Pls
3572 291 Pls
3572 291 Pls
3573 291 Pls
3573 291 Pls
3573 291 Pls
3574 291 Pls
3575 291 Pls
3575 291 Pls
3575 290 Pls
3575 290 Pls
3575 290 Pls
3575 290 Pls
3575 290 Pls
3575 290 Pls
3576 290 Pls
3576 290 Pls
3576 290 Pls
3577 290 Pls
3577 290 Pls
3577 290 Pls
3577 290 Pls
3577 290 Pls
3578 290 Pls
3578 290 Pls
3578 290 Pls
3579 290 Pls
3580 290 Pls
3580 290 Pls
3580 290 Pls
3581 290 Pls
3582 290 Pls
3583 290 Pls
3583 290 Pls
3583 290 Pls
3584 290 Pls
3584 290 Pls
3584 290 Pls
3586 290 Pls
3586 290 Pls
3587 290 Pls
3588 290 Pls
3588 290 Pls
3588 290 Pls
3588 290 Pls
3589 290 Pls
3590 290 Pls
3591 290 Pls
3592 290 Pls
3592 290 Pls
3593 290 Pls
3593 290 Pls
3593 290 Pls
3594 290 Pls
3594 290 Pls
3595 290 Pls
3595 290 Pls
3596 290 Pls
3596 290 Pls
3596 290 Pls
3597 290 Pls
3597 290 Pls
3597 290 Pls
3597 290 Pls
3597 290 Pls
3597 290 Pls
3598 290 Pls
3599 290 Pls
3600 290 Pls
3601 290 Pls
3601 290 Pls
3602 290 Pls
3602 290 Pls
3602 290 Pls
3603 290 Pls
3603 290 Pls
3603 290 Pls
3603 290 Pls
3604 290 Pls
3604 290 Pls
3605 290 Pls
3605 290 Pls
3606 290 Pls
3606 290 Pls
3607 290 Pls
3607 290 Pls
3607 290 Pls
3608 290 Pls
3609 290 Pls
3609 290 Pls
3610 290 Pls
3610 290 Pls
3610 290 Pls
3610 290 Pls
3611 290 Pls
3611 290 Pls
3611 290 Pls
3611 290 Pls
3611 290 Pls
3611 290 Pls
3611 290 Pls
3612 290 Pls
3613 290 Pls
3613 290 Pls
3613 290 Pls
3614 290 Pls
3615 290 Pls
3615 290 Pls
3616 290 Pls
3616 290 Pls
3617 290 Pls
3617 290 Pls
3617 290 Pls
3618 290 Pls
3618 290 Pls
3618 290 Pls
3619 290 Pls
3619 290 Pls
3619 290 Pls
3620 290 Pls
3620 290 Pls
3621 290 Pls
3621 290 Pls
3621 290 Pls
3621 290 Pls
3621 290 Pls
3621 290 Pls
3622 290 Pls
3622 290 Pls
3623 290 Pls
3624 290 Pls
3625 290 Pls
3625 290 Pls
3625 290 Pls
3626 290 Pls
3626 290 Pls
3627 290 Pls
3627 290 Pls
3628 290 Pls
3628 290 Pls
3628 290 Pls
3628 290 Pls
3629 290 Pls
3630 290 Pls
3631 290 Pls
3631 290 Pls
3631 290 Pls
3631 290 Pls
3632 290 Pls
3632 290 Pls
3632 290 Pls
3633 290 Pls
3633 290 Pls
3633 290 Pls
3633 290 Pls
3634 290 Pls
3635 290 Pls
3635 290 Pls
3636 290 Pls
3636 290 Pls
3636 290 Pls
3637 290 Pls
3637 290 Pls
3638 290 Pls
3638 290 Pls
3638 290 Pls
3638 290 Pls
3638 290 Pls
3638 290 Pls
3639 290 Pls
3639 290 Pls
3639 290 Pls
3639 290 Pls
3639 290 Pls
3640 290 Pls
3640 290 Pls
3640 290 Pls
3640 290 Pls
3641 290 Pls
3641 290 Pls
3641 290 Pls
3642 290 Pls
3642 290 Pls
3642 290 Pls
3642 290 Pls
3643 290 Pls
3643 290 Pls
3643 289 Pls
3643 289 Pls
3643 289 Pls
3644 289 Pls
3644 289 Pls
3645 289 Pls
3645 289 Pls
3646 289 Pls
3646 289 Pls
3646 289 Pls
3646 289 Pls
3647 289 Pls
3647 289 Pls
3647 289 Pls
3647 289 Pls
3647 289 Pls
3648 289 Pls
3649 289 Pls
3649 289 Pls
3649 289 Pls
3649 289 Pls
3650 289 Pls
3650 289 Pls
3650 289 Pls
3650 289 Pls
3651 289 Pls
3651 289 Pls
3652 289 Pls
3652 289 Pls
3652 289 Pls
3653 289 Pls
3653 289 Pls
3653 289 Pls
3654 289 Pls
3654 289 Pls
3655 289 Pls
3655 289 Pls
3656 289 Pls
3656 289 Pls
3657 289 Pls
3657 289 Pls
3657 289 Pls
3658 289 Pls
3658 289 Pls
3659 289 Pls
3659 289 Pls
3660 289 Pls
3661 289 Pls
3662 289 Pls
3662 289 Pls
3663 289 Pls
3664 289 Pls
3665 289 Pls
3665 289 Pls
3667 289 Pls
3667 289 Pls
3667 289 Pls
3669 289 Pls
3669 289 Pls
3669 289 Pls
3670 289 Pls
3670 289 Pls
3671 289 Pls
3671 289 Pls
3672 289 Pls
3672 289 Pls
3673 289 Pls
3673 289 Pls
3673 289 Pls
3674 289 Pls
3675 289 Pls
3676 289 Pls
3676 289 Pls
3677 289 Pls
3679 289 Pls
3679 289 Pls
3679 289 Pls
3680 289 Pls
3680 289 Pls
3681 289 Pls
3681 289 Pls
3681 289 Pls
3681 289 Pls
3682 289 Pls
3682 289 Pls
3683 289 Pls
3684 289 Pls
3684 289 Pls
3685 289 Pls
3686 289 Pls
3686 289 Pls
3687 289 Pls
3687 289 Pls
3687 289 Pls
3687 289 Pls
3688 289 Pls
3688 289 Pls
3688 289 Pls
3688 289 Pls
3689 289 Pls
3689 289 Pls
3689 289 Pls
3690 289 Pls
3690 289 Pls
3690 289 Pls
3690 289 Pls
3691 289 Pls
3691 289 Pls
3691 289 Pls
3691 289 Pls
3692 289 Pls
3692 289 Pls
3692 289 Pls
3693 289 Pls
3693 289 Pls
3693 289 Pls
3693 289 Pls
3693 289 Pls
3693 289 Pls
3694 289 Pls
3695 289 Pls
3696 289 Pls
3696 289 Pls
3696 289 Pls
3696 289 Pls
3696 289 Pls
3697 289 Pls
3698 289 Pls
3698 289 Pls
3698 289 Pls
3698 289 Pls
3699 289 Pls
3700 289 Pls
3700 289 Pls
3701 289 Pls
3703 289 Pls
3703 289 Pls
3704 289 Pls
3704 289 Pls
3704 289 Pls
3704 289 Pls
3705 289 Pls
3705 289 Pls
3705 289 Pls
3706 289 Pls
3706 289 Pls
3706 289 Pls
3707 289 Pls
3707 289 Pls
3707 289 Pls
3707 289 Pls
3707 289 Pls
3708 289 Pls
3708 289 Pls
3708 289 Pls
3709 289 Pls
3709 289 Pls
3710 289 Pls
3710 289 Pls
3710 289 Pls
3711 289 Pls
3711 289 Pls
3711 289 Pls
3712 289 Pls
3712 289 Pls
3712 289 Pls
3713 289 Pls
3714 289 Pls
3714 289 Pls
3714 289 Pls
3716 289 Pls
3716 289 Pls
3717 288 Pls
3718 288 Pls
3718 288 Pls
3718 288 Pls
3719 288 Pls
3719 288 Pls
3720 288 Pls
3721 288 Pls
3721 288 Pls
3722 288 Pls
3722 288 Pls
3722 288 Pls
3722 288 Pls
3724 288 Pls
3724 288 Pls
3724 288 Pls
3725 288 Pls
3725 288 Pls
3726 288 Pls
3726 288 Pls
3726 288 Pls
3727 288 Pls
3727 288 Pls
3727 288 Pls
3727 288 Pls
3728 288 Pls
3728 288 Pls
3728 288 Pls
3728 288 Pls
3728 288 Pls
3728 288 Pls
3729 288 Pls
3730 288 Pls
3730 288 Pls
3731 288 Pls
3731 288 Pls
3731 288 Pls
3732 288 Pls
3732 288 Pls
3732 288 Pls
3732 288 Pls
3733 288 Pls
3734 288 Pls
3735 288 Pls
3735 288 Pls
3736 288 Pls
3736 288 Pls
3737 288 Pls
3737 288 Pls
3738 288 Pls
3738 288 Pls
3739 288 Pls
3739 288 Pls
3739 288 Pls
3740 288 Pls
3740 288 Pls
3740 288 Pls
3741 288 Pls
3741 288 Pls
3742 288 Pls
3742 288 Pls
3742 288 Pls
3742 288 Pls
3743 288 Pls
3743 288 Pls
3743 288 Pls
3744 288 Pls
3745 288 Pls
3745 288 Pls
3746 288 Pls
3746 288 Pls
3747 288 Pls
3747 288 Pls
3747 288 Pls
3747 288 Pls
3748 288 Pls
3749 288 Pls
3749 288 Pls
3749 288 Pls
3749 288 Pls
3749 288 Pls
3750 288 Pls
3750 288 Pls
3750 288 Pls
3750 288 Pls
3751 288 Pls
3751 288 Pls
3752 288 Pls
3752 288 Pls
3752 288 Pls
3752 288 Pls
3753 288 Pls
3753 288 Pls
3753 288 Pls
3753 288 Pls
3753 288 Pls
3753 288 Pls
3753 288 Pls
3754 288 Pls
3755 288 Pls
3755 288 Pls
3755 288 Pls
3755 288 Pls
3756 288 Pls
3757 288 Pls
3757 288 Pls
3757 288 Pls
3758 288 Pls
3758 288 Pls
3759 288 Pls
3759 288 Pls
3761 288 Pls
3761 288 Pls
3762 288 Pls
3763 288 Pls
3763 288 Pls
3765 288 Pls
3765 288 Pls
3766 288 Pls
3767 288 Pls
3768 288 Pls
3768 288 Pls
3768 288 Pls
3769 288 Pls
3770 288 Pls
3770 288 Pls
3770 288 Pls
3771 288 Pls
3773 288 Pls
3773 288 Pls
3773 288 Pls
3773 288 Pls
3774 288 Pls
3774 288 Pls
3775 288 Pls
3776 288 Pls
3776 288 Pls
3776 288 Pls
3776 288 Pls
3776 288 Pls
3777 288 Pls
3777 288 Pls
3778 288 Pls
3778 288 Pls
3778 288 Pls
3779 288 Pls
3780 288 Pls
3780 288 Pls
3782 288 Pls
3783 288 Pls
3783 288 Pls
3784 288 Pls
3784 288 Pls
3784 288 Pls
3785 288 Pls
3785 288 Pls
3785 288 Pls
3785 288 Pls
3786 288 Pls
3786 288 Pls
3786 288 Pls
3787 288 Pls
3788 288 Pls
3789 288 Pls
3789 288 Pls
3789 288 Pls
3789 288 Pls
3790 288 Pls
3791 288 Pls
3792 288 Pls
3792 288 Pls
3792 288 Pls
3793 288 Pls
3794 288 Pls
3794 288 Pls
3794 288 Pls
3796 288 Pls
3796 288 Pls
3796 288 Pls
3796 288 Pls
3796 288 Pls
3797 288 Pls
3798 288 Pls
3798 287 Pls
3798 287 Pls
3799 287 Pls
3799 287 Pls
3800 287 Pls
3800 287 Pls
3800 287 Pls
3800 287 Pls
3800 287 Pls
3801 287 Pls
3801 287 Pls
3803 287 Pls
3803 287 Pls
3803 287 Pls
3804 287 Pls
3804 287 Pls
3804 287 Pls
3805 287 Pls
3805 287 Pls
3806 287 Pls
3807 287 Pls
3807 287 Pls
3808 287 Pls
3808 287 Pls
3808 287 Pls
3808 287 Pls
3809 287 Pls
3809 287 Pls
3809 287 Pls
3810 287 Pls
3810 287 Pls
3810 287 Pls
3810 287 Pls
3811 287 Pls
3811 287 Pls
3811 287 Pls
3811 287 Pls
3812 287 Pls
3812 287 Pls
3813 287 Pls
3813 287 Pls
3814 287 Pls
3814 287 Pls
3815 287 Pls
3815 287 Pls
3815 287 Pls
3815 287 Pls
3815 287 Pls
3816 287 Pls
3816 287 Pls
3817 287 Pls
3817 287 Pls
3817 287 Pls
3818 287 Pls
3818 287 Pls
3819 287 Pls
3819 287 Pls
3819 287 Pls
3819 287 Pls
3819 287 Pls
3820 287 Pls
3820 287 Pls
3821 287 Pls
3821 287 Pls
3821 287 Pls
3821 287 Pls
3822 287 Pls
3823 287 Pls
3823 287 Pls
3824 287 Pls
3824 287 Pls
3824 287 Pls
3825 287 Pls
3825 287 Pls
3825 287 Pls
3825 287 Pls
3826 287 Pls
3826 287 Pls
3827 287 Pls
3827 287 Pls
3827 287 Pls
3827 287 Pls
3827 287 Pls
3828 287 Pls
3828 287 Pls
3828 287 Pls
3828 287 Pls
3828 287 Pls
3828 287 Pls
3829 287 Pls
3829 287 Pls
3830 287 Pls
3830 287 Pls
3830 287 Pls
3831 287 Pls
3832 287 Pls
3832 287 Pls
3832 287 Pls
3832 287 Pls
3833 287 Pls
3834 287 Pls
3835 287 Pls
3835 287 Pls
3835 287 Pls
3836 287 Pls
3838 287 Pls
3838 287 Pls
3839 287 Pls
3839 287 Pls
3839 287 Pls
3840 287 Pls
3840 287 Pls
3840 287 Pls
3840 287 Pls
3841 287 Pls
3841 287 Pls
3842 287 Pls
3842 287 Pls
3844 287 Pls
3844 287 Pls
3844 287 Pls
3844 287 Pls
3844 287 Pls
3845 287 Pls
3845 287 Pls
3845 287 Pls
3847 287 Pls
3847 287 Pls
3847 287 Pls
3847 287 Pls
3848 287 Pls
3848 287 Pls
3848 287 Pls
3848 287 Pls
3848 287 Pls
3849 287 Pls
3849 287 Pls
3849 287 Pls
3849 287 Pls
3850 287 Pls
3850 287 Pls
3850 287 Pls
3851 287 Pls
3852 287 Pls
3852 287 Pls
3852 287 Pls
3853 287 Pls
3853 287 Pls
3853 287 Pls
3854 287 Pls
3855 287 Pls
3856 287 Pls
3856 287 Pls
3856 287 Pls
3856 287 Pls
3856 287 Pls
3856 287 Pls
3856 287 Pls
3857 287 Pls
3857 287 Pls
3857 287 Pls
3858 287 Pls
3858 287 Pls
3859 287 Pls
3859 287 Pls
3860 287 Pls
3860 287 Pls
3861 287 Pls
3861 287 Pls
3861 287 Pls
3862 287 Pls
3862 287 Pls
3862 287 Pls
3863 287 Pls
3863 287 Pls
3864 287 Pls
3865 287 Pls
3865 287 Pls
3865 287 Pls
3866 287 Pls
3866 287 Pls
3867 287 Pls
3867 286 Pls
3867 286 Pls
3868 286 Pls
3868 286 Pls
3868 286 Pls
3869 286 Pls
3869 286 Pls
3869 286 Pls
3869 286 Pls
3870 286 Pls
3870 286 Pls
3870 286 Pls
3871 286 Pls
3872 286 Pls
3872 286 Pls
3872 286 Pls
3872 286 Pls
3873 286 Pls
3873 286 Pls
3874 286 Pls
3874 286 Pls
3875 286 Pls
3875 286 Pls
3876 286 Pls
3876 286 Pls
3876 286 Pls
3877 286 Pls
3877 286 Pls
3878 286 Pls
3879 286 Pls
3880 286 Pls
3880 286 Pls
3881 286 Pls
3881 286 Pls
3881 286 Pls
3881 286 Pls
3881 286 Pls
3882 286 Pls
3882 286 Pls
3882 286 Pls
3882 286 Pls
3882 286 Pls
3883 286 Pls
3883 286 Pls
3883 286 Pls
3884 286 Pls
3884 286 Pls
3884 286 Pls
3885 286 Pls
3885 286 Pls
3885 286 Pls
3885 286 Pls
3886 286 Pls
3886 286 Pls
3887 286 Pls
3887 286 Pls
3887 286 Pls
3888 286 Pls
3889 286 Pls
3889 286 Pls
3890 286 Pls
3890 286 Pls
3891 286 Pls
3892 286 Pls
3892 286 Pls
3892 286 Pls
3892 286 Pls
3893 286 Pls
3893 286 Pls
3894 286 Pls
3895 286 Pls
3895 286 Pls
3896 286 Pls
3896 286 Pls
3897 286 Pls
3898 286 Pls
3898 286 Pls
3898 286 Pls
3898 286 Pls
3898 286 Pls
3898 286 Pls
3899 286 Pls
3899 286 Pls
3899 286 Pls
3899 286 Pls
3899 286 Pls
3900 286 Pls
3900 286 Pls
3901 286 Pls
3902 286 Pls
3902 286 Pls
3902 286 Pls
3903 286 Pls
3903 286 Pls
3904 286 Pls
3904 286 Pls
3904 286 Pls
3904 286 Pls
3905 286 Pls
3905 286 Pls
3905 286 Pls
3906 286 Pls
3906 286 Pls
3907 286 Pls
3907 286 Pls
3908 286 Pls
3908 286 Pls
3909 286 Pls
3910 286 Pls
3910 286 Pls
3911 286 Pls
3911 286 Pls
3911 286 Pls
3911 286 Pls
3911 286 Pls
3912 286 Pls
3913 286 Pls
3913 286 Pls
3913 286 Pls
3914 286 Pls
3915 286 Pls
3916 286 Pls
3916 286 Pls
3917 286 Pls
3917 286 Pls
3917 286 Pls
3918 286 Pls
3920 286 Pls
3921 286 Pls
3922 286 Pls
3922 286 Pls
3922 286 Pls
3923 286 Pls
3924 286 Pls
3924 286 Pls
3924 286 Pls
3924 286 Pls
3925 286 Pls
3925 286 Pls
3925 286 Pls
3926 286 Pls
3926 286 Pls
3928 286 Pls
3929 286 Pls
3929 286 Pls
3931 286 Pls
3931 286 Pls
3932 286 Pls
3932 286 Pls
3932 286 Pls
3933 286 Pls
3933 286 Pls
3934 286 Pls
3935 286 Pls
3936 286 Pls
3936 286 Pls
3936 286 Pls
3936 286 Pls
3936 286 Pls
3936 286 Pls
3937 286 Pls
3937 286 Pls
3937 286 Pls
3937 286 Pls
3938 286 Pls
3939 286 Pls
3939 286 Pls
3940 286 Pls
3940 286 Pls
3940 286 Pls
3941 286 Pls
3941 286 Pls
3942 286 Pls
3942 286 Pls
3944 286 Pls
3944 286 Pls
3945 286 Pls
3945 286 Pls
3945 286 Pls
3945 286 Pls
3946 286 Pls
3947 286 Pls
3947 285 Pls
3948 285 Pls
3948 285 Pls
3948 285 Pls
3948 285 Pls
3949 285 Pls
3949 285 Pls
3950 285 Pls
3950 285 Pls
3950 285 Pls
3951 285 Pls
3951 285 Pls
3951 285 Pls
3951 285 Pls
3952 285 Pls
3952 285 Pls
3952 285 Pls
3952 285 Pls
3953 285 Pls
3955 285 Pls
3956 285 Pls
3956 285 Pls
3956 285 Pls
3956 285 Pls
3957 285 Pls
3957 285 Pls
3957 285 Pls
3958 285 Pls
3958 285 Pls
3959 285 Pls
3960 285 Pls
3960 285 Pls
3961 285 Pls
3961 285 Pls
3961 285 Pls
3962 285 Pls
3963 285 Pls
3963 285 Pls
3964 285 Pls
3964 285 Pls
3964 285 Pls
3964 285 Pls
3965 285 Pls
3965 285 Pls
3965 285 Pls
3965 285 Pls
3966 285 Pls
3967 285 Pls
3968 285 Pls
3968 285 Pls
3969 285 Pls
3969 285 Pls
3970 285 Pls
3970 285 Pls
3971 285 Pls
3971 285 Pls
3973 285 Pls
3973 285 Pls
3973 285 Pls
3973 285 Pls
3974 285 Pls
3974 285 Pls
3975 285 Pls
3975 285 Pls
3976 285 Pls
3976 285 Pls
3977 285 Pls
3977 285 Pls
3978 285 Pls
3978 285 Pls
3979 285 Pls
3979 285 Pls
3979 285 Pls
3980 285 Pls
3980 285 Pls
3980 285 Pls
3980 285 Pls
3980 285 Pls
3981 285 Pls
3982 285 Pls
3982 285 Pls
3983 285 Pls
3984 285 Pls
3985 285 Pls
3985 285 Pls
3985 285 Pls
3986 285 Pls
3987 285 Pls
3987 285 Pls
3987 285 Pls
3987 285 Pls
3987 285 Pls
3988 285 Pls
3990 285 Pls
3991 285 Pls
3992 285 Pls
3992 285 Pls
3993 285 Pls
3993 285 Pls
3994 285 Pls
3996 285 Pls
3996 285 Pls
3997 285 Pls
3997 285 Pls
3997 285 Pls
4000 285 Pls
4000 285 Pls
4001 285 Pls
4002 285 Pls
4002 285 Pls
4003 285 Pls
4003 285 Pls
4003 285 Pls
4004 285 Pls
4005 285 Pls
4006 285 Pls
4007 285 Pls
4008 285 Pls
4009 285 Pls
4010 285 Pls
4010 285 Pls
4011 285 Pls
4011 285 Pls
4011 285 Pls
4012 285 Pls
4012 285 Pls
4012 285 Pls
4013 285 Pls
4013 285 Pls
4014 285 Pls
4014 285 Pls
4014 285 Pls
4015 285 Pls
4016 285 Pls
4017 285 Pls
4017 285 Pls
4017 285 Pls
4017 285 Pls
4017 285 Pls
4018 285 Pls
4018 285 Pls
4019 285 Pls
4020 285 Pls
4020 285 Pls
4020 285 Pls
4021 285 Pls
4021 285 Pls
4022 285 Pls
4022 285 Pls
4022 285 Pls
4024 285 Pls
4024 285 Pls
4025 285 Pls
4027 285 Pls
4027 285 Pls
4028 285 Pls
4028 285 Pls
4029 285 Pls
4029 285 Pls
4030 285 Pls
4030 285 Pls
4030 285 Pls
4031 285 Pls
4032 285 Pls
4032 285 Pls
4033 285 Pls
4034 285 Pls
4034 285 Pls
4034 285 Pls
4035 285 Pls
4035 285 Pls
4037 285 Pls
4037 285 Pls
4038 285 Pls
4038 285 Pls
4038 285 Pls
4038 285 Pls
4039 285 Pls
4039 285 Pls
4040 285 Pls
4042 285 Pls
4042 285 Pls
4042 285 Pls
4042 285 Pls
4042 285 Pls
4043 284 Pls
4043 284 Pls
4043 284 Pls
4043 284 Pls
4044 284 Pls
4044 284 Pls
4044 284 Pls
4044 284 Pls
4044 284 Pls
4044 284 Pls
4044 284 Pls
4044 284 Pls
4044 284 Pls
4045 284 Pls
4045 284 Pls
4045 284 Pls
4045 284 Pls
4045 284 Pls
4046 284 Pls
4046 284 Pls
4046 284 Pls
4047 284 Pls
4047 284 Pls
4047 284 Pls
4047 284 Pls
4047 284 Pls
4047 284 Pls
4047 284 Pls
4048 284 Pls
4048 284 Pls
4048 284 Pls
4048 284 Pls
4048 284 Pls
4048 284 Pls
4048 284 Pls
4048 284 Pls
4048 284 Pls
4048 284 Pls
4049 284 Pls
4049 284 Pls
4049 284 Pls
4049 284 Pls
4049 284 Pls
4049 284 Pls
4049 284 Pls
4050 284 Pls
4050 284 Pls
4050 284 Pls
4050 284 Pls
4050 284 Pls
4050 284 Pls
4050 284 Pls
4051 284 Pls
4051 284 Pls
4051 284 Pls
4051 284 Pls
4051 284 Pls
4051 284 Pls
4052 284 Pls
4052 284 Pls
4052 284 Pls
4052 284 Pls
4052 284 Pls
4052 284 Pls
4052 284 Pls
4053 284 Pls
4053 284 Pls
4053 284 Pls
4053 284 Pls
4053 284 Pls
4053 284 Pls
4053 284 Pls
4054 284 Pls
4054 284 Pls
4054 284 Pls
4054 284 Pls
4054 284 Pls
4054 284 Pls
4054 284 Pls
4054 284 Pls
4054 284 Pls
4054 284 Pls
4054 284 Pls
4054 284 Pls
4055 284 Pls
4055 284 Pls
4055 284 Pls
4055 284 Pls
4055 284 Pls
4055 284 Pls
4055 284 Pls
4055 284 Pls
4055 284 Pls
4056 284 Pls
4056 284 Pls
4056 284 Pls
4056 284 Pls
4056 284 Pls
4056 284 Pls
4056 284 Pls
4056 284 Pls
4056 284 Pls
4057 284 Pls
4057 284 Pls
4057 284 Pls
4057 284 Pls
4057 284 Pls
4058 284 Pls
4058 284 Pls
4058 284 Pls
4058 284 Pls
4058 284 Pls
4058 284 Pls
4059 284 Pls
4059 284 Pls
4059 284 Pls
4059 284 Pls
4059 284 Pls
4059 284 Pls
4059 284 Pls
4059 284 Pls
4059 284 Pls
4060 284 Pls
4060 284 Pls
4060 284 Pls
4060 284 Pls
4061 284 Pls
4061 284 Pls
4061 284 Pls
4061 284 Pls
4061 284 Pls
4062 284 Pls
4062 284 Pls
4062 284 Pls
4062 284 Pls
4062 284 Pls
4062 284 Pls
4063 284 Pls
4063 284 Pls
4064 284 Pls
4064 284 Pls
4064 284 Pls
4064 284 Pls
4064 284 Pls
4064 284 Pls
4065 284 Pls
4065 284 Pls
4065 284 Pls
4065 284 Pls
4065 284 Pls
4065 284 Pls
4066 284 Pls
4066 284 Pls
4066 284 Pls
4066 284 Pls
4066 284 Pls
4066 284 Pls
4066 284 Pls
4066 284 Pls
4067 284 Pls
4067 284 Pls
4067 284 Pls
4067 284 Pls
4067 284 Pls
4068 284 Pls
4068 284 Pls
4069 284 Pls
4069 284 Pls
4069 284 Pls
4069 284 Pls
4069 284 Pls
4069 284 Pls
4070 284 Pls
4070 284 Pls
4070 284 Pls
4071 284 Pls
4072 284 Pls
4072 284 Pls
4072 284 Pls
4073 284 Pls
4073 284 Pls
4074 284 Pls
4074 284 Pls
4074 283 Pls
4074 283 Pls
4075 283 Pls
4075 283 Pls
4075 283 Pls
4077 283 Pls
4077 283 Pls
4077 283 Pls
4077 283 Pls
4078 283 Pls
4079 283 Pls
4079 283 Pls
4080 283 Pls
4080 283 Pls
4080 283 Pls
4080 283 Pls
4081 283 Pls
4081 283 Pls
4081 283 Pls
4083 283 Pls
4083 283 Pls
4084 283 Pls
4084 283 Pls
4085 283 Pls
4085 283 Pls
4086 283 Pls
4087 283 Pls
4087 283 Pls
4087 283 Pls
4088 283 Pls
4088 283 Pls
4088 283 Pls
4089 283 Pls
4090 283 Pls
4090 283 Pls
4090 283 Pls
4091 283 Pls
4092 283 Pls
4092 283 Pls
4093 283 Pls
4094 283 Pls
4094 283 Pls
4095 283 Pls
4096 283 Pls
4096 283 Pls
4097 283 Pls
4098 283 Pls
4098 283 Pls
4099 283 Pls
4100 283 Pls
4101 283 Pls
4101 283 Pls
4101 283 Pls
4103 283 Pls
4103 283 Pls
4104 283 Pls
4105 283 Pls
4106 283 Pls
4106 283 Pls
4107 283 Pls
4107 283 Pls
4108 283 Pls
4108 283 Pls
4108 283 Pls
4108 283 Pls
4114 283 Pls
4115 283 Pls
4117 283 Pls
4117 283 Pls
4117 283 Pls
4118 283 Pls
4119 283 Pls
4121 283 Pls
4121 283 Pls
4122 283 Pls
4122 283 Pls
4123 283 Pls
4123 283 Pls
4124 283 Pls
4125 283 Pls
4125 283 Pls
4126 283 Pls
4126 283 Pls
4126 283 Pls
4127 283 Pls
4127 283 Pls
4127 283 Pls
4128 283 Pls
4128 283 Pls
4129 283 Pls
4130 283 Pls
4130 283 Pls
4130 283 Pls
4130 283 Pls
4131 283 Pls
4132 283 Pls
4132 283 Pls
4133 283 Pls
4133 283 Pls
4134 283 Pls
4137 283 Pls
4138 283 Pls
4138 283 Pls
4139 283 Pls
4140 283 Pls
4141 283 Pls
4141 283 Pls
4145 283 Pls
4147 283 Pls
4147 283 Pls
4148 283 Pls
4149 283 Pls
4151 283 Pls
4152 283 Pls
4152 283 Pls
4152 283 Pls
4153 283 Pls
4153 283 Pls
4154 283 Pls
4156 283 Pls
4158 283 Pls
4158 283 Pls
4159 283 Pls
4161 283 Pls
4162 283 Pls
4164 283 Pls
4166 283 Pls
4166 283 Pls
4167 283 Pls
4167 283 Pls
4168 283 Pls
4168 283 Pls
4169 283 Pls
4171 283 Pls
4171 283 Pls
4171 283 Pls
4172 283 Pls
4172 283 Pls
4173 283 Pls
4173 283 Pls
4173 283 Pls
4173 283 Pls
4174 283 Pls
4175 283 Pls
4175 283 Pls
4175 283 Pls
4175 283 Pls
4177 283 Pls
4179 283 Pls
4180 283 Pls
4180 283 Pls
4181 283 Pls
4181 283 Pls
4182 283 Pls
4182 283 Pls
4182 283 Pls
4182 283 Pls
4183 283 Pls
4183 283 Pls
4183 283 Pls
4183 283 Pls
4185 283 Pls
4187 283 Pls
4188 283 Pls
4189 283 Pls
4192 283 Pls
4192 283 Pls
4192 283 Pls
4193 283 Pls
4193 283 Pls
4193 283 Pls
4195 283 Pls
4199 283 Pls
4199 283 Pls
4201 283 Pls
4201 283 Pls
4202 283 Pls
4203 283 Pls
4204 283 Pls
4204 283 Pls
4205 283 Pls
4207 283 Pls
4207 283 Pls
4208 283 Pls
4210 282 Pls
4211 282 Pls
4212 282 Pls
4212 282 Pls
4212 282 Pls
4213 282 Pls
4213 282 Pls
4215 282 Pls
4215 282 Pls
4216 282 Pls
4216 282 Pls
4216 282 Pls
4217 282 Pls
4218 282 Pls
4219 282 Pls
4220 282 Pls
4220 282 Pls
4221 282 Pls
4224 282 Pls
4225 282 Pls
4227 282 Pls
4230 282 Pls
4230 282 Pls
4230 282 Pls
4231 282 Pls
4231 282 Pls
4231 282 Pls
4231 282 Pls
4233 282 Pls
4234 282 Pls
4235 282 Pls
4237 282 Pls
4237 282 Pls
4240 282 Pls
4240 282 Pls
4241 282 Pls
4242 282 Pls
4242 282 Pls
4243 282 Pls
4245 282 Pls
4246 282 Pls
4248 282 Pls
4251 282 Pls
4252 282 Pls
4253 282 Pls
4253 282 Pls
4256 282 Pls
4257 282 Pls
4258 282 Pls
4258 282 Pls
4259 282 Pls
4260 282 Pls
4260 282 Pls
4261 282 Pls
4261 282 Pls
4261 282 Pls
4263 282 Pls
4263 282 Pls
4264 282 Pls
4265 282 Pls
4265 282 Pls
4265 282 Pls
4267 282 Pls
4267 282 Pls
4268 282 Pls
4268 282 Pls
4268 282 Pls
4268 282 Pls
4269 282 Pls
4270 282 Pls
4270 282 Pls
4270 282 Pls
4271 282 Pls
4271 282 Pls
4272 282 Pls
4273 282 Pls
4273 282 Pls
4274 282 Pls
4277 282 Pls
4278 282 Pls
4281 282 Pls
4281 282 Pls
4282 282 Pls
4283 282 Pls
4284 282 Pls
4285 282 Pls
4285 282 Pls
4286 282 Pls
4288 282 Pls
4289 282 Pls
4290 282 Pls
4295 282 Pls
4295 282 Pls
4297 282 Pls
4298 282 Pls
4298 282 Pls
4300 282 Pls
4301 282 Pls
4301 282 Pls
4302 282 Pls
4302 282 Pls
4305 282 Pls
4306 282 Pls
4309 282 Pls
4311 282 Pls
4312 282 Pls
4313 282 Pls
4315 282 Pls
4317 282 Pls
4317 282 Pls
4317 282 Pls
4317 282 Pls
4319 282 Pls
4320 282 Pls
4320 282 Pls
4320 282 Pls
4321 282 Pls
4326 282 Pls
4329 282 Pls
4332 282 Pls
4332 282 Pls
4333 282 Pls
4335 282 Pls
4336 282 Pls
4337 282 Pls
4338 282 Pls
4339 282 Pls
4340 282 Pls
4341 282 Pls
4341 282 Pls
4344 282 Pls
4344 282 Pls
4347 282 Pls
4348 282 Pls
4348 282 Pls
4348 282 Pls
4349 282 Pls
4350 282 Pls
4353 282 Pls
4356 282 Pls
4356 282 Pls
4357 282 Pls
4357 282 Pls
4357 282 Pls
4359 282 Pls
4360 282 Pls
4360 282 Pls
4360 282 Pls
4361 282 Pls
4362 282 Pls
4363 282 Pls
4364 282 Pls
4365 282 Pls
4366 282 Pls
4369 282 Pls
4372 282 Pls
4373 282 Pls
4373 282 Pls
4373 282 Pls
4373 282 Pls
4374 282 Pls
4374 282 Pls
4376 282 Pls
4381 282 Pls
4381 282 Pls
4389 282 Pls
4389 282 Pls
4390 282 Pls
4391 282 Pls
4391 282 Pls
4392 282 Pls
4398 282 Pls
4401 282 Pls
4403 282 Pls
4403 282 Pls
4405 282 Pls
4406 282 Pls
4407 282 Pls
4408 282 Pls
4410 282 Pls
4414 282 Pls
4414 282 Pls
4414 282 Pls
4417 282 Pls
4421 282 Pls
4424 282 Pls
4427 282 Pls
4430 281 Pls
4430 281 Pls
4432 281 Pls
4434 281 Pls
4434 281 Pls
4435 281 Pls
4437 281 Pls
4438 281 Pls
4441 281 Pls
4441 281 Pls
4442 281 Pls
4443 281 Pls
4443 281 Pls
4445 281 Pls
4447 281 Pls
4449 281 Pls
4449 281 Pls
4450 281 Pls
4450 281 Pls
4454 281 Pls
4455 281 Pls
4456 281 Pls
4457 281 Pls
4461 281 Pls
4465 281 Pls
4465 281 Pls
4466 281 Pls
4467 281 Pls
4471 281 Pls
4472 281 Pls
4475 281 Pls
4476 281 Pls
4477 281 Pls
4478 281 Pls
4479 281 Pls
4481 281 Pls
4484 281 Pls
4484 281 Pls
4488 281 Pls
4488 281 Pls
4489 281 Pls
4491 281 Pls
4493 281 Pls
4500 281 Pls
4501 281 Pls
4502 281 Pls
4503 281 Pls
4505 281 Pls
4506 281 Pls
4507 281 Pls
4508 281 Pls
4510 281 Pls
4518 281 Pls
4523 281 Pls
4523 281 Pls
4524 281 Pls
4525 281 Pls
4526 281 Pls
4526 281 Pls
4527 281 Pls
4529 281 Pls
4530 281 Pls
4530 281 Pls
4531 281 Pls
4537 281 Pls
4540 281 Pls
4542 281 Pls
4543 281 Pls
4543 281 Pls
4544 281 Pls
4545 281 Pls
4546 281 Pls
4547 281 Pls
4550 281 Pls
4552 281 Pls
4553 281 Pls
4554 281 Pls
4556 281 Pls
4557 281 Pls
4557 281 Pls
4557 281 Pls
4565 281 Pls
4568 281 Pls
4571 281 Pls
4571 281 Pls
4576 281 Pls
4579 281 Pls
4582 281 Pls
4585 281 Pls
4588 281 Pls
4592 281 Pls
4593 281 Pls
4596 281 Pls
4597 281 Pls
4598 281 Pls
4598 281 Pls
4601 281 Pls
4604 281 Pls
4605 281 Pls
4607 281 Pls
4608 281 Pls
4610 281 Pls
4613 281 Pls
4615 281 Pls
4616 281 Pls
4623 281 Pls
4624 281 Pls
4625 281 Pls
4627 281 Pls
4629 281 Pls
4629 281 Pls
4629 281 Pls
4632 281 Pls
4632 281 Pls
4633 281 Pls
4633 281 Pls
4638 281 Pls
4639 281 Pls
4641 281 Pls
4641 281 Pls
4642 281 Pls
4643 281 Pls
4643 281 Pls
4644 281 Pls
4646 281 Pls
4647 281 Pls
4647 281 Pls
4647 281 Pls
4652 281 Pls
4653 281 Pls
4654 281 Pls
4663 281 Pls
4667 281 Pls
4669 281 Pls
4669 281 Pls
4674 281 Pls
4674 281 Pls
4678 281 Pls
4678 281 Pls
4682 281 Pls
4686 281 Pls
4687 281 Pls
4689 281 Pls
4689 281 Pls
4690 281 Pls
4691 281 Pls
4697 281 Pls
4700 281 Pls
4708 281 Pls
4710 281 Pls
4712 281 Pls
4714 281 Pls
4714 281 Pls
4715 281 Pls
4721 281 Pls
4730 281 Pls
4731 281 Pls
4732 281 Pls
4735 281 Pls
4736 281 Pls
4736 281 Pls
4736 281 Pls
4740 281 Pls
4740 281 Pls
4740 281 Pls
4744 281 Pls
4746 281 Pls
4755 281 Pls
4756 281 Pls
4757 281 Pls
4757 281 Pls
4759 281 Pls
4761 281 Pls
4763 281 Pls
4763 281 Pls
4768 281 Pls
4769 281 Pls
4771 281 Pls
4778 281 Pls
4778 281 Pls
4779 281 Pls
4780 281 Pls
4786 281 Pls
4792 281 Pls
4797 281 Pls
4804 281 Pls
4809 280 Pls
4812 280 Pls
4820 280 Pls
4822 280 Pls
4822 280 Pls
4822 280 Pls
4824 280 Pls
4827 280 Pls
4830 280 Pls
4837 280 Pls
4840 280 Pls
4842 280 Pls
4851 280 Pls
4853 280 Pls
4854 280 Pls
4865 280 Pls
4867 280 Pls
4867 280 Pls
4869 280 Pls
4873 280 Pls
4874 280 Pls
4875 280 Pls
4879 280 Pls
4879 280 Pls
4886 280 Pls
4891 280 Pls
4892 280 Pls
4899 280 Pls
4908 280 Pls
4908 280 Pls
4909 280 Pls
4912 280 Pls
4918 280 Pls
4920 280 Pls
4921 280 Pls
4936 280 Pls
4952 280 Pls
4975 280 Pls
4977 280 Pls
4979 280 Pls
4995 280 Pls
5006 280 Pls
5007 280 Pls
5007 280 Pls
5007 280 Pls
5016 280 Pls
5048 280 Pls
5051 280 Pls
5056 280 Pls
5085 280 Pls
5090 280 Pls
5121 280 Pls
5124 280 Pls
5125 280 Pls
5138 280 Pls
5153 280 Pls
5164 280 Pls
5193 280 Pls
5194 280 Pls
5207 280 Pls
5218 280 Pls
5228 280 Pls
5239 280 Pls
5240 280 Pls
5254 280 Pls
5260 280 Pls
5274 280 Pls
5276 280 Pls
5293 280 Pls
5300 280 Pls
5332 280 Pls
5336 280 Pls
5341 280 Pls
5414 280 Pls
5414 280 Pls
5414 280 Pls
5423 280 Pls
5438 280 Pls
5454 280 Pls
5460 280 Pls
5494 280 Pls
5514 280 Pls
5535 280 Pls
5550 280 Pls
5641 280 Pls
5751 280 Pls
5768 280 Pls
5786 280 Pls
5846 280 Pls
5936 280 Pls
6009 280 Pls
6031 280 Pls
6353 280 Pls
% End plot #1
2.000 UL
LTb
LCb setrgbcolor
1.000 UL
LTB
LCb setrgbcolor
546 4871 N
546 280 L
6401 0 V
0 4591 V
-6401 0 V
Z stroke
1.000 UP
1.000 UL
LTb
LCb setrgbcolor
stroke
grestore
end
showpage
%%Trailer
%%DocumentFonts: Helvetica
%%Pages: 1
